   1.012863671    
  0.8355511580    
  0.6520221818    
  0.4783863964    
  0.3261090259    
  0.2046817700    
  0.1180929712    
  0.6257097381E-01
  0.3034782921E-01
  0.1350038541E-01
  0.5618496678E-02
  0.2270295083E-02
  0.9109068524E-03
  0.3501817550E-03
  0.1228951667E-03
  0.3906200644E-04
  0.3031173186E-04
  0.5128402484E-04
  0.4338618750E-04
  0.3104668052E-05
  0.2389487839E-04
  0.6688374478E-05
  0.2209891160E-04
  0.7224525272E-05
  0.7579516438E-05
  0.1033684441E-04
  0.6172649115E-05
