   1129053.282    
   448594.6383    
   132994.4299    
   32877.73344    
   7996.368938    
   1622.983980    
   860.6050592    
   1798.220689    
   2287.737878    
   4524.140472    
   496.7477463    
   925.1171883    
   301.3824720    
   76.65470754    
   85.47666127    
   11.00981464    
   7.295331064    
   3.383234922    
  0.9072076062    
  0.2243327360    
  0.6146814754E-01
  0.1575675039E-01
  0.3240614068E-02
  0.9007124661E-03
  0.1085036229E-04
  0.6972755318E-04
  0.8416630112E-04
  0.2226606512E-05
  0.3126395723E-04
  0.2605915233E-04
  0.1040190386E-04
  0.8296401575E-05
  0.5320583568E-05
  0.3313327397E-05
  0.2563096814E-05
  0.2014118309E-05
  0.1284235623E-05
  0.1391338628E-05
  0.1257139957E-06
  0.1775479177E-06
  0.1791522209E-05
  0.5231318028E-06
  0.4897037797E-06
  0.7581991213E-06
  0.1740365860E-06
  0.3935406312E-07
  0.2734850568E-08
