   23461.12707    
   2252.165625    
   1069.968803    
   1107.039352    
   974.9268765    
   965.0994482    
   952.0604968    
   944.9874698    
   794.3905614    
   31.71489716    
   17.94894685    
   2.590719313    
   1.363499131    
   1.227850074    
  0.1607555918    
  0.7413269355E-01
  0.1964201061E-01
  0.5847167206E-02
  0.3517946160E-02
  0.6241364721E-03
  0.2749081998E-03
  0.9265304512E-04
  0.3461192630E-03
  0.5603921912E-04
  0.1964073749E-03
  0.3741781076E-04
  0.4723219548E-03
  0.1387084312E-03
  0.3644376697E-04
  0.1545725724E-03
  0.9474555115E-05
  0.1624892014E-04
  0.1343591726E-04
  0.4686233056E-04
  0.1500856808E-03
  0.4495064782E-04
  0.5388514904E-04
  0.4592618339E-04
  0.1589362516E-03
  0.2946966320E-03
  0.2379420397E-04
  0.2695175433E-04
  0.5473278549E-04
  0.2111592916E-04
  0.1742531374E-03
  0.2195819224E-04
  0.1521522997E-04
