   297 : nkpt; k-point, vkl, wkpt, nmat below
     1   0.000000000       0.000000000       0.000000000      0.2035416243E-03     515
     2  0.5882352941E-01   0.000000000       0.000000000      0.1221249746E-02     513
     3  0.1176470588       0.000000000       0.000000000      0.1221249746E-02     514
     4  0.1764705882       0.000000000       0.000000000      0.1221249746E-02     508
     5  0.2352941176       0.000000000       0.000000000      0.1221249746E-02     504
     6  0.2941176471       0.000000000       0.000000000      0.1221249746E-02     496
     7  0.3529411765       0.000000000       0.000000000      0.1221249746E-02     500
     8  0.4117647059       0.000000000       0.000000000      0.1221249746E-02     492
     9  0.4705882353       0.000000000       0.000000000      0.1221249746E-02     494
    10  0.5882352941E-01  0.5882352941E-01   0.000000000      0.1221249746E-02     509
    11  0.1176470588      0.5882352941E-01   0.000000000      0.2442499491E-02     511
    12  0.1764705882      0.5882352941E-01   0.000000000      0.2442499491E-02     509
    13  0.2352941176      0.5882352941E-01   0.000000000      0.2442499491E-02     504
    14  0.2941176471      0.5882352941E-01   0.000000000      0.2442499491E-02     500
    15  0.3529411765      0.5882352941E-01   0.000000000      0.2442499491E-02     498
    16  0.4117647059      0.5882352941E-01   0.000000000      0.2442499491E-02     497
    17  0.4705882353      0.5882352941E-01   0.000000000      0.1221249746E-02     496
    18  0.1176470588      0.1176470588       0.000000000      0.1221249746E-02     513
    19  0.1764705882      0.1176470588       0.000000000      0.2442499491E-02     509
    20  0.2352941176      0.1176470588       0.000000000      0.2442499491E-02     505
    21  0.2941176471      0.1176470588       0.000000000      0.2442499491E-02     502
    22  0.3529411765      0.1176470588       0.000000000      0.2442499491E-02     497
    23  0.4117647059      0.1176470588       0.000000000      0.2442499491E-02     492
    24  0.1764705882      0.1764705882       0.000000000      0.1221249746E-02     513
    25  0.2352941176      0.1764705882       0.000000000      0.2442499491E-02     503
    26  0.2941176471      0.1764705882       0.000000000      0.2442499491E-02     497
    27  0.3529411765      0.1764705882       0.000000000      0.2442499491E-02     492
    28  0.4117647059      0.1764705882       0.000000000      0.1221249746E-02     492
    29  0.2352941176      0.2352941176       0.000000000      0.1221249746E-02     504
    30  0.2941176471      0.2352941176       0.000000000      0.2442499491E-02     500
    31  0.3529411765      0.2352941176       0.000000000      0.2442499491E-02     491
    32  0.2941176471      0.2941176471       0.000000000      0.1221249746E-02     500
    33  0.3529411765      0.2941176471       0.000000000      0.1221249746E-02     498
    34   0.000000000       0.000000000      0.5882352941E-01  0.4070832485E-03     515
    35  0.5882352941E-01   0.000000000      0.5882352941E-01  0.2442499491E-02     508
    36  0.1176470588       0.000000000      0.5882352941E-01  0.2442499491E-02     507
    37  0.1764705882       0.000000000      0.5882352941E-01  0.2442499491E-02     509
    38  0.2352941176       0.000000000      0.5882352941E-01  0.2442499491E-02     504
    39  0.2941176471       0.000000000      0.5882352941E-01  0.2442499491E-02     502
    40  0.3529411765       0.000000000      0.5882352941E-01  0.2442499491E-02     500
    41  0.4117647059       0.000000000      0.5882352941E-01  0.2442499491E-02     494
    42  0.4705882353       0.000000000      0.5882352941E-01  0.2442499491E-02     494
    43  0.5882352941E-01  0.5882352941E-01  0.5882352941E-01  0.2442499491E-02     509
    44  0.1176470588      0.5882352941E-01  0.5882352941E-01  0.4884998982E-02     510
    45  0.1764705882      0.5882352941E-01  0.5882352941E-01  0.4884998982E-02     510
    46  0.2352941176      0.5882352941E-01  0.5882352941E-01  0.4884998982E-02     503
    47  0.2941176471      0.5882352941E-01  0.5882352941E-01  0.4884998982E-02     500
    48  0.3529411765      0.5882352941E-01  0.5882352941E-01  0.4884998982E-02     498
    49  0.4117647059      0.5882352941E-01  0.5882352941E-01  0.4884998982E-02     494
    50  0.4705882353      0.5882352941E-01  0.5882352941E-01  0.2442499491E-02     495
    51  0.1176470588      0.1176470588      0.5882352941E-01  0.2442499491E-02     515
    52  0.1764705882      0.1176470588      0.5882352941E-01  0.4884998982E-02     508
    53  0.2352941176      0.1176470588      0.5882352941E-01  0.4884998982E-02     504
    54  0.2941176471      0.1176470588      0.5882352941E-01  0.4884998982E-02     501
    55  0.3529411765      0.1176470588      0.5882352941E-01  0.4884998982E-02     496
    56  0.4117647059      0.1176470588      0.5882352941E-01  0.4884998982E-02     493
    57  0.1764705882      0.1764705882      0.5882352941E-01  0.2442499491E-02     508
    58  0.2352941176      0.1764705882      0.5882352941E-01  0.4884998982E-02     504
    59  0.2941176471      0.1764705882      0.5882352941E-01  0.4884998982E-02     496
    60  0.3529411765      0.1764705882      0.5882352941E-01  0.4884998982E-02     493
    61  0.4117647059      0.1764705882      0.5882352941E-01  0.2442499491E-02     494
    62  0.2352941176      0.2352941176      0.5882352941E-01  0.2442499491E-02     496
    63  0.2941176471      0.2352941176      0.5882352941E-01  0.4884998982E-02     497
    64  0.3529411765      0.2352941176      0.5882352941E-01  0.4884998982E-02     494
    65  0.2941176471      0.2941176471      0.5882352941E-01  0.2442499491E-02     495
    66  0.3529411765      0.2941176471      0.5882352941E-01  0.2442499491E-02     496
    67   0.000000000       0.000000000      0.1176470588      0.4070832485E-03     503
    68  0.5882352941E-01   0.000000000      0.1176470588      0.2442499491E-02     507
    69  0.1176470588       0.000000000      0.1176470588      0.2442499491E-02     507
    70  0.1764705882       0.000000000      0.1176470588      0.2442499491E-02     509
    71  0.2352941176       0.000000000      0.1176470588      0.2442499491E-02     509
    72  0.2941176471       0.000000000      0.1176470588      0.2442499491E-02     501
    73  0.3529411765       0.000000000      0.1176470588      0.2442499491E-02     500
    74  0.4117647059       0.000000000      0.1176470588      0.2442499491E-02     501
    75  0.4705882353       0.000000000      0.1176470588      0.2442499491E-02     495
    76  0.5882352941E-01  0.5882352941E-01  0.1176470588      0.2442499491E-02     505
    77  0.1176470588      0.5882352941E-01  0.1176470588      0.4884998982E-02     509
    78  0.1764705882      0.5882352941E-01  0.1176470588      0.4884998982E-02     508
    79  0.2352941176      0.5882352941E-01  0.1176470588      0.4884998982E-02     507
    80  0.2941176471      0.5882352941E-01  0.1176470588      0.4884998982E-02     500
    81  0.3529411765      0.5882352941E-01  0.1176470588      0.4884998982E-02     499
    82  0.4117647059      0.5882352941E-01  0.1176470588      0.4884998982E-02     495
    83  0.4705882353      0.5882352941E-01  0.1176470588      0.2442499491E-02     497
    84  0.1176470588      0.1176470588      0.1176470588      0.2442499491E-02     509
    85  0.1764705882      0.1176470588      0.1176470588      0.4884998982E-02     508
    86  0.2352941176      0.1176470588      0.1176470588      0.4884998982E-02     505
    87  0.2941176471      0.1176470588      0.1176470588      0.4884998982E-02     501
    88  0.3529411765      0.1176470588      0.1176470588      0.4884998982E-02     495
    89  0.4117647059      0.1176470588      0.1176470588      0.4884998982E-02     495
    90  0.1764705882      0.1764705882      0.1176470588      0.2442499491E-02     506
    91  0.2352941176      0.1764705882      0.1176470588      0.4884998982E-02     501
    92  0.2941176471      0.1764705882      0.1176470588      0.4884998982E-02     497
    93  0.3529411765      0.1764705882      0.1176470588      0.4884998982E-02     494
    94  0.4117647059      0.1764705882      0.1176470588      0.2442499491E-02     493
    95  0.2352941176      0.2352941176      0.1176470588      0.2442499491E-02     496
    96  0.2941176471      0.2352941176      0.1176470588      0.4884998982E-02     497
    97  0.3529411765      0.2352941176      0.1176470588      0.4884998982E-02     493
    98  0.2941176471      0.2941176471      0.1176470588      0.2442499491E-02     493
    99  0.3529411765      0.2941176471      0.1176470588      0.2442499491E-02     496
   100   0.000000000       0.000000000      0.1764705882      0.4070832485E-03     503
   101  0.5882352941E-01   0.000000000      0.1764705882      0.2442499491E-02     504
   102  0.1176470588       0.000000000      0.1764705882      0.2442499491E-02     506
   103  0.1764705882       0.000000000      0.1764705882      0.2442499491E-02     506
   104  0.2352941176       0.000000000      0.1764705882      0.2442499491E-02     507
   105  0.2941176471       0.000000000      0.1764705882      0.2442499491E-02     503
   106  0.3529411765       0.000000000      0.1764705882      0.2442499491E-02     499
   107  0.4117647059       0.000000000      0.1764705882      0.2442499491E-02     499
   108  0.4705882353       0.000000000      0.1764705882      0.2442499491E-02     497
   109  0.5882352941E-01  0.5882352941E-01  0.1764705882      0.2442499491E-02     505
   110  0.1176470588      0.5882352941E-01  0.1764705882      0.4884998982E-02     507
   111  0.1764705882      0.5882352941E-01  0.1764705882      0.4884998982E-02     505
   112  0.2352941176      0.5882352941E-01  0.1764705882      0.4884998982E-02     504
   113  0.2941176471      0.5882352941E-01  0.1764705882      0.4884998982E-02     502
   114  0.3529411765      0.5882352941E-01  0.1764705882      0.4884998982E-02     499
   115  0.4117647059      0.5882352941E-01  0.1764705882      0.4884998982E-02     497
   116  0.4705882353      0.5882352941E-01  0.1764705882      0.2442499491E-02     494
   117  0.1176470588      0.1176470588      0.1764705882      0.2442499491E-02     507
   118  0.1764705882      0.1176470588      0.1764705882      0.4884998982E-02     507
   119  0.2352941176      0.1176470588      0.1764705882      0.4884998982E-02     503
   120  0.2941176471      0.1176470588      0.1764705882      0.4884998982E-02     499
   121  0.3529411765      0.1176470588      0.1764705882      0.4884998982E-02     497
   122  0.4117647059      0.1176470588      0.1764705882      0.4884998982E-02     496
   123  0.1764705882      0.1764705882      0.1764705882      0.2442499491E-02     504
   124  0.2352941176      0.1764705882      0.1764705882      0.4884998982E-02     502
   125  0.2941176471      0.1764705882      0.1764705882      0.4884998982E-02     500
   126  0.3529411765      0.1764705882      0.1764705882      0.4884998982E-02     494
   127  0.4117647059      0.1764705882      0.1764705882      0.2442499491E-02     489
   128  0.2352941176      0.2352941176      0.1764705882      0.2442499491E-02     500
   129  0.2941176471      0.2352941176      0.1764705882      0.4884998982E-02     495
   130  0.3529411765      0.2352941176      0.1764705882      0.4884998982E-02     496
   131  0.2941176471      0.2941176471      0.1764705882      0.2442499491E-02     497
   132  0.3529411765      0.2941176471      0.1764705882      0.2442499491E-02     494
   133   0.000000000       0.000000000      0.2352941176      0.4070832485E-03     515
   134  0.5882352941E-01   0.000000000      0.2352941176      0.2442499491E-02     505
   135  0.1176470588       0.000000000      0.2352941176      0.2442499491E-02     504
   136  0.1764705882       0.000000000      0.2352941176      0.2442499491E-02     500
   137  0.2352941176       0.000000000      0.2352941176      0.2442499491E-02     502
   138  0.2941176471       0.000000000      0.2352941176      0.2442499491E-02     503
   139  0.3529411765       0.000000000      0.2352941176      0.2442499491E-02     504
   140  0.4117647059       0.000000000      0.2352941176      0.2442499491E-02     500
   141  0.4705882353       0.000000000      0.2352941176      0.2442499491E-02     498
   142  0.5882352941E-01  0.5882352941E-01  0.2352941176      0.2442499491E-02     505
   143  0.1176470588      0.5882352941E-01  0.2352941176      0.4884998982E-02     506
   144  0.1764705882      0.5882352941E-01  0.2352941176      0.4884998982E-02     504
   145  0.2352941176      0.5882352941E-01  0.2352941176      0.4884998982E-02     500
   146  0.2941176471      0.5882352941E-01  0.2352941176      0.4884998982E-02     502
   147  0.3529411765      0.5882352941E-01  0.2352941176      0.4884998982E-02     501
   148  0.4117647059      0.5882352941E-01  0.2352941176      0.4884998982E-02     497
   149  0.4705882353      0.5882352941E-01  0.2352941176      0.2442499491E-02     495
   150  0.1176470588      0.1176470588      0.2352941176      0.2442499491E-02     504
   151  0.1764705882      0.1176470588      0.2352941176      0.4884998982E-02     505
   152  0.2352941176      0.1176470588      0.2352941176      0.4884998982E-02     501
   153  0.2941176471      0.1176470588      0.2352941176      0.4884998982E-02     499
   154  0.3529411765      0.1176470588      0.2352941176      0.4884998982E-02     498
   155  0.4117647059      0.1176470588      0.2352941176      0.4884998982E-02     495
   156  0.1764705882      0.1764705882      0.2352941176      0.2442499491E-02     503
   157  0.2352941176      0.1764705882      0.2352941176      0.4884998982E-02     502
   158  0.2941176471      0.1764705882      0.2352941176      0.4884998982E-02     499
   159  0.3529411765      0.1764705882      0.2352941176      0.4884998982E-02     497
   160  0.4117647059      0.1764705882      0.2352941176      0.2442499491E-02     495
   161  0.2352941176      0.2352941176      0.2352941176      0.2442499491E-02     500
   162  0.2941176471      0.2352941176      0.2352941176      0.4884998982E-02     499
   163  0.3529411765      0.2352941176      0.2352941176      0.4884998982E-02     495
   164  0.2941176471      0.2941176471      0.2352941176      0.2442499491E-02     495
   165  0.3529411765      0.2941176471      0.2352941176      0.2442499491E-02     494
   166   0.000000000       0.000000000      0.2941176471      0.4070832485E-03     509
   167  0.5882352941E-01   0.000000000      0.2941176471      0.2442499491E-02     507
   168  0.1176470588       0.000000000      0.2941176471      0.2442499491E-02     503
   169  0.1764705882       0.000000000      0.2941176471      0.2442499491E-02     500
   170  0.2352941176       0.000000000      0.2941176471      0.2442499491E-02     501
   171  0.2941176471       0.000000000      0.2941176471      0.2442499491E-02     504
   172  0.3529411765       0.000000000      0.2941176471      0.2442499491E-02     505
   173  0.4117647059       0.000000000      0.2941176471      0.2442499491E-02     501
   174  0.4705882353       0.000000000      0.2941176471      0.2442499491E-02     497
   175  0.5882352941E-01  0.5882352941E-01  0.2941176471      0.2442499491E-02     503
   176  0.1176470588      0.5882352941E-01  0.2941176471      0.4884998982E-02     503
   177  0.1764705882      0.5882352941E-01  0.2941176471      0.4884998982E-02     502
   178  0.2352941176      0.5882352941E-01  0.2941176471      0.4884998982E-02     504
   179  0.2941176471      0.5882352941E-01  0.2941176471      0.4884998982E-02     501
   180  0.3529411765      0.5882352941E-01  0.2941176471      0.4884998982E-02     500
   181  0.4117647059      0.5882352941E-01  0.2941176471      0.4884998982E-02     498
   182  0.4705882353      0.5882352941E-01  0.2941176471      0.2442499491E-02     498
   183  0.1176470588      0.1176470588      0.2941176471      0.2442499491E-02     502
   184  0.1764705882      0.1176470588      0.2941176471      0.4884998982E-02     504
   185  0.2352941176      0.1176470588      0.2941176471      0.4884998982E-02     500
   186  0.2941176471      0.1176470588      0.2941176471      0.4884998982E-02     498
   187  0.3529411765      0.1176470588      0.2941176471      0.4884998982E-02     499
   188  0.4117647059      0.1176470588      0.2941176471      0.4884998982E-02     496
   189  0.1764705882      0.1764705882      0.2941176471      0.2442499491E-02     499
   190  0.2352941176      0.1764705882      0.2941176471      0.4884998982E-02     499
   191  0.2941176471      0.1764705882      0.2941176471      0.4884998982E-02     499
   192  0.3529411765      0.1764705882      0.2941176471      0.4884998982E-02     496
   193  0.4117647059      0.1764705882      0.2941176471      0.2442499491E-02     493
   194  0.2352941176      0.2352941176      0.2941176471      0.2442499491E-02     499
   195  0.2941176471      0.2352941176      0.2941176471      0.4884998982E-02     496
   196  0.3529411765      0.2352941176      0.2941176471      0.4884998982E-02     496
   197  0.2941176471      0.2941176471      0.2941176471      0.2442499491E-02     493
   198  0.3529411765      0.2941176471      0.2941176471      0.2442499491E-02     493
   199   0.000000000       0.000000000      0.3529411765      0.4070832485E-03     509
   200  0.5882352941E-01   0.000000000      0.3529411765      0.2442499491E-02     508
   201  0.1176470588       0.000000000      0.3529411765      0.2442499491E-02     505
   202  0.1764705882       0.000000000      0.3529411765      0.2442499491E-02     499
   203  0.2352941176       0.000000000      0.3529411765      0.2442499491E-02     501
   204  0.2941176471       0.000000000      0.3529411765      0.2442499491E-02     502
   205  0.3529411765       0.000000000      0.3529411765      0.2442499491E-02     503
   206  0.4117647059       0.000000000      0.3529411765      0.2442499491E-02     500
   207  0.4705882353       0.000000000      0.3529411765      0.2442499491E-02     496
   208  0.5882352941E-01  0.5882352941E-01  0.3529411765      0.2442499491E-02     504
   209  0.1176470588      0.5882352941E-01  0.3529411765      0.4884998982E-02     501
   210  0.1764705882      0.5882352941E-01  0.3529411765      0.4884998982E-02     501
   211  0.2352941176      0.5882352941E-01  0.3529411765      0.4884998982E-02     503
   212  0.2941176471      0.5882352941E-01  0.3529411765      0.4884998982E-02     504
   213  0.3529411765      0.5882352941E-01  0.3529411765      0.4884998982E-02     499
   214  0.4117647059      0.5882352941E-01  0.3529411765      0.4884998982E-02     498
   215  0.4705882353      0.5882352941E-01  0.3529411765      0.2442499491E-02     496
   216  0.1176470588      0.1176470588      0.3529411765      0.2442499491E-02     497
   217  0.1764705882      0.1176470588      0.3529411765      0.4884998982E-02     503
   218  0.2352941176      0.1176470588      0.3529411765      0.4884998982E-02     501
   219  0.2941176471      0.1176470588      0.3529411765      0.4884998982E-02     498
   220  0.3529411765      0.1176470588      0.3529411765      0.4884998982E-02     498
   221  0.4117647059      0.1176470588      0.3529411765      0.4884998982E-02     497
   222  0.1764705882      0.1764705882      0.3529411765      0.2442499491E-02     501
   223  0.2352941176      0.1764705882      0.3529411765      0.4884998982E-02     498
   224  0.2941176471      0.1764705882      0.3529411765      0.4884998982E-02     500
   225  0.3529411765      0.1764705882      0.3529411765      0.4884998982E-02     495
   226  0.4117647059      0.1764705882      0.3529411765      0.2442499491E-02     497
   227  0.2352941176      0.2352941176      0.3529411765      0.2442499491E-02     502
   228  0.2941176471      0.2352941176      0.3529411765      0.4884998982E-02     494
   229  0.3529411765      0.2352941176      0.3529411765      0.4884998982E-02     495
   230  0.2941176471      0.2941176471      0.3529411765      0.2442499491E-02     495
   231  0.3529411765      0.2941176471      0.3529411765      0.2442499491E-02     497
   232   0.000000000       0.000000000      0.4117647059      0.4070832485E-03     508
   233  0.5882352941E-01   0.000000000      0.4117647059      0.2442499491E-02     510
   234  0.1176470588       0.000000000      0.4117647059      0.2442499491E-02     506
   235  0.1764705882       0.000000000      0.4117647059      0.2442499491E-02     500
   236  0.2352941176       0.000000000      0.4117647059      0.2442499491E-02     501
   237  0.2941176471       0.000000000      0.4117647059      0.2442499491E-02     502
   238  0.3529411765       0.000000000      0.4117647059      0.2442499491E-02     498
   239  0.4117647059       0.000000000      0.4117647059      0.2442499491E-02     498
   240  0.4705882353       0.000000000      0.4117647059      0.2442499491E-02     494
   241  0.5882352941E-01  0.5882352941E-01  0.4117647059      0.2442499491E-02     501
   242  0.1176470588      0.5882352941E-01  0.4117647059      0.4884998982E-02     499
   243  0.1764705882      0.5882352941E-01  0.4117647059      0.4884998982E-02     499
   244  0.2352941176      0.5882352941E-01  0.4117647059      0.4884998982E-02     501
   245  0.2941176471      0.5882352941E-01  0.4117647059      0.4884998982E-02     501
   246  0.3529411765      0.5882352941E-01  0.4117647059      0.4884998982E-02     498
   247  0.4117647059      0.5882352941E-01  0.4117647059      0.4884998982E-02     498
   248  0.4705882353      0.5882352941E-01  0.4117647059      0.2442499491E-02     496
   249  0.1176470588      0.1176470588      0.4117647059      0.2442499491E-02     496
   250  0.1764705882      0.1176470588      0.4117647059      0.4884998982E-02     497
   251  0.2352941176      0.1176470588      0.4117647059      0.4884998982E-02     499
   252  0.2941176471      0.1176470588      0.4117647059      0.4884998982E-02     500
   253  0.3529411765      0.1176470588      0.4117647059      0.4884998982E-02     500
   254  0.4117647059      0.1176470588      0.4117647059      0.4884998982E-02     497
   255  0.1764705882      0.1764705882      0.4117647059      0.2442499491E-02     502
   256  0.2352941176      0.1764705882      0.4117647059      0.4884998982E-02     499
   257  0.2941176471      0.1764705882      0.4117647059      0.4884998982E-02     501
   258  0.3529411765      0.1764705882      0.4117647059      0.4884998982E-02     497
   259  0.4117647059      0.1764705882      0.4117647059      0.2442499491E-02     495
   260  0.2352941176      0.2352941176      0.4117647059      0.2442499491E-02     502
   261  0.2941176471      0.2352941176      0.4117647059      0.4884998982E-02     496
   262  0.3529411765      0.2352941176      0.4117647059      0.4884998982E-02     496
   263  0.2941176471      0.2941176471      0.4117647059      0.2442499491E-02     497
   264  0.3529411765      0.2941176471      0.4117647059      0.2442499491E-02     499
   265   0.000000000       0.000000000      0.4705882353      0.4070832485E-03     502
   266  0.5882352941E-01   0.000000000      0.4705882353      0.2442499491E-02     506
   267  0.1176470588       0.000000000      0.4705882353      0.2442499491E-02     504
   268  0.1764705882       0.000000000      0.4705882353      0.2442499491E-02     498
   269  0.2352941176       0.000000000      0.4705882353      0.2442499491E-02     498
   270  0.2941176471       0.000000000      0.4705882353      0.2442499491E-02     501
   271  0.3529411765       0.000000000      0.4705882353      0.2442499491E-02     499
   272  0.4117647059       0.000000000      0.4705882353      0.2442499491E-02     494
   273  0.4705882353       0.000000000      0.4705882353      0.2442499491E-02     496
   274  0.5882352941E-01  0.5882352941E-01  0.4705882353      0.2442499491E-02     502
   275  0.1176470588      0.5882352941E-01  0.4705882353      0.4884998982E-02     499
   276  0.1764705882      0.5882352941E-01  0.4705882353      0.4884998982E-02     499
   277  0.2352941176      0.5882352941E-01  0.4705882353      0.4884998982E-02     498
   278  0.2941176471      0.5882352941E-01  0.4705882353      0.4884998982E-02     500
   279  0.3529411765      0.5882352941E-01  0.4705882353      0.4884998982E-02     497
   280  0.4117647059      0.5882352941E-01  0.4705882353      0.4884998982E-02     497
   281  0.4705882353      0.5882352941E-01  0.4705882353      0.2442499491E-02     496
   282  0.1176470588      0.1176470588      0.4705882353      0.2442499491E-02     500
   283  0.1764705882      0.1176470588      0.4705882353      0.4884998982E-02     498
   284  0.2352941176      0.1176470588      0.4705882353      0.4884998982E-02     502
   285  0.2941176471      0.1176470588      0.4705882353      0.4884998982E-02     502
   286  0.3529411765      0.1176470588      0.4705882353      0.4884998982E-02     503
   287  0.4117647059      0.1176470588      0.4705882353      0.4884998982E-02     498
   288  0.1764705882      0.1764705882      0.4705882353      0.2442499491E-02     500
   289  0.2352941176      0.1764705882      0.4705882353      0.4884998982E-02     502
   290  0.2941176471      0.1764705882      0.4705882353      0.4884998982E-02     499
   291  0.3529411765      0.1764705882      0.4705882353      0.4884998982E-02     497
   292  0.4117647059      0.1764705882      0.4705882353      0.2442499491E-02     498
   293  0.2352941176      0.2352941176      0.4705882353      0.2442499491E-02     502
   294  0.2941176471      0.2352941176      0.4705882353      0.4884998982E-02     497
   295  0.3529411765      0.2352941176      0.4705882353      0.4884998982E-02     497
   296  0.2941176471      0.2941176471      0.4705882353      0.2442499491E-02     498
   297  0.3529411765      0.2941176471      0.4705882353      0.2442499491E-02     499
