    0.228013121744E-02
    0.739748643527E-03
    0.105244024615E-02
    0.542114590178E-03
    0.899713357705E-03
    0.123000107974E-02
    0.130347049602E-02
    0.128717010786E-02
    0.128829119342E-02
    0.129024280319E-02
    0.129920643211E-02
    0.129520661575E-02
    0.131195581531E-02
    0.128932318024E-02
    0.130237054231E-02
    0.130376622922E-02
    0.130324963856E-02
    0.130301174383E-02
    0.130280863580E-02
    0.130273533198E-02
    0.130268106082E-02
    0.130267141907E-02
    0.130264556896E-02
    0.130266092846E-02
    0.130262891634E-02
    0.130265160109E-02
    0.130264437189E-02
    0.130264332846E-02
    0.130264331740E-02
    0.130264340709E-02
    0.130264340140E-02
    0.130264337975E-02
    0.130264333114E-02
    0.130264327746E-02
    0.130264324609E-02
    0.130264321252E-02
    0.130264320380E-02
