 
+----------------------------+
| Real-space lattice vectors |
+----------------------------+
 
vector a1 :    4.389722466      -2.534407448       0.000000000    
vector a2 :    0.000000000       5.068814895       0.000000000    
vector a3 :    0.000000000       0.000000000       8.458171691    
 
Stored column-wise as a matrix :
   4.389722466       0.000000000       0.000000000    
  -2.534407448       5.068814895       0.000000000    
   0.000000000       0.000000000       8.458171691    
 
Inverse of matrix :
  0.2278048345       0.000000000       0.000000000    
  0.1139024173      0.1972847738       0.000000000    
   0.000000000       0.000000000      0.1182288604    
 
Unit cell volume :    188.2001615    
 
 
+----------------------------------+
| Reciprocal-space lattice vectors |
+----------------------------------+
 
vector b1 :    1.431339989       0.000000000       0.000000000    
vector b2 :   0.7156699946       1.239576792       0.000000000    
vector b3 :    0.000000000       0.000000000      0.7428538385    
 
Stored column-wise as a matrix :
   1.431339989      0.7156699946       0.000000000    
   0.000000000       1.239576792       0.000000000    
   0.000000000       0.000000000      0.7428538385    
 
Inverse of matrix :
  0.6986460293     -0.4033634731       0.000000000    
   0.000000000      0.8067269462       0.000000000    
   0.000000000       0.000000000       1.346159834    
 
Brillouin zone volume :    1.318012755    
