   4.853526283    
   15.27084040    
   109.4257076    
   107.6815691    
   61.08159851    
   28.98383276    
   6.991417490    
   1.762880025    
  0.4195953815    
  0.1038901243    
  0.2710196020E-01
  0.5972276507E-02
  0.1462269247E-02
  0.1471855001E-02
  0.6765208600E-03
  0.1814382995E-03
  0.2104700689E-03
  0.6378955004E-04
  0.5008134031E-04
  0.4685367458E-04
  0.5875772331E-05
  0.1761894964E-04
  0.3049868974E-04
  0.2187224163E-04
  0.1110643643E-04
  0.2825108822E-06
  0.4648427421E-05
  0.5318826879E-05
  0.5823487299E-05
  0.5159192369E-05
  0.2135995601E-05
  0.7448470569E-06
  0.1207044988E-05
  0.3414825187E-06
  0.3838067641E-06
  0.1838561730E-06
  0.3296590876E-06
  0.2185843186E-06
  0.2519664122E-07
  0.3710374585E-06
  0.1953230822E-06
  0.3335517249E-06
  0.7611379260E-07
  0.2498054528E-06
  0.5537949619E-06
  0.5189504009E-06
  0.4210596671E-06
  0.2999222488E-06
  0.3729001037E-06
  0.4685061867E-06
  0.2165470505E-06
  0.4135508789E-06
  0.9182986105E-07
  0.1774242264E-06
  0.3593668225E-06
  0.2968736226E-06
  0.1221051207E-06
  0.2259912435E-06
  0.2706583473E-06
  0.3716122592E-06
  0.3805398592E-06
  0.1094012987E-06
  0.2673259587E-06
  0.3945533535E-06
  0.2560191206E-06
  0.1191365300E-06
  0.3762906999E-06
  0.4470712156E-06
  0.2118395059E-06
  0.2700253390E-06
  0.4193498171E-06
  0.2480592229E-06
  0.2469314495E-06
  0.2723099897E-06
  0.2433298505E-06
  0.3676832421E-06
  0.2951346687E-06
  0.3146851668E-06
  0.7377821021E-07
  0.3538807505E-06
  0.2564629540E-06
  0.2435190254E-06
  0.4015819286E-06
  0.1353109838E-06
  0.2853266778E-06
  0.5242836778E-06
  0.2890883479E-06
  0.3651439329E-06
  0.1729640644E-06
  0.3175373422E-06
  0.3707755241E-06
  0.5533074727E-06
  0.4739849828E-06
  0.3041204764E-06
  0.1859298209E-06
  0.4729081411E-06
  0.2053275239E-06
  0.1973166945E-06
  0.2445740392E-06
  0.3279274097E-06
  0.3779132385E-06
  0.4199464456E-06
  0.2309388947E-06
  0.2262022463E-06
  0.3609602572E-06
  0.2698579920E-06
  0.3332606866E-06
  0.2677697921E-06
  0.3148597898E-06
  0.7596099749E-08
