   1.207713525    
   1.141304805    
  0.6299073344    
  0.2380889523    
  0.6825800085E-01
  0.2430909723E-02
  0.7627230136E-03
  0.2255432156E-03
  0.6623735318E-04
  0.3751120004E-04
  0.4405710559E-04
  0.4457566514E-04
  0.9930508135E-04
  0.1895635832E-04
  0.5015475766E-04
  0.1639328078E-04
  0.1497398981E-04
  0.2757559080E-05
  0.1278890917E-04
  0.6656659606E-04
  0.2251403673E-04
  0.2341362733E-04
  0.3543040872E-04
  0.1256991238E-04
  0.3411027278E-04
  0.2207675398E-04
  0.2097968369E-04
  0.4380656031E-04
  0.3024911173E-04
  0.5479259710E-05
  0.1565065393E-04
  0.2722632095E-04
  0.3430930936E-05
  0.2155933213E-04
  0.2593350851E-04
  0.7690874450E-04
  0.1879078147E-04
  0.1780036098E-04
  0.2185156481E-04
  0.3431558420E-05
  0.4877496548E-05
  0.1231115830E-03
  0.7394211470E-05
  0.1688146305E-04
  0.3879529653E-04
  0.2636189974E-04
  0.1109184970E-04
  0.1528938496E-04
  0.1435756249E-04
  0.1505227148E-04
  0.2101239193E-04
  0.1384031420E-04
  0.3844967839E-04
  0.1441480010E-04
  0.2404176783E-04
  0.1534516326E-04
  0.6249489029E-04
  0.4498722995E-05
  0.1372265801E-04
  0.5037740174E-04
  0.3720596536E-04
  0.1344084354E-04
  0.1462241518E-04
  0.1993078700E-04
  0.1019076881E-03
  0.8991844690E-05
  0.1316433103E-04
  0.3609257714E-04
  0.3958683548E-05
  0.3857163018E-04
  0.1059390595E-03
  0.2396547418E-04
  0.2835034728E-05
  0.1070012381E-04
  0.3150561131E-04
  0.1808870753E-04
  0.4980821964E-04
  0.2053795912E-04
  0.8341689946E-05
  0.2808166451E-04
  0.6253350661E-05
  0.2827604743E-04
  0.2634863560E-04
  0.3286943118E-04
  0.1312825970E-04
  0.3524584179E-05
  0.1943985189E-05
  0.2875965213E-04
  0.1993755909E-04
  0.9982524778E-04
  0.1295773065E-04
  0.3492472229E-05
  0.3261195559E-04
  0.7490083302E-05
  0.5501182673E-04
  0.1176120414E-05
  0.2707474507E-05
  0.5555070980E-04
  0.4339626363E-05
  0.6222696113E-05
  0.1421150364E-04
  0.2359456381E-05
  0.1462168801E-04
  0.1294063339E-04
  0.7904052251E-05
  0.2665148683E-04
  0.2909570132E-04
  0.3688592938E-04
  0.1103759544E-04
  0.5030600955E-05
