   56.35317227    
   56.72552671    
   53.24339908    
   52.95733348    
   58.47604663    
   58.39324333    
   57.46295623    
   57.09428817    
   56.80312579    
   56.80925185    
   56.80166692    
   56.81307819    
   56.81009070    
   56.81223202    
   56.81401859    
   56.81136854    
   56.81278894    
   56.81281748    
   56.81273398    
   56.81205037    
   56.81210987    
   56.81214681    
   56.81219876    
   56.81224290    
   56.81247537    
   56.81237185    
   56.81231797    
   56.81231046    
   56.81227463    
   56.81227007    
   56.81226359    
   56.81226910    
   56.81226717    
   56.81227374    
   56.81226195    
   56.81226381    
   56.81225407    
   56.81224874    
   56.81224389    
   56.81224257    
   56.81224592    
   56.81225030    
   56.81225068    
   56.81225014    
   56.81224730    
   56.81224551    
   56.81224471    
   56.81224401    
   56.81224394    
   56.81224360    
   56.81224391    
   56.81224350    
   56.81224352    
   56.81224341    
   56.81224336    
   56.81224333    
