  0.9984339021    
  0.8220413351    
  0.6423420163    
  0.4742751178    
  0.3259562371    
  0.2063775782    
  0.1200239438    
  0.6407242263E-01
  0.3133973610E-01
  0.1407722919E-01
  0.5906478388E-02
  0.2391602061E-02
  0.9520851100E-03
  0.3626482132E-03
  0.1264985460E-03
  0.3826168190E-04
  0.8289405413E-04
  0.1064151039E-04
  0.2270091359E-04
  0.6574462515E-05
  0.6627935925E-05
  0.1800708905E-04
  0.9642223811E-05
  0.3464895620E-05
  0.6612251025E-05
  0.9583024061E-06
