   165 : nkpt; k-point, vkl, wkpt, nmat below
     1   0.000000000       0.000000000       0.000000000      0.2035416243E-03     569
     2  0.5882352941E-01   0.000000000       0.000000000      0.1628332994E-02     569
     3  0.1176470588       0.000000000       0.000000000      0.1628332994E-02     575
     4  0.1764705882       0.000000000       0.000000000      0.1628332994E-02     575
     5  0.2352941176       0.000000000       0.000000000      0.1628332994E-02     575
     6  0.2941176471       0.000000000       0.000000000      0.1628332994E-02     566
     7  0.3529411765       0.000000000       0.000000000      0.1628332994E-02     572
     8  0.4117647059       0.000000000       0.000000000      0.1628332994E-02     577
     9  0.4705882353       0.000000000       0.000000000      0.1628332994E-02     574
    10  0.5882352941E-01  0.5882352941E-01   0.000000000      0.1221249746E-02     577
    11  0.1176470588      0.5882352941E-01   0.000000000      0.4884998982E-02     572
    12  0.1764705882      0.5882352941E-01   0.000000000      0.4884998982E-02     574
    13  0.2352941176      0.5882352941E-01   0.000000000      0.4884998982E-02     579
    14  0.2941176471      0.5882352941E-01   0.000000000      0.4884998982E-02     573
    15  0.3529411765      0.5882352941E-01   0.000000000      0.4884998982E-02     567
    16  0.4117647059      0.5882352941E-01   0.000000000      0.4884998982E-02     564
    17  0.4705882353      0.5882352941E-01   0.000000000      0.4884998982E-02     566
    18  0.5294117647      0.5882352941E-01   0.000000000      0.4884998982E-02     565
    19  0.5882352941      0.5882352941E-01   0.000000000      0.4884998982E-02     565
    20  0.6470588235      0.5882352941E-01   0.000000000      0.4884998982E-02     567
    21  0.7058823529      0.5882352941E-01   0.000000000      0.4884998982E-02     569
    22  0.7647058824      0.5882352941E-01   0.000000000      0.4884998982E-02     576
    23  0.8235294118      0.5882352941E-01   0.000000000      0.4884998982E-02     577
    24  0.8823529412      0.5882352941E-01   0.000000000      0.4884998982E-02     573
    25  0.9411764706      0.5882352941E-01   0.000000000      0.2442499491E-02     571
    26  0.1176470588      0.1176470588       0.000000000      0.1221249746E-02     569
    27  0.1764705882      0.1176470588       0.000000000      0.4884998982E-02     574
    28  0.2352941176      0.1176470588       0.000000000      0.4884998982E-02     574
    29  0.2941176471      0.1176470588       0.000000000      0.4884998982E-02     569
    30  0.3529411765      0.1176470588       0.000000000      0.4884998982E-02     566
    31  0.4117647059      0.1176470588       0.000000000      0.4884998982E-02     565
    32  0.4705882353      0.1176470588       0.000000000      0.4884998982E-02     561
    33  0.5294117647      0.1176470588       0.000000000      0.4884998982E-02     563
    34  0.5882352941      0.1176470588       0.000000000      0.4884998982E-02     561
    35  0.6470588235      0.1176470588       0.000000000      0.4884998982E-02     560
    36  0.7058823529      0.1176470588       0.000000000      0.4884998982E-02     563
    37  0.7647058824      0.1176470588       0.000000000      0.4884998982E-02     571
    38  0.8235294118      0.1176470588       0.000000000      0.4884998982E-02     575
    39  0.8823529412      0.1176470588       0.000000000      0.2442499491E-02     579
    40  0.1764705882      0.1764705882       0.000000000      0.1221249746E-02     573
    41  0.2352941176      0.1764705882       0.000000000      0.4884998982E-02     572
    42  0.2941176471      0.1764705882       0.000000000      0.4884998982E-02     570
    43  0.3529411765      0.1764705882       0.000000000      0.4884998982E-02     563
    44  0.4117647059      0.1764705882       0.000000000      0.4884998982E-02     564
    45  0.4705882353      0.1764705882       0.000000000      0.4884998982E-02     559
    46  0.5294117647      0.1764705882       0.000000000      0.4884998982E-02     564
    47  0.5882352941      0.1764705882       0.000000000      0.4884998982E-02     564
    48  0.6470588235      0.1764705882       0.000000000      0.4884998982E-02     558
    49  0.7058823529      0.1764705882       0.000000000      0.4884998982E-02     567
    50  0.7647058824      0.1764705882       0.000000000      0.4884998982E-02     567
    51  0.8235294118      0.1764705882       0.000000000      0.2442499491E-02     567
    52  0.2352941176      0.2352941176       0.000000000      0.1221249746E-02     566
    53  0.2941176471      0.2352941176       0.000000000      0.4884998982E-02     570
    54  0.3529411765      0.2352941176       0.000000000      0.4884998982E-02     563
    55  0.4117647059      0.2352941176       0.000000000      0.4884998982E-02     566
    56  0.4705882353      0.2352941176       0.000000000      0.4884998982E-02     563
    57  0.5294117647      0.2352941176       0.000000000      0.4884998982E-02     565
    58  0.5882352941      0.2352941176       0.000000000      0.4884998982E-02     565
    59  0.6470588235      0.2352941176       0.000000000      0.4884998982E-02     560
    60  0.7058823529      0.2352941176       0.000000000      0.4884998982E-02     560
    61  0.7647058824      0.2352941176       0.000000000      0.2442499491E-02     561
    62  0.2941176471      0.2941176471       0.000000000      0.1221249746E-02     566
    63  0.3529411765      0.2941176471       0.000000000      0.4884998982E-02     562
    64  0.4117647059      0.2941176471       0.000000000      0.4884998982E-02     566
    65  0.4705882353      0.2941176471       0.000000000      0.4884998982E-02     568
    66  0.5294117647      0.2941176471       0.000000000      0.4884998982E-02     563
    67  0.5882352941      0.2941176471       0.000000000      0.4884998982E-02     565
    68  0.6470588235      0.2941176471       0.000000000      0.4884998982E-02     562
    69  0.7058823529      0.2941176471       0.000000000      0.2442499491E-02     569
    70  0.3529411765      0.3529411765       0.000000000      0.1221249746E-02     558
    71  0.4117647059      0.3529411765       0.000000000      0.4884998982E-02     563
    72  0.4705882353      0.3529411765       0.000000000      0.4884998982E-02     566
    73  0.5294117647      0.3529411765       0.000000000      0.4884998982E-02     567
    74  0.5882352941      0.3529411765       0.000000000      0.4884998982E-02     561
    75  0.6470588235      0.3529411765       0.000000000      0.2442499491E-02     562
    76  0.4117647059      0.4117647059       0.000000000      0.1221249746E-02     562
    77  0.4705882353      0.4117647059       0.000000000      0.4884998982E-02     565
    78  0.5294117647      0.4117647059       0.000000000      0.4884998982E-02     567
    79  0.5882352941      0.4117647059       0.000000000      0.2442499491E-02     568
    80  0.4705882353      0.4705882353       0.000000000      0.1221249746E-02     562
    81  0.5294117647      0.4705882353       0.000000000      0.2442499491E-02     568
    82  0.1764705882      0.1176470588      0.5882352941E-01  0.4884998982E-02     573
    83  0.2352941176      0.1176470588      0.5882352941E-01  0.9769997965E-02     574
    84  0.2941176471      0.1176470588      0.5882352941E-01  0.9769997965E-02     574
    85  0.3529411765      0.1176470588      0.5882352941E-01  0.9769997965E-02     569
    86  0.4117647059      0.1176470588      0.5882352941E-01  0.9769997965E-02     564
    87  0.4705882353      0.1176470588      0.5882352941E-01  0.9769997965E-02     561
    88  0.5294117647      0.1176470588      0.5882352941E-01  0.9769997965E-02     567
    89  0.2352941176      0.1764705882      0.5882352941E-01  0.4884998982E-02     575
    90  0.2941176471      0.1764705882      0.5882352941E-01  0.9769997965E-02     573
    91  0.3529411765      0.1764705882      0.5882352941E-01  0.9769997965E-02     564
    92  0.4117647059      0.1764705882      0.5882352941E-01  0.9769997965E-02     565
    93  0.4705882353      0.1764705882      0.5882352941E-01  0.9769997965E-02     562
    94  0.5294117647      0.1764705882      0.5882352941E-01  0.9769997965E-02     565
    95  0.5882352941      0.1764705882      0.5882352941E-01  0.9769997965E-02     565
    96  0.6470588235      0.1764705882      0.5882352941E-01  0.9769997965E-02     563
    97  0.7058823529      0.1764705882      0.5882352941E-01  0.9769997965E-02     563
    98  0.7647058824      0.1764705882      0.5882352941E-01  0.9769997965E-02     564
    99  0.8235294118      0.1764705882      0.5882352941E-01  0.9769997965E-02     566
   100  0.8823529412      0.1764705882      0.5882352941E-01  0.4884998982E-02     573
   101  0.2941176471      0.2352941176      0.5882352941E-01  0.4884998982E-02     569
   102  0.3529411765      0.2352941176      0.5882352941E-01  0.9769997965E-02     566
   103  0.4117647059      0.2352941176      0.5882352941E-01  0.9769997965E-02     563
   104  0.4705882353      0.2352941176      0.5882352941E-01  0.9769997965E-02     561
   105  0.5294117647      0.2352941176      0.5882352941E-01  0.9769997965E-02     564
   106  0.5882352941      0.2352941176      0.5882352941E-01  0.9769997965E-02     565
   107  0.6470588235      0.2352941176      0.5882352941E-01  0.9769997965E-02     561
   108  0.7058823529      0.2352941176      0.5882352941E-01  0.9769997965E-02     566
   109  0.7647058824      0.2352941176      0.5882352941E-01  0.9769997965E-02     566
   110  0.8235294118      0.2352941176      0.5882352941E-01  0.4884998982E-02     572
   111  0.3529411765      0.2941176471      0.5882352941E-01  0.4884998982E-02     563
   112  0.4117647059      0.2941176471      0.5882352941E-01  0.9769997965E-02     564
   113  0.4705882353      0.2941176471      0.5882352941E-01  0.9769997965E-02     565
   114  0.5294117647      0.2941176471      0.5882352941E-01  0.9769997965E-02     562
   115  0.5882352941      0.2941176471      0.5882352941E-01  0.9769997965E-02     565
   116  0.6470588235      0.2941176471      0.5882352941E-01  0.9769997965E-02     565
   117  0.7058823529      0.2941176471      0.5882352941E-01  0.9769997965E-02     560
   118  0.7647058824      0.2941176471      0.5882352941E-01  0.4884998982E-02     562
   119  0.4117647059      0.3529411765      0.5882352941E-01  0.4884998982E-02     566
   120  0.4705882353      0.3529411765      0.5882352941E-01  0.9769997965E-02     565
   121  0.5294117647      0.3529411765      0.5882352941E-01  0.9769997965E-02     566
   122  0.5882352941      0.3529411765      0.5882352941E-01  0.9769997965E-02     567
   123  0.6470588235      0.3529411765      0.5882352941E-01  0.9769997965E-02     562
   124  0.7058823529      0.3529411765      0.5882352941E-01  0.4884998982E-02     560
   125  0.4705882353      0.4117647059      0.5882352941E-01  0.4884998982E-02     566
   126  0.5294117647      0.4117647059      0.5882352941E-01  0.9769997965E-02     566
   127  0.5882352941      0.4117647059      0.5882352941E-01  0.9769997965E-02     567
   128  0.6470588235      0.4117647059      0.5882352941E-01  0.4884998982E-02     562
   129  0.5294117647      0.4705882353      0.5882352941E-01  0.4884998982E-02     570
   130  0.5882352941      0.4705882353      0.5882352941E-01  0.4884998982E-02     565
   131  0.3529411765      0.2352941176      0.1176470588      0.4884998982E-02     574
   132  0.4117647059      0.2352941176      0.1176470588      0.9769997965E-02     569
   133  0.4705882353      0.2352941176      0.1176470588      0.9769997965E-02     564
   134  0.5294117647      0.2352941176      0.1176470588      0.9769997965E-02     563
   135  0.5882352941      0.2352941176      0.1176470588      0.9769997965E-02     564
   136  0.4117647059      0.2941176471      0.1176470588      0.4884998982E-02     567
   137  0.4705882353      0.2941176471      0.1176470588      0.9769997965E-02     566
   138  0.5294117647      0.2941176471      0.1176470588      0.9769997965E-02     561
   139  0.5882352941      0.2941176471      0.1176470588      0.9769997965E-02     565
   140  0.6470588235      0.2941176471      0.1176470588      0.9769997965E-02     568
   141  0.7058823529      0.2941176471      0.1176470588      0.9769997965E-02     565
   142  0.7647058824      0.2941176471      0.1176470588      0.9769997965E-02     563
   143  0.8235294118      0.2941176471      0.1176470588      0.4884998982E-02     568
   144  0.4705882353      0.3529411765      0.1176470588      0.4884998982E-02     564
   145  0.5294117647      0.3529411765      0.1176470588      0.9769997965E-02     564
   146  0.5882352941      0.3529411765      0.1176470588      0.9769997965E-02     565
   147  0.6470588235      0.3529411765      0.1176470588      0.9769997965E-02     565
   148  0.7058823529      0.3529411765      0.1176470588      0.9769997965E-02     567
   149  0.7647058824      0.3529411765      0.1176470588      0.4884998982E-02     568
   150  0.5294117647      0.4117647059      0.1176470588      0.4884998982E-02     567
   151  0.5882352941      0.4117647059      0.1176470588      0.9769997965E-02     566
   152  0.6470588235      0.4117647059      0.1176470588      0.9769997965E-02     563
   153  0.7058823529      0.4117647059      0.1176470588      0.4884998982E-02     561
   154  0.5882352941      0.4705882353      0.1176470588      0.4884998982E-02     566
   155  0.6470588235      0.4705882353      0.1176470588      0.4884998982E-02     562
   156  0.5294117647      0.3529411765      0.1764705882      0.4884998982E-02     566
   157  0.5882352941      0.3529411765      0.1764705882      0.9769997965E-02     563
   158  0.6470588235      0.3529411765      0.1764705882      0.9769997965E-02     566
   159  0.5882352941      0.4117647059      0.1764705882      0.4884998982E-02     565
   160  0.6470588235      0.4117647059      0.1764705882      0.9769997965E-02     569
   161  0.7058823529      0.4117647059      0.1764705882      0.9769997965E-02     565
   162  0.7647058824      0.4117647059      0.1764705882      0.4884998982E-02     566
   163  0.6470588235      0.4705882353      0.1764705882      0.4884998982E-02     567
   164  0.7058823529      0.4705882353      0.1764705882      0.4884998982E-02     566
   165  0.7058823529      0.4705882353      0.2352941176      0.4884998982E-02     566
