 
Species :    1 (Ca), atom :    1
 n =  1, l =  0, k =  1 :   -145.1563072    
 n =  2, l =  0, k =  1 :   -14.91246257    
 n =  2, l =  1, k =  1 :   -12.06611144    
 n =  2, l =  1, k =  2 :   -11.92986185    
