    0.156626299648E-03
    0.157750707174E-03
    0.215948430833E-03
    0.250479364142E-03
    0.262613530913E-03
    0.265724319072E-03
    0.266452405290E-03
    0.266399848780E-03
    0.266298293568E-03
    0.266285690760E-03
    0.266264225632E-03
    0.266248720364E-03
    0.266230606422E-03
    0.266215506974E-03
    0.266200463330E-03
    0.266198421854E-03
    0.266197135969E-03
    0.266196683123E-03
    0.266196623223E-03
    0.266196610391E-03
    0.266196601794E-03
    0.266196600717E-03
