    -34575.5306563    
    -34575.5313806    
    -34575.4973504    
    -34575.5081679    
    -34575.5124395    
    -34575.5139195    
    -34575.5141486    
    -34575.5136335    
    -34575.5135468    
    -34575.5133996    
    -34575.5133891    
    -34575.5133890    
    -34575.5133809    
    -34575.5133832    
    -34575.5133786    
    -34575.5133743    
    -34575.5133729    
    -34575.5133730    
    -34575.5133718    
    -34575.5133715    
    -34575.5133712    
    -34575.5133716    
    -34575.5133719    
    -34575.5133715    
    -34575.5133713    
    -34575.5133716    
    -34575.5133717    
    -34575.5133716    
    -34575.5133719    
    -34575.5133714    
    -34575.5133719    
    -34575.5133721    
    -34575.5133716    
    -34575.5133717    
    -34575.5133716    
