+----------------------------+
| Elk version 8.3.15 started |
+----------------------------+
 
Date (YYYY-MM-DD) : 2022-02-24
Time (hh:mm:ss)   : 20:15:34
 
All units are atomic (Hartree, Bohr, etc.)
 
+------------------------------------------+
| Ground-state run resuming from STATE.OUT |
+------------------------------------------+
 
Lattice vectors :
   5.551705236      -3.205278513       0.000000000    
   0.000000000       6.410557025       0.000000000    
   0.000000000       0.000000000       9.653966839    
 
Reciprocal lattice vectors :
   1.131757729       0.000000000       0.000000000    
  0.5658788644      0.9801309439       0.000000000    
   0.000000000       0.000000000      0.6508397441    
 
Unit cell volume      :    343.5800748    
Brillouin zone volume :   0.7219575045    
 
Muffin-tin inner radius fraction :   0.1000000000E-01
 
Species :    1 (Sc)
 parameters loaded from : Sc.in
 name : scandium
 nuclear charge    :   -21.00000000    
 electronic charge :    21.00000000    
 atomic mass :    81949.61066    
 muffin-tin radius :    2.400000000    
 number of radial points in muffin-tin :   1000
 number on inner part of muffin-tin    :    716
 atomic positions (lattice), magnetic fields (Cartesian) :
   1 :   0.33333333  0.16666667  0.25000000    0.00000000  0.00000000  0.00000000
   2 :  -0.33333333 -0.16666667 -0.25000000    0.00000000  0.00000000  0.00000000
 
Total number of atoms per unit cell :    2
 
Spin treatment :
 spin-unpolarised
 
Number of Bravais lattice symmetries :   24
Number of crystal symmetries         :   24
Crystal has inversion symmetry
Real symmetric eigensolver will be used
 
k-point grid :     17    17    17
k-point offset :    0.000000000       0.000000000       0.000000000    
k-point set is reduced with full crystal symmetry group
Total number of k-points :      297
 
Muffin-tin radius times maximum |G+k| :    8.500000000    
 using gkmax = rgkmax / 2
Maximum |G+k| for APW functions       :    4.250000000    
Maximum (1/2)|G+k|²                   :    9.031250000    
Maximum |G| for potential and density :    34.00000000    
Constant for pseudocharge density :   20
Radial integration step length :    1
 
G-vector grid sizes :     72    72   108
Number of G-vectors :   228087
 
Maximum angular momentum used for
 APW functions                      :   10
 outer part of muffin-tin           :    8
 inner part of muffin-tin           :    1
 
Total nuclear charge    :   -42.00000000    
Total core charge       :    20.00000000    
Total valence charge    :    22.00000000    
Total excess charge     :    0.000000000    
Total electronic charge :    42.00000000    
 
Effective Wigner radius, rₛ :    1.249961654    
 
Number of empty states         :   40
Total number of valence states :   52
Total number of core states    :   20
 
Conduction state local-orbitals added automatically
Total number of local-orbitals :  242
 
Using Libxc version 05.01.05
Exchange-correlation functional :    100   493   494
 exchange: mgga_x_rscan; correlation: mgga_c_rscan
 
Smearing type :    1
 Methfessel-Paxton order 1, Phys. Rev. B 40, 3616 (1989)
Smearing width :   0.1000000000E-02
Effective electronic temperature (K) :    315.7750248    
 
Mixing type :    3
 Broyden mixing, J. Phys. A: Math. Gen. 17, L317 (1984)
 
Potential read in from STATE.OUT
 
+------------------------------+
| Self-consistent loop started |
+------------------------------+
 
+--------------------+
| Loop number :    1 |
+--------------------+
 
Energies :
 Fermi                       :     0.236735561076    
 sum of eigenvalues          :     -894.792426578    
 electron kinetic            :      1546.14081698    
 core electron kinetic       :      1433.77692347    
 Coulomb                     :     -2996.29570943    
 Coulomb potential           :     -2336.81676959    
 nuclear-nuclear             :     -196.428282498    
 electron-nuclear            :     -3262.91808427    
 Hartree                     :      463.050657338    
 Madelung                    :     -1827.88732463    
 xc potential                :     -104.116473961    
 exchange                    :     -77.1991364347    
 correlation                 :     -1.77283975187    
 total energy                :     -1529.12686864    
 
Density of states at Fermi energy :    128.5444537    
 (states/Hartree/unit cell)
 
Estimated indirect band gap :   0.1917090378E-03
 from k-point    153 to k-point     71
Estimated direct band gap   :   0.1428432600E-02
 at k-point    240
 
Charges :
 core                        :    20.00000000    
 valence                     :    22.00000000    
 interstitial                :    3.891986237    
 muffin-tins (core leakage)
  species :    1 (Sc)
   atom    1                 :    19.05400688     (  0.6510003203E-08)
   atom    2                 :    19.05400688     (  0.6510003203E-08)
 total in muffin-tins        :    38.10801376    
 total calculated charge     :    42.00000005    
 total charge                :    42.00000000    
 error                       :   0.5092636002E-07
 
Time (CPU seconds) :        84.40
 
+--------------------+
| Loop number :    2 |
+--------------------+
 
Energies :
 Fermi                       :     0.236734427349    
 sum of eigenvalues          :     -894.792702192    
 electron kinetic            :      1546.14007983    
 core electron kinetic       :      1433.77632767    
 Coulomb                     :     -2996.29604631    
 Coulomb potential           :     -2336.81624212    
 nuclear-nuclear             :     -196.428282498    
 electron-nuclear            :     -3262.91928551    
 Hartree                     :      463.051521695    
 Madelung                    :     -1827.88792525    
 xc potential                :     -104.116539909    
 exchange                    :     -77.1991792040    
 correlation                 :     -1.77284255877    
 total energy                :     -1529.12798824    
 
Density of states at Fermi energy :    128.4266448    
 (states/Hartree/unit cell)
 
Estimated indirect band gap :   0.1681366239E-03
 from k-point    153 to k-point     71
Estimated direct band gap   :   0.1427434779E-02
 at k-point    240
 
Charges :
 core                        :    20.00000000    
 valence                     :    22.00000000    
 interstitial                :    3.891880367    
 muffin-tins (core leakage)
  species :    1 (Sc)
   atom    1                 :    19.05405982     (  0.6527992369E-08)
   atom    2                 :    19.05405982     (  0.6527992369E-08)
 total in muffin-tins        :    38.10811963    
 total calculated charge     :    42.00000006    
 total charge                :    42.00000000    
 error                       :   0.5752576016E-07
 
Wrote STATE.OUT
 
RMS change in Kohn-Sham potential (target) :   0.1558032173E-01 (   10.00000000    )
Absolute change in total energy (target)   :   0.1119598728E-02 (  0.1000000000E-07)
 
Time (CPU seconds) :       168.79
 
+--------------------+
| Loop number :    3 |
+--------------------+
 
Energies :
 Fermi                       :     0.236743316672    
 sum of eigenvalues          :     -894.792242209    
 electron kinetic            :      1546.13786778    
 core electron kinetic       :      1433.77438768    
 Coulomb                     :     -2996.29618109    
 Coulomb potential           :     -2336.81340725    
 nuclear-nuclear             :     -196.428282498    
 electron-nuclear            :     -3262.92238994    
 Hartree                     :      463.054491344    
 Madelung                    :     -1827.88947747    
 xc potential                :     -104.116702744    
 exchange                    :     -77.1992554735    
 correlation                 :     -1.77286164968    
 total energy                :     -1529.13043043    
 
Density of states at Fermi energy :    127.3496014    
 (states/Hartree/unit cell)
 
Estimated indirect band gap :   0.1160986054E-03
 from k-point    153 to k-point    178
Estimated direct band gap   :   0.1416628227E-02
 at k-point    240
 
Charges :
 core                        :    20.00000000    
 valence                     :    22.00000000    
 interstitial                :    3.891339288    
 muffin-tins (core leakage)
  species :    1 (Sc)
   atom    1                 :    19.05433036     (  0.6519094597E-08)
   atom    2                 :    19.05433036     (  0.6519094597E-08)
 total in muffin-tins        :    38.10866071    
 total calculated charge     :    42.00000011    
 total charge                :    42.00000000    
 error                       :   0.1065306492E-06
 
RMS change in Kohn-Sham potential (target) :   0.1430040313E-01 (   10.00000000    )
Absolute change in total energy (target)   :   0.2722092106E-02 (  0.1000000000E-07)
 
Time (CPU seconds) :       254.99
 
+--------------------+
| Loop number :    4 |
+--------------------+
 
Energies :
 Fermi                       :     0.236828998417    
 sum of eigenvalues          :     -894.789439106    
 electron kinetic            :      1546.12519678    
 core electron kinetic       :      1433.77690415    
 Coulomb                     :     -2996.29738613    
 Coulomb potential           :     -2336.79693157    
 nuclear-nuclear             :     -196.428282498    
 electron-nuclear            :     -3262.94127570    
 Hartree                     :      463.072172069    
 Madelung                    :     -1827.89892035    
 xc potential                :     -104.117704321    
 exchange                    :     -77.1997389195    
 correlation                 :     -1.77296510063    
 total energy                :     -1529.14489337    
 
Density of states at Fermi energy :    123.1345766    
 (states/Hartree/unit cell)
 
Estimated indirect band gap :   0.4708861051E-04
 from k-point    239 to k-point    157
Estimated direct band gap   :   0.1344301468E-02
 at k-point    240
 
Charges :
 core                        :    20.00000000    
 valence                     :    22.00000000    
 interstitial                :    3.888094634    
 muffin-tins (core leakage)
  species :    1 (Sc)
   atom    1                 :    19.05595268     (  0.6505581851E-08)
   atom    2                 :    19.05595268     (  0.6505581851E-08)
 total in muffin-tins        :    38.11190537    
 total calculated charge     :    42.00000041    
 total charge                :    42.00000000    
 error                       :   0.4084855476E-06
 
Wrote STATE.OUT
 
RMS change in Kohn-Sham potential (target) :   0.6076309949E-02 (   10.00000000    )
Absolute change in total energy (target)   :   0.1514346496E-01 (  0.1000000000E-07)
 
Time (CPU seconds) :       340.46
 
+--------------------+
| Loop number :    5 |
+--------------------+
 
Energies :
 Fermi                       :     0.236863444540    
 sum of eigenvalues          :     -894.788835623    
 electron kinetic            :      1546.11883017    
 core electron kinetic       :      1433.77818674    
 Coulomb                     :     -2996.29896333    
 Coulomb potential           :     -2336.78938218    
 nuclear-nuclear             :     -196.428282498    
 electron-nuclear            :     -3262.95197950    
 Hartree                     :      463.081298660    
 Madelung                    :     -1827.90427225    
 xc potential                :     -104.118283614    
 exchange                    :     -77.2000415385    
 correlation                 :     -1.77301317189    
 total energy                :     -1529.15318788    
 
Density of states at Fermi energy :    119.7879050    
 (states/Hartree/unit cell)
 
Estimated indirect band gap :   0.8564485618E-04
 from k-point    258 to k-point    239
Estimated direct band gap   :   0.1307364067E-02
 at k-point    240
 
Charges :
 core                        :    20.00000000    
 valence                     :    22.00000000    
 interstitial                :    3.886499351    
 muffin-tins (core leakage)
  species :    1 (Sc)
   atom    1                 :    19.05675032     (  0.6525191054E-08)
   atom    2                 :    19.05675032     (  0.6525191054E-08)
 total in muffin-tins        :    38.11350065    
 total calculated charge     :    42.00000056    
 total charge                :    42.00000000    
 error                       :   0.5586273630E-06
 
RMS change in Kohn-Sham potential (target) :   0.2442973265E-02 (   10.00000000    )
Absolute change in total energy (target)   :   0.1208037151E-01 (  0.1000000000E-07)
 
Time (CPU seconds) :       428.06
 
+--------------------+
| Loop number :    6 |
+--------------------+
 
Energies :
 Fermi                       :     0.236871802451    
 sum of eigenvalues          :     -894.789006088    
 electron kinetic            :      1546.11691895    
 core electron kinetic       :      1433.77866257    
 Coulomb                     :     -2996.29978022    
 Coulomb potential           :     -2336.78744402    
 nuclear-nuclear             :     -196.428282498    
 electron-nuclear            :     -3262.95555143    
 Hartree                     :      463.084053707    
 Madelung                    :     -1827.90605821    
 xc potential                :     -104.118481027    
 exchange                    :     -77.2001552268    
 correlation                 :     -1.77302542197    
 total energy                :     -1529.15604191    
 
Density of states at Fermi energy :    118.0029780    
 (states/Hartree/unit cell)
 
Estimated indirect band gap :   0.8067699835E-04
 from k-point    258 to k-point    239
Estimated direct band gap   :   0.1298447977E-02
 at k-point    240
 
Charges :
 core                        :    20.00000000    
 valence                     :    22.00000000    
 interstitial                :    3.886066672    
 muffin-tins (core leakage)
  species :    1 (Sc)
   atom    1                 :    19.05696666     (  0.6493927174E-08)
   atom    2                 :    19.05696666     (  0.6493927174E-08)
 total in muffin-tins        :    38.11393333    
 total calculated charge     :    42.00000059    
 total charge                :    42.00000000    
 error                       :   0.5948929100E-06
 
Wrote STATE.OUT
 
RMS change in Kohn-Sham potential (target) :   0.1576144776E-02 (   10.00000000    )
Absolute change in total energy (target)   :   0.5874129555E-02 (  0.1000000000E-07)
 
Time (CPU seconds) :       512.60
 
+--------------------+
| Loop number :    7 |
+--------------------+
 
Energies :
 Fermi                       :     0.236882388100    
 sum of eigenvalues          :     -894.789295413    
 electron kinetic            :      1546.11618033    
 core electron kinetic       :      1433.77921548    
 Coulomb                     :     -2996.30066032    
 Coulomb potential           :     -2336.78687519    
 nuclear-nuclear             :     -196.428282498    
 electron-nuclear            :     -3262.95788046    
 Hartree                     :      463.085502635    
 Madelung                    :     -1827.90722273    
 xc potential                :     -104.118600554    
 exchange                    :     -77.2002261451    
 correlation                 :     -1.77303237423    
 total energy                :     -1529.15773851    
 
Density of states at Fermi energy :    117.1575061    
 (states/Hartree/unit cell)
 
Estimated indirect band gap :   0.2880465209E-04
 from k-point      5 to k-point    239
Estimated direct band gap   :   0.1294171578E-02
 at k-point    240
 
Charges :
 core                        :    20.00000000    
 valence                     :    22.00000000    
 interstitial                :    3.885872816    
 muffin-tins (core leakage)
  species :    1 (Sc)
   atom    1                 :    19.05706359     (  0.6542361319E-08)
   atom    2                 :    19.05706359     (  0.6542361319E-08)
 total in muffin-tins        :    38.11412718    
 total calculated charge     :    42.00000061    
 total charge                :    42.00000000    
 error                       :   0.6093535845E-06
 
RMS change in Kohn-Sham potential (target) :   0.7471018121E-03 (   10.00000000    )
Absolute change in total energy (target)   :   0.3165129346E-02 (  0.1000000000E-07)
 
Time (CPU seconds) :       597.15
 
+--------------------+
| Loop number :    8 |
+--------------------+
 
Energies :
 Fermi                       :     0.236889964178    
 sum of eigenvalues          :     -894.789801818    
 electron kinetic            :      1546.11657482    
 core electron kinetic       :      1433.77903434    
 Coulomb                     :     -2996.30148567    
 Coulomb potential           :     -2336.78775190    
 nuclear-nuclear             :     -196.428282498    
 electron-nuclear            :     -3262.95865445    
 Hartree                     :      463.085451276    
 Madelung                    :     -1827.90760972    
 xc potential                :     -104.118624738    
 exchange                    :     -77.2002451542    
 correlation                 :     -1.77303279203    
 total energy                :     -1529.15818880    
 
Density of states at Fermi energy :    117.7035236    
 (states/Hartree/unit cell)
 
Estimated indirect band gap :   0.6502119142E-04
 from k-point    258 to k-point      5
Estimated direct band gap   :   0.1295507712E-02
 at k-point    240
 
Charges :
 core                        :    20.00000000    
 valence                     :    22.00000000    
 interstitial                :    3.885955205    
 muffin-tins (core leakage)
  species :    1 (Sc)
   atom    1                 :    19.05702240     (  0.6558677157E-08)
   atom    2                 :    19.05702240     (  0.6558677157E-08)
 total in muffin-tins        :    38.11404480    
 total calculated charge     :    42.00000060    
 total charge                :    42.00000000    
 error                       :   0.5996416448E-06
 
Wrote STATE.OUT
 
RMS change in Kohn-Sham potential (target) :   0.5906657464E-04 (   10.00000000    )
Absolute change in total energy (target)   :   0.1241571633E-02 (  0.1000000000E-07)
 
Time (CPU seconds) :       682.78
 
+--------------------+
| Loop number :    9 |
+--------------------+
 
Energies :
 Fermi                       :     0.236889334133    
 sum of eigenvalues          :     -894.789943405    
 electron kinetic            :      1546.11656660    
 core electron kinetic       :      1433.77894458    
 Coulomb                     :     -2996.30161475    
 Coulomb potential           :     -2336.78788153    
 nuclear-nuclear             :     -196.428282498    
 electron-nuclear            :     -3262.95878298    
 Hartree                     :      463.085450721    
 Madelung                    :     -1827.90767399    
 xc potential                :     -104.118628467    
 exchange                    :     -77.2002481180    
 correlation                 :     -1.77303286653    
 total energy                :     -1529.15832914    
 
Density of states at Fermi energy :    117.7830357    
 (states/Hartree/unit cell)
 
Estimated indirect band gap :   0.6679805239E-04
 from k-point    258 to k-point      5
Estimated direct band gap   :   0.1295700448E-02
 at k-point    240
 
Charges :
 core                        :    20.00000000    
 valence                     :    22.00000000    
 interstitial                :    3.885970364    
 muffin-tins (core leakage)
  species :    1 (Sc)
   atom    1                 :    19.05701482     (  0.6534031982E-08)
   atom    2                 :    19.05701482     (  0.6534031982E-08)
 total in muffin-tins        :    38.11402964    
 total calculated charge     :    42.00000060    
 total charge                :    42.00000000    
 error                       :   0.5980304962E-06
 
RMS change in Kohn-Sham potential (target) :   0.1106521952E-03 (   10.00000000    )
Absolute change in total energy (target)   :   0.4507343242E-03 (  0.1000000000E-07)
 
Time (CPU seconds) :       767.78
 
+--------------------+
| Loop number :   10 |
+--------------------+
 
Energies :
 Fermi                       :     0.236888536839    
 sum of eigenvalues          :     -894.789959486    
 electron kinetic            :      1546.11653846    
 core electron kinetic       :      1433.77903439    
 Coulomb                     :     -2996.30160278    
 Coulomb potential           :     -2336.78787031    
 nuclear-nuclear             :     -196.428282498    
 electron-nuclear            :     -3262.95877027    
 Hartree                     :      463.085449980    
 Madelung                    :     -1827.90766763    
 xc potential                :     -104.118627636    
 exchange                    :     -77.2002474948    
 correlation                 :     -1.77303286819    
 total energy                :     -1529.15834469    
 
Density of states at Fermi energy :    117.7737586    
 (states/Hartree/unit cell)
 
Estimated indirect band gap :   0.6654799830E-04
 from k-point    258 to k-point      5
Estimated direct band gap   :   0.1295665319E-02
 at k-point    240
 
Charges :
 core                        :    20.00000000    
 valence                     :    22.00000000    
 interstitial                :    3.885970748    
 muffin-tins (core leakage)
  species :    1 (Sc)
   atom    1                 :    19.05701463     (  0.6524773610E-08)
   atom    2                 :    19.05701463     (  0.6524773610E-08)
 total in muffin-tins        :    38.11402925    
 total calculated charge     :    42.00000060    
 total charge                :    42.00000000    
 error                       :   0.5982706313E-06
 
Wrote STATE.OUT
 
RMS change in Kohn-Sham potential (target) :   0.1909054517E-03 (   10.00000000    )
Absolute change in total energy (target)   :   0.1282319186E-03 (  0.1000000000E-07)
 
Time (CPU seconds) :       852.52
 
+--------------------+
| Loop number :   11 |
+--------------------+
 
Energies :
 Fermi                       :     0.236888099313    
 sum of eigenvalues          :     -894.790076578    
 electron kinetic            :      1546.11650628    
 core electron kinetic       :      1433.77898063    
 Coulomb                     :     -2996.30171859    
 Coulomb potential           :     -2336.78794868    
 nuclear-nuclear             :     -196.428282498    
 electron-nuclear            :     -3262.95892351    
 Hartree                     :      463.085487415    
 Madelung                    :     -1827.90774425    
 xc potential                :     -104.118634176    
 exchange                    :     -77.2002523624    
 correlation                 :     -1.77303298624    
 total energy                :     -1529.15849766    
 
Density of states at Fermi energy :    117.8328552    
 (states/Hartree/unit cell)
 
Estimated indirect band gap :   0.6775846321E-04
 from k-point    258 to k-point      5
Estimated direct band gap   :   0.1295844565E-02
 at k-point    240
 
Charges :
 core                        :    20.00000000    
 valence                     :    22.00000000    
 interstitial                :    3.885978554    
 muffin-tins (core leakage)
  species :    1 (Sc)
   atom    1                 :    19.05701072     (  0.6500219030E-08)
   atom    2                 :    19.05701072     (  0.6500219030E-08)
 total in muffin-tins        :    38.11402145    
 total calculated charge     :    42.00000060    
 total charge                :    42.00000000    
 error                       :   0.5970946120E-06
 
RMS change in Kohn-Sham potential (target) :   0.4337871212E-03 (   10.00000000    )
Absolute change in total energy (target)   :   0.1850301501E-03 (  0.1000000000E-07)
 
Time (CPU seconds) :       938.73
 
+--------------------+
| Loop number :   12 |
+--------------------+
 
Energies :
 Fermi                       :     0.236887858417    
 sum of eigenvalues          :     -894.790116449    
 electron kinetic            :      1546.11649266    
 core electron kinetic       :      1433.77890088    
 Coulomb                     :     -2996.30175465    
 Coulomb potential           :     -2336.78797277    
 nuclear-nuclear             :     -196.428282498    
 electron-nuclear            :     -3262.95897153    
 Hartree                     :      463.085499379    
 Madelung                    :     -1827.90776826    
 xc potential                :     -104.118636332    
 exchange                    :     -77.2002539410    
 correlation                 :     -1.77303303493    
 total energy                :     -1529.15854897    
 
Density of states at Fermi energy :    117.8515764    
 (states/Hartree/unit cell)
 
Estimated indirect band gap :   0.6807495672E-04
 from k-point    258 to k-point      5
Estimated direct band gap   :   0.1295902667E-02
 at k-point    240
 
Charges :
 core                        :    20.00000000    
 valence                     :    22.00000000    
 interstitial                :    3.885981100    
 muffin-tins (core leakage)
  species :    1 (Sc)
   atom    1                 :    19.05700945     (  0.6566317268E-08)
   atom    2                 :    19.05700945     (  0.6566317268E-08)
 total in muffin-tins        :    38.11401890    
 total calculated charge     :    42.00000060    
 total charge                :    42.00000000    
 error                       :   0.5965395573E-06
 
Wrote STATE.OUT
 
RMS change in Kohn-Sham potential (target) :   0.1190758492E-04 (   10.00000000    )
Absolute change in total energy (target)   :   0.9756360942E-04 (  0.1000000000E-07)
 
Time (CPU seconds) :      1021.83
 
+--------------------+
| Loop number :   13 |
+--------------------+
 
Energies :
 Fermi                       :     0.236887436299    
 sum of eigenvalues          :     -894.790073638    
 electron kinetic            :      1546.11648651    
 core electron kinetic       :      1433.77890663    
 Coulomb                     :     -2996.30169292    
 Coulomb potential           :     -2336.78792700    
 nuclear-nuclear             :     -196.428282498    
 electron-nuclear            :     -3262.95889385    
 Hartree                     :      463.085483424    
 Madelung                    :     -1827.90772942    
 xc potential                :     -104.118633146    
 exchange                    :     -77.2002515045    
 correlation                 :     -1.77303300865    
 total energy                :     -1529.15849093    
 
Density of states at Fermi energy :    117.8206175    
 (states/Hartree/unit cell)
 
Estimated indirect band gap :   0.6729753965E-04
 from k-point    258 to k-point      5
Estimated direct band gap   :   0.1295814368E-02
 at k-point    240
 
Charges :
 core                        :    20.00000000    
 valence                     :    22.00000000    
 interstitial                :    3.885977748    
 muffin-tins (core leakage)
  species :    1 (Sc)
   atom    1                 :    19.05701113     (  0.6571729827E-08)
   atom    2                 :    19.05701113     (  0.6571729827E-08)
 total in muffin-tins        :    38.11402225    
 total calculated charge     :    42.00000060    
 total charge                :    42.00000000    
 error                       :   0.5969822610E-06
 
RMS change in Kohn-Sham potential (target) :   0.2109692602E-04 (   10.00000000    )
Absolute change in total energy (target)   :   0.3365007092E-04 (  0.1000000000E-07)
 
Time (CPU seconds) :      1106.52
 
+--------------------+
| Loop number :   14 |
+--------------------+
 
Energies :
 Fermi                       :     0.236887149628    
 sum of eigenvalues          :     -894.790059570    
 electron kinetic            :      1546.11648241    
 core electron kinetic       :      1433.77891775    
 Coulomb                     :     -2996.30166767    
 Coulomb potential           :     -2336.78791039    
 nuclear-nuclear             :     -196.428282498    
 electron-nuclear            :     -3262.95885995    
 Hartree                     :      463.085474780    
 Madelung                    :     -1827.90771247    
 xc potential                :     -104.118631587    
 exchange                    :     -77.2002503295    
 correlation                 :     -1.77303299675    
 total energy                :     -1529.15846859    
 
Density of states at Fermi energy :    117.8081692    
 (states/Hartree/unit cell)
 
Estimated indirect band gap :   0.6699070948E-04
 from k-point    258 to k-point      5
Estimated direct band gap   :   0.1295776089E-02
 at k-point    240
 
Charges :
 core                        :    20.00000000    
 valence                     :    22.00000000    
 interstitial                :    3.885976860    
 muffin-tins (core leakage)
  species :    1 (Sc)
   atom    1                 :    19.05701157     (  0.6546857279E-08)
   atom    2                 :    19.05701157     (  0.6546857279E-08)
 total in muffin-tins        :    38.11402314    
 total calculated charge     :    42.00000060    
 total charge                :    42.00000000    
 error                       :   0.5972263324E-06
 
Wrote STATE.OUT
 
RMS change in Kohn-Sham potential (target) :   0.4099201602E-05 (   10.00000000    )
Absolute change in total energy (target)   :   0.3075290260E-04 (  0.1000000000E-07)
 
Time (CPU seconds) :      1190.50
 
+--------------------+
| Loop number :   15 |
+--------------------+
 
Energies :
 Fermi                       :     0.236887129932    
 sum of eigenvalues          :     -894.790061735    
 electron kinetic            :      1546.11648128    
 core electron kinetic       :      1433.77892304    
 Coulomb                     :     -2996.30166920    
 Coulomb potential           :     -2336.78791134    
 nuclear-nuclear             :     -196.428282498    
 electron-nuclear            :     -3262.95886207    
 Hartree                     :      463.085475364    
 Madelung                    :     -1827.90771353    
 xc potential                :     -104.118631674    
 exchange                    :     -77.2002503972    
 correlation                 :     -1.77303299803    
 total energy                :     -1529.15847132    
 
Density of states at Fermi energy :    117.8086627    
 (states/Hartree/unit cell)
 
Estimated indirect band gap :   0.6700909317E-04
 from k-point    258 to k-point      5
Estimated direct band gap   :   0.1295777088E-02
 at k-point    240
 
Charges :
 core                        :    20.00000000    
 valence                     :    22.00000000    
 interstitial                :    3.885976956    
 muffin-tins (core leakage)
  species :    1 (Sc)
   atom    1                 :    19.05701152     (  0.6540401998E-08)
   atom    2                 :    19.05701152     (  0.6540401998E-08)
 total in muffin-tins        :    38.11402304    
 total calculated charge     :    42.00000060    
 total charge                :    42.00000000    
 error                       :   0.5972832611E-06
 
RMS change in Kohn-Sham potential (target) :   0.6693360986E-04 (   10.00000000    )
Absolute change in total energy (target)   :   0.4957904139E-05 (  0.1000000000E-07)
 
Time (CPU seconds) :      1270.08
 
+--------------------+
| Loop number :   16 |
+--------------------+
 
Energies :
 Fermi                       :     0.236887153869    
 sum of eigenvalues          :     -894.790067374    
 electron kinetic            :      1546.11648065    
 core electron kinetic       :      1433.77893202    
 Coulomb                     :     -2996.30167646    
 Coulomb potential           :     -2336.78791596    
 nuclear-nuclear             :     -196.428282498    
 electron-nuclear            :     -3262.95887196    
 Hartree                     :      463.085477998    
 Madelung                    :     -1827.90771848    
 xc potential                :     -104.118632066    
 exchange                    :     -77.2002506955    
 correlation                 :     -1.77303300206    
 total energy                :     -1529.15847950    
 
Density of states at Fermi energy :    117.8117080    
 (states/Hartree/unit cell)
 
Estimated indirect band gap :   0.6708590739E-04
 from k-point    258 to k-point      5
Estimated direct band gap   :   0.1295785355E-02
 at k-point    240
 
Charges :
 core                        :    20.00000000    
 valence                     :    22.00000000    
 interstitial                :    3.885977290    
 muffin-tins (core leakage)
  species :    1 (Sc)
   atom    1                 :    19.05701135     (  0.6510965989E-08)
   atom    2                 :    19.05701135     (  0.6510965989E-08)
 total in muffin-tins        :    38.11402271    
 total calculated charge     :    42.00000060    
 total charge                :    42.00000000    
 error                       :   0.5972703150E-06
 
Wrote STATE.OUT
 
RMS change in Kohn-Sham potential (target) :   0.1791257972E-03 (   10.00000000    )
Absolute change in total energy (target)   :   0.6943505923E-05 (  0.1000000000E-07)
 
Time (CPU seconds) :      1355.63
 
+--------------------+
| Loop number :   17 |
+--------------------+
 
Energies :
 Fermi                       :     0.236887106739    
 sum of eigenvalues          :     -894.790080874    
 electron kinetic            :      1546.11647682    
 core electron kinetic       :      1433.77891483    
 Coulomb                     :     -2996.30169008    
 Coulomb potential           :     -2336.78792484    
 nuclear-nuclear             :     -196.428282498    
 electron-nuclear            :     -3262.95889032    
 Hartree                     :      463.085482739    
 Madelung                    :     -1827.90772766    
 xc potential                :     -104.118632858    
 exchange                    :     -77.2002512826    
 correlation                 :     -1.77303301708    
 total energy                :     -1529.15849755    
 
Density of states at Fermi energy :    117.8182470    
 (states/Hartree/unit cell)
 
Estimated indirect band gap :   0.6720751122E-04
 from k-point    258 to k-point      5
Estimated direct band gap   :   0.1295804921E-02
 at k-point    240
 
Charges :
 core                        :    20.00000000    
 valence                     :    22.00000000    
 interstitial                :    3.885978125    
 muffin-tins (core leakage)
  species :    1 (Sc)
   atom    1                 :    19.05701094     (  0.6537002051E-08)
   atom    2                 :    19.05701094     (  0.6537002051E-08)
 total in muffin-tins        :    38.11402187    
 total calculated charge     :    42.00000060    
 total charge                :    42.00000000    
 error                       :   0.5970925088E-06
 
RMS change in Kohn-Sham potential (target) :   0.4357890138E-04 (   10.00000000    )
Absolute change in total energy (target)   :   0.1978776277E-04 (  0.1000000000E-07)
 
Time (CPU seconds) :      1444.15
 
+--------------------+
| Loop number :   18 |
+--------------------+
 
Energies :
 Fermi                       :     0.236887013020    
 sum of eigenvalues          :     -894.790074440    
 electron kinetic            :      1546.11647560    
 core electron kinetic       :      1433.77891174    
 Coulomb                     :     -2996.30167983    
 Coulomb potential           :     -2336.78791776    
 nuclear-nuclear             :     -196.428282498    
 electron-nuclear            :     -3262.95887690    
 Hartree                     :      463.085479569    
 Madelung                    :     -1827.90772095    
 xc potential                :     -104.118632276    
 exchange                    :     -77.2002508403    
 correlation                 :     -1.77303301329    
 total energy                :     -1529.15848808    
 
Density of states at Fermi energy :    117.8132291    
 (states/Hartree/unit cell)
 
Estimated indirect band gap :   0.6708291635E-04
 from k-point    258 to k-point      5
Estimated direct band gap   :   0.1295789868E-02
 at k-point    240
 
Charges :
 core                        :    20.00000000    
 valence                     :    22.00000000    
 interstitial                :    3.885977697    
 muffin-tins (core leakage)
  species :    1 (Sc)
   atom    1                 :    19.05701115     (  0.6480801673E-08)
   atom    2                 :    19.05701115     (  0.6480801673E-08)
 total in muffin-tins        :    38.11402230    
 total calculated charge     :    42.00000060    
 total charge                :    42.00000000    
 error                       :   0.5972719848E-06
 
Wrote STATE.OUT
 
RMS change in Kohn-Sham potential (target) :   0.5625644113E-05 (   10.00000000    )
Absolute change in total energy (target)   :   0.4521206620E-05 (  0.1000000000E-07)
 
Time (CPU seconds) :      1527.45
 
+--------------------+
| Loop number :   19 |
+--------------------+
 
Energies :
 Fermi                       :     0.236886968797    
 sum of eigenvalues          :     -894.790067500    
 electron kinetic            :      1546.11647583    
 core electron kinetic       :      1433.77891691    
 Coulomb                     :     -2996.30167075    
 Coulomb potential           :     -2336.78791160    
 nuclear-nuclear             :     -196.428282498    
 electron-nuclear            :     -3262.95886490    
 Hartree                     :      463.085476648    
 Madelung                    :     -1827.90771495    
 xc potential                :     -104.118631735    
 exchange                    :     -77.2002504395    
 correlation                 :     -1.77303300594    
 total energy                :     -1529.15847836    
 
Density of states at Fermi energy :    117.8086963    
 (states/Hartree/unit cell)
 
Estimated indirect band gap :   0.6698813044E-04
 from k-point    258 to k-point      5
Estimated direct band gap   :   0.1295776169E-02
 at k-point    240
 
Charges :
 core                        :    20.00000000    
 valence                     :    22.00000000    
 interstitial                :    3.885977256    
 muffin-tins (core leakage)
  species :    1 (Sc)
   atom    1                 :    19.05701137     (  0.6527782759E-08)
   atom    2                 :    19.05701137     (  0.6527782759E-08)
 total in muffin-tins        :    38.11402274    
 total calculated charge     :    42.00000060    
 total charge                :    42.00000000    
 error                       :   0.5972777330E-06
 
RMS change in Kohn-Sham potential (target) :   0.1011316654E-03 (   10.00000000    )
Absolute change in total energy (target)   :   0.1085792610E-04 (  0.1000000000E-07)
 
Time (CPU seconds) :      1612.36
 
+--------------------+
| Loop number :   20 |
+--------------------+
 
Energies :
 Fermi                       :     0.236887004645    
 sum of eigenvalues          :     -894.790066908    
 electron kinetic            :      1546.11647690    
 core electron kinetic       :      1433.77891725    
 Coulomb                     :     -2996.30167131    
 Coulomb potential           :     -2336.78791203    
 nuclear-nuclear             :     -196.428282498    
 electron-nuclear            :     -3262.95886560    
 Hartree                     :      463.085476787    
 Madelung                    :     -1827.90771530    
 xc potential                :     -104.118631783    
 exchange                    :     -77.2002504725    
 correlation                 :     -1.77303300649    
 total energy                :     -1529.15847789    
 
Density of states at Fermi energy :    117.8092022    
 (states/Hartree/unit cell)
 
Estimated indirect band gap :   0.6700071855E-04
 from k-point    258 to k-point      5
Estimated direct band gap   :   0.1295777968E-02
 at k-point    240
 
Charges :
 core                        :    20.00000000    
 valence                     :    22.00000000    
 interstitial                :    3.885977254    
 muffin-tins (core leakage)
  species :    1 (Sc)
   atom    1                 :    19.05701137     (  0.6508312111E-08)
   atom    2                 :    19.05701137     (  0.6508312111E-08)
 total in muffin-tins        :    38.11402275    
 total calculated charge     :    42.00000060    
 total charge                :    42.00000000    
 error                       :   0.5973468049E-06
 
Wrote STATE.OUT
 
RMS change in Kohn-Sham potential (target) :   0.2006867505E-04 (   10.00000000    )
Absolute change in total energy (target)   :   0.3183288300E-05 (  0.1000000000E-07)
 
Time (CPU seconds) :      1697.72
 
+--------------------+
| Loop number :   21 |
+--------------------+
 
Energies :
 Fermi                       :     0.236887035374    
 sum of eigenvalues          :     -894.790066728    
 electron kinetic            :      1546.11647778    
 core electron kinetic       :      1433.77891757    
 Coulomb                     :     -2996.30167234    
 Coulomb potential           :     -2336.78791268    
 nuclear-nuclear             :     -196.428282498    
 electron-nuclear            :     -3262.95886701    
 Hartree                     :      463.085477168    
 Madelung                    :     -1827.90771600    
 xc potential                :     -104.118631835    
 exchange                    :     -77.2002505149    
 correlation                 :     -1.77303300558    
 total energy                :     -1529.15847808    
 
Density of states at Fermi energy :    117.8096498    
 (states/Hartree/unit cell)
 
Estimated indirect band gap :   0.6701617238E-04
 from k-point    258 to k-point      5
Estimated direct band gap   :   0.1295779294E-02
 at k-point    240
 
Charges :
 core                        :    20.00000000    
 valence                     :    22.00000000    
 interstitial                :    3.885977259    
 muffin-tins (core leakage)
  species :    1 (Sc)
   atom    1                 :    19.05701137     (  0.6519210061E-08)
   atom    2                 :    19.05701137     (  0.6519210061E-08)
 total in muffin-tins        :    38.11402274    
 total calculated charge     :    42.00000060    
 total charge                :    42.00000000    
 error                       :   0.5973266681E-06
 
RMS change in Kohn-Sham potential (target) :   0.2052436795E-04 (   10.00000000    )
Absolute change in total energy (target)   :   0.6042323548E-06 (  0.1000000000E-07)
 
Time (CPU seconds) :      1783.56
 
+--------------------+
| Loop number :   22 |
+--------------------+
 
Energies :
 Fermi                       :     0.236887044721    
 sum of eigenvalues          :     -894.790066622    
 electron kinetic            :      1546.11647799    
 core electron kinetic       :      1433.77891769    
 Coulomb                     :     -2996.30167239    
 Coulomb potential           :     -2336.78791277    
 nuclear-nuclear             :     -196.428282498    
 electron-nuclear            :     -3262.95886701    
 Hartree                     :      463.085477122    
 Madelung                    :     -1827.90771600    
 xc potential                :     -104.118631847    
 exchange                    :     -77.2002505227    
 correlation                 :     -1.77303300593    
 total energy                :     -1529.15847792    
 
Density of states at Fermi energy :    117.8097598    
 (states/Hartree/unit cell)
 
Estimated indirect band gap :   0.6702002082E-04
 from k-point    258 to k-point      5
Estimated direct band gap   :   0.1295779597E-02
 at k-point    240
 
Charges :
 core                        :    20.00000000    
 valence                     :    22.00000000    
 interstitial                :    3.885977259    
 muffin-tins (core leakage)
  species :    1 (Sc)
   atom    1                 :    19.05701137     (  0.6501556626E-08)
   atom    2                 :    19.05701137     (  0.6501556626E-08)
 total in muffin-tins        :    38.11402274    
 total calculated charge     :    42.00000060    
 total charge                :    42.00000000    
 error                       :   0.5973093167E-06
 
Wrote STATE.OUT
 
RMS change in Kohn-Sham potential (target) :   0.5304892201E-05 (   10.00000000    )
Absolute change in total energy (target)   :   0.3068000751E-06 (  0.1000000000E-07)
 
Time (CPU seconds) :      1868.24
 
+--------------------+
| Loop number :   23 |
+--------------------+
 
Energies :
 Fermi                       :     0.236887058426    
 sum of eigenvalues          :     -894.790066440    
 electron kinetic            :      1546.11647835    
 core electron kinetic       :      1433.77891835    
 Coulomb                     :     -2996.30167282    
 Coulomb potential           :     -2336.78791293    
 nuclear-nuclear             :     -196.428282498    
 electron-nuclear            :     -3262.95886772    
 Hartree                     :      463.085477394    
 Madelung                    :     -1827.90771636    
 xc potential                :     -104.118631859    
 exchange                    :     -77.2002505322    
 correlation                 :     -1.77303300557    
 total energy                :     -1529.15847801    
 
Density of states at Fermi energy :    117.8098868    
 (states/Hartree/unit cell)
 
Estimated indirect band gap :   0.6702560868E-04
 from k-point    258 to k-point      5
Estimated direct band gap   :   0.1295779948E-02
 at k-point    240
 
Charges :
 core                        :    20.00000000    
 valence                     :    22.00000000    
 interstitial                :    3.885977253    
 muffin-tins (core leakage)
  species :    1 (Sc)
   atom    1                 :    19.05701137     (  0.6882462600E-08)
   atom    2                 :    19.05701137     (  0.6882462600E-08)
 total in muffin-tins        :    38.11402275    
 total calculated charge     :    42.00000060    
 total charge                :    42.00000000    
 error                       :   0.5965219998E-06
 
RMS change in Kohn-Sham potential (target) :   0.8174057394E-04 (   10.00000000    )
Absolute change in total energy (target)   :   0.1001285455E-07 (  0.1000000000E-07)
 
Time (CPU seconds) :      1955.55
 
+--------------------+
| Loop number :   24 |
+--------------------+
 
Energies :
 Fermi                       :     0.236887071329    
 sum of eigenvalues          :     -894.790066785    
 electron kinetic            :      1546.11647866    
 core electron kinetic       :      1433.77891772    
 Coulomb                     :     -2996.30167348    
 Coulomb potential           :     -2336.78791353    
 nuclear-nuclear             :     -196.428282498    
 electron-nuclear            :     -3262.95886843    
 Hartree                     :      463.085477447    
 Madelung                    :     -1827.90771671    
 xc potential                :     -104.118631911    
 exchange                    :     -77.2002505714    
 correlation                 :     -1.77303300602    
 total energy                :     -1529.15847840    
 
Density of states at Fermi energy :    117.8103479    
 (states/Hartree/unit cell)
 
Estimated indirect band gap :   0.6703434361E-04
 from k-point    258 to k-point      5
Estimated direct band gap   :   0.1295781393E-02
 at k-point    240
 
Charges :
 core                        :    20.00000000    
 valence                     :    22.00000000    
 interstitial                :    3.885977284    
 muffin-tins (core leakage)
  species :    1 (Sc)
   atom    1                 :    19.05701136     (  0.6543022124E-08)
   atom    2                 :    19.05701136     (  0.6543022124E-08)
 total in muffin-tins        :    38.11402272    
 total calculated charge     :    42.00000060    
 total charge                :    42.00000000    
 error                       :   0.5972397048E-06
 
Wrote STATE.OUT
 
RMS change in Kohn-Sham potential (target) :   0.3069485754E-05 (   10.00000000    )
Absolute change in total energy (target)   :   0.3883833415E-06 (  0.1000000000E-07)
 
Time (CPU seconds) :      2042.24
 
+--------------------+
| Loop number :   25 |
+--------------------+
 
Energies :
 Fermi                       :     0.236887081502    
 sum of eigenvalues          :     -894.790066328    
 electron kinetic            :      1546.11647900    
 core electron kinetic       :      1433.77891828    
 Coulomb                     :     -2996.30167307    
 Coulomb potential           :     -2336.78791342    
 nuclear-nuclear             :     -196.428282498    
 electron-nuclear            :     -3262.95886772    
 Hartree                     :      463.085477148    
 Madelung                    :     -1827.90771636    
 xc potential                :     -104.118631901    
 exchange                    :     -77.2002505641    
 correlation                 :     -1.77303300540    
 total energy                :     -1529.15847764    
 
Density of states at Fermi energy :    117.8102613    
 (states/Hartree/unit cell)
 
Estimated indirect band gap :   0.6703499321E-04
 from k-point    258 to k-point      5
Estimated direct band gap   :   0.1295781090E-02
 at k-point    240
 
Charges :
 core                        :    20.00000000    
 valence                     :    22.00000000    
 interstitial                :    3.885977260    
 muffin-tins (core leakage)
  species :    1 (Sc)
   atom    1                 :    19.05701137     (  0.6525450402E-08)
   atom    2                 :    19.05701137     (  0.6525450402E-08)
 total in muffin-tins        :    38.11402274    
 total calculated charge     :    42.00000060    
 total charge                :    42.00000000    
 error                       :   0.5972520540E-06
 
RMS change in Kohn-Sham potential (target) :   0.1840033769E-03 (   10.00000000    )
Absolute change in total energy (target)   :   0.6575885436E-06 (  0.1000000000E-07)
 
Time (CPU seconds) :      2125.71
 
+--------------------+
| Loop number :   26 |
+--------------------+
 
Energies :
 Fermi                       :     0.236887115314    
 sum of eigenvalues          :     -894.790065865    
 electron kinetic            :      1546.11648001    
 core electron kinetic       :      1433.77891801    
 Coulomb                     :     -2996.30167403    
 Coulomb potential           :     -2336.78791394    
 nuclear-nuclear             :     -196.428282498    
 electron-nuclear            :     -3262.95886913    
 Hartree                     :      463.085477598    
 Madelung                    :     -1827.90771706    
 xc potential                :     -104.118631941    
 exchange                    :     -77.2002505963    
 correlation                 :     -1.77303300462    
 total energy                :     -1529.15847762    
 
Density of states at Fermi energy :    117.8106388    
 (states/Hartree/unit cell)
 
Estimated indirect band gap :   0.6704724325E-04
 from k-point    258 to k-point      5
Estimated direct band gap   :   0.1295782181E-02
 at k-point    240
 
Charges :
 core                        :    20.00000000    
 valence                     :    22.00000000    
 interstitial                :    3.885977254    
 muffin-tins (core leakage)
  species :    1 (Sc)
   atom    1                 :    19.05701137     (  0.6487582027E-08)
   atom    2                 :    19.05701137     (  0.6487582027E-08)
 total in muffin-tins        :    38.11402275    
 total calculated charge     :    42.00000060    
 total charge                :    42.00000000    
 error                       :   0.5973000157E-06
 
Wrote STATE.OUT
 
RMS change in Kohn-Sham potential (target) :   0.3475530516E-03 (   10.00000000    )
Absolute change in total energy (target)   :   0.1862772478E-06 (  0.1000000000E-07)
 
Time (CPU seconds) :      2213.02
 
+--------------------+
| Loop number :   27 |
+--------------------+
 
Energies :
 Fermi                       :     0.236887093513    
 sum of eigenvalues          :     -894.790065712    
 electron kinetic            :      1546.11647939    
 core electron kinetic       :      1433.77891837    
 Coulomb                     :     -2996.30167297    
 Coulomb potential           :     -2336.78791322    
 nuclear-nuclear             :     -196.428282498    
 electron-nuclear            :     -3262.95886772    
 Hartree                     :      463.085477250    
 Madelung                    :     -1827.90771636    
 xc potential                :     -104.118631882    
 exchange                    :     -77.2002505513    
 correlation                 :     -1.77303300417    
 total energy                :     -1529.15847713    
 
Density of states at Fermi energy :    117.8100852    
 (states/Hartree/unit cell)
 
Estimated indirect band gap :   0.6703598595E-04
 from k-point    258 to k-point      5
Estimated direct band gap   :   0.1295780461E-02
 at k-point    240
 
Charges :
 core                        :    20.00000000    
 valence                     :    22.00000000    
 interstitial                :    3.885977223    
 muffin-tins (core leakage)
  species :    1 (Sc)
   atom    1                 :    19.05701139     (  0.6496795990E-08)
   atom    2                 :    19.05701139     (  0.6496795990E-08)
 total in muffin-tins        :    38.11402278    
 total calculated charge     :    42.00000060    
 total charge                :    42.00000000    
 error                       :   0.5974059789E-06
 
RMS change in Kohn-Sham potential (target) :   0.1296842445E-04 (   10.00000000    )
Absolute change in total energy (target)   :   0.5333940862E-06 (  0.1000000000E-07)
 
Time (CPU seconds) :      2300.19
 
+--------------------+
| Loop number :   28 |
+--------------------+
 
Energies :
 Fermi                       :     0.236887093539    
 sum of eigenvalues          :     -894.790065783    
 electron kinetic            :      1546.11647938    
 core electron kinetic       :      1433.77891836    
 Coulomb                     :     -2996.30167300    
 Coulomb potential           :     -2336.78791328    
 nuclear-nuclear             :     -196.428282498    
 electron-nuclear            :     -3262.95886772    
 Hartree                     :      463.085477219    
 Madelung                    :     -1827.90771636    
 xc potential                :     -104.118631886    
 exchange                    :     -77.2002505543    
 correlation                 :     -1.77303300409    
 total energy                :     -1529.15847717    
 
Density of states at Fermi energy :    117.8101265    
 (states/Hartree/unit cell)
 
Estimated indirect band gap :   0.6703657825E-04
 from k-point    258 to k-point      5
Estimated direct band gap   :   0.1295780579E-02
 at k-point    240
 
Charges :
 core                        :    20.00000000    
 valence                     :    22.00000000    
 interstitial                :    3.885977228    
 muffin-tins (core leakage)
  species :    1 (Sc)
   atom    1                 :    19.05701139     (  0.6534584429E-08)
   atom    2                 :    19.05701139     (  0.6534584429E-08)
 total in muffin-tins        :    38.11402277    
 total calculated charge     :    42.00000060    
 total charge                :    42.00000000    
 error                       :   0.5972665846E-06
 
Wrote STATE.OUT
 
RMS change in Kohn-Sham potential (target) :   0.8620013914E-04 (   10.00000000    )
Absolute change in total energy (target)   :   0.9370228327E-07 (  0.1000000000E-07)
 
Time (CPU seconds) :      2386.31
 
+--------------------+
| Loop number :   29 |
+--------------------+
 
Energies :
 Fermi                       :     0.236887092051    
 sum of eigenvalues          :     -894.790065887    
 electron kinetic            :      1546.11647935    
 core electron kinetic       :      1433.77891824    
 Coulomb                     :     -2996.30167303    
 Coulomb potential           :     -2336.78791335    
 nuclear-nuclear             :     -196.428282498    
 electron-nuclear            :     -3262.95886772    
 Hartree                     :      463.085477187    
 Madelung                    :     -1827.90771636    
 xc potential                :     -104.118631889    
 exchange                    :     -77.2002505571    
 correlation                 :     -1.77303300424    
 total energy                :     -1529.15847725    
 
Density of states at Fermi energy :    117.8101671    
 (states/Hartree/unit cell)
 
Estimated indirect band gap :   0.6703649380E-04
 from k-point    258 to k-point      5
Estimated direct band gap   :   0.1295780717E-02
 at k-point    240
 
Charges :
 core                        :    20.00000000    
 valence                     :    22.00000000    
 interstitial                :    3.885977235    
 muffin-tins (core leakage)
  species :    1 (Sc)
   atom    1                 :    19.05701138     (  0.6905176875E-08)
   atom    2                 :    19.05701138     (  0.6905176875E-08)
 total in muffin-tins        :    38.11402277    
 total calculated charge     :    42.00000060    
 total charge                :    42.00000000    
 error                       :   0.5965856644E-06
 
RMS change in Kohn-Sham potential (target) :   0.4956592136E-05 (   10.00000000    )
Absolute change in total energy (target)   :   0.4888102012E-07 (  0.1000000000E-07)
 
Time (CPU seconds) :      2473.95
 
+--------------------+
| Loop number :   30 |
+--------------------+
 
Energies :
 Fermi                       :     0.236887089643    
 sum of eigenvalues          :     -894.790065922    
 electron kinetic            :      1546.11647927    
 core electron kinetic       :      1433.77891821    
 Coulomb                     :     -2996.30167301    
 Coulomb potential           :     -2336.78791331    
 nuclear-nuclear             :     -196.428282498    
 electron-nuclear            :     -3262.95886772    
 Hartree                     :      463.085477207    
 Madelung                    :     -1827.90771636    
 xc potential                :     -104.118631888    
 exchange                    :     -77.2002505564    
 correlation                 :     -1.77303300431    
 total energy                :     -1529.15847730    
 
Density of states at Fermi energy :    117.8101383    
 (states/Hartree/unit cell)
 
Estimated indirect band gap :   0.6703558915E-04
 from k-point    258 to k-point      5
Estimated direct band gap   :   0.1295780633E-02
 at k-point    240
 
Charges :
 core                        :    20.00000000    
 valence                     :    22.00000000    
 interstitial                :    3.885977234    
 muffin-tins (core leakage)
  species :    1 (Sc)
   atom    1                 :    19.05701138     (  0.6482142823E-08)
   atom    2                 :    19.05701138     (  0.6482142823E-08)
 total in muffin-tins        :    38.11402277    
 total calculated charge     :    42.00000060    
 total charge                :    42.00000000    
 error                       :   0.5973533987E-06
 
Wrote STATE.OUT
 
RMS change in Kohn-Sham potential (target) :   0.1275201344E-03 (   10.00000000    )
Absolute change in total energy (target)   :   0.6554409993E-07 (  0.1000000000E-07)
 
Time (CPU seconds) :      2562.74
 
+--------------------+
| Loop number :   31 |
+--------------------+
 
Energies :
 Fermi                       :     0.236887086647    
 sum of eigenvalues          :     -894.790065947    
 electron kinetic            :      1546.11647919    
 core electron kinetic       :      1433.77891824    
 Coulomb                     :     -2996.30167298    
 Coulomb potential           :     -2336.78791325    
 nuclear-nuclear             :     -196.428282498    
 electron-nuclear            :     -3262.95886772    
 Hartree                     :      463.085477234    
 Madelung                    :     -1827.90771636    
 xc potential                :     -104.118631881    
 exchange                    :     -77.2002505519    
 correlation                 :     -1.77303300411    
 total energy                :     -1529.15847735    
 
Density of states at Fermi energy :    117.8100925    
 (states/Hartree/unit cell)
 
Estimated indirect band gap :   0.6703466459E-04
 from k-point    258 to k-point      5
Estimated direct band gap   :   0.1295780486E-02
 at k-point    240
 
Charges :
 core                        :    20.00000000    
 valence                     :    22.00000000    
 interstitial                :    3.885977234    
 muffin-tins (core leakage)
  species :    1 (Sc)
   atom    1                 :    19.05701138     (  0.6556314602E-08)
   atom    2                 :    19.05701138     (  0.6556314602E-08)
 total in muffin-tins        :    38.11402277    
 total calculated charge     :    42.00000060    
 total charge                :    42.00000000    
 error                       :   0.5972746564E-06
 
RMS change in Kohn-Sham potential (target) :   0.1452271182E-03 (   10.00000000    )
Absolute change in total energy (target)   :   0.7161929716E-07 (  0.1000000000E-07)
 
Time (CPU seconds) :      2648.15
 
+--------------------+
| Loop number :   32 |
+--------------------+
 
Energies :
 Fermi                       :     0.236887086811    
 sum of eigenvalues          :     -894.790065978    
 electron kinetic            :      1546.11647919    
 core electron kinetic       :      1433.77891821    
 Coulomb                     :     -2996.30167300    
 Coulomb potential           :     -2336.78791329    
 nuclear-nuclear             :     -196.428282498    
 electron-nuclear            :     -3262.95886772    
 Hartree                     :      463.085477217    
 Madelung                    :     -1827.90771636    
 xc potential                :     -104.118631887    
 exchange                    :     -77.2002505546    
 correlation                 :     -1.77303300427    
 total energy                :     -1529.15847736    
 
Density of states at Fermi energy :    117.8101191    
 (states/Hartree/unit cell)
 
Estimated indirect band gap :   0.6703485132E-04
 from k-point    258 to k-point      5
Estimated direct band gap   :   0.1295780578E-02
 at k-point    240
 
Charges :
 core                        :    20.00000000    
 valence                     :    22.00000000    
 interstitial                :    3.885977236    
 muffin-tins (core leakage)
  species :    1 (Sc)
   atom    1                 :    19.05701138     (  0.6511410078E-08)
   atom    2                 :    19.05701138     (  0.6511410078E-08)
 total in muffin-tins        :    38.11402276    
 total calculated charge     :    42.00000060    
 total charge                :    42.00000000    
 error                       :   0.5973151502E-06
 
Wrote STATE.OUT
 
RMS change in Kohn-Sham potential (target) :   0.9722974452E-04 (   10.00000000    )
Absolute change in total energy (target)   :   0.2892443263E-07 (  0.1000000000E-07)
 
Time (CPU seconds) :      2735.90
 
+--------------------+
| Loop number :   33 |
+--------------------+
 
Energies :
 Fermi                       :     0.236887085831    
 sum of eigenvalues          :     -894.790065997    
 electron kinetic            :      1546.11647916    
 core electron kinetic       :      1433.77891820    
 Coulomb                     :     -2996.30167299    
 Coulomb potential           :     -2336.78791327    
 nuclear-nuclear             :     -196.428282498    
 electron-nuclear            :     -3262.95886772    
 Hartree                     :      463.085477225    
 Madelung                    :     -1827.90771636    
 xc potential                :     -104.118631886    
 exchange                    :     -77.2002505539    
 correlation                 :     -1.77303300455    
 total energy                :     -1529.15847739    
 
Density of states at Fermi energy :    117.8101164    
 (states/Hartree/unit cell)
 
Estimated indirect band gap :   0.6703454326E-04
 from k-point    258 to k-point      5
Estimated direct band gap   :   0.1295780573E-02
 at k-point    240
 
Charges :
 core                        :    20.00000000    
 valence                     :    22.00000000    
 interstitial                :    3.885977237    
 muffin-tins (core leakage)
  species :    1 (Sc)
   atom    1                 :    19.05701138     (  0.6453374723E-08)
   atom    2                 :    19.05701138     (  0.6453374723E-08)
 total in muffin-tins        :    38.11402276    
 total calculated charge     :    42.00000060    
 total charge                :    42.00000000    
 error                       :   0.5973954700E-06
 
RMS change in Kohn-Sham potential (target) :   0.5705711627E-04 (   10.00000000    )
Absolute change in total energy (target)   :   0.3376317181E-07 (  0.1000000000E-07)
 
Time (CPU seconds) :      2819.12
 
+--------------------+
| Loop number :   34 |
+--------------------+
 
Energies :
 Fermi                       :     0.236887085530    
 sum of eigenvalues          :     -894.790066002    
 electron kinetic            :      1546.11647917    
 core electron kinetic       :      1433.77891819    
 Coulomb                     :     -2996.30167300    
 Coulomb potential           :     -2336.78791329    
 nuclear-nuclear             :     -196.428282498    
 electron-nuclear            :     -3262.95886772    
 Hartree                     :      463.085477217    
 Madelung                    :     -1827.90771636    
 xc potential                :     -104.118631885    
 exchange                    :     -77.2002505540    
 correlation                 :     -1.77303300435    
 total energy                :     -1529.15847739    
 
Density of states at Fermi energy :    117.8101172    
 (states/Hartree/unit cell)
 
Estimated indirect band gap :   0.6703445753E-04
 from k-point    258 to k-point      5
Estimated direct band gap   :   0.1295780578E-02
 at k-point    240
 
Charges :
 core                        :    20.00000000    
 valence                     :    22.00000000    
 interstitial                :    3.885977238    
 muffin-tins (core leakage)
  species :    1 (Sc)
   atom    1                 :    19.05701138     (  0.6495138649E-08)
   atom    2                 :    19.05701138     (  0.6495138649E-08)
 total in muffin-tins        :    38.11402276    
 total calculated charge     :    42.00000060    
 total charge                :    42.00000000    
 error                       :   0.5973701960E-06
 
Wrote STATE.OUT
 
RMS change in Kohn-Sham potential (target) :   0.7713560853E-05 (   10.00000000    )
Absolute change in total energy (target)   :   0.7808694136E-08 (  0.1000000000E-07)
 
Convergence targets achieved
 
Time (CPU seconds) :      2901.96
 
+--------------------+
| Loop number :   35 |
+--------------------+
 
Energies :
 Fermi                       :     0.236887085488    
 sum of eigenvalues          :     -894.790065996    
 electron kinetic            :      1546.11647914    
 core electron kinetic       :      1433.77891816    
 Coulomb                     :     -2996.30167298    
 Coulomb potential           :     -2336.78791325    
 nuclear-nuclear             :     -196.428282498    
 electron-nuclear            :     -3262.95886772    
 Hartree                     :      463.085477233    
 Madelung                    :     -1827.90771636    
 xc potential                :     -104.118631882    
 exchange                    :     -77.2002505516    
 correlation                 :     -1.77303300447    
 total energy                :     -1529.15847740    
 
Density of states at Fermi energy :    117.8101086    
 (states/Hartree/unit cell)
 
Estimated indirect band gap :   0.6703444276E-04
 from k-point    258 to k-point      5
Estimated direct band gap   :   0.1295780550E-02
 at k-point    240
 
Charges :
 core                        :    20.00000000    
 valence                     :    22.00000000    
 interstitial                :    3.885977237    
 muffin-tins (core leakage)
  species :    1 (Sc)
   atom    1                 :    19.05701138     (  0.6862929780E-08)
   atom    2                 :    19.05701138     (  0.6862929780E-08)
 total in muffin-tins        :    38.11402276    
 total calculated charge     :    42.00000060    
 total charge                :    42.00000000    
 error                       :   0.5966545018E-06
 
+------------------------------+
| Self-consistent loop stopped |
+------------------------------+
 
Wrote STATE.OUT
 
Timings (CPU seconds) :
 initialisation                        :         1.17
 Hamiltonian and overlap matrix set up :      1038.01
 first-variational eigenvalue equation :      1195.79
 charge density calculation            :       245.88
 potential calculation                 :       505.46
 total                                 :      2986.31
 
+----------------------------+
| Elk version 8.3.15 stopped |
+----------------------------+
