   28.75871932    
   40.00538010    
   38.08855329    
   28.21847711    
   17.48929819    
   9.874605200    
   5.552104687    
   3.165447432    
   1.746062548    
  0.9024743760    
  0.4249477147    
  0.1768574274    
  0.6313470437E-01
  0.1828038922E-01
  0.3882363599E-02
  0.1827405504E-03
  0.1848143729E-03
  0.1970301528E-03
  0.4246909157E-04
  0.1292415254E-04
  0.9737137589E-05
  0.3200413630E-05
  0.1209820766E-05
  0.3253808245E-06
  0.1667467586E-06
  0.1512562449E-06
  0.1944936230E-06
  0.1345360943E-06
  0.1273765520E-06
  0.9311042959E-07
