 
Species :    1 (Au), atom :    1
 n =  1, l =  0, k =  1 :   -2967.211811    
 n =  2, l =  0, k =  1 :   -522.3144362    
 n =  2, l =  1, k =  1 :   -501.3899262    
 n =  2, l =  1, k =  2 :   -433.5690562    
 n =  3, l =  0, k =  1 :   -122.8982076    
 n =  3, l =  1, k =  1 :   -113.3693417    
 n =  3, l =  1, k =  2 :   -98.40569740    
 n =  3, l =  2, k =  2 :   -82.29704664    
 n =  3, l =  2, k =  3 :   -79.09398088    
 n =  4, l =  0, k =  1 :   -26.33545791    
 n =  4, l =  1, k =  1 :   -22.24431398    
 n =  4, l =  1, k =  2 :   -18.65349561    
 n =  4, l =  2, k =  2 :   -11.89414540    
 n =  4, l =  2, k =  3 :   -11.22829877    
 n =  5, l =  0, k =  1 :   -3.524941182    
