 
scale
 1.0
 
scale1
 1.0
 
scale2
 1.0
 
scale3
 1.0
 
avec
   4.016934855       4.016934855       0.000000000    
   4.016934855       0.000000000       4.016934855    
   0.000000000       4.016934855       4.016934855    
 
atoms
   1                                    : nspecies
'Au.in'                                 : spfname
   1                                    : natoms; atpos, bfcmt below
    0.00000000    0.00000000    0.00000000    0.00000000  0.00000000  0.00000000
