   2.472848129    
   11.31360833    
   35.47862544    
   50.81641428    
   36.41319038    
   20.28797816    
   4.840979390    
   1.239601491    
  0.2872847261    
  0.6948812701E-01
  0.1761511490E-01
  0.5753127805E-02
  0.2033091923E-02
  0.5263957228E-03
  0.1414324488E-03
  0.6161023521E-04
  0.1893713124E-04
  0.2686135849E-04
  0.9018238416E-05
  0.7123368050E-05
  0.1746539056E-05
  0.1160289685E-05
  0.2524740921E-05
  0.8569295460E-06
  0.2139397111E-05
  0.3125856892E-05
  0.2888773452E-06
  0.2026747097E-05
  0.9362956916E-06
  0.1069158316E-05
  0.2996166586E-06
  0.3679997462E-07
