  0.6719878139    
   4.940097785    
   22.19380928    
   17.05180168    
   8.704993543    
   3.978716086    
  0.9532043149    
  0.2170085744    
  0.5466146550E-01
  0.1583738087E-01
  0.3930403650E-02
  0.8194724596E-03
  0.3385195505E-03
  0.6987175948E-04
  0.8014735886E-04
  0.1830430974E-03
  0.9585537009E-04
  0.7575713425E-04
  0.5193281322E-04
  0.4666806308E-04
  0.1172704197E-04
  0.4161696870E-04
  0.4816774344E-04
  0.1748517207E-05
  0.3033055236E-04
  0.1313060420E-04
  0.2364281863E-04
  0.1603672990E-04
  0.4322605037E-04
  0.1253528899E-04
  0.8293912288E-05
  0.9507202776E-05
  0.1096650522E-06
  0.3955573447E-05
  0.9106557627E-05
  0.2021739419E-05
  0.5198094186E-05
  0.4929448551E-05
  0.2800457878E-05
  0.1921014700E-05
  0.1925645847E-06
  0.8500592230E-06
  0.5367564881E-07
  0.7696471584E-06
  0.2761980795E-06
  0.1129237717E-06
  0.1444086593E-06
  0.1714188329E-06
  0.2852311809E-06
  0.6916707207E-07
  0.2384331310E-07
  0.1125135896E-06
  0.1508178684E-06
  0.1012940629E-06
  0.1059215720E-06
  0.1112275640E-06
  0.5981928553E-07
  0.1023336154E-06
  0.1220450940E-07
  0.1150829121E-06
  0.5149740900E-07
  0.1038879418E-06
  0.1626740413E-06
  0.1699690984E-06
  0.4732055459E-06
  0.1221473212E-05
  0.3113445928E-06
  0.5186939234E-06
  0.2158021744E-06
  0.1941343726E-06
  0.5313268048E-08
