 
Species :    1 (Rh), atom :    1
 n =  1, l =  0, k =  1 :   -847.1207345    
 n =  2, l =  0, k =  1 :   -122.0310453    
 n =  2, l =  1, k =  1 :   -112.9165767    
 n =  2, l =  1, k =  2 :   -107.5799166    
 n =  3, l =  0, k =  1 :   -21.20813225    
 n =  3, l =  1, k =  1 :   -17.64606249    
 n =  3, l =  1, k =  2 :   -16.72680178    
 n =  3, l =  2, k =  2 :   -10.41311732    
 n =  3, l =  2, k =  3 :   -10.23268964    
