    -9145.68080038    
    -9144.55605203    
    -9132.72097818    
    -9099.72149924    
    -9080.02897973    
    -9070.73150997    
    -9066.38540046    
    -9066.42756758    
    -9066.46855578    
    -9066.45811339    
    -9066.44666408    
    -9066.44852561    
    -9066.44847166    
    -9066.44845826    
    -9066.44870848    
    -9066.44871420    
    -9066.44826067    
    -9066.44823953    
    -9066.44838403    
    -9066.44843805    
    -9066.44839937    
    -9066.44842550    
    -9066.44842820    
    -9066.44842809    
    -9066.44841597    
    -9066.44841599    
    -9066.44841869    
    -9066.44841885    
    -9066.44841869    
    -9066.44841889    
