   165 : nkpt; k-point, vkl, wkpt, nmat below
     1   0.000000000       0.000000000       0.000000000      0.2035416243E-03     281
     2  0.5882352941E-01   0.000000000       0.000000000      0.2442499491E-02     283
     3  0.1176470588       0.000000000       0.000000000      0.2442499491E-02     283
     4  0.1764705882       0.000000000       0.000000000      0.2442499491E-02     279
     5  0.2352941176       0.000000000       0.000000000      0.2442499491E-02     276
     6  0.2941176471       0.000000000       0.000000000      0.2442499491E-02     276
     7  0.3529411765       0.000000000       0.000000000      0.2442499491E-02     272
     8  0.4117647059       0.000000000       0.000000000      0.2442499491E-02     272
     9  0.4705882353       0.000000000       0.000000000      0.2442499491E-02     272
    10  0.5882352941E-01  0.5882352941E-01   0.000000000      0.4884998982E-02     284
    11  0.1176470588      0.5882352941E-01   0.000000000      0.9769997965E-02     280
    12  0.1764705882      0.5882352941E-01   0.000000000      0.9769997965E-02     274
    13  0.2352941176      0.5882352941E-01   0.000000000      0.9769997965E-02     276
    14  0.2941176471      0.5882352941E-01   0.000000000      0.9769997965E-02     275
    15  0.3529411765      0.5882352941E-01   0.000000000      0.9769997965E-02     272
    16  0.4117647059      0.5882352941E-01   0.000000000      0.9769997965E-02     274
    17  0.4705882353      0.5882352941E-01   0.000000000      0.4884998982E-02     272
    18  0.1176470588      0.1176470588       0.000000000      0.4884998982E-02     276
    19  0.1764705882      0.1176470588       0.000000000      0.9769997965E-02     275
    20  0.2352941176      0.1176470588       0.000000000      0.9769997965E-02     276
    21  0.2941176471      0.1176470588       0.000000000      0.9769997965E-02     275
    22  0.3529411765      0.1176470588       0.000000000      0.9769997965E-02     276
    23  0.4117647059      0.1176470588       0.000000000      0.9769997965E-02     274
    24  0.1764705882      0.1764705882       0.000000000      0.4884998982E-02     277
    25  0.2352941176      0.1764705882       0.000000000      0.9769997965E-02     278
    26  0.2941176471      0.1764705882       0.000000000      0.9769997965E-02     276
    27  0.3529411765      0.1764705882       0.000000000      0.9769997965E-02     277
    28  0.4117647059      0.1764705882       0.000000000      0.4884998982E-02     276
    29  0.2352941176      0.2352941176       0.000000000      0.4884998982E-02     274
    30  0.2941176471      0.2352941176       0.000000000      0.9769997965E-02     276
    31  0.3529411765      0.2352941176       0.000000000      0.9769997965E-02     276
    32  0.2941176471      0.2941176471       0.000000000      0.4884998982E-02     274
    33  0.3529411765      0.2941176471       0.000000000      0.4884998982E-02     278
    34  0.5882352941E-01  0.5882352941E-01  0.5882352941E-01  0.1628332994E-02     284
    35  0.1176470588      0.5882352941E-01  0.5882352941E-01  0.4884998982E-02     276
    36  0.1764705882      0.5882352941E-01  0.5882352941E-01  0.4884998982E-02     279
    37  0.2352941176      0.5882352941E-01  0.5882352941E-01  0.4884998982E-02     277
    38  0.2941176471      0.5882352941E-01  0.5882352941E-01  0.4884998982E-02     275
    39  0.3529411765      0.5882352941E-01  0.5882352941E-01  0.4884998982E-02     276
    40  0.4117647059      0.5882352941E-01  0.5882352941E-01  0.4884998982E-02     273
    41  0.9411764706      0.5882352941E-01  0.5882352941E-01  0.1221249746E-02     282
    42  0.1176470588      0.1176470588      0.5882352941E-01  0.4884998982E-02     275
    43  0.1764705882      0.1176470588      0.5882352941E-01  0.9769997965E-02     275
    44  0.2352941176      0.1176470588      0.5882352941E-01  0.9769997965E-02     278
    45  0.2941176471      0.1176470588      0.5882352941E-01  0.9769997965E-02     276
    46  0.3529411765      0.1176470588      0.5882352941E-01  0.9769997965E-02     276
    47  0.4117647059      0.1176470588      0.5882352941E-01  0.4884998982E-02     274
    48  0.8823529412      0.1176470588      0.5882352941E-01  0.4884998982E-02     283
    49  0.1764705882      0.1764705882      0.5882352941E-01  0.4884998982E-02     278
    50  0.2352941176      0.1764705882      0.5882352941E-01  0.9769997965E-02     276
    51  0.2941176471      0.1764705882      0.5882352941E-01  0.9769997965E-02     276
    52  0.3529411765      0.1764705882      0.5882352941E-01  0.9769997965E-02     278
    53  0.8235294118      0.1764705882      0.5882352941E-01  0.4884998982E-02     277
    54  0.8823529412      0.1764705882      0.5882352941E-01  0.4884998982E-02     278
    55  0.2352941176      0.2352941176      0.5882352941E-01  0.4884998982E-02     277
    56  0.2941176471      0.2352941176      0.5882352941E-01  0.9769997965E-02     278
    57  0.3529411765      0.2352941176      0.5882352941E-01  0.4884998982E-02     277
    58  0.7647058824      0.2352941176      0.5882352941E-01  0.4884998982E-02     276
    59  0.8235294118      0.2352941176      0.5882352941E-01  0.9769997965E-02     275
    60  0.2941176471      0.2941176471      0.5882352941E-01  0.4884998982E-02     282
    61  0.7058823529      0.2941176471      0.5882352941E-01  0.4884998982E-02     272
    62  0.7647058824      0.2941176471      0.5882352941E-01  0.9769997965E-02     274
    63  0.8235294118      0.2941176471      0.5882352941E-01  0.4884998982E-02     277
    64  0.6470588235      0.3529411765      0.5882352941E-01  0.4884998982E-02     276
    65  0.7058823529      0.3529411765      0.5882352941E-01  0.9769997965E-02     273
    66  0.7647058824      0.3529411765      0.5882352941E-01  0.9769997965E-02     275
    67  0.5882352941      0.4117647059      0.5882352941E-01  0.4884998982E-02     275
    68  0.6470588235      0.4117647059      0.5882352941E-01  0.9769997965E-02     274
    69  0.7058823529      0.4117647059      0.5882352941E-01  0.9769997965E-02     274
    70  0.7647058824      0.4117647059      0.5882352941E-01  0.4884998982E-02     273
    71  0.5294117647      0.4705882353      0.5882352941E-01  0.4884998982E-02     272
    72  0.5882352941      0.4705882353      0.5882352941E-01  0.9769997965E-02     273
    73  0.6470588235      0.4705882353      0.5882352941E-01  0.9769997965E-02     275
    74  0.7058823529      0.4705882353      0.5882352941E-01  0.9769997965E-02     277
    75  0.5294117647      0.5294117647      0.5882352941E-01  0.4884998982E-02     272
    76  0.5882352941      0.5294117647      0.5882352941E-01  0.9769997965E-02     275
    77  0.6470588235      0.5294117647      0.5882352941E-01  0.9769997965E-02     276
    78  0.7058823529      0.5294117647      0.5882352941E-01  0.4884998982E-02     273
    79  0.5882352941      0.5882352941      0.5882352941E-01  0.4884998982E-02     276
    80  0.6470588235      0.5882352941      0.5882352941E-01  0.9769997965E-02     274
    81  0.6470588235      0.6470588235      0.5882352941E-01  0.1628332994E-02     280
    82  0.1176470588      0.1176470588      0.1176470588      0.1628332994E-02     278
    83  0.1764705882      0.1176470588      0.1176470588      0.4884998982E-02     276
    84  0.2352941176      0.1176470588      0.1176470588      0.4884998982E-02     277
    85  0.2941176471      0.1176470588      0.1176470588      0.4884998982E-02     279
    86  0.3529411765      0.1176470588      0.1176470588      0.4884998982E-02     277
    87  0.8823529412      0.1176470588      0.1176470588      0.1221249746E-02     282
    88  0.1764705882      0.1764705882      0.1176470588      0.4884998982E-02     275
    89  0.2352941176      0.1764705882      0.1176470588      0.9769997965E-02     277
    90  0.2941176471      0.1764705882      0.1176470588      0.9769997965E-02     280
    91  0.3529411765      0.1764705882      0.1176470588      0.4884998982E-02     278
    92  0.8235294118      0.1764705882      0.1176470588      0.4884998982E-02     272
    93  0.2352941176      0.2352941176      0.1176470588      0.4884998982E-02     279
    94  0.2941176471      0.2352941176      0.1176470588      0.9769997965E-02     280
    95  0.7647058824      0.2352941176      0.1176470588      0.4884998982E-02     276
    96  0.8235294118      0.2352941176      0.1176470588      0.4884998982E-02     274
    97  0.2941176471      0.2941176471      0.1176470588      0.1628332994E-02     280
    98  0.7058823529      0.2941176471      0.1176470588      0.4884998982E-02     272
    99  0.7647058824      0.2941176471      0.1176470588      0.9769997965E-02     274
   100  0.6470588235      0.3529411765      0.1176470588      0.4884998982E-02     275
   101  0.7058823529      0.3529411765      0.1176470588      0.9769997965E-02     273
   102  0.7647058824      0.3529411765      0.1176470588      0.4884998982E-02     274
   103  0.5882352941      0.4117647059      0.1176470588      0.4884998982E-02     273
   104  0.6470588235      0.4117647059      0.1176470588      0.9769997965E-02     274
   105  0.7058823529      0.4117647059      0.1176470588      0.9769997965E-02     273
   106  0.5294117647      0.4705882353      0.1176470588      0.4884998982E-02     274
   107  0.5882352941      0.4705882353      0.1176470588      0.9769997965E-02     274
   108  0.6470588235      0.4705882353      0.1176470588      0.9769997965E-02     273
   109  0.7058823529      0.4705882353      0.1176470588      0.4884998982E-02     275
   110  0.5294117647      0.5294117647      0.1176470588      0.4884998982E-02     274
   111  0.5882352941      0.5294117647      0.1176470588      0.9769997965E-02     273
   112  0.6470588235      0.5294117647      0.1176470588      0.9769997965E-02     274
   113  0.5882352941      0.5882352941      0.1176470588      0.4884998982E-02     274
   114  0.6470588235      0.5882352941      0.1176470588      0.4884998982E-02     275
   115  0.1764705882      0.1764705882      0.1764705882      0.1628332994E-02     277
   116  0.2352941176      0.1764705882      0.1764705882      0.4884998982E-02     277
   117  0.2941176471      0.1764705882      0.1764705882      0.4884998982E-02     280
   118  0.8235294118      0.1764705882      0.1764705882      0.1221249746E-02     278
   119  0.2352941176      0.2352941176      0.1764705882      0.4884998982E-02     281
   120  0.2941176471      0.2352941176      0.1764705882      0.4884998982E-02     286
   121  0.7647058824      0.2352941176      0.1764705882      0.4884998982E-02     273
   122  0.7058823529      0.2941176471      0.1764705882      0.4884998982E-02     272
   123  0.7647058824      0.2941176471      0.1764705882      0.4884998982E-02     270
   124  0.6470588235      0.3529411765      0.1764705882      0.4884998982E-02     273
   125  0.7058823529      0.3529411765      0.1764705882      0.9769997965E-02     271
   126  0.5882352941      0.4117647059      0.1764705882      0.4884998982E-02     273
   127  0.6470588235      0.4117647059      0.1764705882      0.9769997965E-02     272
   128  0.7058823529      0.4117647059      0.1764705882      0.4884998982E-02     273
   129  0.5294117647      0.4705882353      0.1764705882      0.4884998982E-02     276
   130  0.5882352941      0.4705882353      0.1764705882      0.9769997965E-02     274
   131  0.6470588235      0.4705882353      0.1764705882      0.9769997965E-02     272
   132  0.5294117647      0.5294117647      0.1764705882      0.4884998982E-02     275
   133  0.5882352941      0.5294117647      0.1764705882      0.9769997965E-02     272
   134  0.6470588235      0.5294117647      0.1764705882      0.4884998982E-02     273
   135  0.5882352941      0.5882352941      0.1764705882      0.4884998982E-02     273
   136  0.2352941176      0.2352941176      0.2352941176      0.1628332994E-02     286
   137  0.7647058824      0.2352941176      0.2352941176      0.1221249746E-02     274
   138  0.7058823529      0.2941176471      0.2352941176      0.4884998982E-02     270
   139  0.6470588235      0.3529411765      0.2352941176      0.4884998982E-02     272
   140  0.7058823529      0.3529411765      0.2352941176      0.4884998982E-02     272
   141  0.5882352941      0.4117647059      0.2352941176      0.4884998982E-02     271
   142  0.6470588235      0.4117647059      0.2352941176      0.9769997965E-02     272
   143  0.5294117647      0.4705882353      0.2352941176      0.4884998982E-02     273
   144  0.5882352941      0.4705882353      0.2352941176      0.9769997965E-02     271
   145  0.6470588235      0.4705882353      0.2352941176      0.4884998982E-02     271
   146  0.5294117647      0.5294117647      0.2352941176      0.4884998982E-02     273
   147  0.5882352941      0.5294117647      0.2352941176      0.9769997965E-02     273
   148  0.5882352941      0.5882352941      0.2352941176      0.1628332994E-02     271
   149  0.7058823529      0.2941176471      0.2941176471      0.1221249746E-02     274
   150  0.6470588235      0.3529411765      0.2941176471      0.4884998982E-02     274
   151  0.5882352941      0.4117647059      0.2941176471      0.4884998982E-02     273
   152  0.6470588235      0.4117647059      0.2941176471      0.4884998982E-02     271
   153  0.5294117647      0.4705882353      0.2941176471      0.4884998982E-02     273
   154  0.5882352941      0.4705882353      0.2941176471      0.9769997965E-02     270
   155  0.5294117647      0.5294117647      0.2941176471      0.4884998982E-02     271
   156  0.5882352941      0.5294117647      0.2941176471      0.4884998982E-02     267
   157  0.6470588235      0.3529411765      0.3529411765      0.1221249746E-02     270
   158  0.5882352941      0.4117647059      0.3529411765      0.4884998982E-02     268
   159  0.5294117647      0.4705882353      0.3529411765      0.4884998982E-02     265
   160  0.5882352941      0.4705882353      0.3529411765      0.4884998982E-02     265
   161  0.5294117647      0.5294117647      0.3529411765      0.4884998982E-02     262
   162  0.5882352941      0.4117647059      0.4117647059      0.1221249746E-02     262
   163  0.5294117647      0.4705882353      0.4117647059      0.4884998982E-02     262
   164  0.5294117647      0.5294117647      0.4117647059      0.1628332994E-02     262
   165  0.5294117647      0.4705882353      0.4705882353      0.1221249746E-02     262
