 
scale
 1.0
 
scale1
 1.0
 
scale2
 1.0
 
scale3
 1.0
 
avec
   4.434295692      -2.560141812       0.000000000    
   0.000000000       5.120283624       0.000000000    
   0.000000000       0.000000000       8.812450545    
 
atoms
   1                                    : nspecies
'Re.in'                                 : spfname
   2                                    : natoms; atpos, bfcmt below
    0.33333333    0.16666667    0.25000000    0.00000000  0.00000000  0.00000000
   -0.33333333   -0.16666667   -0.25000000    0.00000000  0.00000000  0.00000000
