    -18581.9176847    
    -18554.4605986    
    -18523.0023357    
    -18495.9236427    
    -18477.2845606    
    -18466.5467337    
    -18460.7245523    
    -18457.3927336    
    -18455.4281102    
    -18454.3485490    
    -18453.8145734    
    -18453.5830610    
    -18453.4996336    
    -18453.4762672    
    -18453.4727180    
    -18453.4731850    
    -18453.4740736    
    -18453.4742611    
    -18453.4744581    
    -18453.4744519    
    -18453.4744610    
    -18453.4744580    
    -18453.4744654    
    -18453.4744658    
    -18453.4744666    
    -18453.4744666    
    -18453.4744669    
    -18453.4744667    
    -18453.4744668    
    -18453.4744667    
    -18453.4744669    
