    -609.998013444    
    -609.894130422    
    -606.577620344    
    -604.194795269    
    -603.009450699    
    -602.583352620    
    -602.431409045    
    -602.447338269    
    -602.447553679    
    -602.445000627    
    -602.444415765    
    -602.444351733    
    -602.444267421    
    -602.444276988    
    -602.444265778    
    -602.444265408    
    -602.444266861    
    -602.444277280    
    -602.444272760    
    -602.444270463    
    -602.444271997    
    -602.444265697    
    -602.444273065    
    -602.444268259    
    -602.444267820    
    -602.444267534    
    -602.444267062    
    -602.444268120    
    -602.444267356    
    -602.444267395    
    -602.444267220    
    -602.444267027    
    -602.444267117    
    -602.444267294    
    -602.444267168    
    -602.444267215    
    -602.444267037    
    -602.444267065    
    -602.444267188    
    -602.444267055    
    -602.444267121    
    -602.444267155    
    -602.444267156    
    -602.444267160    
    -602.444267167    
