 
+----------------------------+
| Real-space lattice vectors |
+----------------------------+
 
vector a1 :    5.541327106       5.541327106       0.000000000    
vector a2 :    5.541327106       0.000000000       5.541327106    
vector a3 :    0.000000000       5.541327106       5.541327106    
 
Stored column-wise as a matrix :
   5.541327106       5.541327106       0.000000000    
   5.541327106       0.000000000       5.541327106    
   0.000000000       5.541327106       5.541327106    
 
Inverse of matrix :
  0.9023109274E-01  0.9023109274E-01 -0.9023109274E-01
  0.9023109274E-01 -0.9023109274E-01  0.9023109274E-01
 -0.9023109274E-01  0.9023109274E-01  0.9023109274E-01
 
Unit cell volume :    340.3073726    
 
 
+----------------------------------+
| Reciprocal-space lattice vectors |
+----------------------------------+
 
vector b1 :   0.5669386761      0.5669386761     -0.5669386761    
vector b2 :   0.5669386761     -0.5669386761      0.5669386761    
vector b3 :  -0.5669386761      0.5669386761      0.5669386761    
 
Stored column-wise as a matrix :
  0.5669386761      0.5669386761     -0.5669386761    
  0.5669386761     -0.5669386761      0.5669386761    
 -0.5669386761      0.5669386761      0.5669386761    
 
Inverse of matrix :
  0.8819296002      0.8819296002       0.000000000    
  0.8819296002       0.000000000      0.8819296002    
   0.000000000      0.8819296002      0.8819296002    
 
Brillouin zone volume :   0.7289004982    
