 
Species :    1 (Y), atom :    1
 n =  1, l =  0, k =  1 :   -620.4546079    
 n =  2, l =  0, k =  1 :   -84.49928193    
 n =  2, l =  1, k =  1 :   -77.07114240    
 n =  2, l =  1, k =  2 :   -74.23829904    
 n =  3, l =  0, k =  1 :   -13.09273170    
 n =  3, l =  1, k =  1 :   -10.36448594    
 n =  3, l =  1, k =  2 :   -9.921157075    
 n =  3, l =  2, k =  2 :   -5.119352339    
 n =  3, l =  2, k =  3 :   -5.040547805    
 
Species :    1 (Y), atom :    2
 n =  1, l =  0, k =  1 :   -620.4546079    
 n =  2, l =  0, k =  1 :   -84.49928193    
 n =  2, l =  1, k =  1 :   -77.07114240    
 n =  2, l =  1, k =  2 :   -74.23829904    
 n =  3, l =  0, k =  1 :   -13.09273170    
 n =  3, l =  1, k =  1 :   -10.36448594    
 n =  3, l =  1, k =  2 :   -9.921157075    
 n =  3, l =  2, k =  2 :   -5.119352339    
 n =  3, l =  2, k =  3 :   -5.040547805    
