 
+----------------------------+
| Real-space lattice vectors |
+----------------------------+
 
vector a1 :    4.440192084      -2.563546095       0.000000000    
vector a2 :    0.000000000       5.127092190       0.000000000    
vector a3 :    0.000000000       0.000000000       8.075033386    
 
Stored column-wise as a matrix :
   4.440192084       0.000000000       0.000000000    
  -2.563546095       5.127092190       0.000000000    
   0.000000000       0.000000000       8.075033386    
 
Inverse of matrix :
  0.2252154819       0.000000000       0.000000000    
  0.1126077410      0.1950423287       0.000000000    
   0.000000000       0.000000000      0.1238384973    
 
Unit cell volume :    183.8303489    
 
 
+----------------------------------+
| Reciprocal-space lattice vectors |
+----------------------------------+
 
vector b1 :    1.415070607       0.000000000       0.000000000    
vector b2 :   0.7075353034       1.225487094       0.000000000    
vector b3 :    0.000000000       0.000000000      0.7781002266    
 
Stored column-wise as a matrix :
   1.415070607      0.7075353034       0.000000000    
   0.000000000       1.225487094       0.000000000    
   0.000000000       0.000000000      0.7781002266    
 
Inverse of matrix :
  0.7066785185     -0.4080010329       0.000000000    
   0.000000000      0.8160020658       0.000000000    
   0.000000000       0.000000000       1.285181479    
 
Brillouin zone volume :    1.349343103    
