 
+----------------------------+
| Real-space lattice vectors |
+----------------------------+
 
vector a1 :    5.279274726      -3.047990685       0.000000000    
vector a2 :    0.000000000       6.095981368       0.000000000    
vector a3 :    0.000000000       0.000000000       10.05421748    
 
Stored column-wise as a matrix :
   5.279274726       0.000000000       0.000000000    
  -3.047990685       6.095981368       0.000000000    
   0.000000000       0.000000000       10.05421748    
 
Inverse of matrix :
  0.1894199586       0.000000000       0.000000000    
  0.9470997931E-01  0.1640424961       0.000000000    
   0.000000000       0.000000000      0.9946074885E-01
 
Unit cell volume :    323.5684503    
 
 
+----------------------------------+
| Reciprocal-space lattice vectors |
+----------------------------------+
 
vector b1 :    1.190160701       0.000000000       0.000000000    
vector b2 :   0.5950803504       1.030709401       0.000000000    
vector b3 :    0.000000000       0.000000000      0.6249303158    
 
Stored column-wise as a matrix :
   1.190160701      0.5950803504       0.000000000    
   0.000000000       1.030709401       0.000000000    
   0.000000000       0.000000000      0.6249303158    
 
Inverse of matrix :
  0.8402226686     -0.4851027840       0.000000000    
   0.000000000      0.9702055678       0.000000000    
   0.000000000       0.000000000       1.600178411    
 
Brillouin zone volume :   0.7666081573    
