   297 : nkpt; k-point, vkl, wkpt, nmat below
     1   0.000000000       0.000000000       0.000000000      0.2035416243E-03     537
     2  0.5882352941E-01   0.000000000       0.000000000      0.1221249746E-02     542
     3  0.1176470588       0.000000000       0.000000000      0.1221249746E-02     550
     4  0.1764705882       0.000000000       0.000000000      0.1221249746E-02     548
     5  0.2352941176       0.000000000       0.000000000      0.1221249746E-02     546
     6  0.2941176471       0.000000000       0.000000000      0.1221249746E-02     546
     7  0.3529411765       0.000000000       0.000000000      0.1221249746E-02     542
     8  0.4117647059       0.000000000       0.000000000      0.1221249746E-02     536
     9  0.4705882353       0.000000000       0.000000000      0.1221249746E-02     540
    10  0.5882352941E-01  0.5882352941E-01   0.000000000      0.1221249746E-02     547
    11  0.1176470588      0.5882352941E-01   0.000000000      0.2442499491E-02     550
    12  0.1764705882      0.5882352941E-01   0.000000000      0.2442499491E-02     546
    13  0.2352941176      0.5882352941E-01   0.000000000      0.2442499491E-02     546
    14  0.2941176471      0.5882352941E-01   0.000000000      0.2442499491E-02     550
    15  0.3529411765      0.5882352941E-01   0.000000000      0.2442499491E-02     542
    16  0.4117647059      0.5882352941E-01   0.000000000      0.2442499491E-02     537
    17  0.4705882353      0.5882352941E-01   0.000000000      0.1221249746E-02     532
    18  0.1176470588      0.1176470588       0.000000000      0.1221249746E-02     543
    19  0.1764705882      0.1176470588       0.000000000      0.2442499491E-02     550
    20  0.2352941176      0.1176470588       0.000000000      0.2442499491E-02     544
    21  0.2941176471      0.1176470588       0.000000000      0.2442499491E-02     541
    22  0.3529411765      0.1176470588       0.000000000      0.2442499491E-02     541
    23  0.4117647059      0.1176470588       0.000000000      0.2442499491E-02     537
    24  0.1764705882      0.1764705882       0.000000000      0.1221249746E-02     545
    25  0.2352941176      0.1764705882       0.000000000      0.2442499491E-02     541
    26  0.2941176471      0.1764705882       0.000000000      0.2442499491E-02     538
    27  0.3529411765      0.1764705882       0.000000000      0.2442499491E-02     537
    28  0.4117647059      0.1764705882       0.000000000      0.1221249746E-02     538
    29  0.2352941176      0.2352941176       0.000000000      0.1221249746E-02     543
    30  0.2941176471      0.2352941176       0.000000000      0.2442499491E-02     535
    31  0.3529411765      0.2352941176       0.000000000      0.2442499491E-02     540
    32  0.2941176471      0.2941176471       0.000000000      0.1221249746E-02     536
    33  0.3529411765      0.2941176471       0.000000000      0.1221249746E-02     538
    34   0.000000000       0.000000000      0.5882352941E-01  0.4070832485E-03     537
    35  0.5882352941E-01   0.000000000      0.5882352941E-01  0.2442499491E-02     542
    36  0.1176470588       0.000000000      0.5882352941E-01  0.2442499491E-02     550
    37  0.1764705882       0.000000000      0.5882352941E-01  0.2442499491E-02     551
    38  0.2352941176       0.000000000      0.5882352941E-01  0.2442499491E-02     548
    39  0.2941176471       0.000000000      0.5882352941E-01  0.2442499491E-02     546
    40  0.3529411765       0.000000000      0.5882352941E-01  0.2442499491E-02     542
    41  0.4117647059       0.000000000      0.5882352941E-01  0.2442499491E-02     538
    42  0.4705882353       0.000000000      0.5882352941E-01  0.2442499491E-02     538
    43  0.5882352941E-01  0.5882352941E-01  0.5882352941E-01  0.2442499491E-02     545
    44  0.1176470588      0.5882352941E-01  0.5882352941E-01  0.4884998982E-02     550
    45  0.1764705882      0.5882352941E-01  0.5882352941E-01  0.4884998982E-02     548
    46  0.2352941176      0.5882352941E-01  0.5882352941E-01  0.4884998982E-02     548
    47  0.2941176471      0.5882352941E-01  0.5882352941E-01  0.4884998982E-02     546
    48  0.3529411765      0.5882352941E-01  0.5882352941E-01  0.4884998982E-02     541
    49  0.4117647059      0.5882352941E-01  0.5882352941E-01  0.4884998982E-02     537
    50  0.4705882353      0.5882352941E-01  0.5882352941E-01  0.2442499491E-02     535
    51  0.1176470588      0.1176470588      0.5882352941E-01  0.2442499491E-02     546
    52  0.1764705882      0.1176470588      0.5882352941E-01  0.4884998982E-02     546
    53  0.2352941176      0.1176470588      0.5882352941E-01  0.4884998982E-02     547
    54  0.2941176471      0.1176470588      0.5882352941E-01  0.4884998982E-02     542
    55  0.3529411765      0.1176470588      0.5882352941E-01  0.4884998982E-02     538
    56  0.4117647059      0.1176470588      0.5882352941E-01  0.4884998982E-02     538
    57  0.1764705882      0.1764705882      0.5882352941E-01  0.2442499491E-02     545
    58  0.2352941176      0.1764705882      0.5882352941E-01  0.4884998982E-02     540
    59  0.2941176471      0.1764705882      0.5882352941E-01  0.4884998982E-02     538
    60  0.3529411765      0.1764705882      0.5882352941E-01  0.4884998982E-02     537
    61  0.4117647059      0.1764705882      0.5882352941E-01  0.2442499491E-02     542
    62  0.2352941176      0.2352941176      0.5882352941E-01  0.2442499491E-02     538
    63  0.2941176471      0.2352941176      0.5882352941E-01  0.4884998982E-02     535
    64  0.3529411765      0.2352941176      0.5882352941E-01  0.4884998982E-02     538
    65  0.2941176471      0.2941176471      0.5882352941E-01  0.2442499491E-02     536
    66  0.3529411765      0.2941176471      0.5882352941E-01  0.2442499491E-02     540
    67   0.000000000       0.000000000      0.1176470588      0.4070832485E-03     537
    68  0.5882352941E-01   0.000000000      0.1176470588      0.2442499491E-02     543
    69  0.1176470588       0.000000000      0.1176470588      0.2442499491E-02     547
    70  0.1764705882       0.000000000      0.1176470588      0.2442499491E-02     554
    71  0.2352941176       0.000000000      0.1176470588      0.2442499491E-02     548
    72  0.2941176471       0.000000000      0.1176470588      0.2442499491E-02     546
    73  0.3529411765       0.000000000      0.1176470588      0.2442499491E-02     542
    74  0.4117647059       0.000000000      0.1176470588      0.2442499491E-02     535
    75  0.4705882353       0.000000000      0.1176470588      0.2442499491E-02     537
    76  0.5882352941E-01  0.5882352941E-01  0.1176470588      0.2442499491E-02     547
    77  0.1176470588      0.5882352941E-01  0.1176470588      0.4884998982E-02     548
    78  0.1764705882      0.5882352941E-01  0.1176470588      0.4884998982E-02     549
    79  0.2352941176      0.5882352941E-01  0.1176470588      0.4884998982E-02     548
    80  0.2941176471      0.5882352941E-01  0.1176470588      0.4884998982E-02     544
    81  0.3529411765      0.5882352941E-01  0.1176470588      0.4884998982E-02     540
    82  0.4117647059      0.5882352941E-01  0.1176470588      0.4884998982E-02     537
    83  0.4705882353      0.5882352941E-01  0.1176470588      0.2442499491E-02     537
    84  0.1176470588      0.1176470588      0.1176470588      0.2442499491E-02     550
    85  0.1764705882      0.1176470588      0.1176470588      0.4884998982E-02     548
    86  0.2352941176      0.1176470588      0.1176470588      0.4884998982E-02     545
    87  0.2941176471      0.1176470588      0.1176470588      0.4884998982E-02     542
    88  0.3529411765      0.1176470588      0.1176470588      0.4884998982E-02     539
    89  0.4117647059      0.1176470588      0.1176470588      0.4884998982E-02     537
    90  0.1764705882      0.1764705882      0.1176470588      0.2442499491E-02     544
    91  0.2352941176      0.1764705882      0.1176470588      0.4884998982E-02     541
    92  0.2941176471      0.1764705882      0.1176470588      0.4884998982E-02     536
    93  0.3529411765      0.1764705882      0.1176470588      0.4884998982E-02     539
    94  0.4117647059      0.1764705882      0.1176470588      0.2442499491E-02     538
    95  0.2352941176      0.2352941176      0.1176470588      0.2442499491E-02     540
    96  0.2941176471      0.2352941176      0.1176470588      0.4884998982E-02     537
    97  0.3529411765      0.2352941176      0.1176470588      0.4884998982E-02     538
    98  0.2941176471      0.2941176471      0.1176470588      0.2442499491E-02     537
    99  0.3529411765      0.2941176471      0.1176470588      0.2442499491E-02     540
   100   0.000000000       0.000000000      0.1764705882      0.4070832485E-03     537
   101  0.5882352941E-01   0.000000000      0.1764705882      0.2442499491E-02     545
   102  0.1176470588       0.000000000      0.1764705882      0.2442499491E-02     549
   103  0.1764705882       0.000000000      0.1764705882      0.2442499491E-02     548
   104  0.2352941176       0.000000000      0.1764705882      0.2442499491E-02     549
   105  0.2941176471       0.000000000      0.1764705882      0.2442499491E-02     548
   106  0.3529411765       0.000000000      0.1764705882      0.2442499491E-02     543
   107  0.4117647059       0.000000000      0.1764705882      0.2442499491E-02     539
   108  0.4705882353       0.000000000      0.1764705882      0.2442499491E-02     535
   109  0.5882352941E-01  0.5882352941E-01  0.1764705882      0.2442499491E-02     546
   110  0.1176470588      0.5882352941E-01  0.1764705882      0.4884998982E-02     548
   111  0.1764705882      0.5882352941E-01  0.1764705882      0.4884998982E-02     548
   112  0.2352941176      0.5882352941E-01  0.1764705882      0.4884998982E-02     549
   113  0.2941176471      0.5882352941E-01  0.1764705882      0.4884998982E-02     544
   114  0.3529411765      0.5882352941E-01  0.1764705882      0.4884998982E-02     537
   115  0.4117647059      0.5882352941E-01  0.1764705882      0.4884998982E-02     536
   116  0.4705882353      0.5882352941E-01  0.1764705882      0.2442499491E-02     535
   117  0.1176470588      0.1176470588      0.1764705882      0.2442499491E-02     548
   118  0.1764705882      0.1176470588      0.1764705882      0.4884998982E-02     549
   119  0.2352941176      0.1176470588      0.1764705882      0.4884998982E-02     543
   120  0.2941176471      0.1176470588      0.1764705882      0.4884998982E-02     538
   121  0.3529411765      0.1176470588      0.1764705882      0.4884998982E-02     538
   122  0.4117647059      0.1176470588      0.1764705882      0.4884998982E-02     538
   123  0.1764705882      0.1764705882      0.1764705882      0.2442499491E-02     546
   124  0.2352941176      0.1764705882      0.1764705882      0.4884998982E-02     539
   125  0.2941176471      0.1764705882      0.1764705882      0.4884998982E-02     539
   126  0.3529411765      0.1764705882      0.1764705882      0.4884998982E-02     539
   127  0.4117647059      0.1764705882      0.1764705882      0.2442499491E-02     538
   128  0.2352941176      0.2352941176      0.1764705882      0.2442499491E-02     538
   129  0.2941176471      0.2352941176      0.1764705882      0.4884998982E-02     538
   130  0.3529411765      0.2352941176      0.1764705882      0.4884998982E-02     540
   131  0.2941176471      0.2941176471      0.1764705882      0.2442499491E-02     538
   132  0.3529411765      0.2941176471      0.1764705882      0.2442499491E-02     536
   133   0.000000000       0.000000000      0.2352941176      0.4070832485E-03     538
   134  0.5882352941E-01   0.000000000      0.2352941176      0.2442499491E-02     547
   135  0.1176470588       0.000000000      0.2352941176      0.2442499491E-02     550
   136  0.1764705882       0.000000000      0.2352941176      0.2442499491E-02     549
   137  0.2352941176       0.000000000      0.2352941176      0.2442499491E-02     550
   138  0.2941176471       0.000000000      0.2352941176      0.2442499491E-02     545
   139  0.3529411765       0.000000000      0.2352941176      0.2442499491E-02     544
   140  0.4117647059       0.000000000      0.2352941176      0.2442499491E-02     541
   141  0.4705882353       0.000000000      0.2352941176      0.2442499491E-02     533
   142  0.5882352941E-01  0.5882352941E-01  0.2352941176      0.2442499491E-02     551
   143  0.1176470588      0.5882352941E-01  0.2352941176      0.4884998982E-02     547
   144  0.1764705882      0.5882352941E-01  0.2352941176      0.4884998982E-02     548
   145  0.2352941176      0.5882352941E-01  0.2352941176      0.4884998982E-02     547
   146  0.2941176471      0.5882352941E-01  0.2352941176      0.4884998982E-02     542
   147  0.3529411765      0.5882352941E-01  0.2352941176      0.4884998982E-02     538
   148  0.4117647059      0.5882352941E-01  0.2352941176      0.4884998982E-02     537
   149  0.4705882353      0.5882352941E-01  0.2352941176      0.2442499491E-02     535
   150  0.1176470588      0.1176470588      0.2352941176      0.2442499491E-02     550
   151  0.1764705882      0.1176470588      0.2352941176      0.4884998982E-02     548
   152  0.2352941176      0.1176470588      0.2352941176      0.4884998982E-02     544
   153  0.2941176471      0.1176470588      0.2352941176      0.4884998982E-02     539
   154  0.3529411765      0.1176470588      0.2352941176      0.4884998982E-02     537
   155  0.4117647059      0.1176470588      0.2352941176      0.4884998982E-02     537
   156  0.1764705882      0.1764705882      0.2352941176      0.2442499491E-02     541
   157  0.2352941176      0.1764705882      0.2352941176      0.4884998982E-02     538
   158  0.2941176471      0.1764705882      0.2352941176      0.4884998982E-02     539
   159  0.3529411765      0.1764705882      0.2352941176      0.4884998982E-02     540
   160  0.4117647059      0.1764705882      0.2352941176      0.2442499491E-02     540
   161  0.2352941176      0.2352941176      0.2352941176      0.2442499491E-02     537
   162  0.2941176471      0.2352941176      0.2352941176      0.4884998982E-02     537
   163  0.3529411765      0.2352941176      0.2352941176      0.4884998982E-02     540
   164  0.2941176471      0.2941176471      0.2352941176      0.2442499491E-02     534
   165  0.3529411765      0.2941176471      0.2352941176      0.2442499491E-02     532
   166   0.000000000       0.000000000      0.2941176471      0.4070832485E-03     544
   167  0.5882352941E-01   0.000000000      0.2941176471      0.2442499491E-02     549
   168  0.1176470588       0.000000000      0.2941176471      0.2442499491E-02     548
   169  0.1764705882       0.000000000      0.2941176471      0.2442499491E-02     549
   170  0.2352941176       0.000000000      0.2941176471      0.2442499491E-02     548
   171  0.2941176471       0.000000000      0.2941176471      0.2442499491E-02     548
   172  0.3529411765       0.000000000      0.2941176471      0.2442499491E-02     541
   173  0.4117647059       0.000000000      0.2941176471      0.2442499491E-02     540
   174  0.4705882353       0.000000000      0.2941176471      0.2442499491E-02     534
   175  0.5882352941E-01  0.5882352941E-01  0.2941176471      0.2442499491E-02     549
   176  0.1176470588      0.5882352941E-01  0.2941176471      0.4884998982E-02     549
   177  0.1764705882      0.5882352941E-01  0.2941176471      0.4884998982E-02     550
   178  0.2352941176      0.5882352941E-01  0.2941176471      0.4884998982E-02     548
   179  0.2941176471      0.5882352941E-01  0.2941176471      0.4884998982E-02     544
   180  0.3529411765      0.5882352941E-01  0.2941176471      0.4884998982E-02     539
   181  0.4117647059      0.5882352941E-01  0.2941176471      0.4884998982E-02     539
   182  0.4705882353      0.5882352941E-01  0.2941176471      0.2442499491E-02     535
   183  0.1176470588      0.1176470588      0.2941176471      0.2442499491E-02     549
   184  0.1764705882      0.1176470588      0.2941176471      0.4884998982E-02     546
   185  0.2352941176      0.1176470588      0.2941176471      0.4884998982E-02     545
   186  0.2941176471      0.1176470588      0.2941176471      0.4884998982E-02     540
   187  0.3529411765      0.1176470588      0.2941176471      0.4884998982E-02     541
   188  0.4117647059      0.1176470588      0.2941176471      0.4884998982E-02     537
   189  0.1764705882      0.1764705882      0.2941176471      0.2442499491E-02     544
   190  0.2352941176      0.1764705882      0.2941176471      0.4884998982E-02     539
   191  0.2941176471      0.1764705882      0.2941176471      0.4884998982E-02     542
   192  0.3529411765      0.1764705882      0.2941176471      0.4884998982E-02     540
   193  0.4117647059      0.1764705882      0.2941176471      0.2442499491E-02     539
   194  0.2352941176      0.2352941176      0.2941176471      0.2442499491E-02     538
   195  0.2941176471      0.2352941176      0.2941176471      0.4884998982E-02     538
   196  0.3529411765      0.2352941176      0.2941176471      0.4884998982E-02     538
   197  0.2941176471      0.2941176471      0.2941176471      0.2442499491E-02     535
   198  0.3529411765      0.2941176471      0.2941176471      0.2442499491E-02     535
   199   0.000000000       0.000000000      0.3529411765      0.4070832485E-03     550
   200  0.5882352941E-01   0.000000000      0.3529411765      0.2442499491E-02     551
   201  0.1176470588       0.000000000      0.3529411765      0.2442499491E-02     548
   202  0.1764705882       0.000000000      0.3529411765      0.2442499491E-02     548
   203  0.2352941176       0.000000000      0.3529411765      0.2442499491E-02     549
   204  0.2941176471       0.000000000      0.3529411765      0.2442499491E-02     548
   205  0.3529411765       0.000000000      0.3529411765      0.2442499491E-02     544
   206  0.4117647059       0.000000000      0.3529411765      0.2442499491E-02     541
   207  0.4705882353       0.000000000      0.3529411765      0.2442499491E-02     538
   208  0.5882352941E-01  0.5882352941E-01  0.3529411765      0.2442499491E-02     545
   209  0.1176470588      0.5882352941E-01  0.3529411765      0.4884998982E-02     547
   210  0.1764705882      0.5882352941E-01  0.3529411765      0.4884998982E-02     548
   211  0.2352941176      0.5882352941E-01  0.3529411765      0.4884998982E-02     545
   212  0.2941176471      0.5882352941E-01  0.3529411765      0.4884998982E-02     542
   213  0.3529411765      0.5882352941E-01  0.3529411765      0.4884998982E-02     541
   214  0.4117647059      0.5882352941E-01  0.3529411765      0.4884998982E-02     542
   215  0.4705882353      0.5882352941E-01  0.3529411765      0.2442499491E-02     538
   216  0.1176470588      0.1176470588      0.3529411765      0.2442499491E-02     545
   217  0.1764705882      0.1176470588      0.3529411765      0.4884998982E-02     545
   218  0.2352941176      0.1176470588      0.3529411765      0.4884998982E-02     547
   219  0.2941176471      0.1176470588      0.3529411765      0.4884998982E-02     543
   220  0.3529411765      0.1176470588      0.3529411765      0.4884998982E-02     542
   221  0.4117647059      0.1176470588      0.3529411765      0.4884998982E-02     539
   222  0.1764705882      0.1764705882      0.3529411765      0.2442499491E-02     542
   223  0.2352941176      0.1764705882      0.3529411765      0.4884998982E-02     539
   224  0.2941176471      0.1764705882      0.3529411765      0.4884998982E-02     539
   225  0.3529411765      0.1764705882      0.3529411765      0.4884998982E-02     538
   226  0.4117647059      0.1764705882      0.3529411765      0.2442499491E-02     540
   227  0.2352941176      0.2352941176      0.3529411765      0.2442499491E-02     538
   228  0.2941176471      0.2352941176      0.3529411765      0.4884998982E-02     537
   229  0.3529411765      0.2352941176      0.3529411765      0.4884998982E-02     538
   230  0.2941176471      0.2941176471      0.3529411765      0.2442499491E-02     536
   231  0.3529411765      0.2941176471      0.3529411765      0.2442499491E-02     536
   232   0.000000000       0.000000000      0.4117647059      0.4070832485E-03     550
   233  0.5882352941E-01   0.000000000      0.4117647059      0.2442499491E-02     551
   234  0.1176470588       0.000000000      0.4117647059      0.2442499491E-02     545
   235  0.1764705882       0.000000000      0.4117647059      0.2442499491E-02     546
   236  0.2352941176       0.000000000      0.4117647059      0.2442499491E-02     547
   237  0.2941176471       0.000000000      0.4117647059      0.2442499491E-02     549
   238  0.3529411765       0.000000000      0.4117647059      0.2442499491E-02     545
   239  0.4117647059       0.000000000      0.4117647059      0.2442499491E-02     543
   240  0.4705882353       0.000000000      0.4117647059      0.2442499491E-02     542
   241  0.5882352941E-01  0.5882352941E-01  0.4117647059      0.2442499491E-02     545
   242  0.1176470588      0.5882352941E-01  0.4117647059      0.4884998982E-02     547
   243  0.1764705882      0.5882352941E-01  0.4117647059      0.4884998982E-02     547
   244  0.2352941176      0.5882352941E-01  0.4117647059      0.4884998982E-02     545
   245  0.2941176471      0.5882352941E-01  0.4117647059      0.4884998982E-02     548
   246  0.3529411765      0.5882352941E-01  0.4117647059      0.4884998982E-02     545
   247  0.4117647059      0.5882352941E-01  0.4117647059      0.4884998982E-02     542
   248  0.4705882353      0.5882352941E-01  0.4117647059      0.2442499491E-02     540
   249  0.1176470588      0.1176470588      0.4117647059      0.2442499491E-02     542
   250  0.1764705882      0.1176470588      0.4117647059      0.4884998982E-02     544
   251  0.2352941176      0.1176470588      0.4117647059      0.4884998982E-02     546
   252  0.2941176471      0.1176470588      0.4117647059      0.4884998982E-02     543
   253  0.3529411765      0.1176470588      0.4117647059      0.4884998982E-02     540
   254  0.4117647059      0.1176470588      0.4117647059      0.4884998982E-02     540
   255  0.1764705882      0.1764705882      0.4117647059      0.2442499491E-02     544
   256  0.2352941176      0.1764705882      0.4117647059      0.4884998982E-02     541
   257  0.2941176471      0.1764705882      0.4117647059      0.4884998982E-02     542
   258  0.3529411765      0.1764705882      0.4117647059      0.4884998982E-02     536
   259  0.4117647059      0.1764705882      0.4117647059      0.2442499491E-02     539
   260  0.2352941176      0.2352941176      0.4117647059      0.2442499491E-02     538
   261  0.2941176471      0.2352941176      0.4117647059      0.4884998982E-02     535
   262  0.3529411765      0.2352941176      0.4117647059      0.4884998982E-02     535
   263  0.2941176471      0.2941176471      0.4117647059      0.2442499491E-02     536
   264  0.3529411765      0.2941176471      0.4117647059      0.2442499491E-02     534
   265   0.000000000       0.000000000      0.4705882353      0.4070832485E-03     544
   266  0.5882352941E-01   0.000000000      0.4705882353      0.2442499491E-02     547
   267  0.1176470588       0.000000000      0.4705882353      0.2442499491E-02     548
   268  0.1764705882       0.000000000      0.4705882353      0.2442499491E-02     548
   269  0.2352941176       0.000000000      0.4705882353      0.2442499491E-02     548
   270  0.2941176471       0.000000000      0.4705882353      0.2442499491E-02     546
   271  0.3529411765       0.000000000      0.4705882353      0.2442499491E-02     548
   272  0.4117647059       0.000000000      0.4705882353      0.2442499491E-02     546
   273  0.4705882353       0.000000000      0.4705882353      0.2442499491E-02     542
   274  0.5882352941E-01  0.5882352941E-01  0.4705882353      0.2442499491E-02     542
   275  0.1176470588      0.5882352941E-01  0.4705882353      0.4884998982E-02     549
   276  0.1764705882      0.5882352941E-01  0.4705882353      0.4884998982E-02     547
   277  0.2352941176      0.5882352941E-01  0.4705882353      0.4884998982E-02     548
   278  0.2941176471      0.5882352941E-01  0.4705882353      0.4884998982E-02     550
   279  0.3529411765      0.5882352941E-01  0.4705882353      0.4884998982E-02     546
   280  0.4117647059      0.5882352941E-01  0.4705882353      0.4884998982E-02     544
   281  0.4705882353      0.5882352941E-01  0.4705882353      0.2442499491E-02     543
   282  0.1176470588      0.1176470588      0.4705882353      0.2442499491E-02     546
   283  0.1764705882      0.1176470588      0.4705882353      0.4884998982E-02     543
   284  0.2352941176      0.1176470588      0.4705882353      0.4884998982E-02     543
   285  0.2941176471      0.1176470588      0.4705882353      0.4884998982E-02     544
   286  0.3529411765      0.1176470588      0.4705882353      0.4884998982E-02     538
   287  0.4117647059      0.1176470588      0.4705882353      0.4884998982E-02     541
   288  0.1764705882      0.1764705882      0.4705882353      0.2442499491E-02     542
   289  0.2352941176      0.1764705882      0.4705882353      0.4884998982E-02     538
   290  0.2941176471      0.1764705882      0.4705882353      0.4884998982E-02     542
   291  0.3529411765      0.1764705882      0.4705882353      0.4884998982E-02     535
   292  0.4117647059      0.1764705882      0.4705882353      0.2442499491E-02     536
   293  0.2352941176      0.2352941176      0.4705882353      0.2442499491E-02     538
   294  0.2941176471      0.2352941176      0.4705882353      0.4884998982E-02     534
   295  0.3529411765      0.2352941176      0.4705882353      0.4884998982E-02     534
   296  0.2941176471      0.2941176471      0.4705882353      0.2442499491E-02     536
   297  0.3529411765      0.2941176471      0.4705882353      0.2442499491E-02     534
