   1.002033688    
   13.54823051    
   32.27763434    
   25.77656130    
   14.53368611    
   7.331102692    
   1.758699864    
  0.4011081102    
  0.1147555953    
  0.3631125362E-01
  0.7940211781E-02
  0.2298525935E-02
  0.3636888450E-03
  0.1153533740E-03
  0.8646004808E-03
  0.4109425663E-03
  0.8243837146E-04
  0.8621243978E-04
  0.4785292185E-04
  0.3631406980E-04
  0.1941124356E-04
  0.9223376765E-05
  0.1759980478E-04
  0.1315718873E-04
  0.7992966857E-05
  0.3170256605E-05
  0.9271807357E-06
  0.1672979124E-05
  0.2639602826E-05
  0.8992719813E-06
  0.1738701030E-05
  0.6318823580E-06
  0.1208556569E-05
  0.1232803697E-05
  0.3315617505E-06
  0.9144059732E-08
