 
Species :    1 (Tc), atom :    1
 n =  1, l =  0, k =  1 :   -767.2225124    
 n =  2, l =  0, k =  1 :   -108.6212114    
 n =  2, l =  1, k =  1 :   -100.0774502    
 n =  2, l =  1, k =  2 :   -95.71404976    
 n =  3, l =  0, k =  1 :   -18.24706038    
 n =  3, l =  1, k =  1 :   -14.96922408    
 n =  3, l =  1, k =  2 :   -14.23863235    
 n =  3, l =  2, k =  2 :   -8.437009427    
 n =  3, l =  2, k =  3 :   -8.297257686    
 
Species :    1 (Tc), atom :    2
 n =  1, l =  0, k =  1 :   -767.2225124    
 n =  2, l =  0, k =  1 :   -108.6212114    
 n =  2, l =  1, k =  1 :   -100.0774502    
 n =  2, l =  1, k =  2 :   -95.71404976    
 n =  3, l =  0, k =  1 :   -18.24706038    
 n =  3, l =  1, k =  1 :   -14.96922408    
 n =  3, l =  1, k =  2 :   -14.23863235    
 n =  3, l =  2, k =  2 :   -8.437009427    
 n =  3, l =  2, k =  3 :   -8.297257686    
