  0.2950585178E-01
  0.2012895673E-01
  0.7346207488E-02
  0.2138396431E-02
  0.7010885570E-03
  0.2602303633E-03
  0.4918764339E-04
  0.4093726446E-04
  0.2777635193E-04
  0.3717633962E-04
  0.2454868683E-04
  0.2319256543E-05
  0.3617140558E-04
  0.8258637081E-05
  0.4649390066E-05
  0.3068100161E-04
  0.1860473261E-04
  0.3851099137E-04
  0.2594890485E-04
  0.1846235816E-05
  0.1610183432E-04
  0.9135242233E-04
  0.3494409358E-04
  0.2163077748E-04
  0.1934142199E-05
  0.5719322396E-04
  0.2210413076E-04
  0.3556658763E-04
  0.2791818073E-04
  0.7850259876E-04
  0.1871098498E-04
  0.1471532497E-04
  0.1449786716E-04
  0.5806563994E-04
  0.3132098992E-04
  0.7039835197E-04
  0.8821503983E-04
  0.1056118319E-03
  0.7178360945E-05
  0.2815249431E-04
  0.2679531735E-04
  0.4442465341E-05
  0.3114554182E-04
  0.6592376097E-04
  0.3867843942E-04
  0.1988475360E-04
  0.1751763255E-04
  0.2298165837E-04
  0.3510569052E-04
  0.8307602380E-05
  0.8002335225E-05
  0.2174008731E-04
  0.1044569245E-03
  0.3304868296E-05
  0.7325754524E-04
  0.3962489956E-04
  0.1709486428E-04
  0.9073740735E-05
  0.2378135163E-04
  0.1966626141E-04
  0.1899582627E-04
  0.1953890604E-04
  0.1092542150E-04
  0.2613697971E-04
  0.1678281805E-04
  0.1165839290E-04
  0.2078327338E-04
  0.4650492218E-04
  0.2088829624E-04
  0.3036859313E-04
  0.1038246769E-04
  0.6477944087E-04
  0.2108984466E-04
  0.2357857536E-04
  0.3675390112E-04
  0.1453562420E-04
  0.4305230624E-05
  0.2863567774E-04
  0.1151484137E-03
  0.1618360918E-04
  0.6218560320E-05
  0.5791716206E-05
  0.4206002773E-05
  0.5394208457E-04
  0.2011856059E-04
  0.1867336626E-04
  0.4850682162E-05
  0.2300526161E-04
  0.2132763771E-04
  0.1553274355E-04
  0.3013280826E-05
  0.7537497397E-05
  0.1014432354E-04
  0.1630544822E-04
  0.9591855814E-05
  0.1748725715E-04
  0.8150092013E-04
  0.2021913626E-04
  0.1977524143E-04
  0.1024708042E-04
  0.3784003113E-04
  0.1546634335E-04
  0.3461342272E-04
  0.2009369202E-04
  0.1210976710E-04
  0.7535917957E-05
  0.5897569918E-04
  0.1130114051E-04
  0.5692030186E-04
  0.4517773499E-05
  0.3426479366E-04
  0.1271264344E-04
  0.1539316339E-03
  0.1718851229E-04
  0.1102779974E-04
  0.3314589575E-04
  0.6672193154E-04
  0.1746048858E-04
  0.3243616547E-04
  0.5992266357E-04
  0.1861031406E-04
  0.9168257469E-05
  0.3194339103E-04
