 
Species :    1 (Mo), atom :    1
 APW functions :
  l =  0, energy derivative =  0 :   0.4463213141    
  l =  1, energy derivative =  0 :   0.4463213141    
  l =  2, energy derivative =  0 :   0.4463213141    
  l =  3, energy derivative =  0 :   0.4463213141    
  l =  4, energy derivative =  0 :   0.4463213141    
  l =  5, energy derivative =  0 :   0.4463213141    
  l =  6, energy derivative =  0 :   0.4463213141    
  l =  7, energy derivative =  0 :   0.4463213141    
  l =  8, energy derivative =  0 :   0.4463213141    
  l =  9, energy derivative =  0 :   0.4463213141    
  l = 10, energy derivative =  0 :   0.4463213141    
 local-orbital functions :
  l.o. =  1, l =  0, energy derivative =  0 :   0.4463213141    
  l.o. =  1, l =  0, energy derivative =  1 :   0.4463213141    
  l.o. =  2, l =  1, energy derivative =  0 :   0.4463213141    
  l.o. =  2, l =  1, energy derivative =  1 :   0.4463213141    
  l.o. =  3, l =  2, energy derivative =  0 :   0.4463213141    
  l.o. =  3, l =  2, energy derivative =  1 :   0.4463213141    
  l.o. =  4, l =  0, energy derivative =  0 :   0.4463213141    
  l.o. =  4, l =  0, energy derivative =  0 :   -1.709057720    
  l.o. =  5, l =  1, energy derivative =  0 :   0.4463213141    
  l.o. =  5, l =  1, energy derivative =  0 :  -0.7461758358    
  l.o. =  6, l =  2, energy derivative =  0 :   0.4463213141    
  l.o. =  6, l =  2, energy derivative =  0 :   0.6555479178    
  l.o. =  7, l =  3, energy derivative =  0 :   0.4463213141    
  l.o. =  7, l =  3, energy derivative =  1 :   0.4463213141    
  l.o. =  8, l =  4, energy derivative =  0 :   0.4463213141    
  l.o. =  8, l =  4, energy derivative =  1 :   0.4463213141    
  l.o. =  9, l =  5, energy derivative =  0 :   0.4463213141    
  l.o. =  9, l =  5, energy derivative =  1 :   0.4463213141    
  l.o. = 10, l =  0, energy derivative =  0 :    1.608124962    
  l.o. = 10, l =  0, energy derivative =  1 :    1.608124962    
  l.o. = 10, l =  0, energy derivative =  2 :    1.608124962    
  l.o. = 11, l =  1, energy derivative =  0 :    2.201743149    
  l.o. = 11, l =  1, energy derivative =  1 :    2.201743149    
  l.o. = 11, l =  1, energy derivative =  2 :    2.201743149    
  l.o. = 12, l =  2, energy derivative =  0 :   0.6555479178    
  l.o. = 12, l =  2, energy derivative =  1 :   0.6555479178    
  l.o. = 12, l =  2, energy derivative =  2 :   0.6555479178    
  l.o. = 13, l =  3, energy derivative =  0 :    2.011662109    
  l.o. = 13, l =  3, energy derivative =  1 :    2.011662109    
  l.o. = 13, l =  3, energy derivative =  2 :    2.011662109    
  l.o. = 14, l =  4, energy derivative =  0 :    3.678047107    
  l.o. = 14, l =  4, energy derivative =  1 :    3.678047107    
  l.o. = 14, l =  4, energy derivative =  2 :    3.678047107    
  l.o. = 15, l =  5, energy derivative =  0 :    5.291181158    
  l.o. = 15, l =  5, energy derivative =  1 :    5.291181158    
  l.o. = 15, l =  5, energy derivative =  2 :    5.291181158    
  l.o. = 16, l =  6, energy derivative =  0 :    7.028271394    
  l.o. = 16, l =  6, energy derivative =  1 :    7.028271394    
  l.o. = 16, l =  6, energy derivative =  2 :    7.028271394    
  l.o. = 17, l =  7, energy derivative =  0 :    8.923656417    
  l.o. = 17, l =  7, energy derivative =  1 :    8.923656417    
  l.o. = 17, l =  7, energy derivative =  2 :    8.923656417    
  l.o. = 18, l =  8, energy derivative =  0 :    10.98925884    
  l.o. = 18, l =  8, energy derivative =  1 :    10.98925884    
  l.o. = 18, l =  8, energy derivative =  2 :    10.98925884    
