   165 : nkpt; k-point, vkl, wkpt, nmat below
     1   0.000000000       0.000000000       0.000000000      0.2035416243E-03     238
     2  0.5882352941E-01   0.000000000       0.000000000      0.1628332994E-02     238
     3  0.1176470588       0.000000000       0.000000000      0.1628332994E-02     238
     4  0.1764705882       0.000000000       0.000000000      0.1628332994E-02     232
     5  0.2352941176       0.000000000       0.000000000      0.1628332994E-02     229
     6  0.2941176471       0.000000000       0.000000000      0.1628332994E-02     229
     7  0.3529411765       0.000000000       0.000000000      0.1628332994E-02     224
     8  0.4117647059       0.000000000       0.000000000      0.1628332994E-02     230
     9  0.4705882353       0.000000000       0.000000000      0.1628332994E-02     233
    10  0.5882352941E-01  0.5882352941E-01   0.000000000      0.1221249746E-02     238
    11  0.1176470588      0.5882352941E-01   0.000000000      0.4884998982E-02     236
    12  0.1764705882      0.5882352941E-01   0.000000000      0.4884998982E-02     231
    13  0.2352941176      0.5882352941E-01   0.000000000      0.4884998982E-02     228
    14  0.2941176471      0.5882352941E-01   0.000000000      0.4884998982E-02     230
    15  0.3529411765      0.5882352941E-01   0.000000000      0.4884998982E-02     228
    16  0.4117647059      0.5882352941E-01   0.000000000      0.4884998982E-02     231
    17  0.4705882353      0.5882352941E-01   0.000000000      0.4884998982E-02     229
    18  0.5294117647      0.5882352941E-01   0.000000000      0.4884998982E-02     230
    19  0.5882352941      0.5882352941E-01   0.000000000      0.4884998982E-02     230
    20  0.6470588235      0.5882352941E-01   0.000000000      0.4884998982E-02     228
    21  0.7058823529      0.5882352941E-01   0.000000000      0.4884998982E-02     227
    22  0.7647058824      0.5882352941E-01   0.000000000      0.4884998982E-02     231
    23  0.8235294118      0.5882352941E-01   0.000000000      0.4884998982E-02     229
    24  0.8823529412      0.5882352941E-01   0.000000000      0.4884998982E-02     234
    25  0.9411764706      0.5882352941E-01   0.000000000      0.2442499491E-02     238
    26  0.1176470588      0.1176470588       0.000000000      0.1221249746E-02     234
    27  0.1764705882      0.1176470588       0.000000000      0.4884998982E-02     233
    28  0.2352941176      0.1176470588       0.000000000      0.4884998982E-02     231
    29  0.2941176471      0.1176470588       0.000000000      0.4884998982E-02     230
    30  0.3529411765      0.1176470588       0.000000000      0.4884998982E-02     230
    31  0.4117647059      0.1176470588       0.000000000      0.4884998982E-02     231
    32  0.4705882353      0.1176470588       0.000000000      0.4884998982E-02     229
    33  0.5294117647      0.1176470588       0.000000000      0.4884998982E-02     230
    34  0.5882352941      0.1176470588       0.000000000      0.4884998982E-02     230
    35  0.6470588235      0.1176470588       0.000000000      0.4884998982E-02     228
    36  0.7058823529      0.1176470588       0.000000000      0.4884998982E-02     226
    37  0.7647058824      0.1176470588       0.000000000      0.4884998982E-02     229
    38  0.8235294118      0.1176470588       0.000000000      0.4884998982E-02     231
    39  0.8823529412      0.1176470588       0.000000000      0.2442499491E-02     234
    40  0.1764705882      0.1764705882       0.000000000      0.1221249746E-02     234
    41  0.2352941176      0.1764705882       0.000000000      0.4884998982E-02     232
    42  0.2941176471      0.1764705882       0.000000000      0.4884998982E-02     229
    43  0.3529411765      0.1764705882       0.000000000      0.4884998982E-02     229
    44  0.4117647059      0.1764705882       0.000000000      0.4884998982E-02     232
    45  0.4705882353      0.1764705882       0.000000000      0.4884998982E-02     230
    46  0.5294117647      0.1764705882       0.000000000      0.4884998982E-02     230
    47  0.5882352941      0.1764705882       0.000000000      0.4884998982E-02     232
    48  0.6470588235      0.1764705882       0.000000000      0.4884998982E-02     228
    49  0.7058823529      0.1764705882       0.000000000      0.4884998982E-02     226
    50  0.7647058824      0.1764705882       0.000000000      0.4884998982E-02     225
    51  0.8235294118      0.1764705882       0.000000000      0.2442499491E-02     226
    52  0.2352941176      0.2352941176       0.000000000      0.1221249746E-02     226
    53  0.2941176471      0.2352941176       0.000000000      0.4884998982E-02     228
    54  0.3529411765      0.2352941176       0.000000000      0.4884998982E-02     226
    55  0.4117647059      0.2352941176       0.000000000      0.4884998982E-02     230
    56  0.4705882353      0.2352941176       0.000000000      0.4884998982E-02     228
    57  0.5294117647      0.2352941176       0.000000000      0.4884998982E-02     230
    58  0.5882352941      0.2352941176       0.000000000      0.4884998982E-02     228
    59  0.6470588235      0.2352941176       0.000000000      0.4884998982E-02     230
    60  0.7058823529      0.2352941176       0.000000000      0.4884998982E-02     229
    61  0.7647058824      0.2352941176       0.000000000      0.2442499491E-02     226
    62  0.2941176471      0.2941176471       0.000000000      0.1221249746E-02     230
    63  0.3529411765      0.2941176471       0.000000000      0.4884998982E-02     231
    64  0.4117647059      0.2941176471       0.000000000      0.4884998982E-02     230
    65  0.4705882353      0.2941176471       0.000000000      0.4884998982E-02     231
    66  0.5294117647      0.2941176471       0.000000000      0.4884998982E-02     229
    67  0.5882352941      0.2941176471       0.000000000      0.4884998982E-02     226
    68  0.6470588235      0.2941176471       0.000000000      0.4884998982E-02     226
    69  0.7058823529      0.2941176471       0.000000000      0.2442499491E-02     228
    70  0.3529411765      0.3529411765       0.000000000      0.1221249746E-02     229
    71  0.4117647059      0.3529411765       0.000000000      0.4884998982E-02     232
    72  0.4705882353      0.3529411765       0.000000000      0.4884998982E-02     231
    73  0.5294117647      0.3529411765       0.000000000      0.4884998982E-02     227
    74  0.5882352941      0.3529411765       0.000000000      0.4884998982E-02     227
    75  0.6470588235      0.3529411765       0.000000000      0.2442499491E-02     226
    76  0.4117647059      0.4117647059       0.000000000      0.1221249746E-02     237
    77  0.4705882353      0.4117647059       0.000000000      0.4884998982E-02     228
    78  0.5294117647      0.4117647059       0.000000000      0.4884998982E-02     229
    79  0.5882352941      0.4117647059       0.000000000      0.2442499491E-02     227
    80  0.4705882353      0.4705882353       0.000000000      0.1221249746E-02     233
    81  0.5294117647      0.4705882353       0.000000000      0.2442499491E-02     231
    82  0.1764705882      0.1176470588      0.5882352941E-01  0.4884998982E-02     234
    83  0.2352941176      0.1176470588      0.5882352941E-01  0.9769997965E-02     231
    84  0.2941176471      0.1176470588      0.5882352941E-01  0.9769997965E-02     229
    85  0.3529411765      0.1176470588      0.5882352941E-01  0.9769997965E-02     230
    86  0.4117647059      0.1176470588      0.5882352941E-01  0.9769997965E-02     229
    87  0.4705882353      0.1176470588      0.5882352941E-01  0.9769997965E-02     229
    88  0.5294117647      0.1176470588      0.5882352941E-01  0.9769997965E-02     229
    89  0.2352941176      0.1764705882      0.5882352941E-01  0.4884998982E-02     229
    90  0.2941176471      0.1764705882      0.5882352941E-01  0.9769997965E-02     232
    91  0.3529411765      0.1764705882      0.5882352941E-01  0.9769997965E-02     229
    92  0.4117647059      0.1764705882      0.5882352941E-01  0.9769997965E-02     231
    93  0.4705882353      0.1764705882      0.5882352941E-01  0.9769997965E-02     231
    94  0.5294117647      0.1764705882      0.5882352941E-01  0.9769997965E-02     230
    95  0.5882352941      0.1764705882      0.5882352941E-01  0.9769997965E-02     229
    96  0.6470588235      0.1764705882      0.5882352941E-01  0.9769997965E-02     230
    97  0.7058823529      0.1764705882      0.5882352941E-01  0.9769997965E-02     228
    98  0.7647058824      0.1764705882      0.5882352941E-01  0.9769997965E-02     227
    99  0.8235294118      0.1764705882      0.5882352941E-01  0.9769997965E-02     227
   100  0.8823529412      0.1764705882      0.5882352941E-01  0.4884998982E-02     229
   101  0.2941176471      0.2352941176      0.5882352941E-01  0.4884998982E-02     231
   102  0.3529411765      0.2352941176      0.5882352941E-01  0.9769997965E-02     227
   103  0.4117647059      0.2352941176      0.5882352941E-01  0.9769997965E-02     229
   104  0.4705882353      0.2352941176      0.5882352941E-01  0.9769997965E-02     229
   105  0.5294117647      0.2352941176      0.5882352941E-01  0.9769997965E-02     229
   106  0.5882352941      0.2352941176      0.5882352941E-01  0.9769997965E-02     227
   107  0.6470588235      0.2352941176      0.5882352941E-01  0.9769997965E-02     228
   108  0.7058823529      0.2352941176      0.5882352941E-01  0.9769997965E-02     229
   109  0.7647058824      0.2352941176      0.5882352941E-01  0.9769997965E-02     228
   110  0.8235294118      0.2352941176      0.5882352941E-01  0.4884998982E-02     227
   111  0.3529411765      0.2941176471      0.5882352941E-01  0.4884998982E-02     230
   112  0.4117647059      0.2941176471      0.5882352941E-01  0.9769997965E-02     228
   113  0.4705882353      0.2941176471      0.5882352941E-01  0.9769997965E-02     228
   114  0.5294117647      0.2941176471      0.5882352941E-01  0.9769997965E-02     230
   115  0.5882352941      0.2941176471      0.5882352941E-01  0.9769997965E-02     229
   116  0.6470588235      0.2941176471      0.5882352941E-01  0.9769997965E-02     228
   117  0.7058823529      0.2941176471      0.5882352941E-01  0.9769997965E-02     229
   118  0.7647058824      0.2941176471      0.5882352941E-01  0.4884998982E-02     228
   119  0.4117647059      0.3529411765      0.5882352941E-01  0.4884998982E-02     231
   120  0.4705882353      0.3529411765      0.5882352941E-01  0.9769997965E-02     228
   121  0.5294117647      0.3529411765      0.5882352941E-01  0.9769997965E-02     230
   122  0.5882352941      0.3529411765      0.5882352941E-01  0.9769997965E-02     229
   123  0.6470588235      0.3529411765      0.5882352941E-01  0.9769997965E-02     227
   124  0.7058823529      0.3529411765      0.5882352941E-01  0.4884998982E-02     226
   125  0.4705882353      0.4117647059      0.5882352941E-01  0.4884998982E-02     229
   126  0.5294117647      0.4117647059      0.5882352941E-01  0.9769997965E-02     229
   127  0.5882352941      0.4117647059      0.5882352941E-01  0.9769997965E-02     230
   128  0.6470588235      0.4117647059      0.5882352941E-01  0.4884998982E-02     231
   129  0.5294117647      0.4705882353      0.5882352941E-01  0.4884998982E-02     229
   130  0.5882352941      0.4705882353      0.5882352941E-01  0.4884998982E-02     231
   131  0.3529411765      0.2352941176      0.1176470588      0.4884998982E-02     229
   132  0.4117647059      0.2352941176      0.1176470588      0.9769997965E-02     227
   133  0.4705882353      0.2352941176      0.1176470588      0.9769997965E-02     229
   134  0.5294117647      0.2352941176      0.1176470588      0.9769997965E-02     227
   135  0.5882352941      0.2352941176      0.1176470588      0.9769997965E-02     227
   136  0.4117647059      0.2941176471      0.1176470588      0.4884998982E-02     229
   137  0.4705882353      0.2941176471      0.1176470588      0.9769997965E-02     227
   138  0.5294117647      0.2941176471      0.1176470588      0.9769997965E-02     229
   139  0.5882352941      0.2941176471      0.1176470588      0.9769997965E-02     228
   140  0.6470588235      0.2941176471      0.1176470588      0.9769997965E-02     229
   141  0.7058823529      0.2941176471      0.1176470588      0.9769997965E-02     230
   142  0.7647058824      0.2941176471      0.1176470588      0.9769997965E-02     229
   143  0.8235294118      0.2941176471      0.1176470588      0.4884998982E-02     229
   144  0.4705882353      0.3529411765      0.1176470588      0.4884998982E-02     227
   145  0.5294117647      0.3529411765      0.1176470588      0.9769997965E-02     230
   146  0.5882352941      0.3529411765      0.1176470588      0.9769997965E-02     231
   147  0.6470588235      0.3529411765      0.1176470588      0.9769997965E-02     230
   148  0.7058823529      0.3529411765      0.1176470588      0.9769997965E-02     232
   149  0.7647058824      0.3529411765      0.1176470588      0.4884998982E-02     229
   150  0.5294117647      0.4117647059      0.1176470588      0.4884998982E-02     229
   151  0.5882352941      0.4117647059      0.1176470588      0.9769997965E-02     229
   152  0.6470588235      0.4117647059      0.1176470588      0.9769997965E-02     229
   153  0.7058823529      0.4117647059      0.1176470588      0.4884998982E-02     230
   154  0.5882352941      0.4705882353      0.1176470588      0.4884998982E-02     229
   155  0.6470588235      0.4705882353      0.1176470588      0.4884998982E-02     229
   156  0.5294117647      0.3529411765      0.1764705882      0.4884998982E-02     230
   157  0.5882352941      0.3529411765      0.1764705882      0.9769997965E-02     230
   158  0.6470588235      0.3529411765      0.1764705882      0.9769997965E-02     230
   159  0.5882352941      0.4117647059      0.1764705882      0.4884998982E-02     230
   160  0.6470588235      0.4117647059      0.1764705882      0.9769997965E-02     230
   161  0.7058823529      0.4117647059      0.1764705882      0.9769997965E-02     230
   162  0.7647058824      0.4117647059      0.1764705882      0.4884998982E-02     230
   163  0.6470588235      0.4705882353      0.1764705882      0.4884998982E-02     229
   164  0.7058823529      0.4705882353      0.1764705882      0.4884998982E-02     229
   165  0.7058823529      0.4705882353      0.2352941176      0.4884998982E-02     230
