  0.2014990640E-02
  0.2784625846E-02
  0.4555404792E-01
  0.3595042307E-01
  0.1963744100E-01
  0.9510032275E-02
  0.2568412438E-03
  0.3767742710E-03
  0.1178253642E-03
  0.7499583171E-04
  0.4489172989E-04
  0.1042257827E-04
  0.1853036792E-04
  0.3527215267E-04
  0.1014639929E-04
  0.6087832844E-05
  0.4263383744E-05
  0.4474168236E-06
  0.6863218914E-05
  0.5395513654E-06
  0.8749658264E-05
  0.6007917364E-05
  0.1116554813E-05
  0.2912147465E-05
  0.1243516635E-05
  0.2446061444E-05
  0.5161155059E-06
  0.1799025995E-06
  0.5092288120E-06
  0.1279522621E-06
  0.1008585059E-05
  0.2295510058E-06
  0.2630531526E-07
  0.5817582860E-07
  0.3794702934E-06
  0.1824346327E-06
  0.1626821359E-05
  0.1175651050E-05
  0.4366966095E-06
  0.4367529982E-06
  0.3826698958E-06
  0.7451853890E-07
  0.1315444024E-05
  0.1084836185E-06
  0.3499280865E-07
  0.1044748387E-05
  0.9444538591E-06
  0.9660752767E-06
  0.1570952008E-06
  0.7638118404E-07
  0.2002434485E-06
  0.9753421182E-07
  0.3565583029E-07
  0.9081122698E-07
  0.1287448868E-05
  0.3442719390E-06
  0.6988648238E-07
  0.1198513928E-05
  0.9489849617E-06
  0.1125433300E-05
  0.1681883077E-06
  0.1203829015E-05
  0.9305804269E-06
  0.2421074896E-06
  0.1244434316E-05
  0.2892174962E-06
  0.7362814358E-07
  0.1020434865E-06
  0.1369697202E-05
  0.9667091945E-06
  0.2381229933E-06
  0.6010031939E-07
  0.1348325895E-05
  0.3091299732E-06
  0.4084540706E-07
  0.3599507181E-07
  0.5113724910E-07
  0.1314602741E-05
  0.1001480996E-05
  0.2567712727E-06
  0.2290835255E-07
  0.1901207725E-07
  0.1313842404E-05
  0.1007387255E-05
  0.1077710294E-05
  0.2617816790E-06
  0.1270945177E-05
  0.2524657248E-06
  0.1217726094E-05
  0.9316081560E-06
  0.9990553735E-06
  0.2546694304E-06
  0.1279056960E-05
  0.1023468940E-05
  0.2268880053E-06
  0.1266280378E-05
  0.2319702617E-06
  0.7751623343E-07
  0.3531022230E-07
  0.1263985723E-05
  0.2900951586E-06
  0.8174902177E-07
  0.1317135684E-05
  0.1017900104E-05
  0.1093807441E-05
  0.1057207555E-05
  0.1029909981E-05
  0.1008869731E-05
  0.9705618140E-06
  0.3182685759E-06
  0.7577727956E-07
  0.1317111128E-05
  0.3015093171E-06
  0.1258860721E-05
  0.1988546501E-06
  0.1201960004E-05
  0.1052800144E-05
  0.1064333446E-05
  0.9806726666E-06
  0.2956103344E-06
  0.1223370418E-05
  0.9322739061E-06
  0.1046562829E-05
  0.2299038897E-06
  0.3873901733E-07
  0.1233714102E-05
  0.3602963261E-06
  0.1226017957E-05
  0.3049335646E-06
  0.1179998435E-05
  0.3585555532E-06
  0.1242373401E-05
  0.3024197213E-06
  0.5809397408E-07
  0.1762418833E-07
  0.1251386493E-05
  0.3753566489E-06
  0.8744245861E-07
  0.2508659236E-07
  0.1305351361E-05
  0.3147297321E-06
  0.7029757398E-07
  0.1232205250E-05
  0.9583563951E-06
  0.1105755473E-05
  0.2746937753E-06
  0.1282569428E-07
  0.5391211744E-07
  0.5515175872E-08
