 
Species :    1 (Re), atom :    1
 APW functions :
  l =  0, energy derivative =  0 :   0.6093889714    
  l =  1, energy derivative =  0 :   0.6093889714    
  l =  2, energy derivative =  0 :   0.6093889714    
  l =  3, energy derivative =  0 :   0.6093889714    
  l =  4, energy derivative =  0 :   0.6093889714    
  l =  5, energy derivative =  0 :   0.6093889714    
  l =  6, energy derivative =  0 :   0.6093889714    
  l =  7, energy derivative =  0 :   0.6093889714    
  l =  8, energy derivative =  0 :   0.6093889714    
  l =  9, energy derivative =  0 :   0.6093889714    
  l = 10, energy derivative =  0 :   0.6093889714    
 local-orbital functions :
  l.o. =  1, l =  0, energy derivative =  0 :   0.6093889714    
  l.o. =  1, l =  0, energy derivative =  1 :   0.6093889714    
  l.o. =  2, l =  1, energy derivative =  0 :   0.6093889714    
  l.o. =  2, l =  1, energy derivative =  1 :   0.6093889714    
  l.o. =  3, l =  2, energy derivative =  0 :   0.6093889714    
  l.o. =  3, l =  2, energy derivative =  1 :   0.6093889714    
  l.o. =  4, l =  3, energy derivative =  0 :   0.6093889714    
  l.o. =  4, l =  3, energy derivative =  1 :   0.6093889714    
  l.o. =  5, l =  3, energy derivative =  0 :   0.6093889714    
  l.o. =  5, l =  3, energy derivative =  0 :  -0.6341981869    
  l.o. =  6, l =  0, energy derivative =  0 :   0.6093889714    
  l.o. =  6, l =  0, energy derivative =  0 :   -2.224971239    
  l.o. =  7, l =  1, energy derivative =  0 :   0.6093889714    
  l.o. =  7, l =  1, energy derivative =  0 :  -0.8202147512    
  l.o. =  8, l =  2, energy derivative =  0 :   0.6093889714    
  l.o. =  8, l =  2, energy derivative =  0 :   0.8305696385    
  l.o. =  9, l =  4, energy derivative =  0 :   0.6093889714    
  l.o. =  9, l =  4, energy derivative =  1 :   0.6093889714    
  l.o. = 10, l =  5, energy derivative =  0 :   0.6093889714    
  l.o. = 10, l =  5, energy derivative =  1 :   0.6093889714    
  l.o. = 11, l =  6, energy derivative =  0 :   0.6093889714    
  l.o. = 11, l =  6, energy derivative =  1 :   0.6093889714    
  l.o. = 12, l =  0, energy derivative =  0 :    1.553034920    
  l.o. = 12, l =  0, energy derivative =  1 :    1.553034920    
  l.o. = 12, l =  0, energy derivative =  2 :    1.553034920    
  l.o. = 13, l =  1, energy derivative =  0 :    2.368037720    
  l.o. = 13, l =  1, energy derivative =  1 :    2.368037720    
  l.o. = 13, l =  1, energy derivative =  2 :    2.368037720    
  l.o. = 14, l =  2, energy derivative =  0 :   0.8305696385    
  l.o. = 14, l =  2, energy derivative =  1 :   0.8305696385    
  l.o. = 14, l =  2, energy derivative =  2 :   0.8305696385    
  l.o. = 15, l =  3, energy derivative =  0 :    2.456142816    
  l.o. = 15, l =  3, energy derivative =  1 :    2.456142816    
  l.o. = 15, l =  3, energy derivative =  2 :    2.456142816    
  l.o. = 16, l =  4, energy derivative =  0 :    3.766444766    
  l.o. = 16, l =  4, energy derivative =  1 :    3.766444766    
  l.o. = 16, l =  4, energy derivative =  2 :    3.766444766    
  l.o. = 17, l =  5, energy derivative =  0 :    5.465787489    
  l.o. = 17, l =  5, energy derivative =  1 :    5.465787489    
  l.o. = 17, l =  5, energy derivative =  2 :    5.465787489    
  l.o. = 18, l =  6, energy derivative =  0 :    7.260888490    
  l.o. = 18, l =  6, energy derivative =  1 :    7.260888490    
  l.o. = 18, l =  6, energy derivative =  2 :    7.260888490    
  l.o. = 19, l =  7, energy derivative =  0 :    9.210854130    
  l.o. = 19, l =  7, energy derivative =  1 :    9.210854130    
  l.o. = 19, l =  7, energy derivative =  2 :    9.210854130    
  l.o. = 20, l =  8, energy derivative =  0 :    11.33238598    
  l.o. = 20, l =  8, energy derivative =  1 :    11.33238598    
  l.o. = 20, l =  8, energy derivative =  2 :    11.33238598    
 
Species :    1 (Re), atom :    2
 APW functions :
  l =  0, energy derivative =  0 :   0.6093889714    
  l =  1, energy derivative =  0 :   0.6093889714    
  l =  2, energy derivative =  0 :   0.6093889714    
  l =  3, energy derivative =  0 :   0.6093889714    
  l =  4, energy derivative =  0 :   0.6093889714    
  l =  5, energy derivative =  0 :   0.6093889714    
  l =  6, energy derivative =  0 :   0.6093889714    
  l =  7, energy derivative =  0 :   0.6093889714    
  l =  8, energy derivative =  0 :   0.6093889714    
  l =  9, energy derivative =  0 :   0.6093889714    
  l = 10, energy derivative =  0 :   0.6093889714    
 local-orbital functions :
  l.o. =  1, l =  0, energy derivative =  0 :   0.6093889714    
  l.o. =  1, l =  0, energy derivative =  1 :   0.6093889714    
  l.o. =  2, l =  1, energy derivative =  0 :   0.6093889714    
  l.o. =  2, l =  1, energy derivative =  1 :   0.6093889714    
  l.o. =  3, l =  2, energy derivative =  0 :   0.6093889714    
  l.o. =  3, l =  2, energy derivative =  1 :   0.6093889714    
  l.o. =  4, l =  3, energy derivative =  0 :   0.6093889714    
  l.o. =  4, l =  3, energy derivative =  1 :   0.6093889714    
  l.o. =  5, l =  3, energy derivative =  0 :   0.6093889714    
  l.o. =  5, l =  3, energy derivative =  0 :  -0.6341981869    
  l.o. =  6, l =  0, energy derivative =  0 :   0.6093889714    
  l.o. =  6, l =  0, energy derivative =  0 :   -2.224971239    
  l.o. =  7, l =  1, energy derivative =  0 :   0.6093889714    
  l.o. =  7, l =  1, energy derivative =  0 :  -0.8202147512    
  l.o. =  8, l =  2, energy derivative =  0 :   0.6093889714    
  l.o. =  8, l =  2, energy derivative =  0 :   0.8305696385    
  l.o. =  9, l =  4, energy derivative =  0 :   0.6093889714    
  l.o. =  9, l =  4, energy derivative =  1 :   0.6093889714    
  l.o. = 10, l =  5, energy derivative =  0 :   0.6093889714    
  l.o. = 10, l =  5, energy derivative =  1 :   0.6093889714    
  l.o. = 11, l =  6, energy derivative =  0 :   0.6093889714    
  l.o. = 11, l =  6, energy derivative =  1 :   0.6093889714    
  l.o. = 12, l =  0, energy derivative =  0 :    1.553034920    
  l.o. = 12, l =  0, energy derivative =  1 :    1.553034920    
  l.o. = 12, l =  0, energy derivative =  2 :    1.553034920    
  l.o. = 13, l =  1, energy derivative =  0 :    2.368037720    
  l.o. = 13, l =  1, energy derivative =  1 :    2.368037720    
  l.o. = 13, l =  1, energy derivative =  2 :    2.368037720    
  l.o. = 14, l =  2, energy derivative =  0 :   0.8305696385    
  l.o. = 14, l =  2, energy derivative =  1 :   0.8305696385    
  l.o. = 14, l =  2, energy derivative =  2 :   0.8305696385    
  l.o. = 15, l =  3, energy derivative =  0 :    2.456142816    
  l.o. = 15, l =  3, energy derivative =  1 :    2.456142816    
  l.o. = 15, l =  3, energy derivative =  2 :    2.456142816    
  l.o. = 16, l =  4, energy derivative =  0 :    3.766444766    
  l.o. = 16, l =  4, energy derivative =  1 :    3.766444766    
  l.o. = 16, l =  4, energy derivative =  2 :    3.766444766    
  l.o. = 17, l =  5, energy derivative =  0 :    5.465787489    
  l.o. = 17, l =  5, energy derivative =  1 :    5.465787489    
  l.o. = 17, l =  5, energy derivative =  2 :    5.465787489    
  l.o. = 18, l =  6, energy derivative =  0 :    7.260888490    
  l.o. = 18, l =  6, energy derivative =  1 :    7.260888490    
  l.o. = 18, l =  6, energy derivative =  2 :    7.260888490    
  l.o. = 19, l =  7, energy derivative =  0 :    9.210854130    
  l.o. = 19, l =  7, energy derivative =  1 :    9.210854130    
  l.o. = 19, l =  7, energy derivative =  2 :    9.210854130    
  l.o. = 20, l =  8, energy derivative =  0 :    11.33238598    
  l.o. = 20, l =  8, energy derivative =  1 :    11.33238598    
  l.o. = 20, l =  8, energy derivative =  2 :    11.33238598    
