   4.741626566    
   2.388417660    
  0.8128540236    
  0.2125223258    
  0.4653020591E-01
  0.7116121204E-02
  0.2796762315E-02
  0.1078735815E-03
  0.4362043162E-04
  0.8182458890E-05
  0.3668094126E-05
  0.9868089153E-07
  0.6022327741E-07
  0.1579595811E-07
  0.2173976077E-07
  0.2396645749E-07
  0.3617201302E-07
  0.5005895295E-07
  0.5337731844E-07
