 
Species :    1 (Nb), atom :    1
 APW functions :
  l =  0, energy derivative =  0 :   0.4189171143    
  l =  1, energy derivative =  0 :   0.4189171143    
  l =  2, energy derivative =  0 :   0.4189171143    
  l =  3, energy derivative =  0 :   0.4189171143    
  l =  4, energy derivative =  0 :   0.4189171143    
  l =  5, energy derivative =  0 :   0.4189171143    
  l =  6, energy derivative =  0 :   0.4189171143    
  l =  7, energy derivative =  0 :   0.4189171143    
  l =  8, energy derivative =  0 :   0.4189171143    
  l =  9, energy derivative =  0 :   0.4189171143    
  l = 10, energy derivative =  0 :   0.4189171143    
 local-orbital functions :
  l.o. =  1, l =  0, energy derivative =  0 :   0.4189171143    
  l.o. =  1, l =  0, energy derivative =  1 :   0.4189171143    
  l.o. =  2, l =  1, energy derivative =  0 :   0.4189171143    
  l.o. =  2, l =  1, energy derivative =  1 :   0.4189171143    
  l.o. =  3, l =  2, energy derivative =  0 :   0.4189171143    
  l.o. =  3, l =  2, energy derivative =  1 :   0.4189171143    
  l.o. =  4, l =  0, energy derivative =  0 :   0.4189171143    
  l.o. =  4, l =  0, energy derivative =  0 :   -1.473540645    
  l.o. =  5, l =  1, energy derivative =  0 :   0.4189171143    
  l.o. =  5, l =  1, energy derivative =  0 :  -0.5876051171    
  l.o. =  6, l =  2, energy derivative =  0 :   0.4189171143    
  l.o. =  6, l =  2, energy derivative =  0 :   0.6885488162    
  l.o. =  7, l =  3, energy derivative =  0 :   0.4189171143    
  l.o. =  7, l =  3, energy derivative =  1 :   0.4189171143    
  l.o. =  8, l =  4, energy derivative =  0 :   0.4189171143    
  l.o. =  8, l =  4, energy derivative =  1 :   0.4189171143    
  l.o. =  9, l =  5, energy derivative =  0 :   0.4189171143    
  l.o. =  9, l =  5, energy derivative =  1 :   0.4189171143    
  l.o. = 10, l =  0, energy derivative =  0 :    1.482510299    
  l.o. = 10, l =  0, energy derivative =  1 :    1.482510299    
  l.o. = 10, l =  0, energy derivative =  2 :    1.482510299    
  l.o. = 11, l =  1, energy derivative =  0 :    2.031504356    
  l.o. = 11, l =  1, energy derivative =  1 :    2.031504356    
  l.o. = 11, l =  1, energy derivative =  2 :    2.031504356    
  l.o. = 12, l =  2, energy derivative =  0 :   0.6885488162    
  l.o. = 12, l =  2, energy derivative =  1 :   0.6885488162    
  l.o. = 12, l =  2, energy derivative =  2 :   0.6885488162    
  l.o. = 13, l =  3, energy derivative =  0 :    1.903892567    
  l.o. = 13, l =  3, energy derivative =  1 :    1.903892567    
  l.o. = 13, l =  3, energy derivative =  2 :    1.903892567    
  l.o. = 14, l =  4, energy derivative =  0 :    3.377590475    
  l.o. = 14, l =  4, energy derivative =  1 :    3.377590475    
  l.o. = 14, l =  4, energy derivative =  2 :    3.377590475    
  l.o. = 15, l =  5, energy derivative =  0 :    4.823221231    
  l.o. = 15, l =  5, energy derivative =  1 :    4.823221231    
  l.o. = 15, l =  5, energy derivative =  2 :    4.823221231    
  l.o. = 16, l =  6, energy derivative =  0 :    6.384516056    
  l.o. = 16, l =  6, energy derivative =  1 :    6.384516056    
  l.o. = 16, l =  6, energy derivative =  2 :    6.384516056    
  l.o. = 17, l =  7, energy derivative =  0 :    8.090158704    
  l.o. = 17, l =  7, energy derivative =  1 :    8.090158704    
  l.o. = 17, l =  7, energy derivative =  2 :    8.090158704    
  l.o. = 18, l =  8, energy derivative =  0 :    9.950182630    
  l.o. = 18, l =  8, energy derivative =  1 :    9.950182630    
  l.o. = 18, l =  8, energy derivative =  2 :    9.950182630    
