   45.08539588    
   44.50585997    
   42.01523529    
   35.53856757    
   40.84046008    
   47.83180782    
   50.84494178    
   51.47536269    
   51.94279304    
   52.01724557    
   52.04241139    
   52.03972185    
   52.03971764    
   52.03976696    
   52.04003427    
   52.03962921    
   52.04023035    
   52.03969744    
   52.03958988    
   52.03989738    
   52.04017627    
   52.03991046    
   52.03991829    
   52.04003245    
   52.03996664    
   52.04000161    
   52.04007987    
   52.04016045    
   52.04023805    
   52.04023172    
   52.04026257    
   52.04027373    
   52.04027028    
   52.04029674    
   52.04027049    
   52.04026978    
   52.04026774    
   52.04026438    
   52.04025809    
   52.04025727    
   52.04025446    
   52.04025256    
   52.04025224    
   52.04025090    
   52.04025014    
   52.04025032    
   52.04024993    
   52.04024982    
   52.04024955    
   52.04024978    
   52.04024945    
   52.04024984    
