 
+----------------------------+
| Real-space lattice vectors |
+----------------------------+
 
vector a1 :    3.942532760       3.942532760       0.000000000    
vector a2 :    3.942532760       0.000000000       3.942532760    
vector a3 :    0.000000000       3.942532760       3.942532760    
 
Stored column-wise as a matrix :
   3.942532760       3.942532760       0.000000000    
   3.942532760       0.000000000       3.942532760    
   0.000000000       3.942532760       3.942532760    
 
Inverse of matrix :
  0.1268220280      0.1268220280     -0.1268220280    
  0.1268220280     -0.1268220280      0.1268220280    
 -0.1268220280      0.1268220280      0.1268220280    
 
Unit cell volume :    122.5620250    
 
 
+----------------------------------+
| Reciprocal-space lattice vectors |
+----------------------------------+
 
vector b1 :   0.7968463028      0.7968463028     -0.7968463028    
vector b2 :   0.7968463028     -0.7968463028      0.7968463028    
vector b3 :  -0.7968463028      0.7968463028      0.7968463028    
 
Stored column-wise as a matrix :
  0.7968463028      0.7968463028     -0.7968463028    
  0.7968463028     -0.7968463028      0.7968463028    
 -0.7968463028      0.7968463028      0.7968463028    
 
Inverse of matrix :
  0.6274735771      0.6274735771       0.000000000    
  0.6274735771       0.000000000      0.6274735771    
   0.000000000      0.6274735771      0.6274735771    
 
Brillouin zone volume :    2.023874960    
