    0.728294786810E-04
    0.209853856420E-04
    0.127270343246E-03
    0.605009210129E-03
    0.176027772467E-03
    0.122788356520E-03
    0.367817407713E-04
    0.585677215709E-05
    0.727785855548E-05
    0.496080670737E-05
    0.337306149367E-05
    0.324544729946E-05
    0.325678530644E-05
    0.328684337797E-05
    0.332537140346E-05
    0.333871720626E-05
    0.333191067603E-05
    0.333262452190E-05
    0.334696128723E-05
    0.333967758209E-05
    0.333596159430E-05
    0.333162898236E-05
    0.332677871306E-05
    0.332030586148E-05
    0.331702951600E-05
    0.332552633464E-05
    0.332783235424E-05
    0.332993656604E-05
    0.333002700537E-05
    0.332938572700E-05
    0.332960773053E-05
    0.333088641308E-05
    0.333018149473E-05
    0.333004307074E-05
    0.332970481448E-05
    0.332958442129E-05
    0.332964345118E-05
    0.332858042118E-05
    0.332860403562E-05
    0.333037442135E-05
    0.332924576751E-05
    0.332919772050E-05
    0.332816784165E-05
    0.332798504421E-05
    0.332853598184E-05
    0.332888354193E-05
    0.332844224565E-05
    0.332891475280E-05
    0.332898542521E-05
    0.332914343770E-05
    0.332922530183E-05
    0.332919209478E-05
    0.332921812896E-05
    0.332922868951E-05
    0.332932883046E-05
    0.332932623526E-05
    0.332932993991E-05
    0.332932088110E-05
    0.332932742986E-05
