   58.19227463    
   59.04294327    
   64.26860739    
   77.21499540    
   75.17244304    
   65.96659715    
   65.51528527    
   65.66618788    
   65.79339101    
   65.78638174    
   65.77911898    
   65.77074112    
   65.77039417    
   65.77033445    
   65.76968398    
   65.76855794    
   65.76953000    
   65.76936676    
   65.76949858    
   65.76969598    
   65.76953329    
   65.76945190    
   65.76953785    
   65.76954958    
   65.76956992    
   65.76960328    
   65.76960755    
   65.76964692    
   65.76963602    
   65.76963428    
   65.76963460    
   65.76963351    
   65.76963340    
   65.76963190    
   65.76963140    
   65.76963074    
   65.76963019    
   65.76963027    
   65.76963079    
   65.76963023    
   65.76962996    
   65.76962989    
