 
+----------------------------+
| Real-space lattice vectors |
+----------------------------+
 
vector a1 :    5.219505171      -3.013482715       0.000000000    
vector a2 :    0.000000000       6.026965431       0.000000000    
vector a3 :    0.000000000       0.000000000       10.30818337    
 
Stored column-wise as a matrix :
   5.219505171       0.000000000       0.000000000    
  -3.013482715       6.026965431       0.000000000    
   0.000000000       0.000000000       10.30818337    
 
Inverse of matrix :
  0.1915890429       0.000000000       0.000000000    
  0.9579452142E-01  0.1659209782       0.000000000    
   0.000000000       0.000000000      0.9701030377E-01
 
Unit cell volume :    324.2725361    
 
 
+----------------------------------+
| Reciprocal-space lattice vectors |
+----------------------------------+
 
vector b1 :    1.203789459       0.000000000       0.000000000    
vector b2 :   0.6018947295       1.042512252       0.000000000    
vector b3 :    0.000000000       0.000000000      0.6095337153    
 
Stored column-wise as a matrix :
   1.203789459      0.6018947295       0.000000000    
   0.000000000       1.042512252       0.000000000    
   0.000000000       0.000000000      0.6095337153    
 
Inverse of matrix :
  0.8307100484     -0.4796106700       0.000000000    
   0.000000000      0.9592213402       0.000000000    
   0.000000000       0.000000000       1.640598338    
 
Brillouin zone volume :   0.7649436379    
