   297 : nkpt; k-point, vkl, wkpt, nmat below
     1   0.000000000       0.000000000       0.000000000      0.2035416243E-03     579
     2  0.5882352941E-01   0.000000000       0.000000000      0.1221249746E-02     577
     3  0.1176470588       0.000000000       0.000000000      0.1221249746E-02     581
     4  0.1764705882       0.000000000       0.000000000      0.1221249746E-02     581
     5  0.2352941176       0.000000000       0.000000000      0.1221249746E-02     585
     6  0.2941176471       0.000000000       0.000000000      0.1221249746E-02     575
     7  0.3529411765       0.000000000       0.000000000      0.1221249746E-02     572
     8  0.4117647059       0.000000000       0.000000000      0.1221249746E-02     576
     9  0.4705882353       0.000000000       0.000000000      0.1221249746E-02     580
    10  0.5882352941E-01  0.5882352941E-01   0.000000000      0.1221249746E-02     579
    11  0.1176470588      0.5882352941E-01   0.000000000      0.2442499491E-02     584
    12  0.1764705882      0.5882352941E-01   0.000000000      0.2442499491E-02     580
    13  0.2352941176      0.5882352941E-01   0.000000000      0.2442499491E-02     583
    14  0.2941176471      0.5882352941E-01   0.000000000      0.2442499491E-02     576
    15  0.3529411765      0.5882352941E-01   0.000000000      0.2442499491E-02     579
    16  0.4117647059      0.5882352941E-01   0.000000000      0.2442499491E-02     579
    17  0.4705882353      0.5882352941E-01   0.000000000      0.1221249746E-02     584
    18  0.1176470588      0.1176470588       0.000000000      0.1221249746E-02     582
    19  0.1764705882      0.1176470588       0.000000000      0.2442499491E-02     582
    20  0.2352941176      0.1176470588       0.000000000      0.2442499491E-02     578
    21  0.2941176471      0.1176470588       0.000000000      0.2442499491E-02     577
    22  0.3529411765      0.1176470588       0.000000000      0.2442499491E-02     581
    23  0.4117647059      0.1176470588       0.000000000      0.2442499491E-02     582
    24  0.1764705882      0.1764705882       0.000000000      0.1221249746E-02     584
    25  0.2352941176      0.1764705882       0.000000000      0.2442499491E-02     576
    26  0.2941176471      0.1764705882       0.000000000      0.2442499491E-02     578
    27  0.3529411765      0.1764705882       0.000000000      0.2442499491E-02     582
    28  0.4117647059      0.1764705882       0.000000000      0.1221249746E-02     576
    29  0.2352941176      0.2352941176       0.000000000      0.1221249746E-02     572
    30  0.2941176471      0.2352941176       0.000000000      0.2442499491E-02     582
    31  0.3529411765      0.2352941176       0.000000000      0.2442499491E-02     582
    32  0.2941176471      0.2941176471       0.000000000      0.1221249746E-02     586
    33  0.3529411765      0.2941176471       0.000000000      0.1221249746E-02     584
    34   0.000000000       0.000000000      0.5882352941E-01  0.4070832485E-03     567
    35  0.5882352941E-01   0.000000000      0.5882352941E-01  0.2442499491E-02     575
    36  0.1176470588       0.000000000      0.5882352941E-01  0.2442499491E-02     580
    37  0.1764705882       0.000000000      0.5882352941E-01  0.2442499491E-02     581
    38  0.2352941176       0.000000000      0.5882352941E-01  0.2442499491E-02     587
    39  0.2941176471       0.000000000      0.5882352941E-01  0.2442499491E-02     577
    40  0.3529411765       0.000000000      0.5882352941E-01  0.2442499491E-02     576
    41  0.4117647059       0.000000000      0.5882352941E-01  0.2442499491E-02     577
    42  0.4705882353       0.000000000      0.5882352941E-01  0.2442499491E-02     582
    43  0.5882352941E-01  0.5882352941E-01  0.5882352941E-01  0.2442499491E-02     577
    44  0.1176470588      0.5882352941E-01  0.5882352941E-01  0.4884998982E-02     582
    45  0.1764705882      0.5882352941E-01  0.5882352941E-01  0.4884998982E-02     583
    46  0.2352941176      0.5882352941E-01  0.5882352941E-01  0.4884998982E-02     583
    47  0.2941176471      0.5882352941E-01  0.5882352941E-01  0.4884998982E-02     578
    48  0.3529411765      0.5882352941E-01  0.5882352941E-01  0.4884998982E-02     578
    49  0.4117647059      0.5882352941E-01  0.5882352941E-01  0.4884998982E-02     578
    50  0.4705882353      0.5882352941E-01  0.5882352941E-01  0.2442499491E-02     581
    51  0.1176470588      0.1176470588      0.5882352941E-01  0.2442499491E-02     580
    52  0.1764705882      0.1176470588      0.5882352941E-01  0.4884998982E-02     581
    53  0.2352941176      0.1176470588      0.5882352941E-01  0.4884998982E-02     576
    54  0.2941176471      0.1176470588      0.5882352941E-01  0.4884998982E-02     579
    55  0.3529411765      0.1176470588      0.5882352941E-01  0.4884998982E-02     580
    56  0.4117647059      0.1176470588      0.5882352941E-01  0.4884998982E-02     582
    57  0.1764705882      0.1764705882      0.5882352941E-01  0.2442499491E-02     575
    58  0.2352941176      0.1764705882      0.5882352941E-01  0.4884998982E-02     578
    59  0.2941176471      0.1764705882      0.5882352941E-01  0.4884998982E-02     577
    60  0.3529411765      0.1764705882      0.5882352941E-01  0.4884998982E-02     578
    61  0.4117647059      0.1764705882      0.5882352941E-01  0.2442499491E-02     577
    62  0.2352941176      0.2352941176      0.5882352941E-01  0.2442499491E-02     578
    63  0.2941176471      0.2352941176      0.5882352941E-01  0.4884998982E-02     579
    64  0.3529411765      0.2352941176      0.5882352941E-01  0.4884998982E-02     578
    65  0.2941176471      0.2941176471      0.5882352941E-01  0.2442499491E-02     588
    66  0.3529411765      0.2941176471      0.5882352941E-01  0.2442499491E-02     583
    67   0.000000000       0.000000000      0.1176470588      0.4070832485E-03     567
    68  0.5882352941E-01   0.000000000      0.1176470588      0.2442499491E-02     573
    69  0.1176470588       0.000000000      0.1176470588      0.2442499491E-02     577
    70  0.1764705882       0.000000000      0.1176470588      0.2442499491E-02     584
    71  0.2352941176       0.000000000      0.1176470588      0.2442499491E-02     582
    72  0.2941176471       0.000000000      0.1176470588      0.2442499491E-02     579
    73  0.3529411765       0.000000000      0.1176470588      0.2442499491E-02     578
    74  0.4117647059       0.000000000      0.1176470588      0.2442499491E-02     581
    75  0.4705882353       0.000000000      0.1176470588      0.2442499491E-02     583
    76  0.5882352941E-01  0.5882352941E-01  0.1176470588      0.2442499491E-02     577
    77  0.1176470588      0.5882352941E-01  0.1176470588      0.4884998982E-02     579
    78  0.1764705882      0.5882352941E-01  0.1176470588      0.4884998982E-02     583
    79  0.2352941176      0.5882352941E-01  0.1176470588      0.4884998982E-02     581
    80  0.2941176471      0.5882352941E-01  0.1176470588      0.4884998982E-02     578
    81  0.3529411765      0.5882352941E-01  0.1176470588      0.4884998982E-02     580
    82  0.4117647059      0.5882352941E-01  0.1176470588      0.4884998982E-02     578
    83  0.4705882353      0.5882352941E-01  0.1176470588      0.2442499491E-02     580
    84  0.1176470588      0.1176470588      0.1176470588      0.2442499491E-02     582
    85  0.1764705882      0.1176470588      0.1176470588      0.4884998982E-02     579
    86  0.2352941176      0.1176470588      0.1176470588      0.4884998982E-02     578
    87  0.2941176471      0.1176470588      0.1176470588      0.4884998982E-02     579
    88  0.3529411765      0.1176470588      0.1176470588      0.4884998982E-02     580
    89  0.4117647059      0.1176470588      0.1176470588      0.4884998982E-02     578
    90  0.1764705882      0.1764705882      0.1176470588      0.2442499491E-02     576
    91  0.2352941176      0.1764705882      0.1176470588      0.4884998982E-02     578
    92  0.2941176471      0.1764705882      0.1176470588      0.4884998982E-02     578
    93  0.3529411765      0.1764705882      0.1176470588      0.4884998982E-02     580
    94  0.4117647059      0.1764705882      0.1176470588      0.2442499491E-02     579
    95  0.2352941176      0.2352941176      0.1176470588      0.2442499491E-02     576
    96  0.2941176471      0.2352941176      0.1176470588      0.4884998982E-02     580
    97  0.3529411765      0.2352941176      0.1176470588      0.4884998982E-02     581
    98  0.2941176471      0.2941176471      0.1176470588      0.2442499491E-02     587
    99  0.3529411765      0.2941176471      0.1176470588      0.2442499491E-02     589
   100   0.000000000       0.000000000      0.1764705882      0.4070832485E-03     567
   101  0.5882352941E-01   0.000000000      0.1764705882      0.2442499491E-02     574
   102  0.1176470588       0.000000000      0.1764705882      0.2442499491E-02     576
   103  0.1764705882       0.000000000      0.1764705882      0.2442499491E-02     577
   104  0.2352941176       0.000000000      0.1764705882      0.2442499491E-02     579
   105  0.2941176471       0.000000000      0.1764705882      0.2442499491E-02     578
   106  0.3529411765       0.000000000      0.1764705882      0.2442499491E-02     578
   107  0.4117647059       0.000000000      0.1764705882      0.2442499491E-02     579
   108  0.4705882353       0.000000000      0.1764705882      0.2442499491E-02     581
   109  0.5882352941E-01  0.5882352941E-01  0.1764705882      0.2442499491E-02     577
   110  0.1176470588      0.5882352941E-01  0.1764705882      0.4884998982E-02     578
   111  0.1764705882      0.5882352941E-01  0.1764705882      0.4884998982E-02     579
   112  0.2352941176      0.5882352941E-01  0.1764705882      0.4884998982E-02     577
   113  0.2941176471      0.5882352941E-01  0.1764705882      0.4884998982E-02     578
   114  0.3529411765      0.5882352941E-01  0.1764705882      0.4884998982E-02     580
   115  0.4117647059      0.5882352941E-01  0.1764705882      0.4884998982E-02     582
   116  0.4705882353      0.5882352941E-01  0.1764705882      0.2442499491E-02     579
   117  0.1176470588      0.1176470588      0.1764705882      0.2442499491E-02     576
   118  0.1764705882      0.1176470588      0.1764705882      0.4884998982E-02     576
   119  0.2352941176      0.1176470588      0.1764705882      0.4884998982E-02     578
   120  0.2941176471      0.1176470588      0.1764705882      0.4884998982E-02     580
   121  0.3529411765      0.1176470588      0.1764705882      0.4884998982E-02     579
   122  0.4117647059      0.1176470588      0.1764705882      0.4884998982E-02     577
   123  0.1764705882      0.1764705882      0.1764705882      0.2442499491E-02     578
   124  0.2352941176      0.1764705882      0.1764705882      0.4884998982E-02     577
   125  0.2941176471      0.1764705882      0.1764705882      0.4884998982E-02     579
   126  0.3529411765      0.1764705882      0.1764705882      0.4884998982E-02     579
   127  0.4117647059      0.1764705882      0.1764705882      0.2442499491E-02     583
   128  0.2352941176      0.2352941176      0.1764705882      0.2442499491E-02     577
   129  0.2941176471      0.2352941176      0.1764705882      0.4884998982E-02     581
   130  0.3529411765      0.2352941176      0.1764705882      0.4884998982E-02     585
   131  0.2941176471      0.2941176471      0.1764705882      0.2442499491E-02     586
   132  0.3529411765      0.2941176471      0.1764705882      0.2442499491E-02     587
   133   0.000000000       0.000000000      0.2352941176      0.4070832485E-03     579
   134  0.5882352941E-01   0.000000000      0.2352941176      0.2442499491E-02     578
   135  0.1176470588       0.000000000      0.2352941176      0.2442499491E-02     575
   136  0.1764705882       0.000000000      0.2352941176      0.2442499491E-02     575
   137  0.2352941176       0.000000000      0.2352941176      0.2442499491E-02     575
   138  0.2941176471       0.000000000      0.2352941176      0.2442499491E-02     577
   139  0.3529411765       0.000000000      0.2352941176      0.2442499491E-02     581
   140  0.4117647059       0.000000000      0.2352941176      0.2442499491E-02     581
   141  0.4705882353       0.000000000      0.2352941176      0.2442499491E-02     584
   142  0.5882352941E-01  0.5882352941E-01  0.2352941176      0.2442499491E-02     575
   143  0.1176470588      0.5882352941E-01  0.2352941176      0.4884998982E-02     574
   144  0.1764705882      0.5882352941E-01  0.2352941176      0.4884998982E-02     577
   145  0.2352941176      0.5882352941E-01  0.2352941176      0.4884998982E-02     578
   146  0.2941176471      0.5882352941E-01  0.2352941176      0.4884998982E-02     578
   147  0.3529411765      0.5882352941E-01  0.2352941176      0.4884998982E-02     582
   148  0.4117647059      0.5882352941E-01  0.2352941176      0.4884998982E-02     583
   149  0.4705882353      0.5882352941E-01  0.2352941176      0.2442499491E-02     582
   150  0.1176470588      0.1176470588      0.2352941176      0.2442499491E-02     580
   151  0.1764705882      0.1176470588      0.2352941176      0.4884998982E-02     576
   152  0.2352941176      0.1176470588      0.2352941176      0.4884998982E-02     577
   153  0.2941176471      0.1176470588      0.2352941176      0.4884998982E-02     579
   154  0.3529411765      0.1176470588      0.2352941176      0.4884998982E-02     582
   155  0.4117647059      0.1176470588      0.2352941176      0.4884998982E-02     578
   156  0.1764705882      0.1764705882      0.2352941176      0.2442499491E-02     572
   157  0.2352941176      0.1764705882      0.2352941176      0.4884998982E-02     574
   158  0.2941176471      0.1764705882      0.2352941176      0.4884998982E-02     579
   159  0.3529411765      0.1764705882      0.2352941176      0.4884998982E-02     581
   160  0.4117647059      0.1764705882      0.2352941176      0.2442499491E-02     584
   161  0.2352941176      0.2352941176      0.2352941176      0.2442499491E-02     580
   162  0.2941176471      0.2352941176      0.2352941176      0.4884998982E-02     579
   163  0.3529411765      0.2352941176      0.2352941176      0.4884998982E-02     581
   164  0.2941176471      0.2941176471      0.2352941176      0.2442499491E-02     582
   165  0.3529411765      0.2941176471      0.2352941176      0.2442499491E-02     583
   166   0.000000000       0.000000000      0.2941176471      0.4070832485E-03     579
   167  0.5882352941E-01   0.000000000      0.2941176471      0.2442499491E-02     578
   168  0.1176470588       0.000000000      0.2941176471      0.2442499491E-02     575
   169  0.1764705882       0.000000000      0.2941176471      0.2442499491E-02     575
   170  0.2352941176       0.000000000      0.2941176471      0.2442499491E-02     575
   171  0.2941176471       0.000000000      0.2941176471      0.2442499491E-02     575
   172  0.3529411765       0.000000000      0.2941176471      0.2442499491E-02     583
   173  0.4117647059       0.000000000      0.2941176471      0.2442499491E-02     581
   174  0.4705882353       0.000000000      0.2941176471      0.2442499491E-02     582
   175  0.5882352941E-01  0.5882352941E-01  0.2941176471      0.2442499491E-02     576
   176  0.1176470588      0.5882352941E-01  0.2941176471      0.4884998982E-02     573
   177  0.1764705882      0.5882352941E-01  0.2941176471      0.4884998982E-02     575
   178  0.2352941176      0.5882352941E-01  0.2941176471      0.4884998982E-02     577
   179  0.2941176471      0.5882352941E-01  0.2941176471      0.4884998982E-02     581
   180  0.3529411765      0.5882352941E-01  0.2941176471      0.4884998982E-02     582
   181  0.4117647059      0.5882352941E-01  0.2941176471      0.4884998982E-02     582
   182  0.4705882353      0.5882352941E-01  0.2941176471      0.2442499491E-02     580
   183  0.1176470588      0.1176470588      0.2941176471      0.2442499491E-02     572
   184  0.1764705882      0.1176470588      0.2941176471      0.4884998982E-02     574
   185  0.2352941176      0.1176470588      0.2941176471      0.4884998982E-02     577
   186  0.2941176471      0.1176470588      0.2941176471      0.4884998982E-02     580
   187  0.3529411765      0.1176470588      0.2941176471      0.4884998982E-02     580
   188  0.4117647059      0.1176470588      0.2941176471      0.4884998982E-02     580
   189  0.1764705882      0.1764705882      0.2941176471      0.2442499491E-02     571
   190  0.2352941176      0.1764705882      0.2941176471      0.4884998982E-02     576
   191  0.2941176471      0.1764705882      0.2941176471      0.4884998982E-02     580
   192  0.3529411765      0.1764705882      0.2941176471      0.4884998982E-02     579
   193  0.4117647059      0.1764705882      0.2941176471      0.2442499491E-02     583
   194  0.2352941176      0.2352941176      0.2941176471      0.2442499491E-02     580
   195  0.2941176471      0.2352941176      0.2941176471      0.4884998982E-02     583
   196  0.3529411765      0.2352941176      0.2941176471      0.4884998982E-02     582
   197  0.2941176471      0.2941176471      0.2941176471      0.2442499491E-02     579
   198  0.3529411765      0.2941176471      0.2941176471      0.2442499491E-02     579
   199   0.000000000       0.000000000      0.3529411765      0.4070832485E-03     584
   200  0.5882352941E-01   0.000000000      0.3529411765      0.2442499491E-02     579
   201  0.1176470588       0.000000000      0.3529411765      0.2442499491E-02     574
   202  0.1764705882       0.000000000      0.3529411765      0.2442499491E-02     570
   203  0.2352941176       0.000000000      0.3529411765      0.2442499491E-02     573
   204  0.2941176471       0.000000000      0.3529411765      0.2442499491E-02     576
   205  0.3529411765       0.000000000      0.3529411765      0.2442499491E-02     582
   206  0.4117647059       0.000000000      0.3529411765      0.2442499491E-02     577
   207  0.4705882353       0.000000000      0.3529411765      0.2442499491E-02     579
   208  0.5882352941E-01  0.5882352941E-01  0.3529411765      0.2442499491E-02     573
   209  0.1176470588      0.5882352941E-01  0.3529411765      0.4884998982E-02     571
   210  0.1764705882      0.5882352941E-01  0.3529411765      0.4884998982E-02     570
   211  0.2352941176      0.5882352941E-01  0.3529411765      0.4884998982E-02     572
   212  0.2941176471      0.5882352941E-01  0.3529411765      0.4884998982E-02     579
   213  0.3529411765      0.5882352941E-01  0.3529411765      0.4884998982E-02     580
   214  0.4117647059      0.5882352941E-01  0.3529411765      0.4884998982E-02     583
   215  0.4705882353      0.5882352941E-01  0.3529411765      0.2442499491E-02     580
   216  0.1176470588      0.1176470588      0.3529411765      0.2442499491E-02     571
   217  0.1764705882      0.1176470588      0.3529411765      0.4884998982E-02     574
   218  0.2352941176      0.1176470588      0.3529411765      0.4884998982E-02     578
   219  0.2941176471      0.1176470588      0.3529411765      0.4884998982E-02     579
   220  0.3529411765      0.1176470588      0.3529411765      0.4884998982E-02     581
   221  0.4117647059      0.1176470588      0.3529411765      0.4884998982E-02     586
   222  0.1764705882      0.1764705882      0.3529411765      0.2442499491E-02     570
   223  0.2352941176      0.1764705882      0.3529411765      0.4884998982E-02     576
   224  0.2941176471      0.1764705882      0.3529411765      0.4884998982E-02     580
   225  0.3529411765      0.1764705882      0.3529411765      0.4884998982E-02     582
   226  0.4117647059      0.1764705882      0.3529411765      0.2442499491E-02     585
   227  0.2352941176      0.2352941176      0.3529411765      0.2442499491E-02     581
   228  0.2941176471      0.2352941176      0.3529411765      0.4884998982E-02     584
   229  0.3529411765      0.2352941176      0.3529411765      0.4884998982E-02     585
   230  0.2941176471      0.2941176471      0.3529411765      0.2442499491E-02     582
   231  0.3529411765      0.2941176471      0.3529411765      0.2442499491E-02     581
   232   0.000000000       0.000000000      0.4117647059      0.4070832485E-03     578
   233  0.5882352941E-01   0.000000000      0.4117647059      0.2442499491E-02     577
   234  0.1176470588       0.000000000      0.4117647059      0.2442499491E-02     572
   235  0.1764705882       0.000000000      0.4117647059      0.2442499491E-02     568
   236  0.2352941176       0.000000000      0.4117647059      0.2442499491E-02     571
   237  0.2941176471       0.000000000      0.4117647059      0.2442499491E-02     576
   238  0.3529411765       0.000000000      0.4117647059      0.2442499491E-02     578
   239  0.4117647059       0.000000000      0.4117647059      0.2442499491E-02     581
   240  0.4705882353       0.000000000      0.4117647059      0.2442499491E-02     582
   241  0.5882352941E-01  0.5882352941E-01  0.4117647059      0.2442499491E-02     575
   242  0.1176470588      0.5882352941E-01  0.4117647059      0.4884998982E-02     572
   243  0.1764705882      0.5882352941E-01  0.4117647059      0.4884998982E-02     570
   244  0.2352941176      0.5882352941E-01  0.4117647059      0.4884998982E-02     573
   245  0.2941176471      0.5882352941E-01  0.4117647059      0.4884998982E-02     578
   246  0.3529411765      0.5882352941E-01  0.4117647059      0.4884998982E-02     581
   247  0.4117647059      0.5882352941E-01  0.4117647059      0.4884998982E-02     584
   248  0.4705882353      0.5882352941E-01  0.4117647059      0.2442499491E-02     578
   249  0.1176470588      0.1176470588      0.4117647059      0.2442499491E-02     574
   250  0.1764705882      0.1176470588      0.4117647059      0.4884998982E-02     569
   251  0.2352941176      0.1176470588      0.4117647059      0.4884998982E-02     576
   252  0.2941176471      0.1176470588      0.4117647059      0.4884998982E-02     581
   253  0.3529411765      0.1176470588      0.4117647059      0.4884998982E-02     580
   254  0.4117647059      0.1176470588      0.4117647059      0.4884998982E-02     584
   255  0.1764705882      0.1764705882      0.4117647059      0.2442499491E-02     572
   256  0.2352941176      0.1764705882      0.4117647059      0.4884998982E-02     576
   257  0.2941176471      0.1764705882      0.4117647059      0.4884998982E-02     580
   258  0.3529411765      0.1764705882      0.4117647059      0.4884998982E-02     583
   259  0.4117647059      0.1764705882      0.4117647059      0.2442499491E-02     583
   260  0.2352941176      0.2352941176      0.4117647059      0.2442499491E-02     577
   261  0.2941176471      0.2352941176      0.4117647059      0.4884998982E-02     581
   262  0.3529411765      0.2352941176      0.4117647059      0.4884998982E-02     584
   263  0.2941176471      0.2941176471      0.4117647059      0.2442499491E-02     584
   264  0.3529411765      0.2941176471      0.4117647059      0.2442499491E-02     589
   265   0.000000000       0.000000000      0.4705882353      0.4070832485E-03     578
   266  0.5882352941E-01   0.000000000      0.4705882353      0.2442499491E-02     576
   267  0.1176470588       0.000000000      0.4705882353      0.2442499491E-02     572
   268  0.1764705882       0.000000000      0.4705882353      0.2442499491E-02     568
   269  0.2352941176       0.000000000      0.4705882353      0.2442499491E-02     571
   270  0.2941176471       0.000000000      0.4705882353      0.2442499491E-02     576
   271  0.3529411765       0.000000000      0.4705882353      0.2442499491E-02     581
   272  0.4117647059       0.000000000      0.4705882353      0.2442499491E-02     582
   273  0.4705882353       0.000000000      0.4705882353      0.2442499491E-02     584
   274  0.5882352941E-01  0.5882352941E-01  0.4705882353      0.2442499491E-02     575
   275  0.1176470588      0.5882352941E-01  0.4705882353      0.4884998982E-02     572
   276  0.1764705882      0.5882352941E-01  0.4705882353      0.4884998982E-02     571
   277  0.2352941176      0.5882352941E-01  0.4705882353      0.4884998982E-02     573
   278  0.2941176471      0.5882352941E-01  0.4705882353      0.4884998982E-02     573
   279  0.3529411765      0.5882352941E-01  0.4705882353      0.4884998982E-02     580
   280  0.4117647059      0.5882352941E-01  0.4705882353      0.4884998982E-02     583
   281  0.4705882353      0.5882352941E-01  0.4705882353      0.2442499491E-02     580
   282  0.1176470588      0.1176470588      0.4705882353      0.2442499491E-02     572
   283  0.1764705882      0.1176470588      0.4705882353      0.4884998982E-02     572
   284  0.2352941176      0.1176470588      0.4705882353      0.4884998982E-02     575
   285  0.2941176471      0.1176470588      0.4705882353      0.4884998982E-02     581
   286  0.3529411765      0.1176470588      0.4705882353      0.4884998982E-02     582
   287  0.4117647059      0.1176470588      0.4705882353      0.4884998982E-02     582
   288  0.1764705882      0.1764705882      0.4705882353      0.2442499491E-02     576
   289  0.2352941176      0.1764705882      0.4705882353      0.4884998982E-02     579
   290  0.2941176471      0.1764705882      0.4705882353      0.4884998982E-02     577
   291  0.3529411765      0.1764705882      0.4705882353      0.4884998982E-02     584
   292  0.4117647059      0.1764705882      0.4705882353      0.2442499491E-02     584
   293  0.2352941176      0.2352941176      0.4705882353      0.2442499491E-02     578
   294  0.2941176471      0.2352941176      0.4705882353      0.4884998982E-02     582
   295  0.3529411765      0.2352941176      0.4705882353      0.4884998982E-02     588
   296  0.2941176471      0.2941176471      0.4705882353      0.2442499491E-02     586
   297  0.3529411765      0.2941176471      0.4705882353      0.2442499491E-02     589
