 
Species :    1 (Zr), atom :    1
 APW functions :
  l =  0, energy derivative =  0 :   0.3100100522    
  l =  1, energy derivative =  0 :   0.3100100522    
  l =  2, energy derivative =  0 :   0.3100100522    
  l =  3, energy derivative =  0 :   0.3100100522    
  l =  4, energy derivative =  0 :   0.3100100522    
  l =  5, energy derivative =  0 :   0.3100100522    
  l =  6, energy derivative =  0 :   0.3100100522    
  l =  7, energy derivative =  0 :   0.3100100522    
  l =  8, energy derivative =  0 :   0.3100100522    
  l =  9, energy derivative =  0 :   0.3100100522    
  l = 10, energy derivative =  0 :   0.3100100522    
 local-orbital functions :
  l.o. =  1, l =  0, energy derivative =  0 :   0.3100100522    
  l.o. =  1, l =  0, energy derivative =  1 :   0.3100100522    
  l.o. =  2, l =  1, energy derivative =  0 :   0.3100100522    
  l.o. =  2, l =  1, energy derivative =  1 :   0.3100100522    
  l.o. =  3, l =  2, energy derivative =  0 :   0.3100100522    
  l.o. =  3, l =  2, energy derivative =  1 :   0.3100100522    
  l.o. =  4, l =  0, energy derivative =  0 :   0.3100100522    
  l.o. =  4, l =  0, energy derivative =  0 :   -1.387282711    
  l.o. =  5, l =  1, energy derivative =  0 :   0.3100100522    
  l.o. =  5, l =  1, energy derivative =  0 :  -0.5641716736    
  l.o. =  6, l =  3, energy derivative =  0 :   0.3100100522    
  l.o. =  6, l =  3, energy derivative =  1 :   0.3100100522    
  l.o. =  7, l =  4, energy derivative =  0 :   0.3100100522    
  l.o. =  7, l =  4, energy derivative =  1 :   0.3100100522    
  l.o. =  8, l =  5, energy derivative =  0 :   0.3100100522    
  l.o. =  8, l =  5, energy derivative =  1 :   0.3100100522    
  l.o. =  9, l =  0, energy derivative =  0 :    1.649662605    
  l.o. =  9, l =  0, energy derivative =  1 :    1.649662605    
  l.o. =  9, l =  0, energy derivative =  2 :    1.649662605    
  l.o. = 10, l =  1, energy derivative =  0 :    2.241431532    
  l.o. = 10, l =  1, energy derivative =  1 :    2.241431532    
  l.o. = 10, l =  1, energy derivative =  2 :    2.241431532    
  l.o. = 11, l =  2, energy derivative =  0 :   0.6537051476    
  l.o. = 11, l =  2, energy derivative =  1 :   0.6537051476    
  l.o. = 11, l =  2, energy derivative =  2 :   0.6537051476    
  l.o. = 12, l =  3, energy derivative =  0 :    1.849538233    
  l.o. = 12, l =  3, energy derivative =  1 :    1.849538233    
  l.o. = 12, l =  3, energy derivative =  2 :    1.849538233    
  l.o. = 13, l =  4, energy derivative =  0 :    3.407143266    
  l.o. = 13, l =  4, energy derivative =  1 :    3.407143266    
  l.o. = 13, l =  4, energy derivative =  2 :    3.407143266    
  l.o. = 14, l =  5, energy derivative =  0 :    4.950448124    
  l.o. = 14, l =  5, energy derivative =  1 :    4.950448124    
  l.o. = 14, l =  5, energy derivative =  2 :    4.950448124    
  l.o. = 15, l =  6, energy derivative =  0 :    6.617878356    
  l.o. = 15, l =  6, energy derivative =  1 :    6.617878356    
  l.o. = 15, l =  6, energy derivative =  2 :    6.617878356    
  l.o. = 16, l =  7, energy derivative =  0 :    8.438686680    
  l.o. = 16, l =  7, energy derivative =  1 :    8.438686680    
  l.o. = 16, l =  7, energy derivative =  2 :    8.438686680    
  l.o. = 17, l =  8, energy derivative =  0 :    10.42336229    
  l.o. = 17, l =  8, energy derivative =  1 :    10.42336229    
  l.o. = 17, l =  8, energy derivative =  2 :    10.42336229    
 
Species :    1 (Zr), atom :    2
 APW functions :
  l =  0, energy derivative =  0 :   0.3100100522    
  l =  1, energy derivative =  0 :   0.3100100522    
  l =  2, energy derivative =  0 :   0.3100100522    
  l =  3, energy derivative =  0 :   0.3100100522    
  l =  4, energy derivative =  0 :   0.3100100522    
  l =  5, energy derivative =  0 :   0.3100100522    
  l =  6, energy derivative =  0 :   0.3100100522    
  l =  7, energy derivative =  0 :   0.3100100522    
  l =  8, energy derivative =  0 :   0.3100100522    
  l =  9, energy derivative =  0 :   0.3100100522    
  l = 10, energy derivative =  0 :   0.3100100522    
 local-orbital functions :
  l.o. =  1, l =  0, energy derivative =  0 :   0.3100100522    
  l.o. =  1, l =  0, energy derivative =  1 :   0.3100100522    
  l.o. =  2, l =  1, energy derivative =  0 :   0.3100100522    
  l.o. =  2, l =  1, energy derivative =  1 :   0.3100100522    
  l.o. =  3, l =  2, energy derivative =  0 :   0.3100100522    
  l.o. =  3, l =  2, energy derivative =  1 :   0.3100100522    
  l.o. =  4, l =  0, energy derivative =  0 :   0.3100100522    
  l.o. =  4, l =  0, energy derivative =  0 :   -1.387282711    
  l.o. =  5, l =  1, energy derivative =  0 :   0.3100100522    
  l.o. =  5, l =  1, energy derivative =  0 :  -0.5641716736    
  l.o. =  6, l =  3, energy derivative =  0 :   0.3100100522    
  l.o. =  6, l =  3, energy derivative =  1 :   0.3100100522    
  l.o. =  7, l =  4, energy derivative =  0 :   0.3100100522    
  l.o. =  7, l =  4, energy derivative =  1 :   0.3100100522    
  l.o. =  8, l =  5, energy derivative =  0 :   0.3100100522    
  l.o. =  8, l =  5, energy derivative =  1 :   0.3100100522    
  l.o. =  9, l =  0, energy derivative =  0 :    1.649662605    
  l.o. =  9, l =  0, energy derivative =  1 :    1.649662605    
  l.o. =  9, l =  0, energy derivative =  2 :    1.649662605    
  l.o. = 10, l =  1, energy derivative =  0 :    2.241431532    
  l.o. = 10, l =  1, energy derivative =  1 :    2.241431532    
  l.o. = 10, l =  1, energy derivative =  2 :    2.241431532    
  l.o. = 11, l =  2, energy derivative =  0 :   0.6537051476    
  l.o. = 11, l =  2, energy derivative =  1 :   0.6537051476    
  l.o. = 11, l =  2, energy derivative =  2 :   0.6537051476    
  l.o. = 12, l =  3, energy derivative =  0 :    1.849538233    
  l.o. = 12, l =  3, energy derivative =  1 :    1.849538233    
  l.o. = 12, l =  3, energy derivative =  2 :    1.849538233    
  l.o. = 13, l =  4, energy derivative =  0 :    3.407143266    
  l.o. = 13, l =  4, energy derivative =  1 :    3.407143266    
  l.o. = 13, l =  4, energy derivative =  2 :    3.407143266    
  l.o. = 14, l =  5, energy derivative =  0 :    4.950448124    
  l.o. = 14, l =  5, energy derivative =  1 :    4.950448124    
  l.o. = 14, l =  5, energy derivative =  2 :    4.950448124    
  l.o. = 15, l =  6, energy derivative =  0 :    6.617878356    
  l.o. = 15, l =  6, energy derivative =  1 :    6.617878356    
  l.o. = 15, l =  6, energy derivative =  2 :    6.617878356    
  l.o. = 16, l =  7, energy derivative =  0 :    8.438686680    
  l.o. = 16, l =  7, energy derivative =  1 :    8.438686680    
  l.o. = 16, l =  7, energy derivative =  2 :    8.438686680    
  l.o. = 17, l =  8, energy derivative =  0 :    10.42336229    
  l.o. = 17, l =  8, energy derivative =  1 :    10.42336229    
  l.o. = 17, l =  8, energy derivative =  2 :    10.42336229    
