    -6836.82446578    
    -6835.85334855    
    -6824.87520453    
    -6802.60165233    
    -6784.62554678    
    -6776.70608966    
    -6773.62860169    
    -6773.66105367    
    -6773.67397370    
    -6773.67178578    
    -6773.66835978    
    -6773.66770137    
    -6773.66772044    
    -6773.66763312    
    -6773.66768077    
    -6773.66773516    
    -6773.66778664    
    -6773.66775582    
    -6773.66774746    
    -6773.66776505    
    -6773.66776023    
    -6773.66774704    
    -6773.66774338    
    -6773.66774339    
    -6773.66773984    
    -6773.66773581    
    -6773.66773566    
    -6773.66773298    
    -6773.66773134    
    -6773.66772887    
    -6773.66772734    
    -6773.66772665    
    -6773.66772661    
    -6773.66772612    
    -6773.66772622    
    -6773.66772597    
    -6773.66772587    
    -6773.66772585    
    -6773.66772571    
    -6773.66772569    
    -6773.66772570    
    -6773.66772570    
