   165 : nkpt; k-point, vkl, wkpt, nmat below
     1   0.000000000       0.000000000       0.000000000      0.2035416243E-03    1045
     2  0.5882352941E-01   0.000000000       0.000000000      0.2442499491E-02    1033
     3  0.1176470588       0.000000000       0.000000000      0.2442499491E-02    1035
     4  0.1764705882       0.000000000       0.000000000      0.2442499491E-02    1015
     5  0.2352941176       0.000000000       0.000000000      0.2442499491E-02    1003
     6  0.2941176471       0.000000000       0.000000000      0.2442499491E-02    1011
     7  0.3529411765       0.000000000       0.000000000      0.2442499491E-02    1014
     8  0.4117647059       0.000000000       0.000000000      0.2442499491E-02     992
     9  0.4705882353       0.000000000       0.000000000      0.2442499491E-02     988
    10  0.5882352941E-01  0.5882352941E-01   0.000000000      0.4884998982E-02    1031
    11  0.1176470588      0.5882352941E-01   0.000000000      0.9769997965E-02    1026
    12  0.1764705882      0.5882352941E-01   0.000000000      0.9769997965E-02    1014
    13  0.2352941176      0.5882352941E-01   0.000000000      0.9769997965E-02    1011
    14  0.2941176471      0.5882352941E-01   0.000000000      0.9769997965E-02    1007
    15  0.3529411765      0.5882352941E-01   0.000000000      0.9769997965E-02     999
    16  0.4117647059      0.5882352941E-01   0.000000000      0.9769997965E-02     993
    17  0.4705882353      0.5882352941E-01   0.000000000      0.4884998982E-02     994
    18  0.1176470588      0.1176470588       0.000000000      0.4884998982E-02    1011
    19  0.1764705882      0.1176470588       0.000000000      0.9769997965E-02    1010
    20  0.2352941176      0.1176470588       0.000000000      0.9769997965E-02    1007
    21  0.2941176471      0.1176470588       0.000000000      0.9769997965E-02    1002
    22  0.3529411765      0.1176470588       0.000000000      0.9769997965E-02     998
    23  0.4117647059      0.1176470588       0.000000000      0.9769997965E-02     995
    24  0.1764705882      0.1764705882       0.000000000      0.4884998982E-02    1009
    25  0.2352941176      0.1764705882       0.000000000      0.9769997965E-02    1007
    26  0.2941176471      0.1764705882       0.000000000      0.9769997965E-02     998
    27  0.3529411765      0.1764705882       0.000000000      0.9769997965E-02     997
    28  0.4117647059      0.1764705882       0.000000000      0.4884998982E-02     998
    29  0.2352941176      0.2352941176       0.000000000      0.4884998982E-02    1003
    30  0.2941176471      0.2352941176       0.000000000      0.9769997965E-02    1002
    31  0.3529411765      0.2352941176       0.000000000      0.9769997965E-02    1001
    32  0.2941176471      0.2941176471       0.000000000      0.4884998982E-02    1003
    33  0.3529411765      0.2941176471       0.000000000      0.4884998982E-02     997
    34  0.5882352941E-01  0.5882352941E-01  0.5882352941E-01  0.1628332994E-02    1027
    35  0.1176470588      0.5882352941E-01  0.5882352941E-01  0.4884998982E-02    1016
    36  0.1764705882      0.5882352941E-01  0.5882352941E-01  0.4884998982E-02    1008
    37  0.2352941176      0.5882352941E-01  0.5882352941E-01  0.4884998982E-02    1008
    38  0.2941176471      0.5882352941E-01  0.5882352941E-01  0.4884998982E-02    1006
    39  0.3529411765      0.5882352941E-01  0.5882352941E-01  0.4884998982E-02     998
    40  0.4117647059      0.5882352941E-01  0.5882352941E-01  0.4884998982E-02     994
    41  0.9411764706      0.5882352941E-01  0.5882352941E-01  0.1221249746E-02    1033
    42  0.1176470588      0.1176470588      0.5882352941E-01  0.4884998982E-02    1008
    43  0.1764705882      0.1176470588      0.5882352941E-01  0.9769997965E-02    1010
    44  0.2352941176      0.1176470588      0.5882352941E-01  0.9769997965E-02    1001
    45  0.2941176471      0.1176470588      0.5882352941E-01  0.9769997965E-02    1000
    46  0.3529411765      0.1176470588      0.5882352941E-01  0.9769997965E-02    1001
    47  0.4117647059      0.1176470588      0.5882352941E-01  0.4884998982E-02     994
    48  0.8823529412      0.1176470588      0.5882352941E-01  0.4884998982E-02    1028
    49  0.1764705882      0.1764705882      0.5882352941E-01  0.4884998982E-02    1006
    50  0.2352941176      0.1764705882      0.5882352941E-01  0.9769997965E-02     999
    51  0.2941176471      0.1764705882      0.5882352941E-01  0.9769997965E-02    1000
    52  0.3529411765      0.1764705882      0.5882352941E-01  0.9769997965E-02     999
    53  0.8235294118      0.1764705882      0.5882352941E-01  0.4884998982E-02    1020
    54  0.8823529412      0.1764705882      0.5882352941E-01  0.4884998982E-02    1014
    55  0.2352941176      0.2352941176      0.5882352941E-01  0.4884998982E-02    1001
    56  0.2941176471      0.2352941176      0.5882352941E-01  0.9769997965E-02     999
    57  0.3529411765      0.2352941176      0.5882352941E-01  0.4884998982E-02     999
    58  0.7647058824      0.2352941176      0.5882352941E-01  0.4884998982E-02    1009
    59  0.8235294118      0.2352941176      0.5882352941E-01  0.9769997965E-02    1009
    60  0.2941176471      0.2941176471      0.5882352941E-01  0.4884998982E-02     997
    61  0.7058823529      0.2941176471      0.5882352941E-01  0.4884998982E-02    1010
    62  0.7647058824      0.2941176471      0.5882352941E-01  0.9769997965E-02    1009
    63  0.8235294118      0.2941176471      0.5882352941E-01  0.4884998982E-02    1002
    64  0.6470588235      0.3529411765      0.5882352941E-01  0.4884998982E-02    1008
    65  0.7058823529      0.3529411765      0.5882352941E-01  0.9769997965E-02    1006
    66  0.7647058824      0.3529411765      0.5882352941E-01  0.9769997965E-02    1008
    67  0.5882352941      0.4117647059      0.5882352941E-01  0.4884998982E-02     995
    68  0.6470588235      0.4117647059      0.5882352941E-01  0.9769997965E-02    1000
    69  0.7058823529      0.4117647059      0.5882352941E-01  0.9769997965E-02    1003
    70  0.7647058824      0.4117647059      0.5882352941E-01  0.4884998982E-02    1002
    71  0.5294117647      0.4705882353      0.5882352941E-01  0.4884998982E-02     994
    72  0.5882352941      0.4705882353      0.5882352941E-01  0.9769997965E-02    1002
    73  0.6470588235      0.4705882353      0.5882352941E-01  0.9769997965E-02     998
    74  0.7058823529      0.4705882353      0.5882352941E-01  0.9769997965E-02     996
    75  0.5294117647      0.5294117647      0.5882352941E-01  0.4884998982E-02    1000
    76  0.5882352941      0.5294117647      0.5882352941E-01  0.9769997965E-02    1003
    77  0.6470588235      0.5294117647      0.5882352941E-01  0.9769997965E-02     997
    78  0.7058823529      0.5294117647      0.5882352941E-01  0.4884998982E-02    1000
    79  0.5882352941      0.5882352941      0.5882352941E-01  0.4884998982E-02    1001
    80  0.6470588235      0.5882352941      0.5882352941E-01  0.9769997965E-02    1004
    81  0.6470588235      0.6470588235      0.5882352941E-01  0.1628332994E-02    1005
    82  0.1176470588      0.1176470588      0.1176470588      0.1628332994E-02    1012
    83  0.1764705882      0.1176470588      0.1176470588      0.4884998982E-02     998
    84  0.2352941176      0.1176470588      0.1176470588      0.4884998982E-02     999
    85  0.2941176471      0.1176470588      0.1176470588      0.4884998982E-02     999
    86  0.3529411765      0.1176470588      0.1176470588      0.4884998982E-02    1000
    87  0.8823529412      0.1176470588      0.1176470588      0.1221249746E-02    1017
    88  0.1764705882      0.1764705882      0.1176470588      0.4884998982E-02    1004
    89  0.2352941176      0.1764705882      0.1176470588      0.9769997965E-02    1002
    90  0.2941176471      0.1764705882      0.1176470588      0.9769997965E-02    1000
    91  0.3529411765      0.1764705882      0.1176470588      0.4884998982E-02    1004
    92  0.8235294118      0.1764705882      0.1176470588      0.4884998982E-02    1012
    93  0.2352941176      0.2352941176      0.1176470588      0.4884998982E-02    1003
    94  0.2941176471      0.2352941176      0.1176470588      0.9769997965E-02    1004
    95  0.7647058824      0.2352941176      0.1176470588      0.4884998982E-02    1009
    96  0.8235294118      0.2352941176      0.1176470588      0.4884998982E-02    1006
    97  0.2941176471      0.2941176471      0.1176470588      0.1628332994E-02     999
    98  0.7058823529      0.2941176471      0.1176470588      0.4884998982E-02    1008
    99  0.7647058824      0.2941176471      0.1176470588      0.9769997965E-02    1010
   100  0.6470588235      0.3529411765      0.1176470588      0.4884998982E-02    1008
   101  0.7058823529      0.3529411765      0.1176470588      0.9769997965E-02    1003
   102  0.7647058824      0.3529411765      0.1176470588      0.4884998982E-02    1004
   103  0.5882352941      0.4117647059      0.1176470588      0.4884998982E-02    1008
   104  0.6470588235      0.4117647059      0.1176470588      0.9769997965E-02    1002
   105  0.7058823529      0.4117647059      0.1176470588      0.9769997965E-02     998
   106  0.5294117647      0.4705882353      0.1176470588      0.4884998982E-02     995
   107  0.5882352941      0.4705882353      0.1176470588      0.9769997965E-02    1001
   108  0.6470588235      0.4705882353      0.1176470588      0.9769997965E-02    1000
   109  0.7058823529      0.4705882353      0.1176470588      0.4884998982E-02     998
   110  0.5294117647      0.5294117647      0.1176470588      0.4884998982E-02     998
   111  0.5882352941      0.5294117647      0.1176470588      0.9769997965E-02    1007
   112  0.6470588235      0.5294117647      0.1176470588      0.9769997965E-02    1003
   113  0.5882352941      0.5882352941      0.1176470588      0.4884998982E-02    1007
   114  0.6470588235      0.5882352941      0.1176470588      0.4884998982E-02    1002
   115  0.1764705882      0.1764705882      0.1764705882      0.1628332994E-02    1005
   116  0.2352941176      0.1764705882      0.1764705882      0.4884998982E-02     997
   117  0.2941176471      0.1764705882      0.1764705882      0.4884998982E-02    1003
   118  0.8235294118      0.1764705882      0.1764705882      0.1221249746E-02    1009
   119  0.2352941176      0.2352941176      0.1764705882      0.4884998982E-02    1006
   120  0.2941176471      0.2352941176      0.1764705882      0.4884998982E-02    1006
   121  0.7647058824      0.2352941176      0.1764705882      0.4884998982E-02    1010
   122  0.7058823529      0.2941176471      0.1764705882      0.4884998982E-02    1006
   123  0.7647058824      0.2941176471      0.1764705882      0.4884998982E-02    1000
   124  0.6470588235      0.3529411765      0.1764705882      0.4884998982E-02    1003
   125  0.7058823529      0.3529411765      0.1764705882      0.9769997965E-02    1002
   126  0.5882352941      0.4117647059      0.1764705882      0.4884998982E-02    1005
   127  0.6470588235      0.4117647059      0.1764705882      0.9769997965E-02    1004
   128  0.7058823529      0.4117647059      0.1764705882      0.4884998982E-02    1000
   129  0.5294117647      0.4705882353      0.1764705882      0.4884998982E-02     997
   130  0.5882352941      0.4705882353      0.1764705882      0.9769997965E-02    1003
   131  0.6470588235      0.4705882353      0.1764705882      0.9769997965E-02    1001
   132  0.5294117647      0.5294117647      0.1764705882      0.4884998982E-02    1002
   133  0.5882352941      0.5294117647      0.1764705882      0.9769997965E-02    1005
   134  0.6470588235      0.5294117647      0.1764705882      0.4884998982E-02    1006
   135  0.5882352941      0.5882352941      0.1764705882      0.4884998982E-02    1004
   136  0.2352941176      0.2352941176      0.2352941176      0.1628332994E-02    1002
   137  0.7647058824      0.2352941176      0.2352941176      0.1221249746E-02    1009
   138  0.7058823529      0.2941176471      0.2352941176      0.4884998982E-02    1007
   139  0.6470588235      0.3529411765      0.2352941176      0.4884998982E-02    1000
   140  0.7058823529      0.3529411765      0.2352941176      0.4884998982E-02    1001
   141  0.5882352941      0.4117647059      0.2352941176      0.4884998982E-02    1003
   142  0.6470588235      0.4117647059      0.2352941176      0.9769997965E-02    1002
   143  0.5294117647      0.4705882353      0.2352941176      0.4884998982E-02    1004
   144  0.5882352941      0.4705882353      0.2352941176      0.9769997965E-02    1004
   145  0.6470588235      0.4705882353      0.2352941176      0.4884998982E-02    1003
   146  0.5294117647      0.5294117647      0.2352941176      0.4884998982E-02    1006
   147  0.5882352941      0.5294117647      0.2352941176      0.9769997965E-02    1004
   148  0.5882352941      0.5882352941      0.2352941176      0.1628332994E-02    1008
   149  0.7058823529      0.2941176471      0.2941176471      0.1221249746E-02    1002
   150  0.6470588235      0.3529411765      0.2941176471      0.4884998982E-02    1003
   151  0.5882352941      0.4117647059      0.2941176471      0.4884998982E-02     999
   152  0.6470588235      0.4117647059      0.2941176471      0.4884998982E-02     999
   153  0.5294117647      0.4705882353      0.2941176471      0.4884998982E-02     999
   154  0.5882352941      0.4705882353      0.2941176471      0.9769997965E-02    1001
   155  0.5294117647      0.5294117647      0.2941176471      0.4884998982E-02    1000
   156  0.5882352941      0.5294117647      0.2941176471      0.4884998982E-02    1002
   157  0.6470588235      0.3529411765      0.3529411765      0.1221249746E-02    1002
   158  0.5882352941      0.4117647059      0.3529411765      0.4884998982E-02    1000
   159  0.5294117647      0.4705882353      0.3529411765      0.4884998982E-02     996
   160  0.5882352941      0.4705882353      0.3529411765      0.4884998982E-02     990
   161  0.5294117647      0.5294117647      0.3529411765      0.4884998982E-02     992
   162  0.5882352941      0.4117647059      0.4117647059      0.1221249746E-02     998
   163  0.5294117647      0.4705882353      0.4117647059      0.4884998982E-02     984
   164  0.5294117647      0.5294117647      0.4117647059      0.1628332994E-02     990
   165  0.5294117647      0.4705882353      0.4705882353      0.1221249746E-02     982
