 
+----------------------------+
| Real-space lattice vectors |
+----------------------------+
 
vector a1 :    5.564208615       5.564208615      -5.564208615    
vector a2 :    5.564208615      -5.564208615       5.564208615    
vector a3 :   -5.564208615       5.564208615       5.564208615    
 
Stored column-wise as a matrix :
   5.564208615       5.564208615      -5.564208615    
   5.564208615      -5.564208615       5.564208615    
  -5.564208615       5.564208615       5.564208615    
 
Inverse of matrix :
  0.8986003843E-01  0.8986003843E-01   0.000000000    
  0.8986003843E-01   0.000000000      0.8986003843E-01
   0.000000000      0.8986003843E-01  0.8986003843E-01
 
Unit cell volume :    689.0808875    
 
 
+----------------------------------+
| Reciprocal-space lattice vectors |
+----------------------------------+
 
vector b1 :   0.5646072732      0.5646072732       0.000000000    
vector b2 :   0.5646072732       0.000000000      0.5646072732    
vector b3 :    0.000000000      0.5646072732      0.5646072732    
 
Stored column-wise as a matrix :
  0.5646072732      0.5646072732       0.000000000    
  0.5646072732       0.000000000      0.5646072732    
   0.000000000      0.5646072732      0.5646072732    
 
Inverse of matrix :
  0.8855713055      0.8855713055     -0.8855713055    
  0.8855713055     -0.8855713055      0.8855713055    
 -0.8855713055      0.8855713055      0.8855713055    
 
Brillouin zone volume :   0.3599725634    
