 
Species :    1 (Os), atom :    1
 APW functions :
  l =  0, energy derivative =  0 :   0.5914641277    
  l =  1, energy derivative =  0 :   0.5914641277    
  l =  2, energy derivative =  0 :   0.5914641277    
  l =  3, energy derivative =  0 :   0.5914641277    
  l =  4, energy derivative =  0 :   0.5914641277    
  l =  5, energy derivative =  0 :   0.5914641277    
  l =  6, energy derivative =  0 :   0.5914641277    
  l =  7, energy derivative =  0 :   0.5914641277    
  l =  8, energy derivative =  0 :   0.5914641277    
  l =  9, energy derivative =  0 :   0.5914641277    
  l = 10, energy derivative =  0 :   0.5914641277    
 local-orbital functions :
  l.o. =  1, l =  0, energy derivative =  0 :   0.5914641277    
  l.o. =  1, l =  0, energy derivative =  1 :   0.5914641277    
  l.o. =  2, l =  1, energy derivative =  0 :   0.5914641277    
  l.o. =  2, l =  1, energy derivative =  1 :   0.5914641277    
  l.o. =  3, l =  2, energy derivative =  0 :   0.5914641277    
  l.o. =  3, l =  2, energy derivative =  1 :   0.5914641277    
  l.o. =  4, l =  3, energy derivative =  0 :   0.5914641277    
  l.o. =  4, l =  3, energy derivative =  1 :   0.5914641277    
  l.o. =  5, l =  3, energy derivative =  0 :   0.5914641277    
  l.o. =  5, l =  3, energy derivative =  0 :   -1.034234910    
  l.o. =  6, l =  0, energy derivative =  0 :   0.5914641277    
  l.o. =  6, l =  0, energy derivative =  0 :   -2.500568711    
  l.o. =  7, l =  1, energy derivative =  0 :   0.5914641277    
  l.o. =  7, l =  1, energy derivative =  0 :   -1.003860012    
  l.o. =  8, l =  2, energy derivative =  0 :   0.5914641277    
  l.o. =  8, l =  2, energy derivative =  0 :   0.7490394799    
  l.o. =  9, l =  4, energy derivative =  0 :   0.5914641277    
  l.o. =  9, l =  4, energy derivative =  1 :   0.5914641277    
  l.o. = 10, l =  5, energy derivative =  0 :   0.5914641277    
  l.o. = 10, l =  5, energy derivative =  1 :   0.5914641277    
  l.o. = 11, l =  6, energy derivative =  0 :   0.5914641277    
  l.o. = 11, l =  6, energy derivative =  1 :   0.5914641277    
  l.o. = 12, l =  0, energy derivative =  0 :    1.521823351    
  l.o. = 12, l =  0, energy derivative =  1 :    1.521823351    
  l.o. = 12, l =  0, energy derivative =  2 :    1.521823351    
  l.o. = 13, l =  1, energy derivative =  0 :    2.367478983    
  l.o. = 13, l =  1, energy derivative =  1 :    2.367478983    
  l.o. = 13, l =  1, energy derivative =  2 :    2.367478983    
  l.o. = 14, l =  2, energy derivative =  0 :   0.7490394799    
  l.o. = 14, l =  2, energy derivative =  1 :   0.7490394799    
  l.o. = 14, l =  2, energy derivative =  2 :   0.7490394799    
  l.o. = 15, l =  3, energy derivative =  0 :    2.455860280    
  l.o. = 15, l =  3, energy derivative =  1 :    2.455860280    
  l.o. = 15, l =  3, energy derivative =  2 :    2.455860280    
  l.o. = 16, l =  4, energy derivative =  0 :    3.847910277    
  l.o. = 16, l =  4, energy derivative =  1 :    3.847910277    
  l.o. = 16, l =  4, energy derivative =  2 :    3.847910277    
  l.o. = 17, l =  5, energy derivative =  0 :    5.630964908    
  l.o. = 17, l =  5, energy derivative =  1 :    5.630964908    
  l.o. = 17, l =  5, energy derivative =  2 :    5.630964908    
  l.o. = 18, l =  6, energy derivative =  0 :    7.507693981    
  l.o. = 18, l =  6, energy derivative =  1 :    7.507693981    
  l.o. = 18, l =  6, energy derivative =  2 :    7.507693981    
  l.o. = 19, l =  7, energy derivative =  0 :    9.544038538    
  l.o. = 19, l =  7, energy derivative =  1 :    9.544038538    
  l.o. = 19, l =  7, energy derivative =  2 :    9.544038538    
  l.o. = 20, l =  8, energy derivative =  0 :    11.75836801    
  l.o. = 20, l =  8, energy derivative =  1 :    11.75836801    
  l.o. = 20, l =  8, energy derivative =  2 :    11.75836801    
 
Species :    1 (Os), atom :    2
 APW functions :
  l =  0, energy derivative =  0 :   0.5914641277    
  l =  1, energy derivative =  0 :   0.5914641277    
  l =  2, energy derivative =  0 :   0.5914641277    
  l =  3, energy derivative =  0 :   0.5914641277    
  l =  4, energy derivative =  0 :   0.5914641277    
  l =  5, energy derivative =  0 :   0.5914641277    
  l =  6, energy derivative =  0 :   0.5914641277    
  l =  7, energy derivative =  0 :   0.5914641277    
  l =  8, energy derivative =  0 :   0.5914641277    
  l =  9, energy derivative =  0 :   0.5914641277    
  l = 10, energy derivative =  0 :   0.5914641277    
 local-orbital functions :
  l.o. =  1, l =  0, energy derivative =  0 :   0.5914641277    
  l.o. =  1, l =  0, energy derivative =  1 :   0.5914641277    
  l.o. =  2, l =  1, energy derivative =  0 :   0.5914641277    
  l.o. =  2, l =  1, energy derivative =  1 :   0.5914641277    
  l.o. =  3, l =  2, energy derivative =  0 :   0.5914641277    
  l.o. =  3, l =  2, energy derivative =  1 :   0.5914641277    
  l.o. =  4, l =  3, energy derivative =  0 :   0.5914641277    
  l.o. =  4, l =  3, energy derivative =  1 :   0.5914641277    
  l.o. =  5, l =  3, energy derivative =  0 :   0.5914641277    
  l.o. =  5, l =  3, energy derivative =  0 :   -1.034234910    
  l.o. =  6, l =  0, energy derivative =  0 :   0.5914641277    
  l.o. =  6, l =  0, energy derivative =  0 :   -2.500568711    
  l.o. =  7, l =  1, energy derivative =  0 :   0.5914641277    
  l.o. =  7, l =  1, energy derivative =  0 :   -1.003860012    
  l.o. =  8, l =  2, energy derivative =  0 :   0.5914641277    
  l.o. =  8, l =  2, energy derivative =  0 :   0.7490394799    
  l.o. =  9, l =  4, energy derivative =  0 :   0.5914641277    
  l.o. =  9, l =  4, energy derivative =  1 :   0.5914641277    
  l.o. = 10, l =  5, energy derivative =  0 :   0.5914641277    
  l.o. = 10, l =  5, energy derivative =  1 :   0.5914641277    
  l.o. = 11, l =  6, energy derivative =  0 :   0.5914641277    
  l.o. = 11, l =  6, energy derivative =  1 :   0.5914641277    
  l.o. = 12, l =  0, energy derivative =  0 :    1.521823351    
  l.o. = 12, l =  0, energy derivative =  1 :    1.521823351    
  l.o. = 12, l =  0, energy derivative =  2 :    1.521823351    
  l.o. = 13, l =  1, energy derivative =  0 :    2.367478983    
  l.o. = 13, l =  1, energy derivative =  1 :    2.367478983    
  l.o. = 13, l =  1, energy derivative =  2 :    2.367478983    
  l.o. = 14, l =  2, energy derivative =  0 :   0.7490394799    
  l.o. = 14, l =  2, energy derivative =  1 :   0.7490394799    
  l.o. = 14, l =  2, energy derivative =  2 :   0.7490394799    
  l.o. = 15, l =  3, energy derivative =  0 :    2.455860280    
  l.o. = 15, l =  3, energy derivative =  1 :    2.455860280    
  l.o. = 15, l =  3, energy derivative =  2 :    2.455860280    
  l.o. = 16, l =  4, energy derivative =  0 :    3.847910277    
  l.o. = 16, l =  4, energy derivative =  1 :    3.847910277    
  l.o. = 16, l =  4, energy derivative =  2 :    3.847910277    
  l.o. = 17, l =  5, energy derivative =  0 :    5.630964908    
  l.o. = 17, l =  5, energy derivative =  1 :    5.630964908    
  l.o. = 17, l =  5, energy derivative =  2 :    5.630964908    
  l.o. = 18, l =  6, energy derivative =  0 :    7.507693981    
  l.o. = 18, l =  6, energy derivative =  1 :    7.507693981    
  l.o. = 18, l =  6, energy derivative =  2 :    7.507693981    
  l.o. = 19, l =  7, energy derivative =  0 :    9.544038538    
  l.o. = 19, l =  7, energy derivative =  1 :    9.544038538    
  l.o. = 19, l =  7, energy derivative =  2 :    9.544038538    
  l.o. = 20, l =  8, energy derivative =  0 :    11.75836801    
  l.o. = 20, l =  8, energy derivative =  1 :    11.75836801    
  l.o. = 20, l =  8, energy derivative =  2 :    11.75836801    
