 
+----------------------------+
| Real-space lattice vectors |
+----------------------------+
 
vector a1 :    4.569232302      -2.638047500       0.000000000    
vector a2 :    0.000000000       5.276094998       0.000000000    
vector a3 :    0.000000000       0.000000000       8.727801121    
 
Stored column-wise as a matrix :
   4.569232302       0.000000000       0.000000000    
  -2.638047500       5.276094998       0.000000000    
   0.000000000       0.000000000       8.727801121    
 
Inverse of matrix :
  0.2188551454       0.000000000       0.000000000    
  0.1094275727      0.1895341157       0.000000000    
   0.000000000       0.000000000      0.1145763963    
 
Unit cell volume :    210.4072433    
 
 
+----------------------------------+
| Reciprocal-space lattice vectors |
+----------------------------------+
 
vector b1 :    1.375107434       0.000000000       0.000000000    
vector b2 :   0.6875537173       1.190877971       0.000000000    
vector b3 :    0.000000000       0.000000000      0.7199047297    
 
Stored column-wise as a matrix :
   1.375107434      0.6875537173       0.000000000    
   0.000000000       1.190877971       0.000000000    
   0.000000000       0.000000000      0.7199047297    
 
Inverse of matrix :
  0.7272159070     -0.4198582997       0.000000000    
   0.000000000      0.8397165992       0.000000000    
   0.000000000       0.000000000       1.389072691    
 
Brillouin zone volume :    1.178905296    
