    0.123404229321E-03
    0.343978461641E-04
    0.223690004904E-03
    0.422774676608E-03
    0.541558454126E-03
    0.555183030317E-03
    0.579364347211E-03
    0.586544704951E-03
    0.586481421165E-03
    0.586736695373E-03
    0.586750327200E-03
    0.586744393694E-03
    0.586741139144E-03
    0.586733006668E-03
    0.586741969452E-03
    0.586735478503E-03
    0.586734845510E-03
    0.586735227235E-03
    0.586735563433E-03
    0.586734115892E-03
    0.586734540430E-03
    0.586734513283E-03
    0.586734523759E-03
    0.586734608063E-03
    0.586734589473E-03
    0.586734727385E-03
    0.586734843770E-03
    0.586734834286E-03
    0.586734801442E-03
    0.586734790064E-03
    0.586734751886E-03
    0.586734740758E-03
    0.586734736459E-03
    0.586734705578E-03
    0.586734691775E-03
    0.586734692151E-03
    0.586734697806E-03
