   119.1803110    
   119.1014189    
   117.4169727    
   121.9159510    
   126.6027303    
   121.0166404    
   118.2828795    
   118.1669626    
   118.0757623    
   118.0630528    
   118.0642922    
   118.0635516    
   118.0637146    
   118.0635583    
   118.0632997    
   118.0625124    
   118.0606107    
   118.0610731    
   118.0612965    
   118.0615608    
   118.0616601    
   118.0615782    
   118.0617353    
   118.0617047    
   118.0617214    
   118.0617398    
   118.0616896    
   118.0616511    
   118.0616893    
   118.0616764    
   118.0616597    
   118.0616428    
   118.0616451    
   118.0616586    
   118.0616452    
   118.0616523    
   118.0616500    
   118.0616600    
   118.0616534    
   118.0616526    
   118.0616569    
   118.0616527    
   118.0616530    
   118.0616507    
