    -9147.09501683    
    -9145.95641884    
    -9132.85862237    
    -9099.01993299    
    -9078.28194894    
    -9069.73161670    
    -9066.33970179    
    -9066.39782558    
    -9066.43796607    
    -9066.44243476    
    -9066.44395187    
    -9066.44397233    
    -9066.44339813    
    -9066.44340197    
    -9066.44348742    
    -9066.44347633    
    -9066.44336138    
    -9066.44335230    
    -9066.44335259    
    -9066.44337568    
    -9066.44336860    
    -9066.44336330    
    -9066.44336677    
    -9066.44336641    
    -9066.44336636    
    -9066.44336585    
