 
Species :    1 (Cu), atom :    1
 n =  1, l =  0, k =  1 :   -325.4825089    
 n =  2, l =  0, k =  1 :   -38.67685099    
 n =  2, l =  1, k =  1 :   -33.81511467    
 n =  2, l =  1, k =  2 :   -33.05889469    
 n =  3, l =  0, k =  1 :   -3.822928330    
