 
Species :    1 (Zr), atom :    1
 n =  1, l =  0, k =  1 :   -655.5541834    
 n =  2, l =  0, k =  1 :   -90.22104197    
 n =  2, l =  1, k =  1 :   -82.51710689    
 n =  2, l =  1, k =  2 :   -79.34871346    
 n =  3, l =  0, k =  1 :   -14.31081248    
 n =  3, l =  1, k =  1 :   -11.44754682    
 n =  3, l =  1, k =  2 :   -10.94251248    
 n =  3, l =  2, k =  2 :   -5.893557205    
 n =  3, l =  2, k =  3 :   -5.801802582    
 
Species :    1 (Zr), atom :    2
 n =  1, l =  0, k =  1 :   -655.5541834    
 n =  2, l =  0, k =  1 :   -90.22104197    
 n =  2, l =  1, k =  1 :   -82.51710689    
 n =  2, l =  1, k =  2 :   -79.34871346    
 n =  3, l =  0, k =  1 :   -14.31081248    
 n =  3, l =  1, k =  1 :   -11.44754682    
 n =  3, l =  1, k =  2 :   -10.94251248    
 n =  3, l =  2, k =  2 :   -5.893557205    
 n =  3, l =  2, k =  3 :   -5.801802582    
