    -7265.55776820    
    -7264.57355986    
    -7255.31188328    
    -7231.48536765    
    -7212.38068995    
    -7204.00922825    
    -7200.70463405    
    -7200.71939292    
    -7200.74130073    
    -7200.74306344    
    -7200.73578457    
    -7200.73485251    
    -7200.73493168    
    -7200.73470912    
    -7200.73454569    
    -7200.73447704    
    -7200.73446567    
    -7200.73447590    
    -7200.73440876    
    -7200.73439190    
    -7200.73449291    
    -7200.73446639    
    -7200.73445538    
    -7200.73446513    
    -7200.73445698    
    -7200.73445871    
    -7200.73445386    
    -7200.73444954    
    -7200.73444927    
    -7200.73444974    
    -7200.73444911    
    -7200.73444948    
    -7200.73444971    
    -7200.73444888    
    -7200.73444930    
    -7200.73444927    
    -7200.73444890    
    -7200.73444874    
    -7200.73444899    
    -7200.73444896    
    -7200.73444901    
    -7200.73444916    
    -7200.73444921    
    -7200.73444917    
    -7200.73444897    
    -7200.73444910    
    -7200.73444918    
    -7200.73444920    
    -7200.73444921    
    -7200.73444922    
    -7200.73444924    
    -7200.73444927    
    -7200.73444926    
    -7200.73444927    
