  0.2659078316E-01
  0.2568910779E-01
  0.1158589204E-01
  0.5378876566E-02
  0.3289992924E-02
  0.2119253154E-02
  0.7122331049E-03
  0.1060518986E-02
  0.9473016817E-04
  0.9139224919E-04
  0.9320998984E-04
  0.4848901410E-03
  0.2368664396E-04
  0.1734231529E-03
  0.8051023578E-04
  0.4732617747E-04
  0.1280913713E-03
  0.1753641933E-03
  0.5839330711E-04
  0.3794897221E-03
  0.1469402907E-02
  0.1479729256E-03
  0.2884207664E-03
  0.1817886626E-04
  0.2541927384E-03
  0.5627813245E-04
  0.4833000634E-03
  0.4128395351E-04
  0.1490727166E-04
  0.1859261903E-03
  0.1832307997E-03
  0.8001430478E-04
  0.1210833161E-02
  0.8902310443E-03
  0.7158263295E-03
  0.2762704654E-03
  0.8611909354E-04
  0.3657842981E-04
  0.4859040333E-03
  0.1949882678E-03
