 
scale
 1.0
 
scale1
 1.0
 
scale2
 1.0
 
scale3
 1.0
 
avec
   4.439533639      -2.563165942       0.000000000    
   0.000000000       5.126331883       0.000000000    
   0.000000000       0.000000000       7.837540619    
 
atoms
   1                                    : nspecies
'Ru.in'                                 : spfname
   2                                    : natoms; atpos, bfcmt below
    0.33333333    0.16666667    0.25000000    0.00000000  0.00000000  0.00000000
   -0.33333333   -0.16666667   -0.25000000    0.00000000  0.00000000  0.00000000
