  0.8781795917    
  0.7175390728    
  0.5575109961    
  0.4090926123    
  0.2790642349    
  0.1754253360    
  0.1017462931    
  0.5451822092E-01
  0.2696144729E-01
  0.1239365434E-01
  0.5415939289E-02
  0.2308533119E-02
  0.9575444762E-03
  0.3684722106E-03
  0.1298425128E-03
  0.3749605414E-04
  0.1025692177E-04
  0.3890629799E-04
  0.1379247365E-04
  0.2084215781E-05
  0.1701187501E-04
  0.1262473083E-04
  0.4634065606E-04
  0.4529399352E-04
  0.2571109589E-04
