    0.143072101418E-03
    0.149599305927E-03
    0.400538607365E-03
    0.491050675247E-03
    0.481902325626E-03
    0.308430528941E-03
    0.305105944227E-03
    0.295192771044E-03
    0.296899769360E-03
    0.297838191809E-03
    0.296154448809E-03
    0.296418472991E-03
    0.296423444333E-03
    0.296457716419E-03
    0.296383557657E-03
    0.296376029803E-03
    0.296519022805E-03
    0.296577845135E-03
    0.296590973708E-03
    0.296588359746E-03
    0.296620751138E-03
    0.296602017182E-03
    0.296650339282E-03
    0.296660505492E-03
    0.296665028978E-03
    0.296669707221E-03
    0.296677572606E-03
    0.296679663847E-03
    0.296676104335E-03
    0.296675070573E-03
    0.296673614131E-03
    0.296673318261E-03
    0.296672521113E-03
    0.296671666590E-03
    0.296672017405E-03
    0.296672098257E-03
    0.296672187801E-03
    0.296672292251E-03
    0.296672434334E-03
    0.296672426154E-03
    0.296672442447E-03
    0.296672447259E-03
    0.296672448632E-03
    0.296672422057E-03
    0.296672436800E-03
    0.296672439769E-03
    0.296672441296E-03
    0.296672444539E-03
    0.296672444205E-03
    0.296672443665E-03
    0.296672450444E-03
    0.296672452128E-03
    0.296672451148E-03
    0.296672452193E-03
    0.296672453383E-03
    0.296672452818E-03
    0.296672454125E-03
    0.296672456293E-03
    0.296672455743E-03
    0.296672458358E-03
    0.296672459608E-03
    0.296672460665E-03
    0.296672461534E-03
    0.296672463247E-03
    0.296672458654E-03
    0.296672460020E-03
    0.296672461808E-03
    0.296672462544E-03
    0.296672461717E-03
    0.296672468323E-03
    0.296672463052E-03
    0.296672463449E-03
    0.296672463539E-03
    0.296672462287E-03
    0.296672461656E-03
    0.296672462267E-03
    0.296672461116E-03
    0.296672461657E-03
    0.296672461331E-03
    0.296672461351E-03
    0.296672460193E-03
    0.296672460000E-03
    0.296672459848E-03
    0.296672459436E-03
