 
Species :    1 (Zr), atom :    1
 APW functions :
  l =  0, energy derivative =  0 :   0.3304059029    
  l =  1, energy derivative =  0 :   0.3304059029    
  l =  2, energy derivative =  0 :   0.3304059029    
  l =  3, energy derivative =  0 :   0.3304059029    
  l =  4, energy derivative =  0 :   0.3304059029    
  l =  5, energy derivative =  0 :   0.3304059029    
  l =  6, energy derivative =  0 :   0.3304059029    
  l =  7, energy derivative =  0 :   0.3304059029    
  l =  8, energy derivative =  0 :   0.3304059029    
  l =  9, energy derivative =  0 :   0.3304059029    
  l = 10, energy derivative =  0 :   0.3304059029    
 local-orbital functions :
  l.o. =  1, l =  0, energy derivative =  0 :   0.3304059029    
  l.o. =  1, l =  0, energy derivative =  1 :   0.3304059029    
  l.o. =  2, l =  1, energy derivative =  0 :   0.3304059029    
  l.o. =  2, l =  1, energy derivative =  1 :   0.3304059029    
  l.o. =  3, l =  2, energy derivative =  0 :   0.3304059029    
  l.o. =  3, l =  2, energy derivative =  1 :   0.3304059029    
  l.o. =  4, l =  0, energy derivative =  0 :   0.3304059029    
  l.o. =  4, l =  0, energy derivative =  0 :   -1.362769120    
  l.o. =  5, l =  1, energy derivative =  0 :   0.3304059029    
  l.o. =  5, l =  1, energy derivative =  0 :  -0.5401971376    
  l.o. =  6, l =  3, energy derivative =  0 :   0.3304059029    
  l.o. =  6, l =  3, energy derivative =  1 :   0.3304059029    
  l.o. =  7, l =  4, energy derivative =  0 :   0.3304059029    
  l.o. =  7, l =  4, energy derivative =  1 :   0.3304059029    
  l.o. =  8, l =  5, energy derivative =  0 :   0.3304059029    
  l.o. =  8, l =  5, energy derivative =  1 :   0.3304059029    
  l.o. =  9, l =  0, energy derivative =  0 :    1.670893496    
  l.o. =  9, l =  0, energy derivative =  1 :    1.670893496    
  l.o. =  9, l =  0, energy derivative =  2 :    1.670893496    
  l.o. = 10, l =  1, energy derivative =  0 :    2.262902252    
  l.o. = 10, l =  1, energy derivative =  1 :    2.262902252    
  l.o. = 10, l =  1, energy derivative =  2 :    2.262902252    
  l.o. = 11, l =  2, energy derivative =  0 :   0.6765681179    
  l.o. = 11, l =  2, energy derivative =  1 :   0.6765681179    
  l.o. = 11, l =  2, energy derivative =  2 :   0.6765681179    
  l.o. = 12, l =  3, energy derivative =  0 :    1.871540467    
  l.o. = 12, l =  3, energy derivative =  1 :    1.871540467    
  l.o. = 12, l =  3, energy derivative =  2 :    1.871540467    
  l.o. = 13, l =  4, energy derivative =  0 :    3.427938937    
  l.o. = 13, l =  4, energy derivative =  1 :    3.427938937    
  l.o. = 13, l =  4, energy derivative =  2 :    3.427938937    
  l.o. = 14, l =  5, energy derivative =  0 :    4.970595919    
  l.o. = 14, l =  5, energy derivative =  1 :    4.970595919    
  l.o. = 14, l =  5, energy derivative =  2 :    4.970595919    
  l.o. = 15, l =  6, energy derivative =  0 :    6.637563674    
  l.o. = 15, l =  6, energy derivative =  1 :    6.637563674    
  l.o. = 15, l =  6, energy derivative =  2 :    6.637563674    
  l.o. = 16, l =  7, energy derivative =  0 :    8.458013344    
  l.o. = 16, l =  7, energy derivative =  1 :    8.458013344    
  l.o. = 16, l =  7, energy derivative =  2 :    8.458013344    
  l.o. = 17, l =  8, energy derivative =  0 :    10.44240036    
  l.o. = 17, l =  8, energy derivative =  1 :    10.44240036    
  l.o. = 17, l =  8, energy derivative =  2 :    10.44240036    
 
Species :    1 (Zr), atom :    2
 APW functions :
  l =  0, energy derivative =  0 :   0.3304059029    
  l =  1, energy derivative =  0 :   0.3304059029    
  l =  2, energy derivative =  0 :   0.3304059029    
  l =  3, energy derivative =  0 :   0.3304059029    
  l =  4, energy derivative =  0 :   0.3304059029    
  l =  5, energy derivative =  0 :   0.3304059029    
  l =  6, energy derivative =  0 :   0.3304059029    
  l =  7, energy derivative =  0 :   0.3304059029    
  l =  8, energy derivative =  0 :   0.3304059029    
  l =  9, energy derivative =  0 :   0.3304059029    
  l = 10, energy derivative =  0 :   0.3304059029    
 local-orbital functions :
  l.o. =  1, l =  0, energy derivative =  0 :   0.3304059029    
  l.o. =  1, l =  0, energy derivative =  1 :   0.3304059029    
  l.o. =  2, l =  1, energy derivative =  0 :   0.3304059029    
  l.o. =  2, l =  1, energy derivative =  1 :   0.3304059029    
  l.o. =  3, l =  2, energy derivative =  0 :   0.3304059029    
  l.o. =  3, l =  2, energy derivative =  1 :   0.3304059029    
  l.o. =  4, l =  0, energy derivative =  0 :   0.3304059029    
  l.o. =  4, l =  0, energy derivative =  0 :   -1.362769120    
  l.o. =  5, l =  1, energy derivative =  0 :   0.3304059029    
  l.o. =  5, l =  1, energy derivative =  0 :  -0.5401971376    
  l.o. =  6, l =  3, energy derivative =  0 :   0.3304059029    
  l.o. =  6, l =  3, energy derivative =  1 :   0.3304059029    
  l.o. =  7, l =  4, energy derivative =  0 :   0.3304059029    
  l.o. =  7, l =  4, energy derivative =  1 :   0.3304059029    
  l.o. =  8, l =  5, energy derivative =  0 :   0.3304059029    
  l.o. =  8, l =  5, energy derivative =  1 :   0.3304059029    
  l.o. =  9, l =  0, energy derivative =  0 :    1.670893496    
  l.o. =  9, l =  0, energy derivative =  1 :    1.670893496    
  l.o. =  9, l =  0, energy derivative =  2 :    1.670893496    
  l.o. = 10, l =  1, energy derivative =  0 :    2.262902252    
  l.o. = 10, l =  1, energy derivative =  1 :    2.262902252    
  l.o. = 10, l =  1, energy derivative =  2 :    2.262902252    
  l.o. = 11, l =  2, energy derivative =  0 :   0.6765681179    
  l.o. = 11, l =  2, energy derivative =  1 :   0.6765681179    
  l.o. = 11, l =  2, energy derivative =  2 :   0.6765681179    
  l.o. = 12, l =  3, energy derivative =  0 :    1.871540467    
  l.o. = 12, l =  3, energy derivative =  1 :    1.871540467    
  l.o. = 12, l =  3, energy derivative =  2 :    1.871540467    
  l.o. = 13, l =  4, energy derivative =  0 :    3.427938937    
  l.o. = 13, l =  4, energy derivative =  1 :    3.427938937    
  l.o. = 13, l =  4, energy derivative =  2 :    3.427938937    
  l.o. = 14, l =  5, energy derivative =  0 :    4.970595919    
  l.o. = 14, l =  5, energy derivative =  1 :    4.970595919    
  l.o. = 14, l =  5, energy derivative =  2 :    4.970595919    
  l.o. = 15, l =  6, energy derivative =  0 :    6.637563674    
  l.o. = 15, l =  6, energy derivative =  1 :    6.637563674    
  l.o. = 15, l =  6, energy derivative =  2 :    6.637563674    
  l.o. = 16, l =  7, energy derivative =  0 :    8.458013344    
  l.o. = 16, l =  7, energy derivative =  1 :    8.458013344    
  l.o. = 16, l =  7, energy derivative =  2 :    8.458013344    
  l.o. = 17, l =  8, energy derivative =  0 :    10.44240036    
  l.o. = 17, l =  8, energy derivative =  1 :    10.44240036    
  l.o. = 17, l =  8, energy derivative =  2 :    10.44240036    
