 
Species :    1 (Zr), atom :    1
 n =  1, l =  0, k =  1 :   -655.4982048    
 n =  2, l =  0, k =  1 :   -90.16499101    
 n =  2, l =  1, k =  1 :   -82.46104774    
 n =  2, l =  1, k =  2 :   -79.29265567    
 n =  3, l =  0, k =  1 :   -14.25533302    
 n =  3, l =  1, k =  1 :   -11.39206300    
 n =  3, l =  1, k =  2 :   -10.88704944    
 n =  3, l =  2, k =  2 :   -5.838052834    
 n =  3, l =  2, k =  3 :   -5.746305638    
 
Species :    1 (Zr), atom :    2
 n =  1, l =  0, k =  1 :   -655.4982048    
 n =  2, l =  0, k =  1 :   -90.16499101    
 n =  2, l =  1, k =  1 :   -82.46104774    
 n =  2, l =  1, k =  2 :   -79.29265567    
 n =  3, l =  0, k =  1 :   -14.25533302    
 n =  3, l =  1, k =  1 :   -11.39206300    
 n =  3, l =  1, k =  2 :   -10.88704944    
 n =  3, l =  2, k =  2 :   -5.838052834    
 n =  3, l =  2, k =  3 :   -5.746305638    
