    -3211.57038360    
    -3211.08674569    
    -3204.61328573    
    -3193.75323419    
    -3185.50262867    
    -3182.11921474    
    -3180.91209047    
    -3180.92540028    
    -3180.92768722    
    -3180.92127092    
    -3180.92126512    
    -3180.92070145    
    -3180.92048864    
    -3180.92046938    
    -3180.92044694    
    -3180.92047900    
    -3180.92048119    
    -3180.92049514    
    -3180.92050143    
    -3180.92049781    
    -3180.92049920    
    -3180.92049999    
    -3180.92050161    
    -3180.92050228    
    -3180.92050223    
    -3180.92050226    
    -3180.92050236    
    -3180.92050257    
    -3180.92050301    
    -3180.92050246    
    -3180.92050249    
    -3180.92050246    
    -3180.92050289    
    -3180.92050300    
    -3180.92050235    
    -3180.92050235    
    -3180.92050237    
    -3180.92050240    
    -3180.92050244    
    -3180.92050236    
    -3180.92050242    
    -3180.92050241    
    -3180.92050247    
