 
Species :    1 (Os), atom :    1
 n =  1, l =  0, k =  1 :   -2713.621489    
 n =  2, l =  0, k =  1 :   -471.1664926    
 n =  2, l =  1, k =  1 :   -451.4562910    
 n =  2, l =  1, k =  2 :   -394.9043726    
 n =  3, l =  0, k =  1 :   -108.9897845    
 n =  3, l =  1, k =  1 :   -100.0952247    
 n =  3, l =  1, k =  2 :   -87.76002408    
 n =  3, l =  2, k =  2 :   -72.64179903    
 n =  3, l =  2, k =  3 :   -69.98093817    
 n =  4, l =  0, k =  1 :   -22.37436874    
 n =  4, l =  1, k =  1 :   -18.62081638    
 n =  4, l =  1, k =  2 :   -15.72142073    
 n =  4, l =  2, k =  2 :   -9.512830924    
 n =  4, l =  2, k =  3 :   -8.978255361    
 
Species :    1 (Os), atom :    2
 n =  1, l =  0, k =  1 :   -2713.621489    
 n =  2, l =  0, k =  1 :   -471.1664926    
 n =  2, l =  1, k =  1 :   -451.4562910    
 n =  2, l =  1, k =  2 :   -394.9043726    
 n =  3, l =  0, k =  1 :   -108.9897845    
 n =  3, l =  1, k =  1 :   -100.0952247    
 n =  3, l =  1, k =  2 :   -87.76002408    
 n =  3, l =  2, k =  2 :   -72.64179903    
 n =  3, l =  2, k =  3 :   -69.98093817    
 n =  4, l =  0, k =  1 :   -22.37436874    
 n =  4, l =  1, k =  1 :   -18.62081638    
 n =  4, l =  1, k =  2 :   -15.72142073    
 n =  4, l =  2, k =  2 :   -9.512830924    
 n =  4, l =  2, k =  3 :   -8.978255361    
