 
Species :    1 (Os), atom :    1
 APW functions :
  l =  0, energy derivative =  0 :   0.5411509643    
  l =  1, energy derivative =  0 :   0.5411509643    
  l =  2, energy derivative =  0 :   0.5411509643    
  l =  3, energy derivative =  0 :   0.5411509643    
  l =  4, energy derivative =  0 :   0.5411509643    
  l =  5, energy derivative =  0 :   0.5411509643    
  l =  6, energy derivative =  0 :   0.5411509643    
  l =  7, energy derivative =  0 :   0.5411509643    
  l =  8, energy derivative =  0 :   0.5411509643    
  l =  9, energy derivative =  0 :   0.5411509643    
  l = 10, energy derivative =  0 :   0.5411509643    
 local-orbital functions :
  l.o. =  1, l =  0, energy derivative =  0 :   0.5411509643    
  l.o. =  1, l =  0, energy derivative =  1 :   0.5411509643    
  l.o. =  2, l =  1, energy derivative =  0 :   0.5411509643    
  l.o. =  2, l =  1, energy derivative =  1 :   0.5411509643    
  l.o. =  3, l =  2, energy derivative =  0 :   0.5411509643    
  l.o. =  3, l =  2, energy derivative =  1 :   0.5411509643    
  l.o. =  4, l =  3, energy derivative =  0 :   0.5411509643    
  l.o. =  4, l =  3, energy derivative =  1 :   0.5411509643    
  l.o. =  5, l =  3, energy derivative =  0 :   0.5411509643    
  l.o. =  5, l =  3, energy derivative =  0 :   -1.083242333    
  l.o. =  6, l =  0, energy derivative =  0 :   0.5411509643    
  l.o. =  6, l =  0, energy derivative =  0 :   -2.548313612    
  l.o. =  7, l =  1, energy derivative =  0 :   0.5411509643    
  l.o. =  7, l =  1, energy derivative =  0 :   -1.050569055    
  l.o. =  8, l =  2, energy derivative =  0 :   0.5411509643    
  l.o. =  8, l =  2, energy derivative =  0 :   0.7048537094    
  l.o. =  9, l =  4, energy derivative =  0 :   0.5411509643    
  l.o. =  9, l =  4, energy derivative =  1 :   0.5411509643    
  l.o. = 10, l =  5, energy derivative =  0 :   0.5411509643    
  l.o. = 10, l =  5, energy derivative =  1 :   0.5411509643    
  l.o. = 11, l =  6, energy derivative =  0 :   0.5411509643    
  l.o. = 11, l =  6, energy derivative =  1 :   0.5411509643    
  l.o. = 12, l =  0, energy derivative =  0 :    1.480889958    
  l.o. = 12, l =  0, energy derivative =  1 :    1.480889958    
  l.o. = 12, l =  0, energy derivative =  2 :    1.480889958    
  l.o. = 13, l =  1, energy derivative =  0 :    2.326519696    
  l.o. = 13, l =  1, energy derivative =  1 :    2.326519696    
  l.o. = 13, l =  1, energy derivative =  2 :    2.326519696    
  l.o. = 14, l =  2, energy derivative =  0 :   0.7048537094    
  l.o. = 14, l =  2, energy derivative =  1 :   0.7048537094    
  l.o. = 14, l =  2, energy derivative =  2 :   0.7048537094    
  l.o. = 15, l =  3, energy derivative =  0 :    2.414207557    
  l.o. = 15, l =  3, energy derivative =  1 :    2.414207557    
  l.o. = 15, l =  3, energy derivative =  2 :    2.414207557    
  l.o. = 16, l =  4, energy derivative =  0 :    3.807373632    
  l.o. = 16, l =  4, energy derivative =  1 :    3.807373632    
  l.o. = 16, l =  4, energy derivative =  2 :    3.807373632    
  l.o. = 17, l =  5, energy derivative =  0 :    5.591784936    
  l.o. = 17, l =  5, energy derivative =  1 :    5.591784936    
  l.o. = 17, l =  5, energy derivative =  2 :    5.591784936    
  l.o. = 18, l =  6, energy derivative =  0 :    7.469379868    
  l.o. = 18, l =  6, energy derivative =  1 :    7.469379868    
  l.o. = 18, l =  6, energy derivative =  2 :    7.469379868    
  l.o. = 19, l =  7, energy derivative =  0 :    9.506381464    
  l.o. = 19, l =  7, energy derivative =  1 :    9.506381464    
  l.o. = 19, l =  7, energy derivative =  2 :    9.506381464    
  l.o. = 20, l =  8, energy derivative =  0 :    11.72124370    
  l.o. = 20, l =  8, energy derivative =  1 :    11.72124370    
  l.o. = 20, l =  8, energy derivative =  2 :    11.72124370    
 
Species :    1 (Os), atom :    2
 APW functions :
  l =  0, energy derivative =  0 :   0.5411509643    
  l =  1, energy derivative =  0 :   0.5411509643    
  l =  2, energy derivative =  0 :   0.5411509643    
  l =  3, energy derivative =  0 :   0.5411509643    
  l =  4, energy derivative =  0 :   0.5411509643    
  l =  5, energy derivative =  0 :   0.5411509643    
  l =  6, energy derivative =  0 :   0.5411509643    
  l =  7, energy derivative =  0 :   0.5411509643    
  l =  8, energy derivative =  0 :   0.5411509643    
  l =  9, energy derivative =  0 :   0.5411509643    
  l = 10, energy derivative =  0 :   0.5411509643    
 local-orbital functions :
  l.o. =  1, l =  0, energy derivative =  0 :   0.5411509643    
  l.o. =  1, l =  0, energy derivative =  1 :   0.5411509643    
  l.o. =  2, l =  1, energy derivative =  0 :   0.5411509643    
  l.o. =  2, l =  1, energy derivative =  1 :   0.5411509643    
  l.o. =  3, l =  2, energy derivative =  0 :   0.5411509643    
  l.o. =  3, l =  2, energy derivative =  1 :   0.5411509643    
  l.o. =  4, l =  3, energy derivative =  0 :   0.5411509643    
  l.o. =  4, l =  3, energy derivative =  1 :   0.5411509643    
  l.o. =  5, l =  3, energy derivative =  0 :   0.5411509643    
  l.o. =  5, l =  3, energy derivative =  0 :   -1.083242333    
  l.o. =  6, l =  0, energy derivative =  0 :   0.5411509643    
  l.o. =  6, l =  0, energy derivative =  0 :   -2.548313612    
  l.o. =  7, l =  1, energy derivative =  0 :   0.5411509643    
  l.o. =  7, l =  1, energy derivative =  0 :   -1.050569055    
  l.o. =  8, l =  2, energy derivative =  0 :   0.5411509643    
  l.o. =  8, l =  2, energy derivative =  0 :   0.7048537094    
  l.o. =  9, l =  4, energy derivative =  0 :   0.5411509643    
  l.o. =  9, l =  4, energy derivative =  1 :   0.5411509643    
  l.o. = 10, l =  5, energy derivative =  0 :   0.5411509643    
  l.o. = 10, l =  5, energy derivative =  1 :   0.5411509643    
  l.o. = 11, l =  6, energy derivative =  0 :   0.5411509643    
  l.o. = 11, l =  6, energy derivative =  1 :   0.5411509643    
  l.o. = 12, l =  0, energy derivative =  0 :    1.480889958    
  l.o. = 12, l =  0, energy derivative =  1 :    1.480889958    
  l.o. = 12, l =  0, energy derivative =  2 :    1.480889958    
  l.o. = 13, l =  1, energy derivative =  0 :    2.326519696    
  l.o. = 13, l =  1, energy derivative =  1 :    2.326519696    
  l.o. = 13, l =  1, energy derivative =  2 :    2.326519696    
  l.o. = 14, l =  2, energy derivative =  0 :   0.7048537094    
  l.o. = 14, l =  2, energy derivative =  1 :   0.7048537094    
  l.o. = 14, l =  2, energy derivative =  2 :   0.7048537094    
  l.o. = 15, l =  3, energy derivative =  0 :    2.414207557    
  l.o. = 15, l =  3, energy derivative =  1 :    2.414207557    
  l.o. = 15, l =  3, energy derivative =  2 :    2.414207557    
  l.o. = 16, l =  4, energy derivative =  0 :    3.807373632    
  l.o. = 16, l =  4, energy derivative =  1 :    3.807373632    
  l.o. = 16, l =  4, energy derivative =  2 :    3.807373632    
  l.o. = 17, l =  5, energy derivative =  0 :    5.591784936    
  l.o. = 17, l =  5, energy derivative =  1 :    5.591784936    
  l.o. = 17, l =  5, energy derivative =  2 :    5.591784936    
  l.o. = 18, l =  6, energy derivative =  0 :    7.469379868    
  l.o. = 18, l =  6, energy derivative =  1 :    7.469379868    
  l.o. = 18, l =  6, energy derivative =  2 :    7.469379868    
  l.o. = 19, l =  7, energy derivative =  0 :    9.506381464    
  l.o. = 19, l =  7, energy derivative =  1 :    9.506381464    
  l.o. = 19, l =  7, energy derivative =  2 :    9.506381464    
  l.o. = 20, l =  8, energy derivative =  0 :    11.72124370    
  l.o. = 20, l =  8, energy derivative =  1 :    11.72124370    
  l.o. = 20, l =  8, energy derivative =  2 :    11.72124370    
