   121.3126998    
   122.1242491    
   127.4632380    
   120.5261519    
   123.4742212    
   128.4023059    
   129.9550001    
   129.8738865    
   129.7478688    
   129.7404758    
   129.7437749    
   129.7456912    
   129.7456055    
   129.7508296    
   129.7492787    
   129.7490886    
   129.7489984    
   129.7492622    
   129.7492661    
   129.7495107    
   129.7495069    
   129.7495065    
   129.7494588    
   129.7495044    
   129.7495238    
   129.7495098    
   129.7495150    
   129.7495136    
   129.7494982    
   129.7495064    
   129.7495078    
   129.7495077    
   129.7495127    
   129.7495145    
   129.7495173    
   129.7495151    
   129.7495149    
   129.7495138    
   129.7495110    
   129.7495116    
   129.7495117    
   129.7495119    
   129.7495121    
   129.7495118    
