  0.2682456469E-01
  0.1560704722E-01
  0.5759257499E-02
  0.1667071075E-02
  0.4375763385E-03
  0.3755408706E-03
  0.1391698226E-03
  0.5669540004E-04
  0.4346179586E-04
  0.1537340222E-02
  0.8011871367E-03
  0.3714557093E-03
  0.1159403752E-03
  0.9182080088E-04
  0.1922788384E-03
  0.5514844674E-03
  0.5350652009E-03
  0.8569738228E-04
  0.3119019782E-03
  0.2800628702E-03
  0.1318502854E-03
  0.3065288619E-03
  0.2701469608E-03
  0.1273802209E-03
  0.1088297272E-03
  0.3039625582E-04
  0.2673189042E-03
  0.1032961391E-03
  0.3096129020E-03
  0.1342868087E-03
  0.4459694094E-03
  0.6385165350E-04
  0.2722772170E-03
  0.8249539473E-04
  0.8438427946E-04
  0.3055156723E-03
  0.1347691584E-03
  0.2540431861E-04
  0.1019875524E-03
  0.7702565019E-04
  0.3800087810E-03
  0.3287499474E-03
  0.7425614866E-04
  0.8117292904E-04
  0.2382938637E-04
  0.1800503718E-03
  0.9213366281E-04
  0.4155923696E-04
  0.6874080061E-04
  0.6828421998E-04
  0.6146689576E-04
  0.1095358245E-03
  0.6410690199E-04
  0.4442760776E-03
  0.3011218113E-03
  0.3180840359E-04
  0.2187204714E-03
  0.8091023218E-04
  0.9769953606E-04
  0.8282801656E-03
  0.2921522506E-04
