   22.79550645    
   22.83486403    
   27.76570622    
   27.55716603    
   26.65730174    
   26.37585594    
   26.30517278    
   26.33323586    
   26.34541104    
   26.34236023    
   26.34287965    
   26.34291275    
   26.34046000    
   26.33976158    
   26.33887604    
   26.33818394    
   26.33779586    
   26.33796396    
   26.33784294    
   26.33808090    
   26.33826134    
   26.33833375    
   26.33833858    
   26.33835694    
   26.33835801    
   26.33830974    
   26.33832206    
   26.33829724    
   26.33827916    
   26.33826850    
   26.33826949    
   26.33827060    
   26.33828507    
   26.33828334    
   26.33827813    
   26.33827702    
   26.33827868    
   26.33827928    
   26.33828279    
   26.33828383    
   26.33828316    
   26.33828254    
   26.33828244    
   26.33828264    
   26.33828207    
   26.33828253    
   26.33828250    
   26.33828267    
   26.33828279    
   26.33828275    
   26.33828261    
   26.33828262    
   26.33828279    
   26.33828283    
   26.33828254    
   26.33828244    
   26.33828250    
   26.33828273    
   26.33828271    
   26.33828284    
   26.33828261    
   26.33828260    
   26.33828269    
   26.33828266    
   26.33828264    
   26.33828263    
   26.33828267    
   26.33828284    
   26.33828295    
   26.33828303    
   26.33828303    
   26.33828285    
   26.33828300    
   26.33828263    
   26.33828281    
   26.33828280    
   26.33828277    
   26.33828284    
   26.33828284    
   26.33828293    
   26.33828292    
   26.33828291    
   26.33828297    
   26.33828300    
   26.33828288    
   26.33828284    
   26.33828283    
   26.33828308    
   26.33828305    
   26.33828275    
   26.33828278    
   26.33828283    
   26.33828276    
   26.33828296    
   26.33828298    
   26.33828288    
   26.33828283    
   26.33828267    
   26.33828273    
   26.33828272    
   26.33828273    
   26.33828265    
   26.33828253    
   26.33828253    
   26.33828268    
   26.33828264    
   26.33828234    
   26.33828245    
   26.33828237    
   26.33828246    
   26.33828234    
   26.33828273    
   26.33828265    
   26.33828273    
   26.33828278    
   26.33828274    
   26.33828275    
   26.33828279    
   26.33828271    
   26.33828270    
   26.33828263    
   26.33828270    
   26.33828270    
   26.33828274    
   26.33828274    
   26.33828279    
   26.33828258    
   26.33828246    
   26.33828262    
   26.33828264    
   26.33828298    
   26.33828283    
   26.33828287    
   26.33828276    
   26.33828290    
   26.33828291    
   26.33828287    
   26.33828264    
   26.33828258    
   26.33828277    
   26.33828271    
   26.33828283    
   26.33828271    
   26.33828293    
   26.33828291    
   26.33828293    
   26.33828287    
   26.33828299    
   26.33828292    
   26.33828274    
   26.33828282    
   26.33828269    
   26.33828296    
   26.33828286    
   26.33828288    
   26.33828302    
   26.33828306    
   26.33828280    
   26.33828274    
   26.33828297    
   26.33828257    
   26.33828266    
   26.33828280    
   26.33828285    
   26.33828244    
   26.33828308    
   26.33828300    
   26.33828285    
   26.33828303    
   26.33828300    
   26.33828303    
   26.33828304    
   26.33828293    
   26.33828284    
   26.33828288    
   26.33828286    
   26.33828330    
   26.33828344    
   26.33828352    
   26.33828311    
   26.33828295    
   26.33828283    
   26.33828287    
   26.33828255    
   26.33828274    
   26.33828281    
   26.33828271    
   26.33828285    
   26.33828278    
   26.33828277    
   26.33828275    
   26.33828280    
   26.33828284    
   26.33828282    
   26.33828255    
   26.33828266    
   26.33828287    
   26.33828304    
   26.33828295    
   26.33828265    
