   297 : nkpt; k-point, vkl, wkpt, nmat below
     1   0.000000000       0.000000000       0.000000000      0.2035416243E-03     717
     2  0.5882352941E-01   0.000000000       0.000000000      0.1221249746E-02     707
     3  0.1176470588       0.000000000       0.000000000      0.1221249746E-02     707
     4  0.1764705882       0.000000000       0.000000000      0.1221249746E-02     704
     5  0.2352941176       0.000000000       0.000000000      0.1221249746E-02     706
     6  0.2941176471       0.000000000       0.000000000      0.1221249746E-02     704
     7  0.3529411765       0.000000000       0.000000000      0.1221249746E-02     714
     8  0.4117647059       0.000000000       0.000000000      0.1221249746E-02     704
     9  0.4705882353       0.000000000       0.000000000      0.1221249746E-02     702
    10  0.5882352941E-01  0.5882352941E-01   0.000000000      0.1221249746E-02     707
    11  0.1176470588      0.5882352941E-01   0.000000000      0.2442499491E-02     705
    12  0.1764705882      0.5882352941E-01   0.000000000      0.2442499491E-02     704
    13  0.2352941176      0.5882352941E-01   0.000000000      0.2442499491E-02     709
    14  0.2941176471      0.5882352941E-01   0.000000000      0.2442499491E-02     706
    15  0.3529411765      0.5882352941E-01   0.000000000      0.2442499491E-02     711
    16  0.4117647059      0.5882352941E-01   0.000000000      0.2442499491E-02     702
    17  0.4705882353      0.5882352941E-01   0.000000000      0.1221249746E-02     698
    18  0.1176470588      0.1176470588       0.000000000      0.1221249746E-02     707
    19  0.1764705882      0.1176470588       0.000000000      0.2442499491E-02     709
    20  0.2352941176      0.1176470588       0.000000000      0.2442499491E-02     714
    21  0.2941176471      0.1176470588       0.000000000      0.2442499491E-02     712
    22  0.3529411765      0.1176470588       0.000000000      0.2442499491E-02     707
    23  0.4117647059      0.1176470588       0.000000000      0.2442499491E-02     701
    24  0.1764705882      0.1764705882       0.000000000      0.1221249746E-02     715
    25  0.2352941176      0.1764705882       0.000000000      0.2442499491E-02     709
    26  0.2941176471      0.1764705882       0.000000000      0.2442499491E-02     706
    27  0.3529411765      0.1764705882       0.000000000      0.2442499491E-02     706
    28  0.4117647059      0.1764705882       0.000000000      0.1221249746E-02     708
    29  0.2352941176      0.2352941176       0.000000000      0.1221249746E-02     706
    30  0.2941176471      0.2352941176       0.000000000      0.2442499491E-02     708
    31  0.3529411765      0.2352941176       0.000000000      0.2442499491E-02     698
    32  0.2941176471      0.2941176471       0.000000000      0.1221249746E-02     696
    33  0.3529411765      0.2941176471       0.000000000      0.1221249746E-02     694
    34   0.000000000       0.000000000      0.5882352941E-01  0.4070832485E-03     711
    35  0.5882352941E-01   0.000000000      0.5882352941E-01  0.2442499491E-02     711
    36  0.1176470588       0.000000000      0.5882352941E-01  0.2442499491E-02     707
    37  0.1764705882       0.000000000      0.5882352941E-01  0.2442499491E-02     708
    38  0.2352941176       0.000000000      0.5882352941E-01  0.2442499491E-02     708
    39  0.2941176471       0.000000000      0.5882352941E-01  0.2442499491E-02     706
    40  0.3529411765       0.000000000      0.5882352941E-01  0.2442499491E-02     711
    41  0.4117647059       0.000000000      0.5882352941E-01  0.2442499491E-02     703
    42  0.4705882353       0.000000000      0.5882352941E-01  0.2442499491E-02     703
    43  0.5882352941E-01  0.5882352941E-01  0.5882352941E-01  0.2442499491E-02     707
    44  0.1176470588      0.5882352941E-01  0.5882352941E-01  0.4884998982E-02     707
    45  0.1764705882      0.5882352941E-01  0.5882352941E-01  0.4884998982E-02     709
    46  0.2352941176      0.5882352941E-01  0.5882352941E-01  0.4884998982E-02     708
    47  0.2941176471      0.5882352941E-01  0.5882352941E-01  0.4884998982E-02     708
    48  0.3529411765      0.5882352941E-01  0.5882352941E-01  0.4884998982E-02     707
    49  0.4117647059      0.5882352941E-01  0.5882352941E-01  0.4884998982E-02     699
    50  0.4705882353      0.5882352941E-01  0.5882352941E-01  0.2442499491E-02     698
    51  0.1176470588      0.1176470588      0.5882352941E-01  0.2442499491E-02     708
    52  0.1764705882      0.1176470588      0.5882352941E-01  0.4884998982E-02     713
    53  0.2352941176      0.1176470588      0.5882352941E-01  0.4884998982E-02     711
    54  0.2941176471      0.1176470588      0.5882352941E-01  0.4884998982E-02     710
    55  0.3529411765      0.1176470588      0.5882352941E-01  0.4884998982E-02     704
    56  0.4117647059      0.1176470588      0.5882352941E-01  0.4884998982E-02     700
    57  0.1764705882      0.1764705882      0.5882352941E-01  0.2442499491E-02     712
    58  0.2352941176      0.1764705882      0.5882352941E-01  0.4884998982E-02     708
    59  0.2941176471      0.1764705882      0.5882352941E-01  0.4884998982E-02     709
    60  0.3529411765      0.1764705882      0.5882352941E-01  0.4884998982E-02     703
    61  0.4117647059      0.1764705882      0.5882352941E-01  0.2442499491E-02     701
    62  0.2352941176      0.2352941176      0.5882352941E-01  0.2442499491E-02     708
    63  0.2941176471      0.2352941176      0.5882352941E-01  0.4884998982E-02     704
    64  0.3529411765      0.2352941176      0.5882352941E-01  0.4884998982E-02     700
    65  0.2941176471      0.2941176471      0.5882352941E-01  0.2442499491E-02     700
    66  0.3529411765      0.2941176471      0.5882352941E-01  0.2442499491E-02     698
    67   0.000000000       0.000000000      0.1176470588      0.4070832485E-03     711
    68  0.5882352941E-01   0.000000000      0.1176470588      0.2442499491E-02     710
    69  0.1176470588       0.000000000      0.1176470588      0.2442499491E-02     707
    70  0.1764705882       0.000000000      0.1176470588      0.2442499491E-02     714
    71  0.2352941176       0.000000000      0.1176470588      0.2442499491E-02     708
    72  0.2941176471       0.000000000      0.1176470588      0.2442499491E-02     703
    73  0.3529411765       0.000000000      0.1176470588      0.2442499491E-02     704
    74  0.4117647059       0.000000000      0.1176470588      0.2442499491E-02     702
    75  0.4705882353       0.000000000      0.1176470588      0.2442499491E-02     699
    76  0.5882352941E-01  0.5882352941E-01  0.1176470588      0.2442499491E-02     705
    77  0.1176470588      0.5882352941E-01  0.1176470588      0.4884998982E-02     711
    78  0.1764705882      0.5882352941E-01  0.1176470588      0.4884998982E-02     712
    79  0.2352941176      0.5882352941E-01  0.1176470588      0.4884998982E-02     709
    80  0.2941176471      0.5882352941E-01  0.1176470588      0.4884998982E-02     708
    81  0.3529411765      0.5882352941E-01  0.1176470588      0.4884998982E-02     704
    82  0.4117647059      0.5882352941E-01  0.1176470588      0.4884998982E-02     699
    83  0.4705882353      0.5882352941E-01  0.1176470588      0.2442499491E-02     698
    84  0.1176470588      0.1176470588      0.1176470588      0.2442499491E-02     713
    85  0.1764705882      0.1176470588      0.1176470588      0.4884998982E-02     710
    86  0.2352941176      0.1176470588      0.1176470588      0.4884998982E-02     712
    87  0.2941176471      0.1176470588      0.1176470588      0.4884998982E-02     708
    88  0.3529411765      0.1176470588      0.1176470588      0.4884998982E-02     706
    89  0.4117647059      0.1176470588      0.1176470588      0.4884998982E-02     699
    90  0.1764705882      0.1764705882      0.1176470588      0.2442499491E-02     714
    91  0.2352941176      0.1764705882      0.1176470588      0.4884998982E-02     705
    92  0.2941176471      0.1764705882      0.1176470588      0.4884998982E-02     704
    93  0.3529411765      0.1764705882      0.1176470588      0.4884998982E-02     702
    94  0.4117647059      0.1764705882      0.1176470588      0.2442499491E-02     699
    95  0.2352941176      0.2352941176      0.1176470588      0.2442499491E-02     704
    96  0.2941176471      0.2352941176      0.1176470588      0.4884998982E-02     705
    97  0.3529411765      0.2352941176      0.1176470588      0.4884998982E-02     702
    98  0.2941176471      0.2941176471      0.1176470588      0.2442499491E-02     706
    99  0.3529411765      0.2941176471      0.1176470588      0.2442499491E-02     706
   100   0.000000000       0.000000000      0.1764705882      0.4070832485E-03     711
   101  0.5882352941E-01   0.000000000      0.1764705882      0.2442499491E-02     709
   102  0.1176470588       0.000000000      0.1764705882      0.2442499491E-02     709
   103  0.1764705882       0.000000000      0.1764705882      0.2442499491E-02     711
   104  0.2352941176       0.000000000      0.1764705882      0.2442499491E-02     711
   105  0.2941176471       0.000000000      0.1764705882      0.2442499491E-02     701
   106  0.3529411765       0.000000000      0.1764705882      0.2442499491E-02     699
   107  0.4117647059       0.000000000      0.1764705882      0.2442499491E-02     698
   108  0.4705882353       0.000000000      0.1764705882      0.2442499491E-02     702
   109  0.5882352941E-01  0.5882352941E-01  0.1764705882      0.2442499491E-02     713
   110  0.1176470588      0.5882352941E-01  0.1764705882      0.4884998982E-02     713
   111  0.1764705882      0.5882352941E-01  0.1764705882      0.4884998982E-02     710
   112  0.2352941176      0.5882352941E-01  0.1764705882      0.4884998982E-02     708
   113  0.2941176471      0.5882352941E-01  0.1764705882      0.4884998982E-02     706
   114  0.3529411765      0.5882352941E-01  0.1764705882      0.4884998982E-02     700
   115  0.4117647059      0.5882352941E-01  0.1764705882      0.4884998982E-02     701
   116  0.4705882353      0.5882352941E-01  0.1764705882      0.2442499491E-02     699
   117  0.1176470588      0.1176470588      0.1764705882      0.2442499491E-02     711
   118  0.1764705882      0.1176470588      0.1764705882      0.4884998982E-02     709
   119  0.2352941176      0.1176470588      0.1764705882      0.4884998982E-02     709
   120  0.2941176471      0.1176470588      0.1764705882      0.4884998982E-02     704
   121  0.3529411765      0.1176470588      0.1764705882      0.4884998982E-02     704
   122  0.4117647059      0.1176470588      0.1764705882      0.4884998982E-02     698
   123  0.1764705882      0.1764705882      0.1764705882      0.2442499491E-02     708
   124  0.2352941176      0.1764705882      0.1764705882      0.4884998982E-02     708
   125  0.2941176471      0.1764705882      0.1764705882      0.4884998982E-02     704
   126  0.3529411765      0.1764705882      0.1764705882      0.4884998982E-02     703
   127  0.4117647059      0.1764705882      0.1764705882      0.2442499491E-02     697
   128  0.2352941176      0.2352941176      0.1764705882      0.2442499491E-02     708
   129  0.2941176471      0.2352941176      0.1764705882      0.4884998982E-02     705
   130  0.3529411765      0.2352941176      0.1764705882      0.4884998982E-02     701
   131  0.2941176471      0.2941176471      0.1764705882      0.2442499491E-02     704
   132  0.3529411765      0.2941176471      0.1764705882      0.2442499491E-02     711
   133   0.000000000       0.000000000      0.2352941176      0.4070832485E-03     711
   134  0.5882352941E-01   0.000000000      0.2352941176      0.2442499491E-02     716
   135  0.1176470588       0.000000000      0.2352941176      0.2442499491E-02     713
   136  0.1764705882       0.000000000      0.2352941176      0.2442499491E-02     711
   137  0.2352941176       0.000000000      0.2352941176      0.2442499491E-02     713
   138  0.2941176471       0.000000000      0.2352941176      0.2442499491E-02     701
   139  0.3529411765       0.000000000      0.2352941176      0.2442499491E-02     697
   140  0.4117647059       0.000000000      0.2352941176      0.2442499491E-02     703
   141  0.4705882353       0.000000000      0.2352941176      0.2442499491E-02     701
   142  0.5882352941E-01  0.5882352941E-01  0.2352941176      0.2442499491E-02     711
   143  0.1176470588      0.5882352941E-01  0.2352941176      0.4884998982E-02     713
   144  0.1764705882      0.5882352941E-01  0.2352941176      0.4884998982E-02     709
   145  0.2352941176      0.5882352941E-01  0.2352941176      0.4884998982E-02     707
   146  0.2941176471      0.5882352941E-01  0.2352941176      0.4884998982E-02     704
   147  0.3529411765      0.5882352941E-01  0.2352941176      0.4884998982E-02     700
   148  0.4117647059      0.5882352941E-01  0.2352941176      0.4884998982E-02     702
   149  0.4705882353      0.5882352941E-01  0.2352941176      0.2442499491E-02     703
   150  0.1176470588      0.1176470588      0.2352941176      0.2442499491E-02     715
   151  0.1764705882      0.1176470588      0.2352941176      0.4884998982E-02     709
   152  0.2352941176      0.1176470588      0.2352941176      0.4884998982E-02     704
   153  0.2941176471      0.1176470588      0.2352941176      0.4884998982E-02     703
   154  0.3529411765      0.1176470588      0.2352941176      0.4884998982E-02     701
   155  0.4117647059      0.1176470588      0.2352941176      0.4884998982E-02     704
   156  0.1764705882      0.1764705882      0.2352941176      0.2442499491E-02     710
   157  0.2352941176      0.1764705882      0.2352941176      0.4884998982E-02     705
   158  0.2941176471      0.1764705882      0.2352941176      0.4884998982E-02     704
   159  0.3529411765      0.1764705882      0.2352941176      0.4884998982E-02     702
   160  0.4117647059      0.1764705882      0.2352941176      0.2442499491E-02     695
   161  0.2352941176      0.2352941176      0.2352941176      0.2442499491E-02     704
   162  0.2941176471      0.2352941176      0.2352941176      0.4884998982E-02     705
   163  0.3529411765      0.2352941176      0.2352941176      0.4884998982E-02     701
   164  0.2941176471      0.2941176471      0.2352941176      0.2442499491E-02     706
   165  0.3529411765      0.2941176471      0.2352941176      0.2442499491E-02     706
   166   0.000000000       0.000000000      0.2941176471      0.4070832485E-03     705
   167  0.5882352941E-01   0.000000000      0.2941176471      0.2442499491E-02     715
   168  0.1176470588       0.000000000      0.2941176471      0.2442499491E-02     712
   169  0.1764705882       0.000000000      0.2941176471      0.2442499491E-02     714
   170  0.2352941176       0.000000000      0.2941176471      0.2442499491E-02     712
   171  0.2941176471       0.000000000      0.2941176471      0.2442499491E-02     707
   172  0.3529411765       0.000000000      0.2941176471      0.2442499491E-02     701
   173  0.4117647059       0.000000000      0.2941176471      0.2442499491E-02     703
   174  0.4705882353       0.000000000      0.2941176471      0.2442499491E-02     705
   175  0.5882352941E-01  0.5882352941E-01  0.2941176471      0.2442499491E-02     715
   176  0.1176470588      0.5882352941E-01  0.2941176471      0.4884998982E-02     713
   177  0.1764705882      0.5882352941E-01  0.2941176471      0.4884998982E-02     709
   178  0.2352941176      0.5882352941E-01  0.2941176471      0.4884998982E-02     704
   179  0.2941176471      0.5882352941E-01  0.2941176471      0.4884998982E-02     704
   180  0.3529411765      0.5882352941E-01  0.2941176471      0.4884998982E-02     701
   181  0.4117647059      0.5882352941E-01  0.2941176471      0.4884998982E-02     703
   182  0.4705882353      0.5882352941E-01  0.2941176471      0.2442499491E-02     701
   183  0.1176470588      0.1176470588      0.2941176471      0.2442499491E-02     713
   184  0.1764705882      0.1176470588      0.2941176471      0.4884998982E-02     706
   185  0.2352941176      0.1176470588      0.2941176471      0.4884998982E-02     703
   186  0.2941176471      0.1176470588      0.2941176471      0.4884998982E-02     704
   187  0.3529411765      0.1176470588      0.2941176471      0.4884998982E-02     699
   188  0.4117647059      0.1176470588      0.2941176471      0.4884998982E-02     698
   189  0.1764705882      0.1764705882      0.2941176471      0.2442499491E-02     703
   190  0.2352941176      0.1764705882      0.2941176471      0.4884998982E-02     702
   191  0.2941176471      0.1764705882      0.2941176471      0.4884998982E-02     701
   192  0.3529411765      0.1764705882      0.2941176471      0.4884998982E-02     700
   193  0.4117647059      0.1764705882      0.2941176471      0.2442499491E-02     696
   194  0.2352941176      0.2352941176      0.2941176471      0.2442499491E-02     700
   195  0.2941176471      0.2352941176      0.2941176471      0.4884998982E-02     703
   196  0.3529411765      0.2352941176      0.2941176471      0.4884998982E-02     704
   197  0.2941176471      0.2941176471      0.2941176471      0.2442499491E-02     707
   198  0.3529411765      0.2941176471      0.2941176471      0.2442499491E-02     706
   199   0.000000000       0.000000000      0.3529411765      0.4070832485E-03     717
   200  0.5882352941E-01   0.000000000      0.3529411765      0.2442499491E-02     715
   201  0.1176470588       0.000000000      0.3529411765      0.2442499491E-02     718
   202  0.1764705882       0.000000000      0.3529411765      0.2442499491E-02     712
   203  0.2352941176       0.000000000      0.3529411765      0.2442499491E-02     708
   204  0.2941176471       0.000000000      0.3529411765      0.2442499491E-02     705
   205  0.3529411765       0.000000000      0.3529411765      0.2442499491E-02     700
   206  0.4117647059       0.000000000      0.3529411765      0.2442499491E-02     702
   207  0.4705882353       0.000000000      0.3529411765      0.2442499491E-02     703
   208  0.5882352941E-01  0.5882352941E-01  0.3529411765      0.2442499491E-02     712
   209  0.1176470588      0.5882352941E-01  0.3529411765      0.4884998982E-02     714
   210  0.1764705882      0.5882352941E-01  0.3529411765      0.4884998982E-02     710
   211  0.2352941176      0.5882352941E-01  0.3529411765      0.4884998982E-02     704
   212  0.2941176471      0.5882352941E-01  0.3529411765      0.4884998982E-02     703
   213  0.3529411765      0.5882352941E-01  0.3529411765      0.4884998982E-02     701
   214  0.4117647059      0.5882352941E-01  0.3529411765      0.4884998982E-02     702
   215  0.4705882353      0.5882352941E-01  0.3529411765      0.2442499491E-02     702
   216  0.1176470588      0.1176470588      0.3529411765      0.2442499491E-02     713
   217  0.1764705882      0.1176470588      0.3529411765      0.4884998982E-02     704
   218  0.2352941176      0.1176470588      0.3529411765      0.4884998982E-02     703
   219  0.2941176471      0.1176470588      0.3529411765      0.4884998982E-02     701
   220  0.3529411765      0.1176470588      0.3529411765      0.4884998982E-02     697
   221  0.4117647059      0.1176470588      0.3529411765      0.4884998982E-02     696
   222  0.1764705882      0.1764705882      0.3529411765      0.2442499491E-02     702
   223  0.2352941176      0.1764705882      0.3529411765      0.4884998982E-02     702
   224  0.2941176471      0.1764705882      0.3529411765      0.4884998982E-02     699
   225  0.3529411765      0.1764705882      0.3529411765      0.4884998982E-02     699
   226  0.4117647059      0.1764705882      0.3529411765      0.2442499491E-02     700
   227  0.2352941176      0.2352941176      0.3529411765      0.2442499491E-02     702
   228  0.2941176471      0.2352941176      0.3529411765      0.4884998982E-02     701
   229  0.3529411765      0.2352941176      0.3529411765      0.4884998982E-02     704
   230  0.2941176471      0.2941176471      0.3529411765      0.2442499491E-02     703
   231  0.3529411765      0.2941176471      0.3529411765      0.2442499491E-02     705
   232   0.000000000       0.000000000      0.4117647059      0.4070832485E-03     717
   233  0.5882352941E-01   0.000000000      0.4117647059      0.2442499491E-02     720
   234  0.1176470588       0.000000000      0.4117647059      0.2442499491E-02     717
   235  0.1764705882       0.000000000      0.4117647059      0.2442499491E-02     717
   236  0.2352941176       0.000000000      0.4117647059      0.2442499491E-02     707
   237  0.2941176471       0.000000000      0.4117647059      0.2442499491E-02     705
   238  0.3529411765       0.000000000      0.4117647059      0.2442499491E-02     701
   239  0.4117647059       0.000000000      0.4117647059      0.2442499491E-02     701
   240  0.4705882353       0.000000000      0.4117647059      0.2442499491E-02     701
   241  0.5882352941E-01  0.5882352941E-01  0.4117647059      0.2442499491E-02     721
   242  0.1176470588      0.5882352941E-01  0.4117647059      0.4884998982E-02     713
   243  0.1764705882      0.5882352941E-01  0.4117647059      0.4884998982E-02     712
   244  0.2352941176      0.5882352941E-01  0.4117647059      0.4884998982E-02     705
   245  0.2941176471      0.5882352941E-01  0.4117647059      0.4884998982E-02     701
   246  0.3529411765      0.5882352941E-01  0.4117647059      0.4884998982E-02     701
   247  0.4117647059      0.5882352941E-01  0.4117647059      0.4884998982E-02     699
   248  0.4705882353      0.5882352941E-01  0.4117647059      0.2442499491E-02     700
   249  0.1176470588      0.1176470588      0.4117647059      0.2442499491E-02     708
   250  0.1764705882      0.1176470588      0.4117647059      0.4884998982E-02     704
   251  0.2352941176      0.1176470588      0.4117647059      0.4884998982E-02     702
   252  0.2941176471      0.1176470588      0.4117647059      0.4884998982E-02     700
   253  0.3529411765      0.1176470588      0.4117647059      0.4884998982E-02     697
   254  0.4117647059      0.1176470588      0.4117647059      0.4884998982E-02     699
   255  0.1764705882      0.1764705882      0.4117647059      0.2442499491E-02     700
   256  0.2352941176      0.1764705882      0.4117647059      0.4884998982E-02     701
   257  0.2941176471      0.1764705882      0.4117647059      0.4884998982E-02     698
   258  0.3529411765      0.1764705882      0.4117647059      0.4884998982E-02     700
   259  0.4117647059      0.1764705882      0.4117647059      0.2442499491E-02     697
   260  0.2352941176      0.2352941176      0.4117647059      0.2442499491E-02     697
   261  0.2941176471      0.2352941176      0.4117647059      0.4884998982E-02     699
   262  0.3529411765      0.2352941176      0.4117647059      0.4884998982E-02     700
   263  0.2941176471      0.2941176471      0.4117647059      0.2442499491E-02     699
   264  0.3529411765      0.2941176471      0.4117647059      0.2442499491E-02     706
   265   0.000000000       0.000000000      0.4705882353      0.4070832485E-03     723
   266  0.5882352941E-01   0.000000000      0.4705882353      0.2442499491E-02     722
   267  0.1176470588       0.000000000      0.4705882353      0.2442499491E-02     721
   268  0.1764705882       0.000000000      0.4705882353      0.2442499491E-02     713
   269  0.2352941176       0.000000000      0.4705882353      0.2442499491E-02     705
   270  0.2941176471       0.000000000      0.4705882353      0.2442499491E-02     712
   271  0.3529411765       0.000000000      0.4705882353      0.2442499491E-02     702
   272  0.4117647059       0.000000000      0.4705882353      0.2442499491E-02     700
   273  0.4705882353       0.000000000      0.4705882353      0.2442499491E-02     696
   274  0.5882352941E-01  0.5882352941E-01  0.4705882353      0.2442499491E-02     725
   275  0.1176470588      0.5882352941E-01  0.4705882353      0.4884998982E-02     713
   276  0.1764705882      0.5882352941E-01  0.4705882353      0.4884998982E-02     712
   277  0.2352941176      0.5882352941E-01  0.4705882353      0.4884998982E-02     705
   278  0.2941176471      0.5882352941E-01  0.4705882353      0.4884998982E-02     704
   279  0.3529411765      0.5882352941E-01  0.4705882353      0.4884998982E-02     697
   280  0.4117647059      0.5882352941E-01  0.4705882353      0.4884998982E-02     695
   281  0.4705882353      0.5882352941E-01  0.4705882353      0.2442499491E-02     702
   282  0.1176470588      0.1176470588      0.4705882353      0.2442499491E-02     707
   283  0.1764705882      0.1176470588      0.4705882353      0.4884998982E-02     707
   284  0.2352941176      0.1176470588      0.4705882353      0.4884998982E-02     699
   285  0.2941176471      0.1176470588      0.4705882353      0.4884998982E-02     701
   286  0.3529411765      0.1176470588      0.4705882353      0.4884998982E-02     696
   287  0.4117647059      0.1176470588      0.4705882353      0.4884998982E-02     698
   288  0.1764705882      0.1764705882      0.4705882353      0.2442499491E-02     699
   289  0.2352941176      0.1764705882      0.4705882353      0.4884998982E-02     699
   290  0.2941176471      0.1764705882      0.4705882353      0.4884998982E-02     697
   291  0.3529411765      0.1764705882      0.4705882353      0.4884998982E-02     698
   292  0.4117647059      0.1764705882      0.4705882353      0.2442499491E-02     697
   293  0.2352941176      0.2352941176      0.4705882353      0.2442499491E-02     702
   294  0.2941176471      0.2352941176      0.4705882353      0.4884998982E-02     696
   295  0.3529411765      0.2352941176      0.4705882353      0.4884998982E-02     700
   296  0.2941176471      0.2941176471      0.4705882353      0.2442499491E-02     692
   297  0.3529411765      0.2941176471      0.4705882353      0.2442499491E-02     700
