 
(rotation matrices are in lattice coordinates)
 
 
Species :    1 (Na), atom :    1
  48 : nsymsite
 
 Site symmetry :    1
  spatial rotation :
   1   0   0
   0   1   0
   0   0   1
  global spin rotation :
   1   0   0
   0   1   0
   0   0   1
 
 Site symmetry :    2
  spatial rotation :
  -1   0   0
  -1   1   0
  -1   0   1
  global spin rotation :
   1   0   0
   0   1   0
   0   0   1
 
 Site symmetry :    3
  spatial rotation :
  -1   0   0
   0  -1   0
   0   0  -1
  global spin rotation :
   1   0   0
   0   1   0
   0   0   1
 
 Site symmetry :    4
  spatial rotation :
  -1   0   0
   0   0  -1
   0  -1   0
  global spin rotation :
   1   0   0
   0   1   0
   0   0   1
 
 Site symmetry :    5
  spatial rotation :
  -1   0   1
  -1   0   0
  -1   1   0
  global spin rotation :
   1   0   0
   0   1   0
   0   0   1
 
 Site symmetry :    6
  spatial rotation :
  -1   0   1
  -1   1   0
  -1   0   0
  global spin rotation :
   1   0   0
   0   1   0
   0   0   1
 
 Site symmetry :    7
  spatial rotation :
  -1   0   1
   0  -1   1
   0   0   1
  global spin rotation :
   1   0   0
   0   1   0
   0   0   1
 
 Site symmetry :    8
  spatial rotation :
  -1   0   1
   0   0   1
   0  -1   1
  global spin rotation :
   1   0   0
   0   1   0
   0   0   1
 
 Site symmetry :    9
  spatial rotation :
  -1   1   0
  -1   0   0
  -1   0   1
  global spin rotation :
   1   0   0
   0   1   0
   0   0   1
 
 Site symmetry :   10
  spatial rotation :
  -1   1   0
  -1   0   1
  -1   0   0
  global spin rotation :
   1   0   0
   0   1   0
   0   0   1
 
 Site symmetry :   11
  spatial rotation :
  -1   1   0
   0   1  -1
   0   1   0
  global spin rotation :
   1   0   0
   0   1   0
   0   0   1
 
 Site symmetry :   12
  spatial rotation :
  -1   1   0
   0   1   0
   0   1  -1
  global spin rotation :
   1   0   0
   0   1   0
   0   0   1
 
 Site symmetry :   13
  spatial rotation :
   0  -1   0
  -1   0   0
   0   0  -1
  global spin rotation :
   1   0   0
   0   1   0
   0   0   1
 
 Site symmetry :   14
  spatial rotation :
   0  -1   0
   0  -1   1
   1  -1   0
  global spin rotation :
   1   0   0
   0   1   0
   0   0   1
 
 Site symmetry :   15
  spatial rotation :
   0  -1   0
   0   0  -1
  -1   0   0
  global spin rotation :
   1   0   0
   0   1   0
   0   0   1
 
 Site symmetry :   16
  spatial rotation :
   0  -1   0
   1  -1   0
   0  -1   1
  global spin rotation :
   1   0   0
   0   1   0
   0   0   1
 
 Site symmetry :   17
  spatial rotation :
   0  -1   1
  -1   0   1
   0   0   1
  global spin rotation :
   1   0   0
   0   1   0
   0   0   1
 
 Site symmetry :   18
  spatial rotation :
   0  -1   1
   0  -1   0
   1  -1   0
  global spin rotation :
   1   0   0
   0   1   0
   0   0   1
 
 Site symmetry :   19
  spatial rotation :
   0  -1   1
   0   0   1
  -1   0   1
  global spin rotation :
   1   0   0
   0   1   0
   0   0   1
 
 Site symmetry :   20
  spatial rotation :
   0  -1   1
   1  -1   0
   0  -1   0
  global spin rotation :
   1   0   0
   0   1   0
   0   0   1
 
 Site symmetry :   21
  spatial rotation :
   0   0  -1
  -1   0   0
   0  -1   0
  global spin rotation :
   1   0   0
   0   1   0
   0   0   1
 
 Site symmetry :   22
  spatial rotation :
   0   0  -1
   0  -1   0
  -1   0   0
  global spin rotation :
   1   0   0
   0   1   0
   0   0   1
 
 Site symmetry :   23
  spatial rotation :
   0   0  -1
   0   1  -1
   1   0  -1
  global spin rotation :
   1   0   0
   0   1   0
   0   0   1
 
 Site symmetry :   24
  spatial rotation :
   0   0  -1
   1   0  -1
   0   1  -1
  global spin rotation :
   1   0   0
   0   1   0
   0   0   1
 
 Site symmetry :   25
  spatial rotation :
   0   0   1
  -1   0   1
   0  -1   1
  global spin rotation :
   1   0   0
   0   1   0
   0   0   1
 
 Site symmetry :   26
  spatial rotation :
   0   0   1
   0  -1   1
  -1   0   1
  global spin rotation :
   1   0   0
   0   1   0
   0   0   1
 
 Site symmetry :   27
  spatial rotation :
   0   0   1
   0   1   0
   1   0   0
  global spin rotation :
   1   0   0
   0   1   0
   0   0   1
 
 Site symmetry :   28
  spatial rotation :
   0   0   1
   1   0   0
   0   1   0
  global spin rotation :
   1   0   0
   0   1   0
   0   0   1
 
 Site symmetry :   29
  spatial rotation :
   0   1  -1
  -1   1   0
   0   1   0
  global spin rotation :
   1   0   0
   0   1   0
   0   0   1
 
 Site symmetry :   30
  spatial rotation :
   0   1  -1
   0   0  -1
   1   0  -1
  global spin rotation :
   1   0   0
   0   1   0
   0   0   1
 
 Site symmetry :   31
  spatial rotation :
   0   1  -1
   0   1   0
  -1   1   0
  global spin rotation :
   1   0   0
   0   1   0
   0   0   1
 
 Site symmetry :   32
  spatial rotation :
   0   1  -1
   1   0  -1
   0   0  -1
  global spin rotation :
   1   0   0
   0   1   0
   0   0   1
 
 Site symmetry :   33
  spatial rotation :
   0   1   0
  -1   1   0
   0   1  -1
  global spin rotation :
   1   0   0
   0   1   0
   0   0   1
 
 Site symmetry :   34
  spatial rotation :
   0   1   0
   0   0   1
   1   0   0
  global spin rotation :
   1   0   0
   0   1   0
   0   0   1
 
 Site symmetry :   35
  spatial rotation :
   0   1   0
   0   1  -1
  -1   1   0
  global spin rotation :
   1   0   0
   0   1   0
   0   0   1
 
 Site symmetry :   36
  spatial rotation :
   0   1   0
   1   0   0
   0   0   1
  global spin rotation :
   1   0   0
   0   1   0
   0   0   1
 
 Site symmetry :   37
  spatial rotation :
   1  -1   0
   0  -1   0
   0  -1   1
  global spin rotation :
   1   0   0
   0   1   0
   0   0   1
 
 Site symmetry :   38
  spatial rotation :
   1  -1   0
   0  -1   1
   0  -1   0
  global spin rotation :
   1   0   0
   0   1   0
   0   0   1
 
 Site symmetry :   39
  spatial rotation :
   1  -1   0
   1   0  -1
   1   0   0
  global spin rotation :
   1   0   0
   0   1   0
   0   0   1
 
 Site symmetry :   40
  spatial rotation :
   1  -1   0
   1   0   0
   1   0  -1
  global spin rotation :
   1   0   0
   0   1   0
   0   0   1
 
 Site symmetry :   41
  spatial rotation :
   1   0  -1
   0   0  -1
   0   1  -1
  global spin rotation :
   1   0   0
   0   1   0
   0   0   1
 
 Site symmetry :   42
  spatial rotation :
   1   0  -1
   0   1  -1
   0   0  -1
  global spin rotation :
   1   0   0
   0   1   0
   0   0   1
 
 Site symmetry :   43
  spatial rotation :
   1   0  -1
   1  -1   0
   1   0   0
  global spin rotation :
   1   0   0
   0   1   0
   0   0   1
 
 Site symmetry :   44
  spatial rotation :
   1   0  -1
   1   0   0
   1  -1   0
  global spin rotation :
   1   0   0
   0   1   0
   0   0   1
 
 Site symmetry :   45
  spatial rotation :
   1   0   0
   0   0   1
   0   1   0
  global spin rotation :
   1   0   0
   0   1   0
   0   0   1
 
 Site symmetry :   46
  spatial rotation :
  -1   0   0
  -1   0   1
  -1   1   0
  global spin rotation :
   1   0   0
   0   1   0
   0   0   1
 
 Site symmetry :   47
  spatial rotation :
   1   0   0
   1  -1   0
   1   0  -1
  global spin rotation :
   1   0   0
   0   1   0
   0   0   1
 
 Site symmetry :   48
  spatial rotation :
   1   0   0
   1   0  -1
   1  -1   0
  global spin rotation :
   1   0   0
   0   1   0
   0   0   1
