  0.6043828584    
  0.4998148133    
  0.2224587842    
  0.8497513211E-01
  0.2855669797E-01
  0.3842926142E-02
  0.1040479355E-02
  0.2235814364E-03
  0.9184198592E-04
  0.1424384700E-03
  0.1920717701E-03
  0.2944515384E-04
  0.8859758493E-04
  0.7011427154E-04
  0.4144974620E-04
  0.1903532444E-03
  0.1127016983E-03
  0.3387789420E-04
  0.3301861408E-04
  0.1337431825E-03
  0.8982977434E-04
  0.6089525190E-04
  0.2305849330E-03
  0.4331456727E-05
  0.2525679354E-03
  0.2185881422E-03
  0.5329938629E-04
  0.4141804980E-03
  0.9005245428E-04
  0.2166585053E-04
  0.3142825423E-04
  0.6962375227E-05
  0.2876334084E-04
  0.1471932581E-03
  0.2763907646E-04
  0.8990568999E-04
  0.3050394541E-04
  0.1399312724E-03
  0.2724437509E-04
  0.2518418078E-04
