 
Species :    1 (Pt), atom :    1
 n =  1, l =  0, k =  1 :   -2880.901528    
 n =  2, l =  0, k =  1 :   -504.7453367    
 n =  2, l =  1, k =  1 :   -484.2260880    
 n =  2, l =  1, k =  2 :   -420.3560039    
 n =  3, l =  0, k =  1 :   -118.0340343    
 n =  3, l =  1, k =  1 :   -108.7195203    
 n =  3, l =  1, k =  2 :   -94.67937217    
 n =  3, l =  2, k =  2 :   -78.90565996    
 n =  3, l =  2, k =  3 :   -75.89191155    
 n =  4, l =  0, k =  1 :   -24.87381728    
 n =  4, l =  1, k =  1 :   -20.89710231    
 n =  4, l =  1, k =  2 :   -17.55111059    
 n =  4, l =  2, k =  2 :   -10.97778206    
 n =  4, l =  2, k =  3 :   -10.35832600    
 n =  5, l =  0, k =  1 :   -3.094745025    
