    -18583.0279557    
    -18555.6910741    
    -18524.4835143    
    -18497.2088594    
    -18478.1998279    
    -18467.1210930    
    -18461.0610928    
    -18457.5938159    
    -18455.5387994    
    -18454.4014829    
    -18453.8377009    
    -18453.5925789    
    -18453.5037995    
    -18453.4787376    
    -18453.4747822    
    -18453.4751835    
    -18453.4760605    
    -18453.4762382    
    -18453.4764294    
    -18453.4764253    
    -18453.4764246    
    -18453.4764235    
    -18453.4764234    
    -18453.4764233    
    -18453.4764231    
