   165 : nkpt; k-point, vkl, wkpt, nmat below
     1   0.000000000       0.000000000       0.000000000      0.2035416243E-03     222
     2  0.5882352941E-01   0.000000000       0.000000000      0.1628332994E-02     225
     3  0.1176470588       0.000000000       0.000000000      0.1628332994E-02     231
     4  0.1764705882       0.000000000       0.000000000      0.1628332994E-02     231
     5  0.2352941176       0.000000000       0.000000000      0.1628332994E-02     232
     6  0.2941176471       0.000000000       0.000000000      0.1628332994E-02     226
     7  0.3529411765       0.000000000       0.000000000      0.1628332994E-02     226
     8  0.4117647059       0.000000000       0.000000000      0.1628332994E-02     223
     9  0.4705882353       0.000000000       0.000000000      0.1628332994E-02     229
    10  0.5882352941E-01  0.5882352941E-01   0.000000000      0.1221249746E-02     226
    11  0.1176470588      0.5882352941E-01   0.000000000      0.4884998982E-02     230
    12  0.1764705882      0.5882352941E-01   0.000000000      0.4884998982E-02     230
    13  0.2352941176      0.5882352941E-01   0.000000000      0.4884998982E-02     233
    14  0.2941176471      0.5882352941E-01   0.000000000      0.4884998982E-02     230
    15  0.3529411765      0.5882352941E-01   0.000000000      0.4884998982E-02     228
    16  0.4117647059      0.5882352941E-01   0.000000000      0.4884998982E-02     226
    17  0.4705882353      0.5882352941E-01   0.000000000      0.4884998982E-02     227
    18  0.5294117647      0.5882352941E-01   0.000000000      0.4884998982E-02     227
    19  0.5882352941      0.5882352941E-01   0.000000000      0.4884998982E-02     227
    20  0.6470588235      0.5882352941E-01   0.000000000      0.4884998982E-02     227
    21  0.7058823529      0.5882352941E-01   0.000000000      0.4884998982E-02     225
    22  0.7647058824      0.5882352941E-01   0.000000000      0.4884998982E-02     233
    23  0.8235294118      0.5882352941E-01   0.000000000      0.4884998982E-02     232
    24  0.8823529412      0.5882352941E-01   0.000000000      0.4884998982E-02     230
    25  0.9411764706      0.5882352941E-01   0.000000000      0.2442499491E-02     228
    26  0.1176470588      0.1176470588       0.000000000      0.1221249746E-02     234
    27  0.1764705882      0.1176470588       0.000000000      0.4884998982E-02     232
    28  0.2352941176      0.1176470588       0.000000000      0.4884998982E-02     231
    29  0.2941176471      0.1176470588       0.000000000      0.4884998982E-02     234
    30  0.3529411765      0.1176470588       0.000000000      0.4884998982E-02     228
    31  0.4117647059      0.1176470588       0.000000000      0.4884998982E-02     226
    32  0.4705882353      0.1176470588       0.000000000      0.4884998982E-02     226
    33  0.5294117647      0.1176470588       0.000000000      0.4884998982E-02     227
    34  0.5882352941      0.1176470588       0.000000000      0.4884998982E-02     227
    35  0.6470588235      0.1176470588       0.000000000      0.4884998982E-02     231
    36  0.7058823529      0.1176470588       0.000000000      0.4884998982E-02     227
    37  0.7647058824      0.1176470588       0.000000000      0.4884998982E-02     234
    38  0.8235294118      0.1176470588       0.000000000      0.4884998982E-02     231
    39  0.8823529412      0.1176470588       0.000000000      0.2442499491E-02     232
    40  0.1764705882      0.1764705882       0.000000000      0.1221249746E-02     234
    41  0.2352941176      0.1764705882       0.000000000      0.4884998982E-02     236
    42  0.2941176471      0.1764705882       0.000000000      0.4884998982E-02     233
    43  0.3529411765      0.1764705882       0.000000000      0.4884998982E-02     229
    44  0.4117647059      0.1764705882       0.000000000      0.4884998982E-02     226
    45  0.4705882353      0.1764705882       0.000000000      0.4884998982E-02     226
    46  0.5294117647      0.1764705882       0.000000000      0.4884998982E-02     228
    47  0.5882352941      0.1764705882       0.000000000      0.4884998982E-02     230
    48  0.6470588235      0.1764705882       0.000000000      0.4884998982E-02     230
    49  0.7058823529      0.1764705882       0.000000000      0.4884998982E-02     228
    50  0.7647058824      0.1764705882       0.000000000      0.4884998982E-02     230
    51  0.8235294118      0.1764705882       0.000000000      0.2442499491E-02     234
    52  0.2352941176      0.2352941176       0.000000000      0.1221249746E-02     234
    53  0.2941176471      0.2352941176       0.000000000      0.4884998982E-02     234
    54  0.3529411765      0.2352941176       0.000000000      0.4884998982E-02     227
    55  0.4117647059      0.2352941176       0.000000000      0.4884998982E-02     227
    56  0.4705882353      0.2352941176       0.000000000      0.4884998982E-02     224
    57  0.5294117647      0.2352941176       0.000000000      0.4884998982E-02     228
    58  0.5882352941      0.2352941176       0.000000000      0.4884998982E-02     225
    59  0.6470588235      0.2352941176       0.000000000      0.4884998982E-02     229
    60  0.7058823529      0.2352941176       0.000000000      0.4884998982E-02     228
    61  0.7647058824      0.2352941176       0.000000000      0.2442499491E-02     230
    62  0.2941176471      0.2941176471       0.000000000      0.1221249746E-02     234
    63  0.3529411765      0.2941176471       0.000000000      0.4884998982E-02     229
    64  0.4117647059      0.2941176471       0.000000000      0.4884998982E-02     231
    65  0.4705882353      0.2941176471       0.000000000      0.4884998982E-02     227
    66  0.5294117647      0.2941176471       0.000000000      0.4884998982E-02     225
    67  0.5882352941      0.2941176471       0.000000000      0.4884998982E-02     225
    68  0.6470588235      0.2941176471       0.000000000      0.4884998982E-02     227
    69  0.7058823529      0.2941176471       0.000000000      0.2442499491E-02     231
    70  0.3529411765      0.3529411765       0.000000000      0.1221249746E-02     230
    71  0.4117647059      0.3529411765       0.000000000      0.4884998982E-02     227
    72  0.4705882353      0.3529411765       0.000000000      0.4884998982E-02     227
    73  0.5294117647      0.3529411765       0.000000000      0.4884998982E-02     223
    74  0.5882352941      0.3529411765       0.000000000      0.4884998982E-02     223
    75  0.6470588235      0.3529411765       0.000000000      0.2442499491E-02     225
    76  0.4117647059      0.4117647059       0.000000000      0.1221249746E-02     226
    77  0.4705882353      0.4117647059       0.000000000      0.4884998982E-02     225
    78  0.5294117647      0.4117647059       0.000000000      0.4884998982E-02     224
    79  0.5882352941      0.4117647059       0.000000000      0.2442499491E-02     223
    80  0.4705882353      0.4705882353       0.000000000      0.1221249746E-02     225
    81  0.5294117647      0.4705882353       0.000000000      0.2442499491E-02     225
    82  0.1764705882      0.1176470588      0.5882352941E-01  0.4884998982E-02     230
    83  0.2352941176      0.1176470588      0.5882352941E-01  0.9769997965E-02     231
    84  0.2941176471      0.1176470588      0.5882352941E-01  0.9769997965E-02     231
    85  0.3529411765      0.1176470588      0.5882352941E-01  0.9769997965E-02     229
    86  0.4117647059      0.1176470588      0.5882352941E-01  0.9769997965E-02     228
    87  0.4705882353      0.1176470588      0.5882352941E-01  0.9769997965E-02     228
    88  0.5294117647      0.1176470588      0.5882352941E-01  0.9769997965E-02     226
    89  0.2352941176      0.1764705882      0.5882352941E-01  0.4884998982E-02     231
    90  0.2941176471      0.1764705882      0.5882352941E-01  0.9769997965E-02     233
    91  0.3529411765      0.1764705882      0.5882352941E-01  0.9769997965E-02     231
    92  0.4117647059      0.1764705882      0.5882352941E-01  0.9769997965E-02     227
    93  0.4705882353      0.1764705882      0.5882352941E-01  0.9769997965E-02     228
    94  0.5294117647      0.1764705882      0.5882352941E-01  0.9769997965E-02     229
    95  0.5882352941      0.1764705882      0.5882352941E-01  0.9769997965E-02     228
    96  0.6470588235      0.1764705882      0.5882352941E-01  0.9769997965E-02     228
    97  0.7058823529      0.1764705882      0.5882352941E-01  0.9769997965E-02     228
    98  0.7647058824      0.1764705882      0.5882352941E-01  0.9769997965E-02     231
    99  0.8235294118      0.1764705882      0.5882352941E-01  0.9769997965E-02     230
   100  0.8823529412      0.1764705882      0.5882352941E-01  0.4884998982E-02     230
   101  0.2941176471      0.2352941176      0.5882352941E-01  0.4884998982E-02     234
   102  0.3529411765      0.2352941176      0.5882352941E-01  0.9769997965E-02     229
   103  0.4117647059      0.2352941176      0.5882352941E-01  0.9769997965E-02     228
   104  0.4705882353      0.2352941176      0.5882352941E-01  0.9769997965E-02     226
   105  0.5294117647      0.2352941176      0.5882352941E-01  0.9769997965E-02     227
   106  0.5882352941      0.2352941176      0.5882352941E-01  0.9769997965E-02     226
   107  0.6470588235      0.2352941176      0.5882352941E-01  0.9769997965E-02     226
   108  0.7058823529      0.2352941176      0.5882352941E-01  0.9769997965E-02     226
   109  0.7647058824      0.2352941176      0.5882352941E-01  0.9769997965E-02     230
   110  0.8235294118      0.2352941176      0.5882352941E-01  0.4884998982E-02     230
   111  0.3529411765      0.2941176471      0.5882352941E-01  0.4884998982E-02     233
   112  0.4117647059      0.2941176471      0.5882352941E-01  0.9769997965E-02     230
   113  0.4705882353      0.2941176471      0.5882352941E-01  0.9769997965E-02     227
   114  0.5294117647      0.2941176471      0.5882352941E-01  0.9769997965E-02     226
   115  0.5882352941      0.2941176471      0.5882352941E-01  0.9769997965E-02     225
   116  0.6470588235      0.2941176471      0.5882352941E-01  0.9769997965E-02     225
   117  0.7058823529      0.2941176471      0.5882352941E-01  0.9769997965E-02     227
   118  0.7647058824      0.2941176471      0.5882352941E-01  0.4884998982E-02     227
   119  0.4117647059      0.3529411765      0.5882352941E-01  0.4884998982E-02     229
   120  0.4705882353      0.3529411765      0.5882352941E-01  0.9769997965E-02     228
   121  0.5294117647      0.3529411765      0.5882352941E-01  0.9769997965E-02     225
   122  0.5882352941      0.3529411765      0.5882352941E-01  0.9769997965E-02     223
   123  0.6470588235      0.3529411765      0.5882352941E-01  0.9769997965E-02     226
   124  0.7058823529      0.3529411765      0.5882352941E-01  0.4884998982E-02     226
   125  0.4705882353      0.4117647059      0.5882352941E-01  0.4884998982E-02     225
   126  0.5294117647      0.4117647059      0.5882352941E-01  0.9769997965E-02     225
   127  0.5882352941      0.4117647059      0.5882352941E-01  0.9769997965E-02     223
   128  0.6470588235      0.4117647059      0.5882352941E-01  0.4884998982E-02     222
   129  0.5294117647      0.4705882353      0.5882352941E-01  0.4884998982E-02     225
   130  0.5882352941      0.4705882353      0.5882352941E-01  0.4884998982E-02     223
   131  0.3529411765      0.2352941176      0.1176470588      0.4884998982E-02     232
   132  0.4117647059      0.2352941176      0.1176470588      0.9769997965E-02     230
   133  0.4705882353      0.2352941176      0.1176470588      0.9769997965E-02     228
   134  0.5294117647      0.2352941176      0.1176470588      0.9769997965E-02     227
   135  0.5882352941      0.2352941176      0.1176470588      0.9769997965E-02     226
   136  0.4117647059      0.2941176471      0.1176470588      0.4884998982E-02     229
   137  0.4705882353      0.2941176471      0.1176470588      0.9769997965E-02     228
   138  0.5294117647      0.2941176471      0.1176470588      0.9769997965E-02     226
   139  0.5882352941      0.2941176471      0.1176470588      0.9769997965E-02     224
   140  0.6470588235      0.2941176471      0.1176470588      0.9769997965E-02     225
   141  0.7058823529      0.2941176471      0.1176470588      0.9769997965E-02     226
   142  0.7647058824      0.2941176471      0.1176470588      0.9769997965E-02     226
   143  0.8235294118      0.2941176471      0.1176470588      0.4884998982E-02     229
   144  0.4705882353      0.3529411765      0.1176470588      0.4884998982E-02     227
   145  0.5294117647      0.3529411765      0.1176470588      0.9769997965E-02     229
   146  0.5882352941      0.3529411765      0.1176470588      0.9769997965E-02     224
   147  0.6470588235      0.3529411765      0.1176470588      0.9769997965E-02     223
   148  0.7058823529      0.3529411765      0.1176470588      0.9769997965E-02     222
   149  0.7647058824      0.3529411765      0.1176470588      0.4884998982E-02     224
   150  0.5294117647      0.4117647059      0.1176470588      0.4884998982E-02     227
   151  0.5882352941      0.4117647059      0.1176470588      0.9769997965E-02     223
   152  0.6470588235      0.4117647059      0.1176470588      0.9769997965E-02     221
   153  0.7058823529      0.4117647059      0.1176470588      0.4884998982E-02     219
   154  0.5882352941      0.4705882353      0.1176470588      0.4884998982E-02     224
   155  0.6470588235      0.4705882353      0.1176470588      0.4884998982E-02     223
   156  0.5294117647      0.3529411765      0.1764705882      0.4884998982E-02     227
   157  0.5882352941      0.3529411765      0.1764705882      0.9769997965E-02     223
   158  0.6470588235      0.3529411765      0.1764705882      0.9769997965E-02     223
   159  0.5882352941      0.4117647059      0.1764705882      0.4884998982E-02     222
   160  0.6470588235      0.4117647059      0.1764705882      0.9769997965E-02     222
   161  0.7058823529      0.4117647059      0.1764705882      0.9769997965E-02     221
   162  0.7647058824      0.4117647059      0.1764705882      0.4884998982E-02     221
   163  0.6470588235      0.4705882353      0.1764705882      0.4884998982E-02     221
   164  0.7058823529      0.4705882353      0.1764705882      0.4884998982E-02     221
   165  0.7058823529      0.4705882353      0.2352941176      0.4884998982E-02     223
