 
Species :    1 (Tc), atom :    1
 APW functions :
  l =  0, energy derivative =  0 :   0.4329874541    
  l =  1, energy derivative =  0 :   0.4329874541    
  l =  2, energy derivative =  0 :   0.4329874541    
  l =  3, energy derivative =  0 :   0.4329874541    
  l =  4, energy derivative =  0 :   0.4329874541    
  l =  5, energy derivative =  0 :   0.4329874541    
  l =  6, energy derivative =  0 :   0.4329874541    
  l =  7, energy derivative =  0 :   0.4329874541    
  l =  8, energy derivative =  0 :   0.4329874541    
  l =  9, energy derivative =  0 :   0.4329874541    
  l = 10, energy derivative =  0 :   0.4329874541    
 local-orbital functions :
  l.o. =  1, l =  0, energy derivative =  0 :   0.4329874541    
  l.o. =  1, l =  0, energy derivative =  1 :   0.4329874541    
  l.o. =  2, l =  1, energy derivative =  0 :   0.4329874541    
  l.o. =  2, l =  1, energy derivative =  1 :   0.4329874541    
  l.o. =  3, l =  2, energy derivative =  0 :   0.4329874541    
  l.o. =  3, l =  2, energy derivative =  1 :   0.4329874541    
  l.o. =  4, l =  0, energy derivative =  0 :   0.4329874541    
  l.o. =  4, l =  0, energy derivative =  0 :   -1.926390053    
  l.o. =  5, l =  1, energy derivative =  0 :   0.4329874541    
  l.o. =  5, l =  1, energy derivative =  0 :  -0.8905733265    
  l.o. =  6, l =  2, energy derivative =  0 :   0.4329874541    
  l.o. =  6, l =  2, energy derivative =  0 :   0.6143733754    
  l.o. =  7, l =  3, energy derivative =  0 :   0.4329874541    
  l.o. =  7, l =  3, energy derivative =  1 :   0.4329874541    
  l.o. =  8, l =  4, energy derivative =  0 :   0.4329874541    
  l.o. =  8, l =  4, energy derivative =  1 :   0.4329874541    
  l.o. =  9, l =  5, energy derivative =  0 :   0.4329874541    
  l.o. =  9, l =  5, energy derivative =  1 :   0.4329874541    
  l.o. = 10, l =  0, energy derivative =  0 :    1.598159138    
  l.o. = 10, l =  0, energy derivative =  1 :    1.598159138    
  l.o. = 10, l =  0, energy derivative =  2 :    1.598159138    
  l.o. = 11, l =  1, energy derivative =  0 :    2.206730604    
  l.o. = 11, l =  1, energy derivative =  1 :    2.206730604    
  l.o. = 11, l =  1, energy derivative =  2 :    2.206730604    
  l.o. = 12, l =  2, energy derivative =  0 :   0.6143733754    
  l.o. = 12, l =  2, energy derivative =  1 :   0.6143733754    
  l.o. = 12, l =  2, energy derivative =  2 :   0.6143733754    
  l.o. = 13, l =  3, energy derivative =  0 :    2.068638241    
  l.o. = 13, l =  3, energy derivative =  1 :    2.068638241    
  l.o. = 13, l =  3, energy derivative =  2 :    2.068638241    
  l.o. = 14, l =  4, energy derivative =  0 :    3.825133891    
  l.o. = 14, l =  4, energy derivative =  1 :    3.825133891    
  l.o. = 14, l =  4, energy derivative =  2 :    3.825133891    
  l.o. = 15, l =  5, energy derivative =  0 :    5.508633616    
  l.o. = 15, l =  5, energy derivative =  1 :    5.508633616    
  l.o. = 15, l =  5, energy derivative =  2 :    5.508633616    
  l.o. = 16, l =  6, energy derivative =  0 :    7.319374212    
  l.o. = 16, l =  6, energy derivative =  1 :    7.319374212    
  l.o. = 16, l =  6, energy derivative =  2 :    7.319374212    
  l.o. = 17, l =  7, energy derivative =  0 :    9.294611009    
  l.o. = 17, l =  7, energy derivative =  1 :    9.294611009    
  l.o. = 17, l =  7, energy derivative =  2 :    9.294611009    
  l.o. = 18, l =  8, energy derivative =  0 :    11.44709126    
  l.o. = 18, l =  8, energy derivative =  1 :    11.44709126    
  l.o. = 18, l =  8, energy derivative =  2 :    11.44709126    
 
Species :    1 (Tc), atom :    2
 APW functions :
  l =  0, energy derivative =  0 :   0.4329874541    
  l =  1, energy derivative =  0 :   0.4329874541    
  l =  2, energy derivative =  0 :   0.4329874541    
  l =  3, energy derivative =  0 :   0.4329874541    
  l =  4, energy derivative =  0 :   0.4329874541    
  l =  5, energy derivative =  0 :   0.4329874541    
  l =  6, energy derivative =  0 :   0.4329874541    
  l =  7, energy derivative =  0 :   0.4329874541    
  l =  8, energy derivative =  0 :   0.4329874541    
  l =  9, energy derivative =  0 :   0.4329874541    
  l = 10, energy derivative =  0 :   0.4329874541    
 local-orbital functions :
  l.o. =  1, l =  0, energy derivative =  0 :   0.4329874541    
  l.o. =  1, l =  0, energy derivative =  1 :   0.4329874541    
  l.o. =  2, l =  1, energy derivative =  0 :   0.4329874541    
  l.o. =  2, l =  1, energy derivative =  1 :   0.4329874541    
  l.o. =  3, l =  2, energy derivative =  0 :   0.4329874541    
  l.o. =  3, l =  2, energy derivative =  1 :   0.4329874541    
  l.o. =  4, l =  0, energy derivative =  0 :   0.4329874541    
  l.o. =  4, l =  0, energy derivative =  0 :   -1.926390053    
  l.o. =  5, l =  1, energy derivative =  0 :   0.4329874541    
  l.o. =  5, l =  1, energy derivative =  0 :  -0.8905733265    
  l.o. =  6, l =  2, energy derivative =  0 :   0.4329874541    
  l.o. =  6, l =  2, energy derivative =  0 :   0.6143733754    
  l.o. =  7, l =  3, energy derivative =  0 :   0.4329874541    
  l.o. =  7, l =  3, energy derivative =  1 :   0.4329874541    
  l.o. =  8, l =  4, energy derivative =  0 :   0.4329874541    
  l.o. =  8, l =  4, energy derivative =  1 :   0.4329874541    
  l.o. =  9, l =  5, energy derivative =  0 :   0.4329874541    
  l.o. =  9, l =  5, energy derivative =  1 :   0.4329874541    
  l.o. = 10, l =  0, energy derivative =  0 :    1.598159138    
  l.o. = 10, l =  0, energy derivative =  1 :    1.598159138    
  l.o. = 10, l =  0, energy derivative =  2 :    1.598159138    
  l.o. = 11, l =  1, energy derivative =  0 :    2.206730604    
  l.o. = 11, l =  1, energy derivative =  1 :    2.206730604    
  l.o. = 11, l =  1, energy derivative =  2 :    2.206730604    
  l.o. = 12, l =  2, energy derivative =  0 :   0.6143733754    
  l.o. = 12, l =  2, energy derivative =  1 :   0.6143733754    
  l.o. = 12, l =  2, energy derivative =  2 :   0.6143733754    
  l.o. = 13, l =  3, energy derivative =  0 :    2.068638241    
  l.o. = 13, l =  3, energy derivative =  1 :    2.068638241    
  l.o. = 13, l =  3, energy derivative =  2 :    2.068638241    
  l.o. = 14, l =  4, energy derivative =  0 :    3.825133891    
  l.o. = 14, l =  4, energy derivative =  1 :    3.825133891    
  l.o. = 14, l =  4, energy derivative =  2 :    3.825133891    
  l.o. = 15, l =  5, energy derivative =  0 :    5.508633616    
  l.o. = 15, l =  5, energy derivative =  1 :    5.508633616    
  l.o. = 15, l =  5, energy derivative =  2 :    5.508633616    
  l.o. = 16, l =  6, energy derivative =  0 :    7.319374212    
  l.o. = 16, l =  6, energy derivative =  1 :    7.319374212    
  l.o. = 16, l =  6, energy derivative =  2 :    7.319374212    
  l.o. = 17, l =  7, energy derivative =  0 :    9.294611009    
  l.o. = 17, l =  7, energy derivative =  1 :    9.294611009    
  l.o. = 17, l =  7, energy derivative =  2 :    9.294611009    
  l.o. = 18, l =  8, energy derivative =  0 :    11.44709126    
  l.o. = 18, l =  8, energy derivative =  1 :    11.44709126    
  l.o. = 18, l =  8, energy derivative =  2 :    11.44709126    
