Solid,       Exp A0, Exp Coh E , SCAN A0, SCAN Coh. E , SCANL A0   , SCANL Coh E 
C    ,      3.553  ,   7.55    , 3.551  ,     7.55    ,    3.567    , 7.44
Si   ,      5.421  ,   4.68    , 5.429  ,     4.69    ,    5.423    , 4.60
Ge   ,      5.644  ,   3.89    , 5.668  ,     3.94    ,    5.667    , 3.82
Sn   ,      6.477  ,   3.16    , 6.540  ,     3.27    ,    6.546    , 3.25
SiC  ,      4.346  ,   6.48    , 4.351  ,     6.45    ,    4.357    , 6.31
BN   ,      3.592  ,   6.76    , 3.606  ,     6.84    ,    3.612    , 6.80
BP   ,      4.525  ,   5.14    , 4.525  ,     5.31    ,    4.530    , 5.19
AlN  ,      4.368  ,   5.85    , 4.360  ,     5.80    ,    4.364    , 5.75
AlP  ,      5.451  ,   4.32    , 5.466  ,     4.24    ,    5.449    , 4.16
AlAs ,      5.649  ,   3.82    , 5.671  ,     3.84    ,    5.659    , 3.71
GaN  ,      4.520  ,   4.55    , 4.505  ,     4.41    ,    4.513    , 4.38
GaP  ,      5.439  ,   3.61    , 5.446  ,     3.62    ,    5.445    , 3.51
GaAs ,      5.640  ,   3.34    , 5.659  ,     3.29    ,    5.677    , 3.15
InP  ,      5.858  ,   3.47    , 5.892  ,     3.19    ,    5.896    , 3.10
InAs ,      6.047  ,   3.08    , 6.094  ,     2.94    ,    6.109    , 2.82
InSb ,      6.468  ,   2.81    , 6.529  ,     2.68    ,    6.528    , 2.67
LiH  ,      3.979  ,   2.49    , 3.997  ,     2.43    ,    3.969    , 2.42
LiF  ,      3.972  ,   4.46    , 3.978  ,     4.38    ,    3.979    , 4.27
LiCl ,      5.070  ,   3.59    , 5.099  ,     3.51    ,    5.086    , 3.43
NaF  ,      4.582  ,   3.97    , 4.553  ,     3.90    ,    4.574    , 3.78
NaCl ,      5.569  ,   3.34    , 5.563  ,     3.26    ,    5.542    , 3.18
MgO  ,      4.189  ,   5.20    , 4.194  ,     5.24    ,    4.205    , 5.17
Li   ,      3.443  ,   1.67    , 3.457  ,     1.56    ,    3.470    , 1.56
Na   ,      4.214  ,   1.12    , 4.193  ,     1.04    ,    4.143    , 0.99
K    ,      5.212  ,   0.94    , 5.305  ,     0.81    ,    5.238    , 0.78
Rb   ,      5.577  ,   0.86    , 5.710  ,     0.74    ,    5.626    , 0.69
Cs   ,      6.039  ,   0.81    , 6.227  ,     0.53    ,    6.090    , 0.57
Ca   ,      5.556  ,   1.87    , 5.546  ,     1.87    ,    5.476    , 1.98
Ba   ,      5.002  ,   1.91    , 5.034  ,     1.48    ,    5.027    , 1.96
Sr   ,      6.040  ,   1.73    , 6.084  ,     1.71    ,    6.040    , 1.71
Al   ,      4.018  ,   3.43    , 4.006  ,     3.57    ,    3.997    , 3.52
Fe   ,      2.853  ,   4.30    , 2.855  ,     4.60    ,    2.811    , 4.58
Co   ,      3.524  ,   4.42    , 3.505  ,     4.72    ,    3.503    , 4.41
Ni   ,      3.508  ,   4.48    , 3.460  ,     5.30    ,    3.488    , 5.51
Sc   ,      3.270  ,   3.93    , 3.271  ,     3.96    ,    3.261    , 3.87
Y    ,      3.594  ,   4.39    , 3.608  ,     4.52    ,    3.599    , 3.90
Ti   ,      2.915  ,   4.88    , 2.897  ,     4.92    ,    2.898    , 4.83
Zr   ,      3.198  ,   6.27    , 3.212  ,     5.90    ,    3.211    , 5.94
Hf   ,      3.151  ,   6.46    , 3.123  ,     6.30    ,    3.159    , 5.90
V    ,      3.021  ,   5.35    , 2.973  ,     4.70    ,    2.981    , 5.44
Nb   ,      3.294  ,   7.60    , 3.296  ,     6.37    ,    3.306    , 6.31
Ta   ,      3.299  ,   8.13    , 3.272  ,     8.69    ,    3.300    , 7.77
Mo   ,      3.141  ,   6.86    , 3.145  ,     5.80    ,    3.151    , 6.16
W    ,      3.160  ,   8.94    , 3.149  ,     8.36    ,    3.165    , 7.63
Tc   ,      2.716  ,   6.88    , 2.711  ,     6.42    ,    2.724    , 6.65
Re   ,      2.744  ,   8.05    , 2.730  ,     8.15    ,    2.761    , 7.23
Ru   ,      2.669  ,   6.77    , 2.663  ,     6.23    ,    2.681    , 6.31
Os   ,      2.699  ,   8.20    , 2.686  ,     8.50    ,    2.710    , 8.59
Rh   ,      3.794  ,   5.78    , 3.786  ,     5.22    ,    3.817    , 5.65
Ir   ,      3.831  ,   6.99    , 3.814  ,     7.08    ,    3.856    , 6.80
Pd   ,      3.876  ,   3.93    , 3.896  ,     4.16    ,    3.913    , 4.07
Pt   ,      3.913  ,   5.87    , 3.913  ,     5.53    ,    3.956    , 5.39
Cu   ,      3.595  ,   3.51    , 3.566  ,     3.86    ,    3.570    , 3.73
Ag   ,      4.062  ,   2.96    , 4.081  ,     2.76    ,    4.098    , 2.65
Au   ,      4.062  ,   3.83    , 4.086  ,     3.32    ,    4.120    , 3.28
