   5.481786937    
   8.016224268    
   8.305971121    
   6.927218624    
   4.783733025    
   2.780250097    
   1.388886441    
  0.6275234394    
  0.2784528018    
  0.1246061469    
  0.5510707572E-01
  0.2263775993E-01
  0.8176755501E-02
  0.2524118204E-02
  0.5877182466E-03
  0.5770197276E-04
  0.3724788712E-04
  0.2730686856E-04
  0.1287899158E-04
  0.7724054740E-05
  0.4232015726E-05
  0.1812978553E-05
  0.1282299763E-05
  0.3308173291E-06
  0.6821983334E-07
  0.2177966962E-07
  0.4162984624E-07
  0.1035004971E-08
