    -4786.75909111    
    -4786.75909389    
    -4786.75909329    
    -4786.75909158    
    -4786.75909230    
    -4786.75909489    
    -4786.75909172    
    -4786.75910357    
    -4786.75909291    
    -4786.75899979    
    -4786.75909224    
    -4786.75909776    
    -4786.75908475    
    -4786.75908904    
    -4786.75908002    
    -4786.75908745    
