+----------------------------+
| Elk version 8.3.15 started |
+----------------------------+
 
Date (YYYY-MM-DD) : 2022-01-30
Time (hh:mm:ss)   : 09:59:37
 
All units are atomic (Hartree, Bohr, etc.)
 
+-------------------------------------------------+
| Ground-state run starting from atomic densities |
+-------------------------------------------------+
 
Lattice vectors :
   3.980385178       3.980385178       0.000000000    
   3.980385178       0.000000000       3.980385178    
   0.000000000       3.980385178       3.980385178    
 
Reciprocal lattice vectors :
  0.7892685037      0.7892685037     -0.7892685037    
  0.7892685037     -0.7892685037      0.7892685037    
 -0.7892685037      0.7892685037      0.7892685037    
 
Unit cell volume      :    126.1261958    
Brillouin zone volume :    1.966682749    
 
Muffin-tin inner radius fraction :   0.1000000000E-01
 
Species :    1 (Ag)
 parameters loaded from : Ag.in
 name : silver
 nuclear charge    :   -47.00000000    
 electronic charge :    47.00000000    
 atomic mass :    196631.6997    
 muffin-tin radius :    2.600000000    
 number of radial points in muffin-tin :   1200
 number on inner part of muffin-tin    :    869
 atomic positions (lattice), magnetic fields (Cartesian) :
   1 :   0.00000000  0.00000000  0.00000000    0.00000000  0.00000000  0.00000000
 
Total number of atoms per unit cell :    1
 
Spin treatment :
 spin-unpolarised
 
Number of Bravais lattice symmetries :   48
Number of crystal symmetries         :   48
Crystal has inversion symmetry
Real symmetric eigensolver will be used
 
k-point grid :     17    17    17
k-point offset :    0.000000000       0.000000000       0.000000000    
k-point set is reduced with full crystal symmetry group
Total number of k-points :      165
 
Muffin-tin radius times maximum |G+k| :    8.000000000    
 using gkmax = rgkmax / 2
Maximum |G+k| for APW functions       :    4.000000000    
Maximum (1/2)|G+k|²                   :    8.000000000    
Maximum |G| for potential and density :    32.00000000    
Constant for pseudocharge density :   21
Radial integration step length :    1
 
G-vector grid sizes :     60    60    60
Number of G-vectors :    69905
 
Maximum angular momentum used for
 APW functions                      :   10
 outer part of muffin-tin           :    8
 inner part of muffin-tin           :    1
 
Total nuclear charge    :   -47.00000000    
Total core charge       :    28.00000000    
Total valence charge    :    19.00000000    
Total excess charge     :    0.000000000    
Total electronic charge :    47.00000000    
 
Effective Wigner radius, rₛ :   0.8620641997    
 
Number of empty states         :   20
Total number of valence states :   30
Total number of core states    :   28
 
Conduction state local-orbitals added automatically
Total number of local-orbitals :  126
 
Using Libxc version 05.01.05
Exchange-correlation functional :    100   493   494
 exchange: mgga_x_rscan; correlation: mgga_c_rscan
 
Smearing type :    1
 Methfessel-Paxton order 1, Phys. Rev. B 40, 3616 (1989)
Smearing width :   0.1000000000E-02
Effective electronic temperature (K) :    315.7750248    
 
Mixing type :    1
 Adaptive linear mixing
 
Kohn-Sham potential initialised from atomic data
 
+------------------------------+
| Self-consistent loop started |
+------------------------------+
 
+--------------------+
| Loop number :    1 |
+--------------------+
 
Energies :
 Fermi                       :     0.218899186915E-01
 sum of eigenvalues          :     -3214.27031311    
 electron kinetic            :      5544.52203031    
 core electron kinetic       :      5382.69156234    
 Coulomb                     :     -10759.9267166    
 Coulomb potential           :     -8556.71583967    
 nuclear-nuclear             :     -506.228823028    
 electron-nuclear            :     -11950.6799475    
 Hartree                     :      1696.98205392    
 Madelung                    :     -6481.56879679    
 xc potential                :     -202.076503745    
 exchange                    :     -149.670106867    
 correlation                 :     -2.51478269716    
 total energy                :     -5367.58957588    
 
Density of states at Fermi energy :    6.119360684    
 (states/Hartree/unit cell)
 
Estimated indirect band gap :   0.1691300722E-02
 from k-point      9 to k-point    142
Estimated direct band gap   :   0.1149045248    
 at k-point      9
 
Charges :
 core                        :    28.00000000    
 valence                     :    19.00000000    
 interstitial                :   0.9452201854    
 muffin-tins (core leakage)
  species :    1 (Ag)
   atom    1                 :    46.05477981     (  0.8911449356E-09)
 total in muffin-tins        :    46.05477981    
 total calculated charge     :    47.00019456    
 total charge                :    47.00000000    
 error                       :   0.1945580272E-03
 
Time (CPU seconds) :        13.39
 
+--------------------+
| Loop number :    2 |
+--------------------+
 
Energies :
 Fermi                       :     0.525623211788E-01
 sum of eigenvalues          :     -3209.40063135    
 electron kinetic            :      5549.50198919    
 core electron kinetic       :      5379.50298827    
 Coulomb                     :     -10755.1678980    
 Coulomb potential           :     -8557.12042850    
 nuclear-nuclear             :     -506.228823028    
 electron-nuclear            :     -11940.7577214    
 Hartree                     :      1691.81864648    
 Madelung                    :     -6476.60768375    
 xc potential                :     -201.782192046    
 exchange                    :     -149.446407710    
 correlation                 :     -2.51383874439    
 total energy                :     -5357.62615526    
 
Density of states at Fermi energy :    8.345797620    
 (states/Hartree/unit cell)
 
Estimated indirect band gap :   0.3299456960E-02
 from k-point     48 to k-point    142
Estimated direct band gap   :   0.1215693441    
 at k-point      9
 
Charges :
 core                        :    28.00000000    
 valence                     :    19.00000000    
 interstitial                :   0.9893101512    
 muffin-tins (core leakage)
  species :    1 (Ag)
   atom    1                 :    46.01068985     (  0.9643450483E-09)
 total in muffin-tins        :    46.01068985    
 total calculated charge     :    47.00020137    
 total charge                :    47.00000000    
 error                       :   0.2013730645E-03
 
Wrote STATE.OUT
 
RMS change in Kohn-Sham potential (target) :   0.6787852233     (   10.00000000    )
Absolute change in total energy (target)   :    9.963420620     (  0.1000000000E-06)
 
Time (CPU seconds) :        25.10
 
+--------------------+
| Loop number :    3 |
+--------------------+
 
Energies :
 Fermi                       :     0.925868503853E-01
 sum of eigenvalues          :     -3203.59866829    
 electron kinetic            :      5555.27076049    
 core electron kinetic       :      5376.89986614    
 Coulomb                     :     -10749.6664801    
 Coulomb potential           :     -8557.41866446    
 nuclear-nuclear             :     -506.228823028    
 electron-nuclear            :     -11929.4566496    
 Hartree                     :      1686.01899257    
 Madelung                    :     -6470.95714783    
 xc potential                :     -201.450764318    
 exchange                    :     -149.194739844    
 correlation                 :     -2.51287143287    
 total energy                :     -5346.10333084    
 
Density of states at Fermi energy :    10.57283860    
 (states/Hartree/unit cell)
 
Estimated indirect band gap :   0.3962993230E-02
 from k-point     48 to k-point     76
Estimated direct band gap   :   0.1206181572    
 at k-point     56
 
Charges :
 core                        :    28.00000000    
 valence                     :    19.00000000    
 interstitial                :    1.039095300    
 muffin-tins (core leakage)
  species :    1 (Ag)
   atom    1                 :    45.96090470     (  0.1274042205E-08)
 total in muffin-tins        :    45.96090470    
 total calculated charge     :    47.00020857    
 total charge                :    47.00000000    
 error                       :   0.2085661373E-03
 
RMS change in Kohn-Sham potential (target) :   0.5753718097     (   10.00000000    )
Absolute change in total energy (target)   :    14.01367958     (  0.1000000000E-06)
 
Time (CPU seconds) :        36.19
 
+--------------------+
| Loop number :    4 |
+--------------------+
 
Energies :
 Fermi                       :     0.132275338520    
 sum of eigenvalues          :     -3198.17385852    
 electron kinetic            :      5560.32336180    
 core electron kinetic       :      5375.09280529    
 Coulomb                     :     -10744.9182485    
 Coulomb potential           :     -8557.31435523    
 nuclear-nuclear             :     -506.228823028    
 electron-nuclear            :     -11920.0644957    
 Hartree                     :      1681.37507023    
 Madelung                    :     -6466.26107088    
 xc potential                :     -201.182865091    
 exchange                    :     -148.992202103    
 correlation                 :     -2.51213866589    
 total energy                :     -5336.09922746    
 
Density of states at Fermi energy :    8.011241930    
 (states/Hartree/unit cell)
 
Estimated indirect band gap :   0.1214055225E-02
 from k-point     76 to k-point     18
Estimated direct band gap   :   0.1116386295    
 at k-point     56
 
Charges :
 core                        :    28.00000000    
 valence                     :    19.00000000    
 interstitial                :    1.076258599    
 muffin-tins (core leakage)
  species :    1 (Ag)
   atom    1                 :    45.92374140     (  0.1737323174E-08)
 total in muffin-tins        :    45.92374140    
 total calculated charge     :    47.00021375    
 total charge                :    47.00000000    
 error                       :   0.2137548204E-03
 
Wrote STATE.OUT
 
RMS change in Kohn-Sham potential (target) :   0.4607713214     (   10.00000000    )
Absolute change in total energy (target)   :    13.50752327     (  0.1000000000E-06)
 
Time (CPU seconds) :        47.39
 
+--------------------+
| Loop number :    5 |
+--------------------+
 
Energies :
 Fermi                       :     0.170615882224    
 sum of eigenvalues          :     -3193.89750869    
 electron kinetic            :      5563.93792493    
 core electron kinetic       :      5373.95471180    
 Coulomb                     :     -10741.6884300    
 Coulomb potential           :     -8556.81332972    
 nuclear-nuclear             :     -506.228823028    
 electron-nuclear            :     -11914.1058842    
 Hartree                     :      1678.64627726    
 Madelung                    :     -6463.28176515    
 xc potential                :     -201.022103892    
 exchange                    :     -148.872046995    
 correlation                 :     -2.51168542586    
 total energy                :     -5329.13423751    
 
Density of states at Fermi energy :    27.72548564    
 (states/Hartree/unit cell)
 
Estimated indirect band gap :   0.3231273138E-02
 from k-point    108 to k-point     34
Estimated direct band gap   :   0.1084540449    
 at k-point     56
 
Charges :
 core                        :    28.00000000    
 valence                     :    19.00000000    
 interstitial                :    1.093570790    
 muffin-tins (core leakage)
  species :    1 (Ag)
   atom    1                 :    45.90642921     (  0.2391335130E-08)
 total in muffin-tins        :    45.90642921    
 total calculated charge     :    47.00021616    
 total charge                :    47.00000000    
 error                       :   0.2161592561E-03
 
RMS change in Kohn-Sham potential (target) :   0.3441307668     (   10.00000000    )
Absolute change in total energy (target)   :    10.34187077     (  0.1000000000E-06)
 
Time (CPU seconds) :        59.36
 
+--------------------+
| Loop number :    6 |
+--------------------+
 
Energies :
 Fermi                       :     0.203220488745    
 sum of eigenvalues          :     -3190.85701331    
 electron kinetic            :      5566.24918966    
 core electron kinetic       :      5373.29089488    
 Coulomb                     :     -10739.8799244    
 Coulomb potential           :     -8556.15497765    
 nuclear-nuclear             :     -506.228823028    
 electron-nuclear            :     -11911.1472250    
 Hartree                     :      1677.49612367    
 Madelung                    :     -6461.80243553    
 xc potential                :     -200.951225323    
 exchange                    :     -148.820704528    
 correlation                 :     -2.51141993101    
 total energy                :     -5324.96285915    
 
Density of states at Fermi energy :    27.72830647    
 (states/Hartree/unit cell)
 
Estimated indirect band gap :   0.3204204712E-02
 from k-point    108 to k-point     34
Estimated direct band gap   :   0.1088018358    
 at k-point     56
 
Charges :
 core                        :    28.00000000    
 valence                     :    19.00000000    
 interstitial                :    1.094512786    
 muffin-tins (core leakage)
  species :    1 (Ag)
   atom    1                 :    45.90548721     (  0.2416758349E-08)
 total in muffin-tins        :    45.90548721    
 total calculated charge     :    47.00021661    
 total charge                :    47.00000000    
 error                       :   0.2166094312E-03
 
Wrote STATE.OUT
 
RMS change in Kohn-Sham potential (target) :   0.2364547103     (   10.00000000    )
Absolute change in total energy (target)   :    6.756846050     (  0.1000000000E-06)
 
Time (CPU seconds) :        71.36
 
+--------------------+
| Loop number :    7 |
+--------------------+
 
Energies :
 Fermi                       :     0.229001124261    
 sum of eigenvalues          :     -3188.76531305    
 electron kinetic            :      5567.81883615    
 core electron kinetic       :      5373.02675494    
 Coulomb                     :     -10738.9172245    
 Coulomb potential           :     -8555.66296149    
 nuclear-nuclear             :     -506.228823028    
 electron-nuclear            :     -11909.7138414    
 Hartree                     :      1677.02543996    
 Madelung                    :     -6461.08574373    
 xc potential                :     -200.921187704    
 exchange                    :     -148.800021891    
 correlation                 :     -2.51126997144    
 total energy                :     -5322.40968019    
 
Density of states at Fermi energy :    26.98330841    
 (states/Hartree/unit cell)
 
Estimated indirect band gap :   0.3111392250E-02
 from k-point     18 to k-point     34
Estimated direct band gap   :   0.1098399720    
 at k-point     56
 
Charges :
 core                        :    28.00000000    
 valence                     :    19.00000000    
 interstitial                :    1.091543075    
 muffin-tins (core leakage)
  species :    1 (Ag)
   atom    1                 :    45.90845692     (  0.2831491486E-08)
 total in muffin-tins        :    45.90845692    
 total calculated charge     :    47.00021647    
 total charge                :    47.00000000    
 error                       :   0.2164743179E-03
 
RMS change in Kohn-Sham potential (target) :   0.1492108576     (   10.00000000    )
Absolute change in total energy (target)   :    4.242390469     (  0.1000000000E-06)
 
Time (CPU seconds) :        83.01
 
+--------------------+
| Loop number :    8 |
+--------------------+
 
Energies :
 Fermi                       :     0.247794833061    
 sum of eigenvalues          :     -3187.39280556    
 electron kinetic            :      5568.93475250    
 core electron kinetic       :      5373.05213055    
 Coulomb                     :     -10738.4249042    
 Coulomb potential           :     -8555.42154343    
 nuclear-nuclear             :     -506.228823028    
 electron-nuclear            :     -11908.9706188    
 Hartree                     :      1676.77453770    
 Madelung                    :     -6460.71413244    
 xc potential                :     -200.906014637    
 exchange                    :     -148.789932285    
 correlation                 :     -2.51119095425    
 total energy                :     -5320.79127489    
 
Density of states at Fermi energy :    25.96261938    
 (states/Hartree/unit cell)
 
Estimated indirect band gap :   0.4196981906E-03
 from k-point    108 to k-point     18
Estimated direct band gap   :   0.1094251851    
 at k-point     18
 
Charges :
 core                        :    28.00000000    
 valence                     :    19.00000000    
 interstitial                :    1.090121406    
 muffin-tins (core leakage)
  species :    1 (Ag)
   atom    1                 :    45.90987859     (  0.3090143252E-08)
 total in muffin-tins        :    45.90987859    
 total calculated charge     :    47.00021638    
 total charge                :    47.00000000    
 error                       :   0.2163773919E-03
 
Wrote STATE.OUT
 
RMS change in Kohn-Sham potential (target) :   0.8663268611E-01 (   10.00000000    )
Absolute change in total energy (target)   :    2.679002918     (  0.1000000000E-06)
 
Time (CPU seconds) :        94.29
 
+--------------------+
| Loop number :    9 |
+--------------------+
 
Energies :
 Fermi                       :     0.260199847228    
 sum of eigenvalues          :     -3186.57784615    
 electron kinetic            :      5569.67154580    
 core electron kinetic       :      5373.20230438    
 Coulomb                     :     -10738.2247963    
 Coulomb potential           :     -8555.35024247    
 nuclear-nuclear             :     -506.228823028    
 electron-nuclear            :     -11908.6417040    
 Hartree                     :      1676.64573076    
 Madelung                    :     -6460.54967503    
 xc potential                :     -200.899149482    
 exchange                    :     -148.785574047    
 correlation                 :     -2.51115617781    
 total energy                :     -5319.84998069    
 
Density of states at Fermi energy :    25.97468074    
 (states/Hartree/unit cell)
 
Estimated indirect band gap :   0.4250427354E-03
 from k-point    108 to k-point     18
Estimated direct band gap   :   0.1096300934    
 at k-point     18
 
Charges :
 core                        :    28.00000000    
 valence                     :    19.00000000    
 interstitial                :    1.089969492    
 muffin-tins (core leakage)
  species :    1 (Ag)
   atom    1                 :    45.91003051     (  0.3307583540E-08)
 total in muffin-tins        :    45.91003051    
 total calculated charge     :    47.00021635    
 total charge                :    47.00000000    
 error                       :   0.2163538870E-03
 
RMS change in Kohn-Sham potential (target) :   0.4610724726E-01 (   10.00000000    )
Absolute change in total energy (target)   :    1.611044934     (  0.1000000000E-06)
 
Time (CPU seconds) :       105.79
 
+--------------------+
| Loop number :   10 |
+--------------------+
 
Energies :
 Fermi                       :     0.267555177362    
 sum of eigenvalues          :     -3186.14602622    
 electron kinetic            :      5570.10920672    
 core electron kinetic       :      5373.35889005    
 Coulomb                     :     -10738.1785376    
 Coulomb potential           :     -8555.35829122    
 nuclear-nuclear             :     -506.228823028    
 electron-nuclear            :     -11908.5411380    
 Hartree                     :      1676.59142337    
 Madelung                    :     -6460.49939201    
 xc potential                :     -200.896941725    
 exchange                    :     -148.784365079    
 correlation                 :     -2.51114489532    
 total energy                :     -5319.36484087    
 
Density of states at Fermi energy :    26.37683441    
 (states/Hartree/unit cell)
 
Estimated indirect band gap :   0.3799751800E-03
 from k-point    108 to k-point     18
Estimated direct band gap   :   0.1096240574    
 at k-point     18
 
Charges :
 core                        :    28.00000000    
 valence                     :    19.00000000    
 interstitial                :    1.090263823    
 muffin-tins (core leakage)
  species :    1 (Ag)
   atom    1                 :    45.90973618     (  0.3471608778E-08)
 total in muffin-tins        :    45.90973618    
 total calculated charge     :    47.00021636    
 total charge                :    47.00000000    
 error                       :   0.2163617333E-03
 
Wrote STATE.OUT
 
RMS change in Kohn-Sham potential (target) :   0.2236176134E-01 (   10.00000000    )
Absolute change in total energy (target)   :   0.8879010478     (  0.1000000000E-06)
 
Time (CPU seconds) :       117.28
 
+--------------------+
| Loop number :   11 |
+--------------------+
 
Energies :
 Fermi                       :     0.271443984599    
 sum of eigenvalues          :     -3185.94151411    
 electron kinetic            :      5570.34399905    
 core electron kinetic       :      5373.47335630    
 Coulomb                     :     -10738.1888002    
 Coulomb potential           :     -8555.38895080    
 nuclear-nuclear             :     -506.228823028    
 electron-nuclear            :     -11908.5310036    
 Hartree                     :      1676.57102640    
 Madelung                    :     -6460.49432483    
 xc potential                :     -200.896562354    
 exchange                    :     -148.784310266    
 correlation                 :     -2.51114290678    
 total energy                :     -5319.14025435    
 
Density of states at Fermi energy :    26.74574785    
 (states/Hartree/unit cell)
 
Estimated indirect band gap :   0.3324788654E-03
 from k-point    108 to k-point     18
Estimated direct band gap   :   0.1095595423    
 at k-point     18
 
Charges :
 core                        :    28.00000000    
 valence                     :    19.00000000    
 interstitial                :    1.090611539    
 muffin-tins (core leakage)
  species :    1 (Ag)
   atom    1                 :    45.90938846     (  0.3562174555E-08)
 total in muffin-tins        :    45.90938846    
 total calculated charge     :    47.00021638    
 total charge                :    47.00000000    
 error                       :   0.2163803075E-03
 
RMS change in Kohn-Sham potential (target) :   0.9869001260E-02 (   10.00000000    )
Absolute change in total energy (target)   :   0.4465617810     (  0.1000000000E-06)
 
Time (CPU seconds) :       129.12
 
+--------------------+
| Loop number :   12 |
+--------------------+
 
Energies :
 Fermi                       :     0.273253496988    
 sum of eigenvalues          :     -3185.85637432    
 electron kinetic            :      5570.45598435    
 core electron kinetic       :      5373.54012782    
 Coulomb                     :     -10738.2092359    
 Coulomb potential           :     -8555.41564152    
 nuclear-nuclear             :     -506.228823028    
 electron-nuclear            :     -11908.5451841    
 Hartree                     :      1676.56477130    
 Madelung                    :     -6460.50141509    
 xc potential                :     -200.896717153    
 exchange                    :     -148.784535184    
 correlation                 :     -2.51114341233    
 total energy                :     -5319.04893010    
 
Density of states at Fermi energy :    26.95868375    
 (states/Hartree/unit cell)
 
Estimated indirect band gap :   0.3019745737E-03
 from k-point    108 to k-point     18
Estimated direct band gap   :   0.1095090393    
 at k-point     18
 
Charges :
 core                        :    28.00000000    
 valence                     :    19.00000000    
 interstitial                :    1.090841501    
 muffin-tins (core leakage)
  species :    1 (Ag)
   atom    1                 :    45.90915850     (  0.3646789537E-08)
 total in muffin-tins        :    45.90915850    
 total calculated charge     :    47.00021640    
 total charge                :    47.00000000    
 error                       :   0.2163955998E-03
 
Wrote STATE.OUT
 
RMS change in Kohn-Sham potential (target) :   0.3996681040E-02 (   10.00000000    )
Absolute change in total energy (target)   :   0.2029647033     (  0.1000000000E-06)
 
Time (CPU seconds) :       140.57
 
+--------------------+
| Loop number :   13 |
+--------------------+
 
Energies :
 Fermi                       :     0.273982372478    
 sum of eigenvalues          :     -3185.82585617    
 electron kinetic            :      5570.50354437    
 core electron kinetic       :      5373.57325396    
 Coulomb                     :     -10738.2239634    
 Coulomb potential           :     -8555.43253139    
 nuclear-nuclear             :     -506.228823028    
 electron-nuclear            :     -11908.5577493    
 Hartree                     :      1676.56260898    
 Madelung                    :     -6460.50769770    
 xc potential                :     -200.896869142    
 exchange                    :     -148.784695195    
 correlation                 :     -2.51114398924    
 total energy                :     -5319.01625821    
 
Density of states at Fermi energy :    27.06252533    
 (states/Hartree/unit cell)
 
Estimated indirect band gap :   0.2859706895E-03
 from k-point    108 to k-point     18
Estimated direct band gap   :   0.1094800316    
 at k-point     18
 
Charges :
 core                        :    28.00000000    
 valence                     :    19.00000000    
 interstitial                :    1.090965256    
 muffin-tins (core leakage)
  species :    1 (Ag)
   atom    1                 :    45.90903474     (  0.3570967522E-08)
 total in muffin-tins        :    45.90903474    
 total calculated charge     :    47.00021641    
 total charge                :    47.00000000    
 error                       :   0.2164058103E-03
 
RMS change in Kohn-Sham potential (target) :   0.1523307838E-02 (   10.00000000    )
Absolute change in total energy (target)   :   0.8341306047E-01 (  0.1000000000E-06)
 
Time (CPU seconds) :       152.16
 
+--------------------+
| Loop number :   14 |
+--------------------+
 
Energies :
 Fermi                       :     0.274229126355    
 sum of eigenvalues          :     -3185.81735898    
 electron kinetic            :      5570.52085309    
 core electron kinetic       :      5373.58710070    
 Coulomb                     :     -10738.2323304    
 Coulomb potential           :     -8555.44123624    
 nuclear-nuclear             :     -506.228823028    
 electron-nuclear            :     -11908.5657784    
 Hartree                     :      1676.56227110    
 Madelung                    :     -6460.51171225    
 xc potential                :     -200.896975824    
 exchange                    :     -148.784793128    
 correlation                 :     -2.51114430156    
 total energy                :     -5319.00741471    
 
Density of states at Fermi energy :    27.10114793    
 (states/Hartree/unit cell)
 
Estimated indirect band gap :   0.2798036619E-03
 from k-point    108 to k-point     18
Estimated direct band gap   :   0.1094690032    
 at k-point     18
 
Charges :
 core                        :    28.00000000    
 valence                     :    19.00000000    
 interstitial                :    1.091013105    
 muffin-tins (core leakage)
  species :    1 (Ag)
   atom    1                 :    45.90898689     (  0.3669587301E-08)
 total in muffin-tins        :    45.90898689    
 total calculated charge     :    47.00021641    
 total charge                :    47.00000000    
 error                       :   0.2164101977E-03
 
Wrote STATE.OUT
 
RMS change in Kohn-Sham potential (target) :   0.6480022429E-03 (   10.00000000    )
Absolute change in total energy (target)   :   0.2969676240E-01 (  0.1000000000E-06)
 
Time (CPU seconds) :       163.49
 
+--------------------+
| Loop number :   15 |
+--------------------+
 
Energies :
 Fermi                       :     0.274297031664    
 sum of eigenvalues          :     -3185.81573700    
 electron kinetic            :      5570.52665179    
 core electron kinetic       :      5373.59250304    
 Coulomb                     :     -10738.2360333    
 Coulomb potential           :     -8555.44538611    
 nuclear-nuclear             :     -506.228823028    
 electron-nuclear            :     -11908.5690343    
 Hartree                     :      1676.56182411    
 Madelung                    :     -6460.51334020    
 xc potential                :     -200.897002678    
 exchange                    :     -148.784818648    
 correlation                 :     -2.51114438712    
 total energy                :     -5319.00534450    
 
Density of states at Fermi energy :    27.11795669    
 (states/Hartree/unit cell)
 
Estimated indirect band gap :   0.3093773014E-02
 from k-point     18 to k-point     34
Estimated direct band gap   :   0.1105942680    
 at k-point     56
 
Charges :
 core                        :    28.00000000    
 valence                     :    19.00000000    
 interstitial                :    1.091035590    
 muffin-tins (core leakage)
  species :    1 (Ag)
   atom    1                 :    45.90896441     (  0.3589434527E-08)
 total in muffin-tins        :    45.90896441    
 total calculated charge     :    47.00021641    
 total charge                :    47.00000000    
 error                       :   0.2164125867E-03
 
RMS change in Kohn-Sham potential (target) :   0.5362529595E-03 (   10.00000000    )
Absolute change in total energy (target)   :   0.9494407409E-02 (  0.1000000000E-06)
 
Time (CPU seconds) :       174.69
 
+--------------------+
| Loop number :   16 |
+--------------------+
 
Energies :
 Fermi                       :     0.274310052043    
 sum of eigenvalues          :     -3185.81607690    
 electron kinetic            :      5570.52786391    
 core electron kinetic       :      5373.59387710    
 Coulomb                     :     -10738.2379213    
 Coulomb potential           :     -8555.44689882    
 nuclear-nuclear             :     -506.228823028    
 electron-nuclear            :     -11908.5712977    
 Hartree                     :      1676.56219942    
 Madelung                    :     -6460.51447186    
 xc potential                :     -200.897041989    
 exchange                    :     -148.784850320    
 correlation                 :     -2.51114444357    
 total energy                :     -5319.00605212    
 
Density of states at Fermi energy :    27.11832308    
 (states/Hartree/unit cell)
 
Estimated indirect band gap :   0.3093777560E-02
 from k-point     18 to k-point     34
Estimated direct band gap   :   0.1105947985    
 at k-point     56
 
Charges :
 core                        :    28.00000000    
 valence                     :    19.00000000    
 interstitial                :    1.091035260    
 muffin-tins (core leakage)
  species :    1 (Ag)
   atom    1                 :    45.90896474     (  0.3662023573E-08)
 total in muffin-tins        :    45.90896474    
 total calculated charge     :    47.00021641    
 total charge                :    47.00000000    
 error                       :   0.2164124110E-03
 
Wrote STATE.OUT
 
RMS change in Kohn-Sham potential (target) :   0.1154371914E-03 (   10.00000000    )
Absolute change in total energy (target)   :   0.1665975874E-02 (  0.1000000000E-06)
 
Time (CPU seconds) :       185.86
 
+--------------------+
| Loop number :   17 |
+--------------------+
 
Energies :
 Fermi                       :     0.274312386329    
 sum of eigenvalues          :     -3185.81606217    
 electron kinetic            :      5570.52869160    
 core electron kinetic       :      5373.59470719    
 Coulomb                     :     -10738.2381852    
 Coulomb potential           :     -8555.44773656    
 nuclear-nuclear             :     -506.228823028    
 electron-nuclear            :     -11908.5709879    
 Hartree                     :      1676.56162566    
 Madelung                    :     -6460.51431697    
 xc potential                :     -200.897017206    
 exchange                    :     -148.784831310    
 correlation                 :     -2.51114441086    
 total energy                :     -5319.00546937    
 
Density of states at Fermi energy :    27.12489963    
 (states/Hartree/unit cell)
 
Estimated indirect band gap :   0.3094335895E-02
 from k-point     18 to k-point     34
Estimated direct band gap   :   0.1105927931    
 at k-point     56
 
Charges :
 core                        :    28.00000000    
 valence                     :    19.00000000    
 interstitial                :    1.091045079    
 muffin-tins (core leakage)
  species :    1 (Ag)
   atom    1                 :    45.90895492     (  0.3568459306E-08)
 total in muffin-tins        :    45.90895492    
 total calculated charge     :    47.00021641    
 total charge                :    47.00000000    
 error                       :   0.2164133674E-03
 
RMS change in Kohn-Sham potential (target) :   0.3371537784E-03 (   10.00000000    )
Absolute change in total energy (target)   :   0.9992519726E-03 (  0.1000000000E-06)
 
Time (CPU seconds) :       197.38
 
+--------------------+
| Loop number :   18 |
+--------------------+
 
Energies :
 Fermi                       :     0.274311770406    
 sum of eigenvalues          :     -3185.81639883    
 electron kinetic            :      5570.52840756    
 core electron kinetic       :      5373.59465834    
 Coulomb                     :     -10738.2386737    
 Coulomb potential           :     -8555.44776204    
 nuclear-nuclear             :     -506.228823028    
 electron-nuclear            :     -11908.5719394    
 Hartree                     :      1676.56208866    
 Madelung                    :     -6460.51479271    
 xc potential                :     -200.897044346    
 exchange                    :     -148.784852356    
 correlation                 :     -2.51114443232    
 total energy                :     -5319.00626295    
 
Density of states at Fermi energy :    27.12029108    
 (states/Hartree/unit cell)
 
Estimated indirect band gap :   0.3093940568E-02
 from k-point     18 to k-point     34
Estimated direct band gap   :   0.1105942931    
 at k-point     56
 
Charges :
 core                        :    28.00000000    
 valence                     :    19.00000000    
 interstitial                :    1.091038138    
 muffin-tins (core leakage)
  species :    1 (Ag)
   atom    1                 :    45.90896186     (  0.3660723280E-08)
 total in muffin-tins        :    45.90896186    
 total calculated charge     :    47.00021641    
 total charge                :    47.00000000    
 error                       :   0.2164125741E-03
 
Wrote STATE.OUT
 
RMS change in Kohn-Sham potential (target) :   0.1133965331E-03 (   10.00000000    )
Absolute change in total energy (target)   :   0.5437732652E-03 (  0.1000000000E-06)
 
Time (CPU seconds) :       208.94
 
+--------------------+
| Loop number :   19 |
+--------------------+
 
Energies :
 Fermi                       :     0.274311698882    
 sum of eigenvalues          :     -3185.81638278    
 electron kinetic            :      5570.52850028    
 core electron kinetic       :      5373.59470113    
 Coulomb                     :     -10738.2386516    
 Coulomb potential           :     -8555.44784415    
 nuclear-nuclear             :     -506.228823028    
 electron-nuclear            :     -11908.5718129    
 Hartree                     :      1676.56198438    
 Madelung                    :     -6460.51472948    
 xc potential                :     -200.897038905    
 exchange                    :     -148.784848112    
 correlation                 :     -2.51114443198    
 total energy                :     -5319.00614383    
 
Density of states at Fermi energy :    27.12161138    
 (states/Hartree/unit cell)
 
Estimated indirect band gap :   0.3094052207E-02
 from k-point     18 to k-point     34
Estimated direct band gap   :   0.1105938867    
 at k-point     56
 
Charges :
 core                        :    28.00000000    
 valence                     :    19.00000000    
 interstitial                :    1.091040066    
 muffin-tins (core leakage)
  species :    1 (Ag)
   atom    1                 :    45.90895993     (  0.3551466676E-08)
 total in muffin-tins        :    45.90895993    
 total calculated charge     :    47.00021641    
 total charge                :    47.00000000    
 error                       :   0.2164128566E-03
 
RMS change in Kohn-Sham potential (target) :   0.6575741108E-03 (   10.00000000    )
Absolute change in total energy (target)   :   0.1681741378E-04 (  0.1000000000E-06)
 
Time (CPU seconds) :       220.58
 
+--------------------+
| Loop number :   20 |
+--------------------+
 
Energies :
 Fermi                       :     0.274311648175    
 sum of eigenvalues          :     -3185.81638273    
 electron kinetic            :      5570.52851977    
 core electron kinetic       :      5373.59471091    
 Coulomb                     :     -10738.2386507    
 Coulomb potential           :     -8555.44786461    
 nuclear-nuclear             :     -506.228823028    
 electron-nuclear            :     -11908.5717908    
 Hartree                     :      1676.56196309    
 Madelung                    :     -6460.51471842    
 xc potential                :     -200.897037893    
 exchange                    :     -148.784847330    
 correlation                 :     -2.51114443186    
 total energy                :     -5319.00612272    
 
Density of states at Fermi energy :    27.12189060    
 (states/Hartree/unit cell)
 
Estimated indirect band gap :   0.3094075500E-02
 from k-point     18 to k-point     34
Estimated direct band gap   :   0.1105938066    
 at k-point     56
 
Charges :
 core                        :    28.00000000    
 valence                     :    19.00000000    
 interstitial                :    1.091040462    
 muffin-tins (core leakage)
  species :    1 (Ag)
   atom    1                 :    45.90895954     (  0.3618211508E-08)
 total in muffin-tins        :    45.90895954    
 total calculated charge     :    47.00021641    
 total charge                :    47.00000000    
 error                       :   0.2164128364E-03
 
Wrote STATE.OUT
 
RMS change in Kohn-Sham potential (target) :   0.5885997837E-04 (   10.00000000    )
Absolute change in total energy (target)   :   0.1690393765E-04 (  0.1000000000E-06)
 
Time (CPU seconds) :       232.33
 
+--------------------+
| Loop number :   21 |
+--------------------+
 
Energies :
 Fermi                       :     0.274311610114    
 sum of eigenvalues          :     -3185.81638310    
 electron kinetic            :      5570.52852235    
 core electron kinetic       :      5373.59471160    
 Coulomb                     :     -10738.2386507    
 Coulomb potential           :     -8555.44786773    
 nuclear-nuclear             :     -506.228823028    
 electron-nuclear            :     -11908.5717876    
 Hartree                     :      1676.56195995    
 Madelung                    :     -6460.51471684    
 xc potential                :     -200.897037719    
 exchange                    :     -148.784847197    
 correlation                 :     -2.51114443301    
 total energy                :     -5319.00611999    
 
Density of states at Fermi energy :    27.12195472    
 (states/Hartree/unit cell)
 
Estimated indirect band gap :   0.3094080691E-02
 from k-point     18 to k-point     34
Estimated direct band gap   :   0.1105937911    
 at k-point     56
 
Charges :
 core                        :    28.00000000    
 valence                     :    19.00000000    
 interstitial                :    1.091040546    
 muffin-tins (core leakage)
  species :    1 (Ag)
   atom    1                 :    45.90895945     (  0.3650225011E-08)
 total in muffin-tins        :    45.90895945    
 total calculated charge     :    47.00021641    
 total charge                :    47.00000000    
 error                       :   0.2164128026E-03
 
RMS change in Kohn-Sham potential (target) :   0.4165887647E-03 (   10.00000000    )
Absolute change in total energy (target)   :   0.6957136065E-05 (  0.1000000000E-06)
 
Time (CPU seconds) :       243.39
 
+--------------------+
| Loop number :   22 |
+--------------------+
 
Energies :
 Fermi                       :     0.274311578037    
 sum of eigenvalues          :     -3185.81638355    
 electron kinetic            :      5570.52852103    
 core electron kinetic       :      5373.59471073    
 Coulomb                     :     -10738.2386487    
 Coulomb potential           :     -8555.44786683    
 nuclear-nuclear             :     -506.228823028    
 electron-nuclear            :     -11908.5717845    
 Hartree                     :      1676.56195882    
 Madelung                    :     -6460.51471526    
 xc potential                :     -200.897037751    
 exchange                    :     -148.784847227    
 correlation                 :     -2.51114443284    
 total energy                :     -5319.00611931    
 
Density of states at Fermi energy :    27.12196319    
 (states/Hartree/unit cell)
 
Estimated indirect band gap :   0.3094081191E-02
 from k-point     18 to k-point     34
Estimated direct band gap   :   0.1105937923    
 at k-point     56
 
Charges :
 core                        :    28.00000000    
 valence                     :    19.00000000    
 interstitial                :    1.091040550    
 muffin-tins (core leakage)
  species :    1 (Ag)
   atom    1                 :    45.90895945     (  0.3662158576E-08)
 total in muffin-tins        :    45.90895945    
 total calculated charge     :    47.00021641    
 total charge                :    47.00000000    
 error                       :   0.2164127707E-03
 
Wrote STATE.OUT
 
RMS change in Kohn-Sham potential (target) :   0.3465831581E-03 (   10.00000000    )
Absolute change in total energy (target)   :   0.2419277735E-05 (  0.1000000000E-06)
 
Time (CPU seconds) :       254.62
 
+--------------------+
| Loop number :   23 |
+--------------------+
 
Energies :
 Fermi                       :     0.274311551375    
 sum of eigenvalues          :     -3185.81638405    
 electron kinetic            :      5570.52851933    
 core electron kinetic       :      5373.59470993    
 Coulomb                     :     -10738.2386480    
 Coulomb potential           :     -8555.44786556    
 nuclear-nuclear             :     -506.228823028    
 electron-nuclear            :     -11908.5717845    
 Hartree                     :      1676.56195945    
 Madelung                    :     -6460.51471526    
 xc potential                :     -200.897037812    
 exchange                    :     -148.784847278    
 correlation                 :     -2.51114443330    
 total energy                :     -5319.00612043    
 
Density of states at Fermi energy :    27.12196054    
 (states/Hartree/unit cell)
 
Estimated indirect band gap :   0.3094080763E-02
 from k-point     18 to k-point     34
Estimated direct band gap   :   0.1105937966    
 at k-point     56
 
Charges :
 core                        :    28.00000000    
 valence                     :    19.00000000    
 interstitial                :    1.091040539    
 muffin-tins (core leakage)
  species :    1 (Ag)
   atom    1                 :    45.90895946     (  0.3662137260E-08)
 total in muffin-tins        :    45.90895946    
 total calculated charge     :    47.00021641    
 total charge                :    47.00000000    
 error                       :   0.2164127763E-03
 
RMS change in Kohn-Sham potential (target) :   0.2472259429E-04 (   10.00000000    )
Absolute change in total energy (target)   :   0.5147912816E-06 (  0.1000000000E-06)
 
Time (CPU seconds) :       266.43
 
+--------------------+
| Loop number :   24 |
+--------------------+
 
Energies :
 Fermi                       :     0.274311530552    
 sum of eigenvalues          :     -3185.81638445    
 electron kinetic            :      5570.52851820    
 core electron kinetic       :      5373.59470960    
 Coulomb                     :     -10738.2386492    
 Coulomb potential           :     -8555.44786480    
 nuclear-nuclear             :     -506.228823028    
 electron-nuclear            :     -11908.5717876    
 Hartree                     :      1676.56196141    
 Madelung                    :     -6460.51471684    
 xc potential                :     -200.897037852    
 exchange                    :     -148.784847314    
 correlation                 :     -2.51114443284    
 total energy                :     -5319.00612278    
 
Density of states at Fermi energy :    27.12195972    
 (states/Hartree/unit cell)
 
Estimated indirect band gap :   0.3094080529E-02
 from k-point     18 to k-point     34
Estimated direct band gap   :   0.1105937996    
 at k-point     56
 
Charges :
 core                        :    28.00000000    
 valence                     :    19.00000000    
 interstitial                :    1.091040532    
 muffin-tins (core leakage)
  species :    1 (Ag)
   atom    1                 :    45.90895947     (  0.3621682509E-08)
 total in muffin-tins        :    45.90895947    
 total calculated charge     :    47.00021641    
 total charge                :    47.00000000    
 error                       :   0.2164128221E-03
 
Wrote STATE.OUT
 
RMS change in Kohn-Sham potential (target) :   0.1710883324E-03 (   10.00000000    )
Absolute change in total energy (target)   :   0.2485926416E-05 (  0.1000000000E-06)
 
Time (CPU seconds) :       277.96
 
+--------------------+
| Loop number :   25 |
+--------------------+
 
Energies :
 Fermi                       :     0.274311514950    
 sum of eigenvalues          :     -3185.81638481    
 electron kinetic            :      5570.52851738    
 core electron kinetic       :      5373.59470940    
 Coulomb                     :     -10738.2386490    
 Coulomb potential           :     -8555.44786431    
 nuclear-nuclear             :     -506.228823028    
 electron-nuclear            :     -11908.5717876    
 Hartree                     :      1676.56196166    
 Madelung                    :     -6460.51471684    
 xc potential                :     -200.897037870    
 exchange                    :     -148.784847331    
 correlation                 :     -2.51114443258    
 total energy                :     -5319.00612338    
 
Density of states at Fermi energy :    27.12196062    
 (states/Hartree/unit cell)
 
Estimated indirect band gap :   0.3094080487E-02
 from k-point     18 to k-point     34
Estimated direct band gap   :   0.1105938013    
 at k-point     56
 
Charges :
 core                        :    28.00000000    
 valence                     :    19.00000000    
 interstitial                :    1.091040529    
 muffin-tins (core leakage)
  species :    1 (Ag)
   atom    1                 :    45.90895947     (  0.3609411436E-08)
 total in muffin-tins        :    45.90895947    
 total calculated charge     :    47.00021641    
 total charge                :    47.00000000    
 error                       :   0.2164128099E-03
 
RMS change in Kohn-Sham potential (target) :   0.9370656573E-04 (   10.00000000    )
Absolute change in total energy (target)   :   0.1221039383E-05 (  0.1000000000E-06)
 
Time (CPU seconds) :       289.52
 
+--------------------+
| Loop number :   26 |
+--------------------+
 
Energies :
 Fermi                       :     0.274311503875    
 sum of eigenvalues          :     -3185.81638516    
 electron kinetic            :      5570.52851708    
 core electron kinetic       :      5373.59470959    
 Coulomb                     :     -10738.2386490    
 Coulomb potential           :     -8555.44786436    
 nuclear-nuclear             :     -506.228823028    
 electron-nuclear            :     -11908.5717876    
 Hartree                     :      1676.56196163    
 Madelung                    :     -6460.51471684    
 xc potential                :     -200.897037884    
 exchange                    :     -148.784847343    
 correlation                 :     -2.51114443264    
 total energy                :     -5319.00612372    
 
Density of states at Fermi energy :    27.12196059    
 (states/Hartree/unit cell)
 
Estimated indirect band gap :   0.3094080413E-02
 from k-point     18 to k-point     34
Estimated direct band gap   :   0.1105938025    
 at k-point     56
 
Charges :
 core                        :    28.00000000    
 valence                     :    19.00000000    
 interstitial                :    1.091040527    
 muffin-tins (core leakage)
  species :    1 (Ag)
   atom    1                 :    45.90895947     (  0.3649631708E-08)
 total in muffin-tins        :    45.90895947    
 total calculated charge     :    47.00021641    
 total charge                :    47.00000000    
 error                       :   0.2164127575E-03
 
Wrote STATE.OUT
 
RMS change in Kohn-Sham potential (target) :   0.1085403517E-03 (   10.00000000    )
Absolute change in total energy (target)   :   0.6377395039E-06 (  0.1000000000E-06)
 
Time (CPU seconds) :       300.91
 
+--------------------+
| Loop number :   27 |
+--------------------+
 
Energies :
 Fermi                       :     0.274311496268    
 sum of eigenvalues          :     -3185.81638547    
 electron kinetic            :      5570.52851666    
 core electron kinetic       :      5373.59470952    
 Coulomb                     :     -10738.2386490    
 Coulomb potential           :     -8555.44786424    
 nuclear-nuclear             :     -506.228823028    
 electron-nuclear            :     -11908.5717876    
 Hartree                     :      1676.56196169    
 Madelung                    :     -6460.51471684    
 xc potential                :     -200.897037890    
 exchange                    :     -148.784847347    
 correlation                 :     -2.51114443296    
 total energy                :     -5319.00612408    
 
Density of states at Fermi energy :    27.12196024    
 (states/Hartree/unit cell)
 
Estimated indirect band gap :   0.3094080345E-02
 from k-point     18 to k-point     34
Estimated direct band gap   :   0.1105938032    
 at k-point     56
 
Charges :
 core                        :    28.00000000    
 valence                     :    19.00000000    
 interstitial                :    1.091040525    
 muffin-tins (core leakage)
  species :    1 (Ag)
   atom    1                 :    45.90895947     (  0.3624741396E-08)
 total in muffin-tins        :    45.90895947    
 total calculated charge     :    47.00021641    
 total charge                :    47.00000000    
 error                       :   0.2164128022E-03
 
RMS change in Kohn-Sham potential (target) :   0.7892663844E-04 (   10.00000000    )
Absolute change in total energy (target)   :   0.5214315024E-06 (  0.1000000000E-06)
 
Time (CPU seconds) :       312.07
 
+--------------------+
| Loop number :   28 |
+--------------------+
 
Energies :
 Fermi                       :     0.274311491304    
 sum of eigenvalues          :     -3185.81638570    
 electron kinetic            :      5570.52851640    
 core electron kinetic       :      5373.59470948    
 Coulomb                     :     -10738.2386489    
 Coulomb potential           :     -8555.44786421    
 nuclear-nuclear             :     -506.228823028    
 electron-nuclear            :     -11908.5717876    
 Hartree                     :      1676.56196171    
 Madelung                    :     -6460.51471684    
 xc potential                :     -200.897037892    
 exchange                    :     -148.784847349    
 correlation                 :     -2.51114443300    
 total energy                :     -5319.00612432    
 
Density of states at Fermi energy :    27.12195979    
 (states/Hartree/unit cell)
 
Estimated indirect band gap :   0.3094080286E-02
 from k-point     18 to k-point     34
Estimated direct band gap   :   0.1105938037    
 at k-point     56
 
Charges :
 core                        :    28.00000000    
 valence                     :    19.00000000    
 interstitial                :    1.091040524    
 muffin-tins (core leakage)
  species :    1 (Ag)
   atom    1                 :    45.90895948     (  0.3651596359E-08)
 total in muffin-tins        :    45.90895948    
 total calculated charge     :    47.00021641    
 total charge                :    47.00000000    
 error                       :   0.2164127761E-03
 
Wrote STATE.OUT
 
RMS change in Kohn-Sham potential (target) :   0.3773461670E-04 (   10.00000000    )
Absolute change in total energy (target)   :   0.3776676749E-06 (  0.1000000000E-06)
 
Time (CPU seconds) :       323.44
 
+--------------------+
| Loop number :   29 |
+--------------------+
 
Energies :
 Fermi                       :     0.274311488387    
 sum of eigenvalues          :     -3185.81638586    
 electron kinetic            :      5570.52851646    
 core electron kinetic       :      5373.59470969    
 Coulomb                     :     -10738.2386490    
 Coulomb potential           :     -8555.44786442    
 nuclear-nuclear             :     -506.228823028    
 electron-nuclear            :     -11908.5717876    
 Hartree                     :      1676.56196160    
 Madelung                    :     -6460.51471684    
 xc potential                :     -200.897037900    
 exchange                    :     -148.784847357    
 correlation                 :     -2.51114443269    
 total energy                :     -5319.00612438    
 
Density of states at Fermi energy :    27.12195890    
 (states/Hartree/unit cell)
 
Estimated indirect band gap :   0.3094080199E-02
 from k-point     18 to k-point     34
Estimated direct band gap   :   0.1105938042    
 at k-point     56
 
Charges :
 core                        :    28.00000000    
 valence                     :    19.00000000    
 interstitial                :    1.091040523    
 muffin-tins (core leakage)
  species :    1 (Ag)
   atom    1                 :    45.90895948     (  0.3600845844E-08)
 total in muffin-tins        :    45.90895948    
 total calculated charge     :    47.00021641    
 total charge                :    47.00000000    
 error                       :   0.2164128071E-03
 
RMS change in Kohn-Sham potential (target) :   0.5627296213E-03 (   10.00000000    )
Absolute change in total energy (target)   :   0.1469425115E-06 (  0.1000000000E-06)
 
Time (CPU seconds) :       334.81
 
+--------------------+
| Loop number :   30 |
+--------------------+
 
Energies :
 Fermi                       :     0.274311486489    
 sum of eigenvalues          :     -3185.81638592    
 electron kinetic            :      5570.52851623    
 core electron kinetic       :      5373.59470949    
 Coulomb                     :     -10738.2386490    
 Coulomb potential           :     -8555.44786426    
 nuclear-nuclear             :     -506.228823028    
 electron-nuclear            :     -11908.5717876    
 Hartree                     :      1676.56196168    
 Madelung                    :     -6460.51471684    
 xc potential                :     -200.897037893    
 exchange                    :     -148.784847350    
 correlation                 :     -2.51114443311    
 total energy                :     -5319.00612453    
 
Density of states at Fermi energy :    27.12195927    
 (states/Hartree/unit cell)
 
Estimated indirect band gap :   0.3094080227E-02
 from k-point     18 to k-point     34
Estimated direct band gap   :   0.1105938041    
 at k-point     56
 
Charges :
 core                        :    28.00000000    
 valence                     :    19.00000000    
 interstitial                :    1.091040523    
 muffin-tins (core leakage)
  species :    1 (Ag)
   atom    1                 :    45.90895948     (  0.3636042578E-08)
 total in muffin-tins        :    45.90895948    
 total calculated charge     :    47.00021641    
 total charge                :    47.00000000    
 error                       :   0.2164127632E-03
 
Wrote STATE.OUT
 
RMS change in Kohn-Sham potential (target) :   0.2619880990E-04 (   10.00000000    )
Absolute change in total energy (target)   :   0.1847593012E-06 (  0.1000000000E-06)
 
Time (CPU seconds) :       346.63
 
+--------------------+
| Loop number :   31 |
+--------------------+
 
Energies :
 Fermi                       :     0.274311485588    
 sum of eigenvalues          :     -3185.81638601    
 electron kinetic            :      5570.52851613    
 core electron kinetic       :      5373.59470948    
 Coulomb                     :     -10738.2386490    
 Coulomb potential           :     -8555.44786424    
 nuclear-nuclear             :     -506.228823028    
 electron-nuclear            :     -11908.5717876    
 Hartree                     :      1676.56196169    
 Madelung                    :     -6460.51471684    
 xc potential                :     -200.897037901    
 exchange                    :     -148.784847357    
 correlation                 :     -2.51114443284    
 total energy                :     -5319.00612462    
 
Density of states at Fermi energy :    27.12195773    
 (states/Hartree/unit cell)
 
Estimated indirect band gap :   0.3094080094E-02
 from k-point     18 to k-point     34
Estimated direct band gap   :   0.1105938046    
 at k-point     56
 
Charges :
 core                        :    28.00000000    
 valence                     :    19.00000000    
 interstitial                :    1.091040521    
 muffin-tins (core leakage)
  species :    1 (Ag)
   atom    1                 :    45.90895948     (  0.3669480719E-08)
 total in muffin-tins        :    45.90895948    
 total calculated charge     :    47.00021641    
 total charge                :    47.00000000    
 error                       :   0.2164127350E-03
 
RMS change in Kohn-Sham potential (target) :   0.1572135528E-03 (   10.00000000    )
Absolute change in total energy (target)   :   0.1433181751E-06 (  0.1000000000E-06)
 
Time (CPU seconds) :       358.89
 
+--------------------+
| Loop number :   32 |
+--------------------+
 
Energies :
 Fermi                       :     0.274311485232    
 sum of eigenvalues          :     -3185.81638600    
 electron kinetic            :      5570.52851623    
 core electron kinetic       :      5373.59470953    
 Coulomb                     :     -10738.2386490    
 Coulomb potential           :     -8555.44786433    
 nuclear-nuclear             :     -506.228823028    
 electron-nuclear            :     -11908.5717876    
 Hartree                     :      1676.56196165    
 Madelung                    :     -6460.51471684    
 xc potential                :     -200.897037896    
 exchange                    :     -148.784847351    
 correlation                 :     -2.51114443354    
 total energy                :     -5319.00612456    
 
Density of states at Fermi energy :    27.12195863    
 (states/Hartree/unit cell)
 
Estimated indirect band gap :   0.3094080169E-02
 from k-point     18 to k-point     34
Estimated direct band gap   :   0.1105938043    
 at k-point     56
 
Charges :
 core                        :    28.00000000    
 valence                     :    19.00000000    
 interstitial                :    1.091040522    
 muffin-tins (core leakage)
  species :    1 (Ag)
   atom    1                 :    45.90895948     (  0.3635239665E-08)
 total in muffin-tins        :    45.90895948    
 total calculated charge     :    47.00021641    
 total charge                :    47.00000000    
 error                       :   0.2164127724E-03
 
Wrote STATE.OUT
 
RMS change in Kohn-Sham potential (target) :   0.2405017054E-03 (   10.00000000    )
Absolute change in total energy (target)   :   0.2253364073E-07 (  0.1000000000E-06)
 
Convergence targets achieved
 
Time (CPU seconds) :       370.18
 
+--------------------+
| Loop number :   33 |
+--------------------+
 
Energies :
 Fermi                       :     0.274311484935    
 sum of eigenvalues          :     -3185.81638603    
 electron kinetic            :      5570.52851616    
 core electron kinetic       :      5373.59470949    
 Coulomb                     :     -10738.2386490    
 Coulomb potential           :     -8555.44786429    
 nuclear-nuclear             :     -506.228823028    
 electron-nuclear            :     -11908.5717876    
 Hartree                     :      1676.56196167    
 Madelung                    :     -6460.51471684    
 xc potential                :     -200.897037896    
 exchange                    :     -148.784847351    
 correlation                 :     -2.51114443337    
 total energy                :     -5319.00612461    
 
Density of states at Fermi energy :    27.12195827    
 (states/Hartree/unit cell)
 
Estimated indirect band gap :   0.3094080142E-02
 from k-point     18 to k-point     34
Estimated direct band gap   :   0.1105938044    
 at k-point     56
 
Charges :
 core                        :    28.00000000    
 valence                     :    19.00000000    
 interstitial                :    1.091040522    
 muffin-tins (core leakage)
  species :    1 (Ag)
   atom    1                 :    45.90895948     (  0.3639947010E-08)
 total in muffin-tins        :    45.90895948    
 total calculated charge     :    47.00021641    
 total charge                :    47.00000000    
 error                       :   0.2164127720E-03
 
+------------------------------+
| Self-consistent loop stopped |
+------------------------------+
 
Wrote STATE.OUT
 
Timings (CPU seconds) :
 initialisation                        :         1.01
 Hamiltonian and overlap matrix set up :        72.43
 first-variational eigenvalue equation :        98.38
 charge density calculation            :        59.14
 potential calculation                 :       151.42
 total                                 :       382.37
 
+----------------------------+
| Elk version 8.3.15 stopped |
+----------------------------+
