 
Species :    1 (W), atom :    1
 n =  1, l =  0, k =  1 :   -2552.943665    
 n =  2, l =  0, k =  1 :   -439.2994602    
 n =  2, l =  1, k =  1 :   -420.4503060    
 n =  2, l =  1, k =  2 :   -370.4838313    
 n =  3, l =  0, k =  1 :   -100.5607982    
 n =  3, l =  1, k =  1 :   -92.08636234    
 n =  3, l =  1, k =  2 :   -81.27944891    
 n =  3, l =  2, k =  2 :   -66.78977008    
 n =  3, l =  2, k =  3 :   -64.44960774    
 n =  4, l =  0, k =  1 :   -20.16221297    
 n =  4, l =  1, k =  1 :   -16.62695838    
 n =  4, l =  1, k =  2 :   -14.12086321    
 n =  4, l =  2, k =  2 :   -8.265144596    
 n =  4, l =  2, k =  3 :   -7.805580504    
