 
Species :    1 (Tc), atom :    1
 APW functions :
  l =  0, energy derivative =  0 :   0.5693539292    
  l =  1, energy derivative =  0 :   0.5693539292    
  l =  2, energy derivative =  0 :   0.5693539292    
  l =  3, energy derivative =  0 :   0.5693539292    
  l =  4, energy derivative =  0 :   0.5693539292    
  l =  5, energy derivative =  0 :   0.5693539292    
  l =  6, energy derivative =  0 :   0.5693539292    
  l =  7, energy derivative =  0 :   0.5693539292    
  l =  8, energy derivative =  0 :   0.5693539292    
  l =  9, energy derivative =  0 :   0.5693539292    
  l = 10, energy derivative =  0 :   0.5693539292    
 local-orbital functions :
  l.o. =  1, l =  0, energy derivative =  0 :   0.5693539292    
  l.o. =  1, l =  0, energy derivative =  1 :   0.5693539292    
  l.o. =  2, l =  1, energy derivative =  0 :   0.5693539292    
  l.o. =  2, l =  1, energy derivative =  1 :   0.5693539292    
  l.o. =  3, l =  2, energy derivative =  0 :   0.5693539292    
  l.o. =  3, l =  2, energy derivative =  1 :   0.5693539292    
  l.o. =  4, l =  0, energy derivative =  0 :   0.5693539292    
  l.o. =  4, l =  0, energy derivative =  0 :   -1.785734546    
  l.o. =  5, l =  1, energy derivative =  0 :   0.5693539292    
  l.o. =  5, l =  1, energy derivative =  0 :  -0.7529411331    
  l.o. =  6, l =  2, energy derivative =  0 :   0.5693539292    
  l.o. =  6, l =  2, energy derivative =  0 :   0.7442051930    
  l.o. =  7, l =  3, energy derivative =  0 :   0.5693539292    
  l.o. =  7, l =  3, energy derivative =  1 :   0.5693539292    
  l.o. =  8, l =  4, energy derivative =  0 :   0.5693539292    
  l.o. =  8, l =  4, energy derivative =  1 :   0.5693539292    
  l.o. =  9, l =  5, energy derivative =  0 :   0.5693539292    
  l.o. =  9, l =  5, energy derivative =  1 :   0.5693539292    
  l.o. = 10, l =  0, energy derivative =  0 :    1.714516807    
  l.o. = 10, l =  0, energy derivative =  1 :    1.714516807    
  l.o. = 10, l =  0, energy derivative =  2 :    1.714516807    
  l.o. = 11, l =  1, energy derivative =  0 :    2.323952024    
  l.o. = 11, l =  1, energy derivative =  1 :    2.323952024    
  l.o. = 11, l =  1, energy derivative =  2 :    2.323952024    
  l.o. = 12, l =  2, energy derivative =  0 :   0.7442051930    
  l.o. = 12, l =  2, energy derivative =  1 :   0.7442051930    
  l.o. = 12, l =  2, energy derivative =  2 :   0.7442051930    
  l.o. = 13, l =  3, energy derivative =  0 :    2.190818673    
  l.o. = 13, l =  3, energy derivative =  1 :    2.190818673    
  l.o. = 13, l =  3, energy derivative =  2 :    2.190818673    
  l.o. = 14, l =  4, energy derivative =  0 :    3.938361610    
  l.o. = 14, l =  4, energy derivative =  1 :    3.938361610    
  l.o. = 14, l =  4, energy derivative =  2 :    3.938361610    
  l.o. = 15, l =  5, energy derivative =  0 :    5.617670019    
  l.o. = 15, l =  5, energy derivative =  1 :    5.617670019    
  l.o. = 15, l =  5, energy derivative =  2 :    5.617670019    
  l.o. = 16, l =  6, energy derivative =  0 :    7.425527115    
  l.o. = 16, l =  6, energy derivative =  1 :    7.425527115    
  l.o. = 16, l =  6, energy derivative =  2 :    7.425527115    
  l.o. = 17, l =  7, energy derivative =  0 :    9.398545770    
  l.o. = 17, l =  7, energy derivative =  1 :    9.398545770    
  l.o. = 17, l =  7, energy derivative =  2 :    9.398545770    
  l.o. = 18, l =  8, energy derivative =  0 :    11.54922565    
  l.o. = 18, l =  8, energy derivative =  1 :    11.54922565    
  l.o. = 18, l =  8, energy derivative =  2 :    11.54922565    
 
Species :    1 (Tc), atom :    2
 APW functions :
  l =  0, energy derivative =  0 :   0.5693539292    
  l =  1, energy derivative =  0 :   0.5693539292    
  l =  2, energy derivative =  0 :   0.5693539292    
  l =  3, energy derivative =  0 :   0.5693539292    
  l =  4, energy derivative =  0 :   0.5693539292    
  l =  5, energy derivative =  0 :   0.5693539292    
  l =  6, energy derivative =  0 :   0.5693539292    
  l =  7, energy derivative =  0 :   0.5693539292    
  l =  8, energy derivative =  0 :   0.5693539292    
  l =  9, energy derivative =  0 :   0.5693539292    
  l = 10, energy derivative =  0 :   0.5693539292    
 local-orbital functions :
  l.o. =  1, l =  0, energy derivative =  0 :   0.5693539292    
  l.o. =  1, l =  0, energy derivative =  1 :   0.5693539292    
  l.o. =  2, l =  1, energy derivative =  0 :   0.5693539292    
  l.o. =  2, l =  1, energy derivative =  1 :   0.5693539292    
  l.o. =  3, l =  2, energy derivative =  0 :   0.5693539292    
  l.o. =  3, l =  2, energy derivative =  1 :   0.5693539292    
  l.o. =  4, l =  0, energy derivative =  0 :   0.5693539292    
  l.o. =  4, l =  0, energy derivative =  0 :   -1.785734546    
  l.o. =  5, l =  1, energy derivative =  0 :   0.5693539292    
  l.o. =  5, l =  1, energy derivative =  0 :  -0.7529411331    
  l.o. =  6, l =  2, energy derivative =  0 :   0.5693539292    
  l.o. =  6, l =  2, energy derivative =  0 :   0.7442051930    
  l.o. =  7, l =  3, energy derivative =  0 :   0.5693539292    
  l.o. =  7, l =  3, energy derivative =  1 :   0.5693539292    
  l.o. =  8, l =  4, energy derivative =  0 :   0.5693539292    
  l.o. =  8, l =  4, energy derivative =  1 :   0.5693539292    
  l.o. =  9, l =  5, energy derivative =  0 :   0.5693539292    
  l.o. =  9, l =  5, energy derivative =  1 :   0.5693539292    
  l.o. = 10, l =  0, energy derivative =  0 :    1.714516807    
  l.o. = 10, l =  0, energy derivative =  1 :    1.714516807    
  l.o. = 10, l =  0, energy derivative =  2 :    1.714516807    
  l.o. = 11, l =  1, energy derivative =  0 :    2.323952024    
  l.o. = 11, l =  1, energy derivative =  1 :    2.323952024    
  l.o. = 11, l =  1, energy derivative =  2 :    2.323952024    
  l.o. = 12, l =  2, energy derivative =  0 :   0.7442051930    
  l.o. = 12, l =  2, energy derivative =  1 :   0.7442051930    
  l.o. = 12, l =  2, energy derivative =  2 :   0.7442051930    
  l.o. = 13, l =  3, energy derivative =  0 :    2.190818673    
  l.o. = 13, l =  3, energy derivative =  1 :    2.190818673    
  l.o. = 13, l =  3, energy derivative =  2 :    2.190818673    
  l.o. = 14, l =  4, energy derivative =  0 :    3.938361610    
  l.o. = 14, l =  4, energy derivative =  1 :    3.938361610    
  l.o. = 14, l =  4, energy derivative =  2 :    3.938361610    
  l.o. = 15, l =  5, energy derivative =  0 :    5.617670019    
  l.o. = 15, l =  5, energy derivative =  1 :    5.617670019    
  l.o. = 15, l =  5, energy derivative =  2 :    5.617670019    
  l.o. = 16, l =  6, energy derivative =  0 :    7.425527115    
  l.o. = 16, l =  6, energy derivative =  1 :    7.425527115    
  l.o. = 16, l =  6, energy derivative =  2 :    7.425527115    
  l.o. = 17, l =  7, energy derivative =  0 :    9.398545770    
  l.o. = 17, l =  7, energy derivative =  1 :    9.398545770    
  l.o. = 17, l =  7, energy derivative =  2 :    9.398545770    
  l.o. = 18, l =  8, energy derivative =  0 :    11.54922565    
  l.o. = 18, l =  8, energy derivative =  1 :    11.54922565    
  l.o. = 18, l =  8, energy derivative =  2 :    11.54922565    
