   39.34419194    
   38.99021131    
   40.98661007    
   45.52330947    
   48.46337487    
   49.48516504    
   49.72682229    
   49.51059077    
   49.33366003    
   49.35305924    
   49.36400592    
   49.36612243    
   49.36615471    
   49.36599589    
   49.36849004    
   49.36810613    
   49.36799489    
   49.36820832    
   49.36819943    
   49.36863330    
   49.36856848    
   49.36859800    
   49.36859704    
   49.36858048    
   49.36856462    
   49.36856798    
   49.36855199    
   49.36856716    
   49.36857545    
   49.36857992    
   49.36858532    
   49.36858484    
   49.36859736    
   49.36859478    
   49.36859668    
   49.36859915    
   49.36859828    
   49.36859986    
   49.36860057    
   49.36860115    
   49.36860106    
   49.36860109    
   49.36860114    
   49.36860129    
   49.36860106    
   49.36860108    
   49.36860140    
   49.36860170    
   49.36860186    
   49.36860192    
   49.36860162    
   49.36860164    
   49.36860159    
   49.36860190    
   49.36860305    
   49.36860269    
   49.36860214    
   49.36860200    
   49.36860186    
   49.36860221    
   49.36860181    
   49.36860188    
   49.36860197    
   49.36860162    
   49.36860170    
   49.36860175    
   49.36860187    
   49.36860184    
   49.36860182    
   49.36860189    
   49.36860175    
   49.36860173    
   49.36860127    
   49.36860180    
   49.36860158    
   49.36860169    
   49.36860185    
   49.36860218    
   49.36860220    
   49.36860218    
   49.36860220    
   49.36860215    
   49.36860224    
   49.36860188    
   49.36860164    
   49.36860115    
   49.36860105    
   49.36860081    
