  0.1622112096E-02
  0.1269433529E-01
  0.2025994327E-01
  0.1522314367E-01
  0.6639060740E-02
  0.4667112616E-02
  0.1877370692E-02
  0.6416167482E-03
  0.9587574482E-04
  0.2917709412E-04
  0.2012363984E-04
  0.6147683962E-07
  0.1619651630E-04
  0.2463968713E-05
  0.2411848072E-06
  0.1977012971E-05
  0.5072893146E-06
  0.6976240456E-06
  0.1621631327E-05
  0.5292856713E-06
  0.5745096132E-06
  0.1234172942E-06
  0.2046317604E-07
  0.3849900168E-06
  0.5362053344E-06
  0.1771882125E-06
  0.2276806299E-06
  0.2341400887E-06
  0.6820755516E-08
