    0.560415395023E-03
    0.840484804171E-03
    0.116369933312E-02
    0.313279585683E-03
    0.714702244055E-03
    0.630881090699E-03
    0.126748416479E-02
    0.127261060144E-02
    0.129543064477E-02
    0.131141644677E-02
    0.131489038271E-02
    0.131604424905E-02
    0.131615725184E-02
    0.131609070000E-02
    0.131606391540E-02
    0.131605504868E-02
    0.131603997715E-02
    0.131603357985E-02
    0.131602622213E-02
    0.131602406777E-02
    0.131601921440E-02
    0.131601784652E-02
    0.131602062444E-02
    0.131601935625E-02
    0.131601289655E-02
    0.131601386737E-02
    0.131601188666E-02
    0.131601323062E-02
    0.131601130986E-02
