  0.3205442624E-02
  0.2250113155E-01
  0.7140753021E-01
  0.4801754420E-01
  0.2044581610E-01
  0.6927033182E-02
  0.1020756694E-02
  0.5922129858E-03
  0.2967162582E-03
  0.7284557341E-04
  0.1143727059E-04
  0.9458085515E-05
  0.8678219274E-05
  0.2281000525E-04
  0.8371202057E-05
  0.1421840352E-06
  0.4361280844E-05
  0.2843251423E-05
  0.6918256986E-05
  0.1915678695E-05
  0.4306451046E-05
  0.2565984687E-05
  0.4199246177E-06
  0.1469050403E-05
  0.6697673598E-06
  0.3239274520E-06
  0.6770769687E-06
  0.3248151188E-06
  0.9005634638E-07
  0.8217739378E-07
  0.9508403309E-07
  0.4210596671E-07
  0.1149237505E-07
  0.1104563125E-06
  0.3986497177E-07
  0.2597334969E-07
  0.7094968169E-08
