   22.35635709    
   21.94483627    
   22.12106006    
   22.32132702    
   21.87937921    
   20.83104650    
   20.42696677    
   20.43764248    
   20.42639722    
   20.42400157    
   20.42290303    
   20.42336041    
   20.42333901    
   20.42333445    
   20.42364214    
   20.42371666    
   20.42372983    
   20.42379646    
   20.42375300    
   20.42368072    
   20.42374590    
   20.42375716    
   20.42376643    
   20.42377742    
   20.42377777    
   20.42377892    
   20.42377905    
   20.42378070    
   20.42377624    
   20.42378101    
   20.42378143    
   20.42378134    
   20.42378134    
   20.42378084    
   20.42378071    
   20.42378076    
   20.42378071    
   20.42378068    
   20.42378056    
   20.42378064    
   20.42378050    
   20.42378041    
   20.42378036    
   20.42378034    
   20.42378032    
   20.42378027    
   20.42378024    
   20.42378023    
   20.42378022    
   20.42378023    
   20.42378023    
   20.42378021    
   20.42378022    
   20.42378022    
   20.42378023    
   20.42378022    
   20.42378022    
   20.42378022    
