 
Species :    1 (Au), atom :    1
 APW functions :
  l =  0, energy derivative =  0 :   0.2612701235    
  l =  1, energy derivative =  0 :   0.2612701235    
  l =  2, energy derivative =  0 :   0.2612701235    
  l =  3, energy derivative =  0 :   0.2612701235    
  l =  4, energy derivative =  0 :   0.2612701235    
  l =  5, energy derivative =  0 :   0.2612701235    
  l =  6, energy derivative =  0 :   0.2612701235    
  l =  7, energy derivative =  0 :   0.2612701235    
  l =  8, energy derivative =  0 :   0.2612701235    
  l =  9, energy derivative =  0 :   0.2612701235    
  l = 10, energy derivative =  0 :   0.2612701235    
 local-orbital functions :
  l.o. =  1, l =  0, energy derivative =  0 :   0.2612701235    
  l.o. =  1, l =  0, energy derivative =  1 :   0.2612701235    
  l.o. =  2, l =  1, energy derivative =  0 :   0.2612701235    
  l.o. =  2, l =  1, energy derivative =  1 :   0.2612701235    
  l.o. =  3, l =  2, energy derivative =  0 :   0.2612701235    
  l.o. =  3, l =  2, energy derivative =  1 :   0.2612701235    
  l.o. =  4, l =  3, energy derivative =  0 :   0.2612701235    
  l.o. =  4, l =  3, energy derivative =  1 :   0.2612701235    
  l.o. =  5, l =  3, energy derivative =  0 :   0.2612701235    
  l.o. =  5, l =  3, energy derivative =  0 :   -2.500469790    
  l.o. =  6, l =  1, energy derivative =  0 :   0.2612701235    
  l.o. =  6, l =  1, energy derivative =  0 :   -1.729589788    
  l.o. =  7, l =  2, energy derivative =  0 :   0.2612701235    
  l.o. =  7, l =  2, energy derivative =  0 :   0.2649100565    
  l.o. =  8, l =  4, energy derivative =  0 :   0.2612701235    
  l.o. =  8, l =  4, energy derivative =  1 :   0.2612701235    
  l.o. =  9, l =  5, energy derivative =  0 :   0.2612701235    
  l.o. =  9, l =  5, energy derivative =  1 :   0.2612701235    
  l.o. = 10, l =  6, energy derivative =  0 :   0.2612701235    
  l.o. = 10, l =  6, energy derivative =  1 :   0.2612701235    
  l.o. = 11, l =  0, energy derivative =  0 :   0.7123098949    
  l.o. = 11, l =  0, energy derivative =  1 :   0.7123098949    
  l.o. = 11, l =  0, energy derivative =  2 :   0.7123098949    
  l.o. = 12, l =  1, energy derivative =  0 :    1.375987785    
  l.o. = 12, l =  1, energy derivative =  1 :    1.375987785    
  l.o. = 12, l =  1, energy derivative =  2 :    1.375987785    
  l.o. = 13, l =  2, energy derivative =  0 :   0.2649100565    
  l.o. = 13, l =  2, energy derivative =  1 :   0.2649100565    
  l.o. = 13, l =  2, energy derivative =  2 :   0.2649100565    
  l.o. = 14, l =  3, energy derivative =  0 :    1.873193717    
  l.o. = 14, l =  3, energy derivative =  1 :    1.873193717    
  l.o. = 14, l =  3, energy derivative =  2 :    1.873193717    
  l.o. = 15, l =  4, energy derivative =  0 :    3.149523135    
  l.o. = 15, l =  4, energy derivative =  1 :    3.149523135    
  l.o. = 15, l =  4, energy derivative =  2 :    3.149523135    
  l.o. = 16, l =  5, energy derivative =  0 :    4.595177666    
  l.o. = 16, l =  5, energy derivative =  1 :    4.595177666    
  l.o. = 16, l =  5, energy derivative =  2 :    4.595177666    
  l.o. = 17, l =  6, energy derivative =  0 :    6.122161292    
  l.o. = 17, l =  6, energy derivative =  1 :    6.122161292    
  l.o. = 17, l =  6, energy derivative =  2 :    6.122161292    
  l.o. = 18, l =  7, energy derivative =  0 :    7.782448187    
  l.o. = 18, l =  7, energy derivative =  1 :    7.782448187    
  l.o. = 18, l =  7, energy derivative =  2 :    7.782448187    
  l.o. = 19, l =  8, energy derivative =  0 :    9.590015035    
  l.o. = 19, l =  8, energy derivative =  1 :    9.590015035    
  l.o. = 19, l =  8, energy derivative =  2 :    9.590015035    
