    -9147.47005522    
    -9146.32789175    
    -9133.13108738    
    -9099.19873846    
    -9078.54653950    
    -9069.82366179    
    -9066.34155354    
    -9066.39895627    
    -9066.44344048    
    -9066.44321976    
    -9066.44199972    
    -9066.44161309    
    -9066.44152546    
    -9066.44149527    
    -9066.44151322    
    -9066.44148546    
    -9066.44131353    
    -9066.44139066    
    -9066.44137418    
    -9066.44135461    
    -9066.44137851    
    -9066.44133998    
    -9066.44131046    
    -9066.44135605    
    -9066.44135565    
    -9066.44136179    
    -9066.44136226    
    -9066.44136289    
    -9066.44136546    
    -9066.44136700    
    -9066.44136655    
    -9066.44136689    
    -9066.44136675    
    -9066.44136625    
    -9066.44136637    
    -9066.44136579    
    -9066.44136587    
    -9066.44136560    
    -9066.44136535    
    -9066.44136539    
    -9066.44136517    
    -9066.44136521    
    -9066.44136512    
    -9066.44136510    
    -9066.44136523    
    -9066.44136520    
    -9066.44136513    
