    -33694.9127112    
    -33690.0692859    
    -33677.0020379    
    -33573.9533059    
    -33494.8486231    
    -33460.8429075    
    -33447.0557375    
    -33447.3402855    
    -33447.3186124    
    -33447.3453104    
    -33447.3470433    
    -33447.3453691    
    -33447.3437563    
    -33447.3430759    
    -33447.3431574    
    -33447.3431390    
    -33447.3429684    
    -33447.3429370    
    -33447.3430162    
    -33447.3428446    
    -33447.3428583    
    -33447.3428661    
    -33447.3428635    
    -33447.3428720    
    -33447.3428499    
    -33447.3428439    
    -33447.3428418    
    -33447.3428427    
    -33447.3428573    
    -33447.3428578    
    -33447.3428550    
    -33447.3428439    
    -33447.3428443    
    -33447.3428444    
    -33447.3428440    
    -33447.3428433    
    -33447.3428430    
    -33447.3428432    
    -33447.3428529    
    -33447.3428433    
    -33447.3428429    
    -33447.3428433    
    -33447.3428434    
    -33447.3428429    
    -33447.3428432    
    -33447.3428429    
    -33447.3428433    
    -33447.3428429    
    -33447.3428433    
    -33447.3428434    
    -33447.3428529    
    -33447.3428432    
    -33447.3428429    
    -33447.3428433    
    -33447.3428429    
    -33447.3428433    
    -33447.3428434    
    -33447.3428430    
    -33447.3428434    
    -33447.3428429    
    -33447.3428433    
    -33447.3428429    
    -33447.3428433    
    -33447.3428431    
    -33447.3428435    
    -33447.3428429    
    -33447.3428432    
    -33447.3428529    
    -33447.3428433    
    -33447.3428428    
    -33447.3428432    
    -33447.3428428    
    -33447.3428430    
    -33447.3428433    
    -33447.3428428    
    -33447.3428432    
    -33447.3428430    
    -33447.3428431    
    -33447.3428434    
    -33447.3428430    
    -33447.3428433    
    -33447.3428429    
    -33447.3428427    
    -33447.3428430    
    -33447.3428434    
    -33447.3428430    
    -33447.3428431    
    -33447.3428427    
    -33447.3428432    
    -33447.3428429    
    -33447.3428433    
    -33447.3428433    
    -33447.3428430    
    -33447.3428434    
    -33447.3428429    
    -33447.3428434    
    -33447.3428435    
    -33447.3428431    
    -33447.3428434    
    -33447.3428429    
    -33447.3428433    
    -33447.3428430    
    -33447.3428431    
    -33447.3428431    
    -33447.3428432    
    -33447.3428429    
    -33447.3428433    
    -33447.3428429    
    -33447.3428433    
    -33447.3428529    
    -33447.3428431    
    -33447.3428429    
    -33447.3428433    
    -33447.3428429    
    -33447.3428432    
    -33447.3428428    
    -33447.3428433    
    -33447.3428434    
    -33447.3428429    
    -33447.3428434    
    -33447.3428430    
    -33447.3428433    
    -33447.3428430    
    -33447.3428431    
    -33447.3428429    
    -33447.3428433    
    -33447.3428528    
    -33447.3428429    
    -33447.3428430    
    -33447.3428432    
    -33447.3428434    
    -33447.3428430    
    -33447.3428431    
    -33447.3428429    
    -33447.3428433    
    -33447.3428430    
    -33447.3428431    
    -33447.3428428    
    -33447.3428433    
    -33447.3428429    
    -33447.3428432    
    -33447.3428428    
    -33447.3428432    
    -33447.3428433    
    -33447.3428431    
    -33447.3428434    
    -33447.3428529    
    -33447.3428431    
    -33447.3428428    
    -33447.3428432    
    -33447.3428430    
    -33447.3428434    
    -33447.3428434    
    -33447.3428430    
    -33447.3428432    
    -33447.3428528    
    -33447.3428434    
    -33447.3428430    
    -33447.3428434    
    -33447.3428429    
    -33447.3428432    
    -33447.3428429    
    -33447.3428432    
    -33447.3428428    
    -33447.3428432    
    -33447.3428430    
    -33447.3428433    
    -33447.3428434    
    -33447.3428529    
    -33447.3428432    
    -33447.3428429    
    -33447.3428434    
    -33447.3428430    
    -33447.3428432    
    -33447.3428428    
    -33447.3428432    
    -33447.3428428    
    -33447.3428432    
    -33447.3428435    
    -33447.3428430    
    -33447.3428434    
    -33447.3428528    
    -33447.3428432    
    -33447.3428430    
    -33447.3428434    
    -33447.3428529    
    -33447.3428431    
    -33447.3428429    
    -33447.3428430    
    -33447.3428434    
    -33447.3428426    
    -33447.3428429    
    -33447.3428433    
    -33447.3428429    
    -33447.3428431    
    -33447.3428429    
    -33447.3428432    
    -33447.3428434    
    -33447.3428431    
    -33447.3428432    
