  0.2722629419E-02
  0.4171588338E-01
  0.5606401497E-01
  0.3360796716E-01
  0.1605650333E-01
  0.5724129882E-02
  0.4310793902E-03
  0.4335846097E-03
  0.6390694525E-03
  0.1106368109E-04
  0.2138412037E-03
  0.9972132284E-04
  0.3211717558E-04
  0.3311359069E-04
  0.3908424696E-04
  0.3555853255E-05
  0.5540196071E-05
  0.7903539699E-04
  0.2152772868E-04
  0.1995014100E-04
  0.1995411367E-05
  0.3705019481E-05
  0.2560758730E-05
  0.3578388714E-06
  0.1098511348E-05
  0.1941425580E-06
  0.5203528417E-06
  0.1465305104E-06
  0.5620913726E-06
  0.3671266313E-07
  0.5411238817E-06
  0.2063879947E-06
  0.4873945727E-06
  0.3046552592E-06
  0.2340311767E-07
  0.4040739441E-06
  0.3108907549E-06
  0.9783252608E-07
  0.8431379683E-07
  0.6474874681E-07
  0.1442840585E-06
  0.1601765689E-06
  0.1123480615E-06
  0.5779293133E-07
  0.1247317414E-06
  0.4815774446E-07
  0.4530011211E-07
  0.3096829460E-07
  0.1087391865E-07
  0.7281050785E-07
  0.1110311132E-07
  0.1172229531E-06
  0.6605478120E-07
  0.1127773430E-07
  0.5747278919E-07
  0.3630157153E-07
  0.1250191417E-07
  0.2690285328E-07
  0.4048160918E-07
  0.2653905540E-07
  0.3387140168E-07
  0.1260523277E-06
  0.8445567801E-07
  0.4383218766E-07
  0.1722401066E-07
  0.4214598448E-08
