 
+----------------------------+
| Real-space lattice vectors |
+----------------------------+
 
vector a1 :    5.186963229      -2.994694617       0.000000000    
vector a2 :    0.000000000       5.989389233       0.000000000    
vector a3 :    0.000000000       0.000000000       9.878413057    
 
Stored column-wise as a matrix :
   5.186963229       0.000000000       0.000000000    
  -2.994694617       5.989389233       0.000000000    
   0.000000000       0.000000000       9.878413057    
 
Inverse of matrix :
  0.1927910332       0.000000000       0.000000000    
  0.9639551660E-01  0.1669619324       0.000000000    
   0.000000000       0.000000000      0.1012308348    
 
Unit cell volume :    306.8901070    
 
 
+----------------------------------+
| Reciprocal-space lattice vectors |
+----------------------------------+
 
vector b1 :    1.211341787       0.000000000       0.000000000    
vector b2 :   0.6056708936       1.049052760       0.000000000    
vector b3 :    0.000000000       0.000000000      0.6360520937    
 
Stored column-wise as a matrix :
   1.211341787      0.6056708936       0.000000000    
   0.000000000       1.049052760       0.000000000    
   0.000000000       0.000000000      0.6360520937    
 
Inverse of matrix :
  0.8255308376     -0.4766204514       0.000000000    
   0.000000000      0.9532409026       0.000000000    
   0.000000000       0.000000000       1.572198268    
 
Brillouin zone volume :   0.8082704778    
