 
Species :    1 (Y), atom :    1
 n =  1, l =  0, k =  1 :   -620.4722432    
 n =  2, l =  0, k =  1 :   -84.51704619    
 n =  2, l =  1, k =  1 :   -77.08889623    
 n =  2, l =  1, k =  2 :   -74.25605488    
 n =  3, l =  0, k =  1 :   -13.11036340    
 n =  3, l =  1, k =  1 :   -10.38211867    
 n =  3, l =  1, k =  2 :   -9.938785504    
 n =  3, l =  2, k =  2 :   -5.136996243    
 n =  3, l =  2, k =  3 :   -5.058190121    
 
Species :    1 (Y), atom :    2
 n =  1, l =  0, k =  1 :   -620.4722432    
 n =  2, l =  0, k =  1 :   -84.51704619    
 n =  2, l =  1, k =  1 :   -77.08889623    
 n =  2, l =  1, k =  2 :   -74.25605488    
 n =  3, l =  0, k =  1 :   -13.11036340    
 n =  3, l =  1, k =  1 :   -10.38211867    
 n =  3, l =  1, k =  2 :   -9.938785504    
 n =  3, l =  2, k =  2 :   -5.136996243    
 n =  3, l =  2, k =  3 :   -5.058190121    
