   297 : nkpt; k-point, vkl, wkpt, nmat below
     1   0.000000000       0.000000000       0.000000000      0.2035416243E-03     473
     2  0.5882352941E-01   0.000000000       0.000000000      0.1221249746E-02     474
     3  0.1176470588       0.000000000       0.000000000      0.1221249746E-02     470
     4  0.1764705882       0.000000000       0.000000000      0.1221249746E-02     468
     5  0.2352941176       0.000000000       0.000000000      0.1221249746E-02     472
     6  0.2941176471       0.000000000       0.000000000      0.1221249746E-02     474
     7  0.3529411765       0.000000000       0.000000000      0.1221249746E-02     468
     8  0.4117647059       0.000000000       0.000000000      0.1221249746E-02     468
     9  0.4705882353       0.000000000       0.000000000      0.1221249746E-02     470
    10  0.5882352941E-01  0.5882352941E-01   0.000000000      0.1221249746E-02     471
    11  0.1176470588      0.5882352941E-01   0.000000000      0.2442499491E-02     469
    12  0.1764705882      0.5882352941E-01   0.000000000      0.2442499491E-02     468
    13  0.2352941176      0.5882352941E-01   0.000000000      0.2442499491E-02     470
    14  0.2941176471      0.5882352941E-01   0.000000000      0.2442499491E-02     474
    15  0.3529411765      0.5882352941E-01   0.000000000      0.2442499491E-02     469
    16  0.4117647059      0.5882352941E-01   0.000000000      0.2442499491E-02     467
    17  0.4705882353      0.5882352941E-01   0.000000000      0.1221249746E-02     466
    18  0.1176470588      0.1176470588       0.000000000      0.1221249746E-02     469
    19  0.1764705882      0.1176470588       0.000000000      0.2442499491E-02     469
    20  0.2352941176      0.1176470588       0.000000000      0.2442499491E-02     470
    21  0.2941176471      0.1176470588       0.000000000      0.2442499491E-02     468
    22  0.3529411765      0.1176470588       0.000000000      0.2442499491E-02     469
    23  0.4117647059      0.1176470588       0.000000000      0.2442499491E-02     471
    24  0.1764705882      0.1764705882       0.000000000      0.1221249746E-02     465
    25  0.2352941176      0.1764705882       0.000000000      0.2442499491E-02     465
    26  0.2941176471      0.1764705882       0.000000000      0.2442499491E-02     466
    27  0.3529411765      0.1764705882       0.000000000      0.2442499491E-02     465
    28  0.4117647059      0.1764705882       0.000000000      0.1221249746E-02     462
    29  0.2352941176      0.2352941176       0.000000000      0.1221249746E-02     463
    30  0.2941176471      0.2352941176       0.000000000      0.2442499491E-02     464
    31  0.3529411765      0.2352941176       0.000000000      0.2442499491E-02     463
    32  0.2941176471      0.2941176471       0.000000000      0.1221249746E-02     462
    33  0.3529411765      0.2941176471       0.000000000      0.1221249746E-02     462
    34   0.000000000       0.000000000      0.5882352941E-01  0.4070832485E-03     473
    35  0.5882352941E-01   0.000000000      0.5882352941E-01  0.2442499491E-02     474
    36  0.1176470588       0.000000000      0.5882352941E-01  0.2442499491E-02     470
    37  0.1764705882       0.000000000      0.5882352941E-01  0.2442499491E-02     469
    38  0.2352941176       0.000000000      0.5882352941E-01  0.2442499491E-02     472
    39  0.2941176471       0.000000000      0.5882352941E-01  0.2442499491E-02     475
    40  0.3529411765       0.000000000      0.5882352941E-01  0.2442499491E-02     470
    41  0.4117647059       0.000000000      0.5882352941E-01  0.2442499491E-02     467
    42  0.4705882353       0.000000000      0.5882352941E-01  0.2442499491E-02     464
    43  0.5882352941E-01  0.5882352941E-01  0.5882352941E-01  0.2442499491E-02     472
    44  0.1176470588      0.5882352941E-01  0.5882352941E-01  0.4884998982E-02     469
    45  0.1764705882      0.5882352941E-01  0.5882352941E-01  0.4884998982E-02     468
    46  0.2352941176      0.5882352941E-01  0.5882352941E-01  0.4884998982E-02     471
    47  0.2941176471      0.5882352941E-01  0.5882352941E-01  0.4884998982E-02     472
    48  0.3529411765      0.5882352941E-01  0.5882352941E-01  0.4884998982E-02     469
    49  0.4117647059      0.5882352941E-01  0.5882352941E-01  0.4884998982E-02     468
    50  0.4705882353      0.5882352941E-01  0.5882352941E-01  0.2442499491E-02     468
    51  0.1176470588      0.1176470588      0.5882352941E-01  0.2442499491E-02     467
    52  0.1764705882      0.1176470588      0.5882352941E-01  0.4884998982E-02     469
    53  0.2352941176      0.1176470588      0.5882352941E-01  0.4884998982E-02     473
    54  0.2941176471      0.1176470588      0.5882352941E-01  0.4884998982E-02     469
    55  0.3529411765      0.1176470588      0.5882352941E-01  0.4884998982E-02     467
    56  0.4117647059      0.1176470588      0.5882352941E-01  0.4884998982E-02     468
    57  0.1764705882      0.1764705882      0.5882352941E-01  0.2442499491E-02     467
    58  0.2352941176      0.1764705882      0.5882352941E-01  0.4884998982E-02     467
    59  0.2941176471      0.1764705882      0.5882352941E-01  0.4884998982E-02     465
    60  0.3529411765      0.1764705882      0.5882352941E-01  0.4884998982E-02     463
    61  0.4117647059      0.1764705882      0.5882352941E-01  0.2442499491E-02     463
    62  0.2352941176      0.2352941176      0.5882352941E-01  0.2442499491E-02     466
    63  0.2941176471      0.2352941176      0.5882352941E-01  0.4884998982E-02     464
    64  0.3529411765      0.2352941176      0.5882352941E-01  0.4884998982E-02     462
    65  0.2941176471      0.2941176471      0.5882352941E-01  0.2442499491E-02     463
    66  0.3529411765      0.2941176471      0.5882352941E-01  0.2442499491E-02     465
    67   0.000000000       0.000000000      0.1176470588      0.4070832485E-03     472
    68  0.5882352941E-01   0.000000000      0.1176470588      0.2442499491E-02     469
    69  0.1176470588       0.000000000      0.1176470588      0.2442499491E-02     472
    70  0.1764705882       0.000000000      0.1176470588      0.2442499491E-02     473
    71  0.2352941176       0.000000000      0.1176470588      0.2442499491E-02     471
    72  0.2941176471       0.000000000      0.1176470588      0.2442499491E-02     471
    73  0.3529411765       0.000000000      0.1176470588      0.2442499491E-02     469
    74  0.4117647059       0.000000000      0.1176470588      0.2442499491E-02     465
    75  0.4705882353       0.000000000      0.1176470588      0.2442499491E-02     464
    76  0.5882352941E-01  0.5882352941E-01  0.1176470588      0.2442499491E-02     471
    77  0.1176470588      0.5882352941E-01  0.1176470588      0.4884998982E-02     469
    78  0.1764705882      0.5882352941E-01  0.1176470588      0.4884998982E-02     470
    79  0.2352941176      0.5882352941E-01  0.1176470588      0.4884998982E-02     473
    80  0.2941176471      0.5882352941E-01  0.1176470588      0.4884998982E-02     470
    81  0.3529411765      0.5882352941E-01  0.1176470588      0.4884998982E-02     470
    82  0.4117647059      0.5882352941E-01  0.1176470588      0.4884998982E-02     469
    83  0.4705882353      0.5882352941E-01  0.1176470588      0.2442499491E-02     467
    84  0.1176470588      0.1176470588      0.1176470588      0.2442499491E-02     470
    85  0.1764705882      0.1176470588      0.1176470588      0.4884998982E-02     468
    86  0.2352941176      0.1176470588      0.1176470588      0.4884998982E-02     468
    87  0.2941176471      0.1176470588      0.1176470588      0.4884998982E-02     467
    88  0.3529411765      0.1176470588      0.1176470588      0.4884998982E-02     469
    89  0.4117647059      0.1176470588      0.1176470588      0.4884998982E-02     468
    90  0.1764705882      0.1764705882      0.1176470588      0.2442499491E-02     470
    91  0.2352941176      0.1764705882      0.1176470588      0.4884998982E-02     469
    92  0.2941176471      0.1764705882      0.1176470588      0.4884998982E-02     466
    93  0.3529411765      0.1764705882      0.1176470588      0.4884998982E-02     467
    94  0.4117647059      0.1764705882      0.1176470588      0.2442499491E-02     465
    95  0.2352941176      0.2352941176      0.1176470588      0.2442499491E-02     464
    96  0.2941176471      0.2352941176      0.1176470588      0.4884998982E-02     464
    97  0.3529411765      0.2352941176      0.1176470588      0.4884998982E-02     463
    98  0.2941176471      0.2941176471      0.1176470588      0.2442499491E-02     463
    99  0.3529411765      0.2941176471      0.1176470588      0.2442499491E-02     463
   100   0.000000000       0.000000000      0.1764705882      0.4070832485E-03     466
   101  0.5882352941E-01   0.000000000      0.1764705882      0.2442499491E-02     467
   102  0.1176470588       0.000000000      0.1764705882      0.2442499491E-02     475
   103  0.1764705882       0.000000000      0.1764705882      0.2442499491E-02     471
   104  0.2352941176       0.000000000      0.1764705882      0.2442499491E-02     474
   105  0.2941176471       0.000000000      0.1764705882      0.2442499491E-02     474
   106  0.3529411765       0.000000000      0.1764705882      0.2442499491E-02     471
   107  0.4117647059       0.000000000      0.1764705882      0.2442499491E-02     467
   108  0.4705882353       0.000000000      0.1764705882      0.2442499491E-02     466
   109  0.5882352941E-01  0.5882352941E-01  0.1764705882      0.2442499491E-02     473
   110  0.1176470588      0.5882352941E-01  0.1764705882      0.4884998982E-02     472
   111  0.1764705882      0.5882352941E-01  0.1764705882      0.4884998982E-02     474
   112  0.2352941176      0.5882352941E-01  0.1764705882      0.4884998982E-02     475
   113  0.2941176471      0.5882352941E-01  0.1764705882      0.4884998982E-02     470
   114  0.3529411765      0.5882352941E-01  0.1764705882      0.4884998982E-02     468
   115  0.4117647059      0.5882352941E-01  0.1764705882      0.4884998982E-02     469
   116  0.4705882353      0.5882352941E-01  0.1764705882      0.2442499491E-02     466
   117  0.1176470588      0.1176470588      0.1764705882      0.2442499491E-02     471
   118  0.1764705882      0.1176470588      0.1764705882      0.4884998982E-02     470
   119  0.2352941176      0.1176470588      0.1764705882      0.4884998982E-02     467
   120  0.2941176471      0.1176470588      0.1764705882      0.4884998982E-02     469
   121  0.3529411765      0.1176470588      0.1764705882      0.4884998982E-02     469
   122  0.4117647059      0.1176470588      0.1764705882      0.4884998982E-02     466
   123  0.1764705882      0.1764705882      0.1764705882      0.2442499491E-02     470
   124  0.2352941176      0.1764705882      0.1764705882      0.4884998982E-02     469
   125  0.2941176471      0.1764705882      0.1764705882      0.4884998982E-02     465
   126  0.3529411765      0.1764705882      0.1764705882      0.4884998982E-02     468
   127  0.4117647059      0.1764705882      0.1764705882      0.2442499491E-02     469
   128  0.2352941176      0.2352941176      0.1764705882      0.2442499491E-02     466
   129  0.2941176471      0.2352941176      0.1764705882      0.4884998982E-02     463
   130  0.3529411765      0.2352941176      0.1764705882      0.4884998982E-02     464
   131  0.2941176471      0.2941176471      0.1764705882      0.2442499491E-02     463
   132  0.3529411765      0.2941176471      0.1764705882      0.2442499491E-02     462
   133   0.000000000       0.000000000      0.2352941176      0.4070832485E-03     472
   134  0.5882352941E-01   0.000000000      0.2352941176      0.2442499491E-02     471
   135  0.1176470588       0.000000000      0.2352941176      0.2442499491E-02     472
   136  0.1764705882       0.000000000      0.2352941176      0.2442499491E-02     475
   137  0.2352941176       0.000000000      0.2352941176      0.2442499491E-02     476
   138  0.2941176471       0.000000000      0.2352941176      0.2442499491E-02     475
   139  0.3529411765       0.000000000      0.2352941176      0.2442499491E-02     469
   140  0.4117647059       0.000000000      0.2352941176      0.2442499491E-02     467
   141  0.4705882353       0.000000000      0.2352941176      0.2442499491E-02     467
   142  0.5882352941E-01  0.5882352941E-01  0.2352941176      0.2442499491E-02     471
   143  0.1176470588      0.5882352941E-01  0.2352941176      0.4884998982E-02     473
   144  0.1764705882      0.5882352941E-01  0.2352941176      0.4884998982E-02     476
   145  0.2352941176      0.5882352941E-01  0.2352941176      0.4884998982E-02     475
   146  0.2941176471      0.5882352941E-01  0.2352941176      0.4884998982E-02     469
   147  0.3529411765      0.5882352941E-01  0.2352941176      0.4884998982E-02     468
   148  0.4117647059      0.5882352941E-01  0.2352941176      0.4884998982E-02     467
   149  0.4705882353      0.5882352941E-01  0.2352941176      0.2442499491E-02     466
   150  0.1176470588      0.1176470588      0.2352941176      0.2442499491E-02     475
   151  0.1764705882      0.1176470588      0.2352941176      0.4884998982E-02     473
   152  0.2352941176      0.1176470588      0.2352941176      0.4884998982E-02     468
   153  0.2941176471      0.1176470588      0.2352941176      0.4884998982E-02     468
   154  0.3529411765      0.1176470588      0.2352941176      0.4884998982E-02     467
   155  0.4117647059      0.1176470588      0.2352941176      0.4884998982E-02     466
   156  0.1764705882      0.1764705882      0.2352941176      0.2442499491E-02     472
   157  0.2352941176      0.1764705882      0.2352941176      0.4884998982E-02     466
   158  0.2941176471      0.1764705882      0.2352941176      0.4884998982E-02     467
   159  0.3529411765      0.1764705882      0.2352941176      0.4884998982E-02     468
   160  0.4117647059      0.1764705882      0.2352941176      0.2442499491E-02     468
   161  0.2352941176      0.2352941176      0.2352941176      0.2442499491E-02     466
   162  0.2941176471      0.2352941176      0.2352941176      0.4884998982E-02     464
   163  0.3529411765      0.2352941176      0.2352941176      0.4884998982E-02     465
   164  0.2941176471      0.2941176471      0.2352941176      0.2442499491E-02     463
   165  0.3529411765      0.2941176471      0.2352941176      0.2442499491E-02     462
   166   0.000000000       0.000000000      0.2941176471      0.4070832485E-03     478
   167  0.5882352941E-01   0.000000000      0.2941176471      0.2442499491E-02     472
   168  0.1176470588       0.000000000      0.2941176471      0.2442499491E-02     473
   169  0.1764705882       0.000000000      0.2941176471      0.2442499491E-02     477
   170  0.2352941176       0.000000000      0.2941176471      0.2442499491E-02     476
   171  0.2941176471       0.000000000      0.2941176471      0.2442499491E-02     473
   172  0.3529411765       0.000000000      0.2941176471      0.2442499491E-02     468
   173  0.4117647059       0.000000000      0.2941176471      0.2442499491E-02     467
   174  0.4705882353       0.000000000      0.2941176471      0.2442499491E-02     467
   175  0.5882352941E-01  0.5882352941E-01  0.2941176471      0.2442499491E-02     474
   176  0.1176470588      0.5882352941E-01  0.2941176471      0.4884998982E-02     476
   177  0.1764705882      0.5882352941E-01  0.2941176471      0.4884998982E-02     477
   178  0.2352941176      0.5882352941E-01  0.2941176471      0.4884998982E-02     473
   179  0.2941176471      0.5882352941E-01  0.2941176471      0.4884998982E-02     469
   180  0.3529411765      0.5882352941E-01  0.2941176471      0.4884998982E-02     465
   181  0.4117647059      0.5882352941E-01  0.2941176471      0.4884998982E-02     467
   182  0.4705882353      0.5882352941E-01  0.2941176471      0.2442499491E-02     468
   183  0.1176470588      0.1176470588      0.2941176471      0.2442499491E-02     475
   184  0.1764705882      0.1176470588      0.2941176471      0.4884998982E-02     474
   185  0.2352941176      0.1176470588      0.2941176471      0.4884998982E-02     472
   186  0.2941176471      0.1176470588      0.2941176471      0.4884998982E-02     468
   187  0.3529411765      0.1176470588      0.2941176471      0.4884998982E-02     466
   188  0.4117647059      0.1176470588      0.2941176471      0.4884998982E-02     467
   189  0.1764705882      0.1764705882      0.2941176471      0.2442499491E-02     470
   190  0.2352941176      0.1764705882      0.2941176471      0.4884998982E-02     465
   191  0.2941176471      0.1764705882      0.2941176471      0.4884998982E-02     466
   192  0.3529411765      0.1764705882      0.2941176471      0.4884998982E-02     466
   193  0.4117647059      0.1764705882      0.2941176471      0.2442499491E-02     470
   194  0.2352941176      0.2352941176      0.2941176471      0.2442499491E-02     466
   195  0.2941176471      0.2352941176      0.2941176471      0.4884998982E-02     467
   196  0.3529411765      0.2352941176      0.2941176471      0.4884998982E-02     464
   197  0.2941176471      0.2941176471      0.2941176471      0.2442499491E-02     467
   198  0.3529411765      0.2941176471      0.2941176471      0.2442499491E-02     465
   199   0.000000000       0.000000000      0.3529411765      0.4070832485E-03     466
   200  0.5882352941E-01   0.000000000      0.3529411765      0.2442499491E-02     472
   201  0.1176470588       0.000000000      0.3529411765      0.2442499491E-02     479
   202  0.1764705882       0.000000000      0.3529411765      0.2442499491E-02     478
   203  0.2352941176       0.000000000      0.3529411765      0.2442499491E-02     475
   204  0.2941176471       0.000000000      0.3529411765      0.2442499491E-02     473
   205  0.3529411765       0.000000000      0.3529411765      0.2442499491E-02     469
   206  0.4117647059       0.000000000      0.3529411765      0.2442499491E-02     462
   207  0.4705882353       0.000000000      0.3529411765      0.2442499491E-02     468
   208  0.5882352941E-01  0.5882352941E-01  0.3529411765      0.2442499491E-02     474
   209  0.1176470588      0.5882352941E-01  0.3529411765      0.4884998982E-02     478
   210  0.1764705882      0.5882352941E-01  0.3529411765      0.4884998982E-02     479
   211  0.2352941176      0.5882352941E-01  0.3529411765      0.4884998982E-02     474
   212  0.2941176471      0.5882352941E-01  0.3529411765      0.4884998982E-02     471
   213  0.3529411765      0.5882352941E-01  0.3529411765      0.4884998982E-02     466
   214  0.4117647059      0.5882352941E-01  0.3529411765      0.4884998982E-02     463
   215  0.4705882353      0.5882352941E-01  0.3529411765      0.2442499491E-02     465
   216  0.1176470588      0.1176470588      0.3529411765      0.2442499491E-02     479
   217  0.1764705882      0.1176470588      0.3529411765      0.4884998982E-02     475
   218  0.2352941176      0.1176470588      0.3529411765      0.4884998982E-02     471
   219  0.2941176471      0.1176470588      0.3529411765      0.4884998982E-02     466
   220  0.3529411765      0.1176470588      0.3529411765      0.4884998982E-02     467
   221  0.4117647059      0.1176470588      0.3529411765      0.4884998982E-02     465
   222  0.1764705882      0.1764705882      0.3529411765      0.2442499491E-02     471
   223  0.2352941176      0.1764705882      0.3529411765      0.4884998982E-02     466
   224  0.2941176471      0.1764705882      0.3529411765      0.4884998982E-02     465
   225  0.3529411765      0.1764705882      0.3529411765      0.4884998982E-02     467
   226  0.4117647059      0.1764705882      0.3529411765      0.2442499491E-02     466
   227  0.2352941176      0.2352941176      0.3529411765      0.2442499491E-02     466
   228  0.2941176471      0.2352941176      0.3529411765      0.4884998982E-02     467
   229  0.3529411765      0.2352941176      0.3529411765      0.4884998982E-02     464
   230  0.2941176471      0.2941176471      0.3529411765      0.2442499491E-02     466
   231  0.3529411765      0.2941176471      0.3529411765      0.2442499491E-02     467
   232   0.000000000       0.000000000      0.4117647059      0.4070832485E-03     466
   233  0.5882352941E-01   0.000000000      0.4117647059      0.2442499491E-02     472
   234  0.1176470588       0.000000000      0.4117647059      0.2442499491E-02     477
   235  0.1764705882       0.000000000      0.4117647059      0.2442499491E-02     480
   236  0.2352941176       0.000000000      0.4117647059      0.2442499491E-02     474
   237  0.2941176471       0.000000000      0.4117647059      0.2442499491E-02     471
   238  0.3529411765       0.000000000      0.4117647059      0.2442499491E-02     471
   239  0.4117647059       0.000000000      0.4117647059      0.2442499491E-02     468
   240  0.4705882353       0.000000000      0.4117647059      0.2442499491E-02     465
   241  0.5882352941E-01  0.5882352941E-01  0.4117647059      0.2442499491E-02     478
   242  0.1176470588      0.5882352941E-01  0.4117647059      0.4884998982E-02     476
   243  0.1764705882      0.5882352941E-01  0.4117647059      0.4884998982E-02     476
   244  0.2352941176      0.5882352941E-01  0.4117647059      0.4884998982E-02     476
   245  0.2941176471      0.5882352941E-01  0.4117647059      0.4884998982E-02     471
   246  0.3529411765      0.5882352941E-01  0.4117647059      0.4884998982E-02     468
   247  0.4117647059      0.5882352941E-01  0.4117647059      0.4884998982E-02     464
   248  0.4705882353      0.5882352941E-01  0.4117647059      0.2442499491E-02     464
   249  0.1176470588      0.1176470588      0.4117647059      0.2442499491E-02     478
   250  0.1764705882      0.1176470588      0.4117647059      0.4884998982E-02     477
   251  0.2352941176      0.1176470588      0.4117647059      0.4884998982E-02     474
   252  0.2941176471      0.1176470588      0.4117647059      0.4884998982E-02     466
   253  0.3529411765      0.1176470588      0.4117647059      0.4884998982E-02     466
   254  0.4117647059      0.1176470588      0.4117647059      0.4884998982E-02     465
   255  0.1764705882      0.1764705882      0.4117647059      0.2442499491E-02     473
   256  0.2352941176      0.1764705882      0.4117647059      0.4884998982E-02     468
   257  0.2941176471      0.1764705882      0.4117647059      0.4884998982E-02     463
   258  0.3529411765      0.1764705882      0.4117647059      0.4884998982E-02     467
   259  0.4117647059      0.1764705882      0.4117647059      0.2442499491E-02     466
   260  0.2352941176      0.2352941176      0.4117647059      0.2442499491E-02     468
   261  0.2941176471      0.2352941176      0.4117647059      0.4884998982E-02     466
   262  0.3529411765      0.2352941176      0.4117647059      0.4884998982E-02     465
   263  0.2941176471      0.2941176471      0.4117647059      0.2442499491E-02     465
   264  0.3529411765      0.2941176471      0.4117647059      0.2442499491E-02     468
   265   0.000000000       0.000000000      0.4705882353      0.4070832485E-03     466
   266  0.5882352941E-01   0.000000000      0.4705882353      0.2442499491E-02     470
   267  0.1176470588       0.000000000      0.4705882353      0.2442499491E-02     480
   268  0.1764705882       0.000000000      0.4705882353      0.2442499491E-02     480
   269  0.2352941176       0.000000000      0.4705882353      0.2442499491E-02     476
   270  0.2941176471       0.000000000      0.4705882353      0.2442499491E-02     470
   271  0.3529411765       0.000000000      0.4705882353      0.2442499491E-02     466
   272  0.4117647059       0.000000000      0.4705882353      0.2442499491E-02     466
   273  0.4705882353       0.000000000      0.4705882353      0.2442499491E-02     466
   274  0.5882352941E-01  0.5882352941E-01  0.4705882353      0.2442499491E-02     476
   275  0.1176470588      0.5882352941E-01  0.4705882353      0.4884998982E-02     479
   276  0.1764705882      0.5882352941E-01  0.4705882353      0.4884998982E-02     478
   277  0.2352941176      0.5882352941E-01  0.4705882353      0.4884998982E-02     476
   278  0.2941176471      0.5882352941E-01  0.4705882353      0.4884998982E-02     472
   279  0.3529411765      0.5882352941E-01  0.4705882353      0.4884998982E-02     466
   280  0.4117647059      0.5882352941E-01  0.4705882353      0.4884998982E-02     466
   281  0.4705882353      0.5882352941E-01  0.4705882353      0.2442499491E-02     466
   282  0.1176470588      0.1176470588      0.4705882353      0.2442499491E-02     476
   283  0.1764705882      0.1176470588      0.4705882353      0.4884998982E-02     475
   284  0.2352941176      0.1176470588      0.4705882353      0.4884998982E-02     472
   285  0.2941176471      0.1176470588      0.4705882353      0.4884998982E-02     469
   286  0.3529411765      0.1176470588      0.4705882353      0.4884998982E-02     466
   287  0.4117647059      0.1176470588      0.4705882353      0.4884998982E-02     463
   288  0.1764705882      0.1764705882      0.4705882353      0.2442499491E-02     474
   289  0.2352941176      0.1764705882      0.4705882353      0.4884998982E-02     470
   290  0.2941176471      0.1764705882      0.4705882353      0.4884998982E-02     464
   291  0.3529411765      0.1764705882      0.4705882353      0.4884998982E-02     465
   292  0.4117647059      0.1764705882      0.4705882353      0.2442499491E-02     462
   293  0.2352941176      0.2352941176      0.4705882353      0.2442499491E-02     470
   294  0.2941176471      0.2352941176      0.4705882353      0.4884998982E-02     463
   295  0.3529411765      0.2352941176      0.4705882353      0.4884998982E-02     465
   296  0.2941176471      0.2941176471      0.4705882353      0.2442499491E-02     465
   297  0.3529411765      0.2941176471      0.4705882353      0.2442499491E-02     468
