   5.461441570    
   2.751018912    
  0.9362826811    
  0.2448491991    
  0.5361230562E-01
  0.8196472150E-02
  0.3210511138E-02
  0.1195141820E-03
  0.4741243064E-04
  0.6339839653E-05
  0.3336193908E-05
  0.7314088187E-07
  0.3061447784E-07
  0.2643110591E-07
  0.5908875981E-07
  0.2768288461E-07
  0.4325622844E-07
  0.1831901839E-07
  0.5489665573E-08
