    -8575.82013019    
    -8575.82316507    
    -8575.86833639    
    -8575.91123183    
    -8575.93426939    
    -8575.95032824    
    -8575.96153685    
    -8575.95914534    
    -8575.95814631    
    -8575.95795278    
    -8575.95794504    
    -8575.95793025    
    -8575.95791618    
    -8575.95796722    
    -8575.95789816    
    -8575.95799054    
    -8575.95796830    
    -8575.95797863    
    -8575.95792250    
    -8575.95794358    
    -8575.95792726    
    -8575.95792174    
    -8575.95793464    
    -8575.95792117    
    -8575.95792044    
    -8575.95791346    
    -8575.95790999    
    -8575.95790937    
    -8575.95790977    
    -8575.95790628    
    -8575.95790004    
    -8575.95790116    
    -8575.95790092    
    -8575.95790060    
    -8575.95790047    
    -8575.95790097    
    -8575.95790002    
    -8575.95790039    
    -8575.95790048    
    -8575.95790027    
    -8575.95790042    
    -8575.95790054    
    -8575.95790045    
    -8575.95790047    
    -8575.95790054    
