 
Species :    1 (Y), atom :    1
 n =  1, l =  0, k =  1 :   -620.4807794    
 n =  2, l =  0, k =  1 :   -84.52562120    
 n =  2, l =  1, k =  1 :   -77.09746866    
 n =  2, l =  1, k =  2 :   -74.26462781    
 n =  3, l =  0, k =  1 :   -13.11887628    
 n =  3, l =  1, k =  1 :   -10.39063189    
 n =  3, l =  1, k =  2 :   -9.947296638    
 n =  3, l =  2, k =  2 :   -5.145513053    
 n =  3, l =  2, k =  3 :   -5.066706166    
 
Species :    1 (Y), atom :    2
 n =  1, l =  0, k =  1 :   -620.4807794    
 n =  2, l =  0, k =  1 :   -84.52562120    
 n =  2, l =  1, k =  1 :   -77.09746866    
 n =  2, l =  1, k =  2 :   -74.26462781    
 n =  3, l =  0, k =  1 :   -13.11887628    
 n =  3, l =  1, k =  1 :   -10.39063189    
 n =  3, l =  1, k =  2 :   -9.947296638    
 n =  3, l =  2, k =  2 :   -5.145513053    
 n =  3, l =  2, k =  3 :   -5.066706166    
