 
+----------------------------+
| Real-space lattice vectors |
+----------------------------+
 
vector a1 :    5.185497503      -2.993848379       0.000000000    
vector a2 :    0.000000000       5.987696758       0.000000000    
vector a3 :    0.000000000       0.000000000       10.24102044    
 
Stored column-wise as a matrix :
   5.185497503       0.000000000       0.000000000    
  -2.993848379       5.987696758       0.000000000    
   0.000000000       0.000000000       10.24102044    
 
Inverse of matrix :
  0.1928455273       0.000000000       0.000000000    
  0.9642276361E-01  0.1670091256       0.000000000    
   0.000000000       0.000000000      0.9764651933E-01
 
Unit cell volume :    317.9753544    
 
 
+----------------------------------+
| Reciprocal-space lattice vectors |
+----------------------------------+
 
vector b1 :    1.211684183       0.000000000       0.000000000    
vector b2 :   0.6058420916       1.049349284       0.000000000    
vector b3 :    0.000000000       0.000000000      0.6135311756    
 
Stored column-wise as a matrix :
   1.211684183      0.6058420916       0.000000000    
   0.000000000       1.049349284       0.000000000    
   0.000000000       0.000000000      0.6135311756    
 
Inverse of matrix :
  0.8252975600     -0.4764857683       0.000000000    
   0.000000000      0.9529715368       0.000000000    
   0.000000000       0.000000000       1.629909025    
 
Brillouin zone volume :   0.7800925765    
