    0.173139167624E-03
    0.265775026849E-04
    0.895453427767E-04
    0.169933386659E-03
    0.221567799197E-03
    0.206113996686E-03
    0.203083880509E-03
    0.199869000031E-03
    0.197856857746E-03
    0.198047568110E-03
    0.198160971021E-03
    0.198211413400E-03
    0.198325954266E-03
    0.198396112384E-03
    0.198342341659E-03
    0.198342920737E-03
    0.198377380999E-03
    0.198346456851E-03
    0.198334246814E-03
    0.198324996846E-03
    0.198314900430E-03
    0.198310037050E-03
    0.198309807687E-03
    0.198308762247E-03
    0.198308196235E-03
    0.198309030665E-03
    0.198309263460E-03
    0.198308317621E-03
    0.198308315997E-03
