 
+----------------------------+
| Real-space lattice vectors |
+----------------------------+
 
vector a1 :    4.450842479      -2.569695104       0.000000000    
vector a2 :    0.000000000       5.139390206       0.000000000    
vector a3 :    0.000000000       0.000000000       7.776664934    
 
Stored column-wise as a matrix :
   4.450842479       0.000000000       0.000000000    
  -2.569695104       5.139390206       0.000000000    
   0.000000000       0.000000000       7.776664934    
 
Inverse of matrix :
  0.2246765651       0.000000000       0.000000000    
  0.1123382826      0.1945756130       0.000000000    
   0.000000000       0.000000000      0.1285898272    
 
Unit cell volume :    177.8882260    
 
 
+----------------------------------+
| Reciprocal-space lattice vectors |
+----------------------------------+
 
vector b1 :    1.411684493       0.000000000       0.000000000    
vector b2 :   0.7058422465       1.222554633       0.000000000    
vector b3 :    0.000000000       0.000000000      0.8079537129    
 
Stored column-wise as a matrix :
   1.411684493      0.7058422465       0.000000000    
   0.000000000       1.222554633       0.000000000    
   0.000000000       0.000000000      0.8079537129    
 
Inverse of matrix :
  0.7083735815     -0.4089796780       0.000000000    
   0.000000000      0.8179593558       0.000000000    
   0.000000000       0.000000000       1.237694665    
 
Brillouin zone volume :    1.394416140    
