    -9066.50680465    
    -9066.50593440    
    -9066.48395507    
    -9066.45688788    
    -9066.45100829    
    -9066.44956888    
    -9066.44858699    
    -9066.44983913    
    -9066.44963811    
    -9066.44942891    
    -9066.44915422    
    -9066.44893463    
    -9066.44893801    
    -9066.44893841    
    -9066.44914532    
    -9066.44913556    
    -9066.44913367    
    -9066.44904653    
    -9066.44901097    
    -9066.44899327    
    -9066.44911097    
    -9066.44917693    
    -9066.44923860    
    -9066.44921761    
    -9066.44919085    
    -9066.44923765    
    -9066.44918726    
    -9066.44919773    
    -9066.44919734    
    -9066.44918724    
    -9066.44912856    
    -9066.44912314    
    -9066.44911687    
    -9066.44911278    
    -9066.44911398    
    -9066.44911363    
    -9066.44910940    
    -9066.44910629    
    -9066.44910483    
    -9066.44910197    
    -9066.44909876    
    -9066.44909758    
    -9066.44909647    
    -9066.44909558    
    -9066.44909526    
    -9066.44909417    
    -9066.44909404    
    -9066.44909351    
    -9066.44909319    
    -9066.44909347    
    -9066.44909367    
    -9066.44909377    
    -9066.44909397    
    -9066.44909398    
    -9066.44909385    
    -9066.44909391    
    -9066.44909394    
    -9066.44909407    
    -9066.44909416    
    -9066.44909414    
    -9066.44909417    
