 
scale
 1.0
 
scale1
 1.0
 
scale2
 1.0
 
scale3
 1.0
 
avec
   4.647093572      -2.683000725       0.000000000    
   0.000000000       5.366001450       0.000000000    
   0.000000000       0.000000000       8.741074201    
 
atoms
   1                                    : nspecies
'Ti.in'                                 : spfname
   2                                    : natoms; atpos, bfcmt below
    0.33333333    0.16666667    0.25000000    0.00000000  0.00000000  0.00000000
   -0.33333333   -0.16666667   -0.25000000    0.00000000  0.00000000  0.00000000
