 
scale
 1.0
 
scale1
 1.0
 
scale2
 1.0
 
scale3
 1.0
 
avec
   6.046725675      -3.491078696       0.000000000    
   0.000000000       6.982157392       0.000000000    
   0.000000000       0.000000000       11.08781307    
 
atoms
   1                                    : nspecies
'Y.in'                                  : spfname
   2                                    : natoms; atpos, bfcmt below
    0.33333333    0.16666667    0.25000000    0.00000000  0.00000000  0.00000000
   -0.33333333   -0.16666667   -0.25000000    0.00000000  0.00000000  0.00000000
