+----------------------------+
| Elk version 8.3.15 started |
+----------------------------+
 
Date (YYYY-MM-DD) : 2022-02-25
Time (hh:mm:ss)   : 03:36:26
 
All units are atomic (Hartree, Bohr, etc.)
 
+------------------------------------------+
| Ground-state run resuming from STATE.OUT |
+------------------------------------------+
 
Lattice vectors :
   5.528459124      -3.191857364       0.000000000    
   0.000000000       6.383714727       0.000000000    
   0.000000000       0.000000000       10.20811386    
 
Reciprocal lattice vectors :
   1.136516553       0.000000000       0.000000000    
  0.5682582766      0.9842522067       0.000000000    
   0.000000000       0.000000000      0.6155089364    
 
Unit cell volume      :    360.2658358    
Brillouin zone volume :   0.6885199449    
 
Muffin-tin inner radius fraction :   0.1000000000E-01
 
Species :    1 (Sc)
 parameters loaded from : Sc.in
 name : scandium
 nuclear charge    :   -21.00000000    
 electronic charge :    21.00000000    
 atomic mass :    81949.61066    
 muffin-tin radius :    2.400000000    
 number of radial points in muffin-tin :   1000
 number on inner part of muffin-tin    :    716
 atomic positions (lattice), magnetic fields (Cartesian) :
   1 :   0.33333333  0.16666667  0.25000000    0.00000000  0.00000000  0.00000000
   2 :  -0.33333333 -0.16666667 -0.25000000    0.00000000  0.00000000  0.00000000
 
Total number of atoms per unit cell :    2
 
Spin treatment :
 spin-unpolarised
 
Number of Bravais lattice symmetries :   24
Number of crystal symmetries         :   24
Crystal has inversion symmetry
Real symmetric eigensolver will be used
 
k-point grid :     17    17    17
k-point offset :    0.000000000       0.000000000       0.000000000    
k-point set is reduced with full crystal symmetry group
Total number of k-points :      297
 
Muffin-tin radius times maximum |G+k| :    8.500000000    
 using gkmax = rgkmax / 2
Maximum |G+k| for APW functions       :    4.250000000    
Maximum (1/2)|G+k|²                   :    9.031250000    
Maximum |G| for potential and density :    34.00000000    
Constant for pseudocharge density :   20
Radial integration step length :    1
 
G-vector grid sizes :     72    72   120
Number of G-vectors :   239379
 
Maximum angular momentum used for
 APW functions                      :   10
 outer part of muffin-tin           :    8
 inner part of muffin-tin           :    1
 
Total nuclear charge    :   -42.00000000    
Total core charge       :    20.00000000    
Total valence charge    :    22.00000000    
Total excess charge     :    0.000000000    
Total electronic charge :    42.00000000    
 
Effective Wigner radius, rₛ :    1.269877203    
 
Number of empty states         :   40
Total number of valence states :   52
Total number of core states    :   20
 
Conduction state local-orbitals added automatically
Total number of local-orbitals :  242
 
Using Libxc version 05.01.05
Exchange-correlation functional :    100   493   494
 exchange: mgga_x_rscan; correlation: mgga_c_rscan
 
Smearing type :    1
 Methfessel-Paxton order 1, Phys. Rev. B 40, 3616 (1989)
Smearing width :   0.1000000000E-02
Effective electronic temperature (K) :    315.7750248    
 
Mixing type :    3
 Broyden mixing, J. Phys. A: Math. Gen. 17, L317 (1984)
 
Potential read in from STATE.OUT
 
+------------------------------+
| Self-consistent loop started |
+------------------------------+
 
+--------------------+
| Loop number :    1 |
+--------------------+
 
Energies :
 Fermi                       :     0.221927713036    
 sum of eigenvalues          :     -895.623199035    
 electron kinetic            :      1546.02357933    
 core electron kinetic       :      1433.77363549    
 Coulomb                     :     -2996.26288250    
 Coulomb potential           :     -2337.56468100    
 nuclear-nuclear             :     -194.523469852    
 electron-nuclear            :     -3265.91414430    
 Hartree                     :      464.174731651    
 Madelung                    :     -1827.48054200    
 xc potential                :     -104.082097368    
 exchange                    :     -77.1765283986    
 correlation                 :     -1.76941900943    
 total energy                :     -1529.18525058    
 
Density of states at Fermi energy :    143.0276304    
 (states/Hartree/unit cell)
 
Estimated indirect band gap :   0.1556825271E-03
 from k-point      7 to k-point    173
Estimated direct band gap   :   0.8167665648E-03
 at k-point    227
 
Charges :
 core                        :    20.00000000    
 valence                     :    22.00000000    
 interstitial                :    3.959148412    
 muffin-tins (core leakage)
  species :    1 (Sc)
   atom    1                 :    19.02042579     (  0.6493632299E-08)
   atom    2                 :    19.02042579     (  0.6493632299E-08)
 total in muffin-tins        :    38.04085159    
 total calculated charge     :    41.99999644    
 total charge                :    42.00000000    
 error                       :   0.3559151665E-05
 
Time (CPU seconds) :        88.48
 
+--------------------+
| Loop number :    2 |
+--------------------+
 
Energies :
 Fermi                       :     0.221932734082    
 sum of eigenvalues          :     -895.622944565    
 electron kinetic            :      1546.02382506    
 core electron kinetic       :      1433.77321371    
 Coulomb                     :     -2996.26272504    
 Coulomb potential           :     -2337.56469729    
 nuclear-nuclear             :     -194.523469852    
 electron-nuclear            :     -3265.91381309    
 Hartree                     :      464.174557903    
 Madelung                    :     -1827.48037640    
 xc potential                :     -104.082072337    
 exchange                    :     -77.1765067936    
 correlation                 :     -1.76942111724    
 total energy                :     -1529.18482789    
 
Density of states at Fermi energy :    142.6783418    
 (states/Hartree/unit cell)
 
Estimated indirect band gap :   0.1486605917E-03
 from k-point      7 to k-point    173
Estimated direct band gap   :   0.8095608949E-03
 at k-point    227
 
Charges :
 core                        :    20.00000000    
 valence                     :    22.00000000    
 interstitial                :    3.959152697    
 muffin-tins (core leakage)
  species :    1 (Sc)
   atom    1                 :    19.02042365     (  0.6483894310E-08)
   atom    2                 :    19.02042365     (  0.6483894310E-08)
 total in muffin-tins        :    38.04084730    
 total calculated charge     :    41.99999645    
 total charge                :    42.00000000    
 error                       :   0.3553119790E-05
 
Wrote STATE.OUT
 
RMS change in Kohn-Sham potential (target) :   0.1654410817E-01 (   10.00000000    )
Absolute change in total energy (target)   :   0.4226848055E-03 (  0.1000000000E-07)
 
Time (CPU seconds) :       179.30
 
+--------------------+
| Loop number :    3 |
+--------------------+
 
Energies :
 Fermi                       :     0.221958152164    
 sum of eigenvalues          :     -895.621882282    
 electron kinetic            :      1546.02490320    
 core electron kinetic       :      1433.76858200    
 Coulomb                     :     -2996.26212618    
 Coulomb potential           :     -2337.56482156    
 nuclear-nuclear             :     -194.523469852    
 electron-nuclear            :     -3265.91249110    
 Hartree                     :      464.173834768    
 Madelung                    :     -1827.47971540    
 xc potential                :     -104.081963924    
 exchange                    :     -77.1764110384    
 correlation                 :     -1.76943193512    
 total energy                :     -1529.18306595    
 
Density of states at Fermi energy :    141.0490682    
 (states/Hartree/unit cell)
 
Estimated indirect band gap :   0.1153027917E-03
 from k-point      7 to k-point    173
Estimated direct band gap   :   0.7788519176E-03
 at k-point    227
 
Charges :
 core                        :    20.00000000    
 valence                     :    22.00000000    
 interstitial                :    3.959167664    
 muffin-tins (core leakage)
  species :    1 (Sc)
   atom    1                 :    19.02041617     (  0.6485420201E-08)
   atom    2                 :    19.02041617     (  0.6485420201E-08)
 total in muffin-tins        :    38.04083234    
 total calculated charge     :    41.99999648    
 total charge                :    42.00000000    
 error                       :   0.3523237964E-05
 
RMS change in Kohn-Sham potential (target) :   0.1566601813E-01 (   10.00000000    )
Absolute change in total energy (target)   :   0.1867612587E-02 (  0.1000000000E-07)
 
Time (CPU seconds) :       271.27
 
+--------------------+
| Loop number :    4 |
+--------------------+
 
Energies :
 Fermi                       :     0.222178718719    
 sum of eigenvalues          :     -895.611833194    
 electron kinetic            :      1546.04284348    
 core electron kinetic       :      1433.77637740    
 Coulomb                     :     -2996.25391927    
 Coulomb potential           :     -2337.57461392    
 nuclear-nuclear             :     -194.523469852    
 electron-nuclear            :     -3265.88628492    
 Hartree                     :      464.155835498    
 Madelung                    :     -1827.46661231    
 xc potential                :     -104.080062755    
 exchange                    :     -77.1749557751    
 correlation                 :     -1.76949097820    
 total energy                :     -1529.15552254    
 
Density of states at Fermi energy :    135.2530156    
 (states/Hartree/unit cell)
 
Estimated indirect band gap :   0.1443500767E-03
 from k-point    173 to k-point    259
Estimated direct band gap   :   0.1629486605E-02
 at k-point    254
 
Charges :
 core                        :    20.00000000    
 valence                     :    22.00000000    
 interstitial                :    3.961010642    
 muffin-tins (core leakage)
  species :    1 (Sc)
   atom    1                 :    19.01949468     (  0.6487621107E-08)
   atom    2                 :    19.01949468     (  0.6487621107E-08)
 total in muffin-tins        :    38.03898936    
 total calculated charge     :    41.99999680    
 total charge                :    42.00000000    
 error                       :   0.3203058888E-05
 
Wrote STATE.OUT
 
RMS change in Kohn-Sham potential (target) :   0.6737048925E-02 (   10.00000000    )
Absolute change in total energy (target)   :   0.2801031335E-01 (  0.1000000000E-07)
 
Time (CPU seconds) :       361.13
 
+--------------------+
| Loop number :    5 |
+--------------------+
 
Energies :
 Fermi                       :     0.222243623941    
 sum of eigenvalues          :     -895.612308462    
 electron kinetic            :      1546.04311498    
 core electron kinetic       :      1433.77615954    
 Coulomb                     :     -2996.25532078    
 Coulomb potential           :     -2337.57535910    
 nuclear-nuclear             :     -194.523469852    
 electron-nuclear            :     -3265.88834277    
 Hartree                     :      464.156491836    
 Madelung                    :     -1827.46764124    
 xc potential                :     -104.080064344    
 exchange                    :     -77.1749431413    
 correlation                 :     -1.76950856067    
 total energy                :     -1529.15665751    
 
Density of states at Fermi energy :    134.7457524    
 (states/Hartree/unit cell)
 
Estimated indirect band gap :   0.1296372928E-03
 from k-point    258 to k-point    191
Estimated direct band gap   :   0.1653351927E-02
 at k-point    254
 
Charges :
 core                        :    20.00000000    
 valence                     :    22.00000000    
 interstitial                :    3.961082403    
 muffin-tins (core leakage)
  species :    1 (Sc)
   atom    1                 :    19.01945880     (  0.6544111031E-08)
   atom    2                 :    19.01945880     (  0.6544111031E-08)
 total in muffin-tins        :    38.03891760    
 total calculated charge     :    41.99999694    
 total charge                :    42.00000000    
 error                       :   0.3063000953E-05
 
RMS change in Kohn-Sham potential (target) :   0.3227579324E-02 (   10.00000000    )
Absolute change in total energy (target)   :   0.5867612951E-02 (  0.1000000000E-07)
 
Time (CPU seconds) :       448.82
 
+--------------------+
| Loop number :    6 |
+--------------------+
 
Energies :
 Fermi                       :     0.222264284830    
 sum of eigenvalues          :     -895.611873936    
 electron kinetic            :      1546.04303917    
 core electron kinetic       :      1433.77580971    
 Coulomb                     :     -2996.25537350    
 Coulomb potential           :     -2337.57481059    
 nuclear-nuclear             :     -194.523469852    
 electron-nuclear            :     -3265.88899670    
 Hartree                     :      464.157093057    
 Madelung                    :     -1827.46796820    
 xc potential                :     -104.080102517    
 exchange                    :     -77.1749646528    
 correlation                 :     -1.76951310707    
 total energy                :     -1529.15681209    
 
Density of states at Fermi energy :    135.8888220    
 (states/Hartree/unit cell)
 
Estimated indirect band gap :   0.2698570285E-04
 from k-point    258 to k-point     77
Estimated direct band gap   :   0.1661486037E-02
 at k-point    254
 
Charges :
 core                        :    20.00000000    
 valence                     :    22.00000000    
 interstitial                :    3.960991584    
 muffin-tins (core leakage)
  species :    1 (Sc)
   atom    1                 :    19.01950421     (  0.6553657173E-08)
   atom    2                 :    19.01950421     (  0.6553657173E-08)
 total in muffin-tins        :    38.03900842    
 total calculated charge     :    41.99999697    
 total charge                :    42.00000000    
 error                       :   0.3025248475E-05
 
Wrote STATE.OUT
 
RMS change in Kohn-Sham potential (target) :   0.1907095720E-02 (   10.00000000    )
Absolute change in total energy (target)   :   0.1312322431E-02 (  0.1000000000E-07)
 
Time (CPU seconds) :       541.44
 
+--------------------+
| Loop number :    7 |
+--------------------+
 
Energies :
 Fermi                       :     0.222280189318    
 sum of eigenvalues          :     -895.611154145    
 electron kinetic            :      1546.04332213    
 core electron kinetic       :      1433.77593573    
 Coulomb                     :     -2996.25510684    
 Coulomb potential           :     -2337.57436201    
 nuclear-nuclear             :     -194.523469852    
 electron-nuclear            :     -3265.88891196    
 Hartree                     :      464.157274975    
 Madelung                    :     -1827.46792583    
 xc potential                :     -104.080114270    
 exchange                    :     -77.1749681953    
 correlation                 :     -1.76951604221    
 total energy                :     -1529.15626894    
 
Density of states at Fermi energy :    136.4044683    
 (states/Hartree/unit cell)
 
Estimated indirect band gap :   0.6180862651E-04
 from k-point    173 to k-point    258
Estimated direct band gap   :   0.1668487587E-02
 at k-point    254
 
Charges :
 core                        :    20.00000000    
 valence                     :    22.00000000    
 interstitial                :    3.960926588    
 muffin-tins (core leakage)
  species :    1 (Sc)
   atom    1                 :    19.01953671     (  0.6496588156E-08)
   atom    2                 :    19.01953671     (  0.6496588156E-08)
 total in muffin-tins        :    38.03907341    
 total calculated charge     :    41.99999700    
 total charge                :    42.00000000    
 error                       :   0.3002069725E-05
 
RMS change in Kohn-Sham potential (target) :   0.9000376607E-03 (   10.00000000    )
Absolute change in total energy (target)   :   0.8712285203E-03 (  0.1000000000E-07)
 
Time (CPU seconds) :       633.15
 
+--------------------+
| Loop number :    8 |
+--------------------+
 
Energies :
 Fermi                       :     0.222279057469    
 sum of eigenvalues          :     -895.611099949    
 electron kinetic            :      1546.04321353    
 core electron kinetic       :      1433.77598575    
 Coulomb                     :     -2996.25513433    
 Coulomb potential           :     -2337.57416983    
 nuclear-nuclear             :     -194.523469852    
 electron-nuclear            :     -3265.88915913    
 Hartree                     :      464.157494649    
 Madelung                    :     -1827.46804942    
 xc potential                :     -104.080143648    
 exchange                    :     -77.1749888166    
 correlation                 :     -1.76951665355    
 total energy                :     -1529.15642627    
 
Density of states at Fermi energy :    136.0051781    
 (states/Hartree/unit cell)
 
Estimated indirect band gap :   0.1146189604E-03
 from k-point    258 to k-point    259
Estimated direct band gap   :   0.1669667080E-02
 at k-point    254
 
Charges :
 core                        :    20.00000000    
 valence                     :    22.00000000    
 interstitial                :    3.960894183    
 muffin-tins (core leakage)
  species :    1 (Sc)
   atom    1                 :    19.01955291     (  0.6525985086E-08)
   atom    2                 :    19.01955291     (  0.6525985086E-08)
 total in muffin-tins        :    38.03910582    
 total calculated charge     :    41.99999699    
 total charge                :    42.00000000    
 error                       :   0.3005309551E-05
 
Wrote STATE.OUT
 
RMS change in Kohn-Sham potential (target) :   0.8190608313E-04 (   10.00000000    )
Absolute change in total energy (target)   :   0.6047522174E-04 (  0.1000000000E-07)
 
Time (CPU seconds) :       721.49
 
+--------------------+
| Loop number :    9 |
+--------------------+
 
Energies :
 Fermi                       :     0.222276933533    
 sum of eigenvalues          :     -895.611331358    
 electron kinetic            :      1546.04304583    
 core electron kinetic       :      1433.77594611    
 Coulomb                     :     -2996.25530262    
 Coulomb potential           :     -2337.57422110    
 nuclear-nuclear             :     -194.523469852    
 electron-nuclear            :     -3265.88944443    
 Hartree                     :      464.157611665    
 Madelung                    :     -1827.46819207    
 xc potential                :     -104.080156083    
 exchange                    :     -77.1749978885    
 correlation                 :     -1.76951685832    
 total energy                :     -1529.15677154    
 
Density of states at Fermi energy :    135.9915601    
 (states/Hartree/unit cell)
 
Estimated indirect band gap :   0.1151010271E-03
 from k-point    258 to k-point    259
Estimated direct band gap   :   0.1669693781E-02
 at k-point    254
 
Charges :
 core                        :    20.00000000    
 valence                     :    22.00000000    
 interstitial                :    3.960892581    
 muffin-tins (core leakage)
  species :    1 (Sc)
   atom    1                 :    19.01955371     (  0.6525629814E-08)
   atom    2                 :    19.01955371     (  0.6525629814E-08)
 total in muffin-tins        :    38.03910742    
 total calculated charge     :    41.99999699    
 total charge                :    42.00000000    
 error                       :   0.3005240025E-05
 
RMS change in Kohn-Sham potential (target) :   0.1167244864E-03 (   10.00000000    )
Absolute change in total energy (target)   :   0.3301467057E-03 (  0.1000000000E-07)
 
Time (CPU seconds) :       811.24
 
+--------------------+
| Loop number :   10 |
+--------------------+
 
Energies :
 Fermi                       :     0.222275936562    
 sum of eigenvalues          :     -895.611405472    
 electron kinetic            :      1546.04300058    
 core electron kinetic       :      1433.77603416    
 Coulomb                     :     -2996.25534262    
 Coulomb potential           :     -2337.57424814    
 nuclear-nuclear             :     -194.523469852    
 electron-nuclear            :     -3265.88949740    
 Hartree                     :      464.157624625    
 Madelung                    :     -1827.46821855    
 xc potential                :     -104.080157910    
 exchange                    :     -77.1749991829    
 correlation                 :     -1.76951693366    
 total energy                :     -1529.15685816    
 
Density of states at Fermi energy :    135.9808207    
 (states/Hartree/unit cell)
 
Estimated indirect band gap :   0.1154148492E-03
 from k-point    258 to k-point    259
Estimated direct band gap   :   0.1669719234E-02
 at k-point    254
 
Charges :
 core                        :    20.00000000    
 valence                     :    22.00000000    
 interstitial                :    3.960894335    
 muffin-tins (core leakage)
  species :    1 (Sc)
   atom    1                 :    19.01955283     (  0.6545931797E-08)
   atom    2                 :    19.01955283     (  0.6545931797E-08)
 total in muffin-tins        :    38.03910567    
 total calculated charge     :    41.99999699    
 total charge                :    42.00000000    
 error                       :   0.3005126942E-05
 
Wrote STATE.OUT
 
RMS change in Kohn-Sham potential (target) :   0.1609180542E-03 (   10.00000000    )
Absolute change in total energy (target)   :   0.1691547268E-03 (  0.1000000000E-07)
 
Time (CPU seconds) :       896.22
 
+--------------------+
| Loop number :   11 |
+--------------------+
 
Energies :
 Fermi                       :     0.222274539997    
 sum of eigenvalues          :     -895.611558078    
 electron kinetic            :      1546.04289718    
 core electron kinetic       :      1433.77597585    
 Coulomb                     :     -2996.25544145    
 Coulomb potential           :     -2337.57429257    
 nuclear-nuclear             :     -194.523469852    
 electron-nuclear            :     -3265.88965064    
 Hartree                     :      464.157679037    
 Madelung                    :     -1827.46829517    
 xc potential                :     -104.080162697    
 exchange                    :     -77.1750027123    
 correlation                 :     -1.76951702783    
 total energy                :     -1529.15706401    
 
Density of states at Fermi energy :    136.0084375    
 (states/Hartree/unit cell)
 
Estimated indirect band gap :   0.1148045582E-03
 from k-point    258 to k-point    259
Estimated direct band gap   :   0.1669631917E-02
 at k-point    254
 
Charges :
 core                        :    20.00000000    
 valence                     :    22.00000000    
 interstitial                :    3.960896740    
 muffin-tins (core leakage)
  species :    1 (Sc)
   atom    1                 :    19.01955163     (  0.6504107475E-08)
   atom    2                 :    19.01955163     (  0.6504107475E-08)
 total in muffin-tins        :    38.03910326    
 total calculated charge     :    41.99999700    
 total charge                :    42.00000000    
 error                       :   0.3004539394E-05
 
RMS change in Kohn-Sham potential (target) :   0.7299938311E-05 (   10.00000000    )
Absolute change in total energy (target)   :   0.2481429951E-03 (  0.1000000000E-07)
 
Time (CPU seconds) :       986.41
 
+--------------------+
| Loop number :   12 |
+--------------------+
 
Energies :
 Fermi                       :     0.222274552241    
 sum of eigenvalues          :     -895.611553027    
 electron kinetic            :      1546.04289705    
 core electron kinetic       :      1433.77596282    
 Coulomb                     :     -2996.25543659    
 Coulomb potential           :     -2337.57428778    
 nuclear-nuclear             :     -194.523469852    
 electron-nuclear            :     -3265.88964570    
 Hartree                     :      464.157678960    
 Madelung                    :     -1827.46829270    
 xc potential                :     -104.080162302    
 exchange                    :     -77.1750024018    
 correlation                 :     -1.76951703760    
 total energy                :     -1529.15705898    
 
Density of states at Fermi energy :    136.0114429    
 (states/Hartree/unit cell)
 
Estimated indirect band gap :   0.4840884381E-04
 from k-point    173 to k-point    258
Estimated direct band gap   :   0.1669634050E-02
 at k-point    254
 
Charges :
 core                        :    20.00000000    
 valence                     :    22.00000000    
 interstitial                :    3.960896939    
 muffin-tins (core leakage)
  species :    1 (Sc)
   atom    1                 :    19.01955153     (  0.6466242652E-08)
   atom    2                 :    19.01955153     (  0.6466242652E-08)
 total in muffin-tins        :    38.03910306    
 total calculated charge     :    41.99999700    
 total charge                :    42.00000000    
 error                       :   0.3004365873E-05
 
Wrote STATE.OUT
 
RMS change in Kohn-Sham potential (target) :   0.1106041508E-03 (   10.00000000    )
Absolute change in total energy (target)   :   0.5700217662E-04 (  0.1000000000E-07)
 
Time (CPU seconds) :      1076.10
 
+--------------------+
| Loop number :   13 |
+--------------------+
 
Energies :
 Fermi                       :     0.222274639315    
 sum of eigenvalues          :     -895.611538814    
 electron kinetic            :      1546.04290479    
 core electron kinetic       :      1433.77596135    
 Coulomb                     :     -2996.25542611    
 Coulomb potential           :     -2337.57428165    
 nuclear-nuclear             :     -194.523469852    
 electron-nuclear            :     -3265.88963087    
 Hartree                     :      464.157674608    
 Madelung                    :     -1827.46828528    
 xc potential                :     -104.080161953    
 exchange                    :     -77.1750021264    
 correlation                 :     -1.76951704021    
 total energy                :     -1529.15704049    
 
Density of states at Fermi energy :    136.0068548    
 (states/Hartree/unit cell)
 
Estimated indirect band gap :   0.1148324894E-03
 from k-point    258 to k-point    259
Estimated direct band gap   :   0.1669651585E-02
 at k-point    254
 
Charges :
 core                        :    20.00000000    
 valence                     :    22.00000000    
 interstitial                :    3.960896584    
 muffin-tins (core leakage)
  species :    1 (Sc)
   atom    1                 :    19.01955171     (  0.6472838265E-08)
   atom    2                 :    19.01955171     (  0.6472838265E-08)
 total in muffin-tins        :    38.03910342    
 total calculated charge     :    41.99999700    
 total charge                :    42.00000000    
 error                       :   0.3004440558E-05
 
RMS change in Kohn-Sham potential (target) :   0.1268239039E-03 (   10.00000000    )
Absolute change in total energy (target)   :   0.4237391067E-05 (  0.1000000000E-07)
 
Time (CPU seconds) :      1166.18
 
+--------------------+
| Loop number :   14 |
+--------------------+
 
Energies :
 Fermi                       :     0.222274716590    
 sum of eigenvalues          :     -895.611532431    
 electron kinetic            :      1546.04290894    
 core electron kinetic       :      1433.77596133    
 Coulomb                     :     -2996.25542227    
 Coulomb potential           :     -2337.57427963    
 nuclear-nuclear             :     -194.523469852    
 electron-nuclear            :     -3265.88962522    
 Hartree                     :      464.157672793    
 Madelung                    :     -1827.46828246    
 xc potential                :     -104.080161737    
 exchange                    :     -77.1750019689    
 correlation                 :     -1.76951703496    
 total energy                :     -1529.15703234    
 
Density of states at Fermi energy :    136.0077945    
 (states/Hartree/unit cell)
 
Estimated indirect band gap :   0.1148071113E-03
 from k-point    258 to k-point    259
Estimated direct band gap   :   0.1669649453E-02
 at k-point    254
 
Charges :
 core                        :    20.00000000    
 valence                     :    22.00000000    
 interstitial                :    3.960896476    
 muffin-tins (core leakage)
  species :    1 (Sc)
   atom    1                 :    19.01955176     (  0.6501679195E-08)
   atom    2                 :    19.01955176     (  0.6501679195E-08)
 total in muffin-tins        :    38.03910352    
 total calculated charge     :    41.99999700    
 total charge                :    42.00000000    
 error                       :   0.3004641989E-05
 
Wrote STATE.OUT
 
RMS change in Kohn-Sham potential (target) :   0.4156315658E-03 (   10.00000000    )
Absolute change in total energy (target)   :   0.9204249636E-05 (  0.1000000000E-07)
 
Time (CPU seconds) :      1258.06
 
+--------------------+
| Loop number :   15 |
+--------------------+
 
Energies :
 Fermi                       :     0.222274706352    
 sum of eigenvalues          :     -895.611529957    
 electron kinetic            :      1546.04291226    
 core electron kinetic       :      1433.77597203    
 Coulomb                     :     -2996.25542022    
 Coulomb potential           :     -2337.57428046    
 nuclear-nuclear             :     -194.523469852    
 electron-nuclear            :     -3265.88962027    
 Hartree                     :      464.157669904    
 Madelung                    :     -1827.46827999    
 xc potential                :     -104.080161752    
 exchange                    :     -77.1750019816    
 correlation                 :     -1.76951703049    
 total energy                :     -1529.15702697    
 
Density of states at Fermi energy :    136.0030404    
 (states/Hartree/unit cell)
 
Estimated indirect band gap :   0.1149319028E-03
 from k-point    258 to k-point    259
Estimated direct band gap   :   0.1669659992E-02
 at k-point    254
 
Charges :
 core                        :    20.00000000    
 valence                     :    22.00000000    
 interstitial                :    3.960896212    
 muffin-tins (core leakage)
  species :    1 (Sc)
   atom    1                 :    19.01955189     (  0.6505123551E-08)
   atom    2                 :    19.01955189     (  0.6505123551E-08)
 total in muffin-tins        :    38.03910379    
 total calculated charge     :    41.99999700    
 total charge                :    42.00000000    
 error                       :   0.3004627530E-05
 
RMS change in Kohn-Sham potential (target) :   0.1828878235E-03 (   10.00000000    )
Absolute change in total energy (target)   :   0.7672126685E-05 (  0.1000000000E-07)
 
Time (CPU seconds) :      1347.50
 
+--------------------+
| Loop number :   16 |
+--------------------+
 
Energies :
 Fermi                       :     0.222274655003    
 sum of eigenvalues          :     -895.611540246    
 electron kinetic            :      1546.04290570    
 core electron kinetic       :      1433.77597169    
 Coulomb                     :     -2996.25542762    
 Coulomb potential           :     -2337.57428396    
 nuclear-nuclear             :     -194.523469852    
 electron-nuclear            :     -3265.88963157    
 Hartree                     :      464.157673806    
 Madelung                    :     -1827.46828564    
 xc potential                :     -104.080161991    
 exchange                    :     -77.1750021727    
 correlation                 :     -1.76951702796    
 total energy                :     -1529.15704111    
 
Density of states at Fermi energy :    136.0080229    
 (states/Hartree/unit cell)
 
Estimated indirect band gap :   0.1148059324E-03
 from k-point    258 to k-point    259
Estimated direct band gap   :   0.1669644404E-02
 at k-point    254
 
Charges :
 core                        :    20.00000000    
 valence                     :    22.00000000    
 interstitial                :    3.960896494    
 muffin-tins (core leakage)
  species :    1 (Sc)
   atom    1                 :    19.01955175     (  0.6524045304E-08)
   atom    2                 :    19.01955175     (  0.6524045304E-08)
 total in muffin-tins        :    38.03910351    
 total calculated charge     :    41.99999700    
 total charge                :    42.00000000    
 error                       :   0.3004529674E-05
 
Wrote STATE.OUT
 
RMS change in Kohn-Sham potential (target) :   0.6108411635E-05 (   10.00000000    )
Absolute change in total energy (target)   :   0.1222361880E-04 (  0.1000000000E-07)
 
Time (CPU seconds) :      1437.63
 
+--------------------+
| Loop number :   17 |
+--------------------+
 
Energies :
 Fermi                       :     0.222274597737    
 sum of eigenvalues          :     -895.611543780    
 electron kinetic            :      1546.04290133    
 core electron kinetic       :      1433.77597780    
 Coulomb                     :     -2996.25542894    
 Coulomb potential           :     -2337.57428307    
 nuclear-nuclear             :     -194.523469852    
 electron-nuclear            :     -3265.88963510    
 Hartree                     :      464.157676016    
 Madelung                    :     -1827.46828740    
 xc potential                :     -104.080162035    
 exchange                    :     -77.1750021868    
 correlation                 :     -1.76951704238    
 total energy                :     -1529.15704684    
 
Density of states at Fermi energy :    136.0092338    
 (states/Hartree/unit cell)
 
Estimated indirect band gap :   0.1147754006E-03
 from k-point    258 to k-point    259
Estimated direct band gap   :   0.1669646336E-02
 at k-point    254
 
Charges :
 core                        :    20.00000000    
 valence                     :    22.00000000    
 interstitial                :    3.960896696    
 muffin-tins (core leakage)
  species :    1 (Sc)
   atom    1                 :    19.01955165     (  0.6582723699E-08)
   atom    2                 :    19.01955165     (  0.6582723699E-08)
 total in muffin-tins        :    38.03910330    
 total calculated charge     :    41.99999700    
 total charge                :    42.00000000    
 error                       :   0.3004610413E-05
 
RMS change in Kohn-Sham potential (target) :   0.1227027587E-03 (   10.00000000    )
Absolute change in total energy (target)   :   0.8783698377E-05 (  0.1000000000E-07)
 
Time (CPU seconds) :      1529.49
 
+--------------------+
| Loop number :   18 |
+--------------------+
 
Energies :
 Fermi                       :     0.222274518272    
 sum of eigenvalues          :     -895.611554971    
 electron kinetic            :      1546.04289408    
 core electron kinetic       :      1433.77597173    
 Coulomb                     :     -2996.25543713    
 Coulomb potential           :     -2337.57428675    
 nuclear-nuclear             :     -194.523469852    
 electron-nuclear            :     -3265.88964781    
 Hartree                     :      464.157680533    
 Madelung                    :     -1827.46829376    
 xc potential                :     -104.080162306    
 exchange                    :     -77.1750023943    
 correlation                 :     -1.76951704589    
 total energy                :     -1529.15706249    
 
Density of states at Fermi energy :    136.0124301    
 (states/Hartree/unit cell)
 
Estimated indirect band gap :   0.4844264263E-04
 from k-point    173 to k-point    258
Estimated direct band gap   :   0.1669634642E-02
 at k-point    254
 
Charges :
 core                        :    20.00000000    
 valence                     :    22.00000000    
 interstitial                :    3.960897071    
 muffin-tins (core leakage)
  species :    1 (Sc)
   atom    1                 :    19.01955146     (  0.6522091311E-08)
   atom    2                 :    19.01955146     (  0.6522091311E-08)
 total in muffin-tins        :    38.03910293    
 total calculated charge     :    41.99999700    
 total charge                :    42.00000000    
 error                       :   0.3004616424E-05
 
Wrote STATE.OUT
 
RMS change in Kohn-Sham potential (target) :   0.3943979956E-03 (   10.00000000    )
Absolute change in total energy (target)   :   0.1784350297E-04 (  0.1000000000E-07)
 
Time (CPU seconds) :      1619.75
 
+--------------------+
| Loop number :   19 |
+--------------------+
 
Energies :
 Fermi                       :     0.222274524927    
 sum of eigenvalues          :     -895.611552598    
 electron kinetic            :      1546.04289530    
 core electron kinetic       :      1433.77597094    
 Coulomb                     :     -2996.25543517    
 Coulomb potential           :     -2337.57428565    
 nuclear-nuclear             :     -194.523469852    
 electron-nuclear            :     -3265.88964499    
 Hartree                     :      464.157679670    
 Madelung                    :     -1827.46829235    
 xc potential                :     -104.080162251    
 exchange                    :     -77.1750023482    
 correlation                 :     -1.76951704723    
 total energy                :     -1529.15705927    
 
Density of states at Fermi energy :    136.0111915    
 (states/Hartree/unit cell)
 
Estimated indirect band gap :   0.4839973703E-04
 from k-point    173 to k-point    258
Estimated direct band gap   :   0.1669639027E-02
 at k-point    254
 
Charges :
 core                        :    20.00000000    
 valence                     :    22.00000000    
 interstitial                :    3.960897003    
 muffin-tins (core leakage)
  species :    1 (Sc)
   atom    1                 :    19.01955150     (  0.6519877971E-08)
   atom    2                 :    19.01955150     (  0.6519877971E-08)
 total in muffin-tins        :    38.03910300    
 total calculated charge     :    41.99999700    
 total charge                :    42.00000000    
 error                       :   0.3004624084E-05
 
RMS change in Kohn-Sham potential (target) :   0.8592828951E-04 (   10.00000000    )
Absolute change in total energy (target)   :   0.1236501930E-05 (  0.1000000000E-07)
 
Time (CPU seconds) :      1708.05
 
+--------------------+
| Loop number :   20 |
+--------------------+
 
Energies :
 Fermi                       :     0.222274537517    
 sum of eigenvalues          :     -895.611551090    
 electron kinetic            :      1546.04289550    
 core electron kinetic       :      1433.77596943    
 Coulomb                     :     -2996.25543454    
 Coulomb potential           :     -2337.57428439    
 nuclear-nuclear             :     -194.523469852    
 electron-nuclear            :     -3265.88964499    
 Hartree                     :      464.157680301    
 Madelung                    :     -1827.46829235    
 xc potential                :     -104.080162206    
 exchange                    :     -77.1750023069    
 correlation                 :     -1.76951705238    
 total energy                :     -1529.15705840    
 
Density of states at Fermi energy :    136.0112753    
 (states/Hartree/unit cell)
 
Estimated indirect band gap :   0.4840274529E-04
 from k-point    173 to k-point    258
Estimated direct band gap   :   0.1669640618E-02
 at k-point    254
 
Charges :
 core                        :    20.00000000    
 valence                     :    22.00000000    
 interstitial                :    3.960897038    
 muffin-tins (core leakage)
  species :    1 (Sc)
   atom    1                 :    19.01955148     (  0.6567637101E-08)
   atom    2                 :    19.01955148     (  0.6567637101E-08)
 total in muffin-tins        :    38.03910296    
 total calculated charge     :    41.99999700    
 total charge                :    42.00000000    
 error                       :   0.3004560043E-05
 
Wrote STATE.OUT
 
RMS change in Kohn-Sham potential (target) :   0.6613219023E-04 (   10.00000000    )
Absolute change in total energy (target)   :   0.5595356924E-06 (  0.1000000000E-07)
 
Time (CPU seconds) :      1796.84
 
+--------------------+
| Loop number :   21 |
+--------------------+
 
Energies :
 Fermi                       :     0.222274559695    
 sum of eigenvalues          :     -895.611549356    
 electron kinetic            :      1546.04289605    
 core electron kinetic       :      1433.77596822    
 Coulomb                     :     -2996.25543361    
 Coulomb potential           :     -2337.57428323    
 nuclear-nuclear             :     -194.523469852    
 electron-nuclear            :     -3265.88964428    
 Hartree                     :      464.157680528    
 Madelung                    :     -1827.46829199    
 xc potential                :     -104.080162176    
 exchange                    :     -77.1750022756    
 correlation                 :     -1.76951705802    
 total energy                :     -1529.15705689    
 
Density of states at Fermi energy :    136.0114074    
 (states/Hartree/unit cell)
 
Estimated indirect band gap :   0.4840760894E-04
 from k-point    173 to k-point    258
Estimated direct band gap   :   0.1669642068E-02
 at k-point    254
 
Charges :
 core                        :    20.00000000    
 valence                     :    22.00000000    
 interstitial                :    3.960897083    
 muffin-tins (core leakage)
  species :    1 (Sc)
   atom    1                 :    19.01955146     (  0.6475122660E-08)
   atom    2                 :    19.01955146     (  0.6475122660E-08)
 total in muffin-tins        :    38.03910292    
 total calculated charge     :    41.99999700    
 total charge                :    42.00000000    
 error                       :   0.3004448160E-05
 
RMS change in Kohn-Sham potential (target) :   0.1121057556E-03 (   10.00000000    )
Absolute change in total energy (target)   :   0.1643011501E-05 (  0.1000000000E-07)
 
Time (CPU seconds) :      1882.87
 
+--------------------+
| Loop number :   22 |
+--------------------+
 
Energies :
 Fermi                       :     0.222274575560    
 sum of eigenvalues          :     -895.611547890    
 electron kinetic            :      1546.04289689    
 core electron kinetic       :      1433.77596895    
 Coulomb                     :     -2996.25543296    
 Coulomb potential           :     -2337.57428263    
 nuclear-nuclear             :     -194.523469852    
 electron-nuclear            :     -3265.88964358    
 Hartree                     :      464.157680474    
 Madelung                    :     -1827.46829164    
 xc potential                :     -104.080162148    
 exchange                    :     -77.1750022517    
 correlation                 :     -1.76951705988    
 total energy                :     -1529.15705538    
 
Density of states at Fermi energy :    136.0111949    
 (states/Hartree/unit cell)
 
Estimated indirect band gap :   0.4840008190E-04
 from k-point    173 to k-point    258
Estimated direct band gap   :   0.1669643359E-02
 at k-point    254
 
Charges :
 core                        :    20.00000000    
 valence                     :    22.00000000    
 interstitial                :    3.960897073    
 muffin-tins (core leakage)
  species :    1 (Sc)
   atom    1                 :    19.01955146     (  0.6477536729E-08)
   atom    2                 :    19.01955146     (  0.6477536729E-08)
 total in muffin-tins        :    38.03910293    
 total calculated charge     :    41.99999700    
 total charge                :    42.00000000    
 error                       :   0.3004493287E-05
 
Wrote STATE.OUT
 
RMS change in Kohn-Sham potential (target) :   0.1105296863E-04 (   10.00000000    )
Absolute change in total energy (target)   :   0.1925192919E-05 (  0.1000000000E-07)
 
Time (CPU seconds) :      1969.82
 
+--------------------+
| Loop number :   23 |
+--------------------+
 
Energies :
 Fermi                       :     0.222274573471    
 sum of eigenvalues          :     -895.611548351    
 electron kinetic            :      1546.04289671    
 core electron kinetic       :      1433.77596864    
 Coulomb                     :     -2996.25543362    
 Coulomb potential           :     -2337.57428290    
 nuclear-nuclear             :     -194.523469852    
 electron-nuclear            :     -3265.88964464    
 Hartree                     :      464.157680867    
 Madelung                    :     -1827.46829217    
 xc potential                :     -104.080162163    
 exchange                    :     -77.1750022634    
 correlation                 :     -1.76951706002    
 total energy                :     -1529.15705623    
 
Density of states at Fermi energy :    136.0112848    
 (states/Hartree/unit cell)
 
Estimated indirect band gap :   0.4840294676E-04
 from k-point    173 to k-point    258
Estimated direct band gap   :   0.1669642996E-02
 at k-point    254
 
Charges :
 core                        :    20.00000000    
 valence                     :    22.00000000    
 interstitial                :    3.960897090    
 muffin-tins (core leakage)
  species :    1 (Sc)
   atom    1                 :    19.01955145     (  0.6510433082E-08)
   atom    2                 :    19.01955145     (  0.6510433082E-08)
 total in muffin-tins        :    38.03910291    
 total calculated charge     :    41.99999700    
 total charge                :    42.00000000    
 error                       :   0.3004579042E-05
 
RMS change in Kohn-Sham potential (target) :   0.6799337778E-04 (   10.00000000    )
Absolute change in total energy (target)   :   0.3706522875E-06 (  0.1000000000E-07)
 
Time (CPU seconds) :      2060.77
 
+--------------------+
| Loop number :   24 |
+--------------------+
 
Energies :
 Fermi                       :     0.222274578895    
 sum of eigenvalues          :     -895.611547981    
 electron kinetic            :      1546.04289678    
 core electron kinetic       :      1433.77596908    
 Coulomb                     :     -2996.25543330    
 Coulomb potential           :     -2337.57428261    
 nuclear-nuclear             :     -194.523469852    
 electron-nuclear            :     -3265.88964428    
 Hartree                     :      464.157680839    
 Madelung                    :     -1827.46829199    
 xc potential                :     -104.080162158    
 exchange                    :     -77.1750022572    
 correlation                 :     -1.76951706205    
 total energy                :     -1529.15705583    
 
Density of states at Fermi energy :    136.0113344    
 (states/Hartree/unit cell)
 
Estimated indirect band gap :   0.4840462019E-04
 from k-point    173 to k-point    258
Estimated direct band gap   :   0.1669643361E-02
 at k-point    254
 
Charges :
 core                        :    20.00000000    
 valence                     :    22.00000000    
 interstitial                :    3.960897111    
 muffin-tins (core leakage)
  species :    1 (Sc)
   atom    1                 :    19.01955144     (  0.6526958529E-08)
   atom    2                 :    19.01955144     (  0.6526958529E-08)
 total in muffin-tins        :    38.03910289    
 total calculated charge     :    41.99999700    
 total charge                :    42.00000000    
 error                       :   0.3004565166E-05
 
Wrote STATE.OUT
 
RMS change in Kohn-Sham potential (target) :   0.1344282286E-03 (   10.00000000    )
Absolute change in total energy (target)   :   0.3055033631E-06 (  0.1000000000E-07)
 
Time (CPU seconds) :      2150.68
 
+--------------------+
| Loop number :   25 |
+--------------------+
 
Energies :
 Fermi                       :     0.222274578295    
 sum of eigenvalues          :     -895.611548561    
 electron kinetic            :      1546.04289662    
 core electron kinetic       :      1433.77596935    
 Coulomb                     :     -2996.25543385    
 Coulomb potential           :     -2337.57428301    
 nuclear-nuclear             :     -194.523469852    
 electron-nuclear            :     -3265.88964499    
 Hartree                     :      464.157680992    
 Madelung                    :     -1827.46829235    
 xc potential                :     -104.080162180    
 exchange                    :     -77.1750022746    
 correlation                 :     -1.76951706174    
 total energy                :     -1529.15705656    
 
Density of states at Fermi energy :    136.0114493    
 (states/Hartree/unit cell)
 
Estimated indirect band gap :   0.4840874381E-04
 from k-point    173 to k-point    258
Estimated direct band gap   :   0.1669642500E-02
 at k-point    254
 
Charges :
 core                        :    20.00000000    
 valence                     :    22.00000000    
 interstitial                :    3.960897128    
 muffin-tins (core leakage)
  species :    1 (Sc)
   atom    1                 :    19.01955144     (  0.6513188211E-08)
   atom    2                 :    19.01955144     (  0.6513188211E-08)
 total in muffin-tins        :    38.03910287    
 total calculated charge     :    41.99999700    
 total charge                :    42.00000000    
 error                       :   0.3004486814E-05
 
RMS change in Kohn-Sham potential (target) :   0.2242491554E-03 (   10.00000000    )
Absolute change in total energy (target)   :   0.6520112947E-06 (  0.1000000000E-07)
 
Time (CPU seconds) :      2236.79
 
+--------------------+
| Loop number :   26 |
+--------------------+
 
Energies :
 Fermi                       :     0.222274566017    
 sum of eigenvalues          :     -895.611549157    
 electron kinetic            :      1546.04289633    
 core electron kinetic       :      1433.77596879    
 Coulomb                     :     -2996.25543400    
 Coulomb potential           :     -2337.57428330    
 nuclear-nuclear             :     -194.523469852    
 electron-nuclear            :     -3265.88964499    
 Hartree                     :      464.157680844    
 Madelung                    :     -1827.46829235    
 xc potential                :     -104.080162185    
 exchange                    :     -77.1750022809    
 correlation                 :     -1.76951705956    
 total energy                :     -1529.15705701    
 
Density of states at Fermi energy :    136.0113497    
 (states/Hartree/unit cell)
 
Estimated indirect band gap :   0.4840504423E-04
 from k-point    173 to k-point    258
Estimated direct band gap   :   0.1669642175E-02
 at k-point    254
 
Charges :
 core                        :    20.00000000    
 valence                     :    22.00000000    
 interstitial                :    3.960897100    
 muffin-tins (core leakage)
  species :    1 (Sc)
   atom    1                 :    19.01955145     (  0.6465731062E-08)
   atom    2                 :    19.01955145     (  0.6465731062E-08)
 total in muffin-tins        :    38.03910290    
 total calculated charge     :    41.99999700    
 total charge                :    42.00000000    
 error                       :   0.3004439094E-05
 
Wrote STATE.OUT
 
RMS change in Kohn-Sham potential (target) :   0.8115561154E-04 (   10.00000000    )
Absolute change in total energy (target)   :   0.6102809493E-06 (  0.1000000000E-07)
 
Time (CPU seconds) :      2326.21
 
+--------------------+
| Loop number :   27 |
+--------------------+
 
Energies :
 Fermi                       :     0.222274576932    
 sum of eigenvalues          :     -895.611548321    
 electron kinetic            :      1546.04289667    
 core electron kinetic       :      1433.77596870    
 Coulomb                     :     -2996.25543376    
 Coulomb potential           :     -2337.57428283    
 nuclear-nuclear             :     -194.523469852    
 electron-nuclear            :     -3265.88964499    
 Hartree                     :      464.157681082    
 Madelung                    :     -1827.46829235    
 xc potential                :     -104.080162168    
 exchange                    :     -77.1750022662    
 correlation                 :     -1.76951706152    
 total energy                :     -1529.15705641    
 
Density of states at Fermi energy :    136.0113850    
 (states/Hartree/unit cell)
 
Estimated indirect band gap :   0.4840641673E-04
 from k-point    173 to k-point    258
Estimated direct band gap   :   0.1669642816E-02
 at k-point    254
 
Charges :
 core                        :    20.00000000    
 valence                     :    22.00000000    
 interstitial                :    3.960897118    
 muffin-tins (core leakage)
  species :    1 (Sc)
   atom    1                 :    19.01955144     (  0.6540691544E-08)
   atom    2                 :    19.01955144     (  0.6540691544E-08)
 total in muffin-tins        :    38.03910288    
 total calculated charge     :    41.99999700    
 total charge                :    42.00000000    
 error                       :   0.3004560185E-05
 
RMS change in Kohn-Sham potential (target) :   0.1667075943E-03 (   10.00000000    )
Absolute change in total energy (target)   :   0.4421781341E-06 (  0.1000000000E-07)
 
Time (CPU seconds) :      2414.40
 
+--------------------+
| Loop number :   28 |
+--------------------+
 
Energies :
 Fermi                       :     0.222274578427    
 sum of eigenvalues          :     -895.611548191    
 electron kinetic            :      1546.04289667    
 core electron kinetic       :      1433.77596859    
 Coulomb                     :     -2996.25543370    
 Coulomb potential           :     -2337.57428270    
 nuclear-nuclear             :     -194.523469852    
 electron-nuclear            :     -3265.88964499    
 Hartree                     :      464.157681147    
 Madelung                    :     -1827.46829235    
 xc potential                :     -104.080162166    
 exchange                    :     -77.1750022629    
 correlation                 :     -1.76951706230    
 total energy                :     -1529.15705635    
 
Density of states at Fermi energy :    136.0113964    
 (states/Hartree/unit cell)
 
Estimated indirect band gap :   0.4840688773E-04
 from k-point    173 to k-point    258
Estimated direct band gap   :   0.1669642920E-02
 at k-point    254
 
Charges :
 core                        :    20.00000000    
 valence                     :    22.00000000    
 interstitial                :    3.960897121    
 muffin-tins (core leakage)
  species :    1 (Sc)
   atom    1                 :    19.01955144     (  0.6475215031E-08)
   atom    2                 :    19.01955144     (  0.6475215031E-08)
 total in muffin-tins        :    38.03910288    
 total calculated charge     :    41.99999700    
 total charge                :    42.00000000    
 error                       :   0.3004404242E-05
 
Wrote STATE.OUT
 
RMS change in Kohn-Sham potential (target) :   0.4026524548E-04 (   10.00000000    )
Absolute change in total energy (target)   :   0.1760338364E-06 (  0.1000000000E-07)
 
Time (CPU seconds) :      2502.70
 
+--------------------+
| Loop number :   29 |
+--------------------+
 
Energies :
 Fermi                       :     0.222274584161    
 sum of eigenvalues          :     -895.611547973    
 electron kinetic            :      1546.04289678    
 core electron kinetic       :      1433.77596844    
 Coulomb                     :     -2996.25543364    
 Coulomb potential           :     -2337.57428258    
 nuclear-nuclear             :     -194.523469852    
 electron-nuclear            :     -3265.88964499    
 Hartree                     :      464.157681204    
 Madelung                    :     -1827.46829235    
 xc potential                :     -104.080162167    
 exchange                    :     -77.1750022607    
 correlation                 :     -1.76951706347    
 total energy                :     -1529.15705619    
 
Density of states at Fermi energy :    136.0114393    
 (states/Hartree/unit cell)
 
Estimated indirect band gap :   0.4840848087E-04
 from k-point    173 to k-point    258
Estimated direct band gap   :   0.1669642950E-02
 at k-point    254
 
Charges :
 core                        :    20.00000000    
 valence                     :    22.00000000    
 interstitial                :    3.960897135    
 muffin-tins (core leakage)
  species :    1 (Sc)
   atom    1                 :    19.01955143     (  0.6512721029E-08)
   atom    2                 :    19.01955143     (  0.6512721029E-08)
 total in muffin-tins        :    38.03910287    
 total calculated charge     :    41.99999700    
 total charge                :    42.00000000    
 error                       :   0.3004513488E-05
 
RMS change in Kohn-Sham potential (target) :   0.6980325211E-04 (   10.00000000    )
Absolute change in total energy (target)   :   0.2060592124E-06 (  0.1000000000E-07)
 
Time (CPU seconds) :      2587.48
 
+--------------------+
| Loop number :   30 |
+--------------------+
 
Energies :
 Fermi                       :     0.222274587900    
 sum of eigenvalues          :     -895.611547773    
 electron kinetic            :      1546.04289691    
 core electron kinetic       :      1433.77596846    
 Coulomb                     :     -2996.25543361    
 Coulomb potential           :     -2337.57428252    
 nuclear-nuclear             :     -194.523469852    
 electron-nuclear            :     -3265.88964499    
 Hartree                     :      464.157681235    
 Madelung                    :     -1827.46829235    
 xc potential                :     -104.080162165    
 exchange                    :     -77.1750022598    
 correlation                 :     -1.76951706385    
 total energy                :     -1529.15705602    
 
Density of states at Fermi energy :    136.0114476    
 (states/Hartree/unit cell)
 
Estimated indirect band gap :   0.4840881447E-04
 from k-point    173 to k-point    258
Estimated direct band gap   :   0.1669643039E-02
 at k-point    254
 
Charges :
 core                        :    20.00000000    
 valence                     :    22.00000000    
 interstitial                :    3.960897140    
 muffin-tins (core leakage)
  species :    1 (Sc)
   atom    1                 :    19.01955143     (  0.6533504404E-08)
   atom    2                 :    19.01955143     (  0.6533504404E-08)
 total in muffin-tins        :    38.03910286    
 total calculated charge     :    41.99999700    
 total charge                :    42.00000000    
 error                       :   0.3004622421E-05
 
Wrote STATE.OUT
 
RMS change in Kohn-Sham potential (target) :   0.8141928272E-04 (   10.00000000    )
Absolute change in total energy (target)   :   0.2189299266E-06 (  0.1000000000E-07)
 
Time (CPU seconds) :      2673.40
 
+--------------------+
| Loop number :   31 |
+--------------------+
 
Energies :
 Fermi                       :     0.222274589270    
 sum of eigenvalues          :     -895.611547725    
 electron kinetic            :      1546.04289699    
 core electron kinetic       :      1433.77596855    
 Coulomb                     :     -2996.25543362    
 Coulomb potential           :     -2337.57428255    
 nuclear-nuclear             :     -194.523469852    
 electron-nuclear            :     -3265.88964499    
 Hartree                     :      464.157681222    
 Madelung                    :     -1827.46829235    
 xc potential                :     -104.080162165    
 exchange                    :     -77.1750022615    
 correlation                 :     -1.76951706367    
 total energy                :     -1529.15705596    
 
Density of states at Fermi energy :    136.0114490    
 (states/Hartree/unit cell)
 
Estimated indirect band gap :   0.4840887953E-04
 from k-point    173 to k-point    258
Estimated direct band gap   :   0.1669643017E-02
 at k-point    254
 
Charges :
 core                        :    20.00000000    
 valence                     :    22.00000000    
 interstitial                :    3.960897142    
 muffin-tins (core leakage)
  species :    1 (Sc)
   atom    1                 :    19.01955143     (  0.6562533628E-08)
   atom    2                 :    19.01955143     (  0.6562533628E-08)
 total in muffin-tins        :    38.03910286    
 total calculated charge     :    41.99999700    
 total charge                :    42.00000000    
 error                       :   0.3004558010E-05
 
RMS change in Kohn-Sham potential (target) :   0.7431032979E-04 (   10.00000000    )
Absolute change in total energy (target)   :   0.1148175670E-06 (  0.1000000000E-07)
 
Time (CPU seconds) :      2759.77
 
+--------------------+
| Loop number :   32 |
+--------------------+
 
Energies :
 Fermi                       :     0.222274588679    
 sum of eigenvalues          :     -895.611547786    
 electron kinetic            :      1546.04289695    
 core electron kinetic       :      1433.77596870    
 Coulomb                     :     -2996.25543398    
 Coulomb potential           :     -2337.57428257    
 nuclear-nuclear             :     -194.523469852    
 electron-nuclear            :     -3265.88964570    
 Hartree                     :      464.157681563    
 Madelung                    :     -1827.46829270    
 xc potential                :     -104.080162170    
 exchange                    :     -77.1750022629    
 correlation                 :     -1.76951706383    
 total energy                :     -1529.15705636    
 
Density of states at Fermi energy :    136.0114512    
 (states/Hartree/unit cell)
 
Estimated indirect band gap :   0.4840896064E-04
 from k-point    173 to k-point    258
Estimated direct band gap   :   0.1669642949E-02
 at k-point    254
 
Charges :
 core                        :    20.00000000    
 valence                     :    22.00000000    
 interstitial                :    3.960897141    
 muffin-tins (core leakage)
  species :    1 (Sc)
   atom    1                 :    19.01955143     (  0.6489553783E-08)
   atom    2                 :    19.01955143     (  0.6489553783E-08)
 total in muffin-tins        :    38.03910286    
 total calculated charge     :    41.99999700    
 total charge                :    42.00000000    
 error                       :   0.3004398870E-05
 
Wrote STATE.OUT
 
RMS change in Kohn-Sham potential (target) :   0.2223677648E-03 (   10.00000000    )
Absolute change in total energy (target)   :   0.3712164016E-06 (  0.1000000000E-07)
 
Time (CPU seconds) :      2842.40
 
+--------------------+
| Loop number :   33 |
+--------------------+
 
Energies :
 Fermi                       :     0.222274582067    
 sum of eigenvalues          :     -895.611548084    
 electron kinetic            :      1546.04289673    
 core electron kinetic       :      1433.77596856    
 Coulomb                     :     -2996.25543367    
 Coulomb potential           :     -2337.57428265    
 nuclear-nuclear             :     -194.523469852    
 electron-nuclear            :     -3265.88964499    
 Hartree                     :      464.157681170    
 Madelung                    :     -1827.46829235    
 xc potential                :     -104.080162166    
 exchange                    :     -77.1750022622    
 correlation                 :     -1.76951706295    
 total energy                :     -1529.15705626    
 
Density of states at Fermi energy :    136.0114427    
 (states/Hartree/unit cell)
 
Estimated indirect band gap :   0.4840860224E-04
 from k-point    173 to k-point    258
Estimated direct band gap   :   0.1669642896E-02
 at k-point    254
 
Charges :
 core                        :    20.00000000    
 valence                     :    22.00000000    
 interstitial                :    3.960897134    
 muffin-tins (core leakage)
  species :    1 (Sc)
   atom    1                 :    19.01955143     (  0.6532676622E-08)
   atom    2                 :    19.01955143     (  0.6532676622E-08)
 total in muffin-tins        :    38.03910287    
 total calculated charge     :    41.99999700    
 total charge                :    42.00000000    
 error                       :   0.3004608843E-05
 
RMS change in Kohn-Sham potential (target) :   0.8444183219E-04 (   10.00000000    )
Absolute change in total energy (target)   :   0.9968061931E-09 (  0.1000000000E-07)
 
Convergence targets achieved
 
Time (CPU seconds) :      2927.91
 
+--------------------+
| Loop number :   34 |
+--------------------+
 
Energies :
 Fermi                       :     0.222274584747    
 sum of eigenvalues          :     -895.611547965    
 electron kinetic            :      1546.04289679    
 core electron kinetic       :      1433.77596843    
 Coulomb                     :     -2996.25543364    
 Coulomb potential           :     -2337.57428259    
 nuclear-nuclear             :     -194.523469852    
 electron-nuclear            :     -3265.88964499    
 Hartree                     :      464.157681201    
 Madelung                    :     -1827.46829235    
 xc potential                :     -104.080162168    
 exchange                    :     -77.1750022623    
 correlation                 :     -1.76951706351    
 total energy                :     -1529.15705618    
 
Density of states at Fermi energy :    136.0114492    
 (states/Hartree/unit cell)
 
Estimated indirect band gap :   0.4840885723E-04
 from k-point    173 to k-point    258
Estimated direct band gap   :   0.1669642933E-02
 at k-point    254
 
Charges :
 core                        :    20.00000000    
 valence                     :    22.00000000    
 interstitial                :    3.960897137    
 muffin-tins (core leakage)
  species :    1 (Sc)
   atom    1                 :    19.01955143     (  0.6505578298E-08)
   atom    2                 :    19.01955143     (  0.6505578298E-08)
 total in muffin-tins        :    38.03910286    
 total calculated charge     :    41.99999700    
 total charge                :    42.00000000    
 error                       :   0.3004421046E-05
 
Wrote STATE.OUT
 
+------------------------------+
| Self-consistent loop stopped |
+------------------------------+
 
Wrote STATE.OUT
 
Timings (CPU seconds) :
 initialisation                        :         1.24
 Hamiltonian and overlap matrix set up :      1049.47
 first-variational eigenvalue equation :      1219.89
 charge density calculation            :       235.55
 potential calculation                 :       504.79
 total                                 :      3010.94
 
+----------------------------+
| Elk version 8.3.15 stopped |
+----------------------------+
