  0.9705416574    
   11.68870556    
   24.97125950    
   23.91445591    
   13.81638177    
   6.599306620    
   1.613195080    
  0.3899076706    
  0.1063448449    
  0.3010610731E-01
  0.7497468512E-02
  0.1649544620E-02
  0.3054336048E-03
  0.5412673008E-03
  0.3636200690E-03
  0.1556101197E-03
  0.8232172968E-04
  0.9106279322E-05
  0.4968387657E-07
  0.5319443517E-06
  0.4979142432E-05
  0.8529978913E-05
  0.9667833183E-05
  0.5822347703E-05
  0.1395014806E-05
  0.6993274837E-05
  0.8480791621E-05
  0.2248538294E-05
  0.8356473700E-06
  0.1167986738E-05
  0.6312538972E-06
  0.4547473509E-09
