   136.3009062    
   135.4445581    
   129.1390893    
   142.7295226    
   149.4989000    
   145.2833107    
   142.8953377    
   142.7423416    
   142.5920921    
   142.5982548    
   142.6022971    
   142.6069586    
   142.6056533    
   142.6049869    
   142.6038903    
   142.6031101    
   142.6030219    
   142.6031522    
   142.6030872    
   142.6031601    
   142.6032593    
   142.6032971    
   142.6033360    
   142.6033584    
   142.6033684    
   142.6033782    
   142.6033792    
   142.6033857    
   142.6033834    
   142.6033874    
   142.6033913    
   142.6033878    
   142.6033877    
   142.6033871    
   142.6033868    
   142.6033865    
   142.6033860    
   142.6033852    
   142.6033852    
   142.6033847    
   142.6033848    
   142.6033845    
   142.6033843    
   142.6033842    
   142.6033842    
   142.6033841    
   142.6033841    
   142.6033841    
   142.6033841    
   142.6033841    
   142.6033841    
   142.6033841    
   142.6033840    
   142.6033841    
   142.6033840    
   142.6033840    
   142.6033841    
   142.6033841    
   142.6033840    
   142.6033840    
   142.6033840    
   142.6033840    
   142.6033840    
   142.6033840    
   142.6033840    
   142.6033840    
   142.6033840    
   142.6033841    
   142.6033841    
   142.6033841    
   142.6033840    
   142.6033841    
   142.6033840    
