    0.178365732282E-03
    0.188723756759E-03
    0.857269533903E-04
    0.105160139124E-03
    0.121171669779E-03
    0.578713637382E-04
    0.896355475578E-04
    0.791897648081E-04
    0.683958274387E-04
    0.685777648436E-04
    0.688520791091E-04
    0.691450670249E-04
    0.690842387614E-04
    0.690583800111E-04
    0.690000254352E-04
    0.689562309388E-04
    0.689495221587E-04
    0.689557087193E-04
    0.689526099377E-04
    0.689549983272E-04
    0.689596816692E-04
    0.689613726435E-04
    0.689634131933E-04
    0.689645731610E-04
    0.689651939482E-04
    0.689657268101E-04
    0.689657892136E-04
    0.689661655958E-04
    0.689660597416E-04
    0.689663116894E-04
    0.689665220204E-04
    0.689663427493E-04
    0.689663373939E-04
    0.689663017964E-04
    0.689662848163E-04
    0.689662675469E-04
    0.689662424529E-04
    0.689661928669E-04
    0.689661986837E-04
    0.689661647286E-04
    0.689661699464E-04
    0.689661517165E-04
    0.689661375121E-04
    0.689661359210E-04
    0.689661306809E-04
    0.689661262180E-04
    0.689661282479E-04
    0.689661273439E-04
    0.689661262491E-04
    0.689661263307E-04
    0.689661235757E-04
    0.689661242730E-04
    0.689661230242E-04
    0.689661230057E-04
    0.689661233871E-04
    0.689661235415E-04
    0.689661234704E-04
    0.689661238856E-04
    0.689661222690E-04
    0.689661236319E-04
    0.689661225843E-04
    0.689661216786E-04
    0.689661220129E-04
    0.689661229063E-04
    0.689661230673E-04
    0.689661224168E-04
    0.689661234962E-04
    0.689661241010E-04
    0.689661240382E-04
    0.689661242100E-04
    0.689661242178E-04
    0.689661234443E-04
    0.689661239532E-04
