   17.16348122    
   17.86113131    
   12.68048269    
   15.49310274    
   13.00701790    
   12.32315254    
   13.10172116    
   13.62863458    
   14.05629025    
   14.02457347    
   14.01451352    
   14.01478928    
   14.01637009    
   14.01939510    
   14.02035862    
   14.02210645    
   14.02326398    
   14.02280435    
   14.02269474    
   14.02320260    
   14.02375331    
   14.02363802    
   14.02361772    
   14.02364626    
   14.02369001    
   14.02382464    
   14.02357493    
   14.02354874    
   14.02353936    
   14.02352603    
   14.02353614    
   14.02357172    
   14.02354412    
   14.02355993    
   14.02356351    
   14.02355596    
   14.02355916    
   14.02352666    
   14.02352028    
   14.02351480    
   14.02351213    
   14.02350989    
   14.02350755    
   14.02350668    
   14.02350401    
   14.02350508    
   14.02350257    
   14.02350040    
   14.02349916    
   14.02350223    
   14.02350263    
   14.02350262    
   14.02350368    
   14.02349983    
