   91.36432347    
   95.71888450    
   116.8569036    
   123.7676905    
   121.4711848    
   114.4881079    
   105.5807513    
   105.3044806    
   105.8754450    
   106.0257500    
   106.0487503    
   106.0354804    
   106.0244089    
   106.0151556    
   106.0147557    
   106.0096343    
   106.0139220    
   106.0118563    
   106.0116063    
   106.0115985    
   106.0116358    
   106.0116645    
