   165 : nkpt; k-point, vkl, wkpt, nmat below
     1   0.000000000       0.000000000       0.000000000      0.2035416243E-03     287
     2  0.5882352941E-01   0.000000000       0.000000000      0.2442499491E-02     287
     3  0.1176470588       0.000000000       0.000000000      0.2442499491E-02     292
     4  0.1764705882       0.000000000       0.000000000      0.2442499491E-02     298
     5  0.2352941176       0.000000000       0.000000000      0.2442499491E-02     300
     6  0.2941176471       0.000000000       0.000000000      0.2442499491E-02     302
     7  0.3529411765       0.000000000       0.000000000      0.2442499491E-02     298
     8  0.4117647059       0.000000000       0.000000000      0.2442499491E-02     298
     9  0.4705882353       0.000000000       0.000000000      0.2442499491E-02     296
    10  0.5882352941E-01  0.5882352941E-01   0.000000000      0.4884998982E-02     294
    11  0.1176470588      0.5882352941E-01   0.000000000      0.9769997965E-02     296
    12  0.1764705882      0.5882352941E-01   0.000000000      0.9769997965E-02     297
    13  0.2352941176      0.5882352941E-01   0.000000000      0.9769997965E-02     301
    14  0.2941176471      0.5882352941E-01   0.000000000      0.9769997965E-02     298
    15  0.3529411765      0.5882352941E-01   0.000000000      0.9769997965E-02     295
    16  0.4117647059      0.5882352941E-01   0.000000000      0.9769997965E-02     296
    17  0.4705882353      0.5882352941E-01   0.000000000      0.4884998982E-02     298
    18  0.1176470588      0.1176470588       0.000000000      0.4884998982E-02     297
    19  0.1764705882      0.1176470588       0.000000000      0.9769997965E-02     299
    20  0.2352941176      0.1176470588       0.000000000      0.9769997965E-02     298
    21  0.2941176471      0.1176470588       0.000000000      0.9769997965E-02     294
    22  0.3529411765      0.1176470588       0.000000000      0.9769997965E-02     296
    23  0.4117647059      0.1176470588       0.000000000      0.9769997965E-02     295
    24  0.1764705882      0.1764705882       0.000000000      0.4884998982E-02     299
    25  0.2352941176      0.1764705882       0.000000000      0.9769997965E-02     298
    26  0.2941176471      0.1764705882       0.000000000      0.9769997965E-02     293
    27  0.3529411765      0.1764705882       0.000000000      0.9769997965E-02     297
    28  0.4117647059      0.1764705882       0.000000000      0.4884998982E-02     296
    29  0.2352941176      0.2352941176       0.000000000      0.4884998982E-02     297
    30  0.2941176471      0.2352941176       0.000000000      0.9769997965E-02     297
    31  0.3529411765      0.2352941176       0.000000000      0.9769997965E-02     296
    32  0.2941176471      0.2941176471       0.000000000      0.4884998982E-02     297
    33  0.3529411765      0.2941176471       0.000000000      0.4884998982E-02     298
    34  0.5882352941E-01  0.5882352941E-01  0.5882352941E-01  0.1628332994E-02     299
    35  0.1176470588      0.5882352941E-01  0.5882352941E-01  0.4884998982E-02     297
    36  0.1764705882      0.5882352941E-01  0.5882352941E-01  0.4884998982E-02     299
    37  0.2352941176      0.5882352941E-01  0.5882352941E-01  0.4884998982E-02     299
    38  0.2941176471      0.5882352941E-01  0.5882352941E-01  0.4884998982E-02     296
    39  0.3529411765      0.5882352941E-01  0.5882352941E-01  0.4884998982E-02     295
    40  0.4117647059      0.5882352941E-01  0.5882352941E-01  0.4884998982E-02     297
    41  0.9411764706      0.5882352941E-01  0.5882352941E-01  0.1221249746E-02     291
    42  0.1176470588      0.1176470588      0.5882352941E-01  0.4884998982E-02     297
    43  0.1764705882      0.1176470588      0.5882352941E-01  0.9769997965E-02     299
    44  0.2352941176      0.1176470588      0.5882352941E-01  0.9769997965E-02     298
    45  0.2941176471      0.1176470588      0.5882352941E-01  0.9769997965E-02     296
    46  0.3529411765      0.1176470588      0.5882352941E-01  0.9769997965E-02     299
    47  0.4117647059      0.1176470588      0.5882352941E-01  0.4884998982E-02     296
    48  0.8823529412      0.1176470588      0.5882352941E-01  0.4884998982E-02     293
    49  0.1764705882      0.1764705882      0.5882352941E-01  0.4884998982E-02     295
    50  0.2352941176      0.1764705882      0.5882352941E-01  0.9769997965E-02     295
    51  0.2941176471      0.1764705882      0.5882352941E-01  0.9769997965E-02     299
    52  0.3529411765      0.1764705882      0.5882352941E-01  0.9769997965E-02     296
    53  0.8235294118      0.1764705882      0.5882352941E-01  0.4884998982E-02     295
    54  0.8823529412      0.1764705882      0.5882352941E-01  0.4884998982E-02     296
    55  0.2352941176      0.2352941176      0.5882352941E-01  0.4884998982E-02     296
    56  0.2941176471      0.2352941176      0.5882352941E-01  0.9769997965E-02     297
    57  0.3529411765      0.2352941176      0.5882352941E-01  0.4884998982E-02     298
    58  0.7647058824      0.2352941176      0.5882352941E-01  0.4884998982E-02     299
    59  0.8235294118      0.2352941176      0.5882352941E-01  0.9769997965E-02     298
    60  0.2941176471      0.2941176471      0.5882352941E-01  0.4884998982E-02     296
    61  0.7058823529      0.2941176471      0.5882352941E-01  0.4884998982E-02     300
    62  0.7647058824      0.2941176471      0.5882352941E-01  0.9769997965E-02     299
    63  0.8235294118      0.2941176471      0.5882352941E-01  0.4884998982E-02     301
    64  0.6470588235      0.3529411765      0.5882352941E-01  0.4884998982E-02     298
    65  0.7058823529      0.3529411765      0.5882352941E-01  0.9769997965E-02     299
    66  0.7647058824      0.3529411765      0.5882352941E-01  0.9769997965E-02     299
    67  0.5882352941      0.4117647059      0.5882352941E-01  0.4884998982E-02     296
    68  0.6470588235      0.4117647059      0.5882352941E-01  0.9769997965E-02     296
    69  0.7058823529      0.4117647059      0.5882352941E-01  0.9769997965E-02     296
    70  0.7647058824      0.4117647059      0.5882352941E-01  0.4884998982E-02     295
    71  0.5294117647      0.4705882353      0.5882352941E-01  0.4884998982E-02     298
    72  0.5882352941      0.4705882353      0.5882352941E-01  0.9769997965E-02     295
    73  0.6470588235      0.4705882353      0.5882352941E-01  0.9769997965E-02     293
    74  0.7058823529      0.4705882353      0.5882352941E-01  0.9769997965E-02     296
    75  0.5294117647      0.5294117647      0.5882352941E-01  0.4884998982E-02     296
    76  0.5882352941      0.5294117647      0.5882352941E-01  0.9769997965E-02     298
    77  0.6470588235      0.5294117647      0.5882352941E-01  0.9769997965E-02     295
    78  0.7058823529      0.5294117647      0.5882352941E-01  0.4884998982E-02     293
    79  0.5882352941      0.5882352941      0.5882352941E-01  0.4884998982E-02     294
    80  0.6470588235      0.5882352941      0.5882352941E-01  0.9769997965E-02     294
    81  0.6470588235      0.6470588235      0.5882352941E-01  0.1628332994E-02     298
    82  0.1176470588      0.1176470588      0.1176470588      0.1628332994E-02     296
    83  0.1764705882      0.1176470588      0.1176470588      0.4884998982E-02     298
    84  0.2352941176      0.1176470588      0.1176470588      0.4884998982E-02     297
    85  0.2941176471      0.1176470588      0.1176470588      0.4884998982E-02     299
    86  0.3529411765      0.1176470588      0.1176470588      0.4884998982E-02     296
    87  0.8823529412      0.1176470588      0.1176470588      0.1221249746E-02     294
    88  0.1764705882      0.1764705882      0.1176470588      0.4884998982E-02     297
    89  0.2352941176      0.1764705882      0.1176470588      0.9769997965E-02     298
    90  0.2941176471      0.1764705882      0.1176470588      0.9769997965E-02     297
    91  0.3529411765      0.1764705882      0.1176470588      0.4884998982E-02     294
    92  0.8235294118      0.1764705882      0.1176470588      0.4884998982E-02     296
    93  0.2352941176      0.2352941176      0.1176470588      0.4884998982E-02     296
    94  0.2941176471      0.2352941176      0.1176470588      0.9769997965E-02     294
    95  0.7647058824      0.2352941176      0.1176470588      0.4884998982E-02     299
    96  0.8235294118      0.2352941176      0.1176470588      0.4884998982E-02     300
    97  0.2941176471      0.2941176471      0.1176470588      0.1628332994E-02     292
    98  0.7058823529      0.2941176471      0.1176470588      0.4884998982E-02     301
    99  0.7647058824      0.2941176471      0.1176470588      0.9769997965E-02     301
   100  0.6470588235      0.3529411765      0.1176470588      0.4884998982E-02     297
   101  0.7058823529      0.3529411765      0.1176470588      0.9769997965E-02     299
   102  0.7647058824      0.3529411765      0.1176470588      0.4884998982E-02     299
   103  0.5882352941      0.4117647059      0.1176470588      0.4884998982E-02     299
   104  0.6470588235      0.4117647059      0.1176470588      0.9769997965E-02     294
   105  0.7058823529      0.4117647059      0.1176470588      0.9769997965E-02     294
   106  0.5294117647      0.4705882353      0.1176470588      0.4884998982E-02     296
   107  0.5882352941      0.4705882353      0.1176470588      0.9769997965E-02     297
   108  0.6470588235      0.4705882353      0.1176470588      0.9769997965E-02     293
   109  0.7058823529      0.4705882353      0.1176470588      0.4884998982E-02     293
   110  0.5294117647      0.5294117647      0.1176470588      0.4884998982E-02     296
   111  0.5882352941      0.5294117647      0.1176470588      0.9769997965E-02     292
   112  0.6470588235      0.5294117647      0.1176470588      0.9769997965E-02     292
   113  0.5882352941      0.5882352941      0.1176470588      0.4884998982E-02     292
   114  0.6470588235      0.5882352941      0.1176470588      0.4884998982E-02     292
   115  0.1764705882      0.1764705882      0.1764705882      0.1628332994E-02     302
   116  0.2352941176      0.1764705882      0.1764705882      0.4884998982E-02     295
   117  0.2941176471      0.1764705882      0.1764705882      0.4884998982E-02     294
   118  0.8235294118      0.1764705882      0.1764705882      0.1221249746E-02     294
   119  0.2352941176      0.2352941176      0.1764705882      0.4884998982E-02     295
   120  0.2941176471      0.2352941176      0.1764705882      0.4884998982E-02     296
   121  0.7647058824      0.2352941176      0.1764705882      0.4884998982E-02     300
   122  0.7058823529      0.2941176471      0.1764705882      0.4884998982E-02     298
   123  0.7647058824      0.2941176471      0.1764705882      0.4884998982E-02     300
   124  0.6470588235      0.3529411765      0.1764705882      0.4884998982E-02     296
   125  0.7058823529      0.3529411765      0.1764705882      0.9769997965E-02     295
   126  0.5882352941      0.4117647059      0.1764705882      0.4884998982E-02     294
   127  0.6470588235      0.4117647059      0.1764705882      0.9769997965E-02     293
   128  0.7058823529      0.4117647059      0.1764705882      0.4884998982E-02     295
   129  0.5294117647      0.4705882353      0.1764705882      0.4884998982E-02     292
   130  0.5882352941      0.4705882353      0.1764705882      0.9769997965E-02     293
   131  0.6470588235      0.4705882353      0.1764705882      0.9769997965E-02     292
   132  0.5294117647      0.5294117647      0.1764705882      0.4884998982E-02     292
   133  0.5882352941      0.5294117647      0.1764705882      0.9769997965E-02     291
   134  0.6470588235      0.5294117647      0.1764705882      0.4884998982E-02     291
   135  0.5882352941      0.5882352941      0.1764705882      0.4884998982E-02     292
   136  0.2352941176      0.2352941176      0.2352941176      0.1628332994E-02     298
   137  0.7647058824      0.2352941176      0.2352941176      0.1221249746E-02     298
   138  0.7058823529      0.2941176471      0.2352941176      0.4884998982E-02     294
   139  0.6470588235      0.3529411765      0.2352941176      0.4884998982E-02     292
   140  0.7058823529      0.3529411765      0.2352941176      0.4884998982E-02     294
   141  0.5882352941      0.4117647059      0.2352941176      0.4884998982E-02     290
   142  0.6470588235      0.4117647059      0.2352941176      0.9769997965E-02     291
   143  0.5294117647      0.4705882353      0.2352941176      0.4884998982E-02     292
   144  0.5882352941      0.4705882353      0.2352941176      0.9769997965E-02     290
   145  0.6470588235      0.4705882353      0.2352941176      0.4884998982E-02     293
   146  0.5294117647      0.5294117647      0.2352941176      0.4884998982E-02     292
   147  0.5882352941      0.5294117647      0.2352941176      0.9769997965E-02     290
   148  0.5882352941      0.5882352941      0.2352941176      0.1628332994E-02     289
   149  0.7058823529      0.2941176471      0.2941176471      0.1221249746E-02     298
   150  0.6470588235      0.3529411765      0.2941176471      0.4884998982E-02     292
   151  0.5882352941      0.4117647059      0.2941176471      0.4884998982E-02     290
   152  0.6470588235      0.4117647059      0.2941176471      0.4884998982E-02     290
   153  0.5294117647      0.4705882353      0.2941176471      0.4884998982E-02     288
   154  0.5882352941      0.4705882353      0.2941176471      0.9769997965E-02     292
   155  0.5294117647      0.5294117647      0.2941176471      0.4884998982E-02     292
   156  0.5882352941      0.5294117647      0.2941176471      0.4884998982E-02     289
   157  0.6470588235      0.3529411765      0.3529411765      0.1221249746E-02     290
   158  0.5882352941      0.4117647059      0.3529411765      0.4884998982E-02     289
   159  0.5294117647      0.4705882353      0.3529411765      0.4884998982E-02     288
   160  0.5882352941      0.4705882353      0.3529411765      0.4884998982E-02     290
   161  0.5294117647      0.5294117647      0.3529411765      0.4884998982E-02     288
   162  0.5882352941      0.4117647059      0.4117647059      0.1221249746E-02     290
   163  0.5294117647      0.4705882353      0.4117647059      0.4884998982E-02     290
   164  0.5294117647      0.5294117647      0.4117647059      0.1628332994E-02     289
   165  0.5294117647      0.4705882353      0.4705882353      0.1221249746E-02     294
