 
scale
 1.0
 
scale1
 1.0
 
scale2
 1.0
 
scale3
 1.0
 
avec
   5.491934754       5.491934754      -5.491934754    
   5.491934754      -5.491934754       5.491934754    
  -5.491934754       5.491934754       5.491934754    
 
atoms
   1                                    : nspecies
'Rb.in'                                 : spfname
   1                                    : natoms; atpos, bfcmt below
    0.00000000    0.00000000    0.00000000    0.00000000  0.00000000  0.00000000
