 
scale
 1.0
 
scale1
 1.0
 
scale2
 1.0
 
scale3
 1.0
 
avec
   5.253309253       5.253309253       0.000000000    
   5.253309253       0.000000000       5.253309253    
   0.000000000       5.253309253       5.253309253    
 
atoms
   1                                    : nspecies
'Ca.in'                                 : spfname
   1                                    : natoms; atpos, bfcmt below
    0.00000000    0.00000000    0.00000000    0.00000000  0.00000000  0.00000000
