   65.55129078    
   66.73568638    
   69.68083804    
   58.53381240    
   31.75968802    
   21.74800328    
   18.40460115    
   18.23554912    
   18.27941185    
   18.27546684    
   18.27137118    
   18.27056436    
   18.27004345    
   18.27013155    
   18.26990615    
   18.27000671    
   18.27016901    
   18.27032158    
   18.27033657    
   18.27034958    
   18.27031090    
   18.27030382    
   18.27029829    
   18.27028945    
   18.27029718    
   18.27030639    
   18.27028598    
   18.27028821    
   18.27027133    
   18.27026915    
   18.27026503    
   18.27026384    
   18.27026247    
   18.27026155    
   18.27025879    
   18.27025758    
   18.27025704    
   18.27025372    
   18.27025394    
   18.27025505    
   18.27025678    
   18.27025714    
   18.27025723    
   18.27025740    
   18.27025747    
   18.27025735    
   18.27025715    
   18.27025744    
   18.27025754    
   18.27025760    
   18.27025769    
   18.27025768    
   18.27025758    
