    0.170548013531E-03
    0.174912550855E-03
    0.186459775774E-03
    0.950636933827E-04
    0.977357485684E-04
    0.698801785838E-04
    0.976611311165E-04
    0.841223730118E-04
    0.719127141759E-04
    0.835101318837E-04
    0.835173919896E-04
    0.844746816936E-04
    0.847263535094E-04
    0.845902032531E-04
    0.846515523800E-04
    0.844950398229E-04
    0.845951256946E-04
    0.845844163602E-04
    0.845528788482E-04
    0.845327291860E-04
    0.845301339032E-04
    0.845220947489E-04
    0.845314434316E-04
    0.845330606923E-04
    0.845337116495E-04
    0.845321575158E-04
    0.845326012540E-04
    0.845326722419E-04
    0.845359211155E-04
    0.845365424446E-04
    0.845370893406E-04
    0.845372790287E-04
    0.845364973018E-04
    0.845367798474E-04
    0.845366404019E-04
    0.845367910244E-04
    0.845368287368E-04
    0.845369374757E-04
    0.845369743899E-04
    0.845369547571E-04
    0.845369419404E-04
    0.845369372425E-04
    0.845369319674E-04
    0.845369282145E-04
