 
Species :    1 (Re), atom :    1
 APW functions :
  l =  0, energy derivative =  0 :   0.5748498627    
  l =  1, energy derivative =  0 :   0.5748498627    
  l =  2, energy derivative =  0 :   0.5748498627    
  l =  3, energy derivative =  0 :   0.5748498627    
  l =  4, energy derivative =  0 :   0.5748498627    
  l =  5, energy derivative =  0 :   0.5748498627    
  l =  6, energy derivative =  0 :   0.5748498627    
  l =  7, energy derivative =  0 :   0.5748498627    
  l =  8, energy derivative =  0 :   0.5748498627    
  l =  9, energy derivative =  0 :   0.5748498627    
  l = 10, energy derivative =  0 :   0.5748498627    
 local-orbital functions :
  l.o. =  1, l =  0, energy derivative =  0 :   0.5748498627    
  l.o. =  1, l =  0, energy derivative =  1 :   0.5748498627    
  l.o. =  2, l =  1, energy derivative =  0 :   0.5748498627    
  l.o. =  2, l =  1, energy derivative =  1 :   0.5748498627    
  l.o. =  3, l =  2, energy derivative =  0 :   0.5748498627    
  l.o. =  3, l =  2, energy derivative =  1 :   0.5748498627    
  l.o. =  4, l =  3, energy derivative =  0 :   0.5748498627    
  l.o. =  4, l =  3, energy derivative =  1 :   0.5748498627    
  l.o. =  5, l =  3, energy derivative =  0 :   0.5748498627    
  l.o. =  5, l =  3, energy derivative =  0 :  -0.6723523533    
  l.o. =  6, l =  0, energy derivative =  0 :   0.5748498627    
  l.o. =  6, l =  0, energy derivative =  0 :   -2.261944613    
  l.o. =  7, l =  1, energy derivative =  0 :   0.5748498627    
  l.o. =  7, l =  1, energy derivative =  0 :  -0.8559707096    
  l.o. =  8, l =  2, energy derivative =  0 :   0.5748498627    
  l.o. =  8, l =  2, energy derivative =  0 :   0.7976143224    
  l.o. =  9, l =  4, energy derivative =  0 :   0.5748498627    
  l.o. =  9, l =  4, energy derivative =  1 :   0.5748498627    
  l.o. = 10, l =  5, energy derivative =  0 :   0.5748498627    
  l.o. = 10, l =  5, energy derivative =  1 :   0.5748498627    
  l.o. = 11, l =  6, energy derivative =  0 :   0.5748498627    
  l.o. = 11, l =  6, energy derivative =  1 :   0.5748498627    
  l.o. = 12, l =  0, energy derivative =  0 :    1.523330005    
  l.o. = 12, l =  0, energy derivative =  1 :    1.523330005    
  l.o. = 12, l =  0, energy derivative =  2 :    1.523330005    
  l.o. = 13, l =  1, energy derivative =  0 :    2.338145710    
  l.o. = 13, l =  1, energy derivative =  1 :    2.338145710    
  l.o. = 13, l =  1, energy derivative =  2 :    2.338145710    
  l.o. = 14, l =  2, energy derivative =  0 :   0.7976143224    
  l.o. = 14, l =  2, energy derivative =  1 :   0.7976143224    
  l.o. = 14, l =  2, energy derivative =  2 :   0.7976143224    
  l.o. = 15, l =  3, energy derivative =  0 :    2.425800132    
  l.o. = 15, l =  3, energy derivative =  1 :    2.425800132    
  l.o. = 15, l =  3, energy derivative =  2 :    2.425800132    
  l.o. = 16, l =  4, energy derivative =  0 :    3.737201249    
  l.o. = 16, l =  4, energy derivative =  1 :    3.737201249    
  l.o. = 16, l =  4, energy derivative =  2 :    3.737201249    
  l.o. = 17, l =  5, energy derivative =  0 :    5.437908050    
  l.o. = 17, l =  5, energy derivative =  1 :    5.437908050    
  l.o. = 17, l =  5, energy derivative =  2 :    5.437908050    
  l.o. = 18, l =  6, energy derivative =  0 :    7.233866811    
  l.o. = 18, l =  6, energy derivative =  1 :    7.233866811    
  l.o. = 18, l =  6, energy derivative =  2 :    7.233866811    
  l.o. = 19, l =  7, energy derivative =  0 :    9.184475346    
  l.o. = 19, l =  7, energy derivative =  1 :    9.184475346    
  l.o. = 19, l =  7, energy derivative =  2 :    9.184475346    
  l.o. = 20, l =  8, energy derivative =  0 :    11.30652438    
  l.o. = 20, l =  8, energy derivative =  1 :    11.30652438    
  l.o. = 20, l =  8, energy derivative =  2 :    11.30652438    
 
Species :    1 (Re), atom :    2
 APW functions :
  l =  0, energy derivative =  0 :   0.5748498627    
  l =  1, energy derivative =  0 :   0.5748498627    
  l =  2, energy derivative =  0 :   0.5748498627    
  l =  3, energy derivative =  0 :   0.5748498627    
  l =  4, energy derivative =  0 :   0.5748498627    
  l =  5, energy derivative =  0 :   0.5748498627    
  l =  6, energy derivative =  0 :   0.5748498627    
  l =  7, energy derivative =  0 :   0.5748498627    
  l =  8, energy derivative =  0 :   0.5748498627    
  l =  9, energy derivative =  0 :   0.5748498627    
  l = 10, energy derivative =  0 :   0.5748498627    
 local-orbital functions :
  l.o. =  1, l =  0, energy derivative =  0 :   0.5748498627    
  l.o. =  1, l =  0, energy derivative =  1 :   0.5748498627    
  l.o. =  2, l =  1, energy derivative =  0 :   0.5748498627    
  l.o. =  2, l =  1, energy derivative =  1 :   0.5748498627    
  l.o. =  3, l =  2, energy derivative =  0 :   0.5748498627    
  l.o. =  3, l =  2, energy derivative =  1 :   0.5748498627    
  l.o. =  4, l =  3, energy derivative =  0 :   0.5748498627    
  l.o. =  4, l =  3, energy derivative =  1 :   0.5748498627    
  l.o. =  5, l =  3, energy derivative =  0 :   0.5748498627    
  l.o. =  5, l =  3, energy derivative =  0 :  -0.6723523533    
  l.o. =  6, l =  0, energy derivative =  0 :   0.5748498627    
  l.o. =  6, l =  0, energy derivative =  0 :   -2.261944613    
  l.o. =  7, l =  1, energy derivative =  0 :   0.5748498627    
  l.o. =  7, l =  1, energy derivative =  0 :  -0.8559707096    
  l.o. =  8, l =  2, energy derivative =  0 :   0.5748498627    
  l.o. =  8, l =  2, energy derivative =  0 :   0.7976143224    
  l.o. =  9, l =  4, energy derivative =  0 :   0.5748498627    
  l.o. =  9, l =  4, energy derivative =  1 :   0.5748498627    
  l.o. = 10, l =  5, energy derivative =  0 :   0.5748498627    
  l.o. = 10, l =  5, energy derivative =  1 :   0.5748498627    
  l.o. = 11, l =  6, energy derivative =  0 :   0.5748498627    
  l.o. = 11, l =  6, energy derivative =  1 :   0.5748498627    
  l.o. = 12, l =  0, energy derivative =  0 :    1.523330005    
  l.o. = 12, l =  0, energy derivative =  1 :    1.523330005    
  l.o. = 12, l =  0, energy derivative =  2 :    1.523330005    
  l.o. = 13, l =  1, energy derivative =  0 :    2.338145710    
  l.o. = 13, l =  1, energy derivative =  1 :    2.338145710    
  l.o. = 13, l =  1, energy derivative =  2 :    2.338145710    
  l.o. = 14, l =  2, energy derivative =  0 :   0.7976143224    
  l.o. = 14, l =  2, energy derivative =  1 :   0.7976143224    
  l.o. = 14, l =  2, energy derivative =  2 :   0.7976143224    
  l.o. = 15, l =  3, energy derivative =  0 :    2.425800132    
  l.o. = 15, l =  3, energy derivative =  1 :    2.425800132    
  l.o. = 15, l =  3, energy derivative =  2 :    2.425800132    
  l.o. = 16, l =  4, energy derivative =  0 :    3.737201249    
  l.o. = 16, l =  4, energy derivative =  1 :    3.737201249    
  l.o. = 16, l =  4, energy derivative =  2 :    3.737201249    
  l.o. = 17, l =  5, energy derivative =  0 :    5.437908050    
  l.o. = 17, l =  5, energy derivative =  1 :    5.437908050    
  l.o. = 17, l =  5, energy derivative =  2 :    5.437908050    
  l.o. = 18, l =  6, energy derivative =  0 :    7.233866811    
  l.o. = 18, l =  6, energy derivative =  1 :    7.233866811    
  l.o. = 18, l =  6, energy derivative =  2 :    7.233866811    
  l.o. = 19, l =  7, energy derivative =  0 :    9.184475346    
  l.o. = 19, l =  7, energy derivative =  1 :    9.184475346    
  l.o. = 19, l =  7, energy derivative =  2 :    9.184475346    
  l.o. = 20, l =  8, energy derivative =  0 :    11.30652438    
  l.o. = 20, l =  8, energy derivative =  1 :    11.30652438    
  l.o. = 20, l =  8, energy derivative =  2 :    11.30652438    
