  0.6939147929E-03
  0.6850109913E-03
  0.5472803455E-03
  0.4598321103E-03
  0.2692610510E-03
  0.1575082882E-03
  0.1563391006E-03
  0.6240457912E-04
  0.9132851437E-04
  0.1056387346E-03
  0.6388624152E-03
  0.7708317218E-03
  0.4700671551E-03
  0.6513862713E-03
  0.1816014254E-04
  0.5101006460E-04
  0.5252594650E-04
  0.5574410680E-04
  0.6462509058E-04
  0.1881230873E-03
  0.9914309915E-04
