 
Species :    1 (Tc), atom :    1
 n =  1, l =  0, k =  1 :   -767.2512444    
 n =  2, l =  0, k =  1 :   -108.6495111    
 n =  2, l =  1, k =  1 :   -100.1058050    
 n =  2, l =  1, k =  2 :   -95.74239189    
 n =  3, l =  0, k =  1 :   -18.27500739    
 n =  3, l =  1, k =  1 :   -14.99717767    
 n =  3, l =  1, k =  2 :   -14.26657033    
 n =  3, l =  2, k =  2 :   -8.464958943    
 n =  3, l =  2, k =  3 :   -8.325202200    
 
Species :    1 (Tc), atom :    2
 n =  1, l =  0, k =  1 :   -767.2512444    
 n =  2, l =  0, k =  1 :   -108.6495111    
 n =  2, l =  1, k =  1 :   -100.1058050    
 n =  2, l =  1, k =  2 :   -95.74239189    
 n =  3, l =  0, k =  1 :   -18.27500739    
 n =  3, l =  1, k =  1 :   -14.99717767    
 n =  3, l =  1, k =  2 :   -14.26657033    
 n =  3, l =  2, k =  2 :   -8.464958943    
 n =  3, l =  2, k =  3 :   -8.325202200    
