+----------------------------+
| Elk version 8.3.15 started |
+----------------------------+
 
Date (YYYY-MM-DD) : 2022-02-15
Time (hh:mm:ss)   : 00:01:11
 
All units are atomic (Hartree, Bohr, etc.)
 
+------------------------------------------+
| Ground-state run resuming from STATE.OUT |
+------------------------------------------+
 
Lattice vectors :
   4.436617831      -2.561482499       0.000000000    
   0.000000000       5.122964999       0.000000000    
   0.000000000       0.000000000       7.607571334    
 
Reciprocal lattice vectors :
   1.416210624       0.000000000       0.000000000    
  0.7081053120       1.226474377       0.000000000    
   0.000000000       0.000000000      0.8259121119    
 
Unit cell volume      :    172.9097339    
Brillouin zone volume :    1.434564775    
 
Muffin-tin inner radius fraction :   0.1000000000E-01
 
Species :    1 (Ru)
 parameters loaded from : Ru.in
 name : ruthenium
 nuclear charge    :   -44.00000000    
 electronic charge :    44.00000000    
 atomic mass :    184239.3392    
 muffin-tin radius :    2.320000000    
 number of radial points in muffin-tin :   1200
 number on inner part of muffin-tin    :    866
 atomic positions (lattice), magnetic fields (Cartesian) :
   1 :   0.33333333  0.16666667  0.25000000    0.00000000  0.00000000  0.00000000
   2 :  -0.33333333 -0.16666667 -0.25000000    0.00000000  0.00000000  0.00000000
 
Total number of atoms per unit cell :    2
 
Spin treatment :
 spin-unpolarised
 
Number of Bravais lattice symmetries :   24
Number of crystal symmetries         :   24
Crystal has inversion symmetry
Real symmetric eigensolver will be used
 
k-point grid :     17    17    17
k-point offset :    0.000000000       0.000000000       0.000000000    
k-point set is reduced with full crystal symmetry group
Total number of k-points :      297
 
Muffin-tin radius times maximum |G+k| :    8.500000000    
 using gkmax = rgkmax / 2
Maximum |G+k| for APW functions       :    4.250000000    
Maximum (1/2)|G+k|²                   :    9.031250000    
Maximum |G| for potential and density :    34.00000000    
Constant for pseudocharge density :   20
Radial integration step length :    1
 
G-vector grid sizes :     60    60    90
Number of G-vectors :   114725
 
Maximum angular momentum used for
 APW functions                      :   10
 outer part of muffin-tin           :    8
 inner part of muffin-tin           :    1
 
Total nuclear charge    :   -88.00000000    
Total core charge       :    56.00000000    
Total valence charge    :    32.00000000    
Total excess charge     :    0.000000000    
Total electronic charge :    88.00000000    
 
Effective Wigner radius, rₛ :   0.7769911168    
 
Number of empty states         :   40
Total number of valence states :   57
Total number of core states    :   56
 
Conduction state local-orbitals added automatically
Total number of local-orbitals :  252
 
Using Libxc version 05.01.05
Exchange-correlation functional :    100   493   494
 exchange: mgga_x_rscan; correlation: mgga_c_rscan
 
Smearing type :    1
 Methfessel-Paxton order 1, Phys. Rev. B 40, 3616 (1989)
Smearing width :   0.1000000000E-02
Effective electronic temperature (K) :    315.7750248    
 
Mixing type :    3
 Broyden mixing, J. Phys. A: Math. Gen. 17, L317 (1984)
 
Potential read in from STATE.OUT
 
+------------------------------+
| Self-consistent loop started |
+------------------------------+
 
+--------------------+
| Loop number :    1 |
+--------------------+
 
Energies :
 Fermi                       :     0.651411915924    
 sum of eigenvalues          :     -5386.70324021    
 electron kinetic            :      9444.01500513    
 core electron kinetic       :      9181.06398124    
 Coulomb                     :     -18239.7564167    
 Coulomb potential           :     -14471.4094915    
 nuclear-nuclear             :     -998.206837825    
 electron-nuclear            :     -20011.6896662    
 Hartree                     :      2770.14008736    
 Madelung                    :     -11004.0516709    
 xc potential                :     -359.308753862    
 exchange                    :     -266.038535860    
 correlation                 :     -4.71668300895    
 total energy                :     -9066.49663041    
 
Density of states at Fermi energy :    48.11446916    
 (states/Hartree/unit cell)
 
Estimated indirect band gap :   0.3607507634E-03
 from k-point    187 to k-point    184
Estimated direct band gap   :   0.3934893835E-02
 at k-point     80
 
Charges :
 core                        :    56.00000000    
 valence                     :    32.00000000    
 interstitial                :    3.452404205    
 muffin-tins (core leakage)
  species :    1 (Ru)
   atom    1                 :    42.27379790     (  0.4458002536E-06)
   atom    2                 :    42.27379790     (  0.4458002536E-06)
 total in muffin-tins        :    84.54759579    
 total calculated charge     :    87.99967801    
 total charge                :    88.00000000    
 error                       :   0.3219883088E-03
 
Time (CPU seconds) :        70.93
 
+--------------------+
| Loop number :    2 |
+--------------------+
 
Energies :
 Fermi                       :     0.651409519477    
 sum of eigenvalues          :     -5386.70279250    
 electron kinetic            :      9444.01503695    
 core electron kinetic       :      9181.06330008    
 Coulomb                     :     -18239.7557252    
 Coulomb potential           :     -14471.4091059    
 nuclear-nuclear             :     -998.206837825    
 electron-nuclear            :     -20011.6886689    
 Hartree                     :      2770.13978152    
 Madelung                    :     -11004.0511723    
 xc potential                :     -359.308723576    
 exchange                    :     -266.038513256    
 correlation                 :     -4.71668284107    
 total energy                :     -9066.49588437    
 
Density of states at Fermi energy :    48.03377853    
 (states/Hartree/unit cell)
 
Estimated indirect band gap :   0.3770038509E-03
 from k-point    187 to k-point    184
Estimated direct band gap   :   0.3929342633E-02
 at k-point     80
 
Charges :
 core                        :    56.00000000    
 valence                     :    32.00000000    
 interstitial                :    3.452353310    
 muffin-tins (core leakage)
  species :    1 (Ru)
   atom    1                 :    42.27382335     (  0.4456604117E-06)
   atom    2                 :    42.27382335     (  0.4456604117E-06)
 total in muffin-tins        :    84.54764669    
 total calculated charge     :    87.99967801    
 total charge                :    88.00000000    
 error                       :   0.3219926763E-03
 
Wrote STATE.OUT
 
RMS change in Kohn-Sham potential (target) :   0.2750042001E-01 (   10.00000000    )
Absolute change in total energy (target)   :   0.7460372944E-03 (  0.1000000000E-07)
 
Time (CPU seconds) :       139.14
 
+--------------------+
| Loop number :    3 |
+--------------------+
 
Energies :
 Fermi                       :     0.651405525853    
 sum of eigenvalues          :     -5386.70194458    
 electron kinetic            :      9444.01516457    
 core electron kinetic       :      9181.04603951    
 Coulomb                     :     -18239.7544660    
 Coulomb potential           :     -14471.4084458    
 nuclear-nuclear             :     -998.206837825    
 electron-nuclear            :     -20011.6868105    
 Hartree                     :      2770.13918236    
 Madelung                    :     -11004.0502431    
 xc potential                :     -359.308663387    
 exchange                    :     -266.038468016    
 correlation                 :     -4.71668255552    
 total energy                :     -9066.49445195    
 
Density of states at Fermi energy :    47.92715302    
 (states/Hartree/unit cell)
 
Estimated indirect band gap :   0.4086382615E-03
 from k-point    187 to k-point    184
Estimated direct band gap   :   0.3919309941E-02
 at k-point     80
 
Charges :
 core                        :    56.00000000    
 valence                     :    32.00000000    
 interstitial                :    3.452241323    
 muffin-tins (core leakage)
  species :    1 (Ru)
   atom    1                 :    42.27387934     (  0.4456480056E-06)
   atom    2                 :    42.27387934     (  0.4456480056E-06)
 total in muffin-tins        :    84.54775868    
 total calculated charge     :    87.99967800    
 total charge                :    88.00000000    
 error                       :   0.3219965983E-03
 
RMS change in Kohn-Sham potential (target) :   0.2684878472E-01 (   10.00000000    )
Absolute change in total energy (target)   :   0.1618932320E-02 (  0.1000000000E-07)
 
Time (CPU seconds) :       206.76
 
+--------------------+
| Loop number :    4 |
+--------------------+
 
Energies :
 Fermi                       :     0.651308117394    
 sum of eigenvalues          :     -5386.68458589    
 electron kinetic            :      9444.01883994    
 core electron kinetic       :      9181.05078447    
 Coulomb                     :     -18239.7282845    
 Coulomb potential           :     -14471.3960835    
 nuclear-nuclear             :     -998.206837825    
 electron-nuclear            :     -20011.6468097    
 Hartree                     :      2770.12536310    
 Madelung                    :     -11004.0302427    
 xc potential                :     -359.307342297    
 exchange                    :     -266.037478076    
 correlation                 :     -4.71667561473    
 total energy                :     -9066.46359821    
 
Density of states at Fermi energy :    47.26377793    
 (states/Hartree/unit cell)
 
Estimated indirect band gap :   0.2886145990E-03
 from k-point    198 to k-point      6
Estimated direct band gap   :   0.3717817753E-02
 at k-point     80
 
Charges :
 core                        :    56.00000000    
 valence                     :    32.00000000    
 interstitial                :    3.449894718    
 muffin-tins (core leakage)
  species :    1 (Ru)
   atom    1                 :    42.27505264     (  0.4462242948E-06)
   atom    2                 :    42.27505264     (  0.4462242948E-06)
 total in muffin-tins        :    84.55010528    
 total calculated charge     :    87.99967784    
 total charge                :    88.00000000    
 error                       :   0.3221599108E-03
 
Wrote STATE.OUT
 
RMS change in Kohn-Sham potential (target) :   0.1288129255E-01 (   10.00000000    )
Absolute change in total energy (target)   :   0.3125847028E-01 (  0.1000000000E-07)
 
Time (CPU seconds) :       275.73
 
+--------------------+
| Loop number :    5 |
+--------------------+
 
Energies :
 Fermi                       :     0.651262025334    
 sum of eigenvalues          :     -5386.67705550    
 electron kinetic            :      9444.02019407    
 core electron kinetic       :      9181.05521255    
 Coulomb                     :     -18239.7166853    
 Coulomb potential           :     -14471.3905108    
 nuclear-nuclear             :     -998.206837825    
 electron-nuclear            :     -20011.6291842    
 Hartree                     :      2770.11933667    
 Madelung                    :     -11004.0214299    
 xc potential                :     -359.306738726    
 exchange                    :     -266.037029994    
 correlation                 :     -4.71667042119    
 total energy                :     -9066.45019169    
 
Density of states at Fermi energy :    47.92069297    
 (states/Hartree/unit cell)
 
Estimated indirect band gap :   0.2631284211E-03
 from k-point    198 to k-point     85
Estimated direct band gap   :   0.3624044775E-02
 at k-point     80
 
Charges :
 core                        :    56.00000000    
 valence                     :    32.00000000    
 interstitial                :    3.448674268    
 muffin-tins (core leakage)
  species :    1 (Ru)
   atom    1                 :    42.27566287     (  0.4460444707E-06)
   atom    2                 :    42.27566287     (  0.4460444707E-06)
 total in muffin-tins        :    84.55132573    
 total calculated charge     :    87.99967774    
 total charge                :    88.00000000    
 error                       :   0.3222587418E-03
 
RMS change in Kohn-Sham potential (target) :   0.6184978776E-02 (   10.00000000    )
Absolute change in total energy (target)   :   0.2122114085E-01 (  0.1000000000E-07)
 
Time (CPU seconds) :       345.12
 
+--------------------+
| Loop number :    6 |
+--------------------+
 
Energies :
 Fermi                       :     0.651254592289    
 sum of eigenvalues          :     -5386.67507941    
 electron kinetic            :      9444.02010233    
 core electron kinetic       :      9181.05604932    
 Coulomb                     :     -18239.7140403    
 Coulomb potential           :     -14471.3885706    
 nuclear-nuclear             :     -998.206837825    
 electron-nuclear            :     -20011.6258343    
 Hartree                     :      2770.11863184    
 Madelung                    :     -11004.0197550    
 xc potential                :     -359.306611143    
 exchange                    :     -266.036936286    
 correlation                 :     -4.71666810845    
 total energy                :     -9066.44754232    
 
Density of states at Fermi energy :    48.06089741    
 (states/Hartree/unit cell)
 
Estimated indirect band gap :   0.3025171983E-03
 from k-point    118 to k-point    192
Estimated direct band gap   :   0.3596900404E-02
 at k-point     80
 
Charges :
 core                        :    56.00000000    
 valence                     :    32.00000000    
 interstitial                :    3.448237579    
 muffin-tins (core leakage)
  species :    1 (Ru)
   atom    1                 :    42.27588121     (  0.4460659149E-06)
   atom    2                 :    42.27588121     (  0.4460659149E-06)
 total in muffin-tins        :    84.55176242    
 total calculated charge     :    87.99967774    
 total charge                :    88.00000000    
 error                       :   0.3222601959E-03
 
Wrote STATE.OUT
 
RMS change in Kohn-Sham potential (target) :   0.3857356644E-02 (   10.00000000    )
Absolute change in total energy (target)   :   0.7954651133E-02 (  0.1000000000E-07)
 
Time (CPU seconds) :       414.65
 
+--------------------+
| Loop number :    7 |
+--------------------+
 
Energies :
 Fermi                       :     0.651259113726    
 sum of eigenvalues          :     -5386.67370965    
 electron kinetic            :      9444.02037383    
 core electron kinetic       :      9181.05751220    
 Coulomb                     :     -18239.7128820    
 Coulomb potential           :     -14471.3875295    
 nuclear-nuclear             :     -998.206837825    
 electron-nuclear            :     -20011.6245588    
 Hartree                     :      2770.11851465    
 Madelung                    :     -11004.0191172    
 xc potential                :     -359.306553956    
 exchange                    :     -266.036893158    
 correlation                 :     -4.71666704352    
 total energy                :     -9066.44606837    
 
Density of states at Fermi energy :    48.06679508    
 (states/Hartree/unit cell)
 
Estimated indirect band gap :   0.2481106327E-03
 from k-point    118 to k-point    192
Estimated direct band gap   :   0.3585307836E-02
 at k-point     80
 
Charges :
 core                        :    56.00000000    
 valence                     :    32.00000000    
 interstitial                :    3.448006142    
 muffin-tins (core leakage)
  species :    1 (Ru)
   atom    1                 :    42.27599693     (  0.4462705903E-06)
   atom    2                 :    42.27599693     (  0.4462705903E-06)
 total in muffin-tins        :    84.55199386    
 total calculated charge     :    87.99967776    
 total charge                :    88.00000000    
 error                       :   0.3222373989E-03
 
RMS change in Kohn-Sham potential (target) :   0.1965687678E-02 (   10.00000000    )
Absolute change in total energy (target)   :   0.3462616585E-02 (  0.1000000000E-07)
 
Time (CPU seconds) :       482.82
 
+--------------------+
| Loop number :    8 |
+--------------------+
 
Energies :
 Fermi                       :     0.651276058805    
 sum of eigenvalues          :     -5386.67363739    
 electron kinetic            :      9444.02059245    
 core electron kinetic       :      9181.05711432    
 Coulomb                     :     -18239.7141797    
 Coulomb potential           :     -14471.3876080    
 nuclear-nuclear             :     -998.206837825    
 electron-nuclear            :     -20011.6270757    
 Hartree                     :      2770.11973386    
 Madelung                    :     -11004.0203757    
 xc potential                :     -359.306621862    
 exchange                    :     -266.036941449    
 correlation                 :     -4.71666736097    
 total energy                :     -9066.44719603    
 
Density of states at Fermi energy :    48.04040907    
 (states/Hartree/unit cell)
 
Estimated indirect band gap :   0.2540935371E-03
 from k-point    118 to k-point    192
Estimated direct band gap   :   0.3593417735E-02
 at k-point     80
 
Charges :
 core                        :    56.00000000    
 valence                     :    32.00000000    
 interstitial                :    3.448014163    
 muffin-tins (core leakage)
  species :    1 (Ru)
   atom    1                 :    42.27599292     (  0.4461652630E-06)
   atom    2                 :    42.27599292     (  0.4461652630E-06)
 total in muffin-tins        :    84.55198584    
 total calculated charge     :    87.99967781    
 total charge                :    88.00000000    
 error                       :   0.3221867201E-03
 
Wrote STATE.OUT
 
RMS change in Kohn-Sham potential (target) :   0.1390745612E-02 (   10.00000000    )
Absolute change in total energy (target)   :   0.2620041050E-03 (  0.1000000000E-07)
 
Time (CPU seconds) :       549.58
 
+--------------------+
| Loop number :    9 |
+--------------------+
 
Energies :
 Fermi                       :     0.651287758285    
 sum of eigenvalues          :     -5386.67291782    
 electron kinetic            :      9444.02130449    
 core electron kinetic       :      9181.05699417    
 Coulomb                     :     -18239.7142616    
 Coulomb potential           :     -14471.3876017    
 nuclear-nuclear             :     -998.206837825    
 electron-nuclear            :     -20011.6272459    
 Hartree                     :      2770.11982208    
 Madelung                    :     -11004.0204608    
 xc potential                :     -359.306620618    
 exchange                    :     -266.036938238    
 correlation                 :     -4.71666787345    
 total energy                :     -9066.44656322    
 
Density of states at Fermi energy :    48.03635832    
 (states/Hartree/unit cell)
 
Estimated indirect band gap :   0.2580655738E-03
 from k-point    118 to k-point    192
Estimated direct band gap   :   0.3596251500E-02
 at k-point     80
 
Charges :
 core                        :    56.00000000    
 valence                     :    32.00000000    
 interstitial                :    3.448029894    
 muffin-tins (core leakage)
  species :    1 (Ru)
   atom    1                 :    42.27598505     (  0.4460562586E-06)
   atom    2                 :    42.27598505     (  0.4460562586E-06)
 total in muffin-tins        :    84.55197011    
 total calculated charge     :    87.99967784    
 total charge                :    88.00000000    
 error                       :   0.3221608846E-03
 
RMS change in Kohn-Sham potential (target) :   0.6817554429E-03 (   10.00000000    )
Absolute change in total energy (target)   :   0.5673062915E-03 (  0.1000000000E-07)
 
Time (CPU seconds) :       617.89
 
+--------------------+
| Loop number :   10 |
+--------------------+
 
Energies :
 Fermi                       :     0.651286537985    
 sum of eigenvalues          :     -5386.67263570    
 electron kinetic            :      9444.02151265    
 core electron kinetic       :      9181.05730565    
 Coulomb                     :     -18239.7138887    
 Coulomb potential           :     -14471.3875484    
 nuclear-nuclear             :     -998.206837825    
 electron-nuclear            :     -20011.6265534    
 Hartree                     :      2770.11950247    
 Madelung                    :     -11004.0201145    
 xc potential                :     -359.306599916    
 exchange                    :     -266.036922923    
 correlation                 :     -4.71666789332    
 total energy                :     -9066.44596690    
 
Density of states at Fermi energy :    48.04094545    
 (states/Hartree/unit cell)
 
Estimated indirect band gap :   0.2571974791E-03
 from k-point    118 to k-point    192
Estimated direct band gap   :   0.3594008920E-02
 at k-point     80
 
Charges :
 core                        :    56.00000000    
 valence                     :    32.00000000    
 interstitial                :    3.448028587    
 muffin-tins (core leakage)
  species :    1 (Ru)
   atom    1                 :    42.27598571     (  0.4460823746E-06)
   atom    2                 :    42.27598571     (  0.4460823746E-06)
 total in muffin-tins        :    84.55197141    
 total calculated charge     :    87.99967783    
 total charge                :    88.00000000    
 error                       :   0.3221688989E-03
 
Wrote STATE.OUT
 
RMS change in Kohn-Sham potential (target) :   0.8510830049E-03 (   10.00000000    )
Absolute change in total energy (target)   :   0.7381481537E-03 (  0.1000000000E-07)
 
Time (CPU seconds) :       685.33
 
+--------------------+
| Loop number :   11 |
+--------------------+
 
Energies :
 Fermi                       :     0.651281144911    
 sum of eigenvalues          :     -5386.67296313    
 electron kinetic            :      9444.02125235    
 core electron kinetic       :      9181.05725007    
 Coulomb                     :     -18239.7138194    
 Coulomb potential           :     -14471.3876199    
 nuclear-nuclear             :     -998.206837825    
 electron-nuclear            :     -20011.6263433    
 Hartree                     :      2770.11936169    
 Madelung                    :     -11004.0200095    
 xc potential                :     -359.306595588    
 exchange                    :     -266.036920645    
 correlation                 :     -4.71666770907    
 total energy                :     -9066.44615541    
 
Density of states at Fermi energy :    48.04341091    
 (states/Hartree/unit cell)
 
Estimated indirect band gap :   0.2553247401E-03
 from k-point    118 to k-point    192
Estimated direct band gap   :   0.3592964996E-02
 at k-point     80
 
Charges :
 core                        :    56.00000000    
 valence                     :    32.00000000    
 interstitial                :    3.448024238    
 muffin-tins (core leakage)
  species :    1 (Ru)
   atom    1                 :    42.27598788     (  0.4461332423E-06)
   atom    2                 :    42.27598788     (  0.4461332423E-06)
 total in muffin-tins        :    84.55197576    
 total calculated charge     :    87.99967782    
 total charge                :    88.00000000    
 error                       :   0.3221809382E-03
 
RMS change in Kohn-Sham potential (target) :   0.2108086441E-03 (   10.00000000    )
Absolute change in total energy (target)   :   0.3975772415E-05 (  0.1000000000E-07)
 
Time (CPU seconds) :       752.92
 
+--------------------+
| Loop number :   12 |
+--------------------+
 
Energies :
 Fermi                       :     0.651281897157    
 sum of eigenvalues          :     -5386.67292193    
 electron kinetic            :      9444.02130059    
 core electron kinetic       :      9181.05728266    
 Coulomb                     :     -18239.7138448    
 Coulomb potential           :     -14471.3876263    
 nuclear-nuclear             :     -998.206837825    
 electron-nuclear            :     -20011.6263877    
 Hartree                     :      2770.11938070    
 Madelung                    :     -11004.0200317    
 xc potential                :     -359.306596255    
 exchange                    :     -266.036921048    
 correlation                 :     -4.71666772823    
 total energy                :     -9066.44613298    
 
Density of states at Fermi energy :    48.04311167    
 (states/Hartree/unit cell)
 
Estimated indirect band gap :   0.2553363901E-03
 from k-point    118 to k-point    192
Estimated direct band gap   :   0.3593068226E-02
 at k-point     80
 
Charges :
 core                        :    56.00000000    
 valence                     :    32.00000000    
 interstitial                :    3.448023877    
 muffin-tins (core leakage)
  species :    1 (Ru)
   atom    1                 :    42.27598806     (  0.4460202589E-06)
   atom    2                 :    42.27598806     (  0.4460202589E-06)
 total in muffin-tins        :    84.55197612    
 total calculated charge     :    87.99967782    
 total charge                :    88.00000000    
 error                       :   0.3221790501E-03
 
Wrote STATE.OUT
 
RMS change in Kohn-Sham potential (target) :   0.2009554166E-03 (   10.00000000    )
Absolute change in total energy (target)   :   0.2143917845E-04 (  0.1000000000E-07)
 
Time (CPU seconds) :       821.19
 
+--------------------+
| Loop number :   13 |
+--------------------+
 
Energies :
 Fermi                       :     0.651282062436    
 sum of eigenvalues          :     -5386.67291276    
 electron kinetic            :      9444.02131160    
 core electron kinetic       :      9181.05730635    
 Coulomb                     :     -18239.7138486    
 Coulomb potential           :     -14471.3876279    
 nuclear-nuclear             :     -998.206837825    
 electron-nuclear            :     -20011.6263936    
 Hartree                     :      2770.11938284    
 Madelung                    :     -11004.0200346    
 xc potential                :     -359.306596454    
 exchange                    :     -266.036921183    
 correlation                 :     -4.71666773202    
 total energy                :     -9066.44612588    
 
Density of states at Fermi energy :    48.04310561    
 (states/Hartree/unit cell)
 
Estimated indirect band gap :   0.2554311023E-03
 from k-point    118 to k-point    192
Estimated direct band gap   :   0.3593100057E-02
 at k-point     80
 
Charges :
 core                        :    56.00000000    
 valence                     :    32.00000000    
 interstitial                :    3.448024158    
 muffin-tins (core leakage)
  species :    1 (Ru)
   atom    1                 :    42.27598792     (  0.4462535692E-06)
   atom    2                 :    42.27598792     (  0.4462535692E-06)
 total in muffin-tins        :    84.55197584    
 total calculated charge     :    87.99967782    
 total charge                :    88.00000000    
 error                       :   0.3221791866E-03
 
RMS change in Kohn-Sham potential (target) :   0.2814535516E-04 (   10.00000000    )
Absolute change in total energy (target)   :   0.1245452768E-04 (  0.1000000000E-07)
 
Time (CPU seconds) :       890.32
 
+--------------------+
| Loop number :   14 |
+--------------------+
 
Energies :
 Fermi                       :     0.651281882701    
 sum of eigenvalues          :     -5386.67293588    
 electron kinetic            :      9444.02129820    
 core electron kinetic       :      9181.05730306    
 Coulomb                     :     -18239.7138592    
 Coulomb potential           :     -14471.3876373    
 nuclear-nuclear             :     -998.206837825    
 electron-nuclear            :     -20011.6264054    
 Hartree                     :      2770.11938408    
 Madelung                    :     -11004.0200405    
 xc potential                :     -359.306596821    
 exchange                    :     -266.036921492    
 correlation                 :     -4.71666772447    
 total energy                :     -9066.44615018    
 
Density of states at Fermi energy :    48.04304845    
 (states/Hartree/unit cell)
 
Estimated indirect band gap :   0.2553265073E-03
 from k-point    118 to k-point    192
Estimated direct band gap   :   0.3593125808E-02
 at k-point     80
 
Charges :
 core                        :    56.00000000    
 valence                     :    32.00000000    
 interstitial                :    3.448023907    
 muffin-tins (core leakage)
  species :    1 (Ru)
   atom    1                 :    42.27598805     (  0.4463123773E-06)
   atom    2                 :    42.27598805     (  0.4463123773E-06)
 total in muffin-tins        :    84.55197609    
 total calculated charge     :    87.99967782    
 total charge                :    88.00000000    
 error                       :   0.3221795540E-03
 
Wrote STATE.OUT
 
RMS change in Kohn-Sham potential (target) :   0.2535832853E-03 (   10.00000000    )
Absolute change in total energy (target)   :   0.2118654265E-04 (  0.1000000000E-07)
 
Time (CPU seconds) :       958.38
 
+--------------------+
| Loop number :   15 |
+--------------------+
 
Energies :
 Fermi                       :     0.651281994289    
 sum of eigenvalues          :     -5386.67292808    
 electron kinetic            :      9444.02130670    
 core electron kinetic       :      9181.05731528    
 Coulomb                     :     -18239.7138639    
 Coulomb potential           :     -14471.3876379    
 nuclear-nuclear             :     -998.206837825    
 electron-nuclear            :     -20011.6264143    
 Hartree                     :      2770.11938820    
 Madelung                    :     -11004.0200450    
 xc potential                :     -359.306596890    
 exchange                    :     -266.036921537    
 correlation                 :     -4.71666772595    
 total energy                :     -9066.44614648    
 
Density of states at Fermi energy :    48.04304069    
 (states/Hartree/unit cell)
 
Estimated indirect band gap :   0.2553278576E-03
 from k-point    118 to k-point    192
Estimated direct band gap   :   0.3593128618E-02
 at k-point     80
 
Charges :
 core                        :    56.00000000    
 valence                     :    32.00000000    
 interstitial                :    3.448023839    
 muffin-tins (core leakage)
  species :    1 (Ru)
   atom    1                 :    42.27598808     (  0.4462756422E-06)
   atom    2                 :    42.27598808     (  0.4462756422E-06)
 total in muffin-tins        :    84.55197616    
 total calculated charge     :    87.99967782    
 total charge                :    88.00000000    
 error                       :   0.3221793021E-03
 
RMS change in Kohn-Sham potential (target) :   0.1888599130E-03 (   10.00000000    )
Absolute change in total energy (target)   :   0.1598858944E-05 (  0.1000000000E-07)
 
Time (CPU seconds) :      1025.61
 
+--------------------+
| Loop number :   16 |
+--------------------+
 
Energies :
 Fermi                       :     0.651281923011    
 sum of eigenvalues          :     -5386.67293562    
 electron kinetic            :      9444.02130017    
 core electron kinetic       :      9181.05730768    
 Coulomb                     :     -18239.7138629    
 Coulomb potential           :     -14471.3876388    
 nuclear-nuclear             :     -998.206837825    
 electron-nuclear            :     -20011.6264113    
 Hartree                     :      2770.11938625    
 Madelung                    :     -11004.0200435    
 xc potential                :     -359.306596956    
 exchange                    :     -266.036921590    
 correlation                 :     -4.71666772470    
 total energy                :     -9066.44615205    
 
Density of states at Fermi energy :    48.04302236    
 (states/Hartree/unit cell)
 
Estimated indirect band gap :   0.2553302920E-03
 from k-point    118 to k-point    192
Estimated direct band gap   :   0.3593142305E-02
 at k-point     80
 
Charges :
 core                        :    56.00000000    
 valence                     :    32.00000000    
 interstitial                :    3.448023938    
 muffin-tins (core leakage)
  species :    1 (Ru)
   atom    1                 :    42.27598803     (  0.4461012644E-06)
   atom    2                 :    42.27598803     (  0.4461012644E-06)
 total in muffin-tins        :    84.55197606    
 total calculated charge     :    87.99967782    
 total charge                :    88.00000000    
 error                       :   0.3221790667E-03
 
Wrote STATE.OUT
 
RMS change in Kohn-Sham potential (target) :   0.1587819445E-03 (   10.00000000    )
Absolute change in total energy (target)   :   0.5969921403E-05 (  0.1000000000E-07)
 
Time (CPU seconds) :      1093.54
 
+--------------------+
| Loop number :   17 |
+--------------------+
 
Energies :
 Fermi                       :     0.651282088564    
 sum of eigenvalues          :     -5386.67292752    
 electron kinetic            :      9444.02131197    
 core electron kinetic       :      9181.05732912    
 Coulomb                     :     -18239.7138706    
 Coulomb potential           :     -14471.3876424    
 nuclear-nuclear             :     -998.206837825    
 electron-nuclear            :     -20011.6264232    
 Hartree                     :      2770.11939041    
 Madelung                    :     -11004.0200494    
 xc potential                :     -359.306597133    
 exchange                    :     -266.036921716    
 correlation                 :     -4.71666772562    
 total energy                :     -9066.44614806    
 
Density of states at Fermi energy :    48.04294864    
 (states/Hartree/unit cell)
 
Estimated indirect band gap :   0.2552790343E-03
 from k-point    118 to k-point    192
Estimated direct band gap   :   0.3593159798E-02
 at k-point     80
 
Charges :
 core                        :    56.00000000    
 valence                     :    32.00000000    
 interstitial                :    3.448023666    
 muffin-tins (core leakage)
  species :    1 (Ru)
   atom    1                 :    42.27598817     (  0.4462056005E-06)
   atom    2                 :    42.27598817     (  0.4462056005E-06)
 total in muffin-tins        :    84.55197633    
 total calculated charge     :    87.99967782    
 total charge                :    88.00000000    
 error                       :   0.3221788859E-03
 
RMS change in Kohn-Sham potential (target) :   0.3642695101E-04 (   10.00000000    )
Absolute change in total energy (target)   :   0.2503207725E-05 (  0.1000000000E-07)
 
Time (CPU seconds) :      1159.94
 
+--------------------+
| Loop number :   18 |
+--------------------+
 
Energies :
 Fermi                       :     0.651281910719    
 sum of eigenvalues          :     -5386.67294203    
 electron kinetic            :      9444.02129943    
 core electron kinetic       :      9181.05732735    
 Coulomb                     :     -18239.7138701    
 Coulomb potential           :     -14471.3876443    
 nuclear-nuclear             :     -998.206837825    
 electron-nuclear            :     -20011.6264202    
 Hartree                     :      2770.11938793    
 Madelung                    :     -11004.0200479    
 xc potential                :     -359.306597113    
 exchange                    :     -266.036921726    
 correlation                 :     -4.71666772134    
 total energy                :     -9066.44616013    
 
Density of states at Fermi energy :    48.04296273    
 (states/Hartree/unit cell)
 
Estimated indirect band gap :   0.2552271691E-03
 from k-point    118 to k-point    192
Estimated direct band gap   :   0.3593151640E-02
 at k-point     80
 
Charges :
 core                        :    56.00000000    
 valence                     :    32.00000000    
 interstitial                :    3.448023613    
 muffin-tins (core leakage)
  species :    1 (Ru)
   atom    1                 :    42.27598819     (  0.4461892260E-06)
   atom    2                 :    42.27598819     (  0.4461892260E-06)
 total in muffin-tins        :    84.55197639    
 total calculated charge     :    87.99967782    
 total charge                :    88.00000000    
 error                       :   0.3221792063E-03
 
Wrote STATE.OUT
 
RMS change in Kohn-Sham potential (target) :   0.4206915547E-04 (   10.00000000    )
Absolute change in total energy (target)   :   0.1144213456E-04 (  0.1000000000E-07)
 
Time (CPU seconds) :      1227.65
 
+--------------------+
| Loop number :   19 |
+--------------------+
 
Energies :
 Fermi                       :     0.651281831828    
 sum of eigenvalues          :     -5386.67294895    
 electron kinetic            :      9444.02129355    
 core electron kinetic       :      9181.05732752    
 Coulomb                     :     -18239.7138706    
 Coulomb potential           :     -14471.3876454    
 nuclear-nuclear             :     -998.206837825    
 electron-nuclear            :     -20011.6264202    
 Hartree                     :      2770.11938741    
 Madelung                    :     -11004.0200479    
 xc potential                :     -359.306597112    
 exchange                    :     -266.036921733    
 correlation                 :     -4.71666771944    
 total energy                :     -9066.44616653    
 
Density of states at Fermi energy :    48.04296328    
 (states/Hartree/unit cell)
 
Estimated indirect band gap :   0.2551956563E-03
 from k-point    118 to k-point    192
Estimated direct band gap   :   0.3593148297E-02
 at k-point     80
 
Charges :
 core                        :    56.00000000    
 valence                     :    32.00000000    
 interstitial                :    3.448023564    
 muffin-tins (core leakage)
  species :    1 (Ru)
   atom    1                 :    42.27598822     (  0.4461820495E-06)
   atom    2                 :    42.27598822     (  0.4461820495E-06)
 total in muffin-tins        :    84.55197644    
 total calculated charge     :    87.99967782    
 total charge                :    88.00000000    
 error                       :   0.3221793505E-03
 
RMS change in Kohn-Sham potential (target) :   0.3196348460E-04 (   10.00000000    )
Absolute change in total energy (target)   :   0.9266417692E-05 (  0.1000000000E-07)
 
Time (CPU seconds) :      1294.38
 
+--------------------+
| Loop number :   20 |
+--------------------+
 
Energies :
 Fermi                       :     0.651281792294    
 sum of eigenvalues          :     -5386.67295308    
 electron kinetic            :      9444.02129030    
 core electron kinetic       :      9181.05732713    
 Coulomb                     :     -18239.7138711    
 Coulomb potential           :     -14471.3876463    
 nuclear-nuclear             :     -998.206837825    
 electron-nuclear            :     -20011.6264202    
 Hartree                     :      2770.11938698    
 Madelung                    :     -11004.0200479    
 xc potential                :     -359.306597126    
 exchange                    :     -266.036921749    
 correlation                 :     -4.71666771884    
 total energy                :     -9066.44617023    
 
Density of states at Fermi energy :    48.04295832    
 (states/Hartree/unit cell)
 
Estimated indirect band gap :   0.2551783174E-03
 from k-point    118 to k-point    192
Estimated direct band gap   :   0.3593149514E-02
 at k-point     80
 
Charges :
 core                        :    56.00000000    
 valence                     :    32.00000000    
 interstitial                :    3.448023544    
 muffin-tins (core leakage)
  species :    1 (Ru)
   atom    1                 :    42.27598823     (  0.4463376868E-06)
   atom    2                 :    42.27598823     (  0.4463376868E-06)
 total in muffin-tins        :    84.55197646    
 total calculated charge     :    87.99967782    
 total charge                :    88.00000000    
 error                       :   0.3221796922E-03
 
Wrote STATE.OUT
 
RMS change in Kohn-Sham potential (target) :   0.1027099877E-03 (   10.00000000    )
Absolute change in total energy (target)   :   0.6012274753E-05 (  0.1000000000E-07)
 
Time (CPU seconds) :      1363.28
 
+--------------------+
| Loop number :   21 |
+--------------------+
 
Energies :
 Fermi                       :     0.651281785260    
 sum of eigenvalues          :     -5386.67295434    
 electron kinetic            :      9444.02128962    
 core electron kinetic       :      9181.05732120    
 Coulomb                     :     -18239.7138713    
 Coulomb potential           :     -14471.3876468    
 nuclear-nuclear             :     -998.206837825    
 electron-nuclear            :     -20011.6264202    
 Hartree                     :      2770.11938670    
 Madelung                    :     -11004.0200479    
 xc potential                :     -359.306597147    
 exchange                    :     -266.036921767    
 correlation                 :     -4.71666771843    
 total energy                :     -9066.44617120    
 
Density of states at Fermi energy :    48.04295139    
 (states/Hartree/unit cell)
 
Estimated indirect band gap :   0.2551665025E-03
 from k-point    118 to k-point    192
Estimated direct band gap   :   0.3593150680E-02
 at k-point     80
 
Charges :
 core                        :    56.00000000    
 valence                     :    32.00000000    
 interstitial                :    3.448023515    
 muffin-tins (core leakage)
  species :    1 (Ru)
   atom    1                 :    42.27598824     (  0.4461146759E-06)
   atom    2                 :    42.27598824     (  0.4461146759E-06)
 total in muffin-tins        :    84.55197649    
 total calculated charge     :    87.99967782    
 total charge                :    88.00000000    
 error                       :   0.3221792639E-03
 
RMS change in Kohn-Sham potential (target) :   0.8288874547E-03 (   10.00000000    )
Absolute change in total energy (target)   :   0.2476583177E-05 (  0.1000000000E-07)
 
Time (CPU seconds) :      1431.08
 
+--------------------+
| Loop number :   22 |
+--------------------+
 
Energies :
 Fermi                       :     0.651281776973    
 sum of eigenvalues          :     -5386.67294868    
 electron kinetic            :      9444.02129030    
 core electron kinetic       :      9181.05733155    
 Coulomb                     :     -18239.7138645    
 Coulomb potential           :     -14471.3876420    
 nuclear-nuclear             :     -998.206837825    
 electron-nuclear            :     -20011.6264113    
 Hartree                     :      2770.11938466    
 Madelung                    :     -11004.0200435    
 xc potential                :     -359.306596964    
 exchange                    :     -266.036921617    
 correlation                 :     -4.71666772235    
 total energy                :     -9066.44616354    
 
Density of states at Fermi energy :    48.04303295    
 (states/Hartree/unit cell)
 
Estimated indirect band gap :   0.2552856606E-03
 from k-point    118 to k-point    192
Estimated direct band gap   :   0.3593138754E-02
 at k-point     80
 
Charges :
 core                        :    56.00000000    
 valence                     :    32.00000000    
 interstitial                :    3.448023883    
 muffin-tins (core leakage)
  species :    1 (Ru)
   atom    1                 :    42.27598806     (  0.4461082028E-06)
   atom    2                 :    42.27598806     (  0.4461082028E-06)
 total in muffin-tins        :    84.55197612    
 total calculated charge     :    87.99967782    
 total charge                :    88.00000000    
 error                       :   0.3221792942E-03
 
Wrote STATE.OUT
 
RMS change in Kohn-Sham potential (target) :   0.1283631702E-03 (   10.00000000    )
Absolute change in total energy (target)   :   0.7041209756E-05 (  0.1000000000E-07)
 
Time (CPU seconds) :      1498.47
 
+--------------------+
| Loop number :   23 |
+--------------------+
 
Energies :
 Fermi                       :     0.651281544580    
 sum of eigenvalues          :     -5386.67297210    
 electron kinetic            :      9444.02127295    
 core electron kinetic       :      9181.05732212    
 Coulomb                     :     -18239.7138690    
 Coulomb potential           :     -14471.3876480    
 nuclear-nuclear             :     -998.206837825    
 electron-nuclear            :     -20011.6264143    
 Hartree                     :      2770.11938316    
 Madelung                    :     -11004.0200450    
 xc potential                :     -359.306597060    
 exchange                    :     -266.036921731    
 correlation                 :     -4.71666771414    
 total energy                :     -9066.44618546    
 
Density of states at Fermi energy :    48.04301005    
 (states/Hartree/unit cell)
 
Estimated indirect band gap :   0.2551612597E-03
 from k-point    118 to k-point    192
Estimated direct band gap   :   0.3593136446E-02
 at k-point     80
 
Charges :
 core                        :    56.00000000    
 valence                     :    32.00000000    
 interstitial                :    3.448023646    
 muffin-tins (core leakage)
  species :    1 (Ru)
   atom    1                 :    42.27598818     (  0.4462155623E-06)
   atom    2                 :    42.27598818     (  0.4462155623E-06)
 total in muffin-tins        :    84.55197635    
 total calculated charge     :    87.99967782    
 total charge                :    88.00000000    
 error                       :   0.3221798779E-03
 
RMS change in Kohn-Sham potential (target) :   0.4847548544E-03 (   10.00000000    )
Absolute change in total energy (target)   :   0.2016041617E-04 (  0.1000000000E-07)
 
Time (CPU seconds) :      1565.88
 
+--------------------+
| Loop number :   24 |
+--------------------+
 
Energies :
 Fermi                       :     0.651281637755    
 sum of eigenvalues          :     -5386.67296498    
 electron kinetic            :      9444.02127960    
 core electron kinetic       :      9181.05732843    
 Coulomb                     :     -18239.7138702    
 Coulomb potential           :     -14471.3876475    
 nuclear-nuclear             :     -998.206837825    
 electron-nuclear            :     -20011.6264173    
 Hartree                     :      2770.11938488    
 Madelung                    :     -11004.0200465    
 xc potential                :     -359.306597093    
 exchange                    :     -266.036921744    
 correlation                 :     -4.71666771546    
 total energy                :     -9066.44618006    
 
Density of states at Fermi energy :    48.04299310    
 (states/Hartree/unit cell)
 
Estimated indirect band gap :   0.2551681569E-03
 from k-point    118 to k-point    192
Estimated direct band gap   :   0.3593140380E-02
 at k-point     80
 
Charges :
 core                        :    56.00000000    
 valence                     :    32.00000000    
 interstitial                :    3.448023601    
 muffin-tins (core leakage)
  species :    1 (Ru)
   atom    1                 :    42.27598820     (  0.4462421579E-06)
   atom    2                 :    42.27598820     (  0.4462421579E-06)
 total in muffin-tins        :    84.55197640    
 total calculated charge     :    87.99967782    
 total charge                :    88.00000000    
 error                       :   0.3221797580E-03
 
Wrote STATE.OUT
 
RMS change in Kohn-Sham potential (target) :   0.4129437219E-04 (   10.00000000    )
Absolute change in total energy (target)   :   0.3630557330E-06 (  0.1000000000E-07)
 
Time (CPU seconds) :      1633.90
 
+--------------------+
| Loop number :   25 |
+--------------------+
 
Energies :
 Fermi                       :     0.651281622595    
 sum of eigenvalues          :     -5386.67296733    
 electron kinetic            :      9444.02127810    
 core electron kinetic       :      9181.05732780    
 Coulomb                     :     -18239.7138706    
 Coulomb potential           :     -14471.3876483    
 nuclear-nuclear             :     -998.206837825    
 electron-nuclear            :     -20011.6264173    
 Hartree                     :      2770.11938447    
 Madelung                    :     -11004.0200465    
 xc potential                :     -359.306597116    
 exchange                    :     -266.036921763    
 correlation                 :     -4.71666771564    
 total energy                :     -9066.44618199    
 
Density of states at Fermi energy :    48.04298290    
 (states/Hartree/unit cell)
 
Estimated indirect band gap :   0.2551478506E-03
 from k-point    118 to k-point    192
Estimated direct band gap   :   0.3593141610E-02
 at k-point     80
 
Charges :
 core                        :    56.00000000    
 valence                     :    32.00000000    
 interstitial                :    3.448023551    
 muffin-tins (core leakage)
  species :    1 (Ru)
   atom    1                 :    42.27598822     (  0.4460834830E-06)
   atom    2                 :    42.27598822     (  0.4460834830E-06)
 total in muffin-tins        :    84.55197645    
 total calculated charge     :    87.99967782    
 total charge                :    88.00000000    
 error                       :   0.3221794621E-03
 
RMS change in Kohn-Sham potential (target) :   0.6168587700E-04 (   10.00000000    )
Absolute change in total energy (target)   :   0.1836493539E-05 (  0.1000000000E-07)
 
Time (CPU seconds) :      1700.84
 
+--------------------+
| Loop number :   26 |
+--------------------+
 
Energies :
 Fermi                       :     0.651281632502    
 sum of eigenvalues          :     -5386.67296642    
 electron kinetic            :      9444.02127897    
 core electron kinetic       :      9181.05732671    
 Coulomb                     :     -18239.7138706    
 Coulomb potential           :     -14471.3876483    
 nuclear-nuclear             :     -998.206837825    
 electron-nuclear            :     -20011.6264173    
 Hartree                     :      2770.11938449    
 Madelung                    :     -11004.0200465    
 xc potential                :     -359.306597113    
 exchange                    :     -266.036921764    
 correlation                 :     -4.71666771510    
 total energy                :     -9066.44618110    
 
Density of states at Fermi energy :    48.04298263    
 (states/Hartree/unit cell)
 
Estimated indirect band gap :   0.2551505465E-03
 from k-point    118 to k-point    192
Estimated direct band gap   :   0.3593141705E-02
 at k-point     80
 
Charges :
 core                        :    56.00000000    
 valence                     :    32.00000000    
 interstitial                :    3.448023552    
 muffin-tins (core leakage)
  species :    1 (Ru)
   atom    1                 :    42.27598822     (  0.4462798024E-06)
   atom    2                 :    42.27598822     (  0.4462798024E-06)
 total in muffin-tins        :    84.55197645    
 total calculated charge     :    87.99967782    
 total charge                :    88.00000000    
 error                       :   0.3221798421E-03
 
Wrote STATE.OUT
 
RMS change in Kohn-Sham potential (target) :   0.2800121701E-03 (   10.00000000    )
Absolute change in total energy (target)   :   0.4282101145E-06 (  0.1000000000E-07)
 
Time (CPU seconds) :      1768.88
 
+--------------------+
| Loop number :   27 |
+--------------------+
 
Energies :
 Fermi                       :     0.651281663388    
 sum of eigenvalues          :     -5386.67296388    
 electron kinetic            :      9444.02128104    
 core electron kinetic       :      9181.05732602    
 Coulomb                     :     -18239.7138704    
 Coulomb potential           :     -14471.3876478    
 nuclear-nuclear             :     -998.206837825    
 electron-nuclear            :     -20011.6264173    
 Hartree                     :      2770.11938473    
 Madelung                    :     -11004.0200465    
 xc potential                :     -359.306597119    
 exchange                    :     -266.036921756    
 correlation                 :     -4.71666771735    
 total energy                :     -9066.44617879    
 
Density of states at Fermi energy :    48.04297794    
 (states/Hartree/unit cell)
 
Estimated indirect band gap :   0.2551542003E-03
 from k-point    118 to k-point    192
Estimated direct band gap   :   0.3593142690E-02
 at k-point     80
 
Charges :
 core                        :    56.00000000    
 valence                     :    32.00000000    
 interstitial                :    3.448023543    
 muffin-tins (core leakage)
  species :    1 (Ru)
   atom    1                 :    42.27598823     (  0.4461466645E-06)
   atom    2                 :    42.27598823     (  0.4461466645E-06)
 total in muffin-tins        :    84.55197646    
 total calculated charge     :    87.99967782    
 total charge                :    88.00000000    
 error                       :   0.3221795359E-03
 
RMS change in Kohn-Sham potential (target) :   0.4267015053E-03 (   10.00000000    )
Absolute change in total energy (target)   :   0.2420178134E-05 (  0.1000000000E-07)
 
Time (CPU seconds) :      1835.10
 
+--------------------+
| Loop number :   28 |
+--------------------+
 
Energies :
 Fermi                       :     0.651281689381    
 sum of eigenvalues          :     -5386.67296123    
 electron kinetic            :      9444.02128305    
 core electron kinetic       :      9181.05732805    
 Coulomb                     :     -18239.7138700    
 Coulomb potential           :     -14471.3876472    
 nuclear-nuclear             :     -998.206837825    
 electron-nuclear            :     -20011.6264173    
 Hartree                     :      2770.11938504    
 Madelung                    :     -11004.0200465    
 xc potential                :     -359.306597108    
 exchange                    :     -266.036921746    
 correlation                 :     -4.71666771732    
 total energy                :     -9066.44617645    
 
Density of states at Fermi energy :    48.04298057    
 (states/Hartree/unit cell)
 
Estimated indirect band gap :   0.2551664025E-03
 from k-point    118 to k-point    192
Estimated direct band gap   :   0.3593142730E-02
 at k-point     80
 
Charges :
 core                        :    56.00000000    
 valence                     :    32.00000000    
 interstitial                :    3.448023561    
 muffin-tins (core leakage)
  species :    1 (Ru)
   atom    1                 :    42.27598822     (  0.4460936012E-06)
   atom    2                 :    42.27598822     (  0.4460936012E-06)
 total in muffin-tins        :    84.55197644    
 total calculated charge     :    87.99967782    
 total charge                :    88.00000000    
 error                       :   0.3221793661E-03
 
Wrote STATE.OUT
 
RMS change in Kohn-Sham potential (target) :   0.3717196003E-03 (   10.00000000    )
Absolute change in total energy (target)   :   0.2940536433E-05 (  0.1000000000E-07)
 
Time (CPU seconds) :      1903.19
 
+--------------------+
| Loop number :   29 |
+--------------------+
 
Energies :
 Fermi                       :     0.651281672325    
 sum of eigenvalues          :     -5386.67296295    
 electron kinetic            :      9444.02128192    
 core electron kinetic       :      9181.05732881    
 Coulomb                     :     -18239.7138703    
 Coulomb potential           :     -14471.3876477    
 nuclear-nuclear             :     -998.206837825    
 electron-nuclear            :     -20011.6264173    
 Hartree                     :      2770.11938475    
 Madelung                    :     -11004.0200465    
 xc potential                :     -359.306597115    
 exchange                    :     -266.036921759    
 correlation                 :     -4.71666771573    
 total energy                :     -9066.44617788    
 
Density of states at Fermi energy :    48.04297832    
 (states/Hartree/unit cell)
 
Estimated indirect band gap :   0.2551563251E-03
 from k-point    118 to k-point    192
Estimated direct band gap   :   0.3593142516E-02
 at k-point     80
 
Charges :
 core                        :    56.00000000    
 valence                     :    32.00000000    
 interstitial                :    3.448023542    
 muffin-tins (core leakage)
  species :    1 (Ru)
   atom    1                 :    42.27598823     (  0.4462569976E-06)
   atom    2                 :    42.27598823     (  0.4462569976E-06)
 total in muffin-tins        :    84.55197646    
 total calculated charge     :    87.99967782    
 total charge                :    88.00000000    
 error                       :   0.3221797407E-03
 
RMS change in Kohn-Sham potential (target) :   0.5326041080E-04 (   10.00000000    )
Absolute change in total energy (target)   :   0.6982663763E-06 (  0.1000000000E-07)
 
Time (CPU seconds) :      1970.21
 
+--------------------+
| Loop number :   30 |
+--------------------+
 
Energies :
 Fermi                       :     0.651281660805    
 sum of eigenvalues          :     -5386.67296432    
 electron kinetic            :      9444.02128094    
 core electron kinetic       :      9181.05732908    
 Coulomb                     :     -18239.7138720    
 Coulomb potential           :     -14471.3876481    
 nuclear-nuclear             :     -998.206837825    
 electron-nuclear            :     -20011.6264202    
 Hartree                     :      2770.11938604    
 Madelung                    :     -11004.0200479    
 xc potential                :     -359.306597126    
 exchange                    :     -266.036921769    
 correlation                 :     -4.71666771562    
 total energy                :     -9066.44618054    
 
Density of states at Fermi energy :    48.04297467    
 (states/Hartree/unit cell)
 
Estimated indirect band gap :   0.2551471958E-03
 from k-point    118 to k-point    192
Estimated direct band gap   :   0.3593142752E-02
 at k-point     80
 
Charges :
 core                        :    56.00000000    
 valence                     :    32.00000000    
 interstitial                :    3.448023523    
 muffin-tins (core leakage)
  species :    1 (Ru)
   atom    1                 :    42.27598824     (  0.4461667231E-06)
   atom    2                 :    42.27598824     (  0.4461667231E-06)
 total in muffin-tins        :    84.55197648    
 total calculated charge     :    87.99967782    
 total charge                :    88.00000000    
 error                       :   0.3221795827E-03
 
Wrote STATE.OUT
 
RMS change in Kohn-Sham potential (target) :   0.2815028143E-03 (   10.00000000    )
Absolute change in total energy (target)   :   0.2835275154E-05 (  0.1000000000E-07)
 
Time (CPU seconds) :      2039.40
 
+--------------------+
| Loop number :   31 |
+--------------------+
 
Energies :
 Fermi                       :     0.651281652816    
 sum of eigenvalues          :     -5386.67296509    
 electron kinetic            :      9444.02128011    
 core electron kinetic       :      9181.05732912    
 Coulomb                     :     -18239.7138720    
 Coulomb potential           :     -14471.3876481    
 nuclear-nuclear             :     -998.206837825    
 electron-nuclear            :     -20011.6264202    
 Hartree                     :      2770.11938607    
 Madelung                    :     -11004.0200479    
 xc potential                :     -359.306597121    
 exchange                    :     -266.036921761    
 correlation                 :     -4.71666771658    
 total energy                :     -9066.44618134    
 
Density of states at Fermi energy :    48.04297460    
 (states/Hartree/unit cell)
 
Estimated indirect band gap :   0.2551447122E-03
 from k-point    118 to k-point    192
Estimated direct band gap   :   0.3593142670E-02
 at k-point     80
 
Charges :
 core                        :    56.00000000    
 valence                     :    32.00000000    
 interstitial                :    3.448023522    
 muffin-tins (core leakage)
  species :    1 (Ru)
   atom    1                 :    42.27598824     (  0.4462530114E-06)
   atom    2                 :    42.27598824     (  0.4462530114E-06)
 total in muffin-tins        :    84.55197648    
 total calculated charge     :    87.99967782    
 total charge                :    88.00000000    
 error                       :   0.3221797502E-03
 
RMS change in Kohn-Sham potential (target) :   0.2054942022E-03 (   10.00000000    )
Absolute change in total energy (target)   :   0.1501864972E-05 (  0.1000000000E-07)
 
Time (CPU seconds) :      2106.59
 
+--------------------+
| Loop number :   32 |
+--------------------+
 
Energies :
 Fermi                       :     0.651281645444    
 sum of eigenvalues          :     -5386.67296596    
 electron kinetic            :      9444.02127961    
 core electron kinetic       :      9181.05732922    
 Coulomb                     :     -18239.7138722    
 Coulomb potential           :     -14471.3876484    
 nuclear-nuclear             :     -998.206837825    
 electron-nuclear            :     -20011.6264202    
 Hartree                     :      2770.11938589    
 Madelung                    :     -11004.0200479    
 xc potential                :     -359.306597131    
 exchange                    :     -266.036921772    
 correlation                 :     -4.71666771583    
 total energy                :     -9066.44618203    
 
Density of states at Fermi energy :    48.04297241    
 (states/Hartree/unit cell)
 
Estimated indirect band gap :   0.2551393362E-03
 from k-point    118 to k-point    192
Estimated direct band gap   :   0.3593142783E-02
 at k-point     80
 
Charges :
 core                        :    56.00000000    
 valence                     :    32.00000000    
 interstitial                :    3.448023511    
 muffin-tins (core leakage)
  species :    1 (Ru)
   atom    1                 :    42.27598824     (  0.4461557204E-06)
   atom    2                 :    42.27598824     (  0.4461557204E-06)
 total in muffin-tins        :    84.55197649    
 total calculated charge     :    87.99967782    
 total charge                :    88.00000000    
 error                       :   0.3221795501E-03
 
Wrote STATE.OUT
 
RMS change in Kohn-Sham potential (target) :   0.4648660440E-04 (   10.00000000    )
Absolute change in total energy (target)   :   0.1066253390E-05 (  0.1000000000E-07)
 
Time (CPU seconds) :      2174.78
 
+--------------------+
| Loop number :   33 |
+--------------------+
 
Energies :
 Fermi                       :     0.651281643841    
 sum of eigenvalues          :     -5386.67296615    
 electron kinetic            :      9444.02127945    
 core electron kinetic       :      9181.05732914    
 Coulomb                     :     -18239.7138722    
 Coulomb potential           :     -14471.3876485    
 nuclear-nuclear             :     -998.206837825    
 electron-nuclear            :     -20011.6264202    
 Hartree                     :      2770.11938588    
 Madelung                    :     -11004.0200479    
 xc potential                :     -359.306597130    
 exchange                    :     -266.036921771    
 correlation                 :     -4.71666771593    
 total energy                :     -9066.44618220    
 
Density of states at Fermi energy :    48.04297197    
 (states/Hartree/unit cell)
 
Estimated indirect band gap :   0.2551383093E-03
 from k-point    118 to k-point    192
Estimated direct band gap   :   0.3593142820E-02
 at k-point     80
 
Charges :
 core                        :    56.00000000    
 valence                     :    32.00000000    
 interstitial                :    3.448023510    
 muffin-tins (core leakage)
  species :    1 (Ru)
   atom    1                 :    42.27598824     (  0.4462000369E-06)
   atom    2                 :    42.27598824     (  0.4462000369E-06)
 total in muffin-tins        :    84.55197649    
 total calculated charge     :    87.99967782    
 total charge                :    88.00000000    
 error                       :   0.3221796695E-03
 
RMS change in Kohn-Sham potential (target) :   0.4222908136E-04 (   10.00000000    )
Absolute change in total energy (target)   :   0.4412449925E-06 (  0.1000000000E-07)
 
Time (CPU seconds) :      2243.12
 
+--------------------+
| Loop number :   34 |
+--------------------+
 
Energies :
 Fermi                       :     0.651281643432    
 sum of eigenvalues          :     -5386.67296620    
 electron kinetic            :      9444.02127945    
 core electron kinetic       :      9181.05732945    
 Coulomb                     :     -18239.7138722    
 Coulomb potential           :     -14471.3876485    
 nuclear-nuclear             :     -998.206837825    
 electron-nuclear            :     -20011.6264202    
 Hartree                     :      2770.11938584    
 Madelung                    :     -11004.0200479    
 xc potential                :     -359.306597131    
 exchange                    :     -266.036921774    
 correlation                 :     -4.71666771544    
 total energy                :     -9066.44618223    
 
Density of states at Fermi energy :    48.04297171    
 (states/Hartree/unit cell)
 
Estimated indirect band gap :   0.2551378487E-03
 from k-point    118 to k-point    192
Estimated direct band gap   :   0.3593142844E-02
 at k-point     80
 
Charges :
 core                        :    56.00000000    
 valence                     :    32.00000000    
 interstitial                :    3.448023510    
 muffin-tins (core leakage)
  species :    1 (Ru)
   atom    1                 :    42.27598825     (  0.4461958021E-06)
   atom    2                 :    42.27598825     (  0.4461958021E-06)
 total in muffin-tins        :    84.55197649    
 total calculated charge     :    87.99967782    
 total charge                :    88.00000000    
 error                       :   0.3221796418E-03
 
Wrote STATE.OUT
 
RMS change in Kohn-Sham potential (target) :   0.1890958426E-03 (   10.00000000    )
Absolute change in total energy (target)   :   0.1396983862E-06 (  0.1000000000E-07)
 
Time (CPU seconds) :      2310.74
 
+--------------------+
| Loop number :   35 |
+--------------------+
 
Energies :
 Fermi                       :     0.651281640392    
 sum of eigenvalues          :     -5386.67296656    
 electron kinetic            :      9444.02127920    
 core electron kinetic       :      9181.05732937    
 Coulomb                     :     -18239.7138722    
 Coulomb potential           :     -14471.3876486    
 nuclear-nuclear             :     -998.206837825    
 electron-nuclear            :     -20011.6264202    
 Hartree                     :      2770.11938579    
 Madelung                    :     -11004.0200479    
 xc potential                :     -359.306597132    
 exchange                    :     -266.036921777    
 correlation                 :     -4.71666771533    
 total energy                :     -9066.44618253    
 
Density of states at Fermi energy :    48.04297081    
 (states/Hartree/unit cell)
 
Estimated indirect band gap :   0.2551357510E-03
 from k-point    118 to k-point    192
Estimated direct band gap   :   0.3593142898E-02
 at k-point     80
 
Charges :
 core                        :    56.00000000    
 valence                     :    32.00000000    
 interstitial                :    3.448023506    
 muffin-tins (core leakage)
  species :    1 (Ru)
   atom    1                 :    42.27598825     (  0.4461439254E-06)
   atom    2                 :    42.27598825     (  0.4461439254E-06)
 total in muffin-tins        :    84.55197649    
 total calculated charge     :    87.99967782    
 total charge                :    88.00000000    
 error                       :   0.3221795259E-03
 
RMS change in Kohn-Sham potential (target) :   0.7336496781E-04 (   10.00000000    )
Absolute change in total energy (target)   :   0.3364111762E-06 (  0.1000000000E-07)
 
Time (CPU seconds) :      2379.28
 
+--------------------+
| Loop number :   36 |
+--------------------+
 
Energies :
 Fermi                       :     0.651281640210    
 sum of eigenvalues          :     -5386.67296657    
 electron kinetic            :      9444.02127884    
 core electron kinetic       :      9181.05732862    
 Coulomb                     :     -18239.7138721    
 Coulomb potential           :     -14471.3876483    
 nuclear-nuclear             :     -998.206837825    
 electron-nuclear            :     -20011.6264202    
 Hartree                     :      2770.11938596    
 Madelung                    :     -11004.0200479    
 xc potential                :     -359.306597129    
 exchange                    :     -266.036921764    
 correlation                 :     -4.71666771675    
 total energy                :     -9066.44618272    
 
Density of states at Fermi energy :    48.04297080    
 (states/Hartree/unit cell)
 
Estimated indirect band gap :   0.2551359331E-03
 from k-point    118 to k-point    192
Estimated direct band gap   :   0.3593142892E-02
 at k-point     80
 
Charges :
 core                        :    56.00000000    
 valence                     :    32.00000000    
 interstitial                :    3.448023507    
 muffin-tins (core leakage)
  species :    1 (Ru)
   atom    1                 :    42.27598825     (  0.4462481797E-06)
   atom    2                 :    42.27598825     (  0.4462481797E-06)
 total in muffin-tins        :    84.55197649    
 total calculated charge     :    87.99967782    
 total charge                :    88.00000000    
 error                       :   0.3221797616E-03
 
Wrote STATE.OUT
 
RMS change in Kohn-Sham potential (target) :   0.3675556172E-03 (   10.00000000    )
Absolute change in total energy (target)   :   0.2656215656E-06 (  0.1000000000E-07)
 
Time (CPU seconds) :      2447.38
 
+--------------------+
| Loop number :   37 |
+--------------------+
 
Energies :
 Fermi                       :     0.651281643845    
 sum of eigenvalues          :     -5386.67296617    
 electron kinetic            :      9444.02127930    
 core electron kinetic       :      9181.05732881    
 Coulomb                     :     -18239.7138721    
 Coulomb potential           :     -14471.3876483    
 nuclear-nuclear             :     -998.206837825    
 electron-nuclear            :     -20011.6264202    
 Hartree                     :      2770.11938594    
 Madelung                    :     -11004.0200479    
 xc potential                :     -359.306597126    
 exchange                    :     -266.036921765    
 correlation                 :     -4.71666771687    
 total energy                :     -9066.44618228    
 
Density of states at Fermi energy :    48.04297191    
 (states/Hartree/unit cell)
 
Estimated indirect band gap :   0.2551384278E-03
 from k-point    118 to k-point    192
Estimated direct band gap   :   0.3593142834E-02
 at k-point     80
 
Charges :
 core                        :    56.00000000    
 valence                     :    32.00000000    
 interstitial                :    3.448023511    
 muffin-tins (core leakage)
  species :    1 (Ru)
   atom    1                 :    42.27598824     (  0.4462458634E-06)
   atom    2                 :    42.27598824     (  0.4462458634E-06)
 total in muffin-tins        :    84.55197649    
 total calculated charge     :    87.99967782    
 total charge                :    88.00000000    
 error                       :   0.3221797523E-03
 
RMS change in Kohn-Sham potential (target) :   0.3003875151E-03 (   10.00000000    )
Absolute change in total energy (target)   :   0.3655331966E-06 (  0.1000000000E-07)
 
Time (CPU seconds) :      2514.24
 
+--------------------+
| Loop number :   38 |
+--------------------+
 
Energies :
 Fermi                       :     0.651281645464    
 sum of eigenvalues          :     -5386.67296600    
 electron kinetic            :      9444.02127951    
 core electron kinetic       :      9181.05732912    
 Coulomb                     :     -18239.7138721    
 Coulomb potential           :     -14471.3876484    
 nuclear-nuclear             :     -998.206837825    
 electron-nuclear            :     -20011.6264202    
 Hartree                     :      2770.11938592    
 Madelung                    :     -11004.0200479    
 xc potential                :     -359.306597131    
 exchange                    :     -266.036921770    
 correlation                 :     -4.71666771596    
 total energy                :     -9066.44618210    
 
Density of states at Fermi energy :    48.04297208    
 (states/Hartree/unit cell)
 
Estimated indirect band gap :   0.2551393162E-03
 from k-point    118 to k-point    192
Estimated direct band gap   :   0.3593142810E-02
 at k-point     80
 
Charges :
 core                        :    56.00000000    
 valence                     :    32.00000000    
 interstitial                :    3.448023511    
 muffin-tins (core leakage)
  species :    1 (Ru)
   atom    1                 :    42.27598824     (  0.4462883290E-06)
   atom    2                 :    42.27598824     (  0.4462883290E-06)
 total in muffin-tins        :    84.55197649    
 total calculated charge     :    87.99967782    
 total charge                :    88.00000000    
 error                       :   0.3221798337E-03
 
Wrote STATE.OUT
 
RMS change in Kohn-Sham potential (target) :   0.6521903837E-04 (   10.00000000    )
Absolute change in total energy (target)   :   0.2785600373E-06 (  0.1000000000E-07)
 
Time (CPU seconds) :      2582.42
 
+--------------------+
| Loop number :   39 |
+--------------------+
 
Energies :
 Fermi                       :     0.651281643474    
 sum of eigenvalues          :     -5386.67296621    
 electron kinetic            :      9444.02127948    
 core electron kinetic       :      9181.05732920    
 Coulomb                     :     -18239.7138722    
 Coulomb potential           :     -14471.3876486    
 nuclear-nuclear             :     -998.206837825    
 electron-nuclear            :     -20011.6264202    
 Hartree                     :      2770.11938583    
 Madelung                    :     -11004.0200479    
 xc potential                :     -359.306597131    
 exchange                    :     -266.036921774    
 correlation                 :     -4.71666771564    
 total energy                :     -9066.44618222    
 
Density of states at Fermi energy :    48.04297185    
 (states/Hartree/unit cell)
 
Estimated indirect band gap :   0.2551380688E-03
 from k-point    118 to k-point    192
Estimated direct band gap   :   0.3593142846E-02
 at k-point     80
 
Charges :
 core                        :    56.00000000    
 valence                     :    32.00000000    
 interstitial                :    3.448023511    
 muffin-tins (core leakage)
  species :    1 (Ru)
   atom    1                 :    42.27598824     (  0.4462053482E-06)
   atom    2                 :    42.27598824     (  0.4462053482E-06)
 total in muffin-tins        :    84.55197649    
 total calculated charge     :    87.99967782    
 total charge                :    88.00000000    
 error                       :   0.3221796775E-03
 
RMS change in Kohn-Sham potential (target) :   0.1768951780E-03 (   10.00000000    )
Absolute change in total energy (target)   :   0.5675428838E-07 (  0.1000000000E-07)
 
Time (CPU seconds) :      2650.13
 
+--------------------+
| Loop number :   40 |
+--------------------+
 
Energies :
 Fermi                       :     0.651281643453    
 sum of eigenvalues          :     -5386.67296622    
 electron kinetic            :      9444.02127919    
 core electron kinetic       :      9181.05732890    
 Coulomb                     :     -18239.7138721    
 Coulomb potential           :     -14471.3876483    
 nuclear-nuclear             :     -998.206837825    
 electron-nuclear            :     -20011.6264202    
 Hartree                     :      2770.11938597    
 Madelung                    :     -11004.0200479    
 xc potential                :     -359.306597127    
 exchange                    :     -266.036921761    
 correlation                 :     -4.71666771763    
 total energy                :     -9066.44618236    
 
Density of states at Fermi energy :    48.04297189    
 (states/Hartree/unit cell)
 
Estimated indirect band gap :   0.2551380863E-03
 from k-point    118 to k-point    192
Estimated direct band gap   :   0.3593142845E-02
 at k-point     80
 
Charges :
 core                        :    56.00000000    
 valence                     :    32.00000000    
 interstitial                :    3.448023511    
 muffin-tins (core leakage)
  species :    1 (Ru)
   atom    1                 :    42.27598824     (  0.4461442025E-06)
   atom    2                 :    42.27598824     (  0.4461442025E-06)
 total in muffin-tins        :    84.55197649    
 total calculated charge     :    87.99967782    
 total charge                :    88.00000000    
 error                       :   0.3221795641E-03
 
Wrote STATE.OUT
 
RMS change in Kohn-Sham potential (target) :   0.1992745883E-03 (   10.00000000    )
Absolute change in total energy (target)   :   0.1498174242E-06 (  0.1000000000E-07)
 
Time (CPU seconds) :      2717.21
 
+--------------------+
| Loop number :   41 |
+--------------------+
 
Energies :
 Fermi                       :     0.651281643340    
 sum of eigenvalues          :     -5386.67296624    
 electron kinetic            :      9444.02127932    
 core electron kinetic       :      9181.05732884    
 Coulomb                     :     -18239.7138721    
 Coulomb potential           :     -14471.3876484    
 nuclear-nuclear             :     -998.206837825    
 electron-nuclear            :     -20011.6264202    
 Hartree                     :      2770.11938589    
 Madelung                    :     -11004.0200479    
 xc potential                :     -359.306597131    
 exchange                    :     -266.036921772    
 correlation                 :     -4.71666771574    
 total energy                :     -9066.44618231    
 
Density of states at Fermi energy :    48.04297178    
 (states/Hartree/unit cell)
 
Estimated indirect band gap :   0.2551379659E-03
 from k-point    118 to k-point    192
Estimated direct band gap   :   0.3593142846E-02
 at k-point     80
 
Charges :
 core                        :    56.00000000    
 valence                     :    32.00000000    
 interstitial                :    3.448023511    
 muffin-tins (core leakage)
  species :    1 (Ru)
   atom    1                 :    42.27598824     (  0.4461960401E-06)
   atom    2                 :    42.27598824     (  0.4461960401E-06)
 total in muffin-tins        :    84.55197649    
 total calculated charge     :    87.99967782    
 total charge                :    88.00000000    
 error                       :   0.3221796662E-03
 
RMS change in Kohn-Sham potential (target) :   0.4253723719E-03 (   10.00000000    )
Absolute change in total energy (target)   :   0.6526533980E-08 (  0.1000000000E-07)
 
Convergence targets achieved
 
Time (CPU seconds) :      2784.96
 
+--------------------+
| Loop number :   42 |
+--------------------+
 
Energies :
 Fermi                       :     0.651281646262    
 sum of eigenvalues          :     -5386.67296591    
 electron kinetic            :      9444.02127958    
 core electron kinetic       :      9181.05732909    
 Coulomb                     :     -18239.7138721    
 Coulomb potential           :     -14471.3876484    
 nuclear-nuclear             :     -998.206837825    
 electron-nuclear            :     -20011.6264202    
 Hartree                     :      2770.11938592    
 Madelung                    :     -11004.0200479    
 xc potential                :     -359.306597129    
 exchange                    :     -266.036921766    
 correlation                 :     -4.71666771715    
 total energy                :     -9066.44618202    
 
Density of states at Fermi energy :    48.04297244    
 (states/Hartree/unit cell)
 
Estimated indirect band gap :   0.2551396632E-03
 from k-point    118 to k-point    192
Estimated direct band gap   :   0.3593142807E-02
 at k-point     80
 
Charges :
 core                        :    56.00000000    
 valence                     :    32.00000000    
 interstitial                :    3.448023513    
 muffin-tins (core leakage)
  species :    1 (Ru)
   atom    1                 :    42.27598824     (  0.4461608540E-06)
   atom    2                 :    42.27598824     (  0.4461608540E-06)
 total in muffin-tins        :    84.55197649    
 total calculated charge     :    87.99967782    
 total charge                :    88.00000000    
 error                       :   0.3221795774E-03
 
Wrote STATE.OUT
 
+------------------------------+
| Self-consistent loop stopped |
+------------------------------+
 
Wrote STATE.OUT
 
Timings (CPU seconds) :
 initialisation                        :         1.52
 Hamiltonian and overlap matrix set up :       614.01
 first-variational eigenvalue equation :       923.84
 charge density calculation            :       465.35
 potential calculation                 :       848.15
 total                                 :      2852.87
 
+----------------------------+
| Elk version 8.3.15 stopped |
+----------------------------+
