  0.6538732196E-03
  0.1421363645E-01
  0.3313186567E-01
  0.1583916415E-01
  0.5052479182E-02
  0.1201719688E-02
  0.1732103283E-03
  0.4476018494E-03
  0.3257505032E-03
  0.1805013890E-03
  0.3224859756E-04
  0.1909240018E-04
  0.4639021790E-04
  0.6938959086E-04
  0.1279593380E-04
  0.4338178405E-04
  0.1809557943E-05
  0.1018118382E-04
  0.1468219671E-04
  0.3383811418E-05
  0.7857994206E-05
  0.2354410753E-05
  0.6148113243E-05
  0.1180223990E-05
  0.1592889021E-05
  0.2329257768E-05
  0.9492014215E-06
  0.3436269253E-05
  0.1438000254E-05
  0.2932456482E-05
  0.2079039405E-05
  0.1355132554E-05
  0.6217960618E-06
  0.1230182534E-07
  0.6705122360E-06
  0.7493745215E-06
  0.4409230314E-07
  0.2971537469E-06
  0.2815759217E-06
  0.2717406460E-06
  0.6884874892E-07
  0.8539791452E-07
  0.8145434549E-08
