    0.274901360229E-03
    0.289574004667E-03
    0.234554567501E-03
    0.328683610580E-03
    0.149646808490E-03
    0.232655331281E-04
    0.228347922319E-04
    0.231608114470E-04
    0.233501669656E-04
    0.232759793372E-04
    0.232302946234E-04
    0.232026362289E-04
    0.232087183302E-04
    0.232102276055E-04
    0.231888061174E-04
    0.231891505661E-04
    0.232093323437E-04
    0.232108973898E-04
    0.232091305535E-04
    0.232074566587E-04
    0.232098454035E-04
    0.232083287964E-04
    0.232102313021E-04
    0.232110245485E-04
    0.232107637322E-04
    0.232107263963E-04
    0.232106574364E-04
    0.232107343509E-04
    0.232107755497E-04
    0.232109658312E-04
    0.232109745623E-04
    0.232110439747E-04
    0.232110378809E-04
    0.232110304307E-04
    0.232110030437E-04
    0.232109936723E-04
    0.232110236734E-04
    0.232110050858E-04
    0.232109964365E-04
    0.232109796189E-04
    0.232109712403E-04
    0.232109799058E-04
    0.232109744779E-04
    0.232109740870E-04
    0.232109712356E-04
