 
Species :    1 (Ti), atom :    1
 n =  1, l =  0, k =  1 :   -178.7839917    
 n =  2, l =  0, k =  1 :   -19.20666252    
 n =  2, l =  1, k =  1 :   -15.92958539    
 n =  2, l =  1, k =  2 :   -15.71641060    
 
Species :    1 (Ti), atom :    2
 n =  1, l =  0, k =  1 :   -178.7839917    
 n =  2, l =  0, k =  1 :   -19.20666252    
 n =  2, l =  1, k =  1 :   -15.92958539    
 n =  2, l =  1, k =  2 :   -15.71641060    
