  0.1667084663E-01
  0.1591809472E-01
  0.7702103985E-02
  0.3267907412E-02
  0.2147836064E-02
  0.1109988425E-02
  0.4761353135E-04
  0.3832953736E-04
  0.1055324998E-03
  0.8706678511E-04
  0.5691938883E-04
  0.2665433769E-04
  0.8960001869E-04
  0.2960870802E-04
  0.1572497092E-04
  0.3936339676E-04
  0.8788841774E-04
  0.5742906902E-04
  0.1700182359E-04
  0.2541829165E-03
  0.5664221778E-05
  0.2773707609E-03
  0.6933347155E-04
  0.1505187022E-03
  0.6083885404E-04
  0.9811259474E-04
  0.9550104815E-04
  0.1778370702E-04
  0.3820954702E-04
  0.2969973167E-03
  0.4621039675E-04
  0.2963609239E-04
  0.4699282474E-05
  0.3421632843E-05
  0.2485149405E-05
  0.1946199589E-04
  0.7134531682E-05
  0.9255271178E-05
  0.6668145348E-04
  0.6769297769E-04
  0.8460129175E-04
  0.4477724761E-05
  0.1588512817E-03
  0.1076764476E-03
  0.1720713717E-04
  0.1448784288E-04
  0.1358805912E-03
  0.7155980665E-05
  0.1433620985E-04
  0.1867277336E-05
