   297 : nkpt; k-point, vkl, wkpt, nmat below
     1   0.000000000       0.000000000       0.000000000      0.2035416243E-03     693
     2  0.5882352941E-01   0.000000000       0.000000000      0.1221249746E-02     681
     3  0.1176470588       0.000000000       0.000000000      0.1221249746E-02     687
     4  0.1764705882       0.000000000       0.000000000      0.1221249746E-02     687
     5  0.2352941176       0.000000000       0.000000000      0.1221249746E-02     689
     6  0.2941176471       0.000000000       0.000000000      0.1221249746E-02     689
     7  0.3529411765       0.000000000       0.000000000      0.1221249746E-02     696
     8  0.4117647059       0.000000000       0.000000000      0.1221249746E-02     694
     9  0.4705882353       0.000000000       0.000000000      0.1221249746E-02     696
    10  0.5882352941E-01  0.5882352941E-01   0.000000000      0.1221249746E-02     675
    11  0.1176470588      0.5882352941E-01   0.000000000      0.2442499491E-02     684
    12  0.1764705882      0.5882352941E-01   0.000000000      0.2442499491E-02     685
    13  0.2352941176      0.5882352941E-01   0.000000000      0.2442499491E-02     692
    14  0.2941176471      0.5882352941E-01   0.000000000      0.2442499491E-02     691
    15  0.3529411765      0.5882352941E-01   0.000000000      0.2442499491E-02     690
    16  0.4117647059      0.5882352941E-01   0.000000000      0.2442499491E-02     692
    17  0.4705882353      0.5882352941E-01   0.000000000      0.1221249746E-02     694
    18  0.1176470588      0.1176470588       0.000000000      0.1221249746E-02     690
    19  0.1764705882      0.1176470588       0.000000000      0.2442499491E-02     689
    20  0.2352941176      0.1176470588       0.000000000      0.2442499491E-02     694
    21  0.2941176471      0.1176470588       0.000000000      0.2442499491E-02     693
    22  0.3529411765      0.1176470588       0.000000000      0.2442499491E-02     691
    23  0.4117647059      0.1176470588       0.000000000      0.2442499491E-02     692
    24  0.1764705882      0.1764705882       0.000000000      0.1221249746E-02     682
    25  0.2352941176      0.1764705882       0.000000000      0.2442499491E-02     681
    26  0.2941176471      0.1764705882       0.000000000      0.2442499491E-02     688
    27  0.3529411765      0.1764705882       0.000000000      0.2442499491E-02     688
    28  0.4117647059      0.1764705882       0.000000000      0.1221249746E-02     690
    29  0.2352941176      0.2352941176       0.000000000      0.1221249746E-02     686
    30  0.2941176471      0.2352941176       0.000000000      0.2442499491E-02     690
    31  0.3529411765      0.2352941176       0.000000000      0.2442499491E-02     696
    32  0.2941176471      0.2941176471       0.000000000      0.1221249746E-02     692
    33  0.3529411765      0.2941176471       0.000000000      0.1221249746E-02     692
    34   0.000000000       0.000000000      0.5882352941E-01  0.4070832485E-03     700
    35  0.5882352941E-01   0.000000000      0.5882352941E-01  0.2442499491E-02     680
    36  0.1176470588       0.000000000      0.5882352941E-01  0.2442499491E-02     685
    37  0.1764705882       0.000000000      0.5882352941E-01  0.2442499491E-02     691
    38  0.2352941176       0.000000000      0.5882352941E-01  0.2442499491E-02     692
    39  0.2941176471       0.000000000      0.5882352941E-01  0.2442499491E-02     690
    40  0.3529411765       0.000000000      0.5882352941E-01  0.2442499491E-02     692
    41  0.4117647059       0.000000000      0.5882352941E-01  0.2442499491E-02     690
    42  0.4705882353       0.000000000      0.5882352941E-01  0.2442499491E-02     691
    43  0.5882352941E-01  0.5882352941E-01  0.5882352941E-01  0.2442499491E-02     681
    44  0.1176470588      0.5882352941E-01  0.5882352941E-01  0.4884998982E-02     690
    45  0.1764705882      0.5882352941E-01  0.5882352941E-01  0.4884998982E-02     692
    46  0.2352941176      0.5882352941E-01  0.5882352941E-01  0.4884998982E-02     691
    47  0.2941176471      0.5882352941E-01  0.5882352941E-01  0.4884998982E-02     691
    48  0.3529411765      0.5882352941E-01  0.5882352941E-01  0.4884998982E-02     693
    49  0.4117647059      0.5882352941E-01  0.5882352941E-01  0.4884998982E-02     693
    50  0.4705882353      0.5882352941E-01  0.5882352941E-01  0.2442499491E-02     691
    51  0.1176470588      0.1176470588      0.5882352941E-01  0.2442499491E-02     687
    52  0.1764705882      0.1176470588      0.5882352941E-01  0.4884998982E-02     689
    53  0.2352941176      0.1176470588      0.5882352941E-01  0.4884998982E-02     693
    54  0.2941176471      0.1176470588      0.5882352941E-01  0.4884998982E-02     691
    55  0.3529411765      0.1176470588      0.5882352941E-01  0.4884998982E-02     693
    56  0.4117647059      0.1176470588      0.5882352941E-01  0.4884998982E-02     693
    57  0.1764705882      0.1764705882      0.5882352941E-01  0.2442499491E-02     686
    58  0.2352941176      0.1764705882      0.5882352941E-01  0.4884998982E-02     685
    59  0.2941176471      0.1764705882      0.5882352941E-01  0.4884998982E-02     687
    60  0.3529411765      0.1764705882      0.5882352941E-01  0.4884998982E-02     690
    61  0.4117647059      0.1764705882      0.5882352941E-01  0.2442499491E-02     692
    62  0.2352941176      0.2352941176      0.5882352941E-01  0.2442499491E-02     684
    63  0.2941176471      0.2352941176      0.5882352941E-01  0.4884998982E-02     690
    64  0.3529411765      0.2352941176      0.5882352941E-01  0.4884998982E-02     694
    65  0.2941176471      0.2941176471      0.5882352941E-01  0.2442499491E-02     694
    66  0.3529411765      0.2941176471      0.5882352941E-01  0.2442499491E-02     694
    67   0.000000000       0.000000000      0.1176470588      0.4070832485E-03     700
    68  0.5882352941E-01   0.000000000      0.1176470588      0.2442499491E-02     689
    69  0.1176470588       0.000000000      0.1176470588      0.2442499491E-02     687
    70  0.1764705882       0.000000000      0.1176470588      0.2442499491E-02     689
    71  0.2352941176       0.000000000      0.1176470588      0.2442499491E-02     691
    72  0.2941176471       0.000000000      0.1176470588      0.2442499491E-02     691
    73  0.3529411765       0.000000000      0.1176470588      0.2442499491E-02     691
    74  0.4117647059       0.000000000      0.1176470588      0.2442499491E-02     692
    75  0.4705882353       0.000000000      0.1176470588      0.2442499491E-02     695
    76  0.5882352941E-01  0.5882352941E-01  0.1176470588      0.2442499491E-02     685
    77  0.1176470588      0.5882352941E-01  0.1176470588      0.4884998982E-02     690
    78  0.1764705882      0.5882352941E-01  0.1176470588      0.4884998982E-02     692
    79  0.2352941176      0.5882352941E-01  0.1176470588      0.4884998982E-02     692
    80  0.2941176471      0.5882352941E-01  0.1176470588      0.4884998982E-02     692
    81  0.3529411765      0.5882352941E-01  0.1176470588      0.4884998982E-02     694
    82  0.4117647059      0.5882352941E-01  0.1176470588      0.4884998982E-02     692
    83  0.4705882353      0.5882352941E-01  0.1176470588      0.2442499491E-02     693
    84  0.1176470588      0.1176470588      0.1176470588      0.2442499491E-02     690
    85  0.1764705882      0.1176470588      0.1176470588      0.4884998982E-02     690
    86  0.2352941176      0.1176470588      0.1176470588      0.4884998982E-02     688
    87  0.2941176471      0.1176470588      0.1176470588      0.4884998982E-02     692
    88  0.3529411765      0.1176470588      0.1176470588      0.4884998982E-02     696
    89  0.4117647059      0.1176470588      0.1176470588      0.4884998982E-02     694
    90  0.1764705882      0.1764705882      0.1176470588      0.2442499491E-02     691
    91  0.2352941176      0.1764705882      0.1176470588      0.4884998982E-02     686
    92  0.2941176471      0.1764705882      0.1176470588      0.4884998982E-02     688
    93  0.3529411765      0.1764705882      0.1176470588      0.4884998982E-02     691
    94  0.4117647059      0.1764705882      0.1176470588      0.2442499491E-02     692
    95  0.2352941176      0.2352941176      0.1176470588      0.2442499491E-02     687
    96  0.2941176471      0.2352941176      0.1176470588      0.4884998982E-02     691
    97  0.3529411765      0.2352941176      0.1176470588      0.4884998982E-02     693
    98  0.2941176471      0.2941176471      0.1176470588      0.2442499491E-02     696
    99  0.3529411765      0.2941176471      0.1176470588      0.2442499491E-02     692
   100   0.000000000       0.000000000      0.1764705882      0.4070832485E-03     688
   101  0.5882352941E-01   0.000000000      0.1764705882      0.2442499491E-02     688
   102  0.1176470588       0.000000000      0.1764705882      0.2442499491E-02     687
   103  0.1764705882       0.000000000      0.1764705882      0.2442499491E-02     689
   104  0.2352941176       0.000000000      0.1764705882      0.2442499491E-02     687
   105  0.2941176471       0.000000000      0.1764705882      0.2442499491E-02     691
   106  0.3529411765       0.000000000      0.1764705882      0.2442499491E-02     692
   107  0.4117647059       0.000000000      0.1764705882      0.2442499491E-02     697
   108  0.4705882353       0.000000000      0.1764705882      0.2442499491E-02     692
   109  0.5882352941E-01  0.5882352941E-01  0.1764705882      0.2442499491E-02     687
   110  0.1176470588      0.5882352941E-01  0.1764705882      0.4884998982E-02     690
   111  0.1764705882      0.5882352941E-01  0.1764705882      0.4884998982E-02     688
   112  0.2352941176      0.5882352941E-01  0.1764705882      0.4884998982E-02     691
   113  0.2941176471      0.5882352941E-01  0.1764705882      0.4884998982E-02     689
   114  0.3529411765      0.5882352941E-01  0.1764705882      0.4884998982E-02     695
   115  0.4117647059      0.5882352941E-01  0.1764705882      0.4884998982E-02     693
   116  0.4705882353      0.5882352941E-01  0.1764705882      0.2442499491E-02     693
   117  0.1176470588      0.1176470588      0.1764705882      0.2442499491E-02     687
   118  0.1764705882      0.1176470588      0.1764705882      0.4884998982E-02     693
   119  0.2352941176      0.1176470588      0.1764705882      0.4884998982E-02     689
   120  0.2941176471      0.1176470588      0.1764705882      0.4884998982E-02     691
   121  0.3529411765      0.1176470588      0.1764705882      0.4884998982E-02     695
   122  0.4117647059      0.1176470588      0.1764705882      0.4884998982E-02     689
   123  0.1764705882      0.1764705882      0.1764705882      0.2442499491E-02     687
   124  0.2352941176      0.1764705882      0.1764705882      0.4884998982E-02     689
   125  0.2941176471      0.1764705882      0.1764705882      0.4884998982E-02     692
   126  0.3529411765      0.1764705882      0.1764705882      0.4884998982E-02     693
   127  0.4117647059      0.1764705882      0.1764705882      0.2442499491E-02     690
   128  0.2352941176      0.2352941176      0.1764705882      0.2442499491E-02     691
   129  0.2941176471      0.2352941176      0.1764705882      0.4884998982E-02     695
   130  0.3529411765      0.2352941176      0.1764705882      0.4884998982E-02     696
   131  0.2941176471      0.2941176471      0.1764705882      0.2442499491E-02     696
   132  0.3529411765      0.2941176471      0.1764705882      0.2442499491E-02     695
   133   0.000000000       0.000000000      0.2352941176      0.4070832485E-03     694
   134  0.5882352941E-01   0.000000000      0.2352941176      0.2442499491E-02     691
   135  0.1176470588       0.000000000      0.2352941176      0.2442499491E-02     685
   136  0.1764705882       0.000000000      0.2352941176      0.2442499491E-02     686
   137  0.2352941176       0.000000000      0.2352941176      0.2442499491E-02     686
   138  0.2941176471       0.000000000      0.2352941176      0.2442499491E-02     691
   139  0.3529411765       0.000000000      0.2352941176      0.2442499491E-02     693
   140  0.4117647059       0.000000000      0.2352941176      0.2442499491E-02     696
   141  0.4705882353       0.000000000      0.2352941176      0.2442499491E-02     694
   142  0.5882352941E-01  0.5882352941E-01  0.2352941176      0.2442499491E-02     688
   143  0.1176470588      0.5882352941E-01  0.2352941176      0.4884998982E-02     689
   144  0.1764705882      0.5882352941E-01  0.2352941176      0.4884998982E-02     690
   145  0.2352941176      0.5882352941E-01  0.2352941176      0.4884998982E-02     690
   146  0.2941176471      0.5882352941E-01  0.2352941176      0.4884998982E-02     693
   147  0.3529411765      0.5882352941E-01  0.2352941176      0.4884998982E-02     693
   148  0.4117647059      0.5882352941E-01  0.2352941176      0.4884998982E-02     695
   149  0.4705882353      0.5882352941E-01  0.2352941176      0.2442499491E-02     695
   150  0.1176470588      0.1176470588      0.2352941176      0.2442499491E-02     687
   151  0.1764705882      0.1176470588      0.2352941176      0.4884998982E-02     694
   152  0.2352941176      0.1176470588      0.2352941176      0.4884998982E-02     690
   153  0.2941176471      0.1176470588      0.2352941176      0.4884998982E-02     692
   154  0.3529411765      0.1176470588      0.2352941176      0.4884998982E-02     693
   155  0.4117647059      0.1176470588      0.2352941176      0.4884998982E-02     692
   156  0.1764705882      0.1764705882      0.2352941176      0.2442499491E-02     692
   157  0.2352941176      0.1764705882      0.2352941176      0.4884998982E-02     690
   158  0.2941176471      0.1764705882      0.2352941176      0.4884998982E-02     693
   159  0.3529411765      0.1764705882      0.2352941176      0.4884998982E-02     689
   160  0.4117647059      0.1764705882      0.2352941176      0.2442499491E-02     690
   161  0.2352941176      0.2352941176      0.2352941176      0.2442499491E-02     696
   162  0.2941176471      0.2352941176      0.2352941176      0.4884998982E-02     696
   163  0.3529411765      0.2352941176      0.2352941176      0.4884998982E-02     695
   164  0.2941176471      0.2941176471      0.2352941176      0.2442499491E-02     696
   165  0.3529411765      0.2941176471      0.2352941176      0.2442499491E-02     693
   166   0.000000000       0.000000000      0.2941176471      0.4070832485E-03     694
   167  0.5882352941E-01   0.000000000      0.2941176471      0.2442499491E-02     697
   168  0.1176470588       0.000000000      0.2941176471      0.2442499491E-02     693
   169  0.1764705882       0.000000000      0.2941176471      0.2442499491E-02     690
   170  0.2352941176       0.000000000      0.2941176471      0.2442499491E-02     685
   171  0.2941176471       0.000000000      0.2941176471      0.2442499491E-02     693
   172  0.3529411765       0.000000000      0.2941176471      0.2442499491E-02     693
   173  0.4117647059       0.000000000      0.2941176471      0.2442499491E-02     695
   174  0.4705882353       0.000000000      0.2941176471      0.2442499491E-02     696
   175  0.5882352941E-01  0.5882352941E-01  0.2941176471      0.2442499491E-02     697
   176  0.1176470588      0.5882352941E-01  0.2941176471      0.4884998982E-02     691
   177  0.1764705882      0.5882352941E-01  0.2941176471      0.4884998982E-02     693
   178  0.2352941176      0.5882352941E-01  0.2941176471      0.4884998982E-02     689
   179  0.2941176471      0.5882352941E-01  0.2941176471      0.4884998982E-02     694
   180  0.3529411765      0.5882352941E-01  0.2941176471      0.4884998982E-02     692
   181  0.4117647059      0.5882352941E-01  0.2941176471      0.4884998982E-02     698
   182  0.4705882353      0.5882352941E-01  0.2941176471      0.2442499491E-02     696
   183  0.1176470588      0.1176470588      0.2941176471      0.2442499491E-02     689
   184  0.1764705882      0.1176470588      0.2941176471      0.4884998982E-02     690
   185  0.2352941176      0.1176470588      0.2941176471      0.4884998982E-02     691
   186  0.2941176471      0.1176470588      0.2941176471      0.4884998982E-02     694
   187  0.3529411765      0.1176470588      0.2941176471      0.4884998982E-02     694
   188  0.4117647059      0.1176470588      0.2941176471      0.4884998982E-02     693
   189  0.1764705882      0.1764705882      0.2941176471      0.2442499491E-02     690
   190  0.2352941176      0.1764705882      0.2941176471      0.4884998982E-02     691
   191  0.2941176471      0.1764705882      0.2941176471      0.4884998982E-02     691
   192  0.3529411765      0.1764705882      0.2941176471      0.4884998982E-02     692
   193  0.4117647059      0.1764705882      0.2941176471      0.2442499491E-02     694
   194  0.2352941176      0.2352941176      0.2941176471      0.2442499491E-02     692
   195  0.2941176471      0.2352941176      0.2941176471      0.4884998982E-02     692
   196  0.3529411765      0.2352941176      0.2941176471      0.4884998982E-02     692
   197  0.2941176471      0.2941176471      0.2941176471      0.2442499491E-02     696
   198  0.3529411765      0.2941176471      0.2941176471      0.2442499491E-02     701
   199   0.000000000       0.000000000      0.3529411765      0.4070832485E-03     700
   200  0.5882352941E-01   0.000000000      0.3529411765      0.2442499491E-02     702
   201  0.1176470588       0.000000000      0.3529411765      0.2442499491E-02     696
   202  0.1764705882       0.000000000      0.3529411765      0.2442499491E-02     692
   203  0.2352941176       0.000000000      0.3529411765      0.2442499491E-02     687
   204  0.2941176471       0.000000000      0.3529411765      0.2442499491E-02     688
   205  0.3529411765       0.000000000      0.3529411765      0.2442499491E-02     694
   206  0.4117647059       0.000000000      0.3529411765      0.2442499491E-02     692
   207  0.4705882353       0.000000000      0.3529411765      0.2442499491E-02     697
   208  0.5882352941E-01  0.5882352941E-01  0.3529411765      0.2442499491E-02     701
   209  0.1176470588      0.5882352941E-01  0.3529411765      0.4884998982E-02     692
   210  0.1764705882      0.5882352941E-01  0.3529411765      0.4884998982E-02     690
   211  0.2352941176      0.5882352941E-01  0.3529411765      0.4884998982E-02     688
   212  0.2941176471      0.5882352941E-01  0.3529411765      0.4884998982E-02     690
   213  0.3529411765      0.5882352941E-01  0.3529411765      0.4884998982E-02     694
   214  0.4117647059      0.5882352941E-01  0.3529411765      0.4884998982E-02     695
   215  0.4705882353      0.5882352941E-01  0.3529411765      0.2442499491E-02     696
   216  0.1176470588      0.1176470588      0.3529411765      0.2442499491E-02     692
   217  0.1764705882      0.1176470588      0.3529411765      0.4884998982E-02     692
   218  0.2352941176      0.1176470588      0.3529411765      0.4884998982E-02     693
   219  0.2941176471      0.1176470588      0.3529411765      0.4884998982E-02     693
   220  0.3529411765      0.1176470588      0.3529411765      0.4884998982E-02     693
   221  0.4117647059      0.1176470588      0.3529411765      0.4884998982E-02     693
   222  0.1764705882      0.1764705882      0.3529411765      0.2442499491E-02     690
   223  0.2352941176      0.1764705882      0.3529411765      0.4884998982E-02     693
   224  0.2941176471      0.1764705882      0.3529411765      0.4884998982E-02     690
   225  0.3529411765      0.1764705882      0.3529411765      0.4884998982E-02     692
   226  0.4117647059      0.1764705882      0.3529411765      0.2442499491E-02     693
   227  0.2352941176      0.2352941176      0.3529411765      0.2442499491E-02     690
   228  0.2941176471      0.2352941176      0.3529411765      0.4884998982E-02     691
   229  0.3529411765      0.2352941176      0.3529411765      0.4884998982E-02     695
   230  0.2941176471      0.2941176471      0.3529411765      0.2442499491E-02     688
   231  0.3529411765      0.2941176471      0.3529411765      0.2442499491E-02     695
   232   0.000000000       0.000000000      0.4117647059      0.4070832485E-03     700
   233  0.5882352941E-01   0.000000000      0.4117647059      0.2442499491E-02     702
   234  0.1176470588       0.000000000      0.4117647059      0.2442499491E-02     702
   235  0.1764705882       0.000000000      0.4117647059      0.2442499491E-02     694
   236  0.2352941176       0.000000000      0.4117647059      0.2442499491E-02     689
   237  0.2941176471       0.000000000      0.4117647059      0.2442499491E-02     690
   238  0.3529411765       0.000000000      0.4117647059      0.2442499491E-02     688
   239  0.4117647059       0.000000000      0.4117647059      0.2442499491E-02     694
   240  0.4705882353       0.000000000      0.4117647059      0.2442499491E-02     696
   241  0.5882352941E-01  0.5882352941E-01  0.4117647059      0.2442499491E-02     703
   242  0.1176470588      0.5882352941E-01  0.4117647059      0.4884998982E-02     698
   243  0.1764705882      0.5882352941E-01  0.4117647059      0.4884998982E-02     692
   244  0.2352941176      0.5882352941E-01  0.4117647059      0.4884998982E-02     690
   245  0.2941176471      0.5882352941E-01  0.4117647059      0.4884998982E-02     685
   246  0.3529411765      0.5882352941E-01  0.4117647059      0.4884998982E-02     693
   247  0.4117647059      0.5882352941E-01  0.4117647059      0.4884998982E-02     694
   248  0.4705882353      0.5882352941E-01  0.4117647059      0.2442499491E-02     696
   249  0.1176470588      0.1176470588      0.4117647059      0.2442499491E-02     692
   250  0.1764705882      0.1176470588      0.4117647059      0.4884998982E-02     689
   251  0.2352941176      0.1176470588      0.4117647059      0.4884998982E-02     691
   252  0.2941176471      0.1176470588      0.4117647059      0.4884998982E-02     692
   253  0.3529411765      0.1176470588      0.4117647059      0.4884998982E-02     693
   254  0.4117647059      0.1176470588      0.4117647059      0.4884998982E-02     696
   255  0.1764705882      0.1764705882      0.4117647059      0.2442499491E-02     693
   256  0.2352941176      0.1764705882      0.4117647059      0.4884998982E-02     691
   257  0.2941176471      0.1764705882      0.4117647059      0.4884998982E-02     692
   258  0.3529411765      0.1764705882      0.4117647059      0.4884998982E-02     691
   259  0.4117647059      0.1764705882      0.4117647059      0.2442499491E-02     695
   260  0.2352941176      0.2352941176      0.4117647059      0.2442499491E-02     691
   261  0.2941176471      0.2352941176      0.4117647059      0.4884998982E-02     693
   262  0.3529411765      0.2352941176      0.4117647059      0.4884998982E-02     694
   263  0.2941176471      0.2941176471      0.4117647059      0.2442499491E-02     692
   264  0.3529411765      0.2941176471      0.4117647059      0.2442499491E-02     694
   265   0.000000000       0.000000000      0.4705882353      0.4070832485E-03     700
   266  0.5882352941E-01   0.000000000      0.4705882353      0.2442499491E-02     702
   267  0.1176470588       0.000000000      0.4705882353      0.2442499491E-02     702
   268  0.1764705882       0.000000000      0.4705882353      0.2442499491E-02     692
   269  0.2352941176       0.000000000      0.4705882353      0.2442499491E-02     691
   270  0.2941176471       0.000000000      0.4705882353      0.2442499491E-02     689
   271  0.3529411765       0.000000000      0.4705882353      0.2442499491E-02     690
   272  0.4117647059       0.000000000      0.4705882353      0.2442499491E-02     691
   273  0.4705882353       0.000000000      0.4705882353      0.2442499491E-02     698
   274  0.5882352941E-01  0.5882352941E-01  0.4705882353      0.2442499491E-02     703
   275  0.1176470588      0.5882352941E-01  0.4705882353      0.4884998982E-02     699
   276  0.1764705882      0.5882352941E-01  0.4705882353      0.4884998982E-02     692
   277  0.2352941176      0.5882352941E-01  0.4705882353      0.4884998982E-02     690
   278  0.2941176471      0.5882352941E-01  0.4705882353      0.4884998982E-02     687
   279  0.3529411765      0.5882352941E-01  0.4705882353      0.4884998982E-02     691
   280  0.4117647059      0.5882352941E-01  0.4705882353      0.4884998982E-02     696
   281  0.4705882353      0.5882352941E-01  0.4705882353      0.2442499491E-02     698
   282  0.1176470588      0.1176470588      0.4705882353      0.2442499491E-02     692
   283  0.1764705882      0.1176470588      0.4705882353      0.4884998982E-02     692
   284  0.2352941176      0.1176470588      0.4705882353      0.4884998982E-02     689
   285  0.2941176471      0.1176470588      0.4705882353      0.4884998982E-02     687
   286  0.3529411765      0.1176470588      0.4705882353      0.4884998982E-02     690
   287  0.4117647059      0.1176470588      0.4705882353      0.4884998982E-02     697
   288  0.1764705882      0.1764705882      0.4705882353      0.2442499491E-02     693
   289  0.2352941176      0.1764705882      0.4705882353      0.4884998982E-02     689
   290  0.2941176471      0.1764705882      0.4705882353      0.4884998982E-02     690
   291  0.3529411765      0.1764705882      0.4705882353      0.4884998982E-02     695
   292  0.4117647059      0.1764705882      0.4705882353      0.2442499491E-02     698
   293  0.2352941176      0.2352941176      0.4705882353      0.2442499491E-02     687
   294  0.2941176471      0.2352941176      0.4705882353      0.4884998982E-02     692
   295  0.3529411765      0.2352941176      0.4705882353      0.4884998982E-02     692
   296  0.2941176471      0.2941176471      0.4705882353      0.2442499491E-02     695
   297  0.3529411765      0.2941176471      0.4705882353      0.2442499491E-02     692
