  0.5263104752    
  0.4267872532    
  0.1934239149    
  0.6973112722E-01
  0.2186906437E-01
  0.3739175228E-02
  0.9864487452E-03
  0.1757990679E-03
  0.7375038043E-04
  0.1848953642E-03
  0.6513675488E-04
  0.1887538166E-04
  0.6215227624E-04
  0.1993630013E-03
  0.8381809826E-04
  0.6665663912E-04
  0.1085727737E-03
  0.6861452224E-04
  0.8317558026E-04
  0.8044541309E-04
  0.2721679899E-04
  0.7610095182E-05
  0.5198194647E-04
  0.2252549748E-03
  0.8302910618E-04
  0.8313931165E-04
  0.8525284312E-04
  0.4050016251E-04
  0.1496875860E-03
  0.1726190550E-03
  0.3520264376E-05
  0.2292378192E-03
  0.4835016427E-05
  0.8443915726E-04
  0.9770081215E-04
  0.1997453236E-05
  0.7831325568E-04
  0.8459116199E-04
  0.6896721731E-04
  0.6693407071E-04
  0.1131104913E-03
  0.1054721593E-03
