 
Species :    1 (Cu), atom :    1
 APW functions :
  l =  0, energy derivative =  0 :   0.2458620233    
  l =  1, energy derivative =  0 :   0.2458620233    
  l =  2, energy derivative =  0 :   0.2458620233    
  l =  3, energy derivative =  0 :   0.2458620233    
  l =  4, energy derivative =  0 :   0.2458620233    
  l =  5, energy derivative =  0 :   0.2458620233    
  l =  6, energy derivative =  0 :   0.2458620233    
  l =  7, energy derivative =  0 :   0.2458620233    
  l =  8, energy derivative =  0 :   0.2458620233    
  l =  9, energy derivative =  0 :   0.2458620233    
  l = 10, energy derivative =  0 :   0.2458620233    
 local-orbital functions :
  l.o. =  1, l =  0, energy derivative =  0 :   0.2458620233    
  l.o. =  1, l =  0, energy derivative =  1 :   0.2458620233    
  l.o. =  2, l =  1, energy derivative =  0 :   0.2458620233    
  l.o. =  2, l =  1, energy derivative =  1 :   0.2458620233    
  l.o. =  3, l =  2, energy derivative =  0 :   0.2458620233    
  l.o. =  3, l =  2, energy derivative =  1 :   0.2458620233    
  l.o. =  4, l =  1, energy derivative =  0 :   0.2458620233    
  l.o. =  4, l =  1, energy derivative =  0 :   -2.245181875    
  l.o. =  5, l =  2, energy derivative =  0 :   0.2458620233    
  l.o. =  5, l =  2, energy derivative =  0 :   0.2559546360    
  l.o. =  6, l =  3, energy derivative =  0 :   0.2458620233    
  l.o. =  6, l =  3, energy derivative =  1 :   0.2458620233    
  l.o. =  7, l =  4, energy derivative =  0 :   0.2458620233    
  l.o. =  7, l =  4, energy derivative =  1 :   0.2458620233    
  l.o. =  8, l =  5, energy derivative =  0 :   0.2458620233    
  l.o. =  8, l =  5, energy derivative =  1 :   0.2458620233    
  l.o. =  9, l =  0, energy derivative =  0 :   0.9619303493    
  l.o. =  9, l =  0, energy derivative =  1 :   0.9619303493    
  l.o. =  9, l =  0, energy derivative =  2 :   0.9619303493    
  l.o. = 10, l =  1, energy derivative =  0 :    1.489084978    
  l.o. = 10, l =  1, energy derivative =  1 :    1.489084978    
  l.o. = 10, l =  1, energy derivative =  2 :    1.489084978    
  l.o. = 11, l =  2, energy derivative =  0 :   0.2559546360    
  l.o. = 11, l =  2, energy derivative =  1 :   0.2559546360    
  l.o. = 11, l =  2, energy derivative =  2 :   0.2559546360    
  l.o. = 12, l =  3, energy derivative =  0 :    2.921570099    
  l.o. = 12, l =  3, energy derivative =  1 :    2.921570099    
  l.o. = 12, l =  3, energy derivative =  2 :    2.921570099    
  l.o. = 13, l =  4, energy derivative =  0 :    4.609191573    
  l.o. = 13, l =  4, energy derivative =  1 :    4.609191573    
  l.o. = 13, l =  4, energy derivative =  2 :    4.609191573    
  l.o. = 14, l =  5, energy derivative =  0 :    6.423392584    
  l.o. = 14, l =  5, energy derivative =  1 :    6.423392584    
  l.o. = 14, l =  5, energy derivative =  2 :    6.423392584    
  l.o. = 15, l =  6, energy derivative =  0 :    8.427967364    
  l.o. = 15, l =  6, energy derivative =  1 :    8.427967364    
  l.o. = 15, l =  6, energy derivative =  2 :    8.427967364    
  l.o. = 16, l =  7, energy derivative =  0 :    10.63900802    
  l.o. = 16, l =  7, energy derivative =  1 :    10.63900802    
  l.o. = 16, l =  7, energy derivative =  2 :    10.63900802    
  l.o. = 17, l =  8, energy derivative =  0 :    13.06209922    
  l.o. = 17, l =  8, energy derivative =  1 :    13.06209922    
  l.o. = 17, l =  8, energy derivative =  2 :    13.06209922    
