 
scale
 1.0
 
scale1
 1.0
 
scale2
 1.0
 
scale3
 1.0
 
avec
   4.163928140       4.163928140      -4.163928140    
   4.163928140      -4.163928140       4.163928140    
  -4.163928140       4.163928140       4.163928140    
 
atoms
   1                                    : nspecies
'Na.in'                                 : spfname
   1                                    : natoms; atpos, bfcmt below
    0.00000000    0.00000000    0.00000000    0.00000000  0.00000000  0.00000000
