+----------------------------+
| Elk version 8.3.15 started |
+----------------------------+
 
Date (YYYY-MM-DD) : 2022-01-26
Time (hh:mm:ss)   : 19:56:18
 
All units are atomic (Hartree, Bohr, etc.)
 
+-------------------------------------------------+
| Ground-state run starting from atomic densities |
+-------------------------------------------------+
 
Lattice vectors :
   4.163928140       4.163928140      -4.163928140    
   4.163928140      -4.163928140       4.163928140    
  -4.163928140       4.163928140       4.163928140    
 
Reciprocal lattice vectors :
  0.7544781149      0.7544781149       0.000000000    
  0.7544781149       0.000000000      0.7544781149    
   0.000000000      0.7544781149      0.7544781149    
 
Unit cell volume      :    288.7817003    
Brillouin zone volume :   0.8589540582    
 
Muffin-tin inner radius fraction :   0.1000000000E-01
 
Species :    1 (Na)
 parameters loaded from : Na.in
 name : sodium
 nuclear charge    :   -11.00000000    
 electronic charge :    11.00000000    
 atomic mass :    41907.78700    
 muffin-tin radius :    2.200000000    
 number of radial points in muffin-tin :    800
 number on inner part of muffin-tin    :    567
 atomic positions (lattice), magnetic fields (Cartesian) :
   1 :   0.00000000  0.00000000  0.00000000    0.00000000  0.00000000  0.00000000
 
Total number of atoms per unit cell :    1
 
Spin treatment :
 spin-unpolarised
 
Number of Bravais lattice symmetries :   48
Number of crystal symmetries         :   48
Crystal has inversion symmetry
Real symmetric eigensolver will be used
 
k-point grid :     17    17    17
k-point offset :    0.000000000       0.000000000       0.000000000    
k-point set is reduced with full crystal symmetry group
Total number of k-points :      165
 
Muffin-tin radius times maximum |G+k| :    9.000000000    
 using gkmax = rgkmax / 2
Maximum |G+k| for APW functions       :    4.500000000    
Maximum (1/2)|G+k|²                   :    10.12500000    
Maximum |G| for potential and density :    36.00000000    
Constant for pseudocharge density :   20
Radial integration step length :    1
 
G-vector grid sizes :     90    90    90
Number of G-vectors :   227679
 
Maximum angular momentum used for
 APW functions                      :   10
 outer part of muffin-tin           :    8
 inner part of muffin-tin           :    1
 
Total nuclear charge    :   -11.00000000    
Total core charge       :    2.000000000    
Total valence charge    :    9.000000000    
Total excess charge     :    0.000000000    
Total electronic charge :    11.00000000    
 
Effective Wigner radius, rₛ :    1.843724917    
 
Number of empty states         :   20
Total number of valence states :   25
Total number of core states    :    2
 
Conduction state local-orbitals added automatically
Total number of local-orbitals :  110
 
Using Libxc version 05.01.05
Exchange-correlation functional :    100   493   494
 exchange: mgga_x_rscan; correlation: mgga_c_rscan
 
Smearing type :    1
 Methfessel-Paxton order 1, Phys. Rev. B 40, 3616 (1989)
Smearing width :   0.1000000000E-02
Effective electronic temperature (K) :    315.7750248    
 
Mixing type :    3
 Broyden mixing, J. Phys. A: Math. Gen. 17, L317 (1984)
 
Kohn-Sham potential initialised from atomic data
 
+------------------------------+
| Self-consistent loop started |
+------------------------------+
 
+--------------------+
| Loop number :    1 |
+--------------------+
 
Energies :
 Fermi                       :    -0.293214883510E-01
 sum of eigenvalues          :     -87.1177540924    
 electron kinetic            :      161.748992651    
 core electron kinetic       :      112.724641095    
 Coulomb                     :     -312.548702654    
 Coulomb potential           :     -229.492572937    
 nuclear-nuclear             :     -24.2100848987    
 electron-nuclear            :     -347.184662574    
 Hartree                     :      58.8460448181    
 Madelung                    :     -197.802416186    
 xc potential                :     -19.3741738058    
 exchange                    :     -14.2943221711    
 correlation                 :    -0.389875814986    
 total energy                :     -165.483907990    
 
Density of states at Fermi energy :    41.30174311    
 (states/Hartree/unit cell)
 
Estimated indirect band gap :   0.3771078133E-02
 from k-point    127 to k-point     16
Estimated direct band gap   :   0.9791690061E-01
 at k-point     73
 
Charges :
 core                        :    2.000000000    
 valence                     :    9.000000000    
 interstitial                :   0.9425619054    
 muffin-tins (core leakage)
  species :    1 (Na)
   atom    1                 :    10.05743809     (  0.2220446049E-15)
 total in muffin-tins        :    10.05743809    
 total calculated charge     :    10.99999999    
 total charge                :    11.00000000    
 error                       :   0.1210807099E-07
 
Time (CPU seconds) :        23.84
 
+--------------------+
| Loop number :    2 |
+--------------------+
 
Energies :
 Fermi                       :    -0.289742931468E-01
 sum of eigenvalues          :     -87.0919154291    
 electron kinetic            :      161.768618059    
 core electron kinetic       :      112.456365530    
 Coulomb                     :     -312.524136415    
 Coulomb potential           :     -229.489778951    
 nuclear-nuclear             :     -24.2100848987    
 electron-nuclear            :     -347.138324082    
 Hartree                     :      58.8242725654    
 Madelung                    :     -197.779246940    
 xc potential                :     -19.3707545375    
 exchange                    :     -14.2916773891    
 correlation                 :    -0.389849430754    
 total energy                :     -165.437045176    
 
Density of states at Fermi energy :    41.30127468    
 (states/Hartree/unit cell)
 
Estimated indirect band gap :   0.3769924296E-02
 from k-point    127 to k-point     16
Estimated direct band gap   :   0.9792447218E-01
 at k-point     73
 
Charges :
 core                        :    2.000000000    
 valence                     :    9.000000000    
 interstitial                :   0.9429962191    
 muffin-tins (core leakage)
  species :    1 (Na)
   atom    1                 :    10.05700378     (   0.000000000    )
 total in muffin-tins        :    10.05700378    
 total calculated charge     :    10.99999999    
 total charge                :    11.00000000    
 error                       :   0.1206841915E-07
 
Wrote STATE.OUT
 
RMS change in Kohn-Sham potential (target) :    3.635125241     (   10.00000000    )
Absolute change in total energy (target)   :   0.4686281397E-01 (  0.1000000000E-07)
 
Time (CPU seconds) :        43.18
 
+--------------------+
| Loop number :    3 |
+--------------------+
 
Energies :
 Fermi                       :    -0.109965856818E-01
 sum of eigenvalues          :     -86.1275389350    
 electron kinetic            :      162.606086756    
 core electron kinetic       :      112.898259662    
 Coulomb                     :     -311.747117466    
 Coulomb potential           :     -229.477176493    
 nuclear-nuclear             :     -24.2100848987    
 electron-nuclear            :     -345.596888642    
 Hartree                     :      58.0598560744    
 Madelung                    :     -197.008529220    
 xc potential                :     -19.2564491981    
 exchange                    :     -14.2030494071    
 correlation                 :    -0.388903885300    
 total energy                :     -163.732984002    
 
Density of states at Fermi energy :    41.26570841    
 (states/Hartree/unit cell)
 
Estimated indirect band gap :   0.3695432365E-02
 from k-point    127 to k-point     16
Estimated direct band gap   :   0.9825622347E-01
 at k-point     73
 
Charges :
 core                        :    2.000000000    
 valence                     :    9.000000000    
 interstitial                :   0.9604124785    
 muffin-tins (core leakage)
  species :    1 (Na)
   atom    1                 :    10.03958752     ( -0.4440892099E-15)
 total in muffin-tins        :    10.03958752    
 total calculated charge     :    10.99999999    
 total charge                :    11.00000000    
 error                       :   0.1190762688E-07
 
RMS change in Kohn-Sham potential (target) :    1.835785927     (   10.00000000    )
Absolute change in total energy (target)   :    1.715776877     (  0.1000000000E-07)
 
Time (CPU seconds) :        62.46
 
+--------------------+
| Loop number :    4 |
+--------------------+
 
Energies :
 Fermi                       :     0.353165931361E-03
 sum of eigenvalues          :     -85.6316523145    
 electron kinetic            :      163.087360609    
 core electron kinetic       :      113.199139277    
 Coulomb                     :     -311.420099681    
 Coulomb potential           :     -229.513907955    
 nuclear-nuclear             :     -24.2100848987    
 electron-nuclear            :     -344.906121609    
 Hartree                     :      57.6961068268    
 Madelung                    :     -196.663145703    
 xc potential                :     -19.2051049684    
 exchange                    :     -14.1630522366    
 correlation                 :    -0.388447390025    
 total energy                :     -162.884238698    
 
Density of states at Fermi energy :    41.22874594    
 (states/Hartree/unit cell)
 
Estimated indirect band gap :   0.3636228389E-02
 from k-point    127 to k-point     16
Estimated direct band gap   :   0.9843811266E-01
 at k-point     73
 
Charges :
 core                        :    2.000000000    
 valence                     :    9.000000000    
 interstitial                :   0.9698162328    
 muffin-tins (core leakage)
  species :    1 (Na)
   atom    1                 :    10.03018377     (  0.6661338148E-15)
 total in muffin-tins        :    10.03018377    
 total calculated charge     :    10.99999999    
 total charge                :    11.00000000    
 error                       :   0.1211264866E-07
 
Wrote STATE.OUT
 
RMS change in Kohn-Sham potential (target) :   0.6257355605     (   10.00000000    )
Absolute change in total energy (target)   :    1.277689523     (  0.1000000000E-07)
 
Time (CPU seconds) :        81.74
 
+--------------------+
| Loop number :    5 |
+--------------------+
 
Energies :
 Fermi                       :     0.442839894467E-02
 sum of eigenvalues          :     -85.4795936029    
 electron kinetic            :      163.250938013    
 core electron kinetic       :      113.307732416    
 Coulomb                     :     -311.344372196    
 Coulomb potential           :     -229.538477231    
 nuclear-nuclear             :     -24.2100848987    
 electron-nuclear            :     -344.730097364    
 Hartree                     :      57.5958100667    
 Madelung                    :     -196.575133581    
 xc potential                :     -19.1920543848    
 exchange                    :     -14.1528248131    
 correlation                 :    -0.388317304824    
 total energy                :     -162.634576301    
 
Density of states at Fermi energy :    41.21008716    
 (states/Hartree/unit cell)
 
Estimated indirect band gap :   0.3609941519E-02
 from k-point    127 to k-point     16
Estimated direct band gap   :   0.9850436249E-01
 at k-point     73
 
Charges :
 core                        :    2.000000000    
 valence                     :    9.000000000    
 interstitial                :   0.9728470055    
 muffin-tins (core leakage)
  species :    1 (Na)
   atom    1                 :    10.02715299     (   0.000000000    )
 total in muffin-tins        :    10.02715299    
 total calculated charge     :    10.99999999    
 total charge                :    11.00000000    
 error                       :   0.1247894232E-07
 
RMS change in Kohn-Sham potential (target) :   0.1635110498     (   10.00000000    )
Absolute change in total energy (target)   :   0.5690847776     (  0.1000000000E-07)
 
Time (CPU seconds) :       101.03
 
+--------------------+
| Loop number :    6 |
+--------------------+
 
Energies :
 Fermi                       :     0.544169160820E-02
 sum of eigenvalues          :     -85.4452696519    
 electron kinetic            :      163.291739442    
 core electron kinetic       :      113.334824950    
 Coulomb                     :     -311.333944008    
 Coulomb potential           :     -229.547068539    
 nuclear-nuclear             :     -24.2100848987    
 electron-nuclear            :     -344.700649679    
 Hartree                     :      57.5767905701    
 Madelung                    :     -196.560409738    
 xc potential                :     -19.1899405550    
 exchange                    :     -14.1511493514    
 correlation                 :    -0.388290673310    
 total energy                :     -162.581644590    
 
Density of states at Fermi energy :    41.20331711    
 (states/Hartree/unit cell)
 
Estimated indirect band gap :   0.3600781371E-02
 from k-point    127 to k-point     16
Estimated direct band gap   :   0.9852482363E-01
 at k-point     73
 
Charges :
 core                        :    2.000000000    
 valence                     :    9.000000000    
 interstitial                :   0.9736067618    
 muffin-tins (core leakage)
  species :    1 (Na)
   atom    1                 :    10.02639324     (   0.000000000    )
 total in muffin-tins        :    10.02639324    
 total calculated charge     :    10.99999999    
 total charge                :    11.00000000    
 error                       :   0.1277508055E-07
 
Wrote STATE.OUT
 
RMS change in Kohn-Sham potential (target) :   0.3542758974E-01 (   10.00000000    )
Absolute change in total energy (target)   :   0.1952029055     (  0.1000000000E-07)
 
Time (CPU seconds) :       120.42
 
+--------------------+
| Loop number :    7 |
+--------------------+
 
Energies :
 Fermi                       :     0.563473918809E-02
 sum of eigenvalues          :     -85.4371555904    
 electron kinetic            :      163.301587132    
 core electron kinetic       :      113.341739478    
 Coulomb                     :     -311.332432817    
 Coulomb potential           :     -229.549099796    
 nuclear-nuclear             :     -24.2100848987    
 electron-nuclear            :     -344.695596040    
 Hartree                     :      57.5732481223    
 Madelung                    :     -196.557882919    
 xc potential                :     -19.1896429271    
 exchange                    :     -14.1509075320    
 correlation                 :    -0.388284927539    
 total energy                :     -162.570038144    
 
Density of states at Fermi energy :    41.20066925    
 (states/Hartree/unit cell)
 
Estimated indirect band gap :   0.3597222811E-02
 from k-point    127 to k-point     16
Estimated direct band gap   :   0.9853199258E-01
 at k-point     73
 
Charges :
 core                        :    2.000000000    
 valence                     :    9.000000000    
 interstitial                :   0.9738272952    
 muffin-tins (core leakage)
  species :    1 (Na)
   atom    1                 :    10.02617270     ( -0.4440892099E-15)
 total in muffin-tins        :    10.02617270    
 total calculated charge     :    10.99999999    
 total charge                :    11.00000000    
 error                       :   0.1294962004E-07
 
RMS change in Kohn-Sham potential (target) :   0.5558293846E-02 (   10.00000000    )
Absolute change in total energy (target)   :   0.6040717281E-01 (  0.1000000000E-07)
 
Time (CPU seconds) :       139.73
 
+--------------------+
| Loop number :    8 |
+--------------------+
 
Energies :
 Fermi                       :     0.554959175759E-02
 sum of eigenvalues          :     -85.4382408225    
 electron kinetic            :      163.300578878    
 core electron kinetic       :      113.340450518    
 Coulomb                     :     -311.333894182    
 Coulomb potential           :     -229.548874579    
 nuclear-nuclear             :     -24.2100848987    
 electron-nuclear            :     -344.698743987    
 Hartree                     :      57.5749347041    
 Madelung                    :     -196.559456892    
 xc potential                :     -19.1899451215    
 exchange                    :     -14.1511402021    
 correlation                 :    -0.388286322506    
 total energy                :     -162.572741829    
 
Density of states at Fermi energy :    41.19965701    
 (states/Hartree/unit cell)
 
Estimated indirect band gap :   0.3595835607E-02
 from k-point    127 to k-point     16
Estimated direct band gap   :   0.9853422108E-01
 at k-point     73
 
Charges :
 core                        :    2.000000000    
 valence                     :    9.000000000    
 interstitial                :   0.9738540865    
 muffin-tins (core leakage)
  species :    1 (Na)
   atom    1                 :    10.02614591     (  0.6661338148E-15)
 total in muffin-tins        :    10.02614591    
 total calculated charge     :    10.99999999    
 total charge                :    11.00000000    
 error                       :   0.1311645192E-07
 
Wrote STATE.OUT
 
RMS change in Kohn-Sham potential (target) :   0.1970545080E-02 (   10.00000000    )
Absolute change in total energy (target)   :   0.1239810852E-01 (  0.1000000000E-07)
 
Time (CPU seconds) :       159.22
 
+--------------------+
| Loop number :    9 |
+--------------------+
 
Energies :
 Fermi                       :     0.549945455407E-02
 sum of eigenvalues          :     -85.4377694781    
 electron kinetic            :      163.300523936    
 core electron kinetic       :      113.340148674    
 Coulomb                     :     -311.333169866    
 Coulomb potential           :     -229.548375741    
 nuclear-nuclear             :     -24.2100848987    
 electron-nuclear            :     -344.697794193    
 Hartree                     :      57.5747092261    
 Madelung                    :     -196.558981995    
 xc potential                :     -19.1899176731    
 exchange                    :     -14.1511184803    
 correlation                 :    -0.388285731475    
 total energy                :     -162.572050142    
 
Density of states at Fermi energy :    41.19905608    
 (states/Hartree/unit cell)
 
Estimated indirect band gap :   0.3595020697E-02
 from k-point    127 to k-point     16
Estimated direct band gap   :   0.9853558667E-01
 at k-point     73
 
Charges :
 core                        :    2.000000000    
 valence                     :    9.000000000    
 interstitial                :   0.9738890929    
 muffin-tins (core leakage)
  species :    1 (Na)
   atom    1                 :    10.02611091     (  0.6661338148E-15)
 total in muffin-tins        :    10.02611091    
 total calculated charge     :    10.99999999    
 total charge                :    11.00000000    
 error                       :   0.1323052956E-07
 
RMS change in Kohn-Sham potential (target) :   0.1071027064E-03 (   10.00000000    )
Absolute change in total energy (target)   :   0.3791214192E-02 (  0.1000000000E-07)
 
Time (CPU seconds) :       178.33
 
+--------------------+
| Loop number :   10 |
+--------------------+
 
Energies :
 Fermi                       :     0.549676897148E-02
 sum of eigenvalues          :     -85.4375409322    
 electron kinetic            :      163.300625441    
 core electron kinetic       :      113.340196808    
 Coulomb                     :     -311.332816632    
 Coulomb potential           :     -229.548292250    
 nuclear-nuclear             :     -24.2100848987    
 electron-nuclear            :     -344.697171216    
 Hartree                     :      57.5744394829    
 Madelung                    :     -196.558670507    
 xc potential                :     -19.1898741224    
 exchange                    :     -14.1510847825    
 correlation                 :    -0.388285375540    
 total energy                :     -162.571561349    
 
Density of states at Fermi energy :    41.19900699    
 (states/Hartree/unit cell)
 
Estimated indirect band gap :   0.3594955121E-02
 from k-point    127 to k-point     16
Estimated direct band gap   :   0.9853571459E-01
 at k-point     73
 
Charges :
 core                        :    2.000000000    
 valence                     :    9.000000000    
 interstitial                :   0.9738954384    
 muffin-tins (core leakage)
  species :    1 (Na)
   atom    1                 :    10.02610456     (  0.1332267630E-14)
 total in muffin-tins        :    10.02610456    
 total calculated charge     :    10.99999999    
 total charge                :    11.00000000    
 error                       :   0.1324892196E-07
 
Wrote STATE.OUT
 
RMS change in Kohn-Sham potential (target) :   0.6343576454E-04 (   10.00000000    )
Absolute change in total energy (target)   :   0.1436595677E-02 (  0.1000000000E-07)
 
Time (CPU seconds) :       197.73
 
+--------------------+
| Loop number :   11 |
+--------------------+
 
Energies :
 Fermi                       :     0.549253893843E-02
 sum of eigenvalues          :     -85.4374670389    
 electron kinetic            :      163.300642663    
 core electron kinetic       :      113.340254729    
 Coulomb                     :     -311.332644971    
 Coulomb potential           :     -229.548255031    
 nuclear-nuclear             :     -24.2100848987    
 electron-nuclear            :     -344.696865114    
 Hartree                     :      57.5743050418    
 Madelung                    :     -196.558517456    
 xc potential                :     -19.1898546714    
 exchange                    :     -14.1510696948    
 correlation                 :    -0.388285142391    
 total energy                :     -162.571357145    
 
Density of states at Fermi energy :    41.19892778    
 (states/Hartree/unit cell)
 
Estimated indirect band gap :   0.3594847719E-02
 from k-point    127 to k-point     16
Estimated direct band gap   :   0.9853591113E-01
 at k-point     73
 
Charges :
 core                        :    2.000000000    
 valence                     :    9.000000000    
 interstitial                :   0.9739007071    
 muffin-tins (core leakage)
  species :    1 (Na)
   atom    1                 :    10.02609929     (  0.6661338148E-15)
 total in muffin-tins        :    10.02609929    
 total calculated charge     :    10.99999999    
 total charge                :    11.00000000    
 error                       :   0.1324170462E-07
 
RMS change in Kohn-Sham potential (target) :   0.9651684437E-05 (   10.00000000    )
Absolute change in total energy (target)   :   0.5633531462E-03 (  0.1000000000E-07)
 
Time (CPU seconds) :       217.12
 
+--------------------+
| Loop number :   12 |
+--------------------+
 
Energies :
 Fermi                       :     0.549194550809E-02
 sum of eigenvalues          :     -85.4375272263    
 electron kinetic            :      163.300609551    
 core electron kinetic       :      113.340239741    
 Coulomb                     :     -311.332719666    
 Coulomb potential           :     -229.548271992    
 nuclear-nuclear             :     -24.2100848987    
 electron-nuclear            :     -344.696997543    
 Hartree                     :      57.5743627756    
 Madelung                    :     -196.558583670    
 xc potential                :     -19.1898647854    
 exchange                    :     -14.1510775056    
 correlation                 :    -0.388285198267    
 total energy                :     -162.571472819    
 
Density of states at Fermi energy :    41.19891683    
 (states/Hartree/unit cell)
 
Estimated indirect band gap :   0.3594832407E-02
 from k-point    127 to k-point     16
Estimated direct band gap   :   0.9853593562E-01
 at k-point     73
 
Charges :
 core                        :    2.000000000    
 valence                     :    9.000000000    
 interstitial                :   0.9739002167    
 muffin-tins (core leakage)
  species :    1 (Na)
   atom    1                 :    10.02609978     (   0.000000000    )
 total in muffin-tins        :    10.02609978    
 total calculated charge     :    10.99999999    
 total charge                :    11.00000000    
 error                       :   0.1326720778E-07
 
Wrote STATE.OUT
 
RMS change in Kohn-Sham potential (target) :   0.1642928617E-05 (   10.00000000    )
Absolute change in total energy (target)   :   0.2516445400E-04 (  0.1000000000E-07)
 
Time (CPU seconds) :       236.41
 
+--------------------+
| Loop number :   13 |
+--------------------+
 
Energies :
 Fermi                       :     0.549185320752E-02
 sum of eigenvalues          :     -85.4375391354    
 electron kinetic            :      163.300603043    
 core electron kinetic       :      113.340235768    
 Coulomb                     :     -311.332734728    
 Coulomb potential           :     -229.548275344    
 nuclear-nuclear             :     -24.2100848987    
 electron-nuclear            :     -344.697024315    
 Hartree                     :      57.5743744856    
 Madelung                    :     -196.558597056    
 xc potential                :     -19.1898668345    
 exchange                    :     -14.1510790881    
 correlation                 :    -0.388285209273    
 total energy                :     -162.571495983    
 
Density of states at Fermi energy :    41.19891423    
 (states/Hartree/unit cell)
 
Estimated indirect band gap :   0.3594828780E-02
 from k-point    127 to k-point     16
Estimated direct band gap   :   0.9853594166E-01
 at k-point     73
 
Charges :
 core                        :    2.000000000    
 valence                     :    9.000000000    
 interstitial                :   0.9739001283    
 muffin-tins (core leakage)
  species :    1 (Na)
   atom    1                 :    10.02609987     (  0.2220446049E-15)
 total in muffin-tins        :    10.02609987    
 total calculated charge     :    10.99999999    
 total charge                :    11.00000000    
 error                       :   0.1326476351E-07
 
RMS change in Kohn-Sham potential (target) :   0.1745923362E-06 (   10.00000000    )
Absolute change in total energy (target)   :   0.1687258714E-04 (  0.1000000000E-07)
 
Time (CPU seconds) :       255.77
 
+--------------------+
| Loop number :   14 |
+--------------------+
 
Energies :
 Fermi                       :     0.549185492419E-02
 sum of eigenvalues          :     -85.4375393183    
 electron kinetic            :      163.300602897    
 core electron kinetic       :      113.340235552    
 Coulomb                     :     -311.332734867    
 Coulomb potential           :     -229.548275344    
 nuclear-nuclear             :     -24.2100848987    
 electron-nuclear            :     -344.697024592    
 Hartree                     :      57.5743746245    
 Madelung                    :     -196.558597195    
 xc potential                :     -19.1898668720    
 exchange                    :     -14.1510791171    
 correlation                 :    -0.388285208804    
 total energy                :     -162.571496295    
 
Density of states at Fermi energy :    41.19891358    
 (states/Hartree/unit cell)
 
Estimated indirect band gap :   0.3594827869E-02
 from k-point    127 to k-point     16
Estimated direct band gap   :   0.9853594338E-01
 at k-point     73
 
Charges :
 core                        :    2.000000000    
 valence                     :    9.000000000    
 interstitial                :   0.9739001487    
 muffin-tins (core leakage)
  species :    1 (Na)
   atom    1                 :    10.02609985     (   0.000000000    )
 total in muffin-tins        :    10.02609985    
 total calculated charge     :    10.99999999    
 total charge                :    11.00000000    
 error                       :   0.1326659138E-07
 
Wrote STATE.OUT
 
RMS change in Kohn-Sham potential (target) :   0.9926874761E-07 (   10.00000000    )
Absolute change in total energy (target)   :   0.4530742274E-05 (  0.1000000000E-07)
 
Time (CPU seconds) :       275.12
 
+--------------------+
| Loop number :   15 |
+--------------------+
 
Energies :
 Fermi                       :     0.549185989156E-02
 sum of eigenvalues          :     -85.4375392377    
 electron kinetic            :      163.300602871    
 core electron kinetic       :      113.340235565    
 Coulomb                     :     -311.332734565    
 Coulomb potential           :     -229.548275248    
 nuclear-nuclear             :     -24.2100848987    
 electron-nuclear            :     -344.697024084    
 Hartree                     :      57.5743744177    
 Madelung                    :     -196.558596941    
 xc potential                :     -19.1898668601    
 exchange                    :     -14.1510791079    
 correlation                 :    -0.388285207861    
 total energy                :     -162.571496010    
 
Density of states at Fermi energy :    41.19891279    
 (states/Hartree/unit cell)
 
Estimated indirect band gap :   0.3594826776E-02
 from k-point    127 to k-point     16
Estimated direct band gap   :   0.9853594548E-01
 at k-point     73
 
Charges :
 core                        :    2.000000000    
 valence                     :    9.000000000    
 interstitial                :   0.9739001778    
 muffin-tins (core leakage)
  species :    1 (Na)
   atom    1                 :    10.02609982     (  0.6661338148E-15)
 total in muffin-tins        :    10.02609982    
 total calculated charge     :    10.99999999    
 total charge                :    11.00000000    
 error                       :   0.1326183607E-07
 
RMS change in Kohn-Sham potential (target) :   0.9816284309E-08 (   10.00000000    )
Absolute change in total energy (target)   :   0.8470818784E-06 (  0.1000000000E-07)
 
Time (CPU seconds) :       294.40
 
+--------------------+
| Loop number :   16 |
+--------------------+
 
Energies :
 Fermi                       :     0.549185943529E-02
 sum of eigenvalues          :     -85.4375393228    
 electron kinetic            :      163.300602814    
 core electron kinetic       :      113.340235544    
 Coulomb                     :     -311.332734643    
 Coulomb potential           :     -229.548275266    
 nuclear-nuclear             :     -24.2100848987    
 electron-nuclear            :     -344.697024223    
 Hartree                     :      57.5743744783    
 Madelung                    :     -196.558597010    
 xc potential                :     -19.1898668708    
 exchange                    :     -14.1510791162    
 correlation                 :    -0.388285207892    
 total energy                :     -162.571496153    
 
Density of states at Fermi energy :    41.19891279    
 (states/Hartree/unit cell)
 
Estimated indirect band gap :   0.3594826734E-02
 from k-point    127 to k-point     16
Estimated direct band gap   :   0.9853594557E-01
 at k-point     73
 
Charges :
 core                        :    2.000000000    
 valence                     :    9.000000000    
 interstitial                :   0.9739001776    
 muffin-tins (core leakage)
  species :    1 (Na)
   atom    1                 :    10.02609982     (  0.6661338148E-15)
 total in muffin-tins        :    10.02609982    
 total calculated charge     :    10.99999999    
 total charge                :    11.00000000    
 error                       :   0.1328051979E-07
 
Wrote STATE.OUT
 
RMS change in Kohn-Sham potential (target) :   0.4652549644E-08 (   10.00000000    )
Absolute change in total energy (target)   :   0.3551551515E-06 (  0.1000000000E-07)
 
Time (CPU seconds) :       313.89
 
+--------------------+
| Loop number :   17 |
+--------------------+
 
Energies :
 Fermi                       :     0.549185932637E-02
 sum of eigenvalues          :     -85.4375393326    
 electron kinetic            :      163.300602799    
 core electron kinetic       :      113.340235539    
 Coulomb                     :     -311.332734640    
 Coulomb potential           :     -229.548275261    
 nuclear-nuclear             :     -24.2100848987    
 electron-nuclear            :     -344.697024223    
 Hartree                     :      57.5743744809    
 Madelung                    :     -196.558597010    
 xc potential                :     -19.1898668705    
 exchange                    :     -14.1510791162    
 correlation                 :    -0.388285207871    
 total energy                :     -162.571496166    
 
Density of states at Fermi energy :    41.19891278    
 (states/Hartree/unit cell)
 
Estimated indirect band gap :   0.3594826732E-02
 from k-point    127 to k-point     16
Estimated direct band gap   :   0.9853594557E-01
 at k-point     73
 
Charges :
 core                        :    2.000000000    
 valence                     :    9.000000000    
 interstitial                :   0.9739001776    
 muffin-tins (core leakage)
  species :    1 (Na)
   atom    1                 :    10.02609982     (  0.8881784197E-15)
 total in muffin-tins        :    10.02609982    
 total calculated charge     :    10.99999999    
 total charge                :    11.00000000    
 error                       :   0.1327886423E-07
 
RMS change in Kohn-Sham potential (target) :   0.7020176563E-08 (   10.00000000    )
Absolute change in total energy (target)   :   0.1013900146E-06 (  0.1000000000E-07)
 
Time (CPU seconds) :       333.10
 
+--------------------+
| Loop number :   18 |
+--------------------+
 
Energies :
 Fermi                       :     0.549185922276E-02
 sum of eigenvalues          :     -85.4375393468    
 electron kinetic            :      163.300602785    
 core electron kinetic       :      113.340235536    
 Coulomb                     :     -311.332734641    
 Coulomb potential           :     -229.548275261    
 nuclear-nuclear             :     -24.2100848987    
 electron-nuclear            :     -344.697024223    
 Hartree                     :      57.5743744808    
 Madelung                    :     -196.558597010    
 xc potential                :     -19.1898668708    
 exchange                    :     -14.1510791164    
 correlation                 :    -0.388285207865    
 total energy                :     -162.571496180    
 
Density of states at Fermi energy :    41.19891276    
 (states/Hartree/unit cell)
 
Estimated indirect band gap :   0.3594826731E-02
 from k-point    127 to k-point     16
Estimated direct band gap   :   0.9853594558E-01
 at k-point     73
 
Charges :
 core                        :    2.000000000    
 valence                     :    9.000000000    
 interstitial                :   0.9739001774    
 muffin-tins (core leakage)
  species :    1 (Na)
   atom    1                 :    10.02609982     (  0.1332267630E-14)
 total in muffin-tins        :    10.02609982    
 total calculated charge     :    10.99999999    
 total charge                :    11.00000000    
 error                       :   0.1325512855E-07
 
Wrote STATE.OUT
 
RMS change in Kohn-Sham potential (target) :   0.1240399269E-07 (   10.00000000    )
Absolute change in total energy (target)   :   0.3944913374E-07 (  0.1000000000E-07)
 
Time (CPU seconds) :       352.49
 
+--------------------+
| Loop number :   19 |
+--------------------+
 
Energies :
 Fermi                       :     0.549185919091E-02
 sum of eigenvalues          :     -85.4375393480    
 electron kinetic            :      163.300602787    
 core electron kinetic       :      113.340235542    
 Coulomb                     :     -311.332734642    
 Coulomb potential           :     -229.548275264    
 nuclear-nuclear             :     -24.2100848987    
 electron-nuclear            :     -344.697024223    
 Hartree                     :      57.5743744793    
 Madelung                    :     -196.558597010    
 xc potential                :     -19.1898668708    
 exchange                    :     -14.1510791163    
 correlation                 :    -0.388285207869    
 total energy                :     -162.571496179    
 
Density of states at Fermi energy :    41.19891275    
 (states/Hartree/unit cell)
 
Estimated indirect band gap :   0.3594826732E-02
 from k-point    127 to k-point     16
Estimated direct band gap   :   0.9853594558E-01
 at k-point     73
 
Charges :
 core                        :    2.000000000    
 valence                     :    9.000000000    
 interstitial                :   0.9739001774    
 muffin-tins (core leakage)
  species :    1 (Na)
   atom    1                 :    10.02609982     ( -0.8881784197E-15)
 total in muffin-tins        :    10.02609982    
 total calculated charge     :    10.99999999    
 total charge                :    11.00000000    
 error                       :   0.1324511345E-07
 
RMS change in Kohn-Sham potential (target) :   0.6847005031E-08 (   10.00000000    )
Absolute change in total energy (target)   :   0.9435950687E-08 (  0.1000000000E-07)
 
Convergence targets achieved
 
Time (CPU seconds) :       371.90
 
+--------------------+
| Loop number :   20 |
+--------------------+
 
Energies :
 Fermi                       :     0.549185914822E-02
 sum of eigenvalues          :     -85.4375393518    
 electron kinetic            :      163.300602783    
 core electron kinetic       :      113.340235541    
 Coulomb                     :     -311.332734642    
 Coulomb potential           :     -229.548275264    
 nuclear-nuclear             :     -24.2100848987    
 electron-nuclear            :     -344.697024223    
 Hartree                     :      57.5743744791    
 Madelung                    :     -196.558597010    
 xc potential                :     -19.1898668709    
 exchange                    :     -14.1510791164    
 correlation                 :    -0.388285207869    
 total energy                :     -162.571496183    
 
Density of states at Fermi energy :    41.19891275    
 (states/Hartree/unit cell)
 
Estimated indirect band gap :   0.3594826732E-02
 from k-point    127 to k-point     16
Estimated direct band gap   :   0.9853594558E-01
 at k-point     73
 
Charges :
 core                        :    2.000000000    
 valence                     :    9.000000000    
 interstitial                :   0.9739001773    
 muffin-tins (core leakage)
  species :    1 (Na)
   atom    1                 :    10.02609982     (   0.000000000    )
 total in muffin-tins        :    10.02609982    
 total calculated charge     :    10.99999999    
 total charge                :    11.00000000    
 error                       :   0.1324907473E-07
 
Wrote STATE.OUT
 
+------------------------------+
| Self-consistent loop stopped |
+------------------------------+
 
Wrote STATE.OUT
 
Timings (CPU seconds) :
 initialisation                        :         1.45
 Hamiltonian and overlap matrix set up :       107.50
 first-variational eigenvalue equation :       150.10
 charge density calculation            :        16.23
 potential calculation                 :       115.86
 total                                 :       391.14
 
+----------------------------+
| Elk version 8.3.15 stopped |
+----------------------------+
