    -609.978808819    
    -609.875040990    
    -606.584819574    
    -604.211362722    
    -603.018133486    
    -602.586459535    
    -602.431113173    
    -602.447209058    
    -602.447600394    
    -602.445105376    
    -602.444395204    
    -602.444348181    
    -602.444335467    
    -602.444360110    
    -602.444367522    
    -602.444352924    
    -602.444349499    
    -602.444336282    
    -602.444346587    
    -602.444345224    
    -602.444339988    
    -602.444344860    
    -602.444345804    
    -602.444344647    
    -602.444345487    
    -602.444345590    
    -602.444345163    
    -602.444345478    
    -602.444345740    
    -602.444346029    
    -602.444346466    
    -602.444346567    
    -602.444346624    
    -602.444346338    
    -602.444346610    
    -602.444346755    
    -602.444346406    
    -602.444346315    
    -602.444346203    
    -602.444346353    
    -602.444346267    
    -602.444346154    
    -602.444346215    
    -602.444346071    
    -602.444346073    
    -602.444346248    
    -602.444346054    
    -602.444346248    
    -602.444346115    
    -602.444346130    
    -602.444346286    
