+----------------------------+
| Elk version 8.3.15 started |
+----------------------------+
 
Date (YYYY-MM-DD) : 2022-02-25
Time (hh:mm:ss)   : 06:15:40
 
All units are atomic (Hartree, Bohr, etc.)
 
+------------------------------------------+
| Ground-state run resuming from STATE.OUT |
+------------------------------------------+
 
Lattice vectors :
   5.712650041      -3.298200039       0.000000000    
   0.000000000       6.596400077       0.000000000    
   0.000000000       0.000000000       9.648695090    
 
Reciprocal lattice vectors :
   1.099872259       0.000000000       0.000000000    
  0.5499361298      0.9525173176       0.000000000    
   0.000000000       0.000000000      0.6511953428    
 
Unit cell volume      :    363.5910551    
Brillouin zone volume :   0.6822230910    
 
Muffin-tin inner radius fraction :   0.1000000000E-01
 
Species :    1 (Sc)
 parameters loaded from : Sc.in
 name : scandium
 nuclear charge    :   -21.00000000    
 electronic charge :    21.00000000    
 atomic mass :    81949.61066    
 muffin-tin radius :    2.400000000    
 number of radial points in muffin-tin :   1000
 number on inner part of muffin-tin    :    716
 atomic positions (lattice), magnetic fields (Cartesian) :
   1 :   0.33333333  0.16666667  0.25000000    0.00000000  0.00000000  0.00000000
   2 :  -0.33333333 -0.16666667 -0.25000000    0.00000000  0.00000000  0.00000000
 
Total number of atoms per unit cell :    2
 
Spin treatment :
 spin-unpolarised
 
Number of Bravais lattice symmetries :   24
Number of crystal symmetries         :   24
Crystal has inversion symmetry
Real symmetric eigensolver will be used
 
k-point grid :     17    17    17
k-point offset :    0.000000000       0.000000000       0.000000000    
k-point set is reduced with full crystal symmetry group
Total number of k-points :      297
 
Muffin-tin radius times maximum |G+k| :    8.500000000    
 using gkmax = rgkmax / 2
Maximum |G+k| for APW functions       :    4.250000000    
Maximum (1/2)|G+k|²                   :    9.031250000    
Maximum |G| for potential and density :    34.00000000    
Constant for pseudocharge density :   20
Radial integration step length :    1
 
G-vector grid sizes :     72    72   108
Number of G-vectors :   241395
 
Maximum angular momentum used for
 APW functions                      :   10
 outer part of muffin-tin           :    8
 inner part of muffin-tin           :    1
 
Total nuclear charge    :   -42.00000000    
Total core charge       :    20.00000000    
Total valence charge    :    22.00000000    
Total excess charge     :    0.000000000    
Total electronic charge :    42.00000000    
 
Effective Wigner radius, rₛ :    1.273772192    
 
Number of empty states         :   40
Total number of valence states :   52
Total number of core states    :   20
 
Conduction state local-orbitals added automatically
Total number of local-orbitals :  242
 
Using Libxc version 05.01.05
Exchange-correlation functional :    100   493   494
 exchange: mgga_x_rscan; correlation: mgga_c_rscan
 
Smearing type :    1
 Methfessel-Paxton order 1, Phys. Rev. B 40, 3616 (1989)
Smearing width :   0.1000000000E-02
Effective electronic temperature (K) :    315.7750248    
 
Mixing type :    3
 Broyden mixing, J. Phys. A: Math. Gen. 17, L317 (1984)
 
Potential read in from STATE.OUT
 
+------------------------------+
| Self-consistent loop started |
+------------------------------+
 
+--------------------+
| Loop number :    1 |
+--------------------+
 
Energies :
 Fermi                       :     0.218821845667    
 sum of eigenvalues          :     -895.760838881    
 electron kinetic            :      1546.06036522    
 core electron kinetic       :      1433.78021859    
 Coulomb                     :     -2996.22808431    
 Coulomb potential           :     -2337.74607046    
 nuclear-nuclear             :     -193.787988890    
 electron-nuclear            :     -3267.13412038    
 Hartree                     :      464.694024961    
 Madelung                    :     -1827.35504908    
 xc potential                :     -104.075133639    
 exchange                    :     -77.1721337656    
 correlation                 :     -1.76853823573    
 total energy                :     -1529.10839109    
 
Density of states at Fermi energy :    116.8900151    
 (states/Hartree/unit cell)
 
Estimated indirect band gap :   0.8768315552E-04
 from k-point    247 to k-point    248
Estimated direct band gap   :   0.3978663640E-03
 at k-point    248
 
Charges :
 core                        :    20.00000000    
 valence                     :    22.00000000    
 interstitial                :    3.964241597    
 muffin-tins (core leakage)
  species :    1 (Sc)
   atom    1                 :    19.01787920     (  0.6519687901E-08)
   atom    2                 :    19.01787920     (  0.6519687901E-08)
 total in muffin-tins        :    38.03575840    
 total calculated charge     :    41.99999925    
 total charge                :    42.00000000    
 error                       :   0.7494951006E-06
 
Time (CPU seconds) :        88.62
 
+--------------------+
| Loop number :    2 |
+--------------------+
 
Energies :
 Fermi                       :     0.218817319345    
 sum of eigenvalues          :     -895.761252373    
 electron kinetic            :      1546.05930815    
 core electron kinetic       :      1433.77975017    
 Coulomb                     :     -2996.22856726    
 Coulomb potential           :     -2337.74533161    
 nuclear-nuclear             :     -193.787988890    
 electron-nuclear            :     -3267.13582514    
 Hartree                     :      464.695246763    
 Madelung                    :     -1827.35590146    
 xc potential                :     -104.075228908    
 exchange                    :     -77.1721968325    
 correlation                 :     -1.76854170064    
 total energy                :     -1529.10999765    
 
Density of states at Fermi energy :    117.3662484    
 (states/Hartree/unit cell)
 
Estimated indirect band gap :   0.8746463154E-04
 from k-point    247 to k-point    248
Estimated direct band gap   :   0.3991484453E-03
 at k-point    248
 
Charges :
 core                        :    20.00000000    
 valence                     :    22.00000000    
 interstitial                :    3.964096792    
 muffin-tins (core leakage)
  species :    1 (Sc)
   atom    1                 :    19.01795160     (  0.6510662232E-08)
   atom    2                 :    19.01795160     (  0.6510662232E-08)
 total in muffin-tins        :    38.03590321    
 total calculated charge     :    41.99999926    
 total charge                :    42.00000000    
 error                       :   0.7446203298E-06
 
Wrote STATE.OUT
 
RMS change in Kohn-Sham potential (target) :   0.1483774079E-01 (   10.00000000    )
Absolute change in total energy (target)   :   0.1606556842E-02 (  0.1000000000E-07)
 
Time (CPU seconds) :       180.29
 
+--------------------+
| Loop number :    3 |
+--------------------+
 
Energies :
 Fermi                       :     0.218811102920    
 sum of eigenvalues          :     -895.761055172    
 electron kinetic            :      1546.05789368    
 core electron kinetic       :      1433.77731009    
 Coulomb                     :     -2996.22865085    
 Coulomb potential           :     -2337.74361607    
 nuclear-nuclear             :     -193.787988890    
 electron-nuclear            :     -3267.13770785    
 Hartree                     :      464.697045891    
 Madelung                    :     -1827.35684282    
 xc potential                :     -104.075332786    
 exchange                    :     -77.1722497164    
 correlation                 :     -1.76855194252    
 total energy                :     -1529.11155882    
 
Density of states at Fermi energy :    118.9963203    
 (states/Hartree/unit cell)
 
Estimated indirect band gap :   0.8684619293E-04
 from k-point    247 to k-point    248
Estimated direct band gap   :   0.4071868037E-03
 at k-point    248
 
Charges :
 core                        :    20.00000000    
 valence                     :    22.00000000    
 interstitial                :    3.963780157    
 muffin-tins (core leakage)
  species :    1 (Sc)
   atom    1                 :    19.01810992     (  0.6511479356E-08)
   atom    2                 :    19.01810992     (  0.6511479356E-08)
 total in muffin-tins        :    38.03621984    
 total calculated charge     :    41.99999927    
 total charge                :    42.00000000    
 error                       :   0.7273722176E-06
 
RMS change in Kohn-Sham potential (target) :   0.1429724541E-01 (   10.00000000    )
Absolute change in total energy (target)   :   0.1962812663E-02 (  0.1000000000E-07)
 
Time (CPU seconds) :       271.28
 
+--------------------+
| Loop number :    4 |
+--------------------+
 
Energies :
 Fermi                       :     0.218753436588    
 sum of eigenvalues          :     -895.758878901    
 electron kinetic            :      1546.04132213    
 core electron kinetic       :      1433.77957604    
 Coulomb                     :     -2996.22989503    
 Coulomb potential           :     -2337.72363544    
 nuclear-nuclear             :     -193.787988890    
 electron-nuclear            :     -3267.16017685    
 Hartree                     :      464.718270706    
 Madelung                    :     -1827.36807731    
 xc potential                :     -104.076565599    
 exchange                    :     -77.1728863027    
 correlation                 :     -1.76866357628    
 total energy                :     -1529.13012278    
 
Density of states at Fermi energy :    129.4914478    
 (states/Hartree/unit cell)
 
Estimated indirect band gap :   0.7021105378E-04
 from k-point    157 to k-point    247
Estimated direct band gap   :   0.5148128918E-03
 at k-point    248
 
Charges :
 core                        :    20.00000000    
 valence                     :    22.00000000    
 interstitial                :    3.960054356    
 muffin-tins (core leakage)
  species :    1 (Sc)
   atom    1                 :    19.01997282     (  0.6519337958E-08)
   atom    2                 :    19.01997282     (  0.6519337958E-08)
 total in muffin-tins        :    38.03994564    
 total calculated charge     :    41.99999950    
 total charge                :    42.00000000    
 error                       :   0.4973963641E-06
 
Wrote STATE.OUT
 
RMS change in Kohn-Sham potential (target) :   0.7397142569E-02 (   10.00000000    )
Absolute change in total energy (target)   :   0.1905465528E-01 (  0.1000000000E-07)
 
Time (CPU seconds) :       362.58
 
+--------------------+
| Loop number :    5 |
+--------------------+
 
Energies :
 Fermi                       :     0.218748171827    
 sum of eigenvalues          :     -895.758948818    
 electron kinetic            :      1546.03097320    
 core electron kinetic       :      1433.78158112    
 Coulomb                     :     -2996.23246228    
 Coulomb potential           :     -2337.71248225    
 nuclear-nuclear             :     -193.787988890    
 electron-nuclear            :     -3267.17646452    
 Hartree                     :      464.731991135    
 Madelung                    :     -1827.37622115    
 xc potential                :     -104.077439765    
 exchange                    :     -77.1733755522    
 correlation                 :     -1.76872240885    
 total energy                :     -1529.14358704    
 
Density of states at Fermi energy :    127.9426369    
 (states/Hartree/unit cell)
 
Estimated indirect band gap :   0.1369382150E-03
 from k-point     47 to k-point    247
Estimated direct band gap   :   0.5922727600E-03
 at k-point    248
 
Charges :
 core                        :    20.00000000    
 valence                     :    22.00000000    
 interstitial                :    3.957825660    
 muffin-tins (core leakage)
  species :    1 (Sc)
   atom    1                 :    19.02108717     (  0.6549100817E-08)
   atom    2                 :    19.02108717     (  0.6549100817E-08)
 total in muffin-tins        :    38.04217434    
 total calculated charge     :    41.99999965    
 total charge                :    42.00000000    
 error                       :   0.3494446830E-06
 
RMS change in Kohn-Sham potential (target) :   0.3109535390E-02 (   10.00000000    )
Absolute change in total energy (target)   :   0.1822792588E-01 (  0.1000000000E-07)
 
Time (CPU seconds) :       452.00
 
+--------------------+
| Loop number :    6 |
+--------------------+
 
Energies :
 Fermi                       :     0.218752660891    
 sum of eigenvalues          :     -895.760130047    
 electron kinetic            :      1546.02647250    
 core electron kinetic       :      1433.78206120    
 Coulomb                     :     -2996.23492936    
 Coulomb potential           :     -2337.70870197    
 nuclear-nuclear             :     -193.787988890    
 electron-nuclear            :     -3267.18517897    
 Hartree                     :      464.738238500    
 Madelung                    :     -1827.38057837    
 xc potential                :     -104.077900582    
 exchange                    :     -77.1736577659    
 correlation                 :     -1.76874475754    
 total energy                :     -1529.15085938    
 
Density of states at Fermi energy :    127.6673624    
 (states/Hartree/unit cell)
 
Estimated indirect band gap :   0.6559689131E-04
 from k-point    220 to k-point     47
Estimated direct band gap   :   0.6239750445E-03
 at k-point    248
 
Charges :
 core                        :    20.00000000    
 valence                     :    22.00000000    
 interstitial                :    3.956971961    
 muffin-tins (core leakage)
  species :    1 (Sc)
   atom    1                 :    19.02151402     (  0.6529598195E-08)
   atom    2                 :    19.02151402     (  0.6529598195E-08)
 total in muffin-tins        :    38.04302804    
 total calculated charge     :    41.99999970    
 total charge                :    42.00000000    
 error                       :   0.2976970350E-06
 
Wrote STATE.OUT
 
RMS change in Kohn-Sham potential (target) :   0.1648371802E-02 (   10.00000000    )
Absolute change in total energy (target)   :   0.1182932160E-01 (  0.1000000000E-07)
 
Time (CPU seconds) :       541.55
 
+--------------------+
| Loop number :    7 |
+--------------------+
 
Energies :
 Fermi                       :     0.218757727727    
 sum of eigenvalues          :     -895.760954335    
 electron kinetic            :      1546.02419095    
 core electron kinetic       :      1433.78246979    
 Coulomb                     :     -2996.23658807    
 Coulomb potential           :     -2337.70697998    
 nuclear-nuclear             :     -193.787988890    
 electron-nuclear            :     -3267.19021837    
 Hartree                     :      464.741619194    
 Madelung                    :     -1827.38309808    
 xc potential                :     -104.078165300    
 exchange                    :     -77.1738228035    
 correlation                 :     -1.76875678818    
 total energy                :     -1529.15497671    
 
Density of states at Fermi energy :    127.7617121    
 (states/Hartree/unit cell)
 
Estimated indirect band gap :   0.8977415663E-04
 from k-point    220 to k-point     47
Estimated direct band gap   :   0.6420242817E-03
 at k-point    248
 
Charges :
 core                        :    20.00000000    
 valence                     :    22.00000000    
 interstitial                :    3.956546473    
 muffin-tins (core leakage)
  species :    1 (Sc)
   atom    1                 :    19.02172676     (  0.6537783648E-08)
   atom    2                 :    19.02172676     (  0.6537783648E-08)
 total in muffin-tins        :    38.04345353    
 total calculated charge     :    41.99999973    
 total charge                :    42.00000000    
 error                       :   0.2721949954E-06
 
RMS change in Kohn-Sham potential (target) :   0.9853785615E-03 (   10.00000000    )
Absolute change in total energy (target)   :   0.7074661729E-02 (  0.1000000000E-07)
 
Time (CPU seconds) :       631.28
 
+--------------------+
| Loop number :    8 |
+--------------------+
 
Energies :
 Fermi                       :     0.218762618613    
 sum of eigenvalues          :     -895.761669163    
 electron kinetic            :      1546.02422375    
 core electron kinetic       :      1433.78215705    
 Coulomb                     :     -2996.23766970    
 Coulomb potential           :     -2337.70766095    
 nuclear-nuclear             :     -193.787988890    
 electron-nuclear            :     -3267.19170067    
 Hartree                     :      464.742019861    
 Madelung                    :     -1827.38383923    
 xc potential                :     -104.078231963    
 exchange                    :     -77.1738718284    
 correlation                 :     -1.76875823658    
 total energy                :     -1529.15607602    
 
Density of states at Fermi energy :    127.7533287    
 (states/Hartree/unit cell)
 
Estimated indirect band gap :   0.7716063314E-04
 from k-point    220 to k-point     47
Estimated direct band gap   :   0.6445396025E-03
 at k-point    248
 
Charges :
 core                        :    20.00000000    
 valence                     :    22.00000000    
 interstitial                :    3.956597083    
 muffin-tins (core leakage)
  species :    1 (Sc)
   atom    1                 :    19.02170146     (  0.6543258380E-08)
   atom    2                 :    19.02170146     (  0.6543258380E-08)
 total in muffin-tins        :    38.04340292    
 total calculated charge     :    41.99999972    
 total charge                :    42.00000000    
 error                       :   0.2754259469E-06
 
Wrote STATE.OUT
 
RMS change in Kohn-Sham potential (target) :   0.5717002105E-03 (   10.00000000    )
Absolute change in total energy (target)   :   0.2867971137E-02 (  0.1000000000E-07)
 
Time (CPU seconds) :       720.40
 
+--------------------+
| Loop number :    9 |
+--------------------+
 
Energies :
 Fermi                       :     0.218763389966    
 sum of eigenvalues          :     -895.761864542    
 electron kinetic            :      1546.02440993    
 core electron kinetic       :      1433.78156008    
 Coulomb                     :     -2996.23797753    
 Coulomb potential           :     -2337.70803227    
 nuclear-nuclear             :     -193.787988890    
 electron-nuclear            :     -3267.19194502    
 Hartree                     :      464.741956376    
 Madelung                    :     -1827.38396140    
 xc potential                :     -104.078242206    
 exchange                    :     -77.1738792660    
 correlation                 :     -1.76875884168    
 total energy                :     -1529.15620571    
 
Density of states at Fermi energy :    127.7432660    
 (states/Hartree/unit cell)
 
Estimated indirect band gap :   0.7053483937E-04
 from k-point    220 to k-point     47
Estimated direct band gap   :   0.6461374846E-03
 at k-point    248
 
Charges :
 core                        :    20.00000000    
 valence                     :    22.00000000    
 interstitial                :    3.956645806    
 muffin-tins (core leakage)
  species :    1 (Sc)
   atom    1                 :    19.02167710     (  0.6511987394E-08)
   atom    2                 :    19.02167710     (  0.6511987394E-08)
 total in muffin-tins        :    38.04335419    
 total calculated charge     :    41.99999972    
 total charge                :    42.00000000    
 error                       :   0.2769746388E-06
 
RMS change in Kohn-Sham potential (target) :   0.7368470109E-04 (   10.00000000    )
Absolute change in total energy (target)   :   0.8466868467E-03 (  0.1000000000E-07)
 
Time (CPU seconds) :       811.77
 
+--------------------+
| Loop number :   10 |
+--------------------+
 
Energies :
 Fermi                       :     0.218759908267    
 sum of eigenvalues          :     -895.761600483    
 electron kinetic            :      1546.02436461    
 core electron kinetic       :      1433.78161784    
 Coulomb                     :     -2996.23751687    
 Coulomb potential           :     -2337.70775145    
 nuclear-nuclear             :     -193.787988890    
 electron-nuclear            :     -3267.19130450    
 Hartree                     :      464.741776523    
 Madelung                    :     -1827.38364114    
 xc potential                :     -104.078213635    
 exchange                    :     -77.1738581272    
 correlation                 :     -1.76875827551    
 total energy                :     -1529.15576866    
 
Density of states at Fermi energy :    127.7489893    
 (states/Hartree/unit cell)
 
Estimated indirect band gap :   0.7589931401E-04
 from k-point    220 to k-point     47
Estimated direct band gap   :   0.6451249349E-03
 at k-point    248
 
Charges :
 core                        :    20.00000000    
 valence                     :    22.00000000    
 interstitial                :    3.956626912    
 muffin-tins (core leakage)
  species :    1 (Sc)
   atom    1                 :    19.02168654     (  0.6474699887E-08)
   atom    2                 :    19.02168654     (  0.6474699887E-08)
 total in muffin-tins        :    38.04337309    
 total calculated charge     :    41.99999972    
 total charge                :    42.00000000    
 error                       :   0.2755278885E-06
 
Wrote STATE.OUT
 
RMS change in Kohn-Sham potential (target) :   0.1667519978E-03 (   10.00000000    )
Absolute change in total energy (target)   :   0.2253747925E-03 (  0.1000000000E-07)
 
Time (CPU seconds) :       901.77
 
+--------------------+
| Loop number :   11 |
+--------------------+
 
Energies :
 Fermi                       :     0.218759017872    
 sum of eigenvalues          :     -895.761480643    
 electron kinetic            :      1546.02433918    
 core electron kinetic       :      1433.78176603    
 Coulomb                     :     -2996.23732271    
 Coulomb potential           :     -2337.70761878    
 nuclear-nuclear             :     -193.787988890    
 electron-nuclear            :     -3267.19104886    
 Hartree                     :      464.741715040    
 Madelung                    :     -1827.38351332    
 xc potential                :     -104.078201042    
 exchange                    :     -77.1738488952    
 correlation                 :     -1.76875795595    
 total energy                :     -1529.15559038    
 
Density of states at Fermi energy :    127.7518312    
 (states/Hartree/unit cell)
 
Estimated indirect band gap :   0.7890378004E-04
 from k-point    220 to k-point     47
Estimated direct band gap   :   0.6445360867E-03
 at k-point    248
 
Charges :
 core                        :    20.00000000    
 valence                     :    22.00000000    
 interstitial                :    3.956613366    
 muffin-tins (core leakage)
  species :    1 (Sc)
   atom    1                 :    19.02169332     (  0.6530736840E-08)
   atom    2                 :    19.02169332     (  0.6530736840E-08)
 total in muffin-tins        :    38.04338663    
 total calculated charge     :    41.99999973    
 total charge                :    42.00000000    
 error                       :   0.2748256094E-06
 
RMS change in Kohn-Sham potential (target) :   0.2415196672E-03 (   10.00000000    )
Absolute change in total energy (target)   :   0.2346252313E-03 (  0.1000000000E-07)
 
Time (CPU seconds) :       993.53
 
+--------------------+
| Loop number :   12 |
+--------------------+
 
Energies :
 Fermi                       :     0.218758338521    
 sum of eigenvalues          :     -895.761505755    
 electron kinetic            :      1546.02432048    
 core electron kinetic       :      1433.78177462    
 Coulomb                     :     -2996.23732702    
 Coulomb potential           :     -2337.70762528    
 nuclear-nuclear             :     -193.787988890    
 electron-nuclear            :     -3267.19105098    
 Hartree                     :      464.741712850    
 Madelung                    :     -1827.38351438    
 xc potential                :     -104.078200964    
 exchange                    :     -77.1738487854    
 correlation                 :     -1.76875797373    
 total energy                :     -1529.15561329    
 
Density of states at Fermi energy :    127.7517590    
 (states/Hartree/unit cell)
 
Estimated indirect band gap :   0.7897479119E-04
 from k-point    220 to k-point     47
Estimated direct band gap   :   0.6445442895E-03
 at k-point    248
 
Charges :
 core                        :    20.00000000    
 valence                     :    22.00000000    
 interstitial                :    3.956614187    
 muffin-tins (core leakage)
  species :    1 (Sc)
   atom    1                 :    19.02169291     (  0.6523789509E-08)
   atom    2                 :    19.02169291     (  0.6523789509E-08)
 total in muffin-tins        :    38.04338581    
 total calculated charge     :    41.99999973    
 total charge                :    42.00000000    
 error                       :   0.2747926402E-06
 
Wrote STATE.OUT
 
RMS change in Kohn-Sham potential (target) :   0.1570153475E-04 (   10.00000000    )
Absolute change in total energy (target)   :   0.3574916991E-04 (  0.1000000000E-07)
 
Time (CPU seconds) :      1081.65
 
+--------------------+
| Loop number :   13 |
+--------------------+
 
Energies :
 Fermi                       :     0.218758654632    
 sum of eigenvalues          :     -895.761520760    
 electron kinetic            :      1546.02432228    
 core electron kinetic       :      1433.78178513    
 Coulomb                     :     -2996.23735483    
 Coulomb potential           :     -2337.70764065    
 nuclear-nuclear             :     -193.787988890    
 electron-nuclear            :     -3267.19109123    
 Hartree                     :      464.741725291    
 Madelung                    :     -1827.38353450    
 xc potential                :     -104.078202396    
 exchange                    :     -77.1738498880    
 correlation                 :     -1.76875798189    
 total energy                :     -1529.15564041    
 
Density of states at Fermi energy :    127.7515075    
 (states/Hartree/unit cell)
 
Estimated indirect band gap :   0.7879855441E-04
 from k-point    220 to k-point     47
Estimated direct band gap   :   0.6445523673E-03
 at k-point    248
 
Charges :
 core                        :    20.00000000    
 valence                     :    22.00000000    
 interstitial                :    3.956614451    
 muffin-tins (core leakage)
  species :    1 (Sc)
   atom    1                 :    19.02169277     (  0.6489534243E-08)
   atom    2                 :    19.02169277     (  0.6489534243E-08)
 total in muffin-tins        :    38.04338555    
 total calculated charge     :    41.99999973    
 total charge                :    42.00000000    
 error                       :   0.2748518639E-06
 
RMS change in Kohn-Sham potential (target) :   0.1915103793E-04 (   10.00000000    )
Absolute change in total energy (target)   :   0.1818776627E-04 (  0.1000000000E-07)
 
Time (CPU seconds) :      1174.40
 
+--------------------+
| Loop number :   14 |
+--------------------+
 
Energies :
 Fermi                       :     0.218758765862    
 sum of eigenvalues          :     -895.761527154    
 electron kinetic            :      1546.02432358    
 core electron kinetic       :      1433.78178196    
 Coulomb                     :     -2996.23736613    
 Coulomb potential           :     -2337.70764771    
 nuclear-nuclear             :     -193.787988890    
 electron-nuclear            :     -3267.19110676    
 Hartree                     :      464.741729526    
 Madelung                    :     -1827.38354227    
 xc potential                :     -104.078203017    
 exchange                    :     -77.1738503512    
 correlation                 :     -1.76875799342    
 total energy                :     -1529.15565090    
 
Density of states at Fermi energy :    127.7513953    
 (states/Hartree/unit cell)
 
Estimated indirect band gap :   0.7868960603E-04
 from k-point    220 to k-point     47
Estimated direct band gap   :   0.6445708225E-03
 at k-point    248
 
Charges :
 core                        :    20.00000000    
 valence                     :    22.00000000    
 interstitial                :    3.956614852    
 muffin-tins (core leakage)
  species :    1 (Sc)
   atom    1                 :    19.02169257     (  0.6553579013E-08)
   atom    2                 :    19.02169257     (  0.6553579013E-08)
 total in muffin-tins        :    38.04338515    
 total calculated charge     :    41.99999972    
 total charge                :    42.00000000    
 error                       :   0.2751330257E-06
 
Wrote STATE.OUT
 
RMS change in Kohn-Sham potential (target) :   0.8226675589E-04 (   10.00000000    )
Absolute change in total energy (target)   :   0.1503052817E-04 (  0.1000000000E-07)
 
Time (CPU seconds) :      1263.28
 
+--------------------+
| Loop number :   15 |
+--------------------+
 
Energies :
 Fermi                       :     0.218758729030    
 sum of eigenvalues          :     -895.761527038    
 electron kinetic            :      1546.02432229    
 core electron kinetic       :      1433.78178809    
 Coulomb                     :     -2996.23736479    
 Coulomb potential           :     -2337.70764644    
 nuclear-nuclear             :     -193.787988890    
 electron-nuclear            :     -3267.19110535    
 Hartree                     :      464.741729456    
 Madelung                    :     -1827.38354157    
 xc potential                :     -104.078202889    
 exchange                    :     -77.1738502593    
 correlation                 :     -1.76875798954    
 total energy                :     -1529.15565074    
 
Density of states at Fermi energy :    127.7514028    
 (states/Hartree/unit cell)
 
Estimated indirect band gap :   0.7872278281E-04
 from k-point    220 to k-point     47
Estimated direct band gap   :   0.6445602381E-03
 at k-point    248
 
Charges :
 core                        :    20.00000000    
 valence                     :    22.00000000    
 interstitial                :    3.956614754    
 muffin-tins (core leakage)
  species :    1 (Sc)
   atom    1                 :    19.02169262     (  0.6847962197E-08)
   atom    2                 :    19.02169262     (  0.6847962197E-08)
 total in muffin-tins        :    38.04338525    
 total calculated charge     :    41.99999972    
 total charge                :    42.00000000    
 error                       :   0.2757005362E-06
 
RMS change in Kohn-Sham potential (target) :   0.9184527531E-04 (   10.00000000    )
Absolute change in total energy (target)   :   0.3603769983E-05 (  0.1000000000E-07)
 
Time (CPU seconds) :      1355.44
 
+--------------------+
| Loop number :   16 |
+--------------------+
 
Energies :
 Fermi                       :     0.218758783580    
 sum of eigenvalues          :     -895.761531625    
 electron kinetic            :      1546.02432370    
 core electron kinetic       :      1433.78178039    
 Coulomb                     :     -2996.23737282    
 Coulomb potential           :     -2337.70765191    
 nuclear-nuclear             :     -193.787988890    
 electron-nuclear            :     -3267.19111595    
 Hartree                     :      464.741732016    
 Madelung                    :     -1827.38354686    
 xc potential                :     -104.078203408    
 exchange                    :     -77.1738506337    
 correlation                 :     -1.76875800462    
 total energy                :     -1529.15565776    
 
Density of states at Fermi energy :    127.7513349    
 (states/Hartree/unit cell)
 
Estimated indirect band gap :   0.7860889279E-04
 from k-point    220 to k-point     47
Estimated direct band gap   :   0.6445895901E-03
 at k-point    248
 
Charges :
 core                        :    20.00000000    
 valence                     :    22.00000000    
 interstitial                :    3.956615228    
 muffin-tins (core leakage)
  species :    1 (Sc)
   atom    1                 :    19.02169239     (  0.6495522342E-08)
   atom    2                 :    19.02169239     (  0.6495522342E-08)
 total in muffin-tins        :    38.04338477    
 total calculated charge     :    41.99999973    
 total charge                :    42.00000000    
 error                       :   0.2748808470E-06
 
Wrote STATE.OUT
 
RMS change in Kohn-Sham potential (target) :   0.7516309828E-04 (   10.00000000    )
Absolute change in total energy (target)   :   0.7918360325E-05 (  0.1000000000E-07)
 
Time (CPU seconds) :      1443.96
 
+--------------------+
| Loop number :   17 |
+--------------------+
 
Energies :
 Fermi                       :     0.218758719722    
 sum of eigenvalues          :     -895.761529717    
 electron kinetic            :      1546.02432251    
 core electron kinetic       :      1433.78178130    
 Coulomb                     :     -2996.23736789    
 Coulomb potential           :     -2337.70764911    
 nuclear-nuclear             :     -193.787988890    
 electron-nuclear            :     -3267.19110888    
 Hartree                     :      464.741729888    
 Madelung                    :     -1827.38354333    
 xc potential                :     -104.078203122    
 exchange                    :     -77.1738504198    
 correlation                 :     -1.76875800007    
 total energy                :     -1529.15565379    
 
Density of states at Fermi energy :    127.7513928    
 (states/Hartree/unit cell)
 
Estimated indirect band gap :   0.7866559166E-04
 from k-point    220 to k-point     47
Estimated direct band gap   :   0.6445813495E-03
 at k-point    248
 
Charges :
 core                        :    20.00000000    
 valence                     :    22.00000000    
 interstitial                :    3.956615049    
 muffin-tins (core leakage)
  species :    1 (Sc)
   atom    1                 :    19.02169248     (  0.6546226672E-08)
   atom    2                 :    19.02169248     (  0.6546226672E-08)
 total in muffin-tins        :    38.04338495    
 total calculated charge     :    41.99999973    
 total charge                :    42.00000000    
 error                       :   0.2749473964E-06
 
RMS change in Kohn-Sham potential (target) :   0.5109538822E-04 (   10.00000000    )
Absolute change in total energy (target)   :   0.1988988060E-05 (  0.1000000000E-07)
 
Time (CPU seconds) :      1535.15
 
+--------------------+
| Loop number :   18 |
+--------------------+
 
Energies :
 Fermi                       :     0.218758762610    
 sum of eigenvalues          :     -895.761528430    
 electron kinetic            :      1546.02432329    
 core electron kinetic       :      1433.78178644    
 Coulomb                     :     -2996.23736764    
 Coulomb potential           :     -2337.70764863    
 nuclear-nuclear             :     -193.787988890    
 electron-nuclear            :     -3267.19110888    
 Hartree                     :      464.741730129    
 Madelung                    :     -1827.38354333    
 xc potential                :     -104.078203094    
 exchange                    :     -77.1738504015    
 correlation                 :     -1.76875799791    
 total energy                :     -1529.15565275    
 
Density of states at Fermi energy :    127.7513990    
 (states/Hartree/unit cell)
 
Estimated indirect band gap :   0.7867601235E-04
 from k-point    220 to k-point     47
Estimated direct band gap   :   0.6445766336E-03
 at k-point    248
 
Charges :
 core                        :    20.00000000    
 valence                     :    22.00000000    
 interstitial                :    3.956614938    
 muffin-tins (core leakage)
  species :    1 (Sc)
   atom    1                 :    19.02169253     (  0.6875982450E-08)
   atom    2                 :    19.02169253     (  0.6875982450E-08)
 total in muffin-tins        :    38.04338506    
 total calculated charge     :    41.99999972    
 total charge                :    42.00000000    
 error                       :   0.2756713968E-06
 
Wrote STATE.OUT
 
RMS change in Kohn-Sham potential (target) :   0.5088193462E-04 (   10.00000000    )
Absolute change in total energy (target)   :   0.1535797992E-05 (  0.1000000000E-07)
 
Time (CPU seconds) :      1623.74
 
+--------------------+
| Loop number :   19 |
+--------------------+
 
Energies :
 Fermi                       :     0.218758833221    
 sum of eigenvalues          :     -895.761530543    
 electron kinetic            :      1546.02432459    
 core electron kinetic       :      1433.78178800    
 Coulomb                     :     -2996.23737309    
 Coulomb potential           :     -2337.70765175    
 nuclear-nuclear             :     -193.787988890    
 electron-nuclear            :     -3267.19111665    
 Hartree                     :      464.741732450    
 Madelung                    :     -1827.38354722    
 xc potential                :     -104.078203380    
 exchange                    :     -77.1738506135    
 correlation                 :     -1.76875800393    
 total energy                :     -1529.15565712    
 
Density of states at Fermi energy :    127.7513673    
 (states/Hartree/unit cell)
 
Estimated indirect band gap :   0.7862576418E-04
 from k-point    220 to k-point     47
Estimated direct band gap   :   0.6445882932E-03
 at k-point    248
 
Charges :
 core                        :    20.00000000    
 valence                     :    22.00000000    
 interstitial                :    3.956615099    
 muffin-tins (core leakage)
  species :    1 (Sc)
   atom    1                 :    19.02169245     (  0.6535637809E-08)
   atom    2                 :    19.02169245     (  0.6535637809E-08)
 total in muffin-tins        :    38.04338490    
 total calculated charge     :    41.99999972    
 total charge                :    42.00000000    
 error                       :   0.2750336208E-06
 
RMS change in Kohn-Sham potential (target) :   0.1622712878E-04 (   10.00000000    )
Absolute change in total energy (target)   :   0.3981216878E-05 (  0.1000000000E-07)
 
Time (CPU seconds) :      1711.80
 
+--------------------+
| Loop number :   20 |
+--------------------+
 
Energies :
 Fermi                       :     0.218758926777    
 sum of eigenvalues          :     -895.761530843    
 electron kinetic            :      1546.02432636    
 core electron kinetic       :      1433.78178802    
 Coulomb                     :     -2996.23737686    
 Coulomb potential           :     -2337.70765364    
 nuclear-nuclear             :     -193.787988890    
 electron-nuclear            :     -3267.19112230    
 Hartree                     :      464.741734329    
 Madelung                    :     -1827.38355004    
 xc potential                :     -104.078203564    
 exchange                    :     -77.1738507539    
 correlation                 :     -1.76875800611    
 total energy                :     -1529.15565926    
 
Density of states at Fermi energy :    127.7513479    
 (states/Hartree/unit cell)
 
Estimated indirect band gap :   0.7859990282E-04
 from k-point    220 to k-point     47
Estimated direct band gap   :   0.6445923544E-03
 at k-point    248
 
Charges :
 core                        :    20.00000000    
 valence                     :    22.00000000    
 interstitial                :    3.956615133    
 muffin-tins (core leakage)
  species :    1 (Sc)
   atom    1                 :    19.02169243     (  0.6513362294E-08)
   atom    2                 :    19.02169243     (  0.6513362294E-08)
 total in muffin-tins        :    38.04338487    
 total calculated charge     :    41.99999973    
 total charge                :    42.00000000    
 error                       :   0.2749650534E-06
 
Wrote STATE.OUT
 
RMS change in Kohn-Sham potential (target) :   0.1376205073E-03 (   10.00000000    )
Absolute change in total energy (target)   :   0.3132963229E-05 (  0.1000000000E-07)
 
Time (CPU seconds) :      1801.14
 
+--------------------+
| Loop number :   21 |
+--------------------+
 
Energies :
 Fermi                       :     0.218758919185    
 sum of eigenvalues          :     -895.761530093    
 electron kinetic            :      1546.02432621    
 core electron kinetic       :      1433.78178958    
 Coulomb                     :     -2996.23737538    
 Coulomb potential           :     -2337.70765280    
 nuclear-nuclear             :     -193.787988890    
 electron-nuclear            :     -3267.19112018    
 Hartree                     :      464.741733691    
 Madelung                    :     -1827.38354898    
 xc potential                :     -104.078203502    
 exchange                    :     -77.1738507149    
 correlation                 :     -1.76875800170    
 total energy                :     -1529.15565789    
 
Density of states at Fermi energy :    127.7513326    
 (states/Hartree/unit cell)
 
Estimated indirect band gap :   0.7861148433E-04
 from k-point    220 to k-point     47
Estimated direct band gap   :   0.6445850015E-03
 at k-point    248
 
Charges :
 core                        :    20.00000000    
 valence                     :    22.00000000    
 interstitial                :    3.956615073    
 muffin-tins (core leakage)
  species :    1 (Sc)
   atom    1                 :    19.02169246     (  0.6481212012E-08)
   atom    2                 :    19.02169246     (  0.6481212012E-08)
 total in muffin-tins        :    38.04338493    
 total calculated charge     :    41.99999972    
 total charge                :    42.00000000    
 error                       :   0.2750050498E-06
 
RMS change in Kohn-Sham potential (target) :   0.2112903215E-04 (   10.00000000    )
Absolute change in total energy (target)   :   0.5858862551E-06 (  0.1000000000E-07)
 
Time (CPU seconds) :      1889.20
 
+--------------------+
| Loop number :   22 |
+--------------------+
 
Energies :
 Fermi                       :     0.218759004742    
 sum of eigenvalues          :     -895.761529341    
 electron kinetic            :      1546.02432818    
 core electron kinetic       :      1433.78179041    
 Coulomb                     :     -2996.23737770    
 Coulomb potential           :     -2337.70765391    
 nuclear-nuclear             :     -193.787988890    
 electron-nuclear            :     -3267.19112371    
 Hartree                     :      464.741734901    
 Madelung                    :     -1827.38355075    
 xc potential                :     -104.078203613    
 exchange                    :     -77.1738508034    
 correlation                 :     -1.76875800240    
 total energy                :     -1529.15565832    
 
Density of states at Fermi energy :    127.7513240    
 (states/Hartree/unit cell)
 
Estimated indirect band gap :   0.7859388248E-04
 from k-point    220 to k-point     47
Estimated direct band gap   :   0.6445885810E-03
 at k-point    248
 
Charges :
 core                        :    20.00000000    
 valence                     :    22.00000000    
 interstitial                :    3.956615074    
 muffin-tins (core leakage)
  species :    1 (Sc)
   atom    1                 :    19.02169246     (  0.6539819353E-08)
   atom    2                 :    19.02169246     (  0.6539819353E-08)
 total in muffin-tins        :    38.04338493    
 total calculated charge     :    41.99999973    
 total charge                :    42.00000000    
 error                       :   0.2749954362E-06
 
Wrote STATE.OUT
 
RMS change in Kohn-Sham potential (target) :   0.1026433240E-04 (   10.00000000    )
Absolute change in total energy (target)   :   0.2899259925E-06 (  0.1000000000E-07)
 
Time (CPU seconds) :      1975.44
 
+--------------------+
| Loop number :   23 |
+--------------------+
 
Energies :
 Fermi                       :     0.218759030162    
 sum of eigenvalues          :     -895.761528455    
 electron kinetic            :      1546.02432878    
 core electron kinetic       :      1433.78179110    
 Coulomb                     :     -2996.23737757    
 Coulomb potential           :     -2337.70765364    
 nuclear-nuclear             :     -193.787988890    
 electron-nuclear            :     -3267.19112371    
 Hartree                     :      464.741735036    
 Madelung                    :     -1827.38355075    
 xc potential                :     -104.078203595    
 exchange                    :     -77.1738507880    
 correlation                 :     -1.76875800213    
 total energy                :     -1529.15565758    
 
Density of states at Fermi energy :    127.7513343    
 (states/Hartree/unit cell)
 
Estimated indirect band gap :   0.7860065505E-04
 from k-point    220 to k-point     47
Estimated direct band gap   :   0.6445878437E-03
 at k-point    248
 
Charges :
 core                        :    20.00000000    
 valence                     :    22.00000000    
 interstitial                :    3.956615027    
 muffin-tins (core leakage)
  species :    1 (Sc)
   atom    1                 :    19.02169249     (  0.6511278627E-08)
   atom    2                 :    19.02169249     (  0.6511278627E-08)
 total in muffin-tins        :    38.04338497    
 total calculated charge     :    41.99999972    
 total charge                :    42.00000000    
 error                       :   0.2750058883E-06
 
RMS change in Kohn-Sham potential (target) :   0.7295279373E-04 (   10.00000000    )
Absolute change in total energy (target)   :   0.6752734407E-06 (  0.1000000000E-07)
 
Time (CPU seconds) :      2065.70
 
+--------------------+
| Loop number :   24 |
+--------------------+
 
Energies :
 Fermi                       :     0.218759066690    
 sum of eigenvalues          :     -895.761527511    
 electron kinetic            :      1546.02432976    
 core electron kinetic       :      1433.78179189    
 Coulomb                     :     -2996.23737758    
 Coulomb potential           :     -2337.70765367    
 nuclear-nuclear             :     -193.787988890    
 electron-nuclear            :     -3267.19112371    
 Hartree                     :      464.741735023    
 Madelung                    :     -1827.38355075    
 xc potential                :     -104.078203605    
 exchange                    :     -77.1738507979    
 correlation                 :     -1.76875800180    
 total energy                :     -1529.15565662    
 
Density of states at Fermi energy :    127.7513357    
 (states/Hartree/unit cell)
 
Estimated indirect band gap :   0.7860001971E-04
 from k-point    220 to k-point     47
Estimated direct band gap   :   0.6445883492E-03
 at k-point    248
 
Charges :
 core                        :    20.00000000    
 valence                     :    22.00000000    
 interstitial                :    3.956615006    
 muffin-tins (core leakage)
  species :    1 (Sc)
   atom    1                 :    19.02169250     (  0.6479048409E-08)
   atom    2                 :    19.02169250     (  0.6479048409E-08)
 total in muffin-tins        :    38.04338499    
 total calculated charge     :    41.99999973    
 total charge                :    42.00000000    
 error                       :   0.2748933454E-06
 
Wrote STATE.OUT
 
RMS change in Kohn-Sham potential (target) :   0.2213716197E-03 (   10.00000000    )
Absolute change in total energy (target)   :   0.1126809593E-05 (  0.1000000000E-07)
 
Time (CPU seconds) :      2153.64
 
+--------------------+
| Loop number :   25 |
+--------------------+
 
Energies :
 Fermi                       :     0.218759022627    
 sum of eigenvalues          :     -895.761528515    
 electron kinetic            :      1546.02432868    
 core electron kinetic       :      1433.78179112    
 Coulomb                     :     -2996.23737755    
 Coulomb potential           :     -2337.70765361    
 nuclear-nuclear             :     -193.787988890    
 electron-nuclear            :     -3267.19112371    
 Hartree                     :      464.741735051    
 Madelung                    :     -1827.38355075    
 xc potential                :     -104.078203582    
 exchange                    :     -77.1738507772    
 correlation                 :     -1.76875800273    
 total energy                :     -1529.15565765    
 
Density of states at Fermi energy :    127.7513429    
 (states/Hartree/unit cell)
 
Estimated indirect band gap :   0.7860401945E-04
 from k-point    220 to k-point     47
Estimated direct band gap   :   0.6445886941E-03
 at k-point    248
 
Charges :
 core                        :    20.00000000    
 valence                     :    22.00000000    
 interstitial                :    3.956615034    
 muffin-tins (core leakage)
  species :    1 (Sc)
   atom    1                 :    19.02169248     (  0.6472610892E-08)
   atom    2                 :    19.02169248     (  0.6472610892E-08)
 total in muffin-tins        :    38.04338497    
 total calculated charge     :    41.99999973    
 total charge                :    42.00000000    
 error                       :   0.2749078831E-06
 
RMS change in Kohn-Sham potential (target) :   0.1927892945E-04 (   10.00000000    )
Absolute change in total energy (target)   :   0.7535757049E-06 (  0.1000000000E-07)
 
Time (CPU seconds) :      2240.86
 
+--------------------+
| Loop number :   26 |
+--------------------+
 
Energies :
 Fermi                       :     0.218759057250    
 sum of eigenvalues          :     -895.761527744    
 electron kinetic            :      1546.02432949    
 core electron kinetic       :      1433.78179158    
 Coulomb                     :     -2996.23737792    
 Coulomb potential           :     -2337.70765364    
 nuclear-nuclear             :     -193.787988890    
 electron-nuclear            :     -3267.19112442    
 Hartree                     :      464.741735392    
 Madelung                    :     -1827.38355110    
 xc potential                :     -104.078203599    
 exchange                    :     -77.1738507887    
 correlation                 :     -1.76875800324    
 total energy                :     -1529.15565722    
 
Density of states at Fermi energy :    127.7513431    
 (states/Hartree/unit cell)
 
Estimated indirect band gap :   0.7860162519E-04
 from k-point    220 to k-point     47
Estimated direct band gap   :   0.6445893296E-03
 at k-point    248
 
Charges :
 core                        :    20.00000000    
 valence                     :    22.00000000    
 interstitial                :    3.956615019    
 muffin-tins (core leakage)
  species :    1 (Sc)
   atom    1                 :    19.02169249     (  0.6480288306E-08)
   atom    2                 :    19.02169249     (  0.6480288306E-08)
 total in muffin-tins        :    38.04338498    
 total calculated charge     :    41.99999973    
 total charge                :    42.00000000    
 error                       :   0.2748511889E-06
 
Wrote STATE.OUT
 
RMS change in Kohn-Sham potential (target) :   0.1475306990E-04 (   10.00000000    )
Absolute change in total energy (target)   :   0.2468082130E-06 (  0.1000000000E-07)
 
Time (CPU seconds) :      2329.19
 
+--------------------+
| Loop number :   27 |
+--------------------+
 
Energies :
 Fermi                       :     0.218759080414    
 sum of eigenvalues          :     -895.761527210    
 electron kinetic            :      1546.02433019    
 core electron kinetic       :      1433.78179193    
 Coulomb                     :     -2996.23737835    
 Coulomb potential           :     -2337.70765379    
 nuclear-nuclear             :     -193.787988890    
 electron-nuclear            :     -3267.19112513    
 Hartree                     :      464.741735669    
 Madelung                    :     -1827.38355145    
 xc potential                :     -104.078203613    
 exchange                    :     -77.1738508025    
 correlation                 :     -1.76875800271    
 total energy                :     -1529.15565696    
 
Density of states at Fermi energy :    127.7513435    
 (states/Hartree/unit cell)
 
Estimated indirect band gap :   0.7859975209E-04
 from k-point    220 to k-point     47
Estimated direct band gap   :   0.6445900134E-03
 at k-point    248
 
Charges :
 core                        :    20.00000000    
 valence                     :    22.00000000    
 interstitial                :    3.956615012    
 muffin-tins (core leakage)
  species :    1 (Sc)
   atom    1                 :    19.02169249     (  0.6462398616E-08)
   atom    2                 :    19.02169249     (  0.6462398616E-08)
 total in muffin-tins        :    38.04338499    
 total calculated charge     :    41.99999973    
 total charge                :    42.00000000    
 error                       :   0.2748689027E-06
 
RMS change in Kohn-Sham potential (target) :   0.1013215521E-03 (   10.00000000    )
Absolute change in total energy (target)   :   0.3192224085E-06 (  0.1000000000E-07)
 
Time (CPU seconds) :      2419.61
 
+--------------------+
| Loop number :   28 |
+--------------------+
 
Energies :
 Fermi                       :     0.218759098399    
 sum of eigenvalues          :     -895.761526717    
 electron kinetic            :      1546.02433063    
 core electron kinetic       :      1433.78179206    
 Coulomb                     :     -2996.23737832    
 Coulomb potential           :     -2337.70765373    
 nuclear-nuclear             :     -193.787988890    
 electron-nuclear            :     -3267.19112513    
 Hartree                     :      464.741735698    
 Madelung                    :     -1827.38355145    
 xc potential                :     -104.078203617    
 exchange                    :     -77.1738508040    
 correlation                 :     -1.76875800307    
 total energy                :     -1529.15565650    
 
Density of states at Fermi energy :    127.7513426    
 (states/Hartree/unit cell)
 
Estimated indirect band gap :   0.7859834631E-04
 from k-point    220 to k-point     47
Estimated direct band gap   :   0.6445904675E-03
 at k-point    248
 
Charges :
 core                        :    20.00000000    
 valence                     :    22.00000000    
 interstitial                :    3.956615008    
 muffin-tins (core leakage)
  species :    1 (Sc)
   atom    1                 :    19.02169250     (  0.6526411411E-08)
   atom    2                 :    19.02169250     (  0.6526411411E-08)
 total in muffin-tins        :    38.04338499    
 total calculated charge     :    41.99999972    
 total charge                :    42.00000000    
 error                       :   0.2750892847E-06
 
Wrote STATE.OUT
 
RMS change in Kohn-Sham potential (target) :   0.1850044499E-03 (   10.00000000    )
Absolute change in total energy (target)   :   0.5458023224E-06 (  0.1000000000E-07)
 
Time (CPU seconds) :      2506.15
 
+--------------------+
| Loop number :   29 |
+--------------------+
 
Energies :
 Fermi                       :     0.218759093993    
 sum of eigenvalues          :     -895.761526774    
 electron kinetic            :      1546.02433060    
 core electron kinetic       :      1433.78179193    
 Coulomb                     :     -2996.23737833    
 Coulomb potential           :     -2337.70765376    
 nuclear-nuclear             :     -193.787988890    
 electron-nuclear            :     -3267.19112513    
 Hartree                     :      464.741735685    
 Madelung                    :     -1827.38355145    
 xc potential                :     -104.078203616    
 exchange                    :     -77.1738508033    
 correlation                 :     -1.76875800299    
 total energy                :     -1529.15565654    
 
Density of states at Fermi energy :    127.7513446    
 (states/Hartree/unit cell)
 
Estimated indirect band gap :   0.7859919557E-04
 from k-point    220 to k-point     47
Estimated direct band gap   :   0.6445906304E-03
 at k-point    248
 
Charges :
 core                        :    20.00000000    
 valence                     :    22.00000000    
 interstitial                :    3.956615010    
 muffin-tins (core leakage)
  species :    1 (Sc)
   atom    1                 :    19.02169249     (  0.6464702551E-08)
   atom    2                 :    19.02169249     (  0.6464702551E-08)
 total in muffin-tins        :    38.04338499    
 total calculated charge     :    41.99999973    
 total charge                :    42.00000000    
 error                       :   0.2748569656E-06
 
RMS change in Kohn-Sham potential (target) :   0.4235510635E-04 (   10.00000000    )
Absolute change in total energy (target)   :   0.9182804206E-07 (  0.1000000000E-07)
 
Time (CPU seconds) :      2592.24
 
+--------------------+
| Loop number :   30 |
+--------------------+
 
Energies :
 Fermi                       :     0.218759118553    
 sum of eigenvalues          :     -895.761526107    
 electron kinetic            :      1546.02433123    
 core electron kinetic       :      1433.78179223    
 Coulomb                     :     -2996.23737831    
 Coulomb potential           :     -2337.70765371    
 nuclear-nuclear             :     -193.787988890    
 electron-nuclear            :     -3267.19112513    
 Hartree                     :      464.741735706    
 Madelung                    :     -1827.38355145    
 xc potential                :     -104.078203619    
 exchange                    :     -77.1738508059    
 correlation                 :     -1.76875800313    
 total energy                :     -1529.15565589    
 
Density of states at Fermi energy :    127.7513452    
 (states/Hartree/unit cell)
 
Estimated indirect band gap :   0.7859842902E-04
 from k-point    220 to k-point     47
Estimated direct band gap   :   0.6445910836E-03
 at k-point    248
 
Charges :
 core                        :    20.00000000    
 valence                     :    22.00000000    
 interstitial                :    3.956615000    
 muffin-tins (core leakage)
  species :    1 (Sc)
   atom    1                 :    19.02169250     (  0.6525025853E-08)
   atom    2                 :    19.02169250     (  0.6525025853E-08)
 total in muffin-tins        :    38.04338500    
 total calculated charge     :    41.99999972    
 total charge                :    42.00000000    
 error                       :   0.2750084533E-06
 
Wrote STATE.OUT
 
RMS change in Kohn-Sham potential (target) :   0.5025316221E-04 (   10.00000000    )
Absolute change in total energy (target)   :   0.6698242032E-06 (  0.1000000000E-07)
 
Time (CPU seconds) :      2678.53
 
+--------------------+
| Loop number :   31 |
+--------------------+
 
Energies :
 Fermi                       :     0.218759120388    
 sum of eigenvalues          :     -895.761526014    
 electron kinetic            :      1546.02433133    
 core electron kinetic       :      1433.78179233    
 Coulomb                     :     -2996.23737832    
 Coulomb potential           :     -2337.70765373    
 nuclear-nuclear             :     -193.787988890    
 electron-nuclear            :     -3267.19112513    
 Hartree                     :      464.741735700    
 Madelung                    :     -1827.38355145    
 xc potential                :     -104.078203619    
 exchange                    :     -77.1738508069    
 correlation                 :     -1.76875800283    
 total energy                :     -1529.15565580    
 
Density of states at Fermi energy :    127.7513453    
 (states/Hartree/unit cell)
 
Estimated indirect band gap :   0.7859873325E-04
 from k-point    220 to k-point     47
Estimated direct band gap   :   0.6445910919E-03
 at k-point    248
 
Charges :
 core                        :    20.00000000    
 valence                     :    22.00000000    
 interstitial                :    3.956614999    
 muffin-tins (core leakage)
  species :    1 (Sc)
   atom    1                 :    19.02169250     (  0.6508823702E-08)
   atom    2                 :    19.02169250     (  0.6508823702E-08)
 total in muffin-tins        :    38.04338500    
 total calculated charge     :    41.99999973    
 total charge                :    42.00000000    
 error                       :   0.2749310539E-06
 
RMS change in Kohn-Sham potential (target) :   0.7284799251E-04 (   10.00000000    )
Absolute change in total energy (target)   :   0.2653794127E-06 (  0.1000000000E-07)
 
Time (CPU seconds) :      2765.15
 
+--------------------+
| Loop number :   32 |
+--------------------+
 
Energies :
 Fermi                       :     0.218759110365    
 sum of eigenvalues          :     -895.761526259    
 electron kinetic            :      1546.02433107    
 core electron kinetic       :      1433.78179218    
 Coulomb                     :     -2996.23737831    
 Coulomb potential           :     -2337.70765371    
 nuclear-nuclear             :     -193.787988890    
 electron-nuclear            :     -3267.19112513    
 Hartree                     :      464.741735708    
 Madelung                    :     -1827.38355145    
 xc potential                :     -104.078203615    
 exchange                    :     -77.1738508041    
 correlation                 :     -1.76875800283    
 total energy                :     -1529.15565605    
 
Density of states at Fermi energy :    127.7513446    
 (states/Hartree/unit cell)
 
Estimated indirect band gap :   0.7859932538E-04
 from k-point    220 to k-point     47
Estimated direct band gap   :   0.6445908075E-03
 at k-point    248
 
Charges :
 core                        :    20.00000000    
 valence                     :    22.00000000    
 interstitial                :    3.956615002    
 muffin-tins (core leakage)
  species :    1 (Sc)
   atom    1                 :    19.02169250     (  0.6512930639E-08)
   atom    2                 :    19.02169250     (  0.6512930639E-08)
 total in muffin-tins        :    38.04338500    
 total calculated charge     :    41.99999973    
 total charge                :    42.00000000    
 error                       :   0.2749584596E-06
 
Wrote STATE.OUT
 
RMS change in Kohn-Sham potential (target) :   0.1694366091E-03 (   10.00000000    )
Absolute change in total energy (target)   :   0.1868427262E-06 (  0.1000000000E-07)
 
Time (CPU seconds) :      2853.13
 
+--------------------+
| Loop number :   33 |
+--------------------+
 
Energies :
 Fermi                       :     0.218759107643    
 sum of eigenvalues          :     -895.761526307    
 electron kinetic            :      1546.02433101    
 core electron kinetic       :      1433.78179211    
 Coulomb                     :     -2996.23737831    
 Coulomb potential           :     -2337.70765371    
 nuclear-nuclear             :     -193.787988890    
 electron-nuclear            :     -3267.19112513    
 Hartree                     :      464.741735710    
 Madelung                    :     -1827.38355145    
 xc potential                :     -104.078203614    
 exchange                    :     -77.1738508027    
 correlation                 :     -1.76875800286    
 total energy                :     -1529.15565610    
 
Density of states at Fermi energy :    127.7513449    
 (states/Hartree/unit cell)
 
Estimated indirect band gap :   0.7859964832E-04
 from k-point    220 to k-point     47
Estimated direct band gap   :   0.6445907814E-03
 at k-point    248
 
Charges :
 core                        :    20.00000000    
 valence                     :    22.00000000    
 interstitial                :    3.956615004    
 muffin-tins (core leakage)
  species :    1 (Sc)
   atom    1                 :    19.02169250     (  0.6491672977E-08)
   atom    2                 :    19.02169250     (  0.6491672977E-08)
 total in muffin-tins        :    38.04338500    
 total calculated charge     :    41.99999973    
 total charge                :    42.00000000    
 error                       :   0.2749951875E-06
 
RMS change in Kohn-Sham potential (target) :   0.6492964906E-04 (   10.00000000    )
Absolute change in total energy (target)   :   0.9769109965E-07 (  0.1000000000E-07)
 
Time (CPU seconds) :      2940.27
 
+--------------------+
| Loop number :   34 |
+--------------------+
 
Energies :
 Fermi                       :     0.218759112453    
 sum of eigenvalues          :     -895.761526166    
 electron kinetic            :      1546.02433112    
 core electron kinetic       :      1433.78179215    
 Coulomb                     :     -2996.23737829    
 Coulomb potential           :     -2337.70765367    
 nuclear-nuclear             :     -193.787988890    
 electron-nuclear            :     -3267.19112513    
 Hartree                     :      464.741735728    
 Madelung                    :     -1827.38355145    
 xc potential                :     -104.078203614    
 exchange                    :     -77.1738508018    
 correlation                 :     -1.76875800301    
 total energy                :     -1529.15565597    
 
Density of states at Fermi energy :    127.7513449    
 (states/Hartree/unit cell)
 
Estimated indirect band gap :   0.7859956113E-04
 from k-point    220 to k-point     47
Estimated direct band gap   :   0.6445908667E-03
 at k-point    248
 
Charges :
 core                        :    20.00000000    
 valence                     :    22.00000000    
 interstitial                :    3.956615002    
 muffin-tins (core leakage)
  species :    1 (Sc)
   atom    1                 :    19.02169250     (  0.6488820148E-08)
   atom    2                 :    19.02169250     (  0.6488820148E-08)
 total in muffin-tins        :    38.04338500    
 total calculated charge     :    41.99999973    
 total charge                :    42.00000000    
 error                       :   0.2749408097E-06
 
Wrote STATE.OUT
 
RMS change in Kohn-Sham potential (target) :   0.3818224188E-04 (   10.00000000    )
Absolute change in total energy (target)   :   0.1002351837E-06 (  0.1000000000E-07)
 
Time (CPU seconds) :      3030.56
 
+--------------------+
| Loop number :   35 |
+--------------------+
 
Energies :
 Fermi                       :     0.218759111116    
 sum of eigenvalues          :     -895.761526206    
 electron kinetic            :      1546.02433108    
 core electron kinetic       :      1433.78179217    
 Coulomb                     :     -2996.23737829    
 Coulomb potential           :     -2337.70765367    
 nuclear-nuclear             :     -193.787988890    
 electron-nuclear            :     -3267.19112513    
 Hartree                     :      464.741735729    
 Madelung                    :     -1827.38355145    
 xc potential                :     -104.078203614    
 exchange                    :     -77.1738508020    
 correlation                 :     -1.76875800312    
 total energy                :     -1529.15565602    
 
Density of states at Fermi energy :    127.7513447    
 (states/Hartree/unit cell)
 
Estimated indirect band gap :   0.7859957488E-04
 from k-point    220 to k-point     47
Estimated direct band gap   :   0.6445908248E-03
 at k-point    248
 
Charges :
 core                        :    20.00000000    
 valence                     :    22.00000000    
 interstitial                :    3.956615002    
 muffin-tins (core leakage)
  species :    1 (Sc)
   atom    1                 :    19.02169250     (  0.6453850787E-08)
   atom    2                 :    19.02169250     (  0.6453850787E-08)
 total in muffin-tins        :    38.04338500    
 total calculated charge     :    41.99999973    
 total charge                :    42.00000000    
 error                       :   0.2749244459E-06
 
RMS change in Kohn-Sham potential (target) :   0.1040521812E-03 (   10.00000000    )
Absolute change in total energy (target)   :   0.1642047209E-07 (  0.1000000000E-07)
 
Time (CPU seconds) :      3118.18
 
+--------------------+
| Loop number :   36 |
+--------------------+
 
Energies :
 Fermi                       :     0.218759108085    
 sum of eigenvalues          :     -895.761526301    
 electron kinetic            :      1546.02433101    
 core electron kinetic       :      1433.78179213    
 Coulomb                     :     -2996.23737830    
 Coulomb potential           :     -2337.70765369    
 nuclear-nuclear             :     -193.787988890    
 electron-nuclear            :     -3267.19112513    
 Hartree                     :      464.741735716    
 Madelung                    :     -1827.38355145    
 xc potential                :     -104.078203613    
 exchange                    :     -77.1738508020    
 correlation                 :     -1.76875800279    
 total energy                :     -1529.15565610    
 
Density of states at Fermi energy :    127.7513444    
 (states/Hartree/unit cell)
 
Estimated indirect band gap :   0.7859954952E-04
 from k-point    220 to k-point     47
Estimated direct band gap   :   0.6445907534E-03
 at k-point    248
 
Charges :
 core                        :    20.00000000    
 valence                     :    22.00000000    
 interstitial                :    3.956615004    
 muffin-tins (core leakage)
  species :    1 (Sc)
   atom    1                 :    19.02169250     (  0.6522588691E-08)
   atom    2                 :    19.02169250     (  0.6522588691E-08)
 total in muffin-tins        :    38.04338500    
 total calculated charge     :    41.99999972    
 total charge                :    42.00000000    
 error                       :   0.2750350987E-06
 
Wrote STATE.OUT
 
RMS change in Kohn-Sham potential (target) :   0.1944145228E-04 (   10.00000000    )
Absolute change in total energy (target)   :   0.8682195585E-07 (  0.1000000000E-07)
 
Time (CPU seconds) :      3207.27
 
+--------------------+
| Loop number :   37 |
+--------------------+
 
Energies :
 Fermi                       :     0.218759107733    
 sum of eigenvalues          :     -895.761526315    
 electron kinetic            :      1546.02433101    
 core electron kinetic       :      1433.78179215    
 Coulomb                     :     -2996.23737831    
 Coulomb potential           :     -2337.70765371    
 nuclear-nuclear             :     -193.787988890    
 electron-nuclear            :     -3267.19112513    
 Hartree                     :      464.741735708    
 Madelung                    :     -1827.38355145    
 xc potential                :     -104.078203615    
 exchange                    :     -77.1738508036    
 correlation                 :     -1.76875800281    
 total energy                :     -1529.15565611    
 
Density of states at Fermi energy :    127.7513444    
 (states/Hartree/unit cell)
 
Estimated indirect band gap :   0.7859955298E-04
 from k-point    220 to k-point     47
Estimated direct band gap   :   0.6445907392E-03
 at k-point    248
 
Charges :
 core                        :    20.00000000    
 valence                     :    22.00000000    
 interstitial                :    3.956615003    
 muffin-tins (core leakage)
  species :    1 (Sc)
   atom    1                 :    19.02169250     (  0.6460657787E-08)
   atom    2                 :    19.02169250     (  0.6460657787E-08)
 total in muffin-tins        :    38.04338500    
 total calculated charge     :    41.99999973    
 total charge                :    42.00000000    
 error                       :   0.2749237780E-06
 
RMS change in Kohn-Sham potential (target) :   0.4300559070E-05 (   10.00000000    )
Absolute change in total energy (target)   :   0.2828573997E-07 (  0.1000000000E-07)
 
Time (CPU seconds) :      3293.47
 
+--------------------+
| Loop number :   38 |
+--------------------+
 
Energies :
 Fermi                       :     0.218759107459    
 sum of eigenvalues          :     -895.761526321    
 electron kinetic            :      1546.02433097    
 core electron kinetic       :      1433.78179212    
 Coulomb                     :     -2996.23737829    
 Coulomb potential           :     -2337.70765368    
 nuclear-nuclear             :     -193.787988890    
 electron-nuclear            :     -3267.19112513    
 Hartree                     :      464.741735724    
 Madelung                    :     -1827.38355145    
 xc potential                :     -104.078203613    
 exchange                    :     -77.1738508015    
 correlation                 :     -1.76875800302    
 total energy                :     -1529.15565613    
 
Density of states at Fermi energy :    127.7513443    
 (states/Hartree/unit cell)
 
Estimated indirect band gap :   0.7859955720E-04
 from k-point    220 to k-point     47
Estimated direct band gap   :   0.6445907330E-03
 at k-point    248
 
Charges :
 core                        :    20.00000000    
 valence                     :    22.00000000    
 interstitial                :    3.956615004    
 muffin-tins (core leakage)
  species :    1 (Sc)
   atom    1                 :    19.02169250     (  0.6475101344E-08)
   atom    2                 :    19.02169250     (  0.6475101344E-08)
 total in muffin-tins        :    38.04338500    
 total calculated charge     :    41.99999973    
 total charge                :    42.00000000    
 error                       :   0.2749915637E-06
 
Wrote STATE.OUT
 
RMS change in Kohn-Sham potential (target) :   0.5500220715E-04 (   10.00000000    )
Absolute change in total energy (target)   :   0.2823890100E-07 (  0.1000000000E-07)
 
Time (CPU seconds) :      3381.46
 
+--------------------+
| Loop number :   39 |
+--------------------+
 
Energies :
 Fermi                       :     0.218759106023    
 sum of eigenvalues          :     -895.761526369    
 electron kinetic            :      1546.02433092    
 core electron kinetic       :      1433.78179209    
 Coulomb                     :     -2996.23737829    
 Coulomb potential           :     -2337.70765367    
 nuclear-nuclear             :     -193.787988890    
 electron-nuclear            :     -3267.19112513    
 Hartree                     :      464.741735726    
 Madelung                    :     -1827.38355145    
 xc potential                :     -104.078203613    
 exchange                    :     -77.1738508012    
 correlation                 :     -1.76875800306    
 total energy                :     -1529.15565618    
 
Density of states at Fermi energy :    127.7513443    
 (states/Hartree/unit cell)
 
Estimated indirect band gap :   0.7859956349E-04
 from k-point    220 to k-point     47
Estimated direct band gap   :   0.6445907043E-03
 at k-point    248
 
Charges :
 core                        :    20.00000000    
 valence                     :    22.00000000    
 interstitial                :    3.956615004    
 muffin-tins (core leakage)
  species :    1 (Sc)
   atom    1                 :    19.02169250     (  0.6488996007E-08)
   atom    2                 :    19.02169250     (  0.6488996007E-08)
 total in muffin-tins        :    38.04338500    
 total calculated charge     :    41.99999972    
 total charge                :    42.00000000    
 error                       :   0.2750131287E-06
 
RMS change in Kohn-Sham potential (target) :   0.1656505427E-04 (   10.00000000    )
Absolute change in total energy (target)   :   0.5663241609E-07 (  0.1000000000E-07)
 
Time (CPU seconds) :      3469.84
 
+--------------------+
| Loop number :   40 |
+--------------------+
 
Energies :
 Fermi                       :     0.218759105963    
 sum of eigenvalues          :     -895.761526373    
 electron kinetic            :      1546.02433092    
 core electron kinetic       :      1433.78179209    
 Coulomb                     :     -2996.23737829    
 Coulomb potential           :     -2337.70765368    
 nuclear-nuclear             :     -193.787988890    
 electron-nuclear            :     -3267.19112513    
 Hartree                     :      464.741735722    
 Madelung                    :     -1827.38355145    
 xc potential                :     -104.078203614    
 exchange                    :     -77.1738508017    
 correlation                 :     -1.76875800304    
 total energy                :     -1529.15565618    
 
Density of states at Fermi energy :    127.7513443    
 (states/Hartree/unit cell)
 
Estimated indirect band gap :   0.7859955963E-04
 from k-point    220 to k-point     47
Estimated direct band gap   :   0.6445907020E-03
 at k-point    248
 
Charges :
 core                        :    20.00000000    
 valence                     :    22.00000000    
 interstitial                :    3.956615004    
 muffin-tins (core leakage)
  species :    1 (Sc)
   atom    1                 :    19.02169250     (  0.6465633362E-08)
   atom    2                 :    19.02169250     (  0.6465633362E-08)
 total in muffin-tins        :    38.04338500    
 total calculated charge     :    41.99999973    
 total charge                :    42.00000000    
 error                       :   0.2749299668E-06
 
Wrote STATE.OUT
 
RMS change in Kohn-Sham potential (target) :   0.1004867860E-03 (   10.00000000    )
Absolute change in total energy (target)   :   0.1426974450E-07 (  0.1000000000E-07)
 
Time (CPU seconds) :      3557.56
 
+--------------------+
| Loop number :   41 |
+--------------------+
 
Energies :
 Fermi                       :     0.218759106448    
 sum of eigenvalues          :     -895.761526355    
 electron kinetic            :      1546.02433096    
 core electron kinetic       :      1433.78179213    
 Coulomb                     :     -2996.23737830    
 Coulomb potential           :     -2337.70765370    
 nuclear-nuclear             :     -193.787988890    
 electron-nuclear            :     -3267.19112513    
 Hartree                     :      464.741735712    
 Madelung                    :     -1827.38355145    
 xc potential                :     -104.078203614    
 exchange                    :     -77.1738508028    
 correlation                 :     -1.76875800290    
 total energy                :     -1529.15565615    
 
Density of states at Fermi energy :    127.7513443    
 (states/Hartree/unit cell)
 
Estimated indirect band gap :   0.7859956441E-04
 from k-point    220 to k-point     47
Estimated direct band gap   :   0.6445907117E-03
 at k-point    248
 
Charges :
 core                        :    20.00000000    
 valence                     :    22.00000000    
 interstitial                :    3.956615004    
 muffin-tins (core leakage)
  species :    1 (Sc)
   atom    1                 :    19.02169250     (  0.6462348878E-08)
   atom    2                 :    19.02169250     (  0.6462348878E-08)
 total in muffin-tins        :    38.04338500    
 total calculated charge     :    41.99999973    
 total charge                :    42.00000000    
 error                       :   0.2748873769E-06
 
RMS change in Kohn-Sham potential (target) :   0.3310107590E-04 (   10.00000000    )
Absolute change in total energy (target)   :   0.2422575562E-07 (  0.1000000000E-07)
 
Time (CPU seconds) :      3647.15
 
+--------------------+
| Loop number :   42 |
+--------------------+
 
Energies :
 Fermi                       :     0.218759106315    
 sum of eigenvalues          :     -895.761526353    
 electron kinetic            :      1546.02433095    
 core electron kinetic       :      1433.78179211    
 Coulomb                     :     -2996.23737830    
 Coulomb potential           :     -2337.70765369    
 nuclear-nuclear             :     -193.787988890    
 electron-nuclear            :     -3267.19112513    
 Hartree                     :      464.741735716    
 Madelung                    :     -1827.38355145    
 xc potential                :     -104.078203612    
 exchange                    :     -77.1738508018    
 correlation                 :     -1.76875800288    
 total energy                :     -1529.15565615    
 
Density of states at Fermi energy :    127.7513442    
 (states/Hartree/unit cell)
 
Estimated indirect band gap :   0.7859956790E-04
 from k-point    220 to k-point     47
Estimated direct band gap   :   0.6445907087E-03
 at k-point    248
 
Charges :
 core                        :    20.00000000    
 valence                     :    22.00000000    
 interstitial                :    3.956615004    
 muffin-tins (core leakage)
  species :    1 (Sc)
   atom    1                 :    19.02169250     (  0.6496410521E-08)
   atom    2                 :    19.02169250     (  0.6496410521E-08)
 total in muffin-tins        :    38.04338500    
 total calculated charge     :    41.99999973    
 total charge                :    42.00000000    
 error                       :   0.2749254122E-06
 
Wrote STATE.OUT
 
RMS change in Kohn-Sham potential (target) :   0.3766779463E-04 (   10.00000000    )
Absolute change in total energy (target)   :   0.3238710633E-08 (  0.1000000000E-07)
 
Convergence targets achieved
 
Time (CPU seconds) :      3735.77
 
+--------------------+
| Loop number :   43 |
+--------------------+
 
Energies :
 Fermi                       :     0.218759106431    
 sum of eigenvalues          :     -895.761526353    
 electron kinetic            :      1546.02433095    
 core electron kinetic       :      1433.78179211    
 Coulomb                     :     -2996.23737830    
 Coulomb potential           :     -2337.70765369    
 nuclear-nuclear             :     -193.787988890    
 electron-nuclear            :     -3267.19112513    
 Hartree                     :      464.741735716    
 Madelung                    :     -1827.38355145    
 xc potential                :     -104.078203613    
 exchange                    :     -77.1738508019    
 correlation                 :     -1.76875800292    
 total energy                :     -1529.15565615    
 
Density of states at Fermi energy :    127.7513442    
 (states/Hartree/unit cell)
 
Estimated indirect band gap :   0.7859956314E-04
 from k-point    220 to k-point     47
Estimated direct band gap   :   0.6445907079E-03
 at k-point    248
 
Charges :
 core                        :    20.00000000    
 valence                     :    22.00000000    
 interstitial                :    3.956615004    
 muffin-tins (core leakage)
  species :    1 (Sc)
   atom    1                 :    19.02169250     (  0.6654891749E-08)
   atom    2                 :    19.02169250     (  0.6654891749E-08)
 total in muffin-tins        :    38.04338500    
 total calculated charge     :    41.99999972    
 total charge                :    42.00000000    
 error                       :   0.2753594401E-06
 
+------------------------------+
| Self-consistent loop stopped |
+------------------------------+
 
Wrote STATE.OUT
 
Timings (CPU seconds) :
 initialisation                        :         1.21
 Hamiltonian and overlap matrix set up :      1353.26
 first-variational eigenvalue equation :      1576.95
 charge density calculation            :       298.77
 potential calculation                 :       594.84
 total                                 :      3825.02
 
+----------------------------+
| Elk version 8.3.15 stopped |
+----------------------------+
