   53.26026483    
   54.86820713    
   59.76662504    
   73.02431242    
   56.86878259    
   36.46563608    
   29.74822805    
   29.07266921    
   29.13965422    
   29.16269462    
   29.19679410    
   29.19788755    
   29.19799558    
   29.19834302    
   29.19815979    
   29.19834157    
   29.19844812    
   29.19837599    
   29.19845127    
   29.19844586    
   29.19842093    
   29.19840159    
   29.19839194    
   29.19839372    
   29.19839867    
   29.19839929    
   29.19839995    
   29.19840008    
   29.19840102    
   29.19840177    
   29.19840297    
   29.19840411    
   29.19840473    
   29.19840500    
   29.19840445    
   29.19840537    
   29.19840386    
