 
Species :    1 (Ti), atom :    1
 APW functions :
  l =  0, energy derivative =  0 :   0.2971573649    
  l =  1, energy derivative =  0 :   0.2971573649    
  l =  2, energy derivative =  0 :   0.2971573649    
  l =  3, energy derivative =  0 :   0.2971573649    
  l =  4, energy derivative =  0 :   0.2971573649    
  l =  5, energy derivative =  0 :   0.2971573649    
  l =  6, energy derivative =  0 :   0.2971573649    
  l =  7, energy derivative =  0 :   0.2971573649    
  l =  8, energy derivative =  0 :   0.2971573649    
  l =  9, energy derivative =  0 :   0.2971573649    
  l = 10, energy derivative =  0 :   0.2971573649    
 local-orbital functions :
  l.o. =  1, l =  0, energy derivative =  0 :   0.2971573649    
  l.o. =  1, l =  0, energy derivative =  1 :   0.2971573649    
  l.o. =  2, l =  1, energy derivative =  0 :   0.2971573649    
  l.o. =  2, l =  1, energy derivative =  1 :   0.2971573649    
  l.o. =  3, l =  2, energy derivative =  0 :   0.2971573649    
  l.o. =  3, l =  2, energy derivative =  1 :   0.2971573649    
  l.o. =  4, l =  0, energy derivative =  0 :   0.2971573649    
  l.o. =  4, l =  0, energy derivative =  0 :   -1.688336379    
  l.o. =  5, l =  1, energy derivative =  0 :   0.2971573649    
  l.o. =  5, l =  1, energy derivative =  0 :  -0.8085048760    
  l.o. =  6, l =  3, energy derivative =  0 :   0.2971573649    
  l.o. =  6, l =  3, energy derivative =  1 :   0.2971573649    
  l.o. =  7, l =  4, energy derivative =  0 :   0.2971573649    
  l.o. =  7, l =  4, energy derivative =  1 :   0.2971573649    
  l.o. =  8, l =  5, energy derivative =  0 :   0.2971573649    
  l.o. =  8, l =  5, energy derivative =  1 :   0.2971573649    
  l.o. =  9, l =  0, energy derivative =  0 :    1.459090693    
  l.o. =  9, l =  0, energy derivative =  1 :    1.459090693    
  l.o. =  9, l =  0, energy derivative =  2 :    1.459090693    
  l.o. = 10, l =  1, energy derivative =  0 :    1.909514566    
  l.o. = 10, l =  1, energy derivative =  1 :    1.909514566    
  l.o. = 10, l =  1, energy derivative =  2 :    1.909514566    
  l.o. = 11, l =  2, energy derivative =  0 :   0.5212116988    
  l.o. = 11, l =  2, energy derivative =  1 :   0.5212116988    
  l.o. = 11, l =  2, energy derivative =  2 :   0.5212116988    
  l.o. = 12, l =  3, energy derivative =  0 :    2.465868465    
  l.o. = 12, l =  3, energy derivative =  1 :    2.465868465    
  l.o. = 12, l =  3, energy derivative =  2 :    2.465868465    
  l.o. = 13, l =  4, energy derivative =  0 :    3.979091483    
  l.o. = 13, l =  4, energy derivative =  1 :    3.979091483    
  l.o. = 13, l =  4, energy derivative =  2 :    3.979091483    
  l.o. = 14, l =  5, energy derivative =  0 :    5.592991511    
  l.o. = 14, l =  5, energy derivative =  1 :    5.592991511    
  l.o. = 14, l =  5, energy derivative =  2 :    5.592991511    
  l.o. = 15, l =  6, energy derivative =  0 :    7.367340274    
  l.o. = 15, l =  6, energy derivative =  1 :    7.367340274    
  l.o. = 15, l =  6, energy derivative =  2 :    7.367340274    
  l.o. = 16, l =  7, energy derivative =  0 :    9.319199319    
  l.o. = 16, l =  7, energy derivative =  1 :    9.319199319    
  l.o. = 16, l =  7, energy derivative =  2 :    9.319199319    
  l.o. = 17, l =  8, energy derivative =  0 :    11.45502534    
  l.o. = 17, l =  8, energy derivative =  1 :    11.45502534    
  l.o. = 17, l =  8, energy derivative =  2 :    11.45502534    
 
Species :    1 (Ti), atom :    2
 APW functions :
  l =  0, energy derivative =  0 :   0.2971573649    
  l =  1, energy derivative =  0 :   0.2971573649    
  l =  2, energy derivative =  0 :   0.2971573649    
  l =  3, energy derivative =  0 :   0.2971573649    
  l =  4, energy derivative =  0 :   0.2971573649    
  l =  5, energy derivative =  0 :   0.2971573649    
  l =  6, energy derivative =  0 :   0.2971573649    
  l =  7, energy derivative =  0 :   0.2971573649    
  l =  8, energy derivative =  0 :   0.2971573649    
  l =  9, energy derivative =  0 :   0.2971573649    
  l = 10, energy derivative =  0 :   0.2971573649    
 local-orbital functions :
  l.o. =  1, l =  0, energy derivative =  0 :   0.2971573649    
  l.o. =  1, l =  0, energy derivative =  1 :   0.2971573649    
  l.o. =  2, l =  1, energy derivative =  0 :   0.2971573649    
  l.o. =  2, l =  1, energy derivative =  1 :   0.2971573649    
  l.o. =  3, l =  2, energy derivative =  0 :   0.2971573649    
  l.o. =  3, l =  2, energy derivative =  1 :   0.2971573649    
  l.o. =  4, l =  0, energy derivative =  0 :   0.2971573649    
  l.o. =  4, l =  0, energy derivative =  0 :   -1.688336379    
  l.o. =  5, l =  1, energy derivative =  0 :   0.2971573649    
  l.o. =  5, l =  1, energy derivative =  0 :  -0.8085048760    
  l.o. =  6, l =  3, energy derivative =  0 :   0.2971573649    
  l.o. =  6, l =  3, energy derivative =  1 :   0.2971573649    
  l.o. =  7, l =  4, energy derivative =  0 :   0.2971573649    
  l.o. =  7, l =  4, energy derivative =  1 :   0.2971573649    
  l.o. =  8, l =  5, energy derivative =  0 :   0.2971573649    
  l.o. =  8, l =  5, energy derivative =  1 :   0.2971573649    
  l.o. =  9, l =  0, energy derivative =  0 :    1.459090693    
  l.o. =  9, l =  0, energy derivative =  1 :    1.459090693    
  l.o. =  9, l =  0, energy derivative =  2 :    1.459090693    
  l.o. = 10, l =  1, energy derivative =  0 :    1.909514566    
  l.o. = 10, l =  1, energy derivative =  1 :    1.909514566    
  l.o. = 10, l =  1, energy derivative =  2 :    1.909514566    
  l.o. = 11, l =  2, energy derivative =  0 :   0.5212116988    
  l.o. = 11, l =  2, energy derivative =  1 :   0.5212116988    
  l.o. = 11, l =  2, energy derivative =  2 :   0.5212116988    
  l.o. = 12, l =  3, energy derivative =  0 :    2.465868465    
  l.o. = 12, l =  3, energy derivative =  1 :    2.465868465    
  l.o. = 12, l =  3, energy derivative =  2 :    2.465868465    
  l.o. = 13, l =  4, energy derivative =  0 :    3.979091483    
  l.o. = 13, l =  4, energy derivative =  1 :    3.979091483    
  l.o. = 13, l =  4, energy derivative =  2 :    3.979091483    
  l.o. = 14, l =  5, energy derivative =  0 :    5.592991511    
  l.o. = 14, l =  5, energy derivative =  1 :    5.592991511    
  l.o. = 14, l =  5, energy derivative =  2 :    5.592991511    
  l.o. = 15, l =  6, energy derivative =  0 :    7.367340274    
  l.o. = 15, l =  6, energy derivative =  1 :    7.367340274    
  l.o. = 15, l =  6, energy derivative =  2 :    7.367340274    
  l.o. = 16, l =  7, energy derivative =  0 :    9.319199319    
  l.o. = 16, l =  7, energy derivative =  1 :    9.319199319    
  l.o. = 16, l =  7, energy derivative =  2 :    9.319199319    
  l.o. = 17, l =  8, energy derivative =  0 :    11.45502534    
  l.o. = 17, l =  8, energy derivative =  1 :    11.45502534    
  l.o. = 17, l =  8, energy derivative =  2 :    11.45502534    
