 
Species :    1 (Tc), atom :    1
 APW functions :
  l =  0, energy derivative =  0 :   0.5257609499    
  l =  1, energy derivative =  0 :   0.5257609499    
  l =  2, energy derivative =  0 :   0.5257609499    
  l =  3, energy derivative =  0 :   0.5257609499    
  l =  4, energy derivative =  0 :   0.5257609499    
  l =  5, energy derivative =  0 :   0.5257609499    
  l =  6, energy derivative =  0 :   0.5257609499    
  l =  7, energy derivative =  0 :   0.5257609499    
  l =  8, energy derivative =  0 :   0.5257609499    
  l =  9, energy derivative =  0 :   0.5257609499    
  l = 10, energy derivative =  0 :   0.5257609499    
 local-orbital functions :
  l.o. =  1, l =  0, energy derivative =  0 :   0.5257609499    
  l.o. =  1, l =  0, energy derivative =  1 :   0.5257609499    
  l.o. =  2, l =  1, energy derivative =  0 :   0.5257609499    
  l.o. =  2, l =  1, energy derivative =  1 :   0.5257609499    
  l.o. =  3, l =  2, energy derivative =  0 :   0.5257609499    
  l.o. =  3, l =  2, energy derivative =  1 :   0.5257609499    
  l.o. =  4, l =  0, energy derivative =  0 :   0.5257609499    
  l.o. =  4, l =  0, energy derivative =  0 :   -1.829875857    
  l.o. =  5, l =  1, energy derivative =  0 :   0.5257609499    
  l.o. =  5, l =  1, energy derivative =  0 :  -0.7960390258    
  l.o. =  6, l =  2, energy derivative =  0 :   0.5257609499    
  l.o. =  6, l =  2, energy derivative =  0 :   0.7037665031    
  l.o. =  7, l =  3, energy derivative =  0 :   0.5257609499    
  l.o. =  7, l =  3, energy derivative =  1 :   0.5257609499    
  l.o. =  8, l =  4, energy derivative =  0 :   0.5257609499    
  l.o. =  8, l =  4, energy derivative =  1 :   0.5257609499    
  l.o. =  9, l =  5, energy derivative =  0 :   0.5257609499    
  l.o. =  9, l =  5, energy derivative =  1 :   0.5257609499    
  l.o. = 10, l =  0, energy derivative =  0 :    1.678550891    
  l.o. = 10, l =  0, energy derivative =  1 :    1.678550891    
  l.o. = 10, l =  0, energy derivative =  2 :    1.678550891    
  l.o. = 11, l =  1, energy derivative =  0 :    2.287674910    
  l.o. = 11, l =  1, energy derivative =  1 :    2.287674910    
  l.o. = 11, l =  1, energy derivative =  2 :    2.287674910    
  l.o. = 12, l =  2, energy derivative =  0 :   0.7037665031    
  l.o. = 12, l =  2, energy derivative =  1 :   0.7037665031    
  l.o. = 12, l =  2, energy derivative =  2 :   0.7037665031    
  l.o. = 13, l =  3, energy derivative =  0 :    2.152957373    
  l.o. = 13, l =  3, energy derivative =  1 :    2.152957373    
  l.o. = 13, l =  3, energy derivative =  2 :    2.152957373    
  l.o. = 14, l =  4, energy derivative =  0 :    3.903499502    
  l.o. = 14, l =  4, energy derivative =  1 :    3.903499502    
  l.o. = 14, l =  4, energy derivative =  2 :    3.903499502    
  l.o. = 15, l =  5, energy derivative =  0 :    5.584202756    
  l.o. = 15, l =  5, energy derivative =  1 :    5.584202756    
  l.o. = 15, l =  5, energy derivative =  2 :    5.584202756    
  l.o. = 16, l =  6, energy derivative =  0 :    7.393018339    
  l.o. = 16, l =  6, energy derivative =  1 :    7.393018339    
  l.o. = 16, l =  6, energy derivative =  2 :    7.393018339    
  l.o. = 17, l =  7, energy derivative =  0 :    9.366775339    
  l.o. = 17, l =  7, energy derivative =  1 :    9.366775339    
  l.o. = 17, l =  7, energy derivative =  2 :    9.366775339    
  l.o. = 18, l =  8, energy derivative =  0 :    11.51805628    
  l.o. = 18, l =  8, energy derivative =  1 :    11.51805628    
  l.o. = 18, l =  8, energy derivative =  2 :    11.51805628    
 
Species :    1 (Tc), atom :    2
 APW functions :
  l =  0, energy derivative =  0 :   0.5257609499    
  l =  1, energy derivative =  0 :   0.5257609499    
  l =  2, energy derivative =  0 :   0.5257609499    
  l =  3, energy derivative =  0 :   0.5257609499    
  l =  4, energy derivative =  0 :   0.5257609499    
  l =  5, energy derivative =  0 :   0.5257609499    
  l =  6, energy derivative =  0 :   0.5257609499    
  l =  7, energy derivative =  0 :   0.5257609499    
  l =  8, energy derivative =  0 :   0.5257609499    
  l =  9, energy derivative =  0 :   0.5257609499    
  l = 10, energy derivative =  0 :   0.5257609499    
 local-orbital functions :
  l.o. =  1, l =  0, energy derivative =  0 :   0.5257609499    
  l.o. =  1, l =  0, energy derivative =  1 :   0.5257609499    
  l.o. =  2, l =  1, energy derivative =  0 :   0.5257609499    
  l.o. =  2, l =  1, energy derivative =  1 :   0.5257609499    
  l.o. =  3, l =  2, energy derivative =  0 :   0.5257609499    
  l.o. =  3, l =  2, energy derivative =  1 :   0.5257609499    
  l.o. =  4, l =  0, energy derivative =  0 :   0.5257609499    
  l.o. =  4, l =  0, energy derivative =  0 :   -1.829875857    
  l.o. =  5, l =  1, energy derivative =  0 :   0.5257609499    
  l.o. =  5, l =  1, energy derivative =  0 :  -0.7960390258    
  l.o. =  6, l =  2, energy derivative =  0 :   0.5257609499    
  l.o. =  6, l =  2, energy derivative =  0 :   0.7037665031    
  l.o. =  7, l =  3, energy derivative =  0 :   0.5257609499    
  l.o. =  7, l =  3, energy derivative =  1 :   0.5257609499    
  l.o. =  8, l =  4, energy derivative =  0 :   0.5257609499    
  l.o. =  8, l =  4, energy derivative =  1 :   0.5257609499    
  l.o. =  9, l =  5, energy derivative =  0 :   0.5257609499    
  l.o. =  9, l =  5, energy derivative =  1 :   0.5257609499    
  l.o. = 10, l =  0, energy derivative =  0 :    1.678550891    
  l.o. = 10, l =  0, energy derivative =  1 :    1.678550891    
  l.o. = 10, l =  0, energy derivative =  2 :    1.678550891    
  l.o. = 11, l =  1, energy derivative =  0 :    2.287674910    
  l.o. = 11, l =  1, energy derivative =  1 :    2.287674910    
  l.o. = 11, l =  1, energy derivative =  2 :    2.287674910    
  l.o. = 12, l =  2, energy derivative =  0 :   0.7037665031    
  l.o. = 12, l =  2, energy derivative =  1 :   0.7037665031    
  l.o. = 12, l =  2, energy derivative =  2 :   0.7037665031    
  l.o. = 13, l =  3, energy derivative =  0 :    2.152957373    
  l.o. = 13, l =  3, energy derivative =  1 :    2.152957373    
  l.o. = 13, l =  3, energy derivative =  2 :    2.152957373    
  l.o. = 14, l =  4, energy derivative =  0 :    3.903499502    
  l.o. = 14, l =  4, energy derivative =  1 :    3.903499502    
  l.o. = 14, l =  4, energy derivative =  2 :    3.903499502    
  l.o. = 15, l =  5, energy derivative =  0 :    5.584202756    
  l.o. = 15, l =  5, energy derivative =  1 :    5.584202756    
  l.o. = 15, l =  5, energy derivative =  2 :    5.584202756    
  l.o. = 16, l =  6, energy derivative =  0 :    7.393018339    
  l.o. = 16, l =  6, energy derivative =  1 :    7.393018339    
  l.o. = 16, l =  6, energy derivative =  2 :    7.393018339    
  l.o. = 17, l =  7, energy derivative =  0 :    9.366775339    
  l.o. = 17, l =  7, energy derivative =  1 :    9.366775339    
  l.o. = 17, l =  7, energy derivative =  2 :    9.366775339    
  l.o. = 18, l =  8, energy derivative =  0 :    11.51805628    
  l.o. = 18, l =  8, energy derivative =  1 :    11.51805628    
  l.o. = 18, l =  8, energy derivative =  2 :    11.51805628    
