    0.223312187170E-03
    0.108788823275E-03
    0.129980528551E-03
    0.357821738361E-03
    0.482711397616E-03
    0.227081451560E-03
    0.101671899726E-03
    0.135492481732E-03
    0.186831983048E-03
    0.159124518795E-03
    0.133833074023E-03
    0.137117020043E-03
    0.140355965038E-03
    0.144154758801E-03
    0.142839677847E-03
    0.145535760961E-03
    0.142176930361E-03
    0.142238897475E-03
    0.142637002193E-03
    0.143058827343E-03
    0.142924652214E-03
    0.142734626926E-03
    0.142838011011E-03
    0.142843537227E-03
    0.142847981459E-03
    0.142859406299E-03
    0.142856097423E-03
    0.142869620183E-03
    0.142875201834E-03
    0.142879066966E-03
    0.142882658061E-03
    0.142881982415E-03
    0.142881836828E-03
    0.142881750708E-03
    0.142881398209E-03
    0.142881308356E-03
    0.142881160430E-03
    0.142880982410E-03
    0.142880979592E-03
    0.142881178678E-03
    0.142880975276E-03
    0.142880963540E-03
    0.142880877992E-03
    0.142880846403E-03
    0.142880866081E-03
