  0.6656646778    
   5.035259326    
   21.91860408    
   16.36084242    
   8.423935899    
   3.847441878    
  0.9288608095    
  0.2095294043    
  0.5740011349E-01
  0.1488893247E-01
  0.4019680528E-02
  0.1279684917E-02
  0.3501278861E-03
  0.1267568232E-03
  0.5468852578E-05
  0.3175603524E-05
  0.3076285157E-04
  0.2075143584E-04
  0.4972130228E-05
  0.1412627171E-07
  0.3665557415E-05
  0.2026911716E-05
  0.2625101843E-06
  0.1232701834E-06
  0.8393108146E-06
  0.2635952114E-06
  0.3804379958E-06
  0.2796359695E-06
  0.2663891792E-06
  0.1777389116E-06
  0.1023863661E-06
  0.4519824870E-07
  0.1327598511E-06
  0.1056832843E-07
  0.8444658306E-07
  0.8021552276E-06
  0.3790964911E-06
  0.7406197255E-07
  0.5092806532E-07
  0.1709722710E-06
  0.3901732271E-09
