 
+----------------------------+
| Real-space lattice vectors |
+----------------------------+
 
vector a1 :    3.593101104       3.593101104       0.000000000    
vector a2 :    3.593101104       0.000000000       3.593101104    
vector a3 :    0.000000000       3.593101104       3.593101104    
 
Stored column-wise as a matrix :
   3.593101104       3.593101104       0.000000000    
   3.593101104       0.000000000       3.593101104    
   0.000000000       3.593101104       3.593101104    
 
Inverse of matrix :
  0.1391555610      0.1391555610     -0.1391555610    
  0.1391555610     -0.1391555610      0.1391555610    
 -0.1391555610      0.1391555610      0.1391555610    
 
Unit cell volume :    92.77656925    
 
 
+----------------------------------+
| Reciprocal-space lattice vectors |
+----------------------------------+
 
vector b1 :   0.8743401765      0.8743401765     -0.8743401765    
vector b2 :   0.8743401765     -0.8743401765      0.8743401765    
vector b3 :  -0.8743401765      0.8743401765      0.8743401765    
 
Stored column-wise as a matrix :
  0.8743401765      0.8743401765     -0.8743401765    
  0.8743401765     -0.8743401765      0.8743401765    
 -0.8743401765      0.8743401765      0.8743401765    
 
Inverse of matrix :
  0.5718598017      0.5718598017       0.000000000    
  0.5718598017       0.000000000      0.5718598017    
   0.000000000      0.5718598017      0.5718598017    
 
Brillouin zone volume :    2.673629942    
