  0.1140257857E-02
  0.5651218898E-03
  0.1012876263E-01
  0.2196157398E-01
  0.2127600756E-01
  0.1034545816E-01
  0.3507469170E-02
  0.3599443635E-03
  0.2308213034E-03
  0.3374928838E-03
  0.2071274339E-03
  0.7317269410E-04
  0.6127375309E-04
  0.1795445405E-04
  0.1080934453E-04
  0.4165821338E-05
  0.4624645044E-05
  0.1466206595E-04
  0.2330325515E-05
  0.3840409590E-05
  0.3480543455E-05
  0.1624718607E-05
  0.4713320777E-05
  0.1014005647E-05
  0.1953809260E-05
  0.1790262104E-05
  0.2395245247E-06
  0.1699972927E-05
  0.8956812962E-06
  0.8482129488E-07
  0.1553453330E-06
  0.4059002094E-06
  0.3415789251E-07
  0.7037579053E-07
  0.1571715984E-05
  0.2565739123E-06
  0.3488366929E-07
  0.6200207281E-07
  0.6285517884E-07
  0.9251107258E-07
  0.8932147466E-08
