   62.98972928    
   63.05197434    
   63.06718514    
   65.14662870    
   60.77356278    
   58.05015177    
   60.20066775    
   60.14071713    
   60.08402928    
   60.12876489    
   60.13632933    
   60.13716788    
   60.13525860    
   60.13522373    
   60.13315740    
   60.13286732    
   60.13233475    
   60.13219575    
   60.13249780    
   60.13282186    
   60.13279931    
   60.13302757    
   60.13290656    
   60.13383850    
   60.13352093    
   60.13338353    
   60.13317458    
   60.13316397    
   60.13304164    
   60.13309320    
   60.13317291    
   60.13320828    
   60.13322376    
   60.13319540    
   60.13322075    
   60.13328094    
   60.13326522    
   60.13326493    
   60.13326226    
   60.13326281    
   60.13325624    
   60.13326276    
   60.13326382    
