  0.7919493748E-01
  0.5958663410E-01
  0.4160206549E-01
  0.3263683152E-01
  0.1554773742E-01
  0.4674286871E-02
  0.1460974357E-02
  0.8749166677E-03
  0.5841042716E-03
  0.9265383833E-04
  0.2247463283E-04
  0.1293753789E-03
  0.3001332185E-04
  0.3651910950E-03
  0.8351195971E-04
  0.3640840242E-03
  0.4651403206E-04
  0.1013449399E-03
  0.1784655365E-03
  0.1563292701E-03
  0.9877679595E-04
  0.6378787658E-04
  0.1042914417E-02
  0.1814694544E-04
  0.4538234458E-04
  0.4832163851E-03
  0.3286208032E-03
  0.1899381832E-03
  0.8410271630E-04
  0.2174437477E-03
  0.2291918308E-04
  0.2281373856E-03
  0.3626646353E-03
  0.1173880105E-03
  0.2830121752E-04
  0.2194671373E-04
  0.2282398140E-02
  0.1037744045E-03
  0.7351531426E-04
  0.1102622473E-03
  0.2668465770E-03
  0.3723817672E-03
  0.1254659059E-03
  0.3314219245E-04
  0.2248217218E-03
  0.1973140483E-04
  0.4152271612E-04
  0.8548817496E-05
  0.3236005783E-04
  0.9510586865E-04
  0.1402941133E-03
  0.2584088927E-03
  0.1918756902E-03
  0.3891274134E-03
  0.7091309642E-04
