   75.01791961    
   74.82525863    
   74.04452087    
   70.71422161    
   66.40656776    
   64.83977391    
   64.24415719    
   64.75263792    
   64.95821652    
   64.93837687    
   64.91436490    
   64.90494342    
   64.90208122    
   64.89242278    
   64.89244750    
   64.89054909    
   64.88788112    
   64.89243523    
   64.89456102    
   64.89228023    
   64.89207424    
   64.89039551    
   64.89148582    
   64.89153485    
   64.89170202    
   64.89192210    
   64.89176915    
   64.89179593    
   64.89178291    
   64.89177614    
   64.89177024    
   64.89176922    
   64.89178548    
   64.89178927    
   64.89179082    
   64.89179772    
   64.89179971    
   64.89179929    
