 
+----------------------------+
| Real-space lattice vectors |
+----------------------------+
 
vector a1 :    4.260930627      -2.460049444       0.000000000    
vector a2 :    0.000000000       4.920098889       0.000000000    
vector a3 :    0.000000000       0.000000000       7.987464051    
 
Stored column-wise as a matrix :
   4.260930627       0.000000000       0.000000000    
  -2.460049444       4.920098889       0.000000000    
   0.000000000       0.000000000       7.987464051    
 
Inverse of matrix :
  0.2346905143       0.000000000       0.000000000    
  0.1173452571      0.2032479474       0.000000000    
   0.000000000       0.000000000      0.1251961816    
 
Unit cell volume :    167.4507942    
 
 
+----------------------------------+
| Reciprocal-space lattice vectors |
+----------------------------------+
 
vector b1 :    1.474603991       0.000000000       0.000000000    
vector b2 :   0.7373019954       1.277044517       0.000000000    
vector b3 :    0.000000000       0.000000000      0.7866308089    
 
Stored column-wise as a matrix :
   1.474603991      0.7373019954       0.000000000    
   0.000000000       1.277044517       0.000000000    
   0.000000000       0.000000000      0.7866308089    
 
Inverse of matrix :
  0.6781481714     -0.3915290293       0.000000000    
   0.000000000      0.7830580587       0.000000000    
   0.000000000       0.000000000       1.271244386    
 
Brillouin zone volume :    1.481331962    
