+----------------------------+
| Elk version 8.3.15 started |
+----------------------------+
 
Date (YYYY-MM-DD) : 2022-02-14
Time (hh:mm:ss)   : 10:54:07
 
All units are atomic (Hartree, Bohr, etc.)
 
+-------------------------------------------------+
| Ground-state run starting from atomic densities |
+-------------------------------------------------+
 
Lattice vectors :
   5.561776587       5.561776587       0.000000000    
   5.561776587       0.000000000       5.561776587    
   0.000000000       5.561776587       5.561776587    
 
Reciprocal lattice vectors :
  0.5648541621      0.5648541621     -0.5648541621    
  0.5648541621     -0.5648541621      0.5648541621    
 -0.5648541621      0.5648541621      0.5648541621    
 
Unit cell volume      :    344.0888614    
Brillouin zone volume :   0.7208899829    
 
Muffin-tin inner radius fraction :   0.1000000000E-01
 
Species :    1 (Sr)
 parameters loaded from : Sr.in
 name : strontium
 nuclear charge    :   -38.00000000    
 electronic charge :    38.00000000    
 atomic mass :    159721.4890    
 muffin-tin radius :    2.600000000    
 number of radial points in muffin-tin :   1200
 number on inner part of muffin-tin    :    867
 atomic positions (lattice), magnetic fields (Cartesian) :
   1 :   0.00000000  0.00000000  0.00000000    0.00000000  0.00000000  0.00000000
 
Total number of atoms per unit cell :    1
 
Spin treatment :
 spin-unpolarised
 
Number of Bravais lattice symmetries :   48
Number of crystal symmetries         :   48
Crystal has inversion symmetry
Real symmetric eigensolver will be used
 
k-point grid :     17    17    17
k-point offset :    0.000000000       0.000000000       0.000000000    
k-point set is reduced with full crystal symmetry group
Total number of k-points :      165
 
Muffin-tin radius times maximum |G+k| :    8.500000000    
 using gkmax = rgkmax / 2
Maximum |G+k| for APW functions       :    4.250000000    
Maximum (1/2)|G+k|²                   :    9.031250000    
Maximum |G| for potential and density :    34.00000000    
Constant for pseudocharge density :   22
Radial integration step length :    1
 
G-vector grid sizes :     90    90    90
Number of G-vectors :   228489
 
Maximum angular momentum used for
 APW functions                      :   10
 outer part of muffin-tin           :    8
 inner part of muffin-tin           :    1
 
Total nuclear charge    :   -38.00000000    
Total core charge       :    28.00000000    
Total valence charge    :    10.00000000    
Total excess charge     :    0.000000000    
Total electronic charge :    38.00000000    
 
Effective Wigner radius, rₛ :    1.293002812    
 
Number of empty states         :   20
Total number of valence states :   26
Total number of core states    :   28
 
Conduction state local-orbitals added automatically
Total number of local-orbitals :  110
 
Using Libxc version 05.01.05
Exchange-correlation functional :    100   493   494
 exchange: mgga_x_rscan; correlation: mgga_c_rscan
 
Smearing type :    1
 Methfessel-Paxton order 1, Phys. Rev. B 40, 3616 (1989)
Smearing width :   0.1000000000E-02
Effective electronic temperature (K) :    315.7750248    
 
Mixing type :    3
 Broyden mixing, J. Phys. A: Math. Gen. 17, L317 (1984)
 
Kohn-Sham potential initialised from atomic data
 
+------------------------------+
| Self-consistent loop started |
+------------------------------+
 
+--------------------+
| Loop number :    1 |
+--------------------+
 
Energies :
 Fermi                       :     0.611696799704E-01
 sum of eigenvalues          :     -1896.54888358    
 electron kinetic            :      3265.19850166    
 core electron kinetic       :      3245.83011745    
 Coulomb                     :     -6369.78540076    
 Coulomb potential           :     -5019.72677826    
 nuclear-nuclear             :     -266.512069576    
 electron-nuclear            :     -7186.81988411    
 Hartree                     :      1083.54655292    
 Madelung                    :     -3859.92201163    
 xc potential                :     -142.020606985    
 exchange                    :     -105.108061695    
 correlation                 :     -1.90051492656    
 total energy                :     -3211.59547572    
 
Density of states at Fermi energy :    24.69753979    
 (states/Hartree/unit cell)
 
Estimated indirect band gap :   0.4279630719E-03
 from k-point    161 to k-point     67
Estimated direct band gap   :   0.2181007417E-02
 at k-point    123
 
Charges :
 core                        :    28.00000000    
 valence                     :    10.00000000    
 interstitial                :    1.976803363    
 muffin-tins (core leakage)
  species :    1 (Sr)
   atom    1                 :    36.02319664     (  0.1866649136E-04)
 total in muffin-tins        :    36.02319664    
 total calculated charge     :    37.99998109    
 total charge                :    38.00000000    
 error                       :   0.1890562881E-04
 
Time (CPU seconds) :        30.56
 
+--------------------+
| Loop number :    2 |
+--------------------+
 
Energies :
 Fermi                       :     0.622913608564E-01
 sum of eigenvalues          :     -1896.27806443    
 electron kinetic            :      3265.41809170    
 core electron kinetic       :      3242.37890670    
 Coulomb                     :     -6369.53224399    
 Coulomb potential           :     -5019.69024777    
 nuclear-nuclear             :     -266.512069576    
 electron-nuclear            :     -7186.35010105    
 Hartree                     :      1083.32992664    
 Madelung                    :     -3859.68712010    
 xc potential                :     -142.005908364    
 exchange                    :     -105.097129772    
 correlation                 :     -1.90042303651    
 total energy                :     -3211.11170510    
 
Density of states at Fermi energy :    24.16194620    
 (states/Hartree/unit cell)
 
Estimated indirect band gap :   0.4289718870E-03
 from k-point    161 to k-point     67
Estimated direct band gap   :   0.2240885279E-02
 at k-point    123
 
Charges :
 core                        :    28.00000000    
 valence                     :    10.00000000    
 interstitial                :    1.978576801    
 muffin-tins (core leakage)
  species :    1 (Sr)
   atom    1                 :    36.02142320     (  0.1880350219E-04)
 total in muffin-tins        :    36.02142320    
 total calculated charge     :    37.99998096    
 total charge                :    38.00000000    
 error                       :   0.1904224515E-04
 
Wrote STATE.OUT
 
RMS change in Kohn-Sham potential (target) :   0.6276433818     (   10.00000000    )
Absolute change in total energy (target)   :   0.4837706245     (  0.1000000000E-07)
 
Time (CPU seconds) :        54.16
 
+--------------------+
| Loop number :    3 |
+--------------------+
 
Energies :
 Fermi                       :     0.836742289563E-01
 sum of eigenvalues          :     -1892.48635895    
 electron kinetic            :      3268.58689256    
 core electron kinetic       :      3237.15951015    
 Coulomb                     :     -6366.32194261    
 Coulomb potential           :     -5019.25432111    
 nuclear-nuclear             :     -266.512069576    
 electron-nuclear            :     -7180.36542496    
 Hartree                     :      1080.55555193    
 Madelung                    :     -3856.69478206    
 xc potential                :     -141.818930392    
 exchange                    :     -104.958617265    
 correlation                 :     -1.89925863595    
 total energy                :     -3204.59292596    
 
Density of states at Fermi energy :    22.05435877    
 (states/Hartree/unit cell)
 
Estimated indirect band gap :   0.4454364764E-03
 from k-point    161 to k-point     67
Estimated direct band gap   :   0.3134624002E-02
 at k-point    123
 
Charges :
 core                        :    28.00000000    
 valence                     :    10.00000000    
 interstitial                :    2.000628548    
 muffin-tins (core leakage)
  species :    1 (Sr)
   atom    1                 :    35.99937145     (  0.2064635176E-04)
 total in muffin-tins        :    35.99937145    
 total calculated charge     :    37.99997910    
 total charge                :    38.00000000    
 error                       :   0.2089909931E-04
 
RMS change in Kohn-Sham potential (target) :   0.5099765286     (   10.00000000    )
Absolute change in total energy (target)   :    6.639721795     (  0.1000000000E-07)
 
Time (CPU seconds) :        77.63
 
+--------------------+
| Loop number :    4 |
+--------------------+
 
Energies :
 Fermi                       :     0.124867296314    
 sum of eigenvalues          :     -1886.04215226    
 electron kinetic            :      3274.10448698    
 core electron kinetic       :      3234.10112490    
 Coulomb                     :     -6361.19050386    
 Coulomb potential           :     -5018.62907434    
 nuclear-nuclear             :     -266.512069576    
 electron-nuclear            :     -7170.72779422    
 Hartree                     :      1076.04935994    
 Madelung                    :     -3851.87596669    
 xc potential                :     -141.517564899    
 exchange                    :     -104.735978654    
 correlation                 :     -1.89734689186    
 total energy                :     -3193.71934242    
 
Density of states at Fermi energy :    29.59327970    
 (states/Hartree/unit cell)
 
Estimated indirect band gap :   0.5919377744E-03
 from k-point    161 to k-point     67
Estimated direct band gap   :   0.4728237144E-02
 at k-point    123
 
Charges :
 core                        :    28.00000000    
 valence                     :    10.00000000    
 interstitial                :    2.035899383    
 muffin-tins (core leakage)
  species :    1 (Sr)
   atom    1                 :    35.96410062     (  0.2403986129E-04)
 total in muffin-tins        :    35.96410062    
 total calculated charge     :    37.99997568    
 total charge                :    38.00000000    
 error                       :   0.2431587561E-04
 
Wrote STATE.OUT
 
RMS change in Kohn-Sham potential (target) :   0.2784147194     (   10.00000000    )
Absolute change in total energy (target)   :    12.53351398     (  0.1000000000E-07)
 
Time (CPU seconds) :       101.02
 
+--------------------+
| Loop number :    5 |
+--------------------+
 
Energies :
 Fermi                       :     0.156352036775    
 sum of eigenvalues          :     -1881.14713895    
 electron kinetic            :      3278.34004385    
 core electron kinetic       :      3233.40999904    
 Coulomb                     :     -6357.36308933    
 Coulomb potential           :     -5018.19569847    
 nuclear-nuclear             :     -266.512069576    
 electron-nuclear            :     -7163.50634103    
 Hartree                     :      1072.65532128    
 Madelung                    :     -3848.26524009    
 xc potential                :     -141.291484329    
 exchange                    :     -104.568988863    
 correlation                 :     -1.89589322386    
 total energy                :     -3185.48792757    
 
Density of states at Fermi energy :    48.13814780    
 (states/Hartree/unit cell)
 
Estimated indirect band gap :   0.6696389314E-03
 from k-point    161 to k-point    106
Estimated direct band gap   :   0.5126747476E-02
 at k-point     67
 
Charges :
 core                        :    28.00000000    
 valence                     :    10.00000000    
 interstitial                :    2.062601995    
 muffin-tins (core leakage)
  species :    1 (Sr)
   atom    1                 :    35.93739801     (  0.2699127025E-04)
 total in muffin-tins        :    35.93739801    
 total calculated charge     :    37.99997271    
 total charge                :    38.00000000    
 error                       :   0.2729192413E-04
 
RMS change in Kohn-Sham potential (target) :   0.9905467248E-01 (   10.00000000    )
Absolute change in total energy (target)   :    11.36479335     (  0.1000000000E-07)
 
Time (CPU seconds) :       124.36
 
+--------------------+
| Loop number :    6 |
+--------------------+
 
Energies :
 Fermi                       :     0.169220418620    
 sum of eigenvalues          :     -1879.13930344    
 electron kinetic            :      3280.10038267    
 core electron kinetic       :      3233.25674078    
 Coulomb                     :     -6355.81951871    
 Coulomb potential           :     -5018.04016870    
 nuclear-nuclear             :     -266.512069576    
 electron-nuclear            :     -7160.57472958    
 Hartree                     :      1071.26728044    
 Madelung                    :     -3846.79943437    
 xc potential                :     -141.199517416    
 exchange                    :     -104.501082400    
 correlation                 :     -1.89529479305    
 total energy                :     -3182.11551323    
 
Density of states at Fermi energy :    54.18394856    
 (states/Hartree/unit cell)
 
Estimated indirect band gap :   0.3829199812E-03
 from k-point    161 to k-point    106
Estimated direct band gap   :   0.5146155295E-02
 at k-point     67
 
Charges :
 core                        :    28.00000000    
 valence                     :    10.00000000    
 interstitial                :    2.073809769    
 muffin-tins (core leakage)
  species :    1 (Sr)
   atom    1                 :    35.92619023     (  0.2829434531E-04)
 total in muffin-tins        :    35.92619023    
 total calculated charge     :    37.99997139    
 total charge                :    38.00000000    
 error                       :   0.2860721299E-04
 
Wrote STATE.OUT
 
RMS change in Kohn-Sham potential (target) :   0.2560128771E-01 (   10.00000000    )
Absolute change in total energy (target)   :    6.213612671     (  0.1000000000E-07)
 
Time (CPU seconds) :       147.72
 
+--------------------+
| Loop number :    7 |
+--------------------+
 
Energies :
 Fermi                       :     0.173746121248    
 sum of eigenvalues          :     -1878.42381936    
 electron kinetic            :      3280.73790340    
 core electron kinetic       :      3233.45255894    
 Coulomb                     :     -6355.27889076    
 Coulomb potential           :     -5017.99478475    
 nuclear-nuclear             :     -266.512069576    
 electron-nuclear            :     -7159.53885762    
 Hartree                     :      1070.77203643    
 Madelung                    :     -3846.28149838    
 xc potential                :     -141.166938007    
 exchange                    :     -104.477045983    
 correlation                 :     -1.89507968841    
 total energy                :     -3180.91311304    
 
Density of states at Fermi energy :    56.45948020    
 (states/Hartree/unit cell)
 
Estimated indirect band gap :   0.2707158582E-03
 from k-point    161 to k-point    106
Estimated direct band gap   :   0.5158076567E-02
 at k-point     67
 
Charges :
 core                        :    28.00000000    
 valence                     :    10.00000000    
 interstitial                :    2.077996692    
 muffin-tins (core leakage)
  species :    1 (Sr)
   atom    1                 :    35.92200331     (  0.2878139146E-04)
 total in muffin-tins        :    35.92200331    
 total calculated charge     :    37.99997090    
 total charge                :    38.00000000    
 error                       :   0.2909946152E-04
 
RMS change in Kohn-Sham potential (target) :   0.1612593295E-02 (   10.00000000    )
Absolute change in total energy (target)   :    2.755803365     (  0.1000000000E-07)
 
Time (CPU seconds) :       171.21
 
+--------------------+
| Loop number :    8 |
+--------------------+
 
Energies :
 Fermi                       :     0.173763636737    
 sum of eigenvalues          :     -1878.42911694    
 electron kinetic            :      3280.74755115    
 core electron kinetic       :      3233.47198512    
 Coulomb                     :     -6355.30023207    
 Coulomb potential           :     -5018.00893496    
 nuclear-nuclear             :     -266.512069576    
 electron-nuclear            :     -7159.56739004    
 Hartree                     :      1070.77922754    
 Madelung                    :     -3846.29576459    
 xc potential                :     -141.167733129    
 exchange                    :     -104.477680593    
 correlation                 :     -1.89507947251    
 total energy                :     -3180.92544099    
 
Density of states at Fermi energy :    56.90723431    
 (states/Hartree/unit cell)
 
Estimated indirect band gap :   0.2538876519E-03
 from k-point    161 to k-point    106
Estimated direct band gap   :   0.5150289882E-02
 at k-point     67
 
Charges :
 core                        :    28.00000000    
 valence                     :    10.00000000    
 interstitial                :    2.078171068    
 muffin-tins (core leakage)
  species :    1 (Sr)
   atom    1                 :    35.92182893     (  0.2877541577E-04)
 total in muffin-tins        :    35.92182893    
 total calculated charge     :    37.99997091    
 total charge                :    38.00000000    
 error                       :   0.2909436326E-04
 
Wrote STATE.OUT
 
RMS change in Kohn-Sham potential (target) :   0.1037828200E-02 (   10.00000000    )
Absolute change in total energy (target)   :   0.6766228922     (  0.1000000000E-07)
 
Time (CPU seconds) :       194.56
 
+--------------------+
| Loop number :    9 |
+--------------------+
 
Energies :
 Fermi                       :     0.173763438083    
 sum of eigenvalues          :     -1878.42895681    
 electron kinetic            :      3280.76476817    
 core electron kinetic       :      3233.49159545    
 Coulomb                     :     -6355.31873929    
 Coulomb potential           :     -5018.02545864    
 nuclear-nuclear             :     -266.512069576    
 electron-nuclear            :     -7159.58788078    
 Hartree                     :      1070.78121107    
 Madelung                    :     -3846.30600997    
 xc potential                :     -141.168266341    
 exchange                    :     -104.478133476    
 correlation                 :     -1.89507729586    
 total energy                :     -3180.92718189    
 
Density of states at Fermi energy :    57.58317611    
 (states/Hartree/unit cell)
 
Estimated indirect band gap :   0.2284896159E-03
 from k-point    161 to k-point    106
Estimated direct band gap   :   0.5137546626E-02
 at k-point     67
 
Charges :
 core                        :    28.00000000    
 valence                     :    10.00000000    
 interstitial                :    2.078431502    
 muffin-tins (core leakage)
  species :    1 (Sr)
   atom    1                 :    35.92156850     (  0.2877597302E-04)
 total in muffin-tins        :    35.92156850    
 total calculated charge     :    37.99997090    
 total charge                :    38.00000000    
 error                       :   0.2909623846E-04
 
RMS change in Kohn-Sham potential (target) :   0.1202905885E-03 (   10.00000000    )
Absolute change in total energy (target)   :   0.1674148213     (  0.1000000000E-07)
 
Time (CPU seconds) :       217.88
 
+--------------------+
| Loop number :   10 |
+--------------------+
 
Energies :
 Fermi                       :     0.173757494612    
 sum of eigenvalues          :     -1878.42649098    
 electron kinetic            :      3280.76542126    
 core electron kinetic       :      3233.48876964    
 Coulomb                     :     -6355.31452481    
 Coulomb potential           :     -5018.02384204    
 nuclear-nuclear             :     -266.512069576    
 electron-nuclear            :     -7159.58106842    
 Hartree                     :      1070.77861319    
 Madelung                    :     -3846.30260379    
 xc potential                :     -141.168070198    
 exchange                    :     -104.477986461    
 correlation                 :     -1.89507692402    
 total energy                :     -3180.92216693    
 
Density of states at Fermi energy :    57.60063875    
 (states/Hartree/unit cell)
 
Estimated indirect band gap :   0.2279690699E-03
 from k-point    161 to k-point    106
Estimated direct band gap   :   0.5136722279E-02
 at k-point     67
 
Charges :
 core                        :    28.00000000    
 valence                     :    10.00000000    
 interstitial                :    2.078422103    
 muffin-tins (core leakage)
  species :    1 (Sr)
   atom    1                 :    35.92157790     (  0.2877873439E-04)
 total in muffin-tins        :    35.92157790    
 total calculated charge     :    37.99997090    
 total charge                :    38.00000000    
 error                       :   0.2909901144E-04
 
Wrote STATE.OUT
 
RMS change in Kohn-Sham potential (target) :   0.3535877045E-04 (   10.00000000    )
Absolute change in total energy (target)   :   0.4686865727E-01 (  0.1000000000E-07)
 
Time (CPU seconds) :       241.21
 
+--------------------+
| Loop number :   11 |
+--------------------+
 
Energies :
 Fermi                       :     0.173753584574    
 sum of eigenvalues          :     -1878.42568723    
 electron kinetic            :      3280.76492667    
 core electron kinetic       :      3233.48720622    
 Coulomb                     :     -6355.31237912    
 Coulomb potential           :     -5018.02262652    
 nuclear-nuclear             :     -266.512069576    
 electron-nuclear            :     -7159.57799257    
 Hartree                     :      1070.77768303    
 Madelung                    :     -3846.30106586    
 xc potential                :     -141.167987386    
 exchange                    :     -104.477923505    
 correlation                 :     -1.89507701257    
 total energy                :     -3180.92045297    
 
Density of states at Fermi energy :    57.59862747    
 (states/Hartree/unit cell)
 
Estimated indirect band gap :   0.2281352606E-03
 from k-point    161 to k-point    106
Estimated direct band gap   :   0.5136414591E-02
 at k-point     67
 
Charges :
 core                        :    28.00000000    
 valence                     :    10.00000000    
 interstitial                :    2.078405938    
 muffin-tins (core leakage)
  species :    1 (Sr)
   atom    1                 :    35.92159406     (  0.2877971574E-04)
 total in muffin-tins        :    35.92159406    
 total calculated charge     :    37.99997090    
 total charge                :    38.00000000    
 error                       :   0.2909992431E-04
 
RMS change in Kohn-Sham potential (target) :   0.2767080159E-04 (   10.00000000    )
Absolute change in total energy (target)   :   0.1343112799E-01 (  0.1000000000E-07)
 
Time (CPU seconds) :       264.46
 
+--------------------+
| Loop number :   12 |
+--------------------+
 
Energies :
 Fermi                       :     0.173752921994    
 sum of eigenvalues          :     -1878.42570995    
 electron kinetic            :      3280.76479276    
 core electron kinetic       :      3233.48703032    
 Coulomb                     :     -6355.31228541    
 Coulomb potential           :     -5018.02251576    
 nuclear-nuclear             :     -266.512069576    
 electron-nuclear            :     -7159.57791590    
 Hartree                     :      1070.77770007    
 Madelung                    :     -3846.30102753    
 xc potential                :     -141.167986952    
 exchange                    :     -104.477923212    
 correlation                 :     -1.89507706579    
 total energy                :     -3180.92049292    
 
Density of states at Fermi energy :    57.60021470    
 (states/Hartree/unit cell)
 
Estimated indirect band gap :   0.2280814112E-03
 from k-point    161 to k-point    106
Estimated direct band gap   :   0.5136339486E-02
 at k-point     67
 
Charges :
 core                        :    28.00000000    
 valence                     :    10.00000000    
 interstitial                :    2.078403634    
 muffin-tins (core leakage)
  species :    1 (Sr)
   atom    1                 :    35.92159637     (  0.2877971331E-04)
 total in muffin-tins        :    35.92159637    
 total calculated charge     :    37.99997090    
 total charge                :    38.00000000    
 error                       :   0.2909997357E-04
 
Wrote STATE.OUT
 
RMS change in Kohn-Sham potential (target) :   0.1996942341E-03 (   10.00000000    )
Absolute change in total energy (target)   :   0.3317830603E-02 (  0.1000000000E-07)
 
Time (CPU seconds) :       288.11
 
+--------------------+
| Loop number :   13 |
+--------------------+
 
Energies :
 Fermi                       :     0.173753185281    
 sum of eigenvalues          :     -1878.42567989    
 electron kinetic            :      3280.76482579    
 core electron kinetic       :      3233.48697544    
 Coulomb                     :     -6355.31227207    
 Coulomb potential           :     -5018.02251976    
 nuclear-nuclear             :     -266.512069576    
 electron-nuclear            :     -7159.57788523    
 Hartree                     :      1070.77768274    
 Madelung                    :     -3846.30101219    
 xc potential                :     -141.167985921    
 exchange                    :     -104.477922471    
 correlation                 :     -1.89507705664    
 total energy                :     -3180.92044581    
 
Density of states at Fermi energy :    57.60043129    
 (states/Hartree/unit cell)
 
Estimated indirect band gap :   0.2280717048E-03
 from k-point    161 to k-point    106
Estimated direct band gap   :   0.5136338335E-02
 at k-point     67
 
Charges :
 core                        :    28.00000000    
 valence                     :    10.00000000    
 interstitial                :    2.078403867    
 muffin-tins (core leakage)
  species :    1 (Sr)
   atom    1                 :    35.92159613     (  0.2877965694E-04)
 total in muffin-tins        :    35.92159613    
 total calculated charge     :    37.99997090    
 total charge                :    38.00000000    
 error                       :   0.2909991805E-04
 
RMS change in Kohn-Sham potential (target) :   0.4147416258E-04 (   10.00000000    )
Absolute change in total energy (target)   :   0.8765751081E-03 (  0.1000000000E-07)
 
Time (CPU seconds) :       311.47
 
+--------------------+
| Loop number :   14 |
+--------------------+
 
Energies :
 Fermi                       :     0.173752115086    
 sum of eigenvalues          :     -1878.42564335    
 electron kinetic            :      3280.76462688    
 core electron kinetic       :      3233.48665893    
 Coulomb                     :     -6355.31199417    
 Coulomb potential           :     -5018.02229109    
 nuclear-nuclear             :     -266.512069576    
 electron-nuclear            :     -7159.57755810    
 Hartree                     :      1070.77763351    
 Madelung                    :     -3846.30084862    
 xc potential                :     -141.167979148    
 exchange                    :     -104.477917385    
 correlation                 :     -1.89507712809    
 total energy                :     -3180.92036180    
 
Density of states at Fermi energy :    57.60242602    
 (states/Hartree/unit cell)
 
Estimated indirect band gap :   0.2280098312E-03
 from k-point    161 to k-point    106
Estimated direct band gap   :   0.5136218829E-02
 at k-point     67
 
Charges :
 core                        :    28.00000000    
 valence                     :    10.00000000    
 interstitial                :    2.078399812    
 muffin-tins (core leakage)
  species :    1 (Sr)
   atom    1                 :    35.92160019     (  0.2877985285E-04)
 total in muffin-tins        :    35.92160019    
 total calculated charge     :    37.99997090    
 total charge                :    38.00000000    
 error                       :   0.2910005277E-04
 
Wrote STATE.OUT
 
RMS change in Kohn-Sham potential (target) :   0.6717810531E-04 (   10.00000000    )
Absolute change in total energy (target)   :   0.3031520810E-03 (  0.1000000000E-07)
 
Time (CPU seconds) :       334.71
 
+--------------------+
| Loop number :   15 |
+--------------------+
 
Energies :
 Fermi                       :     0.173751987880    
 sum of eigenvalues          :     -1878.42563123    
 electron kinetic            :      3280.76459324    
 core electron kinetic       :      3233.48661302    
 Coulomb                     :     -6355.31193578    
 Coulomb potential           :     -5018.02224715    
 nuclear-nuclear             :     -266.512069576    
 electron-nuclear            :     -7159.57748526    
 Hartree                     :      1070.77761905    
 Madelung                    :     -3846.30081220    
 xc potential                :     -141.167977314    
 exchange                    :     -104.477915945    
 correlation                 :     -1.89507713204    
 total energy                :     -3180.92033562    
 
Density of states at Fermi energy :    57.60184691    
 (states/Hartree/unit cell)
 
Estimated indirect band gap :   0.2280317998E-03
 from k-point    161 to k-point    106
Estimated direct band gap   :   0.5136224163E-02
 at k-point     67
 
Charges :
 core                        :    28.00000000    
 valence                     :    10.00000000    
 interstitial                :    2.078399221    
 muffin-tins (core leakage)
  species :    1 (Sr)
   atom    1                 :    35.92160078     (  0.2877963142E-04)
 total in muffin-tins        :    35.92160078    
 total calculated charge     :    37.99997090    
 total charge                :    38.00000000    
 error                       :   0.2909985957E-04
 
RMS change in Kohn-Sham potential (target) :   0.1881293227E-03 (   10.00000000    )
Absolute change in total energy (target)   :   0.1019626984E-03 (  0.1000000000E-07)
 
Time (CPU seconds) :       358.26
 
+--------------------+
| Loop number :   16 |
+--------------------+
 
Energies :
 Fermi                       :     0.173751875813    
 sum of eigenvalues          :     -1878.42564077    
 electron kinetic            :      3280.76460571    
 core electron kinetic       :      3233.48664087    
 Coulomb                     :     -6355.31197638    
 Coulomb potential           :     -5018.02226701    
 nuclear-nuclear             :     -266.512069576    
 electron-nuclear            :     -7159.57754659    
 Hartree                     :      1070.77763979    
 Madelung                    :     -3846.30084287    
 xc potential                :     -141.167979461    
 exchange                    :     -104.477917668    
 correlation                 :     -1.89507713111    
 total energy                :     -3180.92036547    
 
Density of states at Fermi energy :    57.60356261    
 (states/Hartree/unit cell)
 
Estimated indirect band gap :   0.2279606643E-03
 from k-point    161 to k-point    106
Estimated direct band gap   :   0.5136195903E-02
 at k-point     67
 
Charges :
 core                        :    28.00000000    
 valence                     :    10.00000000    
 interstitial                :    2.078399674    
 muffin-tins (core leakage)
  species :    1 (Sr)
   atom    1                 :    35.92160033     (  0.2877971942E-04)
 total in muffin-tins        :    35.92160033    
 total calculated charge     :    37.99997090    
 total charge                :    38.00000000    
 error                       :   0.2909992674E-04
 
Wrote STATE.OUT
 
RMS change in Kohn-Sham potential (target) :   0.2024521505E-03 (   10.00000000    )
Absolute change in total energy (target)   :   0.4358913884E-05 (  0.1000000000E-07)
 
Time (CPU seconds) :       381.63
 
+--------------------+
| Loop number :   17 |
+--------------------+
 
Energies :
 Fermi                       :     0.173751659859    
 sum of eigenvalues          :     -1878.42563654    
 electron kinetic            :      3280.76459419    
 core electron kinetic       :      3233.48661543    
 Coulomb                     :     -6355.31195352    
 Coulomb potential           :     -5018.02225195    
 nuclear-nuclear             :     -266.512069576    
 electron-nuclear            :     -7159.57751593    
 Hartree                     :      1070.77763199    
 Madelung                    :     -3846.30082754    
 xc potential                :     -141.167978775    
 exchange                    :     -104.477917157    
 correlation                 :     -1.89507713119    
 total energy                :     -3180.92035362    
 
Density of states at Fermi energy :    57.60391987    
 (states/Hartree/unit cell)
 
Estimated indirect band gap :   0.2279464082E-03
 from k-point    161 to k-point    106
Estimated direct band gap   :   0.5136185937E-02
 at k-point     67
 
Charges :
 core                        :    28.00000000    
 valence                     :    10.00000000    
 interstitial                :    2.078399570    
 muffin-tins (core leakage)
  species :    1 (Sr)
   atom    1                 :    35.92160043     (  0.2877956545E-04)
 total in muffin-tins        :    35.92160043    
 total calculated charge     :    37.99997090    
 total charge                :    38.00000000    
 error                       :   0.2909980593E-04
 
RMS change in Kohn-Sham potential (target) :   0.1164520488E-03 (   10.00000000    )
Absolute change in total energy (target)   :   0.1076681428E-04 (  0.1000000000E-07)
 
Time (CPU seconds) :       403.05
 
+--------------------+
| Loop number :   18 |
+--------------------+
 
Energies :
 Fermi                       :     0.173751578076    
 sum of eigenvalues          :     -1878.42563159    
 electron kinetic            :      3280.76460168    
 core electron kinetic       :      3233.48661978    
 Coulomb                     :     -6355.31195227    
 Coulomb potential           :     -5018.02225458    
 nuclear-nuclear             :     -266.512069576    
 electron-nuclear            :     -7159.57751081    
 Hartree                     :      1070.77762812    
 Madelung                    :     -3846.30082498    
 xc potential                :     -141.167978688    
 exchange                    :     -104.477917121    
 correlation                 :     -1.89507712837    
 total energy                :     -3180.92034484    
 
Density of states at Fermi energy :    57.60447821    
 (states/Hartree/unit cell)
 
Estimated indirect band gap :   0.2279239596E-03
 from k-point    161 to k-point    106
Estimated direct band gap   :   0.5136175425E-02
 at k-point     67
 
Charges :
 core                        :    28.00000000    
 valence                     :    10.00000000    
 interstitial                :    2.078399726    
 muffin-tins (core leakage)
  species :    1 (Sr)
   atom    1                 :    35.92160027     (  0.2877976446E-04)
 total in muffin-tins        :    35.92160027    
 total calculated charge     :    37.99997090    
 total charge                :    38.00000000    
 error                       :   0.2910000254E-04
 
Wrote STATE.OUT
 
RMS change in Kohn-Sham potential (target) :   0.8195880496E-04 (   10.00000000    )
Absolute change in total energy (target)   :   0.1146412114E-04 (  0.1000000000E-07)
 
Time (CPU seconds) :       424.84
 
+--------------------+
| Loop number :   19 |
+--------------------+
 
Energies :
 Fermi                       :     0.173751490619    
 sum of eigenvalues          :     -1878.42563138    
 electron kinetic            :      3280.76460175    
 core electron kinetic       :      3233.48662183    
 Coulomb                     :     -6355.31195157    
 Coulomb potential           :     -5018.02225446    
 nuclear-nuclear             :     -266.512069576    
 electron-nuclear            :     -7159.57750954    
 Hartree                     :      1070.77762754    
 Madelung                    :     -3846.30082434    
 xc potential                :     -141.167978674    
 exchange                    :     -104.477917128    
 correlation                 :     -1.89507712691    
 total energy                :     -3180.92034408    
 
Density of states at Fermi energy :    57.60480175    
 (states/Hartree/unit cell)
 
Estimated indirect band gap :   0.2279112235E-03
 from k-point    161 to k-point    106
Estimated direct band gap   :   0.5136168457E-02
 at k-point     67
 
Charges :
 core                        :    28.00000000    
 valence                     :    10.00000000    
 interstitial                :    2.078399773    
 muffin-tins (core leakage)
  species :    1 (Sr)
   atom    1                 :    35.92160023     (  0.2877964944E-04)
 total in muffin-tins        :    35.92160023    
 total calculated charge     :    37.99997090    
 total charge                :    38.00000000    
 error                       :   0.2909985882E-04
 
RMS change in Kohn-Sham potential (target) :   0.1865601574E-03 (   10.00000000    )
Absolute change in total energy (target)   :   0.3629607818E-05 (  0.1000000000E-07)
 
Time (CPU seconds) :       446.40
 
+--------------------+
| Loop number :   20 |
+--------------------+
 
Energies :
 Fermi                       :     0.173751525201    
 sum of eigenvalues          :     -1878.42563319    
 electron kinetic            :      3280.76460163    
 core electron kinetic       :      3233.48662263    
 Coulomb                     :     -6355.31195307    
 Coulomb potential           :     -5018.02225618    
 nuclear-nuclear             :     -266.512069576    
 electron-nuclear            :     -7159.57751081    
 Hartree                     :      1070.77762732    
 Madelung                    :     -3846.30082498    
 xc potential                :     -141.167978641    
 exchange                    :     -104.477917080    
 correlation                 :     -1.89507712585    
 total energy                :     -3180.92034565    
 
Density of states at Fermi energy :    57.60443140    
 (states/Hartree/unit cell)
 
Estimated indirect band gap :   0.2279254706E-03
 from k-point    161 to k-point    106
Estimated direct band gap   :   0.5136177462E-02
 at k-point     67
 
Charges :
 core                        :    28.00000000    
 valence                     :    10.00000000    
 interstitial                :    2.078399790    
 muffin-tins (core leakage)
  species :    1 (Sr)
   atom    1                 :    35.92160021     (  0.2877954321E-04)
 total in muffin-tins        :    35.92160021    
 total calculated charge     :    37.99997090    
 total charge                :    38.00000000    
 error                       :   0.2909974164E-04
 
Wrote STATE.OUT
 
RMS change in Kohn-Sham potential (target) :   0.2204458096E-03 (   10.00000000    )
Absolute change in total energy (target)   :   0.6617037798E-06 (  0.1000000000E-07)
 
Time (CPU seconds) :       467.91
 
+--------------------+
| Loop number :   21 |
+--------------------+
 
Energies :
 Fermi                       :     0.173751525077    
 sum of eigenvalues          :     -1878.42563312    
 electron kinetic            :      3280.76460310    
 core electron kinetic       :      3233.48662404    
 Coulomb                     :     -6355.31195439    
 Coulomb potential           :     -5018.02225753    
 nuclear-nuclear             :     -266.512069576    
 electron-nuclear            :     -7159.57751209    
 Hartree                     :      1070.77762728    
 Madelung                    :     -3846.30082562    
 xc potential                :     -141.167978684    
 exchange                    :     -104.477917120    
 correlation                 :     -1.89507712541    
 total energy                :     -3180.92034553    
 
Density of states at Fermi energy :    57.60450016    
 (states/Hartree/unit cell)
 
Estimated indirect band gap :   0.2279229252E-03
 from k-point    161 to k-point    106
Estimated direct band gap   :   0.5136175984E-02
 at k-point     67
 
Charges :
 core                        :    28.00000000    
 valence                     :    10.00000000    
 interstitial                :    2.078399808    
 muffin-tins (core leakage)
  species :    1 (Sr)
   atom    1                 :    35.92160019     (  0.2877981740E-04)
 total in muffin-tins        :    35.92160019    
 total calculated charge     :    37.99997090    
 total charge                :    38.00000000    
 error                       :   0.2910005386E-04
 
RMS change in Kohn-Sham potential (target) :   0.6276123362E-04 (   10.00000000    )
Absolute change in total energy (target)   :   0.4972298484E-07 (  0.1000000000E-07)
 
Time (CPU seconds) :       489.81
 
+--------------------+
| Loop number :   22 |
+--------------------+
 
Energies :
 Fermi                       :     0.173751492986    
 sum of eigenvalues          :     -1878.42563255    
 electron kinetic            :      3280.76460791    
 core electron kinetic       :      3233.48663066    
 Coulomb                     :     -6355.31195839    
 Coulomb potential           :     -5018.02226170    
 nuclear-nuclear             :     -266.512069576    
 electron-nuclear            :     -7159.57751593    
 Hartree                     :      1070.77762711    
 Madelung                    :     -3846.30082754    
 xc potential                :     -141.167978766    
 exchange                    :     -104.477917194    
 correlation                 :     -1.89507712326    
 total energy                :     -3180.92034479    
 
Density of states at Fermi energy :    57.60471320    
 (states/Hartree/unit cell)
 
Estimated indirect band gap :   0.2279142206E-03
 from k-point    161 to k-point    106
Estimated direct band gap   :   0.5136172822E-02
 at k-point     67
 
Charges :
 core                        :    28.00000000    
 valence                     :    10.00000000    
 interstitial                :    2.078399921    
 muffin-tins (core leakage)
  species :    1 (Sr)
   atom    1                 :    35.92160008     (  0.2877947736E-04)
 total in muffin-tins        :    35.92160008    
 total calculated charge     :    37.99997090    
 total charge                :    38.00000000    
 error                       :   0.2909967779E-04
 
Wrote STATE.OUT
 
RMS change in Kohn-Sham potential (target) :   0.8245709291E-04 (   10.00000000    )
Absolute change in total energy (target)   :   0.7295084288E-06 (  0.1000000000E-07)
 
Time (CPU seconds) :       511.49
 
+--------------------+
| Loop number :   23 |
+--------------------+
 
Energies :
 Fermi                       :     0.173751523972    
 sum of eigenvalues          :     -1878.42563317    
 electron kinetic            :      3280.76460756    
 core electron kinetic       :      3233.48663053    
 Coulomb                     :     -6355.31195915    
 Coulomb potential           :     -5018.02226193    
 nuclear-nuclear             :     -266.512069576    
 electron-nuclear            :     -7159.57751720    
 Hartree                     :      1070.77762763    
 Madelung                    :     -3846.30082818    
 xc potential                :     -141.167978791    
 exchange                    :     -104.477917205    
 correlation                 :     -1.89507712428    
 total energy                :     -3180.92034592    
 
Density of states at Fermi energy :    57.60458472    
 (states/Hartree/unit cell)
 
Estimated indirect band gap :   0.2279193563E-03
 from k-point    161 to k-point    106
Estimated direct band gap   :   0.5136175471E-02
 at k-point     67
 
Charges :
 core                        :    28.00000000    
 valence                     :    10.00000000    
 interstitial                :    2.078399899    
 muffin-tins (core leakage)
  species :    1 (Sr)
   atom    1                 :    35.92160010     (  0.2877973385E-04)
 total in muffin-tins        :    35.92160010    
 total calculated charge     :    37.99997090    
 total charge                :    38.00000000    
 error                       :   0.2909997889E-04
 
RMS change in Kohn-Sham potential (target) :   0.7401264685E-05 (   10.00000000    )
Absolute change in total energy (target)   :   0.9458440218E-06 (  0.1000000000E-07)
 
Time (CPU seconds) :       533.32
 
+--------------------+
| Loop number :   24 |
+--------------------+
 
Energies :
 Fermi                       :     0.173751511176    
 sum of eigenvalues          :     -1878.42563286    
 electron kinetic            :      3280.76460929    
 core electron kinetic       :      3233.48663199    
 Coulomb                     :     -6355.31196049    
 Coulomb potential           :     -5018.02226335    
 nuclear-nuclear             :     -266.512069576    
 electron-nuclear            :     -7159.57751848    
 Hartree                     :      1070.77762756    
 Madelung                    :     -3846.30082882    
 xc potential                :     -141.167978797    
 exchange                    :     -104.477917215    
 correlation                 :     -1.89507712278    
 total energy                :     -3180.92034554    
 
Density of states at Fermi energy :    57.60464813    
 (states/Hartree/unit cell)
 
Estimated indirect band gap :   0.2279167369E-03
 from k-point    161 to k-point    106
Estimated direct band gap   :   0.5136174618E-02
 at k-point     67
 
Charges :
 core                        :    28.00000000    
 valence                     :    10.00000000    
 interstitial                :    2.078399941    
 muffin-tins (core leakage)
  species :    1 (Sr)
   atom    1                 :    35.92160006     (  0.2877961175E-04)
 total in muffin-tins        :    35.92160006    
 total calculated charge     :    37.99997090    
 total charge                :    38.00000000    
 error                       :   0.2909980149E-04
 
Wrote STATE.OUT
 
RMS change in Kohn-Sham potential (target) :   0.5347048399E-04 (   10.00000000    )
Absolute change in total energy (target)   :   0.1427315510E-06 (  0.1000000000E-07)
 
Time (CPU seconds) :       554.81
 
+--------------------+
| Loop number :   25 |
+--------------------+
 
Energies :
 Fermi                       :     0.173751496084    
 sum of eigenvalues          :     -1878.42563256    
 electron kinetic            :      3280.76461034    
 core electron kinetic       :      3233.48663335    
 Coulomb                     :     -6355.31196086    
 Coulomb potential           :     -5018.02226409    
 nuclear-nuclear             :     -266.512069576    
 electron-nuclear            :     -7159.57751848    
 Hartree                     :      1070.77762719    
 Madelung                    :     -3846.30082882    
 xc potential                :     -141.167978811    
 exchange                    :     -104.477917232    
 correlation                 :     -1.89507712259    
 total energy                :     -3180.92034487    
 
Density of states at Fermi energy :    57.60474727    
 (states/Hartree/unit cell)
 
Estimated indirect band gap :   0.2279128614E-03
 from k-point    161 to k-point    106
Estimated direct band gap   :   0.5136172569E-02
 at k-point     67
 
Charges :
 core                        :    28.00000000    
 valence                     :    10.00000000    
 interstitial                :    2.078399962    
 muffin-tins (core leakage)
  species :    1 (Sr)
   atom    1                 :    35.92160004     (  0.2877962874E-04)
 total in muffin-tins        :    35.92160004    
 total calculated charge     :    37.99997090    
 total charge                :    38.00000000    
 error                       :   0.2909987210E-04
 
RMS change in Kohn-Sham potential (target) :   0.2500049437E-04 (   10.00000000    )
Absolute change in total energy (target)   :   0.7012331480E-06 (  0.1000000000E-07)
 
Time (CPU seconds) :       576.39
 
+--------------------+
| Loop number :   26 |
+--------------------+
 
Energies :
 Fermi                       :     0.173751485691    
 sum of eigenvalues          :     -1878.42563282    
 electron kinetic            :      3280.76461144    
 core electron kinetic       :      3233.48663493    
 Coulomb                     :     -6355.31196153    
 Coulomb potential           :     -5018.02226543    
 nuclear-nuclear             :     -266.512069576    
 electron-nuclear            :     -7159.57751848    
 Hartree                     :      1070.77762652    
 Madelung                    :     -3846.30082882    
 xc potential                :     -141.167978824    
 exchange                    :     -104.477917241    
 correlation                 :     -1.89507712209    
 total energy                :     -3180.92034446    
 
Density of states at Fermi energy :    57.60476877    
 (states/Hartree/unit cell)
 
Estimated indirect band gap :   0.2279119376E-03
 from k-point    161 to k-point    106
Estimated direct band gap   :   0.5136172509E-02
 at k-point     67
 
Charges :
 core                        :    28.00000000    
 valence                     :    10.00000000    
 interstitial                :    2.078399995    
 muffin-tins (core leakage)
  species :    1 (Sr)
   atom    1                 :    35.92160001     (  0.2877973503E-04)
 total in muffin-tins        :    35.92160001    
 total calculated charge     :    37.99997090    
 total charge                :    38.00000000    
 error                       :   0.2909993822E-04
 
Wrote STATE.OUT
 
RMS change in Kohn-Sham potential (target) :   0.7457794256E-04 (   10.00000000    )
Absolute change in total energy (target)   :   0.5894958122E-06 (  0.1000000000E-07)
 
Time (CPU seconds) :       598.11
 
+--------------------+
| Loop number :   27 |
+--------------------+
 
Energies :
 Fermi                       :     0.173751486317    
 sum of eigenvalues          :     -1878.42563302    
 electron kinetic            :      3280.76461123    
 core electron kinetic       :      3233.48663485    
 Coulomb                     :     -6355.31196153    
 Coulomb potential           :     -5018.02226542    
 nuclear-nuclear             :     -266.512069576    
 electron-nuclear            :     -7159.57751848    
 Hartree                     :      1070.77762653    
 Madelung                    :     -3846.30082882    
 xc potential                :     -141.167978826    
 exchange                    :     -104.477917241    
 correlation                 :     -1.89507712229    
 total energy                :     -3180.92034466    
 
Density of states at Fermi energy :    57.60475765    
 (states/Hartree/unit cell)
 
Estimated indirect band gap :   0.2279124134E-03
 from k-point    161 to k-point    106
Estimated direct band gap   :   0.5136172683E-02
 at k-point     67
 
Charges :
 core                        :    28.00000000    
 valence                     :    10.00000000    
 interstitial                :    2.078399992    
 muffin-tins (core leakage)
  species :    1 (Sr)
   atom    1                 :    35.92160001     (  0.2877954149E-04)
 total in muffin-tins        :    35.92160001    
 total calculated charge     :    37.99997090    
 total charge                :    38.00000000    
 error                       :   0.2909977982E-04
 
RMS change in Kohn-Sham potential (target) :   0.1125726946E-03 (   10.00000000    )
Absolute change in total energy (target)   :   0.5582296581E-07 (  0.1000000000E-07)
 
Time (CPU seconds) :       619.54
 
+--------------------+
| Loop number :   28 |
+--------------------+
 
Energies :
 Fermi                       :     0.173751488241    
 sum of eigenvalues          :     -1878.42563305    
 electron kinetic            :      3280.76461125    
 core electron kinetic       :      3233.48663482    
 Coulomb                     :     -6355.31196156    
 Coulomb potential           :     -5018.02226548    
 nuclear-nuclear             :     -266.512069576    
 electron-nuclear            :     -7159.57751848    
 Hartree                     :      1070.77762650    
 Madelung                    :     -3846.30082882    
 xc potential                :     -141.167978829    
 exchange                    :     -104.477917244    
 correlation                 :     -1.89507712194    
 total energy                :     -3180.92034467    
 
Density of states at Fermi energy :    57.60475044    
 (states/Hartree/unit cell)
 
Estimated indirect band gap :   0.2279127063E-03
 from k-point    161 to k-point    106
Estimated direct band gap   :   0.5136172830E-02
 at k-point     67
 
Charges :
 core                        :    28.00000000    
 valence                     :    10.00000000    
 interstitial                :    2.078399991    
 muffin-tins (core leakage)
  species :    1 (Sr)
   atom    1                 :    35.92160001     (  0.2877956685E-04)
 total in muffin-tins        :    35.92160001    
 total calculated charge     :    37.99997090    
 total charge                :    38.00000000    
 error                       :   0.2909980689E-04
 
Wrote STATE.OUT
 
RMS change in Kohn-Sham potential (target) :   0.5496927512E-04 (   10.00000000    )
Absolute change in total energy (target)   :   0.1916941983E-07 (  0.1000000000E-07)
 
Time (CPU seconds) :       641.10
 
+--------------------+
| Loop number :   29 |
+--------------------+
 
Energies :
 Fermi                       :     0.173751480555    
 sum of eigenvalues          :     -1878.42563302    
 electron kinetic            :      3280.76461132    
 core electron kinetic       :      3233.48663494    
 Coulomb                     :     -6355.31196157    
 Coulomb potential           :     -5018.02226552    
 nuclear-nuclear             :     -266.512069576    
 electron-nuclear            :     -7159.57751848    
 Hartree                     :      1070.77762648    
 Madelung                    :     -3846.30082882    
 xc potential                :     -141.167978826    
 exchange                    :     -104.477917243    
 correlation                 :     -1.89507712221    
 total energy                :     -3180.92034462    
 
Density of states at Fermi energy :    57.60478076    
 (states/Hartree/unit cell)
 
Estimated indirect band gap :   0.2279115149E-03
 from k-point    161 to k-point    106
Estimated direct band gap   :   0.5136172186E-02
 at k-point     67
 
Charges :
 core                        :    28.00000000    
 valence                     :    10.00000000    
 interstitial                :    2.078399996    
 muffin-tins (core leakage)
  species :    1 (Sr)
   atom    1                 :    35.92160000     (  0.2877967929E-04)
 total in muffin-tins        :    35.92160000    
 total calculated charge     :    37.99997090    
 total charge                :    38.00000000    
 error                       :   0.2909989247E-04
 
RMS change in Kohn-Sham potential (target) :   0.1111034899E-04 (   10.00000000    )
Absolute change in total energy (target)   :   0.4440698831E-07 (  0.1000000000E-07)
 
Time (CPU seconds) :       662.59
 
+--------------------+
| Loop number :   30 |
+--------------------+
 
Energies :
 Fermi                       :     0.173751473710    
 sum of eigenvalues          :     -1878.42563316    
 electron kinetic            :      3280.76461161    
 core electron kinetic       :      3233.48663543    
 Coulomb                     :     -6355.31196178    
 Coulomb potential           :     -5018.02226594    
 nuclear-nuclear             :     -266.512069576    
 electron-nuclear            :     -7159.57751848    
 Hartree                     :      1070.77762627    
 Madelung                    :     -3846.30082882    
 xc potential                :     -141.167978831    
 exchange                    :     -104.477917248    
 correlation                 :     -1.89507712180    
 total energy                :     -3180.92034455    
 
Density of states at Fermi energy :    57.60479860    
 (states/Hartree/unit cell)
 
Estimated indirect band gap :   0.2279108077E-03
 from k-point    161 to k-point    106
Estimated direct band gap   :   0.5136171886E-02
 at k-point     67
 
Charges :
 core                        :    28.00000000    
 valence                     :    10.00000000    
 interstitial                :    2.078400007    
 muffin-tins (core leakage)
  species :    1 (Sr)
   atom    1                 :    35.92159999     (  0.2877956780E-04)
 total in muffin-tins        :    35.92159999    
 total calculated charge     :    37.99997090    
 total charge                :    38.00000000    
 error                       :   0.2909975951E-04
 
Wrote STATE.OUT
 
RMS change in Kohn-Sham potential (target) :   0.4322650637E-04 (   10.00000000    )
Absolute change in total energy (target)   :   0.8278129826E-07 (  0.1000000000E-07)
 
Time (CPU seconds) :       684.11
 
+--------------------+
| Loop number :   31 |
+--------------------+
 
Energies :
 Fermi                       :     0.173751471934    
 sum of eigenvalues          :     -1878.42563326    
 electron kinetic            :      3280.76461168    
 core electron kinetic       :      3233.48663559    
 Coulomb                     :     -6355.31196251    
 Coulomb potential           :     -5018.02226611    
 nuclear-nuclear             :     -266.512069576    
 electron-nuclear            :     -7159.57751976    
 Hartree                     :      1070.77762683    
 Madelung                    :     -3846.30082946    
 xc potential                :     -141.167978831    
 exchange                    :     -104.477917247    
 correlation                 :     -1.89507712198    
 total energy                :     -3180.92034520    
 
Density of states at Fermi energy :    57.60479813    
 (states/Hartree/unit cell)
 
Estimated indirect band gap :   0.2279108213E-03
 from k-point    161 to k-point    106
Estimated direct band gap   :   0.5136171928E-02
 at k-point     67
 
Charges :
 core                        :    28.00000000    
 valence                     :    10.00000000    
 interstitial                :    2.078400010    
 muffin-tins (core leakage)
  species :    1 (Sr)
   atom    1                 :    35.92159999     (  0.2877973155E-04)
 total in muffin-tins        :    35.92159999    
 total calculated charge     :    37.99997090    
 total charge                :    38.00000000    
 error                       :   0.2909996151E-04
 
RMS change in Kohn-Sham potential (target) :   0.2969439174E-04 (   10.00000000    )
Absolute change in total energy (target)   :   0.6288501027E-06 (  0.1000000000E-07)
 
Time (CPU seconds) :       705.74
 
+--------------------+
| Loop number :   32 |
+--------------------+
 
Energies :
 Fermi                       :     0.173751470917    
 sum of eigenvalues          :     -1878.42563332    
 electron kinetic            :      3280.76461160    
 core electron kinetic       :      3233.48663558    
 Coulomb                     :     -6355.31196250    
 Coulomb potential           :     -5018.02226609    
 nuclear-nuclear             :     -266.512069576    
 electron-nuclear            :     -7159.57751976    
 Hartree                     :      1070.77762683    
 Madelung                    :     -3846.30082946    
 xc potential                :     -141.167978832    
 exchange                    :     -104.477917247    
 correlation                 :     -1.89507712204    
 total energy                :     -3180.92034527    
 
Density of states at Fermi energy :    57.60479845    
 (states/Hartree/unit cell)
 
Estimated indirect band gap :   0.2279108167E-03
 from k-point    161 to k-point    106
Estimated direct band gap   :   0.5136171909E-02
 at k-point     67
 
Charges :
 core                        :    28.00000000    
 valence                     :    10.00000000    
 interstitial                :    2.078400011    
 muffin-tins (core leakage)
  species :    1 (Sr)
   atom    1                 :    35.92159999     (  0.2877955551E-04)
 total in muffin-tins        :    35.92159999    
 total calculated charge     :    37.99997090    
 total charge                :    38.00000000    
 error                       :   0.2909974562E-04
 
Wrote STATE.OUT
 
RMS change in Kohn-Sham potential (target) :   0.1441277060E-04 (   10.00000000    )
Absolute change in total energy (target)   :   0.2298861546E-06 (  0.1000000000E-07)
 
Time (CPU seconds) :       727.10
 
+--------------------+
| Loop number :   33 |
+--------------------+
 
Energies :
 Fermi                       :     0.173751468778    
 sum of eigenvalues          :     -1878.42563338    
 electron kinetic            :      3280.76461162    
 core electron kinetic       :      3233.48663550    
 Coulomb                     :     -6355.31196254    
 Coulomb potential           :     -5018.02226616    
 nuclear-nuclear             :     -266.512069576    
 electron-nuclear            :     -7159.57751976    
 Hartree                     :      1070.77762680    
 Madelung                    :     -3846.30082946    
 xc potential                :     -141.167978832    
 exchange                    :     -104.477917249    
 correlation                 :     -1.89507712155    
 total energy                :     -3180.92034529    
 
Density of states at Fermi energy :    57.60480351    
 (states/Hartree/unit cell)
 
Estimated indirect band gap :   0.2279106201E-03
 from k-point    161 to k-point    106
Estimated direct band gap   :   0.5136171803E-02
 at k-point     67
 
Charges :
 core                        :    28.00000000    
 valence                     :    10.00000000    
 interstitial                :    2.078400012    
 muffin-tins (core leakage)
  species :    1 (Sr)
   atom    1                 :    35.92159999     (  0.2877970868E-04)
 total in muffin-tins        :    35.92159999    
 total calculated charge     :    37.99997090    
 total charge                :    38.00000000    
 error                       :   0.2909993211E-04
 
RMS change in Kohn-Sham potential (target) :   0.3533983059E-03 (   10.00000000    )
Absolute change in total energy (target)   :   0.7548806025E-07 (  0.1000000000E-07)
 
Time (CPU seconds) :       748.71
 
+--------------------+
| Loop number :   34 |
+--------------------+
 
Energies :
 Fermi                       :     0.173751474760    
 sum of eigenvalues          :     -1878.42563324    
 electron kinetic            :      3280.76461145    
 core electron kinetic       :      3233.48663539    
 Coulomb                     :     -6355.31196175    
 Coulomb potential           :     -5018.02226586    
 nuclear-nuclear             :     -266.512069576    
 electron-nuclear            :     -7159.57751848    
 Hartree                     :      1070.77762631    
 Madelung                    :     -3846.30082882    
 xc potential                :     -141.167978829    
 exchange                    :     -104.477917246    
 correlation                 :     -1.89507712169    
 total energy                :     -3180.92034467    
 
Density of states at Fermi energy :    57.60478747    
 (states/Hartree/unit cell)
 
Estimated indirect band gap :   0.2279112486E-03
 from k-point    161 to k-point    106
Estimated direct band gap   :   0.5136172098E-02
 at k-point     67
 
Charges :
 core                        :    28.00000000    
 valence                     :    10.00000000    
 interstitial                :    2.078400004    
 muffin-tins (core leakage)
  species :    1 (Sr)
   atom    1                 :    35.92160000     (  0.2877980055E-04)
 total in muffin-tins        :    35.92160000    
 total calculated charge     :    37.99997090    
 total charge                :    38.00000000    
 error                       :   0.2909999836E-04
 
Wrote STATE.OUT
 
RMS change in Kohn-Sham potential (target) :   0.6627951453E-04 (   10.00000000    )
Absolute change in total energy (target)   :   0.6015584404E-06 (  0.1000000000E-07)
 
Time (CPU seconds) :       770.19
 
+--------------------+
| Loop number :   35 |
+--------------------+
 
Energies :
 Fermi                       :     0.173751468156    
 sum of eigenvalues          :     -1878.42563341    
 electron kinetic            :      3280.76461160    
 core electron kinetic       :      3233.48663564    
 Coulomb                     :     -6355.31196255    
 Coulomb potential           :     -5018.02226618    
 nuclear-nuclear             :     -266.512069576    
 electron-nuclear            :     -7159.57751976    
 Hartree                     :      1070.77762679    
 Madelung                    :     -3846.30082946    
 xc potential                :     -141.167978832    
 exchange                    :     -104.477917248    
 correlation                 :     -1.89507712173    
 total energy                :     -3180.92034531    
 
Density of states at Fermi energy :    57.60480310    
 (states/Hartree/unit cell)
 
Estimated indirect band gap :   0.2279106376E-03
 from k-point    161 to k-point    106
Estimated direct band gap   :   0.5136171804E-02
 at k-point     67
 
Charges :
 core                        :    28.00000000    
 valence                     :    10.00000000    
 interstitial                :    2.078400012    
 muffin-tins (core leakage)
  species :    1 (Sr)
   atom    1                 :    35.92159999     (  0.2877973564E-04)
 total in muffin-tins        :    35.92159999    
 total calculated charge     :    37.99997090    
 total charge                :    38.00000000    
 error                       :   0.2909995425E-04
 
RMS change in Kohn-Sham potential (target) :   0.8455364120E-04 (   10.00000000    )
Absolute change in total energy (target)   :   0.4949697541E-06 (  0.1000000000E-07)
 
Time (CPU seconds) :       791.67
 
+--------------------+
| Loop number :   36 |
+--------------------+
 
Energies :
 Fermi                       :     0.173751466437    
 sum of eigenvalues          :     -1878.42563344    
 electron kinetic            :      3280.76461159    
 core electron kinetic       :      3233.48663570    
 Coulomb                     :     -6355.31196256    
 Coulomb potential           :     -5018.02226620    
 nuclear-nuclear             :     -266.512069576    
 electron-nuclear            :     -7159.57751976    
 Hartree                     :      1070.77762678    
 Madelung                    :     -3846.30082946    
 xc potential                :     -141.167978833    
 exchange                    :     -104.477917247    
 correlation                 :     -1.89507712220    
 total energy                :     -3180.92034533    
 
Density of states at Fermi energy :    57.60480850    
 (states/Hartree/unit cell)
 
Estimated indirect band gap :   0.2279104284E-03
 from k-point    161 to k-point    106
Estimated direct band gap   :   0.5136171691E-02
 at k-point     67
 
Charges :
 core                        :    28.00000000    
 valence                     :    10.00000000    
 interstitial                :    2.078400014    
 muffin-tins (core leakage)
  species :    1 (Sr)
   atom    1                 :    35.92159999     (  0.2877956837E-04)
 total in muffin-tins        :    35.92159999    
 total calculated charge     :    37.99997090    
 total charge                :    38.00000000    
 error                       :   0.2909976688E-04
 
Wrote STATE.OUT
 
RMS change in Kohn-Sham potential (target) :   0.2427351365E-03 (   10.00000000    )
Absolute change in total energy (target)   :   0.1429989425E-06 (  0.1000000000E-07)
 
Time (CPU seconds) :       813.00
 
+--------------------+
| Loop number :   37 |
+--------------------+
 
Energies :
 Fermi                       :     0.173751463998    
 sum of eigenvalues          :     -1878.42563352    
 electron kinetic            :      3280.76461156    
 core electron kinetic       :      3233.48663576    
 Coulomb                     :     -6355.31196258    
 Coulomb potential           :     -5018.02226625    
 nuclear-nuclear             :     -266.512069576    
 electron-nuclear            :     -7159.57751976    
 Hartree                     :      1070.77762676    
 Madelung                    :     -3846.30082946    
 xc potential                :     -141.167978834    
 exchange                    :     -104.477917250    
 correlation                 :     -1.89507712154    
 total energy                :     -3180.92034539    
 
Density of states at Fermi energy :    57.60481356    
 (states/Hartree/unit cell)
 
Estimated indirect band gap :   0.2279102367E-03
 from k-point    161 to k-point    106
Estimated direct band gap   :   0.5136171579E-02
 at k-point     67
 
Charges :
 core                        :    28.00000000    
 valence                     :    10.00000000    
 interstitial                :    2.078400016    
 muffin-tins (core leakage)
  species :    1 (Sr)
   atom    1                 :    35.92159998     (  0.2877969201E-04)
 total in muffin-tins        :    35.92159998    
 total calculated charge     :    37.99997090    
 total charge                :    38.00000000    
 error                       :   0.2909988066E-04
 
RMS change in Kohn-Sham potential (target) :   0.1767581380E-03 (   10.00000000    )
Absolute change in total energy (target)   :   0.9029554349E-07 (  0.1000000000E-07)
 
Time (CPU seconds) :       834.48
 
+--------------------+
| Loop number :   38 |
+--------------------+
 
Energies :
 Fermi                       :     0.173751461043    
 sum of eigenvalues          :     -1878.42563359    
 electron kinetic            :      3280.76461163    
 core electron kinetic       :      3233.48663579    
 Coulomb                     :     -6355.31196329    
 Coulomb potential           :     -5018.02226639    
 nuclear-nuclear             :     -266.512069576    
 electron-nuclear            :     -7159.57752104    
 Hartree                     :      1070.77762732    
 Madelung                    :     -3846.30083009    
 xc potential                :     -141.167978835    
 exchange                    :     -104.477917251    
 correlation                 :     -1.89507712164    
 total energy                :     -3180.92034603    
 
Density of states at Fermi energy :    57.60482048    
 (states/Hartree/unit cell)
 
Estimated indirect band gap :   0.2279099735E-03
 from k-point    161 to k-point    106
Estimated direct band gap   :   0.5136171425E-02
 at k-point     67
 
Charges :
 core                        :    28.00000000    
 valence                     :    10.00000000    
 interstitial                :    2.078400018    
 muffin-tins (core leakage)
  species :    1 (Sr)
   atom    1                 :    35.92159998     (  0.2877970604E-04)
 total in muffin-tins        :    35.92159998    
 total calculated charge     :    37.99997090    
 total charge                :    38.00000000    
 error                       :   0.2909992637E-04
 
Wrote STATE.OUT
 
RMS change in Kohn-Sham potential (target) :   0.1538335232E-03 (   10.00000000    )
Absolute change in total energy (target)   :   0.6662085070E-06 (  0.1000000000E-07)
 
Time (CPU seconds) :       855.91
 
+--------------------+
| Loop number :   39 |
+--------------------+
 
Energies :
 Fermi                       :     0.173751463145    
 sum of eigenvalues          :     -1878.42563353    
 electron kinetic            :      3280.76461163    
 core electron kinetic       :      3233.48663576    
 Coulomb                     :     -6355.31196326    
 Coulomb potential           :     -5018.02226632    
 nuclear-nuclear             :     -266.512069576    
 electron-nuclear            :     -7159.57752104    
 Hartree                     :      1070.77762736    
 Madelung                    :     -3846.30083009    
 xc potential                :     -141.167978835    
 exchange                    :     -104.477917251    
 correlation                 :     -1.89507712166    
 total energy                :     -3180.92034600    
 
Density of states at Fermi energy :    57.60481586    
 (states/Hartree/unit cell)
 
Estimated indirect band gap :   0.2279101526E-03
 from k-point    161 to k-point    106
Estimated direct band gap   :   0.5136171515E-02
 at k-point     67
 
Charges :
 core                        :    28.00000000    
 valence                     :    10.00000000    
 interstitial                :    2.078400015    
 muffin-tins (core leakage)
  species :    1 (Sr)
   atom    1                 :    35.92159998     (  0.2877970000E-04)
 total in muffin-tins        :    35.92159998    
 total calculated charge     :    37.99997090    
 total charge                :    38.00000000    
 error                       :   0.2909994169E-04
 
RMS change in Kohn-Sham potential (target) :   0.1610482251E-03 (   10.00000000    )
Absolute change in total energy (target)   :   0.1374087333E-06 (  0.1000000000E-07)
 
Time (CPU seconds) :       877.32
 
+--------------------+
| Loop number :   40 |
+--------------------+
 
Energies :
 Fermi                       :     0.173751463244    
 sum of eigenvalues          :     -1878.42563353    
 electron kinetic            :      3280.76461152    
 core electron kinetic       :      3233.48663569    
 Coulomb                     :     -6355.31196256    
 Coulomb potential           :     -5018.02226621    
 nuclear-nuclear             :     -266.512069576    
 electron-nuclear            :     -7159.57751976    
 Hartree                     :      1070.77762677    
 Madelung                    :     -3846.30082946    
 xc potential                :     -141.167978833    
 exchange                    :     -104.477917248    
 correlation                 :     -1.89507712187    
 total energy                :     -3180.92034542    
 
Density of states at Fermi energy :    57.60481561    
 (states/Hartree/unit cell)
 
Estimated indirect band gap :   0.2279101630E-03
 from k-point    161 to k-point    106
Estimated direct band gap   :   0.5136171520E-02
 at k-point     67
 
Charges :
 core                        :    28.00000000    
 valence                     :    10.00000000    
 interstitial                :    2.078400015    
 muffin-tins (core leakage)
  species :    1 (Sr)
   atom    1                 :    35.92159998     (  0.2877979028E-04)
 total in muffin-tins        :    35.92159998    
 total calculated charge     :    37.99997090    
 total charge                :    38.00000000    
 error                       :   0.2909997608E-04
 
Wrote STATE.OUT
 
RMS change in Kohn-Sham potential (target) :   0.2307095396E-03 (   10.00000000    )
Absolute change in total energy (target)   :   0.5487499948E-06 (  0.1000000000E-07)
 
Time (CPU seconds) :       899.09
 
+--------------------+
| Loop number :   41 |
+--------------------+
 
Energies :
 Fermi                       :     0.173751460956    
 sum of eigenvalues          :     -1878.42563360    
 electron kinetic            :      3280.76461154    
 core electron kinetic       :      3233.48663575    
 Coulomb                     :     -6355.31196261    
 Coulomb potential           :     -5018.02226630    
 nuclear-nuclear             :     -266.512069576    
 electron-nuclear            :     -7159.57751976    
 Hartree                     :      1070.77762673    
 Madelung                    :     -3846.30082946    
 xc potential                :     -141.167978835    
 exchange                    :     -104.477917251    
 correlation                 :     -1.89507712165    
 total energy                :     -3180.92034544    
 
Density of states at Fermi energy :    57.60482062    
 (states/Hartree/unit cell)
 
Estimated indirect band gap :   0.2279099699E-03
 from k-point    161 to k-point    106
Estimated direct band gap   :   0.5136171416E-02
 at k-point     67
 
Charges :
 core                        :    28.00000000    
 valence                     :    10.00000000    
 interstitial                :    2.078400017    
 muffin-tins (core leakage)
  species :    1 (Sr)
   atom    1                 :    35.92159998     (  0.2877953119E-04)
 total in muffin-tins        :    35.92159998    
 total calculated charge     :    37.99997090    
 total charge                :    38.00000000    
 error                       :   0.2909977375E-04
 
RMS change in Kohn-Sham potential (target) :   0.6682220261E-04 (   10.00000000    )
Absolute change in total energy (target)   :   0.1131606950E-06 (  0.1000000000E-07)
 
Time (CPU seconds) :       920.31
 
+--------------------+
| Loop number :   42 |
+--------------------+
 
Energies :
 Fermi                       :     0.173751461040    
 sum of eigenvalues          :     -1878.42563359    
 electron kinetic            :      3280.76461159    
 core electron kinetic       :      3233.48663577    
 Coulomb                     :     -6355.31196263    
 Coulomb potential           :     -5018.02226634    
 nuclear-nuclear             :     -266.512069576    
 electron-nuclear            :     -7159.57751976    
 Hartree                     :      1070.77762671    
 Madelung                    :     -3846.30082946    
 xc potential                :     -141.167978834    
 exchange                    :     -104.477917248    
 correlation                 :     -1.89507712218    
 total energy                :     -3180.92034541    
 
Density of states at Fermi energy :    57.60482034    
 (states/Hartree/unit cell)
 
Estimated indirect band gap :   0.2279099829E-03
 from k-point    161 to k-point    106
Estimated direct band gap   :   0.5136171418E-02
 at k-point     67
 
Charges :
 core                        :    28.00000000    
 valence                     :    10.00000000    
 interstitial                :    2.078400017    
 muffin-tins (core leakage)
  species :    1 (Sr)
   atom    1                 :    35.92159998     (  0.2877973340E-04)
 total in muffin-tins        :    35.92159998    
 total calculated charge     :    37.99997090    
 total charge                :    38.00000000    
 error                       :   0.2909992401E-04
 
Wrote STATE.OUT
 
RMS change in Kohn-Sham potential (target) :   0.3254459412E-04 (   10.00000000    )
Absolute change in total energy (target)   :   0.6253321772E-07 (  0.1000000000E-07)
 
Time (CPU seconds) :       941.65
 
+--------------------+
| Loop number :   43 |
+--------------------+
 
Energies :
 Fermi                       :     0.173751461129    
 sum of eigenvalues          :     -1878.42563360    
 electron kinetic            :      3280.76461150    
 core electron kinetic       :      3233.48663571    
 Coulomb                     :     -6355.31196259    
 Coulomb potential           :     -5018.02226626    
 nuclear-nuclear             :     -266.512069576    
 electron-nuclear            :     -7159.57751976    
 Hartree                     :      1070.77762675    
 Madelung                    :     -3846.30082946    
 xc potential                :     -141.167978835    
 exchange                    :     -104.477917249    
 correlation                 :     -1.89507712201    
 total energy                :     -3180.92034546    
 
Density of states at Fermi energy :    57.60482007    
 (states/Hartree/unit cell)
 
Estimated indirect band gap :   0.2279099939E-03
 from k-point    161 to k-point    106
Estimated direct band gap   :   0.5136171421E-02
 at k-point     67
 
Charges :
 core                        :    28.00000000    
 valence                     :    10.00000000    
 interstitial                :    2.078400017    
 muffin-tins (core leakage)
  species :    1 (Sr)
   atom    1                 :    35.92159998     (  0.2877950655E-04)
 total in muffin-tins        :    35.92159998    
 total calculated charge     :    37.99997090    
 total charge                :    38.00000000    
 error                       :   0.2909972321E-04
 
RMS change in Kohn-Sham potential (target) :   0.1462065846E-04 (   10.00000000    )
Absolute change in total energy (target)   :   0.3501190804E-07 (  0.1000000000E-07)
 
Time (CPU seconds) :       962.98
 
+--------------------+
| Loop number :   44 |
+--------------------+
 
Energies :
 Fermi                       :     0.173751460985    
 sum of eigenvalues          :     -1878.42563360    
 electron kinetic            :      3280.76461151    
 core electron kinetic       :      3233.48663571    
 Coulomb                     :     -6355.31196259    
 Coulomb potential           :     -5018.02226627    
 nuclear-nuclear             :     -266.512069576    
 electron-nuclear            :     -7159.57751976    
 Hartree                     :      1070.77762674    
 Madelung                    :     -3846.30082946    
 xc potential                :     -141.167978833    
 exchange                    :     -104.477917248    
 correlation                 :     -1.89507712198    
 total energy                :     -3180.92034545    
 
Density of states at Fermi energy :    57.60482032    
 (states/Hartree/unit cell)
 
Estimated indirect band gap :   0.2279099842E-03
 from k-point    161 to k-point    106
Estimated direct band gap   :   0.5136171415E-02
 at k-point     67
 
Charges :
 core                        :    28.00000000    
 valence                     :    10.00000000    
 interstitial                :    2.078400017    
 muffin-tins (core leakage)
  species :    1 (Sr)
   atom    1                 :    35.92159998     (  0.2877972121E-04)
 total in muffin-tins        :    35.92159998    
 total calculated charge     :    37.99997090    
 total charge                :    38.00000000    
 error                       :   0.2909995992E-04
 
Wrote STATE.OUT
 
RMS change in Kohn-Sham potential (target) :   0.8473695371E-04 (   10.00000000    )
Absolute change in total energy (target)   :   0.5024958227E-08 (  0.1000000000E-07)
 
Convergence targets achieved
 
Time (CPU seconds) :       984.20
 
+--------------------+
| Loop number :   45 |
+--------------------+
 
Energies :
 Fermi                       :     0.173751460705    
 sum of eigenvalues          :     -1878.42563361    
 electron kinetic            :      3280.76461153    
 core electron kinetic       :      3233.48663573    
 Coulomb                     :     -6355.31196261    
 Coulomb potential           :     -5018.02226631    
 nuclear-nuclear             :     -266.512069576    
 electron-nuclear            :     -7159.57751976    
 Hartree                     :      1070.77762673    
 Madelung                    :     -3846.30082946    
 xc potential                :     -141.167978834    
 exchange                    :     -104.477917251    
 correlation                 :     -1.89507712139    
 total energy                :     -3180.92034545    
 
Density of states at Fermi energy :    57.60482090    
 (states/Hartree/unit cell)
 
Estimated indirect band gap :   0.2279099635E-03
 from k-point    161 to k-point    106
Estimated direct band gap   :   0.5136171401E-02
 at k-point     67
 
Charges :
 core                        :    28.00000000    
 valence                     :    10.00000000    
 interstitial                :    2.078400017    
 muffin-tins (core leakage)
  species :    1 (Sr)
   atom    1                 :    35.92159998     (  0.2877979619E-04)
 total in muffin-tins        :    35.92159998    
 total calculated charge     :    37.99997090    
 total charge                :    38.00000000    
 error                       :   0.2910000151E-04
 
+------------------------------+
| Self-consistent loop stopped |
+------------------------------+
 
Wrote STATE.OUT
 
Timings (CPU seconds) :
 initialisation                        :         2.96
 Hamiltonian and overlap matrix set up :       257.30
 first-variational eigenvalue equation :       319.85
 charge density calculation            :        50.34
 potential calculation                 :       374.98
 total                                 :      1005.42
 
+----------------------------+
| Elk version 8.3.15 stopped |
+----------------------------+
