   4.861913831    
   15.75590617    
   106.3754519    
   108.4045917    
   62.98851268    
   30.35713583    
   7.309724404    
   1.847903816    
  0.4396798139    
  0.1074147029    
  0.2685042977E-01
  0.8011208884E-02
  0.2974409108E-02
  0.9392371139E-03
  0.2661018952E-03
  0.8358187915E-04
  0.4310219083E-04
  0.3961333277E-04
  0.5016385694E-04
  0.1901003998E-05
  0.1656000677E-05
  0.4860456102E-05
  0.3327324521E-05
  0.4940913641E-05
  0.1822234481E-05
  0.7673821528E-05
  0.3669410944E-06
  0.1378386514E-05
  0.2499291440E-07
  0.6390473573E-07
  0.2879532985E-06
  0.3760869731E-06
  0.3012391971E-06
  0.2287270036E-06
  0.3551540431E-06
  0.5141191650E-07
  0.2266315278E-06
  0.3242894309E-06
  0.1342414180E-06
  0.3834647941E-06
  0.5248875823E-06
  0.2545202733E-06
  0.2376691555E-06
  0.5844703992E-06
  0.4586909199E-06
  0.3040477168E-06
  0.2710148692E-06
  0.2816595952E-06
  0.4796820576E-06
  0.4215471563E-06
  0.4858302418E-06
  0.4146422725E-06
  0.4762478056E-06
  0.3119930625E-06
  0.2781744115E-06
  0.3237000783E-06
  0.2640881576E-06
  0.3968016244E-06
  0.1712178346E-06
  0.2037850209E-06
  0.1594526111E-06
  0.3533714334E-06
  0.5269830581E-06
  0.3796667443E-06
  0.1032094588E-06
  0.3515669960E-06
  0.3029126674E-06
  0.1032822183E-06
  0.2402812243E-06
  0.2043234417E-06
  0.1922308002E-06
  0.3026070772E-07
  0.1998560037E-06
  0.2867018338E-06
  0.4850662663E-06
  0.3135064617E-06
  0.2767774276E-06
  0.2589076757E-06
  0.1731241355E-06
  0.2882006811E-06
  0.2132073860E-06
  0.5160181900E-06
  0.1900334610E-06
  0.9583163774E-07
  0.3371751518E-06
  0.2518572728E-06
  0.1317457645E-06
  0.2714368748E-06
  0.3040186130E-06
  0.2274173312E-06
  0.5423644325E-06
  0.2746528480E-06
  0.1712542144E-06
  0.3041059244E-06
  0.3351742635E-06
  0.5441688700E-07
  0.1779262675E-06
  0.3981549526E-06
  0.2797460184E-06
  0.2569649951E-06
  0.8821371011E-07
  0.3259483492E-06
  0.4480098141E-06
  0.2764936653E-06
  0.4224420991E-07
  0.1859298209E-06
  0.2343076630E-06
  0.5483307177E-06
  0.4872708814E-06
  0.4786415957E-06
  0.3751192708E-06
  0.4819230526E-06
  0.5100955605E-06
  0.3205859684E-06
  0.2613451215E-06
  0.2325032256E-06
  0.2864908311E-06
  0.3006061888E-06
  0.3427267075E-06
  0.2153974492E-06
  0.2865126589E-06
  0.2015294740E-06
  0.4583125701E-06
  0.2746965038E-06
  0.1955922926E-06
  0.3337045200E-06
  0.4388784873E-06
  0.1969747245E-06
  0.4494722816E-06
  0.4474350135E-06
  0.1778389560E-06
  0.3927561920E-06
  0.4964749678E-06
  0.3674213076E-06
  0.4342364264E-06
  0.4078465281E-06
  0.4013854777E-06
  0.2176820999E-06
  0.3801105777E-06
  0.1824228093E-06
  0.1196167432E-06
  0.1427761163E-06
  0.2467641025E-06
  0.3517052392E-06
  0.3187451512E-06
  0.2669694368E-06
  0.2589295036E-06
  0.2241504262E-06
  0.2476590453E-06
  0.2623783075E-06
  0.1827866072E-06
  0.5674373824E-06
  0.3058230504E-06
  0.4569737939E-06
  0.4077883204E-06
  0.2304514055E-06
  0.1195148798E-06
  0.3711902536E-06
  0.3566383384E-06
  0.1417356543E-07
  0.3566747182E-06
  0.3233071766E-06
  0.2763335942E-06
  0.2824453986E-06
  0.2722517820E-06
  0.2069064067E-06
  0.2983579179E-06
  0.3843160812E-07
  0.2512169885E-06
  0.4576068022E-06
  0.3638560884E-06
  0.2908200258E-07
  0.2408341970E-07
  0.2248780220E-06
  0.3002351150E-06
  0.3981258487E-06
  0.1286243787E-06
  0.1304069883E-06
  0.5127367331E-07
  0.1272492227E-06
  0.2833767212E-06
  0.5583497114E-06
  0.3506575013E-06
  0.2490633051E-06
  0.3549794201E-06
  0.1694643288E-06
  0.1920489012E-06
  0.1493390300E-06
  0.3599925549E-06
  0.3517634468E-06
  0.3084860509E-06
  0.2907763701E-06
  0.2645465429E-06
  0.3614841262E-06
  0.6992195267E-07
  0.1615480869E-06
  0.3381137503E-06
  0.2612432581E-06
