   27.55275690    
   27.50209957    
   24.28220846    
   18.51538488    
   15.43636518    
   14.51387656    
   14.22392870    
   14.16853169    
   14.12505823    
   14.12149169    
   14.11925166    
   14.11852463    
   14.11777562    
   14.11776871    
   14.11777391    
   14.11777562    
   14.11777568    
   14.11777575    
   14.11777563    
   14.11777563    
   14.11777576    
