   165 : nkpt; k-point, vkl, wkpt, nmat below
     1   0.000000000       0.000000000       0.000000000      0.2035416243E-03     222
     2  0.5882352941E-01   0.000000000       0.000000000      0.1628332994E-02     222
     3  0.1176470588       0.000000000       0.000000000      0.1628332994E-02     225
     4  0.1764705882       0.000000000       0.000000000      0.1628332994E-02     225
     5  0.2352941176       0.000000000       0.000000000      0.1628332994E-02     222
     6  0.2941176471       0.000000000       0.000000000      0.1628332994E-02     223
     7  0.3529411765       0.000000000       0.000000000      0.1628332994E-02     220
     8  0.4117647059       0.000000000       0.000000000      0.1628332994E-02     223
     9  0.4705882353       0.000000000       0.000000000      0.1628332994E-02     217
    10  0.5882352941E-01  0.5882352941E-01   0.000000000      0.1221249746E-02     222
    11  0.1176470588      0.5882352941E-01   0.000000000      0.4884998982E-02     223
    12  0.1764705882      0.5882352941E-01   0.000000000      0.4884998982E-02     225
    13  0.2352941176      0.5882352941E-01   0.000000000      0.4884998982E-02     225
    14  0.2941176471      0.5882352941E-01   0.000000000      0.4884998982E-02     221
    15  0.3529411765      0.5882352941E-01   0.000000000      0.4884998982E-02     218
    16  0.4117647059      0.5882352941E-01   0.000000000      0.4884998982E-02     221
    17  0.4705882353      0.5882352941E-01   0.000000000      0.4884998982E-02     223
    18  0.5294117647      0.5882352941E-01   0.000000000      0.4884998982E-02     221
    19  0.5882352941      0.5882352941E-01   0.000000000      0.4884998982E-02     219
    20  0.6470588235      0.5882352941E-01   0.000000000      0.4884998982E-02     220
    21  0.7058823529      0.5882352941E-01   0.000000000      0.4884998982E-02     220
    22  0.7647058824      0.5882352941E-01   0.000000000      0.4884998982E-02     220
    23  0.8235294118      0.5882352941E-01   0.000000000      0.4884998982E-02     223
    24  0.8823529412      0.5882352941E-01   0.000000000      0.4884998982E-02     227
    25  0.9411764706      0.5882352941E-01   0.000000000      0.2442499491E-02     222
    26  0.1176470588      0.1176470588       0.000000000      0.1221249746E-02     226
    27  0.1764705882      0.1176470588       0.000000000      0.4884998982E-02     226
    28  0.2352941176      0.1176470588       0.000000000      0.4884998982E-02     224
    29  0.2941176471      0.1176470588       0.000000000      0.4884998982E-02     223
    30  0.3529411765      0.1176470588       0.000000000      0.4884998982E-02     218
    31  0.4117647059      0.1176470588       0.000000000      0.4884998982E-02     220
    32  0.4705882353      0.1176470588       0.000000000      0.4884998982E-02     221
    33  0.5294117647      0.1176470588       0.000000000      0.4884998982E-02     223
    34  0.5882352941      0.1176470588       0.000000000      0.4884998982E-02     220
    35  0.6470588235      0.1176470588       0.000000000      0.4884998982E-02     220
    36  0.7058823529      0.1176470588       0.000000000      0.4884998982E-02     220
    37  0.7647058824      0.1176470588       0.000000000      0.4884998982E-02     219
    38  0.8235294118      0.1176470588       0.000000000      0.4884998982E-02     222
    39  0.8823529412      0.1176470588       0.000000000      0.2442499491E-02     226
    40  0.1764705882      0.1764705882       0.000000000      0.1221249746E-02     222
    41  0.2352941176      0.1764705882       0.000000000      0.4884998982E-02     226
    42  0.2941176471      0.1764705882       0.000000000      0.4884998982E-02     221
    43  0.3529411765      0.1764705882       0.000000000      0.4884998982E-02     221
    44  0.4117647059      0.1764705882       0.000000000      0.4884998982E-02     221
    45  0.4705882353      0.1764705882       0.000000000      0.4884998982E-02     222
    46  0.5294117647      0.1764705882       0.000000000      0.4884998982E-02     221
    47  0.5882352941      0.1764705882       0.000000000      0.4884998982E-02     218
    48  0.6470588235      0.1764705882       0.000000000      0.4884998982E-02     218
    49  0.7058823529      0.1764705882       0.000000000      0.4884998982E-02     221
    50  0.7647058824      0.1764705882       0.000000000      0.4884998982E-02     219
    51  0.8235294118      0.1764705882       0.000000000      0.2442499491E-02     220
    52  0.2352941176      0.2352941176       0.000000000      0.1221249746E-02     230
    53  0.2941176471      0.2352941176       0.000000000      0.4884998982E-02     226
    54  0.3529411765      0.2352941176       0.000000000      0.4884998982E-02     222
    55  0.4117647059      0.2352941176       0.000000000      0.4884998982E-02     220
    56  0.4705882353      0.2352941176       0.000000000      0.4884998982E-02     220
    57  0.5294117647      0.2352941176       0.000000000      0.4884998982E-02     219
    58  0.5882352941      0.2352941176       0.000000000      0.4884998982E-02     220
    59  0.6470588235      0.2352941176       0.000000000      0.4884998982E-02     218
    60  0.7058823529      0.2352941176       0.000000000      0.4884998982E-02     220
    61  0.7647058824      0.2352941176       0.000000000      0.2442499491E-02     222
    62  0.2941176471      0.2941176471       0.000000000      0.1221249746E-02     222
    63  0.3529411765      0.2941176471       0.000000000      0.4884998982E-02     220
    64  0.4117647059      0.2941176471       0.000000000      0.4884998982E-02     223
    65  0.4705882353      0.2941176471       0.000000000      0.4884998982E-02     219
    66  0.5294117647      0.2941176471       0.000000000      0.4884998982E-02     217
    67  0.5882352941      0.2941176471       0.000000000      0.4884998982E-02     217
    68  0.6470588235      0.2941176471       0.000000000      0.4884998982E-02     216
    69  0.7058823529      0.2941176471       0.000000000      0.2442499491E-02     220
    70  0.3529411765      0.3529411765       0.000000000      0.1221249746E-02     222
    71  0.4117647059      0.3529411765       0.000000000      0.4884998982E-02     222
    72  0.4705882353      0.3529411765       0.000000000      0.4884998982E-02     219
    73  0.5294117647      0.3529411765       0.000000000      0.4884998982E-02     217
    74  0.5882352941      0.3529411765       0.000000000      0.4884998982E-02     219
    75  0.6470588235      0.3529411765       0.000000000      0.2442499491E-02     219
    76  0.4117647059      0.4117647059       0.000000000      0.1221249746E-02     221
    77  0.4705882353      0.4117647059       0.000000000      0.4884998982E-02     222
    78  0.5294117647      0.4117647059       0.000000000      0.4884998982E-02     221
    79  0.5882352941      0.4117647059       0.000000000      0.2442499491E-02     219
    80  0.4705882353      0.4705882353       0.000000000      0.1221249746E-02     225
    81  0.5294117647      0.4705882353       0.000000000      0.2442499491E-02     223
    82  0.1764705882      0.1176470588      0.5882352941E-01  0.4884998982E-02     225
    83  0.2352941176      0.1176470588      0.5882352941E-01  0.9769997965E-02     225
    84  0.2941176471      0.1176470588      0.5882352941E-01  0.9769997965E-02     219
    85  0.3529411765      0.1176470588      0.5882352941E-01  0.9769997965E-02     220
    86  0.4117647059      0.1176470588      0.5882352941E-01  0.9769997965E-02     218
    87  0.4705882353      0.1176470588      0.5882352941E-01  0.9769997965E-02     219
    88  0.5294117647      0.1176470588      0.5882352941E-01  0.9769997965E-02     222
    89  0.2352941176      0.1764705882      0.5882352941E-01  0.4884998982E-02     225
    90  0.2941176471      0.1764705882      0.5882352941E-01  0.9769997965E-02     223
    91  0.3529411765      0.1764705882      0.5882352941E-01  0.9769997965E-02     224
    92  0.4117647059      0.1764705882      0.5882352941E-01  0.9769997965E-02     221
    93  0.4705882353      0.1764705882      0.5882352941E-01  0.9769997965E-02     222
    94  0.5294117647      0.1764705882      0.5882352941E-01  0.9769997965E-02     219
    95  0.5882352941      0.1764705882      0.5882352941E-01  0.9769997965E-02     218
    96  0.6470588235      0.1764705882      0.5882352941E-01  0.9769997965E-02     221
    97  0.7058823529      0.1764705882      0.5882352941E-01  0.9769997965E-02     218
    98  0.7647058824      0.1764705882      0.5882352941E-01  0.9769997965E-02     219
    99  0.8235294118      0.1764705882      0.5882352941E-01  0.9769997965E-02     222
   100  0.8823529412      0.1764705882      0.5882352941E-01  0.4884998982E-02     224
   101  0.2941176471      0.2352941176      0.5882352941E-01  0.4884998982E-02     225
   102  0.3529411765      0.2352941176      0.5882352941E-01  0.9769997965E-02     222
   103  0.4117647059      0.2352941176      0.5882352941E-01  0.9769997965E-02     223
   104  0.4705882353      0.2352941176      0.5882352941E-01  0.9769997965E-02     222
   105  0.5294117647      0.2352941176      0.5882352941E-01  0.9769997965E-02     222
   106  0.5882352941      0.2352941176      0.5882352941E-01  0.9769997965E-02     218
   107  0.6470588235      0.2352941176      0.5882352941E-01  0.9769997965E-02     221
   108  0.7058823529      0.2352941176      0.5882352941E-01  0.9769997965E-02     221
   109  0.7647058824      0.2352941176      0.5882352941E-01  0.9769997965E-02     221
   110  0.8235294118      0.2352941176      0.5882352941E-01  0.4884998982E-02     223
   111  0.3529411765      0.2941176471      0.5882352941E-01  0.4884998982E-02     221
   112  0.4117647059      0.2941176471      0.5882352941E-01  0.9769997965E-02     223
   113  0.4705882353      0.2941176471      0.5882352941E-01  0.9769997965E-02     219
   114  0.5294117647      0.2941176471      0.5882352941E-01  0.9769997965E-02     220
   115  0.5882352941      0.2941176471      0.5882352941E-01  0.9769997965E-02     220
   116  0.6470588235      0.2941176471      0.5882352941E-01  0.9769997965E-02     218
   117  0.7058823529      0.2941176471      0.5882352941E-01  0.9769997965E-02     221
   118  0.7647058824      0.2941176471      0.5882352941E-01  0.4884998982E-02     219
   119  0.4117647059      0.3529411765      0.5882352941E-01  0.4884998982E-02     221
   120  0.4705882353      0.3529411765      0.5882352941E-01  0.9769997965E-02     220
   121  0.5294117647      0.3529411765      0.5882352941E-01  0.9769997965E-02     218
   122  0.5882352941      0.3529411765      0.5882352941E-01  0.9769997965E-02     217
   123  0.6470588235      0.3529411765      0.5882352941E-01  0.9769997965E-02     217
   124  0.7058823529      0.3529411765      0.5882352941E-01  0.4884998982E-02     217
   125  0.4705882353      0.4117647059      0.5882352941E-01  0.4884998982E-02     223
   126  0.5294117647      0.4117647059      0.5882352941E-01  0.9769997965E-02     218
   127  0.5882352941      0.4117647059      0.5882352941E-01  0.9769997965E-02     216
   128  0.6470588235      0.4117647059      0.5882352941E-01  0.4884998982E-02     215
   129  0.5294117647      0.4705882353      0.5882352941E-01  0.4884998982E-02     221
   130  0.5882352941      0.4705882353      0.5882352941E-01  0.4884998982E-02     219
   131  0.3529411765      0.2352941176      0.1176470588      0.4884998982E-02     223
   132  0.4117647059      0.2352941176      0.1176470588      0.9769997965E-02     220
   133  0.4705882353      0.2352941176      0.1176470588      0.9769997965E-02     219
   134  0.5294117647      0.2352941176      0.1176470588      0.9769997965E-02     223
   135  0.5882352941      0.2352941176      0.1176470588      0.9769997965E-02     221
   136  0.4117647059      0.2941176471      0.1176470588      0.4884998982E-02     221
   137  0.4705882353      0.2941176471      0.1176470588      0.9769997965E-02     220
   138  0.5294117647      0.2941176471      0.1176470588      0.9769997965E-02     219
   139  0.5882352941      0.2941176471      0.1176470588      0.9769997965E-02     219
   140  0.6470588235      0.2941176471      0.1176470588      0.9769997965E-02     219
   141  0.7058823529      0.2941176471      0.1176470588      0.9769997965E-02     221
   142  0.7647058824      0.2941176471      0.1176470588      0.9769997965E-02     221
   143  0.8235294118      0.2941176471      0.1176470588      0.4884998982E-02     221
   144  0.4705882353      0.3529411765      0.1176470588      0.4884998982E-02     221
   145  0.5294117647      0.3529411765      0.1176470588      0.9769997965E-02     218
   146  0.5882352941      0.3529411765      0.1176470588      0.9769997965E-02     218
   147  0.6470588235      0.3529411765      0.1176470588      0.9769997965E-02     217
   148  0.7058823529      0.3529411765      0.1176470588      0.9769997965E-02     218
   149  0.7647058824      0.3529411765      0.1176470588      0.4884998982E-02     219
   150  0.5294117647      0.4117647059      0.1176470588      0.4884998982E-02     218
   151  0.5882352941      0.4117647059      0.1176470588      0.9769997965E-02     216
   152  0.6470588235      0.4117647059      0.1176470588      0.9769997965E-02     217
   153  0.7058823529      0.4117647059      0.1176470588      0.4884998982E-02     218
   154  0.5882352941      0.4705882353      0.1176470588      0.4884998982E-02     217
   155  0.6470588235      0.4705882353      0.1176470588      0.4884998982E-02     215
   156  0.5294117647      0.3529411765      0.1764705882      0.4884998982E-02     219
   157  0.5882352941      0.3529411765      0.1764705882      0.9769997965E-02     219
   158  0.6470588235      0.3529411765      0.1764705882      0.9769997965E-02     219
   159  0.5882352941      0.4117647059      0.1764705882      0.4884998982E-02     216
   160  0.6470588235      0.4117647059      0.1764705882      0.9769997965E-02     217
   161  0.7058823529      0.4117647059      0.1764705882      0.9769997965E-02     219
   162  0.7647058824      0.4117647059      0.1764705882      0.4884998982E-02     218
   163  0.6470588235      0.4705882353      0.1764705882      0.4884998982E-02     214
   164  0.7058823529      0.4705882353      0.1764705882      0.4884998982E-02     219
   165  0.7058823529      0.4705882353      0.2352941176      0.4884998982E-02     217
