 
Species :    1 (Sc), atom :    1
 n =  1, l =  0, k =  1 :   -161.4877876    
 n =  2, l =  0, k =  1 :   -16.96541283    
 n =  2, l =  1, k =  1 :   -13.90447757    
 n =  2, l =  1, k =  2 :   -13.73301714    
 
Species :    1 (Sc), atom :    2
 n =  1, l =  0, k =  1 :   -161.4877876    
 n =  2, l =  0, k =  1 :   -16.96541283    
 n =  2, l =  1, k =  1 :   -13.90447757    
 n =  2, l =  1, k =  2 :   -13.73301714    
