   297 : nkpt; k-point, vkl, wkpt, nmat below
     1   0.000000000       0.000000000       0.000000000      0.2035416243E-03     555
     2  0.5882352941E-01   0.000000000       0.000000000      0.1221249746E-02     549
     3  0.1176470588       0.000000000       0.000000000      0.1221249746E-02     556
     4  0.1764705882       0.000000000       0.000000000      0.1221249746E-02     554
     5  0.2352941176       0.000000000       0.000000000      0.1221249746E-02     550
     6  0.2941176471       0.000000000       0.000000000      0.1221249746E-02     542
     7  0.3529411765       0.000000000       0.000000000      0.1221249746E-02     544
     8  0.4117647059       0.000000000       0.000000000      0.1221249746E-02     540
     9  0.4705882353       0.000000000       0.000000000      0.1221249746E-02     532
    10  0.5882352941E-01  0.5882352941E-01   0.000000000      0.1221249746E-02     553
    11  0.1176470588      0.5882352941E-01   0.000000000      0.2442499491E-02     557
    12  0.1764705882      0.5882352941E-01   0.000000000      0.2442499491E-02     556
    13  0.2352941176      0.5882352941E-01   0.000000000      0.2442499491E-02     550
    14  0.2941176471      0.5882352941E-01   0.000000000      0.2442499491E-02     546
    15  0.3529411765      0.5882352941E-01   0.000000000      0.2442499491E-02     542
    16  0.4117647059      0.5882352941E-01   0.000000000      0.2442499491E-02     542
    17  0.4705882353      0.5882352941E-01   0.000000000      0.1221249746E-02     538
    18  0.1176470588      0.1176470588       0.000000000      0.1221249746E-02     557
    19  0.1764705882      0.1176470588       0.000000000      0.2442499491E-02     553
    20  0.2352941176      0.1176470588       0.000000000      0.2442499491E-02     550
    21  0.2941176471      0.1176470588       0.000000000      0.2442499491E-02     546
    22  0.3529411765      0.1176470588       0.000000000      0.2442499491E-02     540
    23  0.4117647059      0.1176470588       0.000000000      0.2442499491E-02     536
    24  0.1764705882      0.1764705882       0.000000000      0.1221249746E-02     553
    25  0.2352941176      0.1764705882       0.000000000      0.2442499491E-02     549
    26  0.2941176471      0.1764705882       0.000000000      0.2442499491E-02     541
    27  0.3529411765      0.1764705882       0.000000000      0.2442499491E-02     537
    28  0.4117647059      0.1764705882       0.000000000      0.1221249746E-02     538
    29  0.2352941176      0.2352941176       0.000000000      0.1221249746E-02     542
    30  0.2941176471      0.2352941176       0.000000000      0.2442499491E-02     543
    31  0.3529411765      0.2352941176       0.000000000      0.2442499491E-02     539
    32  0.2941176471      0.2941176471       0.000000000      0.1221249746E-02     546
    33  0.3529411765      0.2941176471       0.000000000      0.1221249746E-02     544
    34   0.000000000       0.000000000      0.5882352941E-01  0.4070832485E-03     555
    35  0.5882352941E-01   0.000000000      0.5882352941E-01  0.2442499491E-02     551
    36  0.1176470588       0.000000000      0.5882352941E-01  0.2442499491E-02     555
    37  0.1764705882       0.000000000      0.5882352941E-01  0.2442499491E-02     554
    38  0.2352941176       0.000000000      0.5882352941E-01  0.2442499491E-02     550
    39  0.2941176471       0.000000000      0.5882352941E-01  0.2442499491E-02     545
    40  0.3529411765       0.000000000      0.5882352941E-01  0.2442499491E-02     545
    41  0.4117647059       0.000000000      0.5882352941E-01  0.2442499491E-02     543
    42  0.4705882353       0.000000000      0.5882352941E-01  0.2442499491E-02     538
    43  0.5882352941E-01  0.5882352941E-01  0.5882352941E-01  0.2442499491E-02     555
    44  0.1176470588      0.5882352941E-01  0.5882352941E-01  0.4884998982E-02     554
    45  0.1764705882      0.5882352941E-01  0.5882352941E-01  0.4884998982E-02     554
    46  0.2352941176      0.5882352941E-01  0.5882352941E-01  0.4884998982E-02     549
    47  0.2941176471      0.5882352941E-01  0.5882352941E-01  0.4884998982E-02     547
    48  0.3529411765      0.5882352941E-01  0.5882352941E-01  0.4884998982E-02     544
    49  0.4117647059      0.5882352941E-01  0.5882352941E-01  0.4884998982E-02     539
    50  0.4705882353      0.5882352941E-01  0.5882352941E-01  0.2442499491E-02     538
    51  0.1176470588      0.1176470588      0.5882352941E-01  0.2442499491E-02     559
    52  0.1764705882      0.1176470588      0.5882352941E-01  0.4884998982E-02     553
    53  0.2352941176      0.1176470588      0.5882352941E-01  0.4884998982E-02     549
    54  0.2941176471      0.1176470588      0.5882352941E-01  0.4884998982E-02     546
    55  0.3529411765      0.1176470588      0.5882352941E-01  0.4884998982E-02     539
    56  0.4117647059      0.1176470588      0.5882352941E-01  0.4884998982E-02     535
    57  0.1764705882      0.1764705882      0.5882352941E-01  0.2442499491E-02     551
    58  0.2352941176      0.1764705882      0.5882352941E-01  0.4884998982E-02     549
    59  0.2941176471      0.1764705882      0.5882352941E-01  0.4884998982E-02     542
    60  0.3529411765      0.1764705882      0.5882352941E-01  0.4884998982E-02     537
    61  0.4117647059      0.1764705882      0.5882352941E-01  0.2442499491E-02     536
    62  0.2352941176      0.2352941176      0.5882352941E-01  0.2442499491E-02     544
    63  0.2941176471      0.2352941176      0.5882352941E-01  0.4884998982E-02     543
    64  0.3529411765      0.2352941176      0.5882352941E-01  0.4884998982E-02     541
    65  0.2941176471      0.2941176471      0.5882352941E-01  0.2442499491E-02     544
    66  0.3529411765      0.2941176471      0.5882352941E-01  0.2442499491E-02     541
    67   0.000000000       0.000000000      0.1176470588      0.4070832485E-03     555
    68  0.5882352941E-01   0.000000000      0.1176470588      0.2442499491E-02     553
    69  0.1176470588       0.000000000      0.1176470588      0.2442499491E-02     552
    70  0.1764705882       0.000000000      0.1176470588      0.2442499491E-02     555
    71  0.2352941176       0.000000000      0.1176470588      0.2442499491E-02     551
    72  0.2941176471       0.000000000      0.1176470588      0.2442499491E-02     549
    73  0.3529411765       0.000000000      0.1176470588      0.2442499491E-02     545
    74  0.4117647059       0.000000000      0.1176470588      0.2442499491E-02     542
    75  0.4705882353       0.000000000      0.1176470588      0.2442499491E-02     538
    76  0.5882352941E-01  0.5882352941E-01  0.1176470588      0.2442499491E-02     551
    77  0.1176470588      0.5882352941E-01  0.1176470588      0.4884998982E-02     554
    78  0.1764705882      0.5882352941E-01  0.1176470588      0.4884998982E-02     551
    79  0.2352941176      0.5882352941E-01  0.1176470588      0.4884998982E-02     550
    80  0.2941176471      0.5882352941E-01  0.1176470588      0.4884998982E-02     546
    81  0.3529411765      0.5882352941E-01  0.1176470588      0.4884998982E-02     546
    82  0.4117647059      0.5882352941E-01  0.1176470588      0.4884998982E-02     539
    83  0.4705882353      0.5882352941E-01  0.1176470588      0.2442499491E-02     537
    84  0.1176470588      0.1176470588      0.1176470588      0.2442499491E-02     557
    85  0.1764705882      0.1176470588      0.1176470588      0.4884998982E-02     550
    86  0.2352941176      0.1176470588      0.1176470588      0.4884998982E-02     549
    87  0.2941176471      0.1176470588      0.1176470588      0.4884998982E-02     545
    88  0.3529411765      0.1176470588      0.1176470588      0.4884998982E-02     541
    89  0.4117647059      0.1176470588      0.1176470588      0.4884998982E-02     536
    90  0.1764705882      0.1764705882      0.1176470588      0.2442499491E-02     550
    91  0.2352941176      0.1764705882      0.1176470588      0.4884998982E-02     547
    92  0.2941176471      0.1764705882      0.1176470588      0.4884998982E-02     542
    93  0.3529411765      0.1764705882      0.1176470588      0.4884998982E-02     539
    94  0.4117647059      0.1764705882      0.1176470588      0.2442499491E-02     538
    95  0.2352941176      0.2352941176      0.1176470588      0.2442499491E-02     542
    96  0.2941176471      0.2352941176      0.1176470588      0.4884998982E-02     542
    97  0.3529411765      0.2352941176      0.1176470588      0.4884998982E-02     540
    98  0.2941176471      0.2941176471      0.1176470588      0.2442499491E-02     541
    99  0.3529411765      0.2941176471      0.1176470588      0.2442499491E-02     539
   100   0.000000000       0.000000000      0.1764705882      0.4070832485E-03     549
   101  0.5882352941E-01   0.000000000      0.1764705882      0.2442499491E-02     554
   102  0.1176470588       0.000000000      0.1764705882      0.2442499491E-02     552
   103  0.1764705882       0.000000000      0.1764705882      0.2442499491E-02     553
   104  0.2352941176       0.000000000      0.1764705882      0.2442499491E-02     549
   105  0.2941176471       0.000000000      0.1764705882      0.2442499491E-02     549
   106  0.3529411765       0.000000000      0.1764705882      0.2442499491E-02     545
   107  0.4117647059       0.000000000      0.1764705882      0.2442499491E-02     542
   108  0.4705882353       0.000000000      0.1764705882      0.2442499491E-02     540
   109  0.5882352941E-01  0.5882352941E-01  0.1764705882      0.2442499491E-02     551
   110  0.1176470588      0.5882352941E-01  0.1764705882      0.4884998982E-02     553
   111  0.1764705882      0.5882352941E-01  0.1764705882      0.4884998982E-02     549
   112  0.2352941176      0.5882352941E-01  0.1764705882      0.4884998982E-02     548
   113  0.2941176471      0.5882352941E-01  0.1764705882      0.4884998982E-02     546
   114  0.3529411765      0.5882352941E-01  0.1764705882      0.4884998982E-02     543
   115  0.4117647059      0.5882352941E-01  0.1764705882      0.4884998982E-02     541
   116  0.4705882353      0.5882352941E-01  0.1764705882      0.2442499491E-02     539
   117  0.1176470588      0.1176470588      0.1764705882      0.2442499491E-02     551
   118  0.1764705882      0.1176470588      0.1764705882      0.4884998982E-02     552
   119  0.2352941176      0.1176470588      0.1764705882      0.4884998982E-02     548
   120  0.2941176471      0.1176470588      0.1764705882      0.4884998982E-02     545
   121  0.3529411765      0.1176470588      0.1764705882      0.4884998982E-02     541
   122  0.4117647059      0.1176470588      0.1764705882      0.4884998982E-02     539
   123  0.1764705882      0.1764705882      0.1764705882      0.2442499491E-02     549
   124  0.2352941176      0.1764705882      0.1764705882      0.4884998982E-02     546
   125  0.2941176471      0.1764705882      0.1764705882      0.4884998982E-02     544
   126  0.3529411765      0.1764705882      0.1764705882      0.4884998982E-02     541
   127  0.4117647059      0.1764705882      0.1764705882      0.2442499491E-02     540
   128  0.2352941176      0.2352941176      0.1764705882      0.2442499491E-02     542
   129  0.2941176471      0.2352941176      0.1764705882      0.4884998982E-02     544
   130  0.3529411765      0.2352941176      0.1764705882      0.4884998982E-02     541
   131  0.2941176471      0.2941176471      0.1764705882      0.2442499491E-02     537
   132  0.3529411765      0.2941176471      0.1764705882      0.2442499491E-02     539
   133   0.000000000       0.000000000      0.2352941176      0.4070832485E-03     555
   134  0.5882352941E-01   0.000000000      0.2352941176      0.2442499491E-02     555
   135  0.1176470588       0.000000000      0.2352941176      0.2442499491E-02     549
   136  0.1764705882       0.000000000      0.2352941176      0.2442499491E-02     549
   137  0.2352941176       0.000000000      0.2352941176      0.2442499491E-02     552
   138  0.2941176471       0.000000000      0.2352941176      0.2442499491E-02     547
   139  0.3529411765       0.000000000      0.2352941176      0.2442499491E-02     546
   140  0.4117647059       0.000000000      0.2352941176      0.2442499491E-02     542
   141  0.4705882353       0.000000000      0.2352941176      0.2442499491E-02     541
   142  0.5882352941E-01  0.5882352941E-01  0.2352941176      0.2442499491E-02     547
   143  0.1176470588      0.5882352941E-01  0.2352941176      0.4884998982E-02     552
   144  0.1764705882      0.5882352941E-01  0.2352941176      0.4884998982E-02     550
   145  0.2352941176      0.5882352941E-01  0.2352941176      0.4884998982E-02     547
   146  0.2941176471      0.5882352941E-01  0.2352941176      0.4884998982E-02     546
   147  0.3529411765      0.5882352941E-01  0.2352941176      0.4884998982E-02     544
   148  0.4117647059      0.5882352941E-01  0.2352941176      0.4884998982E-02     542
   149  0.4705882353      0.5882352941E-01  0.2352941176      0.2442499491E-02     540
   150  0.1176470588      0.1176470588      0.2352941176      0.2442499491E-02     550
   151  0.1764705882      0.1176470588      0.2352941176      0.4884998982E-02     550
   152  0.2352941176      0.1176470588      0.2352941176      0.4884998982E-02     546
   153  0.2941176471      0.1176470588      0.2352941176      0.4884998982E-02     544
   154  0.3529411765      0.1176470588      0.2352941176      0.4884998982E-02     541
   155  0.4117647059      0.1176470588      0.2352941176      0.4884998982E-02     541
   156  0.1764705882      0.1764705882      0.2352941176      0.2442499491E-02     545
   157  0.2352941176      0.1764705882      0.2352941176      0.4884998982E-02     542
   158  0.2941176471      0.1764705882      0.2352941176      0.4884998982E-02     544
   159  0.3529411765      0.1764705882      0.2352941176      0.4884998982E-02     542
   160  0.4117647059      0.1764705882      0.2352941176      0.2442499491E-02     542
   161  0.2352941176      0.2352941176      0.2352941176      0.2442499491E-02     544
   162  0.2941176471      0.2352941176      0.2352941176      0.4884998982E-02     540
   163  0.3529411765      0.2352941176      0.2352941176      0.4884998982E-02     541
   164  0.2941176471      0.2941176471      0.2352941176      0.2442499491E-02     540
   165  0.3529411765      0.2941176471      0.2352941176      0.2442499491E-02     538
   166   0.000000000       0.000000000      0.2941176471      0.4070832485E-03     549
   167  0.5882352941E-01   0.000000000      0.2941176471      0.2442499491E-02     549
   168  0.1176470588       0.000000000      0.2941176471      0.2442499491E-02     549
   169  0.1764705882       0.000000000      0.2941176471      0.2442499491E-02     549
   170  0.2352941176       0.000000000      0.2941176471      0.2442499491E-02     550
   171  0.2941176471       0.000000000      0.2941176471      0.2442499491E-02     547
   172  0.3529411765       0.000000000      0.2941176471      0.2442499491E-02     544
   173  0.4117647059       0.000000000      0.2941176471      0.2442499491E-02     547
   174  0.4705882353       0.000000000      0.2941176471      0.2442499491E-02     540
   175  0.5882352941E-01  0.5882352941E-01  0.2941176471      0.2442499491E-02     548
   176  0.1176470588      0.5882352941E-01  0.2941176471      0.4884998982E-02     549
   177  0.1764705882      0.5882352941E-01  0.2941176471      0.4884998982E-02     548
   178  0.2352941176      0.5882352941E-01  0.2941176471      0.4884998982E-02     549
   179  0.2941176471      0.5882352941E-01  0.2941176471      0.4884998982E-02     546
   180  0.3529411765      0.5882352941E-01  0.2941176471      0.4884998982E-02     547
   181  0.4117647059      0.5882352941E-01  0.2941176471      0.4884998982E-02     542
   182  0.4705882353      0.5882352941E-01  0.2941176471      0.2442499491E-02     540
   183  0.1176470588      0.1176470588      0.2941176471      0.2442499491E-02     548
   184  0.1764705882      0.1176470588      0.2941176471      0.4884998982E-02     547
   185  0.2352941176      0.1176470588      0.2941176471      0.4884998982E-02     543
   186  0.2941176471      0.1176470588      0.2941176471      0.4884998982E-02     544
   187  0.3529411765      0.1176470588      0.2941176471      0.4884998982E-02     544
   188  0.4117647059      0.1176470588      0.2941176471      0.4884998982E-02     539
   189  0.1764705882      0.1764705882      0.2941176471      0.2442499491E-02     549
   190  0.2352941176      0.1764705882      0.2941176471      0.4884998982E-02     542
   191  0.2941176471      0.1764705882      0.2941176471      0.4884998982E-02     545
   192  0.3529411765      0.1764705882      0.2941176471      0.4884998982E-02     543
   193  0.4117647059      0.1764705882      0.2941176471      0.2442499491E-02     539
   194  0.2352941176      0.2352941176      0.2941176471      0.2442499491E-02     542
   195  0.2941176471      0.2352941176      0.2941176471      0.4884998982E-02     539
   196  0.3529411765      0.2352941176      0.2941176471      0.4884998982E-02     540
   197  0.2941176471      0.2941176471      0.2941176471      0.2442499491E-02     540
   198  0.3529411765      0.2941176471      0.2941176471      0.2442499491E-02     536
   199   0.000000000       0.000000000      0.3529411765      0.4070832485E-03     549
   200  0.5882352941E-01   0.000000000      0.3529411765      0.2442499491E-02     550
   201  0.1176470588       0.000000000      0.3529411765      0.2442499491E-02     546
   202  0.1764705882       0.000000000      0.3529411765      0.2442499491E-02     545
   203  0.2352941176       0.000000000      0.3529411765      0.2442499491E-02     546
   204  0.2941176471       0.000000000      0.3529411765      0.2442499491E-02     548
   205  0.3529411765       0.000000000      0.3529411765      0.2442499491E-02     545
   206  0.4117647059       0.000000000      0.3529411765      0.2442499491E-02     545
   207  0.4705882353       0.000000000      0.3529411765      0.2442499491E-02     540
   208  0.5882352941E-01  0.5882352941E-01  0.3529411765      0.2442499491E-02     548
   209  0.1176470588      0.5882352941E-01  0.3529411765      0.4884998982E-02     546
   210  0.1764705882      0.5882352941E-01  0.3529411765      0.4884998982E-02     545
   211  0.2352941176      0.5882352941E-01  0.3529411765      0.4884998982E-02     547
   212  0.2941176471      0.5882352941E-01  0.3529411765      0.4884998982E-02     547
   213  0.3529411765      0.5882352941E-01  0.3529411765      0.4884998982E-02     545
   214  0.4117647059      0.5882352941E-01  0.3529411765      0.4884998982E-02     543
   215  0.4705882353      0.5882352941E-01  0.3529411765      0.2442499491E-02     539
   216  0.1176470588      0.1176470588      0.3529411765      0.2442499491E-02     545
   217  0.1764705882      0.1176470588      0.3529411765      0.4884998982E-02     548
   218  0.2352941176      0.1176470588      0.3529411765      0.4884998982E-02     545
   219  0.2941176471      0.1176470588      0.3529411765      0.4884998982E-02     544
   220  0.3529411765      0.1176470588      0.3529411765      0.4884998982E-02     544
   221  0.4117647059      0.1176470588      0.3529411765      0.4884998982E-02     539
   222  0.1764705882      0.1764705882      0.3529411765      0.2442499491E-02     547
   223  0.2352941176      0.1764705882      0.3529411765      0.4884998982E-02     545
   224  0.2941176471      0.1764705882      0.3529411765      0.4884998982E-02     544
   225  0.3529411765      0.1764705882      0.3529411765      0.4884998982E-02     542
   226  0.4117647059      0.1764705882      0.3529411765      0.2442499491E-02     540
   227  0.2352941176      0.2352941176      0.3529411765      0.2442499491E-02     544
   228  0.2941176471      0.2352941176      0.3529411765      0.4884998982E-02     540
   229  0.3529411765      0.2352941176      0.3529411765      0.4884998982E-02     540
   230  0.2941176471      0.2941176471      0.3529411765      0.2442499491E-02     538
   231  0.3529411765      0.2941176471      0.3529411765      0.2442499491E-02     538
   232   0.000000000       0.000000000      0.4117647059      0.4070832485E-03     555
   233  0.5882352941E-01   0.000000000      0.4117647059      0.2442499491E-02     550
   234  0.1176470588       0.000000000      0.4117647059      0.2442499491E-02     545
   235  0.1764705882       0.000000000      0.4117647059      0.2442499491E-02     542
   236  0.2352941176       0.000000000      0.4117647059      0.2442499491E-02     542
   237  0.2941176471       0.000000000      0.4117647059      0.2442499491E-02     546
   238  0.3529411765       0.000000000      0.4117647059      0.2442499491E-02     547
   239  0.4117647059       0.000000000      0.4117647059      0.2442499491E-02     543
   240  0.4705882353       0.000000000      0.4117647059      0.2442499491E-02     538
   241  0.5882352941E-01  0.5882352941E-01  0.4117647059      0.2442499491E-02     548
   242  0.1176470588      0.5882352941E-01  0.4117647059      0.4884998982E-02     544
   243  0.1764705882      0.5882352941E-01  0.4117647059      0.4884998982E-02     542
   244  0.2352941176      0.5882352941E-01  0.4117647059      0.4884998982E-02     547
   245  0.2941176471      0.5882352941E-01  0.4117647059      0.4884998982E-02     547
   246  0.3529411765      0.5882352941E-01  0.4117647059      0.4884998982E-02     546
   247  0.4117647059      0.5882352941E-01  0.4117647059      0.4884998982E-02     539
   248  0.4705882353      0.5882352941E-01  0.4117647059      0.2442499491E-02     540
   249  0.1176470588      0.1176470588      0.4117647059      0.2442499491E-02     543
   250  0.1764705882      0.1176470588      0.4117647059      0.4884998982E-02     543
   251  0.2352941176      0.1176470588      0.4117647059      0.4884998982E-02     546
   252  0.2941176471      0.1176470588      0.4117647059      0.4884998982E-02     545
   253  0.3529411765      0.1176470588      0.4117647059      0.4884998982E-02     543
   254  0.4117647059      0.1176470588      0.4117647059      0.4884998982E-02     541
   255  0.1764705882      0.1764705882      0.4117647059      0.2442499491E-02     541
   256  0.2352941176      0.1764705882      0.4117647059      0.4884998982E-02     546
   257  0.2941176471      0.1764705882      0.4117647059      0.4884998982E-02     541
   258  0.3529411765      0.1764705882      0.4117647059      0.4884998982E-02     541
   259  0.4117647059      0.1764705882      0.4117647059      0.2442499491E-02     541
   260  0.2352941176      0.2352941176      0.4117647059      0.2442499491E-02     545
   261  0.2941176471      0.2352941176      0.4117647059      0.4884998982E-02     539
   262  0.3529411765      0.2352941176      0.4117647059      0.4884998982E-02     539
   263  0.2941176471      0.2941176471      0.4117647059      0.2442499491E-02     540
   264  0.3529411765      0.2941176471      0.4117647059      0.2442499491E-02     538
   265   0.000000000       0.000000000      0.4705882353      0.4070832485E-03     556
   266  0.5882352941E-01   0.000000000      0.4705882353      0.2442499491E-02     554
   267  0.1176470588       0.000000000      0.4705882353      0.2442499491E-02     546
   268  0.1764705882       0.000000000      0.4705882353      0.2442499491E-02     545
   269  0.2352941176       0.000000000      0.4705882353      0.2442499491E-02     546
   270  0.2941176471       0.000000000      0.4705882353      0.2442499491E-02     550
   271  0.3529411765       0.000000000      0.4705882353      0.2442499491E-02     547
   272  0.4117647059       0.000000000      0.4705882353      0.2442499491E-02     539
   273  0.4705882353       0.000000000      0.4705882353      0.2442499491E-02     538
   274  0.5882352941E-01  0.5882352941E-01  0.4705882353      0.2442499491E-02     548
   275  0.1176470588      0.5882352941E-01  0.4705882353      0.4884998982E-02     545
   276  0.1764705882      0.5882352941E-01  0.4705882353      0.4884998982E-02     542
   277  0.2352941176      0.5882352941E-01  0.4705882353      0.4884998982E-02     545
   278  0.2941176471      0.5882352941E-01  0.4705882353      0.4884998982E-02     549
   279  0.3529411765      0.5882352941E-01  0.4705882353      0.4884998982E-02     544
   280  0.4117647059      0.5882352941E-01  0.4705882353      0.4884998982E-02     539
   281  0.4705882353      0.5882352941E-01  0.4705882353      0.2442499491E-02     540
   282  0.1176470588      0.1176470588      0.4705882353      0.2442499491E-02     542
   283  0.1764705882      0.1176470588      0.4705882353      0.4884998982E-02     544
   284  0.2352941176      0.1176470588      0.4705882353      0.4884998982E-02     546
   285  0.2941176471      0.1176470588      0.4705882353      0.4884998982E-02     546
   286  0.3529411765      0.1176470588      0.4705882353      0.4884998982E-02     543
   287  0.4117647059      0.1176470588      0.4705882353      0.4884998982E-02     541
   288  0.1764705882      0.1764705882      0.4705882353      0.2442499491E-02     546
   289  0.2352941176      0.1764705882      0.4705882353      0.4884998982E-02     544
   290  0.2941176471      0.1764705882      0.4705882353      0.4884998982E-02     540
   291  0.3529411765      0.1764705882      0.4705882353      0.4884998982E-02     539
   292  0.4117647059      0.1764705882      0.4705882353      0.2442499491E-02     536
   293  0.2352941176      0.2352941176      0.4705882353      0.2442499491E-02     545
   294  0.2941176471      0.2352941176      0.4705882353      0.4884998982E-02     536
   295  0.3529411765      0.2352941176      0.4705882353      0.4884998982E-02     536
   296  0.2941176471      0.2941176471      0.4705882353      0.2442499491E-02     540
   297  0.3529411765      0.2941176471      0.4705882353      0.2442499491E-02     536
