  0.9749342441    
   11.46568363    
   25.58087366    
   24.53718265    
   14.05264471    
   6.597759231    
   1.610646756    
  0.3922019527    
  0.1035280734    
  0.2809115523E-01
  0.6787104772E-02
  0.2035202045E-02
  0.5053069763E-03
  0.1689823875E-04
  0.1130543196E-03
  0.4325175996E-04
  0.6207583283E-05
  0.9432075785E-05
  0.8993839401E-05
  0.3504183042E-06
  0.3932391337E-06
  0.2618716280E-05
  0.2607439455E-06
  0.1094967047E-05
  0.7633652785E-06
  0.3325567377E-07
  0.3542691047E-06
  0.4072908268E-06
  0.1147873263E-06
  0.7634598660E-06
  0.2075084922E-06
  0.2243541530E-06
  0.3493896656E-06
  0.3101158654E-06
  0.2754586603E-06
  0.1401504051E-06
  0.2473343557E-06
  0.3326531441E-06
  0.7434118743E-07
  0.8541974239E-08
