   90.44431507    
   89.10198647    
   90.81176545    
   48.61103670    
   49.92933492    
   50.39734017    
   49.42925498    
   49.80880769    
   49.77301983    
   49.77666356    
   49.77010000    
   49.77065429    
   49.77101825    
   49.77071020    
   49.77077011    
   49.77092305    
   49.77088970    
   49.77090874    
   49.77097468    
   49.77101576    
   49.77098264    
   49.77088065    
   49.77084662    
   49.77087603    
   49.77086865    
   49.77093524    
   49.77085266    
   49.77083115    
   49.77082134    
   49.77082890    
   49.77082463    
   49.77081590    
   49.77081598    
   49.77081169    
   49.77080638    
   49.77080322    
   49.77080621    
   49.77080286    
   49.77079225    
   49.77079485    
   49.77079684    
   49.77079676    
   49.77079805    
   49.77079932    
   49.77079953    
   49.77079993    
   49.77080002    
   49.77080015    
