 
scale
 1.0
 
scale1
 1.0
 
scale2
 1.0
 
scale3
 1.0
 
avec
   4.772284705      -2.755279860       0.000000000    
   0.000000000       5.510559718       0.000000000    
   0.000000000       0.000000000       9.258536526    
 
atoms
   1                                    : nspecies
'Ti.in'                                 : spfname
   2                                    : natoms; atpos, bfcmt below
    0.33333333    0.16666667    0.25000000    0.00000000  0.00000000  0.00000000
   -0.33333333   -0.16666667   -0.25000000    0.00000000  0.00000000  0.00000000
