 
scale
 1.0
 
scale1
 1.0
 
scale2
 1.0
 
scale3
 1.0
 
avec
   5.008388875      -2.891594665       0.000000000    
   0.000000000       5.783189331       0.000000000    
   0.000000000       0.000000000       9.891242411    
 
atoms
   1                                    : nspecies
'Zr.in'                                 : spfname
   2                                    : natoms; atpos, bfcmt below
    0.33333333    0.16666667    0.25000000    0.00000000  0.00000000  0.00000000
   -0.33333333   -0.16666667   -0.25000000    0.00000000  0.00000000  0.00000000
