  0.1902074965E-02
  0.1750306888E-01
  0.4649347554E-01
  0.2340377038E-01
  0.1233877573E-01
  0.6500233891E-02
  0.6058870385E-03
  0.1791517225E-03
  0.8111384705E-04
  0.9678639799E-05
  0.1079608228E-04
  0.2303727342E-05
  0.1818137480E-04
  0.1397259257E-04
  0.3698536693E-04
  0.1742156837E-04
  0.2230839527E-04
  0.7859310244E-05
  0.1087482724E-04
  0.8568500562E-05
  0.1211810741E-05
  0.5416750355E-06
  0.3117931556E-05
  0.6120161743E-05
  0.3485256457E-05
  0.2334101737E-05
  0.2049304385E-05
  0.1197022357E-05
  0.9842469808E-06
  0.2483656317E-05
  0.2503830729E-05
  0.1462847649E-05
  0.9055465853E-06
  0.2109644811E-05
  0.2609026524E-05
  0.3792418283E-05
  0.1289380634E-05
  0.1522403181E-07
  0.9109635357E-06
  0.2613660399E-06
  0.1007656465E-06
  0.4924604582E-06
  0.3415452738E-06
  0.6868831406E-06
  0.1794960554E-06
  0.5984347808E-06
  0.7622384146E-07
  0.4207449820E-06
  0.2958431651E-06
  0.3810782800E-09
