 
+----------------------------+
| Real-space lattice vectors |
+----------------------------+
 
vector a1 :    5.460384385      -3.152554395       0.000000000    
vector a2 :    0.000000000       6.305108789       0.000000000    
vector a3 :    0.000000000       0.000000000       9.495167258    
 
Stored column-wise as a matrix :
   5.460384385       0.000000000       0.000000000    
  -3.152554395       6.305108789       0.000000000    
   0.000000000       0.000000000       9.495167258    
 
Inverse of matrix :
  0.1831372903       0.000000000       0.000000000    
  0.9156864514E-01  0.1586015457       0.000000000    
   0.000000000       0.000000000      0.1053167335    
 
Unit cell volume :    326.9026338    
 
 
+----------------------------------+
| Reciprocal-space lattice vectors |
+----------------------------------+
 
vector b1 :    1.150685531       0.000000000       0.000000000    
vector b2 :   0.5753427658      0.9965229019       0.000000000    
vector b3 :    0.000000000       0.000000000      0.6617245528    
 
Stored column-wise as a matrix :
   1.150685531      0.5753427658       0.000000000    
   0.000000000      0.9965229019       0.000000000    
   0.000000000       0.000000000      0.6617245528    
 
Inverse of matrix :
  0.8690471660     -0.5017446153       0.000000000    
   0.000000000       1.003489230       0.000000000    
   0.000000000       0.000000000       1.511202805    
 
Brillouin zone volume :   0.7587892779    
