 
Species :    1 (Sc), atom :    1
 APW functions :
  l =  0, energy derivative =  0 :   0.1530610676    
  l =  1, energy derivative =  0 :   0.1530610676    
  l =  2, energy derivative =  0 :   0.1530610676    
  l =  3, energy derivative =  0 :   0.1530610676    
  l =  4, energy derivative =  0 :   0.1530610676    
  l =  5, energy derivative =  0 :   0.1530610676    
  l =  6, energy derivative =  0 :   0.1530610676    
  l =  7, energy derivative =  0 :   0.1530610676    
  l =  8, energy derivative =  0 :   0.1530610676    
  l =  9, energy derivative =  0 :   0.1530610676    
  l = 10, energy derivative =  0 :   0.1530610676    
 local-orbital functions :
  l.o. =  1, l =  0, energy derivative =  0 :   0.1530610676    
  l.o. =  1, l =  0, energy derivative =  1 :   0.1530610676    
  l.o. =  2, l =  1, energy derivative =  0 :   0.1530610676    
  l.o. =  2, l =  1, energy derivative =  1 :   0.1530610676    
  l.o. =  3, l =  2, energy derivative =  0 :   0.1530610676    
  l.o. =  3, l =  2, energy derivative =  1 :   0.1530610676    
  l.o. =  4, l =  0, energy derivative =  0 :   0.1530610676    
  l.o. =  4, l =  0, energy derivative =  0 :   -1.569927615    
  l.o. =  5, l =  1, energy derivative =  0 :   0.1530610676    
  l.o. =  5, l =  1, energy derivative =  0 :  -0.7729108929    
  l.o. =  6, l =  3, energy derivative =  0 :   0.1530610676    
  l.o. =  6, l =  3, energy derivative =  1 :   0.1530610676    
  l.o. =  7, l =  4, energy derivative =  0 :   0.1530610676    
  l.o. =  7, l =  4, energy derivative =  1 :   0.1530610676    
  l.o. =  8, l =  5, energy derivative =  0 :   0.1530610676    
  l.o. =  8, l =  5, energy derivative =  1 :   0.1530610676    
  l.o. =  9, l =  0, energy derivative =  0 :    1.486072869    
  l.o. =  9, l =  0, energy derivative =  1 :    1.486072869    
  l.o. =  9, l =  0, energy derivative =  2 :    1.486072869    
  l.o. = 10, l =  1, energy derivative =  0 :    1.933663728    
  l.o. = 10, l =  1, energy derivative =  1 :    1.933663728    
  l.o. = 10, l =  1, energy derivative =  2 :    1.933663728    
  l.o. = 11, l =  2, energy derivative =  0 :   0.4289423943    
  l.o. = 11, l =  2, energy derivative =  1 :   0.4289423943    
  l.o. = 11, l =  2, energy derivative =  2 :   0.4289423943    
  l.o. = 12, l =  3, energy derivative =  0 :    2.303203404    
  l.o. = 12, l =  3, energy derivative =  1 :    2.303203404    
  l.o. = 12, l =  3, energy derivative =  2 :    2.303203404    
  l.o. = 13, l =  4, energy derivative =  0 :    3.821691201    
  l.o. = 13, l =  4, energy derivative =  1 :    3.821691201    
  l.o. = 13, l =  4, energy derivative =  2 :    3.821691201    
  l.o. = 14, l =  5, energy derivative =  0 :    5.442068763    
  l.o. = 14, l =  5, energy derivative =  1 :    5.442068763    
  l.o. = 14, l =  5, energy derivative =  2 :    5.442068763    
  l.o. = 15, l =  6, energy derivative =  0 :    7.221844958    
  l.o. = 15, l =  6, energy derivative =  1 :    7.221844958    
  l.o. = 15, l =  6, energy derivative =  2 :    7.221844958    
  l.o. = 16, l =  7, energy derivative =  0 :    9.178029314    
  l.o. = 16, l =  7, energy derivative =  1 :    9.178029314    
  l.o. = 16, l =  7, energy derivative =  2 :    9.178029314    
  l.o. = 17, l =  8, energy derivative =  0 :    11.31724471    
  l.o. = 17, l =  8, energy derivative =  1 :    11.31724471    
  l.o. = 17, l =  8, energy derivative =  2 :    11.31724471    
 
Species :    1 (Sc), atom :    2
 APW functions :
  l =  0, energy derivative =  0 :   0.1530610676    
  l =  1, energy derivative =  0 :   0.1530610676    
  l =  2, energy derivative =  0 :   0.1530610676    
  l =  3, energy derivative =  0 :   0.1530610676    
  l =  4, energy derivative =  0 :   0.1530610676    
  l =  5, energy derivative =  0 :   0.1530610676    
  l =  6, energy derivative =  0 :   0.1530610676    
  l =  7, energy derivative =  0 :   0.1530610676    
  l =  8, energy derivative =  0 :   0.1530610676    
  l =  9, energy derivative =  0 :   0.1530610676    
  l = 10, energy derivative =  0 :   0.1530610676    
 local-orbital functions :
  l.o. =  1, l =  0, energy derivative =  0 :   0.1530610676    
  l.o. =  1, l =  0, energy derivative =  1 :   0.1530610676    
  l.o. =  2, l =  1, energy derivative =  0 :   0.1530610676    
  l.o. =  2, l =  1, energy derivative =  1 :   0.1530610676    
  l.o. =  3, l =  2, energy derivative =  0 :   0.1530610676    
  l.o. =  3, l =  2, energy derivative =  1 :   0.1530610676    
  l.o. =  4, l =  0, energy derivative =  0 :   0.1530610676    
  l.o. =  4, l =  0, energy derivative =  0 :   -1.569927615    
  l.o. =  5, l =  1, energy derivative =  0 :   0.1530610676    
  l.o. =  5, l =  1, energy derivative =  0 :  -0.7729108929    
  l.o. =  6, l =  3, energy derivative =  0 :   0.1530610676    
  l.o. =  6, l =  3, energy derivative =  1 :   0.1530610676    
  l.o. =  7, l =  4, energy derivative =  0 :   0.1530610676    
  l.o. =  7, l =  4, energy derivative =  1 :   0.1530610676    
  l.o. =  8, l =  5, energy derivative =  0 :   0.1530610676    
  l.o. =  8, l =  5, energy derivative =  1 :   0.1530610676    
  l.o. =  9, l =  0, energy derivative =  0 :    1.486072869    
  l.o. =  9, l =  0, energy derivative =  1 :    1.486072869    
  l.o. =  9, l =  0, energy derivative =  2 :    1.486072869    
  l.o. = 10, l =  1, energy derivative =  0 :    1.933663728    
  l.o. = 10, l =  1, energy derivative =  1 :    1.933663728    
  l.o. = 10, l =  1, energy derivative =  2 :    1.933663728    
  l.o. = 11, l =  2, energy derivative =  0 :   0.4289423943    
  l.o. = 11, l =  2, energy derivative =  1 :   0.4289423943    
  l.o. = 11, l =  2, energy derivative =  2 :   0.4289423943    
  l.o. = 12, l =  3, energy derivative =  0 :    2.303203404    
  l.o. = 12, l =  3, energy derivative =  1 :    2.303203404    
  l.o. = 12, l =  3, energy derivative =  2 :    2.303203404    
  l.o. = 13, l =  4, energy derivative =  0 :    3.821691201    
  l.o. = 13, l =  4, energy derivative =  1 :    3.821691201    
  l.o. = 13, l =  4, energy derivative =  2 :    3.821691201    
  l.o. = 14, l =  5, energy derivative =  0 :    5.442068763    
  l.o. = 14, l =  5, energy derivative =  1 :    5.442068763    
  l.o. = 14, l =  5, energy derivative =  2 :    5.442068763    
  l.o. = 15, l =  6, energy derivative =  0 :    7.221844958    
  l.o. = 15, l =  6, energy derivative =  1 :    7.221844958    
  l.o. = 15, l =  6, energy derivative =  2 :    7.221844958    
  l.o. = 16, l =  7, energy derivative =  0 :    9.178029314    
  l.o. = 16, l =  7, energy derivative =  1 :    9.178029314    
  l.o. = 16, l =  7, energy derivative =  2 :    9.178029314    
  l.o. = 17, l =  8, energy derivative =  0 :    11.31724471    
  l.o. = 17, l =  8, energy derivative =  1 :    11.31724471    
  l.o. = 17, l =  8, energy derivative =  2 :    11.31724471    
