    0.161870410709E-03
    0.234490061586E-03
    0.353380664412E-03
    0.460420781577E-03
    0.466313110066E-04
    0.161389583498E-03
    0.172725758375E-03
    0.376869156003E-03
    0.376807833672E-03
    0.376744234986E-03
    0.376713692123E-03
    0.376697686736E-03
    0.376692399279E-03
    0.376690119155E-03
    0.376686843175E-03
    0.376684600830E-03
    0.376685094649E-03
    0.376684988255E-03
    0.376685019089E-03
    0.376684470406E-03
    0.376684447035E-03
    0.376684420283E-03
    0.376684494901E-03
    0.376684479143E-03
    0.376684409942E-03
    0.376684407358E-03
    0.376684373779E-03
    0.376684370173E-03
    0.376684359676E-03
    0.376684358943E-03
    0.376684352642E-03
    0.376684353159E-03
    0.376684350365E-03
    0.376684351348E-03
    0.376684351942E-03
    0.376684352679E-03
    0.376684354648E-03
    0.376684355467E-03
    0.376684356405E-03
    0.376684356660E-03
    0.376684356906E-03
    0.376684357111E-03
    0.376684357552E-03
    0.376684357557E-03
    0.376684357888E-03
    0.376684358067E-03
    0.376684358097E-03
    0.376684358004E-03
    0.376684358333E-03
    0.376684358339E-03
    0.376684358504E-03
    0.376684358537E-03
    0.376684358303E-03
    0.376684358448E-03
    0.376684357942E-03
    0.376684358049E-03
    0.376684357957E-03
    0.376684358017E-03
    0.376684358154E-03
    0.376684358200E-03
    0.376684358117E-03
    0.376684358365E-03
    0.376684358330E-03
    0.376684358267E-03
    0.376684358148E-03
    0.376684358092E-03
    0.376684358175E-03
    0.376684358510E-03
    0.376684358414E-03
    0.376684358469E-03
    0.376684359011E-03
    0.376684358677E-03
    0.376684358287E-03
    0.376684358278E-03
    0.376684358352E-03
    0.376684358330E-03
    0.376684358512E-03
    0.376684358686E-03
    0.376684358545E-03
    0.376684358818E-03
    0.376684358661E-03
    0.376684358674E-03
    0.376684357547E-03
    0.376684357816E-03
    0.376684357805E-03
    0.376684357914E-03
    0.376684357764E-03
    0.376684357790E-03
    0.376684357703E-03
    0.376684358369E-03
    0.376684358306E-03
    0.376684358465E-03
    0.376684359112E-03
    0.376684359078E-03
    0.376684358605E-03
    0.376684358459E-03
    0.376684358133E-03
    0.376684358155E-03
    0.376684358523E-03
    0.376684358869E-03
    0.376684358485E-03
    0.376684358062E-03
    0.376684358442E-03
    0.376684358126E-03
    0.376684358073E-03
    0.376684358200E-03
    0.376684358234E-03
    0.376684358215E-03
    0.376684358172E-03
    0.376684358104E-03
    0.376684357651E-03
    0.376684357905E-03
    0.376684357991E-03
    0.376684357944E-03
    0.376684358052E-03
    0.376684358128E-03
    0.376684357919E-03
    0.376684357987E-03
    0.376684357954E-03
    0.376684357941E-03
    0.376684357933E-03
    0.376684358078E-03
    0.376684358161E-03
    0.376684358201E-03
    0.376684358239E-03
    0.376684358231E-03
    0.376684358264E-03
    0.376684358256E-03
    0.376684358421E-03
    0.376684358207E-03
    0.376684358532E-03
    0.376684358586E-03
    0.376684358589E-03
    0.376684358578E-03
    0.376684358783E-03
    0.376684358739E-03
    0.376684358618E-03
    0.376684358380E-03
    0.376684358234E-03
