    -1529.14174866    
    -1529.14229073    
    -1529.14698858    
    -1529.15289044    
    -1529.15378641    
    -1529.15528154    
    -1529.15627380    
    -1529.15637737    
    -1529.15635663    
    -1529.15630979    
    -1529.15632476    
    -1529.15632246    
    -1529.15632762    
    -1529.15632956    
    -1529.15633307    
    -1529.15633274    
    -1529.15633122    
    -1529.15633337    
    -1529.15633414    
    -1529.15633478    
    -1529.15633554    
    -1529.15633581    
    -1529.15633776    
    -1529.15633728    
    -1529.15633728    
    -1529.15633711    
    -1529.15633712    
    -1529.15633710    
    -1529.15633666    
    -1529.15633711    
    -1529.15633713    
    -1529.15633715    
    -1529.15633713    
    -1529.15633722    
