    -3211.44968928    
    -3210.96684170    
    -3204.71102096    
    -3193.86904250    
    -3185.56233189    
    -3182.14024833    
    -3180.90982562    
    -3180.92576392    
    -3180.92889241    
    -3180.92414214    
    -3180.92122567    
    -3180.92113015    
    -3180.92104137    
    -3180.92106017    
    -3180.92099471    
    -3180.92095255    
    -3180.92096279    
    -3180.92096477    
    -3180.92096107    
    -3180.92095941    
    -3180.92095778    
    -3180.92095565    
    -3180.92095554    
    -3180.92095579    
    -3180.92094937    
    -3180.92095744    
    -3180.92095697    
    -3180.92095634    
    -3180.92095684    
    -3180.92095621    
    -3180.92095617    
    -3180.92095580    
    -3180.92095582    
    -3180.92095585    
    -3180.92095596    
