 
Species :    1 (W), atom :    1
 APW functions :
  l =  0, energy derivative =  0 :   0.4785441444    
  l =  1, energy derivative =  0 :   0.4785441444    
  l =  2, energy derivative =  0 :   0.4785441444    
  l =  3, energy derivative =  0 :   0.4785441444    
  l =  4, energy derivative =  0 :   0.4785441444    
  l =  5, energy derivative =  0 :   0.4785441444    
  l =  6, energy derivative =  0 :   0.4785441444    
  l =  7, energy derivative =  0 :   0.4785441444    
  l =  8, energy derivative =  0 :   0.4785441444    
  l =  9, energy derivative =  0 :   0.4785441444    
  l = 10, energy derivative =  0 :   0.4785441444    
 local-orbital functions :
  l.o. =  1, l =  0, energy derivative =  0 :   0.4785441444    
  l.o. =  1, l =  0, energy derivative =  1 :   0.4785441444    
  l.o. =  2, l =  1, energy derivative =  0 :   0.4785441444    
  l.o. =  2, l =  1, energy derivative =  1 :   0.4785441444    
  l.o. =  3, l =  2, energy derivative =  0 :   0.4785441444    
  l.o. =  3, l =  2, energy derivative =  1 :   0.4785441444    
  l.o. =  4, l =  3, energy derivative =  0 :   0.4785441444    
  l.o. =  4, l =  3, energy derivative =  1 :   0.4785441444    
  l.o. =  5, l =  3, energy derivative =  0 :   0.4785441444    
  l.o. =  5, l =  3, energy derivative =  0 :  -0.4622850484    
  l.o. =  6, l =  0, energy derivative =  0 :   0.4785441444    
  l.o. =  6, l =  0, energy derivative =  0 :   -2.156801419    
  l.o. =  7, l =  1, energy derivative =  0 :   0.4785441444    
  l.o. =  7, l =  1, energy derivative =  0 :  -0.8351485500    
  l.o. =  8, l =  2, energy derivative =  0 :   0.4785441444    
  l.o. =  8, l =  2, energy derivative =  0 :   0.7287563222    
  l.o. =  9, l =  4, energy derivative =  0 :   0.4785441444    
  l.o. =  9, l =  4, energy derivative =  1 :   0.4785441444    
  l.o. = 10, l =  5, energy derivative =  0 :   0.4785441444    
  l.o. = 10, l =  5, energy derivative =  1 :   0.4785441444    
  l.o. = 11, l =  6, energy derivative =  0 :   0.4785441444    
  l.o. = 11, l =  6, energy derivative =  1 :   0.4785441444    
  l.o. = 12, l =  0, energy derivative =  0 :    1.419441823    
  l.o. = 12, l =  0, energy derivative =  1 :    1.419441823    
  l.o. = 12, l =  0, energy derivative =  2 :    1.419441823    
  l.o. = 13, l =  1, energy derivative =  0 :    2.205713355    
  l.o. = 13, l =  1, energy derivative =  1 :    2.205713355    
  l.o. = 13, l =  1, energy derivative =  2 :    2.205713355    
  l.o. = 14, l =  2, energy derivative =  0 :   0.7287563222    
  l.o. = 14, l =  2, energy derivative =  1 :   0.7287563222    
  l.o. = 14, l =  2, energy derivative =  2 :   0.7287563222    
  l.o. = 15, l =  3, energy derivative =  0 :    2.289649335    
  l.o. = 15, l =  3, energy derivative =  1 :    2.289649335    
  l.o. = 15, l =  3, energy derivative =  2 :    2.289649335    
  l.o. = 16, l =  4, energy derivative =  0 :    3.525741181    
  l.o. = 16, l =  4, energy derivative =  1 :    3.525741181    
  l.o. = 16, l =  4, energy derivative =  2 :    3.525741181    
  l.o. = 17, l =  5, energy derivative =  0 :    5.152163941    
  l.o. = 17, l =  5, energy derivative =  1 :    5.152163941    
  l.o. = 17, l =  5, energy derivative =  2 :    5.152163941    
  l.o. = 18, l =  6, energy derivative =  0 :    6.874048170    
  l.o. = 18, l =  6, energy derivative =  1 :    6.874048170    
  l.o. = 18, l =  6, energy derivative =  2 :    6.874048170    
  l.o. = 19, l =  7, energy derivative =  0 :    8.745436888    
  l.o. = 19, l =  7, energy derivative =  1 :    8.745436888    
  l.o. = 19, l =  7, energy derivative =  2 :    8.745436888    
  l.o. = 20, l =  8, energy derivative =  0 :    10.78184063    
  l.o. = 20, l =  8, energy derivative =  1 :    10.78184063    
  l.o. = 20, l =  8, energy derivative =  2 :    10.78184063    
