    0.333119445836E-03
    0.234701399849E-03
    0.260157822936E-03
    0.351883097682E-03
    0.335751416399E-04
    0.526307957493E-03
    0.302394326801E-03
    0.311659921479E-03
    0.319326625432E-03
    0.322874320257E-03
    0.323213292924E-03
    0.323276482887E-03
    0.323330709418E-03
    0.323329855741E-03
    0.323325046333E-03
    0.323320224706E-03
    0.323316693329E-03
    0.323312865039E-03
    0.323313643589E-03
    0.323315553498E-03
    0.323315605661E-03
    0.323314842658E-03
    0.323317218098E-03
    0.323316225716E-03
    0.323314790173E-03
    0.323315189768E-03
    0.323315077219E-03
    0.323314815105E-03
    0.323314814142E-03
    0.323314852872E-03
    0.323314995477E-03
    0.323315053818E-03
    0.323315165911E-03
    0.323315161033E-03
    0.323315146996E-03
    0.323315175501E-03
    0.323315170588E-03
    0.323315165652E-03
    0.323315173377E-03
    0.323315171238E-03
    0.323315167210E-03
    0.323315172461E-03
    0.323315181076E-03
    0.323315180624E-03
    0.323315177072E-03
    0.323315176869E-03
    0.323315180701E-03
    0.323315183282E-03
    0.323315178338E-03
    0.323315177592E-03
    0.323315180831E-03
    0.323315175682E-03
    0.323315179970E-03
    0.323315168209E-03
    0.323315164936E-03
    0.323315178080E-03
    0.323315172605E-03
    0.323315179020E-03
    0.323315179180E-03
    0.323315178211E-03
    0.323315175133E-03
    0.323315176352E-03
    0.323315177519E-03
    0.323315176828E-03
    0.323315164670E-03
    0.323315174340E-03
    0.323315178960E-03
    0.323315181196E-03
    0.323315178767E-03
    0.323315180722E-03
    0.323315176724E-03
    0.323315175482E-03
    0.323315180031E-03
    0.323315178730E-03
    0.323315170050E-03
    0.323315178835E-03
    0.323315179202E-03
    0.323315178204E-03
    0.323315179648E-03
    0.323315172948E-03
    0.323315177551E-03
    0.323315188249E-03
    0.323315189538E-03
    0.323315212020E-03
    0.323315212326E-03
    0.323315203254E-03
    0.323315195210E-03
    0.323315195387E-03
    0.323315206331E-03
    0.323315202620E-03
    0.323315201317E-03
    0.323315185981E-03
    0.323315184201E-03
    0.323315176184E-03
    0.323315167132E-03
    0.323315176547E-03
    0.323315179327E-03
    0.323315180487E-03
    0.323315177778E-03
    0.323315177056E-03
    0.323315176198E-03
    0.323315179807E-03
    0.323315179861E-03
    0.323315188633E-03
    0.323315178924E-03
    0.323315181705E-03
    0.323315175695E-03
    0.323315186147E-03
    0.323315189825E-03
    0.323315187473E-03
    0.323315194793E-03
    0.323315180777E-03
    0.323315180045E-03
    0.323315185377E-03
    0.323315185415E-03
    0.323315179671E-03
    0.323315196860E-03
    0.323315186295E-03
    0.323315188415E-03
    0.323315190527E-03
    0.323315179960E-03
    0.323315176296E-03
    0.323315182502E-03
    0.323315180461E-03
    0.323315182146E-03
    0.323315182783E-03
    0.323315191465E-03
    0.323315196250E-03
    0.323315165243E-03
    0.323315166518E-03
    0.323315183589E-03
    0.323315187650E-03
    0.323315181314E-03
    0.323315166825E-03
    0.323315165950E-03
    0.323315151212E-03
    0.323315161478E-03
    0.323315170423E-03
    0.323315181033E-03
    0.323315174074E-03
    0.323315170914E-03
    0.323315177104E-03
    0.323315169350E-03
    0.323315166885E-03
    0.323315176782E-03
    0.323315167419E-03
    0.323315177468E-03
    0.323315176851E-03
    0.323315166529E-03
    0.323315169872E-03
    0.323315175713E-03
    0.323315171772E-03
    0.323315188888E-03
    0.323315171503E-03
    0.323315177646E-03
    0.323315175010E-03
    0.323315179577E-03
    0.323315186957E-03
    0.323315187379E-03
    0.323315185338E-03
    0.323315180034E-03
    0.323315184281E-03
    0.323315183107E-03
    0.323315177486E-03
    0.323315172632E-03
    0.323315176527E-03
    0.323315175013E-03
    0.323315171527E-03
    0.323315171952E-03
    0.323315173095E-03
    0.323315173955E-03
    0.323315180929E-03
    0.323315169583E-03
    0.323315172024E-03
    0.323315180144E-03
    0.323315160117E-03
    0.323315180067E-03
    0.323315178048E-03
    0.323315174697E-03
    0.323315175971E-03
    0.323315173224E-03
    0.323315173492E-03
    0.323315172437E-03
    0.323315179084E-03
    0.323315185489E-03
    0.323315186707E-03
    0.323315188270E-03
    0.323315184234E-03
    0.323315183683E-03
    0.323315183064E-03
    0.323315171960E-03
    0.323315171308E-03
    0.323315177277E-03
    0.323315188001E-03
    0.323315190130E-03
    0.323315174847E-03
    0.323315170378E-03
    0.323315168805E-03
    0.323315175239E-03
    0.323315182536E-03
