   121.1601864    
   27.35243046    
   19.03852060    
   121.1752542    
   20.46782324    
   28.56769936    
   43.79285700    
   66.19599272    
   7620.410827    
   49.29883321    
   854.0464202    
   121.0858961    
   212.6974105    
   123.3173287    
   112.0417606    
   95.68713758    
   132.0403943    
   137.9207805    
   138.7172791    
   138.7040442    
   138.7100880    
   138.6656841    
   138.6674292    
   138.6572703    
   138.6540587    
   138.6539429    
   138.6550610    
   138.6554280    
   138.6547602    
   138.6551528    
   138.6550557    
   138.6549877    
   138.6548648    
   138.6548841    
   138.6548384    
   138.6547258    
   138.6547355    
   138.6547681    
   138.6547698    
   138.6547800    
   138.6547908    
   138.6547996    
   138.6548100    
   138.6548079    
   138.6548133    
   138.6548147    
   138.6548147    
   138.6548152    
   138.6548145    
   138.6548133    
   138.6548136    
   138.6548132    
   138.6548129    
