   53.07807943    
   52.51398244    
   42.46414810    
   34.22105891    
   33.07178269    
   32.72441526    
   32.66898141    
   32.66728175    
   32.67515505    
   32.67920824    
   32.67891771    
   32.67806712    
   32.67777960    
   32.67773143    
   32.67759827    
   32.67758559    
   32.67771887    
   32.67754393    
   32.67738001    
   32.67744659    
   32.67734918    
   32.67718967    
   32.67713987    
   32.67710741    
   32.67710384    
   32.67708690    
   32.67705503    
   32.67706129    
   32.67706515    
   32.67706982    
   32.67707052    
   32.67706930    
   32.67707095    
   32.67707289    
   32.67707274    
   32.67707329    
   32.67707384    
   32.67707413    
   32.67707410    
   32.67707405    
   32.67707489    
   32.67707434    
   32.67707418    
   32.67707451    
   32.67707470    
   32.67707428    
   32.67707457    
   32.67707488    
   32.67707428    
   32.67707433    
   32.67707497    
   32.67707479    
   32.67707475    
   32.67707465    
   32.67707475    
   32.67707489    
   32.67707414    
   32.67707455    
