  0.6732715410E-03
  0.2188900227E-01
  0.4437312120E-02
  0.1150785931E-02
  0.1217848767E-02
  0.2164767320E-02
  0.2181524200E-02
  0.7526413319E-03
  0.1293208916E-03
  0.7886921230E-04
  0.1671685459E-04
  0.6095186109E-05
  0.8600181900E-06
  0.7696507964E-06
  0.1138987136E-04
  0.2662534826E-05
  0.5665060598E-07
  0.4972105671E-05
  0.4258668923E-05
  0.5120091373E-06
  0.1615990186E-06
  0.7137205102E-05
  0.2574372047E-05
  0.2773369488E-05
  0.2829692676E-06
  0.5769034033E-06
  0.2862361725E-06
  0.4849352990E-06
  0.7461130735E-06
  0.6465052138E-06
  0.4041357897E-06
  0.6940972526E-06
  0.4114626790E-06
  0.4110479495E-06
  0.4229077604E-06
  0.2965607564E-06
  0.8221832104E-07
  0.1445660018E-06
  0.1083171810E-06
  0.1342705218E-06
  0.3398599802E-07
  0.1334410626E-06
  0.1464723027E-06
  0.1042280928E-06
  0.2497181413E-06
  0.5379624781E-06
  0.2618835424E-06
  0.3411332727E-06
  0.4345711204E-06
  0.2726519597E-06
  0.3710738383E-07
  0.1044027158E-06
  0.2246379154E-06
  0.3889508662E-06
  0.1025255187E-06
  0.2056913218E-06
  0.3239256330E-07
  0.1138469088E-06
  0.5705442163E-06
  0.6059781299E-06
  0.2039596438E-06
  0.2698725439E-06
  0.2330707503E-06
  0.2285160008E-06
  0.1018634066E-08
