   68.87711659    
   68.55200938    
   66.14100415    
   66.69044300    
   68.62566329    
   67.95213830    
   67.45325904    
   67.22426420    
   67.14526913    
   67.18774897    
   67.18496633    
   67.19545090    
   67.19601949    
   67.21356932    
   67.21108904    
   67.20685925    
   67.20196481    
   67.20264982    
   67.20315909    
   67.20262650    
   67.20165750    
   67.20385439    
   67.20408331    
   67.20320853    
   67.20301558    
   67.20242941    
   67.20195808    
   67.20203849    
   67.20187436    
   67.20195973    
   67.20205488    
   67.20218763    
   67.20227323    
   67.20231287    
   67.20232794    
   67.20232958    
   67.20234189    
   67.20234515    
   67.20234151    
   67.20234731    
   67.20234585    
   67.20234573    
   67.20234531    
   67.20234237    
   67.20234441    
   67.20234370    
   67.20234410    
   67.20234374    
   67.20234516    
   67.20234315    
   67.20234300    
   67.20234331    
   67.20234382    
