 
+----------------------------+
| Real-space lattice vectors |
+----------------------------+
 
vector a1 :    3.771035499       3.771035499       0.000000000    
vector a2 :    3.771035499       0.000000000       3.771035499    
vector a3 :    0.000000000       3.771035499       3.771035499    
 
Stored column-wise as a matrix :
   3.771035499       3.771035499       0.000000000    
   3.771035499       0.000000000       3.771035499    
   0.000000000       3.771035499       3.771035499    
 
Inverse of matrix :
  0.1325895766      0.1325895766     -0.1325895766    
  0.1325895766     -0.1325895766      0.1325895766    
 -0.1325895766      0.1325895766      0.1325895766    
 
Unit cell volume :    107.2535949    
 
 
+----------------------------------+
| Reciprocal-space lattice vectors |
+----------------------------------+
 
vector b1 :   0.8330848793      0.8330848793     -0.8330848793    
vector b2 :   0.8330848793     -0.8330848793      0.8330848793    
vector b3 :  -0.8330848793      0.8330848793      0.8330848793    
 
Stored column-wise as a matrix :
  0.8330848793      0.8330848793     -0.8330848793    
  0.8330848793     -0.8330848793      0.8330848793    
 -0.8330848793      0.8330848793      0.8330848793    
 
Inverse of matrix :
  0.6001789403      0.6001789403       0.000000000    
  0.6001789403       0.000000000      0.6001789403    
   0.000000000      0.6001789403      0.6001789403    
 
Brillouin zone volume :    2.312744982    
