  0.9629114629    
  0.7938897804    
  0.6196652618    
  0.4553635994    
  0.3109649858    
  0.1958261552    
  0.1137480977    
  0.6092066832E-01
  0.2999563324E-01
  0.1362601258E-01
  0.5825472877E-02
  0.2414791247E-02
  0.9805212716E-03
  0.3762927341E-03
  0.1303639419E-03
  0.4053457185E-04
  0.3639170724E-04
  0.3017606137E-04
  0.6810961263E-05
  0.2140690573E-05
  0.6312029205E-05
  0.4679658717E-04
  0.1519356868E-04
  0.6478220370E-05
  0.1386799637E-04
  0.6592908886E-04
