  0.6972211177E-03
  0.3131046742E-03
  0.3177132052E-02
  0.6505030524E-02
  0.6081860109E-02
  0.3761028580E-02
  0.2734431149E-02
  0.7450138000E-03
  0.7146231110E-04
  0.2904435223E-03
  0.2478119204E-03
  0.1233743133E-03
  0.4608074778E-04
  0.2961497376E-04
  0.2992122063E-04
  0.7041573554E-05
  0.2175967893E-05
  0.3190911229E-05
  0.1349377271E-05
  0.1965127012E-04
  0.6244790711E-05
  0.2234168278E-05
  0.4942574378E-05
  0.4246005119E-05
  0.2056272933E-05
  0.3044977348E-05
  0.2178403520E-05
  0.4269822966E-06
  0.2143355232E-05
  0.1391957994E-05
  0.3584791557E-06
  0.2405595296E-06
  0.1633707143E-06
  0.1337248250E-06
  0.2987690095E-07
  0.1927201083E-06
  0.1189437171E-06
  0.3970126272E-07
  0.3337845556E-07
  0.4534376785E-07
  0.3619061317E-07
  0.6551090337E-07
  0.5528818292E-07
  0.1430271368E-07
  0.4646062735E-07
  0.4808134690E-07
  0.2954766387E-07
  0.1295211405E-06
  0.8207825886E-07
  0.9624272934E-08
