 
Species :    1 (Ru), atom :    1
 n =  1, l =  0, k =  1 :   -806.5774336    
 n =  2, l =  0, k =  1 :   -115.1907219    
 n =  2, l =  1, k =  1 :   -106.3593073    
 n =  2, l =  1, k =  2 :   -101.5289744    
 n =  3, l =  0, k =  1 :   -19.67321857    
 n =  3, l =  1, k =  1 :   -16.25336754    
 n =  3, l =  1, k =  2 :   -15.43271184    
 n =  3, l =  2, k =  2 :   -9.376623834    
 n =  3, l =  2, k =  3 :   -9.217475568    
 
Species :    1 (Ru), atom :    2
 n =  1, l =  0, k =  1 :   -806.5774336    
 n =  2, l =  0, k =  1 :   -115.1907219    
 n =  2, l =  1, k =  1 :   -106.3593073    
 n =  2, l =  1, k =  2 :   -101.5289744    
 n =  3, l =  0, k =  1 :   -19.67321857    
 n =  3, l =  1, k =  1 :   -16.25336754    
 n =  3, l =  1, k =  2 :   -15.43271184    
 n =  3, l =  2, k =  2 :   -9.376623834    
 n =  3, l =  2, k =  3 :   -9.217475568    
