  0.6062929211    
  0.5019144949    
  0.2231577722    
  0.8512744494E-01
  0.2881103643E-01
  0.3869013985E-02
  0.1037394029E-02
  0.2553298534E-03
  0.1683819700E-03
  0.8535315994E-04
  0.6861784377E-04
  0.9267555411E-04
  0.2093021337E-03
  0.1509993890E-04
  0.1155899437E-03
  0.4125446395E-04
  0.2069262998E-04
  0.1010680545E-03
  0.1894702186E-03
  0.4284112188E-03
  0.4019648548E-04
  0.1383786780E-03
  0.3940403238E-04
  0.3679806676E-04
  0.7618562201E-04
  0.3328062217E-04
  0.3950982689E-04
  0.3495593824E-04
  0.3386078697E-04
  0.2066180206E-03
  0.3258132923E-04
  0.1049900455E-03
  0.1313455331E-03
  0.8875136220E-04
  0.9111743117E-05
  0.2171658870E-03
  0.3770664486E-04
  0.1831324118E-03
  0.4887249361E-04
  0.1242103348E-03
  0.5032123301E-04
  0.1948317121E-04
  0.8098382733E-04
  0.6903901288E-05
  0.8251740946E-05
  0.8785843261E-05
  0.3150481883E-04
  0.1488555153E-04
  0.1882592895E-03
  0.2215352876E-04
  0.1280923809E-03
  0.1045841997E-04
