 
 
Atomic position optimisation step :      1
 
Forces :
 species :    1 (Li)
  atom :    1
   Hellmann-Feynman          :    -0.00000000   -0.00000000    0.00000000
   IBS                       :     0.00000000    0.00000000    0.00000000
   total force               :     0.00000000    0.00000000    0.00000000
   total magnitude           :     0.00000000
 
Maximum force magnitude over all atoms (target) :    0.000000000     (  0.1000000000E-03)
 
Force convergence target achieved
 
 
Atomic position optimisation step :      1
 
Forces :
 species :    1 (Li)
  atom :    1
   Hellmann-Feynman          :     0.00000000   -0.00000000    0.00000000
   IBS                       :     0.00000000    0.00000000    0.00000000
   total force               :     0.00000000    0.00000000    0.00000000
   total magnitude           :     0.00000000
 
Maximum force magnitude over all atoms (target) :    0.000000000     (  0.1000000000E-03)
 
Force convergence target achieved
 
 
Atomic position optimisation step :      1
 
Forces :
 species :    1 (Li)
  atom :    1
   Hellmann-Feynman          :    -0.00000000    0.00000000    0.00000000
   IBS                       :     0.00000000    0.00000000    0.00000000
   total force               :     0.00000000    0.00000000    0.00000000
   total magnitude           :     0.00000000
 
Maximum force magnitude over all atoms (target) :    0.000000000     (  0.1000000000E-03)
 
Force convergence target achieved
 
 
Atomic position optimisation step :      1
 
Forces :
 species :    1 (Li)
  atom :    1
   Hellmann-Feynman          :    -0.00000000    0.00000000    0.00000000
   IBS                       :    -0.00000000    0.00000000    0.00000000
   total force               :     0.00000000    0.00000000    0.00000000
   total magnitude           :     0.00000000
 
Maximum force magnitude over all atoms (target) :    0.000000000     (  0.1000000000E-03)
 
Force convergence target achieved
 
 
Atomic position optimisation step :      1
 
Forces :
 species :    1 (Li)
  atom :    1
   Hellmann-Feynman          :     0.00000000    0.00000000    0.00000000
   IBS                       :    -0.00000000    0.00000000    0.00000000
   total force               :     0.00000000    0.00000000    0.00000000
   total magnitude           :     0.00000000
 
Maximum force magnitude over all atoms (target) :    0.000000000     (  0.1000000000E-03)
 
Force convergence target achieved
 
 
Atomic position optimisation step :      1
 
Forces :
 species :    1 (Li)
  atom :    1
   Hellmann-Feynman          :    -0.00000000   -0.00000000    0.00000000
   IBS                       :    -0.00000000    0.00000000    0.00000000
   total force               :     0.00000000    0.00000000    0.00000000
   total magnitude           :     0.00000000
 
Maximum force magnitude over all atoms (target) :    0.000000000     (  0.1000000000E-03)
 
Force convergence target achieved
 
 
Atomic position optimisation step :      1
 
Forces :
 species :    1 (Li)
  atom :    1
   Hellmann-Feynman          :    -0.00000000    0.00000000    0.00000000
   IBS                       :    -0.00000000    0.00000000    0.00000000
   total force               :     0.00000000    0.00000000    0.00000000
   total magnitude           :     0.00000000
 
Maximum force magnitude over all atoms (target) :    0.000000000     (  0.1000000000E-03)
 
Force convergence target achieved
 
 
Atomic position optimisation step :      1
 
Forces :
 species :    1 (Li)
  atom :    1
   Hellmann-Feynman          :     0.00000000   -0.00000000    0.00000000
   IBS                       :     0.00000000    0.00000000    0.00000000
   total force               :     0.00000000    0.00000000    0.00000000
   total magnitude           :     0.00000000
 
Maximum force magnitude over all atoms (target) :    0.000000000     (  0.1000000000E-03)
 
Force convergence target achieved
 
 
Atomic position optimisation step :      1
 
Forces :
 species :    1 (Li)
  atom :    1
   Hellmann-Feynman          :    -0.00000000   -0.00000000    0.00000000
   IBS                       :     0.00000000    0.00000000    0.00000000
   total force               :     0.00000000    0.00000000    0.00000000
   total magnitude           :     0.00000000
 
Maximum force magnitude over all atoms (target) :    0.000000000     (  0.1000000000E-03)
 
Force convergence target achieved
 
 
Atomic position optimisation step :      1
 
Forces :
 species :    1 (Li)
  atom :    1
   Hellmann-Feynman          :     0.00000000   -0.00000000    0.00000000
   IBS                       :    -0.00000000   -0.00000000    0.00000000
   total force               :     0.00000000    0.00000000    0.00000000
   total magnitude           :     0.00000000
 
Maximum force magnitude over all atoms (target) :    0.000000000     (  0.1000000000E-03)
 
Force convergence target achieved
 
 
Atomic position optimisation step :      1
 
Forces :
 species :    1 (Li)
  atom :    1
   Hellmann-Feynman          :    -0.00000000   -0.00000000    0.00000000
   IBS                       :    -0.00000000    0.00000000    0.00000000
   total force               :     0.00000000    0.00000000    0.00000000
   total magnitude           :     0.00000000
 
Maximum force magnitude over all atoms (target) :    0.000000000     (  0.1000000000E-03)
 
Force convergence target achieved
 
 
Atomic position optimisation step :      1
 
Forces :
 species :    1 (Li)
  atom :    1
   Hellmann-Feynman          :    -0.00000000    0.00000000    0.00000000
   IBS                       :     0.00000000   -0.00000000    0.00000000
   total force               :     0.00000000    0.00000000    0.00000000
   total magnitude           :     0.00000000
 
Maximum force magnitude over all atoms (target) :    0.000000000     (  0.1000000000E-03)
 
Force convergence target achieved
 
 
Atomic position optimisation step :      1
 
Forces :
 species :    1 (Li)
  atom :    1
   Hellmann-Feynman          :     0.00000000    0.00000000    0.00000000
   IBS                       :     0.00000000    0.00000000    0.00000000
   total force               :     0.00000000    0.00000000    0.00000000
   total magnitude           :     0.00000000
 
Maximum force magnitude over all atoms (target) :    0.000000000     (  0.1000000000E-03)
 
Force convergence target achieved
 
 
Atomic position optimisation step :      1
 
Forces :
 species :    1 (Li)
  atom :    1
   Hellmann-Feynman          :     0.00000000    0.00000000    0.00000000
   IBS                       :    -0.00000000    0.00000000    0.00000000
   total force               :     0.00000000    0.00000000    0.00000000
   total magnitude           :     0.00000000
 
Maximum force magnitude over all atoms (target) :    0.000000000     (  0.1000000000E-03)
 
Force convergence target achieved
 
 
Atomic position optimisation step :      1
 
Forces :
 species :    1 (Li)
  atom :    1
   Hellmann-Feynman          :     0.00000000   -0.00000000    0.00000000
   IBS                       :     0.00000000   -0.00000000    0.00000000
   total force               :     0.00000000    0.00000000    0.00000000
   total magnitude           :     0.00000000
 
Maximum force magnitude over all atoms (target) :    0.000000000     (  0.1000000000E-03)
 
Force convergence target achieved
 
 
Atomic position optimisation step :      1
 
Forces :
 species :    1 (Li)
  atom :    1
   Hellmann-Feynman          :    -0.00000000   -0.00000000    0.00000000
   IBS                       :    -0.00000000    0.00000000    0.00000000
   total force               :     0.00000000    0.00000000    0.00000000
   total magnitude           :     0.00000000
 
Maximum force magnitude over all atoms (target) :    0.000000000     (  0.1000000000E-03)
 
Force convergence target achieved
 
 
Atomic position optimisation step :      1
 
Forces :
 species :    1 (Li)
  atom :    1
   Hellmann-Feynman          :     0.00000000    0.00000000    0.00000000
   IBS                       :     0.00000000    0.00000000    0.00000000
   total force               :     0.00000000    0.00000000    0.00000000
   total magnitude           :     0.00000000
 
Maximum force magnitude over all atoms (target) :    0.000000000     (  0.1000000000E-03)
 
Force convergence target achieved
 
 
Atomic position optimisation step :      1
 
Forces :
 species :    1 (Li)
  atom :    1
   Hellmann-Feynman          :     0.00000000   -0.00000000    0.00000000
   IBS                       :    -0.00000000    0.00000000    0.00000000
   total force               :     0.00000000    0.00000000    0.00000000
   total magnitude           :     0.00000000
 
Maximum force magnitude over all atoms (target) :    0.000000000     (  0.1000000000E-03)
 
Force convergence target achieved
 
 
Atomic position optimisation step :      1
 
Forces :
 species :    1 (Li)
  atom :    1
   Hellmann-Feynman          :    -0.00000000   -0.00000000    0.00000000
   IBS                       :    -0.00000000    0.00000000    0.00000000
   total force               :     0.00000000    0.00000000    0.00000000
   total magnitude           :     0.00000000
 
Maximum force magnitude over all atoms (target) :    0.000000000     (  0.1000000000E-03)
 
Force convergence target achieved
 
 
Atomic position optimisation step :      1
 
Forces :
 species :    1 (Li)
  atom :    1
   Hellmann-Feynman          :    -0.00000000   -0.00000000    0.00000000
   IBS                       :     0.00000000   -0.00000000    0.00000000
   total force               :     0.00000000    0.00000000    0.00000000
   total magnitude           :     0.00000000
 
Maximum force magnitude over all atoms (target) :    0.000000000     (  0.1000000000E-03)
 
Force convergence target achieved
 
 
Atomic position optimisation step :      1
 
Forces :
 species :    1 (Li)
  atom :    1
   Hellmann-Feynman          :    -0.00000000    0.00000000    0.00000000
   IBS                       :    -0.00000000   -0.00000000    0.00000000
   total force               :     0.00000000    0.00000000    0.00000000
   total magnitude           :     0.00000000
 
Maximum force magnitude over all atoms (target) :    0.000000000     (  0.1000000000E-03)
 
Force convergence target achieved
 
 
Atomic position optimisation step :      1
 
Forces :
 species :    1 (Li)
  atom :    1
   Hellmann-Feynman          :    -0.00000000    0.00000000    0.00000000
   IBS                       :     0.00000000   -0.00000000    0.00000000
   total force               :     0.00000000    0.00000000    0.00000000
   total magnitude           :     0.00000000
 
Maximum force magnitude over all atoms (target) :    0.000000000     (  0.1000000000E-03)
 
Force convergence target achieved
 
 
Atomic position optimisation step :      1
 
Forces :
 species :    1 (Li)
  atom :    1
   Hellmann-Feynman          :     0.00000000    0.00000000    0.00000000
   IBS                       :    -0.00000000    0.00000000    0.00000000
   total force               :     0.00000000    0.00000000    0.00000000
   total magnitude           :     0.00000000
 
Maximum force magnitude over all atoms (target) :    0.000000000     (  0.1000000000E-03)
 
Force convergence target achieved
 
 
Atomic position optimisation step :      1
 
Forces :
 species :    1 (Li)
  atom :    1
   Hellmann-Feynman          :    -0.00000000    0.00000000    0.00000000
   IBS                       :     0.00000000    0.00000000    0.00000000
   total force               :     0.00000000    0.00000000    0.00000000
   total magnitude           :     0.00000000
 
Maximum force magnitude over all atoms (target) :    0.000000000     (  0.1000000000E-03)
 
Force convergence target achieved
 
 
Atomic position optimisation step :      1
 
Forces :
 species :    1 (Li)
  atom :    1
   Hellmann-Feynman          :     0.00000000   -0.00000000    0.00000000
   IBS                       :     0.00000000    0.00000000    0.00000000
   total force               :     0.00000000    0.00000000    0.00000000
   total magnitude           :     0.00000000
 
Maximum force magnitude over all atoms (target) :    0.000000000     (  0.1000000000E-03)
 
Force convergence target achieved
 
 
Atomic position optimisation step :      1
 
Forces :
 species :    1 (Li)
  atom :    1
   Hellmann-Feynman          :     0.00000000    0.00000000    0.00000000
   IBS                       :    -0.00000000    0.00000000    0.00000000
   total force               :     0.00000000    0.00000000    0.00000000
   total magnitude           :     0.00000000
 
Maximum force magnitude over all atoms (target) :    0.000000000     (  0.1000000000E-03)
 
Force convergence target achieved
 
 
Atomic position optimisation step :      1
 
Forces :
 species :    1 (Li)
  atom :    1
   Hellmann-Feynman          :    -0.00000000    0.00000000    0.00000000
   IBS                       :     0.00000000   -0.00000000    0.00000000
   total force               :     0.00000000    0.00000000    0.00000000
   total magnitude           :     0.00000000
 
Maximum force magnitude over all atoms (target) :    0.000000000     (  0.1000000000E-03)
 
Force convergence target achieved
 
 
Atomic position optimisation step :      1
 
Forces :
 species :    1 (Li)
  atom :    1
   Hellmann-Feynman          :    -0.00000000   -0.00000000    0.00000000
   IBS                       :    -0.00000000   -0.00000000    0.00000000
   total force               :     0.00000000    0.00000000    0.00000000
   total magnitude           :     0.00000000
 
Maximum force magnitude over all atoms (target) :    0.000000000     (  0.1000000000E-03)
 
Force convergence target achieved
 
 
Atomic position optimisation step :      1
 
Forces :
 species :    1 (Li)
  atom :    1
   Hellmann-Feynman          :    -0.00000000    0.00000000    0.00000000
   IBS                       :     0.00000000    0.00000000    0.00000000
   total force               :     0.00000000    0.00000000    0.00000000
   total magnitude           :     0.00000000
 
Maximum force magnitude over all atoms (target) :    0.000000000     (  0.1000000000E-03)
 
Force convergence target achieved
 
 
Atomic position optimisation step :      1
 
Forces :
 species :    1 (Li)
  atom :    1
   Hellmann-Feynman          :    -0.00000000   -0.00000000    0.00000000
   IBS                       :    -0.00000000    0.00000000    0.00000000
   total force               :     0.00000000    0.00000000    0.00000000
   total magnitude           :     0.00000000
 
Maximum force magnitude over all atoms (target) :    0.000000000     (  0.1000000000E-03)
 
Force convergence target achieved
 
 
Atomic position optimisation step :      1
 
Forces :
 species :    1 (Li)
  atom :    1
   Hellmann-Feynman          :     0.00000000    0.00000000    0.00000000
   IBS                       :     0.00000000   -0.00000000    0.00000000
   total force               :     0.00000000    0.00000000    0.00000000
   total magnitude           :     0.00000000
 
Maximum force magnitude over all atoms (target) :    0.000000000     (  0.1000000000E-03)
 
Force convergence target achieved
 
 
Atomic position optimisation step :      1
 
Forces :
 species :    1 (Li)
  atom :    1
   Hellmann-Feynman          :     0.00000000    0.00000000    0.00000000
   IBS                       :    -0.00000000    0.00000000    0.00000000
   total force               :     0.00000000    0.00000000    0.00000000
   total magnitude           :     0.00000000
 
Maximum force magnitude over all atoms (target) :    0.000000000     (  0.1000000000E-03)
 
Force convergence target achieved
 
 
Atomic position optimisation step :      1
 
Forces :
 species :    1 (Li)
  atom :    1
   Hellmann-Feynman          :    -0.00000000   -0.00000000    0.00000000
   IBS                       :    -0.00000000   -0.00000000    0.00000000
   total force               :     0.00000000    0.00000000    0.00000000
   total magnitude           :     0.00000000
 
Maximum force magnitude over all atoms (target) :    0.000000000     (  0.1000000000E-03)
 
Force convergence target achieved
 
 
Atomic position optimisation step :      1
 
Forces :
 species :    1 (Li)
  atom :    1
   Hellmann-Feynman          :    -0.00000000   -0.00000000    0.00000000
   IBS                       :     0.00000000   -0.00000000    0.00000000
   total force               :     0.00000000    0.00000000    0.00000000
   total magnitude           :     0.00000000
 
Maximum force magnitude over all atoms (target) :    0.000000000     (  0.1000000000E-03)
 
Force convergence target achieved
 
 
Atomic position optimisation step :      1
 
Forces :
 species :    1 (Li)
  atom :    1
   Hellmann-Feynman          :    -0.00000000   -0.00000000    0.00000000
   IBS                       :    -0.00000000    0.00000000    0.00000000
   total force               :     0.00000000    0.00000000    0.00000000
   total magnitude           :     0.00000000
 
Maximum force magnitude over all atoms (target) :    0.000000000     (  0.1000000000E-03)
 
Force convergence target achieved
 
 
Atomic position optimisation step :      1
 
Forces :
 species :    1 (Li)
  atom :    1
   Hellmann-Feynman          :     0.00000000    0.00000000    0.00000000
   IBS                       :    -0.00000000    0.00000000    0.00000000
   total force               :     0.00000000    0.00000000    0.00000000
   total magnitude           :     0.00000000
 
Maximum force magnitude over all atoms (target) :    0.000000000     (  0.1000000000E-03)
 
Force convergence target achieved
 
 
Atomic position optimisation step :      1
 
Forces :
 species :    1 (Li)
  atom :    1
   Hellmann-Feynman          :     0.00000000   -0.00000000    0.00000000
   IBS                       :     0.00000000   -0.00000000    0.00000000
   total force               :     0.00000000    0.00000000    0.00000000
   total magnitude           :     0.00000000
 
Maximum force magnitude over all atoms (target) :    0.000000000     (  0.1000000000E-03)
 
Force convergence target achieved
 
 
Atomic position optimisation step :      1
 
Forces :
 species :    1 (Li)
  atom :    1
   Hellmann-Feynman          :    -0.00000000    0.00000000    0.00000000
   IBS                       :    -0.00000000    0.00000000    0.00000000
   total force               :     0.00000000    0.00000000    0.00000000
   total magnitude           :     0.00000000
 
Maximum force magnitude over all atoms (target) :    0.000000000     (  0.1000000000E-03)
 
Force convergence target achieved
 
 
Atomic position optimisation step :      1
 
Forces :
 species :    1 (Li)
  atom :    1
   Hellmann-Feynman          :     0.00000000   -0.00000000    0.00000000
   IBS                       :    -0.00000000    0.00000000    0.00000000
   total force               :     0.00000000    0.00000000    0.00000000
   total magnitude           :     0.00000000
 
Maximum force magnitude over all atoms (target) :    0.000000000     (  0.1000000000E-03)
 
Force convergence target achieved
