   54.72975526    
   54.66611368    
   54.54152963    
   54.07646393    
   54.96839989    
   55.22506929    
   55.30644855    
   55.31658083    
   55.31024873    
   55.30740136    
   55.30821516    
   55.30774486    
   55.30962907    
   55.30875917    
   55.30852874    
   55.30858022    
   55.30878650    
   55.30884159    
   55.30881346    
   55.30893167    
   55.30886201    
   55.30871618    
   55.30878077    
   55.30893222    
   55.30898849    
   55.30911226    
   55.30916316    
   55.30919687    
   55.30919049    
   55.30921371    
   55.30922628    
   55.30924644    
   55.30924226    
   55.30926354    
   55.30926686    
   55.30926041    
   55.30926985    
   55.30927643    
   55.30928031    
   55.30928240    
   55.30928434    
   55.30928651    
   55.30928748    
   55.30928871    
   55.30928756    
   55.30928919    
   55.30928884    
   55.30928732    
   55.30928883    
   55.30928771    
   55.30928770    
   55.30928857    
   55.30928915    
   55.30928923    
   55.30928922    
   55.30928947    
   55.30928924    
   55.30928936    
   55.30928938    
   55.30928938    
   55.30928950    
   55.30928974    
   55.30928977    
   55.30928982    
   55.30928980    
   55.30928971    
