 
Species :    1 (Os), atom :    1
 APW functions :
  l =  0, energy derivative =  0 :   0.5490973706    
  l =  1, energy derivative =  0 :   0.5490973706    
  l =  2, energy derivative =  0 :   0.5490973706    
  l =  3, energy derivative =  0 :   0.5490973706    
  l =  4, energy derivative =  0 :   0.5490973706    
  l =  5, energy derivative =  0 :   0.5490973706    
  l =  6, energy derivative =  0 :   0.5490973706    
  l =  7, energy derivative =  0 :   0.5490973706    
  l =  8, energy derivative =  0 :   0.5490973706    
  l =  9, energy derivative =  0 :   0.5490973706    
  l = 10, energy derivative =  0 :   0.5490973706    
 local-orbital functions :
  l.o. =  1, l =  0, energy derivative =  0 :   0.5490973706    
  l.o. =  1, l =  0, energy derivative =  1 :   0.5490973706    
  l.o. =  2, l =  1, energy derivative =  0 :   0.5490973706    
  l.o. =  2, l =  1, energy derivative =  1 :   0.5490973706    
  l.o. =  3, l =  2, energy derivative =  0 :   0.5490973706    
  l.o. =  3, l =  2, energy derivative =  1 :   0.5490973706    
  l.o. =  4, l =  3, energy derivative =  0 :   0.5490973706    
  l.o. =  4, l =  3, energy derivative =  1 :   0.5490973706    
  l.o. =  5, l =  3, energy derivative =  0 :   0.5490973706    
  l.o. =  5, l =  3, energy derivative =  0 :   -1.075454124    
  l.o. =  6, l =  0, energy derivative =  0 :   0.5490973706    
  l.o. =  6, l =  0, energy derivative =  0 :   -2.540701920    
  l.o. =  7, l =  1, energy derivative =  0 :   0.5490973706    
  l.o. =  7, l =  1, energy derivative =  0 :   -1.043100716    
  l.o. =  8, l =  2, energy derivative =  0 :   0.5490973706    
  l.o. =  8, l =  2, energy derivative =  0 :   0.7119687367    
  l.o. =  9, l =  4, energy derivative =  0 :   0.5490973706    
  l.o. =  9, l =  4, energy derivative =  1 :   0.5490973706    
  l.o. = 10, l =  5, energy derivative =  0 :   0.5490973706    
  l.o. = 10, l =  5, energy derivative =  1 :   0.5490973706    
  l.o. = 11, l =  6, energy derivative =  0 :   0.5490973706    
  l.o. = 11, l =  6, energy derivative =  1 :   0.5490973706    
  l.o. = 12, l =  0, energy derivative =  0 :    1.487542524    
  l.o. = 12, l =  0, energy derivative =  1 :    1.487542524    
  l.o. = 12, l =  0, energy derivative =  2 :    1.487542524    
  l.o. = 13, l =  1, energy derivative =  0 :    2.333173032    
  l.o. = 13, l =  1, energy derivative =  1 :    2.333173032    
  l.o. = 13, l =  1, energy derivative =  2 :    2.333173032    
  l.o. = 14, l =  2, energy derivative =  0 :   0.7119687367    
  l.o. = 14, l =  2, energy derivative =  1 :   0.7119687367    
  l.o. = 14, l =  2, energy derivative =  2 :   0.7119687367    
  l.o. = 15, l =  3, energy derivative =  0 :    2.420964473    
  l.o. = 15, l =  3, energy derivative =  1 :    2.420964473    
  l.o. = 15, l =  3, energy derivative =  2 :    2.420964473    
  l.o. = 16, l =  4, energy derivative =  0 :    3.813972156    
  l.o. = 16, l =  4, energy derivative =  1 :    3.813972156    
  l.o. = 16, l =  4, energy derivative =  2 :    3.813972156    
  l.o. = 17, l =  5, energy derivative =  0 :    5.598190525    
  l.o. = 17, l =  5, energy derivative =  1 :    5.598190525    
  l.o. = 17, l =  5, energy derivative =  2 :    5.598190525    
  l.o. = 18, l =  6, energy derivative =  0 :    7.475661780    
  l.o. = 18, l =  6, energy derivative =  1 :    7.475661780    
  l.o. = 18, l =  6, energy derivative =  2 :    7.475661780    
  l.o. = 19, l =  7, energy derivative =  0 :    9.512569371    
  l.o. = 19, l =  7, energy derivative =  1 :    9.512569371    
  l.o. = 19, l =  7, energy derivative =  2 :    9.512569371    
  l.o. = 20, l =  8, energy derivative =  0 :    11.72735537    
  l.o. = 20, l =  8, energy derivative =  1 :    11.72735537    
  l.o. = 20, l =  8, energy derivative =  2 :    11.72735537    
 
Species :    1 (Os), atom :    2
 APW functions :
  l =  0, energy derivative =  0 :   0.5490973706    
  l =  1, energy derivative =  0 :   0.5490973706    
  l =  2, energy derivative =  0 :   0.5490973706    
  l =  3, energy derivative =  0 :   0.5490973706    
  l =  4, energy derivative =  0 :   0.5490973706    
  l =  5, energy derivative =  0 :   0.5490973706    
  l =  6, energy derivative =  0 :   0.5490973706    
  l =  7, energy derivative =  0 :   0.5490973706    
  l =  8, energy derivative =  0 :   0.5490973706    
  l =  9, energy derivative =  0 :   0.5490973706    
  l = 10, energy derivative =  0 :   0.5490973706    
 local-orbital functions :
  l.o. =  1, l =  0, energy derivative =  0 :   0.5490973706    
  l.o. =  1, l =  0, energy derivative =  1 :   0.5490973706    
  l.o. =  2, l =  1, energy derivative =  0 :   0.5490973706    
  l.o. =  2, l =  1, energy derivative =  1 :   0.5490973706    
  l.o. =  3, l =  2, energy derivative =  0 :   0.5490973706    
  l.o. =  3, l =  2, energy derivative =  1 :   0.5490973706    
  l.o. =  4, l =  3, energy derivative =  0 :   0.5490973706    
  l.o. =  4, l =  3, energy derivative =  1 :   0.5490973706    
  l.o. =  5, l =  3, energy derivative =  0 :   0.5490973706    
  l.o. =  5, l =  3, energy derivative =  0 :   -1.075454124    
  l.o. =  6, l =  0, energy derivative =  0 :   0.5490973706    
  l.o. =  6, l =  0, energy derivative =  0 :   -2.540701920    
  l.o. =  7, l =  1, energy derivative =  0 :   0.5490973706    
  l.o. =  7, l =  1, energy derivative =  0 :   -1.043100716    
  l.o. =  8, l =  2, energy derivative =  0 :   0.5490973706    
  l.o. =  8, l =  2, energy derivative =  0 :   0.7119687367    
  l.o. =  9, l =  4, energy derivative =  0 :   0.5490973706    
  l.o. =  9, l =  4, energy derivative =  1 :   0.5490973706    
  l.o. = 10, l =  5, energy derivative =  0 :   0.5490973706    
  l.o. = 10, l =  5, energy derivative =  1 :   0.5490973706    
  l.o. = 11, l =  6, energy derivative =  0 :   0.5490973706    
  l.o. = 11, l =  6, energy derivative =  1 :   0.5490973706    
  l.o. = 12, l =  0, energy derivative =  0 :    1.487542524    
  l.o. = 12, l =  0, energy derivative =  1 :    1.487542524    
  l.o. = 12, l =  0, energy derivative =  2 :    1.487542524    
  l.o. = 13, l =  1, energy derivative =  0 :    2.333173032    
  l.o. = 13, l =  1, energy derivative =  1 :    2.333173032    
  l.o. = 13, l =  1, energy derivative =  2 :    2.333173032    
  l.o. = 14, l =  2, energy derivative =  0 :   0.7119687367    
  l.o. = 14, l =  2, energy derivative =  1 :   0.7119687367    
  l.o. = 14, l =  2, energy derivative =  2 :   0.7119687367    
  l.o. = 15, l =  3, energy derivative =  0 :    2.420964473    
  l.o. = 15, l =  3, energy derivative =  1 :    2.420964473    
  l.o. = 15, l =  3, energy derivative =  2 :    2.420964473    
  l.o. = 16, l =  4, energy derivative =  0 :    3.813972156    
  l.o. = 16, l =  4, energy derivative =  1 :    3.813972156    
  l.o. = 16, l =  4, energy derivative =  2 :    3.813972156    
  l.o. = 17, l =  5, energy derivative =  0 :    5.598190525    
  l.o. = 17, l =  5, energy derivative =  1 :    5.598190525    
  l.o. = 17, l =  5, energy derivative =  2 :    5.598190525    
  l.o. = 18, l =  6, energy derivative =  0 :    7.475661780    
  l.o. = 18, l =  6, energy derivative =  1 :    7.475661780    
  l.o. = 18, l =  6, energy derivative =  2 :    7.475661780    
  l.o. = 19, l =  7, energy derivative =  0 :    9.512569371    
  l.o. = 19, l =  7, energy derivative =  1 :    9.512569371    
  l.o. = 19, l =  7, energy derivative =  2 :    9.512569371    
  l.o. = 20, l =  8, energy derivative =  0 :    11.72735537    
  l.o. = 20, l =  8, energy derivative =  1 :    11.72735537    
  l.o. = 20, l =  8, energy derivative =  2 :    11.72735537    
