 
+----------------------------+
| Real-space lattice vectors |
+----------------------------+
 
vector a1 :    6.078213682      -3.509258305       0.000000000    
vector a2 :    0.000000000       7.018516611       0.000000000    
vector a3 :    0.000000000       0.000000000       11.49566774    
 
Stored column-wise as a matrix :
   6.078213682       0.000000000       0.000000000    
  -3.509258305       7.018516611       0.000000000    
   0.000000000       0.000000000       11.49566774    
 
Inverse of matrix :
  0.1645220212       0.000000000       0.000000000    
  0.8226101058E-01  0.1424802498       0.000000000    
   0.000000000       0.000000000      0.8698929219E-01
 
Unit cell volume :    490.4056880    
 
 
+----------------------------------+
| Reciprocal-space lattice vectors |
+----------------------------------+
 
vector b1 :    1.033722346       0.000000000       0.000000000    
vector b2 :   0.5168611730      0.8952298122       0.000000000    
vector b3 :    0.000000000       0.000000000      0.5465698426    
 
Stored column-wise as a matrix :
   1.033722346      0.5168611730       0.000000000    
   0.000000000      0.8952298122       0.000000000    
   0.000000000       0.000000000      0.5465698426    
 
Inverse of matrix :
  0.9673777526     -0.5585158059       0.000000000    
   0.000000000       1.117031612       0.000000000    
   0.000000000       0.000000000       1.829592345    
 
Brillouin zone volume :   0.5058061509    
