   60.92711358    
   61.20720931    
   61.34932975    
   64.47628936    
   56.28557242    
   56.81760794    
   53.95605206    
   54.06496952    
   54.31723501    
   54.24330493    
   54.09762992    
   54.08293867    
   54.09015472    
   54.09572713    
   54.10134957    
   54.09824614    
   54.10431406    
   54.10341082    
   54.10476137    
   54.10445880    
   54.10304472    
   54.10261316    
   54.10371166    
   54.10521110    
   54.10719281    
   54.10872007    
   54.10825492    
   54.11000714    
   54.10990700    
   54.11026574    
   54.11059408    
   54.11017638    
   54.11079123    
   54.11023491    
   54.10961282    
   54.10937036    
   54.10925604    
   54.10915901    
   54.10919429    
   54.10910573    
   54.10909323    
   54.10917248    
   54.10908851    
   54.10915586    
   54.10912409    
   54.10909304    
   54.10907542    
   54.10905547    
   54.10903574    
   54.10907035    
   54.10906664    
   54.10905313    
   54.10904787    
   54.10904221    
   54.10903579    
   54.10904247    
   54.10904216    
   54.10903928    
   54.10903888    
   54.10903678    
   54.10903573    
   54.10903541    
   54.10903450    
