 
Species :    1 (Tc), atom :    1
 n =  1, l =  0, k =  1 :   -767.1568379    
 n =  2, l =  0, k =  1 :   -108.5559831    
 n =  2, l =  1, k =  1 :   -100.0121492    
 n =  2, l =  1, k =  2 :   -95.64876486    
 n =  3, l =  0, k =  1 :   -18.18266858    
 n =  3, l =  1, k =  1 :   -14.90481583    
 n =  3, l =  1, k =  2 :   -14.17425925    
 n =  3, l =  2, k =  2 :   -8.372575333    
 n =  3, l =  2, k =  3 :   -8.232835304    
 
Species :    1 (Tc), atom :    2
 n =  1, l =  0, k =  1 :   -767.1568379    
 n =  2, l =  0, k =  1 :   -108.5559831    
 n =  2, l =  1, k =  1 :   -100.0121492    
 n =  2, l =  1, k =  2 :   -95.64876486    
 n =  3, l =  0, k =  1 :   -18.18266858    
 n =  3, l =  1, k =  1 :   -14.90481583    
 n =  3, l =  1, k =  2 :   -14.17425925    
 n =  3, l =  2, k =  2 :   -8.372575333    
 n =  3, l =  2, k =  3 :   -8.232835304    
