  0.3420992798E-01
  0.2154485587E-01
  0.1127576843E-01
  0.5086368875E-02
  0.1633031418E-02
  0.1510580956E-03
  0.1714981390E-03
  0.6382556347E-03
  0.3179731239E-03
  0.3939509999E-03
  0.3610324084E-03
  0.1982959870E-03
  0.4650622667E-04
  0.1597768776E-03
  0.4112008265E-03
  0.1880808423E-03
  0.2116152188E-03
  0.2559657726E-03
  0.7427522403E-03
  0.2092798047E-03
  0.4449519932E-04
  0.1108203662E-02
  0.2504522093E-03
  0.3232299493E-03
  0.7422966959E-03
  0.1508193446E-02
  0.1079084794E-03
  0.4920276450E-03
  0.2099506270E-03
  0.2984294089E-03
  0.2593474652E-03
  0.2128147851E-03
  0.2165044140E-03
  0.3985842077E-03
  0.6269136326E-03
  0.4436716711E-03
  0.1422780640E-02
  0.7830520035E-04
  0.6671351445E-03
  0.2399869439E-03
  0.9471728912E-04
  0.4509655356E-04
