    0.577958469538E-04
    0.573282109196E-04
    0.165014515459E-03
    0.210378686150E-03
    0.231782680351E-03
    0.200630067986E-03
    0.187606868251E-03
    0.174725270619E-03
    0.161837691460E-03
    0.153477668995E-03
    0.149643303740E-03
    0.148370204808E-03
    0.148151682038E-03
    0.148211687305E-03
    0.148298839557E-03
    0.148347835394E-03
    0.148379125814E-03
    0.148385226513E-03
    0.148389991393E-03
    0.148390459072E-03
    0.148390387557E-03
    0.148390454065E-03
    0.148390540916E-03
    0.148390652777E-03
    0.148390721842E-03
    0.148390776001E-03
    0.148390775609E-03
