 
Species :    1 (Re), atom :    1
 APW functions :
  l =  0, energy derivative =  0 :   0.6493591396    
  l =  1, energy derivative =  0 :   0.6493591396    
  l =  2, energy derivative =  0 :   0.6493591396    
  l =  3, energy derivative =  0 :   0.6493591396    
  l =  4, energy derivative =  0 :   0.6493591396    
  l =  5, energy derivative =  0 :   0.6493591396    
  l =  6, energy derivative =  0 :   0.6493591396    
  l =  7, energy derivative =  0 :   0.6493591396    
  l =  8, energy derivative =  0 :   0.6493591396    
  l =  9, energy derivative =  0 :   0.6493591396    
  l = 10, energy derivative =  0 :   0.6493591396    
 local-orbital functions :
  l.o. =  1, l =  0, energy derivative =  0 :   0.6493591396    
  l.o. =  1, l =  0, energy derivative =  1 :   0.6493591396    
  l.o. =  2, l =  1, energy derivative =  0 :   0.6493591396    
  l.o. =  2, l =  1, energy derivative =  1 :   0.6493591396    
  l.o. =  3, l =  2, energy derivative =  0 :   0.6493591396    
  l.o. =  3, l =  2, energy derivative =  1 :   0.6493591396    
  l.o. =  4, l =  3, energy derivative =  0 :   0.6493591396    
  l.o. =  4, l =  3, energy derivative =  1 :   0.6493591396    
  l.o. =  5, l =  3, energy derivative =  0 :   0.6493591396    
  l.o. =  5, l =  3, energy derivative =  0 :  -0.5944724225    
  l.o. =  6, l =  0, energy derivative =  0 :   0.6493591396    
  l.o. =  6, l =  0, energy derivative =  0 :   -2.186384224    
  l.o. =  7, l =  1, energy derivative =  0 :   0.6493591396    
  l.o. =  7, l =  1, energy derivative =  0 :  -0.7826798880    
  l.o. =  8, l =  2, energy derivative =  0 :   0.6493591396    
  l.o. =  8, l =  2, energy derivative =  0 :   0.8656659777    
  l.o. =  9, l =  4, energy derivative =  0 :   0.6493591396    
  l.o. =  9, l =  4, energy derivative =  1 :   0.6493591396    
  l.o. = 10, l =  5, energy derivative =  0 :   0.6493591396    
  l.o. = 10, l =  5, energy derivative =  1 :   0.6493591396    
  l.o. = 11, l =  6, energy derivative =  0 :   0.6493591396    
  l.o. = 11, l =  6, energy derivative =  1 :   0.6493591396    
  l.o. = 12, l =  0, energy derivative =  0 :    1.585289600    
  l.o. = 12, l =  0, energy derivative =  1 :    1.585289600    
  l.o. = 12, l =  0, energy derivative =  2 :    1.585289600    
  l.o. = 13, l =  1, energy derivative =  0 :    2.400420628    
  l.o. = 13, l =  1, energy derivative =  1 :    2.400420628    
  l.o. = 13, l =  1, energy derivative =  2 :    2.400420628    
  l.o. = 14, l =  2, energy derivative =  0 :   0.8656659777    
  l.o. = 14, l =  2, energy derivative =  1 :   0.8656659777    
  l.o. = 14, l =  2, energy derivative =  2 :   0.8656659777    
  l.o. = 15, l =  3, energy derivative =  0 :    2.488955384    
  l.o. = 15, l =  3, energy derivative =  1 :    2.488955384    
  l.o. = 15, l =  3, energy derivative =  2 :    2.488955384    
  l.o. = 16, l =  4, energy derivative =  0 :    3.798271121    
  l.o. = 16, l =  4, energy derivative =  1 :    3.798271121    
  l.o. = 16, l =  4, energy derivative =  2 :    3.798271121    
  l.o. = 17, l =  5, energy derivative =  0 :    5.496407574    
  l.o. = 17, l =  5, energy derivative =  1 :    5.496407574    
  l.o. = 17, l =  5, energy derivative =  2 :    5.496407574    
  l.o. = 18, l =  6, energy derivative =  0 :    7.290737344    
  l.o. = 18, l =  6, energy derivative =  1 :    7.290737344    
  l.o. = 18, l =  6, energy derivative =  2 :    7.290737344    
  l.o. = 19, l =  7, energy derivative =  0 :    9.240117607    
  l.o. = 19, l =  7, energy derivative =  1 :    9.240117607    
  l.o. = 19, l =  7, energy derivative =  2 :    9.240117607    
  l.o. = 20, l =  8, energy derivative =  0 :    11.36117385    
  l.o. = 20, l =  8, energy derivative =  1 :    11.36117385    
  l.o. = 20, l =  8, energy derivative =  2 :    11.36117385    
 
Species :    1 (Re), atom :    2
 APW functions :
  l =  0, energy derivative =  0 :   0.6493591396    
  l =  1, energy derivative =  0 :   0.6493591396    
  l =  2, energy derivative =  0 :   0.6493591396    
  l =  3, energy derivative =  0 :   0.6493591396    
  l =  4, energy derivative =  0 :   0.6493591396    
  l =  5, energy derivative =  0 :   0.6493591396    
  l =  6, energy derivative =  0 :   0.6493591396    
  l =  7, energy derivative =  0 :   0.6493591396    
  l =  8, energy derivative =  0 :   0.6493591396    
  l =  9, energy derivative =  0 :   0.6493591396    
  l = 10, energy derivative =  0 :   0.6493591396    
 local-orbital functions :
  l.o. =  1, l =  0, energy derivative =  0 :   0.6493591396    
  l.o. =  1, l =  0, energy derivative =  1 :   0.6493591396    
  l.o. =  2, l =  1, energy derivative =  0 :   0.6493591396    
  l.o. =  2, l =  1, energy derivative =  1 :   0.6493591396    
  l.o. =  3, l =  2, energy derivative =  0 :   0.6493591396    
  l.o. =  3, l =  2, energy derivative =  1 :   0.6493591396    
  l.o. =  4, l =  3, energy derivative =  0 :   0.6493591396    
  l.o. =  4, l =  3, energy derivative =  1 :   0.6493591396    
  l.o. =  5, l =  3, energy derivative =  0 :   0.6493591396    
  l.o. =  5, l =  3, energy derivative =  0 :  -0.5944724225    
  l.o. =  6, l =  0, energy derivative =  0 :   0.6493591396    
  l.o. =  6, l =  0, energy derivative =  0 :   -2.186384224    
  l.o. =  7, l =  1, energy derivative =  0 :   0.6493591396    
  l.o. =  7, l =  1, energy derivative =  0 :  -0.7826798880    
  l.o. =  8, l =  2, energy derivative =  0 :   0.6493591396    
  l.o. =  8, l =  2, energy derivative =  0 :   0.8656659777    
  l.o. =  9, l =  4, energy derivative =  0 :   0.6493591396    
  l.o. =  9, l =  4, energy derivative =  1 :   0.6493591396    
  l.o. = 10, l =  5, energy derivative =  0 :   0.6493591396    
  l.o. = 10, l =  5, energy derivative =  1 :   0.6493591396    
  l.o. = 11, l =  6, energy derivative =  0 :   0.6493591396    
  l.o. = 11, l =  6, energy derivative =  1 :   0.6493591396    
  l.o. = 12, l =  0, energy derivative =  0 :    1.585289600    
  l.o. = 12, l =  0, energy derivative =  1 :    1.585289600    
  l.o. = 12, l =  0, energy derivative =  2 :    1.585289600    
  l.o. = 13, l =  1, energy derivative =  0 :    2.400420628    
  l.o. = 13, l =  1, energy derivative =  1 :    2.400420628    
  l.o. = 13, l =  1, energy derivative =  2 :    2.400420628    
  l.o. = 14, l =  2, energy derivative =  0 :   0.8656659777    
  l.o. = 14, l =  2, energy derivative =  1 :   0.8656659777    
  l.o. = 14, l =  2, energy derivative =  2 :   0.8656659777    
  l.o. = 15, l =  3, energy derivative =  0 :    2.488955384    
  l.o. = 15, l =  3, energy derivative =  1 :    2.488955384    
  l.o. = 15, l =  3, energy derivative =  2 :    2.488955384    
  l.o. = 16, l =  4, energy derivative =  0 :    3.798271121    
  l.o. = 16, l =  4, energy derivative =  1 :    3.798271121    
  l.o. = 16, l =  4, energy derivative =  2 :    3.798271121    
  l.o. = 17, l =  5, energy derivative =  0 :    5.496407574    
  l.o. = 17, l =  5, energy derivative =  1 :    5.496407574    
  l.o. = 17, l =  5, energy derivative =  2 :    5.496407574    
  l.o. = 18, l =  6, energy derivative =  0 :    7.290737344    
  l.o. = 18, l =  6, energy derivative =  1 :    7.290737344    
  l.o. = 18, l =  6, energy derivative =  2 :    7.290737344    
  l.o. = 19, l =  7, energy derivative =  0 :    9.240117607    
  l.o. = 19, l =  7, energy derivative =  1 :    9.240117607    
  l.o. = 19, l =  7, energy derivative =  2 :    9.240117607    
  l.o. = 20, l =  8, energy derivative =  0 :    11.36117385    
  l.o. = 20, l =  8, energy derivative =  1 :    11.36117385    
  l.o. = 20, l =  8, energy derivative =  2 :    11.36117385    
