   297 : nkpt; k-point, vkl, wkpt, nmat below
     1   0.000000000       0.000000000       0.000000000      0.2035416243E-03     681
     2  0.5882352941E-01   0.000000000       0.000000000      0.1221249746E-02     683
     3  0.1176470588       0.000000000       0.000000000      0.1221249746E-02     681
     4  0.1764705882       0.000000000       0.000000000      0.1221249746E-02     683
     5  0.2352941176       0.000000000       0.000000000      0.1221249746E-02     683
     6  0.2941176471       0.000000000       0.000000000      0.1221249746E-02     686
     7  0.3529411765       0.000000000       0.000000000      0.1221249746E-02     688
     8  0.4117647059       0.000000000       0.000000000      0.1221249746E-02     684
     9  0.4705882353       0.000000000       0.000000000      0.1221249746E-02     690
    10  0.5882352941E-01  0.5882352941E-01   0.000000000      0.1221249746E-02     683
    11  0.1176470588      0.5882352941E-01   0.000000000      0.2442499491E-02     678
    12  0.1764705882      0.5882352941E-01   0.000000000      0.2442499491E-02     684
    13  0.2352941176      0.5882352941E-01   0.000000000      0.2442499491E-02     687
    14  0.2941176471      0.5882352941E-01   0.000000000      0.2442499491E-02     687
    15  0.3529411765      0.5882352941E-01   0.000000000      0.2442499491E-02     683
    16  0.4117647059      0.5882352941E-01   0.000000000      0.2442499491E-02     683
    17  0.4705882353      0.5882352941E-01   0.000000000      0.1221249746E-02     682
    18  0.1176470588      0.1176470588       0.000000000      0.1221249746E-02     677
    19  0.1764705882      0.1176470588       0.000000000      0.2442499491E-02     680
    20  0.2352941176      0.1176470588       0.000000000      0.2442499491E-02     687
    21  0.2941176471      0.1176470588       0.000000000      0.2442499491E-02     687
    22  0.3529411765      0.1176470588       0.000000000      0.2442499491E-02     685
    23  0.4117647059      0.1176470588       0.000000000      0.2442499491E-02     684
    24  0.1764705882      0.1764705882       0.000000000      0.1221249746E-02     676
    25  0.2352941176      0.1764705882       0.000000000      0.2442499491E-02     680
    26  0.2941176471      0.1764705882       0.000000000      0.2442499491E-02     680
    27  0.3529411765      0.1764705882       0.000000000      0.2442499491E-02     686
    28  0.4117647059      0.1764705882       0.000000000      0.1221249746E-02     692
    29  0.2352941176      0.2352941176       0.000000000      0.1221249746E-02     688
    30  0.2941176471      0.2352941176       0.000000000      0.2442499491E-02     685
    31  0.3529411765      0.2352941176       0.000000000      0.2442499491E-02     686
    32  0.2941176471      0.2941176471       0.000000000      0.1221249746E-02     688
    33  0.3529411765      0.2941176471       0.000000000      0.1221249746E-02     688
    34   0.000000000       0.000000000      0.5882352941E-01  0.4070832485E-03     681
    35  0.5882352941E-01   0.000000000      0.5882352941E-01  0.2442499491E-02     682
    36  0.1176470588       0.000000000      0.5882352941E-01  0.2442499491E-02     679
    37  0.1764705882       0.000000000      0.5882352941E-01  0.2442499491E-02     683
    38  0.2352941176       0.000000000      0.5882352941E-01  0.2442499491E-02     681
    39  0.2941176471       0.000000000      0.5882352941E-01  0.2442499491E-02     687
    40  0.3529411765       0.000000000      0.5882352941E-01  0.2442499491E-02     689
    41  0.4117647059       0.000000000      0.5882352941E-01  0.2442499491E-02     686
    42  0.4705882353       0.000000000      0.5882352941E-01  0.2442499491E-02     687
    43  0.5882352941E-01  0.5882352941E-01  0.5882352941E-01  0.2442499491E-02     682
    44  0.1176470588      0.5882352941E-01  0.5882352941E-01  0.4884998982E-02     681
    45  0.1764705882      0.5882352941E-01  0.5882352941E-01  0.4884998982E-02     684
    46  0.2352941176      0.5882352941E-01  0.5882352941E-01  0.4884998982E-02     683
    47  0.2941176471      0.5882352941E-01  0.5882352941E-01  0.4884998982E-02     685
    48  0.3529411765      0.5882352941E-01  0.5882352941E-01  0.4884998982E-02     686
    49  0.4117647059      0.5882352941E-01  0.5882352941E-01  0.4884998982E-02     685
    50  0.4705882353      0.5882352941E-01  0.5882352941E-01  0.2442499491E-02     684
    51  0.1176470588      0.1176470588      0.5882352941E-01  0.2442499491E-02     679
    52  0.1764705882      0.1176470588      0.5882352941E-01  0.4884998982E-02     683
    53  0.2352941176      0.1176470588      0.5882352941E-01  0.4884998982E-02     680
    54  0.2941176471      0.1176470588      0.5882352941E-01  0.4884998982E-02     685
    55  0.3529411765      0.1176470588      0.5882352941E-01  0.4884998982E-02     685
    56  0.4117647059      0.1176470588      0.5882352941E-01  0.4884998982E-02     684
    57  0.1764705882      0.1764705882      0.5882352941E-01  0.2442499491E-02     682
    58  0.2352941176      0.1764705882      0.5882352941E-01  0.4884998982E-02     679
    59  0.2941176471      0.1764705882      0.5882352941E-01  0.4884998982E-02     685
    60  0.3529411765      0.1764705882      0.5882352941E-01  0.4884998982E-02     686
    61  0.4117647059      0.1764705882      0.5882352941E-01  0.2442499491E-02     689
    62  0.2352941176      0.2352941176      0.5882352941E-01  0.2442499491E-02     684
    63  0.2941176471      0.2352941176      0.5882352941E-01  0.4884998982E-02     684
    64  0.3529411765      0.2352941176      0.5882352941E-01  0.4884998982E-02     686
    65  0.2941176471      0.2941176471      0.5882352941E-01  0.2442499491E-02     685
    66  0.3529411765      0.2941176471      0.5882352941E-01  0.2442499491E-02     686
    67   0.000000000       0.000000000      0.1176470588      0.4070832485E-03     687
    68  0.5882352941E-01   0.000000000      0.1176470588      0.2442499491E-02     684
    69  0.1176470588       0.000000000      0.1176470588      0.2442499491E-02     679
    70  0.1764705882       0.000000000      0.1176470588      0.2442499491E-02     681
    71  0.2352941176       0.000000000      0.1176470588      0.2442499491E-02     685
    72  0.2941176471       0.000000000      0.1176470588      0.2442499491E-02     681
    73  0.3529411765       0.000000000      0.1176470588      0.2442499491E-02     685
    74  0.4117647059       0.000000000      0.1176470588      0.2442499491E-02     686
    75  0.4705882353       0.000000000      0.1176470588      0.2442499491E-02     686
    76  0.5882352941E-01  0.5882352941E-01  0.1176470588      0.2442499491E-02     682
    77  0.1176470588      0.5882352941E-01  0.1176470588      0.4884998982E-02     682
    78  0.1764705882      0.5882352941E-01  0.1176470588      0.4884998982E-02     684
    79  0.2352941176      0.5882352941E-01  0.1176470588      0.4884998982E-02     683
    80  0.2941176471      0.5882352941E-01  0.1176470588      0.4884998982E-02     683
    81  0.3529411765      0.5882352941E-01  0.1176470588      0.4884998982E-02     684
    82  0.4117647059      0.5882352941E-01  0.1176470588      0.4884998982E-02     681
    83  0.4705882353      0.5882352941E-01  0.1176470588      0.2442499491E-02     686
    84  0.1176470588      0.1176470588      0.1176470588      0.2442499491E-02     679
    85  0.1764705882      0.1176470588      0.1176470588      0.4884998982E-02     682
    86  0.2352941176      0.1176470588      0.1176470588      0.4884998982E-02     685
    87  0.2941176471      0.1176470588      0.1176470588      0.4884998982E-02     686
    88  0.3529411765      0.1176470588      0.1176470588      0.4884998982E-02     684
    89  0.4117647059      0.1176470588      0.1176470588      0.4884998982E-02     686
    90  0.1764705882      0.1764705882      0.1176470588      0.2442499491E-02     684
    91  0.2352941176      0.1764705882      0.1176470588      0.4884998982E-02     684
    92  0.2941176471      0.1764705882      0.1176470588      0.4884998982E-02     687
    93  0.3529411765      0.1764705882      0.1176470588      0.4884998982E-02     682
    94  0.4117647059      0.1764705882      0.1176470588      0.2442499491E-02     689
    95  0.2352941176      0.2352941176      0.1176470588      0.2442499491E-02     680
    96  0.2941176471      0.2352941176      0.1176470588      0.4884998982E-02     686
    97  0.3529411765      0.2352941176      0.1176470588      0.4884998982E-02     683
    98  0.2941176471      0.2941176471      0.1176470588      0.2442499491E-02     683
    99  0.3529411765      0.2941176471      0.1176470588      0.2442499491E-02     686
   100   0.000000000       0.000000000      0.1764705882      0.4070832485E-03     693
   101  0.5882352941E-01   0.000000000      0.1764705882      0.2442499491E-02     686
   102  0.1176470588       0.000000000      0.1764705882      0.2442499491E-02     682
   103  0.1764705882       0.000000000      0.1764705882      0.2442499491E-02     687
   104  0.2352941176       0.000000000      0.1764705882      0.2442499491E-02     684
   105  0.2941176471       0.000000000      0.1764705882      0.2442499491E-02     683
   106  0.3529411765       0.000000000      0.1764705882      0.2442499491E-02     683
   107  0.4117647059       0.000000000      0.1764705882      0.2442499491E-02     681
   108  0.4705882353       0.000000000      0.1764705882      0.2442499491E-02     685
   109  0.5882352941E-01  0.5882352941E-01  0.1764705882      0.2442499491E-02     682
   110  0.1176470588      0.5882352941E-01  0.1764705882      0.4884998982E-02     683
   111  0.1764705882      0.5882352941E-01  0.1764705882      0.4884998982E-02     682
   112  0.2352941176      0.5882352941E-01  0.1764705882      0.4884998982E-02     680
   113  0.2941176471      0.5882352941E-01  0.1764705882      0.4884998982E-02     681
   114  0.3529411765      0.5882352941E-01  0.1764705882      0.4884998982E-02     683
   115  0.4117647059      0.5882352941E-01  0.1764705882      0.4884998982E-02     684
   116  0.4705882353      0.5882352941E-01  0.1764705882      0.2442499491E-02     688
   117  0.1176470588      0.1176470588      0.1764705882      0.2442499491E-02     684
   118  0.1764705882      0.1176470588      0.1764705882      0.4884998982E-02     683
   119  0.2352941176      0.1176470588      0.1764705882      0.4884998982E-02     683
   120  0.2941176471      0.1176470588      0.1764705882      0.4884998982E-02     684
   121  0.3529411765      0.1176470588      0.1764705882      0.4884998982E-02     684
   122  0.4117647059      0.1176470588      0.1764705882      0.4884998982E-02     685
   123  0.1764705882      0.1764705882      0.1764705882      0.2442499491E-02     683
   124  0.2352941176      0.1764705882      0.1764705882      0.4884998982E-02     681
   125  0.2941176471      0.1764705882      0.1764705882      0.4884998982E-02     683
   126  0.3529411765      0.1764705882      0.1764705882      0.4884998982E-02     685
   127  0.4117647059      0.1764705882      0.1764705882      0.2442499491E-02     685
   128  0.2352941176      0.2352941176      0.1764705882      0.2442499491E-02     680
   129  0.2941176471      0.2352941176      0.1764705882      0.4884998982E-02     682
   130  0.3529411765      0.2352941176      0.1764705882      0.4884998982E-02     683
   131  0.2941176471      0.2941176471      0.1764705882      0.2442499491E-02     681
   132  0.3529411765      0.2941176471      0.1764705882      0.2442499491E-02     685
   133   0.000000000       0.000000000      0.2352941176      0.4070832485E-03     693
   134  0.5882352941E-01   0.000000000      0.2352941176      0.2442499491E-02     690
   135  0.1176470588       0.000000000      0.2352941176      0.2442499491E-02     688
   136  0.1764705882       0.000000000      0.2352941176      0.2442499491E-02     688
   137  0.2352941176       0.000000000      0.2352941176      0.2442499491E-02     684
   138  0.2941176471       0.000000000      0.2352941176      0.2442499491E-02     677
   139  0.3529411765       0.000000000      0.2352941176      0.2442499491E-02     679
   140  0.4117647059       0.000000000      0.2352941176      0.2442499491E-02     687
   141  0.4705882353       0.000000000      0.2352941176      0.2442499491E-02     681
   142  0.5882352941E-01  0.5882352941E-01  0.2352941176      0.2442499491E-02     691
   143  0.1176470588      0.5882352941E-01  0.2352941176      0.4884998982E-02     690
   144  0.1764705882      0.5882352941E-01  0.2352941176      0.4884998982E-02     683
   145  0.2352941176      0.5882352941E-01  0.2352941176      0.4884998982E-02     683
   146  0.2941176471      0.5882352941E-01  0.2352941176      0.4884998982E-02     682
   147  0.3529411765      0.5882352941E-01  0.2352941176      0.4884998982E-02     683
   148  0.4117647059      0.5882352941E-01  0.2352941176      0.4884998982E-02     685
   149  0.4705882353      0.5882352941E-01  0.2352941176      0.2442499491E-02     681
   150  0.1176470588      0.1176470588      0.2352941176      0.2442499491E-02     690
   151  0.1764705882      0.1176470588      0.2352941176      0.4884998982E-02     683
   152  0.2352941176      0.1176470588      0.2352941176      0.4884998982E-02     680
   153  0.2941176471      0.1176470588      0.2352941176      0.4884998982E-02     680
   154  0.3529411765      0.1176470588      0.2352941176      0.4884998982E-02     679
   155  0.4117647059      0.1176470588      0.2352941176      0.4884998982E-02     683
   156  0.1764705882      0.1764705882      0.2352941176      0.2442499491E-02     681
   157  0.2352941176      0.1764705882      0.2352941176      0.4884998982E-02     681
   158  0.2941176471      0.1764705882      0.2352941176      0.4884998982E-02     682
   159  0.3529411765      0.1764705882      0.2352941176      0.4884998982E-02     685
   160  0.4117647059      0.1764705882      0.2352941176      0.2442499491E-02     685
   161  0.2352941176      0.2352941176      0.2352941176      0.2442499491E-02     683
   162  0.2941176471      0.2352941176      0.2352941176      0.4884998982E-02     680
   163  0.3529411765      0.2352941176      0.2352941176      0.4884998982E-02     683
   164  0.2941176471      0.2941176471      0.2352941176      0.2442499491E-02     685
   165  0.3529411765      0.2941176471      0.2352941176      0.2442499491E-02     683
   166   0.000000000       0.000000000      0.2941176471      0.4070832485E-03     693
   167  0.5882352941E-01   0.000000000      0.2941176471      0.2442499491E-02     695
   168  0.1176470588       0.000000000      0.2941176471      0.2442499491E-02     691
   169  0.1764705882       0.000000000      0.2941176471      0.2442499491E-02     688
   170  0.2352941176       0.000000000      0.2941176471      0.2442499491E-02     686
   171  0.2941176471       0.000000000      0.2941176471      0.2442499491E-02     681
   172  0.3529411765       0.000000000      0.2941176471      0.2442499491E-02     679
   173  0.4117647059       0.000000000      0.2941176471      0.2442499491E-02     682
   174  0.4705882353       0.000000000      0.2941176471      0.2442499491E-02     683
   175  0.5882352941E-01  0.5882352941E-01  0.2941176471      0.2442499491E-02     691
   176  0.1176470588      0.5882352941E-01  0.2941176471      0.4884998982E-02     692
   177  0.1764705882      0.5882352941E-01  0.2941176471      0.4884998982E-02     684
   178  0.2352941176      0.5882352941E-01  0.2941176471      0.4884998982E-02     678
   179  0.2941176471      0.5882352941E-01  0.2941176471      0.4884998982E-02     681
   180  0.3529411765      0.5882352941E-01  0.2941176471      0.4884998982E-02     681
   181  0.4117647059      0.5882352941E-01  0.2941176471      0.4884998982E-02     684
   182  0.4705882353      0.5882352941E-01  0.2941176471      0.2442499491E-02     681
   183  0.1176470588      0.1176470588      0.2941176471      0.2442499491E-02     690
   184  0.1764705882      0.1176470588      0.2941176471      0.4884998982E-02     683
   185  0.2352941176      0.1176470588      0.2941176471      0.4884998982E-02     680
   186  0.2941176471      0.1176470588      0.2941176471      0.4884998982E-02     678
   187  0.3529411765      0.1176470588      0.2941176471      0.4884998982E-02     680
   188  0.4117647059      0.1176470588      0.2941176471      0.4884998982E-02     684
   189  0.1764705882      0.1764705882      0.2941176471      0.2442499491E-02     679
   190  0.2352941176      0.1764705882      0.2941176471      0.4884998982E-02     682
   191  0.2941176471      0.1764705882      0.2941176471      0.4884998982E-02     681
   192  0.3529411765      0.1764705882      0.2941176471      0.4884998982E-02     683
   193  0.4117647059      0.1764705882      0.2941176471      0.2442499491E-02     679
   194  0.2352941176      0.2352941176      0.2941176471      0.2442499491E-02     684
   195  0.2941176471      0.2352941176      0.2941176471      0.4884998982E-02     681
   196  0.3529411765      0.2352941176      0.2941176471      0.4884998982E-02     684
   197  0.2941176471      0.2941176471      0.2941176471      0.2442499491E-02     681
   198  0.3529411765      0.2941176471      0.2941176471      0.2442499491E-02     682
   199   0.000000000       0.000000000      0.3529411765      0.4070832485E-03     705
   200  0.5882352941E-01   0.000000000      0.3529411765      0.2442499491E-02     700
   201  0.1176470588       0.000000000      0.3529411765      0.2442499491E-02     694
   202  0.1764705882       0.000000000      0.3529411765      0.2442499491E-02     686
   203  0.2352941176       0.000000000      0.3529411765      0.2442499491E-02     683
   204  0.2941176471       0.000000000      0.3529411765      0.2442499491E-02     675
   205  0.3529411765       0.000000000      0.3529411765      0.2442499491E-02     677
   206  0.4117647059       0.000000000      0.3529411765      0.2442499491E-02     677
   207  0.4705882353       0.000000000      0.3529411765      0.2442499491E-02     682
   208  0.5882352941E-01  0.5882352941E-01  0.3529411765      0.2442499491E-02     693
   209  0.1176470588      0.5882352941E-01  0.3529411765      0.4884998982E-02     688
   210  0.1764705882      0.5882352941E-01  0.3529411765      0.4884998982E-02     682
   211  0.2352941176      0.5882352941E-01  0.3529411765      0.4884998982E-02     677
   212  0.2941176471      0.5882352941E-01  0.3529411765      0.4884998982E-02     677
   213  0.3529411765      0.5882352941E-01  0.3529411765      0.4884998982E-02     682
   214  0.4117647059      0.5882352941E-01  0.3529411765      0.4884998982E-02     681
   215  0.4705882353      0.5882352941E-01  0.3529411765      0.2442499491E-02     679
   216  0.1176470588      0.1176470588      0.3529411765      0.2442499491E-02     689
   217  0.1764705882      0.1176470588      0.3529411765      0.4884998982E-02     682
   218  0.2352941176      0.1176470588      0.3529411765      0.4884998982E-02     678
   219  0.2941176471      0.1176470588      0.3529411765      0.4884998982E-02     680
   220  0.3529411765      0.1176470588      0.3529411765      0.4884998982E-02     683
   221  0.4117647059      0.1176470588      0.3529411765      0.4884998982E-02     682
   222  0.1764705882      0.1764705882      0.3529411765      0.2442499491E-02     683
   223  0.2352941176      0.1764705882      0.3529411765      0.4884998982E-02     680
   224  0.2941176471      0.1764705882      0.3529411765      0.4884998982E-02     684
   225  0.3529411765      0.1764705882      0.3529411765      0.4884998982E-02     684
   226  0.4117647059      0.1764705882      0.3529411765      0.2442499491E-02     683
   227  0.2352941176      0.2352941176      0.3529411765      0.2442499491E-02     678
   228  0.2941176471      0.2352941176      0.3529411765      0.4884998982E-02     681
   229  0.3529411765      0.2352941176      0.3529411765      0.4884998982E-02     680
   230  0.2941176471      0.2941176471      0.3529411765      0.2442499491E-02     679
   231  0.3529411765      0.2941176471      0.3529411765      0.2442499491E-02     679
   232   0.000000000       0.000000000      0.4117647059      0.4070832485E-03     700
   233  0.5882352941E-01   0.000000000      0.4117647059      0.2442499491E-02     696
   234  0.1176470588       0.000000000      0.4117647059      0.2442499491E-02     696
   235  0.1764705882       0.000000000      0.4117647059      0.2442499491E-02     684
   236  0.2352941176       0.000000000      0.4117647059      0.2442499491E-02     684
   237  0.2941176471       0.000000000      0.4117647059      0.2442499491E-02     678
   238  0.3529411765       0.000000000      0.4117647059      0.2442499491E-02     677
   239  0.4117647059       0.000000000      0.4117647059      0.2442499491E-02     681
   240  0.4705882353       0.000000000      0.4117647059      0.2442499491E-02     676
   241  0.5882352941E-01  0.5882352941E-01  0.4117647059      0.2442499491E-02     692
   242  0.1176470588      0.5882352941E-01  0.4117647059      0.4884998982E-02     686
   243  0.1764705882      0.5882352941E-01  0.4117647059      0.4884998982E-02     681
   244  0.2352941176      0.5882352941E-01  0.4117647059      0.4884998982E-02     681
   245  0.2941176471      0.5882352941E-01  0.4117647059      0.4884998982E-02     681
   246  0.3529411765      0.5882352941E-01  0.4117647059      0.4884998982E-02     682
   247  0.4117647059      0.5882352941E-01  0.4117647059      0.4884998982E-02     680
   248  0.4705882353      0.5882352941E-01  0.4117647059      0.2442499491E-02     680
   249  0.1176470588      0.1176470588      0.4117647059      0.2442499491E-02     684
   250  0.1764705882      0.1176470588      0.4117647059      0.4884998982E-02     681
   251  0.2352941176      0.1176470588      0.4117647059      0.4884998982E-02     679
   252  0.2941176471      0.1176470588      0.4117647059      0.4884998982E-02     681
   253  0.3529411765      0.1176470588      0.4117647059      0.4884998982E-02     682
   254  0.4117647059      0.1176470588      0.4117647059      0.4884998982E-02     681
   255  0.1764705882      0.1764705882      0.4117647059      0.2442499491E-02     682
   256  0.2352941176      0.1764705882      0.4117647059      0.4884998982E-02     682
   257  0.2941176471      0.1764705882      0.4117647059      0.4884998982E-02     684
   258  0.3529411765      0.1764705882      0.4117647059      0.4884998982E-02     684
   259  0.4117647059      0.1764705882      0.4117647059      0.2442499491E-02     684
   260  0.2352941176      0.2352941176      0.4117647059      0.2442499491E-02     683
   261  0.2941176471      0.2352941176      0.4117647059      0.4884998982E-02     681
   262  0.3529411765      0.2352941176      0.4117647059      0.4884998982E-02     679
   263  0.2941176471      0.2941176471      0.4117647059      0.2442499491E-02     677
   264  0.3529411765      0.2941176471      0.4117647059      0.2442499491E-02     677
   265   0.000000000       0.000000000      0.4705882353      0.4070832485E-03     712
   266  0.5882352941E-01   0.000000000      0.4705882353      0.2442499491E-02     703
   267  0.1176470588       0.000000000      0.4705882353      0.2442499491E-02     690
   268  0.1764705882       0.000000000      0.4705882353      0.2442499491E-02     681
   269  0.2352941176       0.000000000      0.4705882353      0.2442499491E-02     681
   270  0.2941176471       0.000000000      0.4705882353      0.2442499491E-02     675
   271  0.3529411765       0.000000000      0.4705882353      0.2442499491E-02     676
   272  0.4117647059       0.000000000      0.4705882353      0.2442499491E-02     678
   273  0.4705882353       0.000000000      0.4705882353      0.2442499491E-02     676
   274  0.5882352941E-01  0.5882352941E-01  0.4705882353      0.2442499491E-02     694
   275  0.1176470588      0.5882352941E-01  0.4705882353      0.4884998982E-02     683
   276  0.1764705882      0.5882352941E-01  0.4705882353      0.4884998982E-02     680
   277  0.2352941176      0.5882352941E-01  0.4705882353      0.4884998982E-02     678
   278  0.2941176471      0.5882352941E-01  0.4705882353      0.4884998982E-02     679
   279  0.3529411765      0.5882352941E-01  0.4705882353      0.4884998982E-02     680
   280  0.4117647059      0.5882352941E-01  0.4705882353      0.4884998982E-02     676
   281  0.4705882353      0.5882352941E-01  0.4705882353      0.2442499491E-02     681
   282  0.1176470588      0.1176470588      0.4705882353      0.2442499491E-02     682
   283  0.1764705882      0.1176470588      0.4705882353      0.4884998982E-02     679
   284  0.2352941176      0.1176470588      0.4705882353      0.4884998982E-02     683
   285  0.2941176471      0.1176470588      0.4705882353      0.4884998982E-02     682
   286  0.3529411765      0.1176470588      0.4705882353      0.4884998982E-02     684
   287  0.4117647059      0.1176470588      0.4705882353      0.4884998982E-02     689
   288  0.1764705882      0.1764705882      0.4705882353      0.2442499491E-02     683
   289  0.2352941176      0.1764705882      0.4705882353      0.4884998982E-02     683
   290  0.2941176471      0.1764705882      0.4705882353      0.4884998982E-02     684
   291  0.3529411765      0.1764705882      0.4705882353      0.4884998982E-02     683
   292  0.4117647059      0.1764705882      0.4705882353      0.2442499491E-02     683
   293  0.2352941176      0.2352941176      0.4705882353      0.2442499491E-02     684
   294  0.2941176471      0.2352941176      0.4705882353      0.4884998982E-02     686
   295  0.3529411765      0.2352941176      0.4705882353      0.4884998982E-02     684
   296  0.2941176471      0.2941176471      0.4705882353      0.2442499491E-02     682
   297  0.3529411765      0.2941176471      0.4705882353      0.2442499491E-02     680
