    -341161.894763    
    -1211677.24368    
    -1603.41054778    
    -1255.48077390    
    -1027.79211995    
    -1063.56605707    
    -1054.28999029    
    -937.748872154    
    -867.939731225    
    -1625.85123841    
    -1667.74245164    
    -1614.82907620    
    -1497.63060258    
    -1559.87783624    
    -1521.18277795    
    -1525.18987145    
    -1530.29148478    
    -1529.31445084    
    -1529.12220231    
    -1529.14720435    
    -1529.15796880    
    -1529.15876567    
    -1529.15881154    
    -1529.15882681    
    -1529.15892475    
    -1529.15887096    
    -1529.15888580    
    -1529.15891260    
    -1529.15891917    
    -1529.15890294    
    -1529.15890970    
    -1529.15890664    
    -1529.15891502    
    -1529.15891256    
    -1529.15891319    
    -1529.15891045    
    -1529.15891177    
    -1529.15891042    
    -1529.15891044    
    -1529.15891056    
    -1529.15891099    
    -1529.15891101    
    -1529.15891127    
    -1529.15891132    
    -1529.15891133    
    -1529.15891133    
    -1529.15891134    
    -1529.15891134    
