 
Species :    1 (Ti), atom :    1
 APW functions :
  l =  0, energy derivative =  0 :   0.2209546582    
  l =  1, energy derivative =  0 :   0.2209546582    
  l =  2, energy derivative =  0 :   0.2209546582    
  l =  3, energy derivative =  0 :   0.2209546582    
  l =  4, energy derivative =  0 :   0.2209546582    
  l =  5, energy derivative =  0 :   0.2209546582    
  l =  6, energy derivative =  0 :   0.2209546582    
  l =  7, energy derivative =  0 :   0.2209546582    
  l =  8, energy derivative =  0 :   0.2209546582    
  l =  9, energy derivative =  0 :   0.2209546582    
  l = 10, energy derivative =  0 :   0.2209546582    
 local-orbital functions :
  l.o. =  1, l =  0, energy derivative =  0 :   0.2209546582    
  l.o. =  1, l =  0, energy derivative =  1 :   0.2209546582    
  l.o. =  2, l =  1, energy derivative =  0 :   0.2209546582    
  l.o. =  2, l =  1, energy derivative =  1 :   0.2209546582    
  l.o. =  3, l =  2, energy derivative =  0 :   0.2209546582    
  l.o. =  3, l =  2, energy derivative =  1 :   0.2209546582    
  l.o. =  4, l =  0, energy derivative =  0 :   0.2209546582    
  l.o. =  4, l =  0, energy derivative =  0 :   -1.780303418    
  l.o. =  5, l =  1, energy derivative =  0 :   0.2209546582    
  l.o. =  5, l =  1, energy derivative =  0 :  -0.8987280207    
  l.o. =  6, l =  3, energy derivative =  0 :   0.2209546582    
  l.o. =  6, l =  3, energy derivative =  1 :   0.2209546582    
  l.o. =  7, l =  4, energy derivative =  0 :   0.2209546582    
  l.o. =  7, l =  4, energy derivative =  1 :   0.2209546582    
  l.o. =  8, l =  5, energy derivative =  0 :   0.2209546582    
  l.o. =  8, l =  5, energy derivative =  1 :   0.2209546582    
  l.o. =  9, l =  0, energy derivative =  0 :    1.387526919    
  l.o. =  9, l =  0, energy derivative =  1 :    1.387526919    
  l.o. =  9, l =  0, energy derivative =  2 :    1.387526919    
  l.o. = 10, l =  1, energy derivative =  0 :    1.836985287    
  l.o. = 10, l =  1, energy derivative =  1 :    1.836985287    
  l.o. = 10, l =  1, energy derivative =  2 :    1.836985287    
  l.o. = 11, l =  2, energy derivative =  0 :   0.4352001550    
  l.o. = 11, l =  2, energy derivative =  1 :   0.4352001550    
  l.o. = 11, l =  2, energy derivative =  2 :   0.4352001550    
  l.o. = 12, l =  3, energy derivative =  0 :    2.394015784    
  l.o. = 12, l =  3, energy derivative =  1 :    2.394015784    
  l.o. = 12, l =  3, energy derivative =  2 :    2.394015784    
  l.o. = 13, l =  4, energy derivative =  0 :    3.911727346    
  l.o. = 13, l =  4, energy derivative =  1 :    3.911727346    
  l.o. = 13, l =  4, energy derivative =  2 :    3.911727346    
  l.o. = 14, l =  5, energy derivative =  0 :    5.528351886    
  l.o. = 14, l =  5, energy derivative =  1 :    5.528351886    
  l.o. = 14, l =  5, energy derivative =  2 :    5.528351886    
  l.o. = 15, l =  6, energy derivative =  0 :    7.304614509    
  l.o. = 15, l =  6, energy derivative =  1 :    7.304614509    
  l.o. = 15, l =  6, energy derivative =  2 :    7.304614509    
  l.o. = 16, l =  7, energy derivative =  0 :    9.257901356    
  l.o. = 16, l =  7, energy derivative =  1 :    9.257901356    
  l.o. = 16, l =  7, energy derivative =  2 :    9.257901356    
  l.o. = 17, l =  8, energy derivative =  0 :    11.39483056    
  l.o. = 17, l =  8, energy derivative =  1 :    11.39483056    
  l.o. = 17, l =  8, energy derivative =  2 :    11.39483056    
 
Species :    1 (Ti), atom :    2
 APW functions :
  l =  0, energy derivative =  0 :   0.2209546582    
  l =  1, energy derivative =  0 :   0.2209546582    
  l =  2, energy derivative =  0 :   0.2209546582    
  l =  3, energy derivative =  0 :   0.2209546582    
  l =  4, energy derivative =  0 :   0.2209546582    
  l =  5, energy derivative =  0 :   0.2209546582    
  l =  6, energy derivative =  0 :   0.2209546582    
  l =  7, energy derivative =  0 :   0.2209546582    
  l =  8, energy derivative =  0 :   0.2209546582    
  l =  9, energy derivative =  0 :   0.2209546582    
  l = 10, energy derivative =  0 :   0.2209546582    
 local-orbital functions :
  l.o. =  1, l =  0, energy derivative =  0 :   0.2209546582    
  l.o. =  1, l =  0, energy derivative =  1 :   0.2209546582    
  l.o. =  2, l =  1, energy derivative =  0 :   0.2209546582    
  l.o. =  2, l =  1, energy derivative =  1 :   0.2209546582    
  l.o. =  3, l =  2, energy derivative =  0 :   0.2209546582    
  l.o. =  3, l =  2, energy derivative =  1 :   0.2209546582    
  l.o. =  4, l =  0, energy derivative =  0 :   0.2209546582    
  l.o. =  4, l =  0, energy derivative =  0 :   -1.780303418    
  l.o. =  5, l =  1, energy derivative =  0 :   0.2209546582    
  l.o. =  5, l =  1, energy derivative =  0 :  -0.8987280207    
  l.o. =  6, l =  3, energy derivative =  0 :   0.2209546582    
  l.o. =  6, l =  3, energy derivative =  1 :   0.2209546582    
  l.o. =  7, l =  4, energy derivative =  0 :   0.2209546582    
  l.o. =  7, l =  4, energy derivative =  1 :   0.2209546582    
  l.o. =  8, l =  5, energy derivative =  0 :   0.2209546582    
  l.o. =  8, l =  5, energy derivative =  1 :   0.2209546582    
  l.o. =  9, l =  0, energy derivative =  0 :    1.387526919    
  l.o. =  9, l =  0, energy derivative =  1 :    1.387526919    
  l.o. =  9, l =  0, energy derivative =  2 :    1.387526919    
  l.o. = 10, l =  1, energy derivative =  0 :    1.836985287    
  l.o. = 10, l =  1, energy derivative =  1 :    1.836985287    
  l.o. = 10, l =  1, energy derivative =  2 :    1.836985287    
  l.o. = 11, l =  2, energy derivative =  0 :   0.4352001550    
  l.o. = 11, l =  2, energy derivative =  1 :   0.4352001550    
  l.o. = 11, l =  2, energy derivative =  2 :   0.4352001550    
  l.o. = 12, l =  3, energy derivative =  0 :    2.394015784    
  l.o. = 12, l =  3, energy derivative =  1 :    2.394015784    
  l.o. = 12, l =  3, energy derivative =  2 :    2.394015784    
  l.o. = 13, l =  4, energy derivative =  0 :    3.911727346    
  l.o. = 13, l =  4, energy derivative =  1 :    3.911727346    
  l.o. = 13, l =  4, energy derivative =  2 :    3.911727346    
  l.o. = 14, l =  5, energy derivative =  0 :    5.528351886    
  l.o. = 14, l =  5, energy derivative =  1 :    5.528351886    
  l.o. = 14, l =  5, energy derivative =  2 :    5.528351886    
  l.o. = 15, l =  6, energy derivative =  0 :    7.304614509    
  l.o. = 15, l =  6, energy derivative =  1 :    7.304614509    
  l.o. = 15, l =  6, energy derivative =  2 :    7.304614509    
  l.o. = 16, l =  7, energy derivative =  0 :    9.257901356    
  l.o. = 16, l =  7, energy derivative =  1 :    9.257901356    
  l.o. = 16, l =  7, energy derivative =  2 :    9.257901356    
  l.o. = 17, l =  8, energy derivative =  0 :    11.39483056    
  l.o. = 17, l =  8, energy derivative =  1 :    11.39483056    
  l.o. = 17, l =  8, energy derivative =  2 :    11.39483056    
