   165 : nkpt; k-point, vkl, wkpt, nmat below
     1   0.000000000       0.000000000       0.000000000      0.2035416243E-03     308
     2  0.5882352941E-01   0.000000000       0.000000000      0.2442499491E-02     296
     3  0.1176470588       0.000000000       0.000000000      0.2442499491E-02     296
     4  0.1764705882       0.000000000       0.000000000      0.2442499491E-02     297
     5  0.2352941176       0.000000000       0.000000000      0.2442499491E-02     297
     6  0.2941176471       0.000000000       0.000000000      0.2442499491E-02     297
     7  0.3529411765       0.000000000       0.000000000      0.2442499491E-02     293
     8  0.4117647059       0.000000000       0.000000000      0.2442499491E-02     293
     9  0.4705882353       0.000000000       0.000000000      0.2442499491E-02     293
    10  0.5882352941E-01  0.5882352941E-01   0.000000000      0.4884998982E-02     298
    11  0.1176470588      0.5882352941E-01   0.000000000      0.9769997965E-02     298
    12  0.1764705882      0.5882352941E-01   0.000000000      0.9769997965E-02     296
    13  0.2352941176      0.5882352941E-01   0.000000000      0.9769997965E-02     295
    14  0.2941176471      0.5882352941E-01   0.000000000      0.9769997965E-02     294
    15  0.3529411765      0.5882352941E-01   0.000000000      0.9769997965E-02     291
    16  0.4117647059      0.5882352941E-01   0.000000000      0.9769997965E-02     292
    17  0.4705882353      0.5882352941E-01   0.000000000      0.4884998982E-02     295
    18  0.1176470588      0.1176470588       0.000000000      0.4884998982E-02     294
    19  0.1764705882      0.1176470588       0.000000000      0.9769997965E-02     294
    20  0.2352941176      0.1176470588       0.000000000      0.9769997965E-02     291
    21  0.2941176471      0.1176470588       0.000000000      0.9769997965E-02     294
    22  0.3529411765      0.1176470588       0.000000000      0.9769997965E-02     292
    23  0.4117647059      0.1176470588       0.000000000      0.9769997965E-02     295
    24  0.1764705882      0.1764705882       0.000000000      0.4884998982E-02     291
    25  0.2352941176      0.1764705882       0.000000000      0.9769997965E-02     294
    26  0.2941176471      0.1764705882       0.000000000      0.9769997965E-02     291
    27  0.3529411765      0.1764705882       0.000000000      0.9769997965E-02     293
    28  0.4117647059      0.1764705882       0.000000000      0.4884998982E-02     296
    29  0.2352941176      0.2352941176       0.000000000      0.4884998982E-02     292
    30  0.2941176471      0.2352941176       0.000000000      0.9769997965E-02     292
    31  0.3529411765      0.2352941176       0.000000000      0.9769997965E-02     294
    32  0.2941176471      0.2941176471       0.000000000      0.4884998982E-02     296
    33  0.3529411765      0.2941176471       0.000000000      0.4884998982E-02     296
    34  0.5882352941E-01  0.5882352941E-01  0.5882352941E-01  0.1628332994E-02     296
    35  0.1176470588      0.5882352941E-01  0.5882352941E-01  0.4884998982E-02     296
    36  0.1764705882      0.5882352941E-01  0.5882352941E-01  0.4884998982E-02     291
    37  0.2352941176      0.5882352941E-01  0.5882352941E-01  0.4884998982E-02     292
    38  0.2941176471      0.5882352941E-01  0.5882352941E-01  0.4884998982E-02     292
    39  0.3529411765      0.5882352941E-01  0.5882352941E-01  0.4884998982E-02     292
    40  0.4117647059      0.5882352941E-01  0.5882352941E-01  0.4884998982E-02     293
    41  0.9411764706      0.5882352941E-01  0.5882352941E-01  0.1221249746E-02     300
    42  0.1176470588      0.1176470588      0.5882352941E-01  0.4884998982E-02     293
    43  0.1764705882      0.1176470588      0.5882352941E-01  0.9769997965E-02     291
    44  0.2352941176      0.1176470588      0.5882352941E-01  0.9769997965E-02     291
    45  0.2941176471      0.1176470588      0.5882352941E-01  0.9769997965E-02     292
    46  0.3529411765      0.1176470588      0.5882352941E-01  0.9769997965E-02     294
    47  0.4117647059      0.1176470588      0.5882352941E-01  0.4884998982E-02     293
    48  0.8823529412      0.1176470588      0.5882352941E-01  0.4884998982E-02     296
    49  0.1764705882      0.1764705882      0.5882352941E-01  0.4884998982E-02     293
    50  0.2352941176      0.1764705882      0.5882352941E-01  0.9769997965E-02     291
    51  0.2941176471      0.1764705882      0.5882352941E-01  0.9769997965E-02     293
    52  0.3529411765      0.1764705882      0.5882352941E-01  0.9769997965E-02     293
    53  0.8235294118      0.1764705882      0.5882352941E-01  0.4884998982E-02     294
    54  0.8823529412      0.1764705882      0.5882352941E-01  0.4884998982E-02     295
    55  0.2352941176      0.2352941176      0.5882352941E-01  0.4884998982E-02     290
    56  0.2941176471      0.2352941176      0.5882352941E-01  0.9769997965E-02     295
    57  0.3529411765      0.2352941176      0.5882352941E-01  0.4884998982E-02     294
    58  0.7647058824      0.2352941176      0.5882352941E-01  0.4884998982E-02     295
    59  0.8235294118      0.2352941176      0.5882352941E-01  0.9769997965E-02     293
    60  0.2941176471      0.2941176471      0.5882352941E-01  0.4884998982E-02     296
    61  0.7058823529      0.2941176471      0.5882352941E-01  0.4884998982E-02     293
    62  0.7647058824      0.2941176471      0.5882352941E-01  0.9769997965E-02     293
    63  0.8235294118      0.2941176471      0.5882352941E-01  0.4884998982E-02     295
    64  0.6470588235      0.3529411765      0.5882352941E-01  0.4884998982E-02     295
    65  0.7058823529      0.3529411765      0.5882352941E-01  0.9769997965E-02     294
    66  0.7647058824      0.3529411765      0.5882352941E-01  0.9769997965E-02     294
    67  0.5882352941      0.4117647059      0.5882352941E-01  0.4884998982E-02     292
    68  0.6470588235      0.4117647059      0.5882352941E-01  0.9769997965E-02     293
    69  0.7058823529      0.4117647059      0.5882352941E-01  0.9769997965E-02     290
    70  0.7647058824      0.4117647059      0.5882352941E-01  0.4884998982E-02     293
    71  0.5294117647      0.4705882353      0.5882352941E-01  0.4884998982E-02     294
    72  0.5882352941      0.4705882353      0.5882352941E-01  0.9769997965E-02     292
    73  0.6470588235      0.4705882353      0.5882352941E-01  0.9769997965E-02     292
    74  0.7058823529      0.4705882353      0.5882352941E-01  0.9769997965E-02     293
    75  0.5294117647      0.5294117647      0.5882352941E-01  0.4884998982E-02     297
    76  0.5882352941      0.5294117647      0.5882352941E-01  0.9769997965E-02     299
    77  0.6470588235      0.5294117647      0.5882352941E-01  0.9769997965E-02     294
    78  0.7058823529      0.5294117647      0.5882352941E-01  0.4884998982E-02     296
    79  0.5882352941      0.5882352941      0.5882352941E-01  0.4884998982E-02     296
    80  0.6470588235      0.5882352941      0.5882352941E-01  0.9769997965E-02     297
    81  0.6470588235      0.6470588235      0.5882352941E-01  0.1628332994E-02     298
    82  0.1176470588      0.1176470588      0.1176470588      0.1628332994E-02     293
    83  0.1764705882      0.1176470588      0.1176470588      0.4884998982E-02     291
    84  0.2352941176      0.1176470588      0.1176470588      0.4884998982E-02     291
    85  0.2941176471      0.1176470588      0.1176470588      0.4884998982E-02     289
    86  0.3529411765      0.1176470588      0.1176470588      0.4884998982E-02     291
    87  0.8823529412      0.1176470588      0.1176470588      0.1221249746E-02     292
    88  0.1764705882      0.1764705882      0.1176470588      0.4884998982E-02     292
    89  0.2352941176      0.1764705882      0.1176470588      0.9769997965E-02     291
    90  0.2941176471      0.1764705882      0.1176470588      0.9769997965E-02     293
    91  0.3529411765      0.1764705882      0.1176470588      0.4884998982E-02     292
    92  0.8235294118      0.1764705882      0.1176470588      0.4884998982E-02     293
    93  0.2352941176      0.2352941176      0.1176470588      0.4884998982E-02     292
    94  0.2941176471      0.2352941176      0.1176470588      0.9769997965E-02     293
    95  0.7647058824      0.2352941176      0.1176470588      0.4884998982E-02     295
    96  0.8235294118      0.2352941176      0.1176470588      0.4884998982E-02     295
    97  0.2941176471      0.2941176471      0.1176470588      0.1628332994E-02     298
    98  0.7058823529      0.2941176471      0.1176470588      0.4884998982E-02     293
    99  0.7647058824      0.2941176471      0.1176470588      0.9769997965E-02     293
   100  0.6470588235      0.3529411765      0.1176470588      0.4884998982E-02     294
   101  0.7058823529      0.3529411765      0.1176470588      0.9769997965E-02     296
   102  0.7647058824      0.3529411765      0.1176470588      0.4884998982E-02     294
   103  0.5882352941      0.4117647059      0.1176470588      0.4884998982E-02     293
   104  0.6470588235      0.4117647059      0.1176470588      0.9769997965E-02     291
   105  0.7058823529      0.4117647059      0.1176470588      0.9769997965E-02     292
   106  0.5294117647      0.4705882353      0.1176470588      0.4884998982E-02     293
   107  0.5882352941      0.4705882353      0.1176470588      0.9769997965E-02     295
   108  0.6470588235      0.4705882353      0.1176470588      0.9769997965E-02     292
   109  0.7058823529      0.4705882353      0.1176470588      0.4884998982E-02     294
   110  0.5294117647      0.5294117647      0.1176470588      0.4884998982E-02     296
   111  0.5882352941      0.5294117647      0.1176470588      0.9769997965E-02     300
   112  0.6470588235      0.5294117647      0.1176470588      0.9769997965E-02     299
   113  0.5882352941      0.5882352941      0.1176470588      0.4884998982E-02     298
   114  0.6470588235      0.5882352941      0.1176470588      0.4884998982E-02     304
   115  0.1764705882      0.1764705882      0.1764705882      0.1628332994E-02     293
   116  0.2352941176      0.1764705882      0.1764705882      0.4884998982E-02     293
   117  0.2941176471      0.1764705882      0.1764705882      0.4884998982E-02     297
   118  0.8235294118      0.1764705882      0.1764705882      0.1221249746E-02     292
   119  0.2352941176      0.2352941176      0.1764705882      0.4884998982E-02     295
   120  0.2941176471      0.2352941176      0.1764705882      0.4884998982E-02     289
   121  0.7647058824      0.2352941176      0.1764705882      0.4884998982E-02     294
   122  0.7058823529      0.2941176471      0.1764705882      0.4884998982E-02     296
   123  0.7647058824      0.2941176471      0.1764705882      0.4884998982E-02     298
   124  0.6470588235      0.3529411765      0.1764705882      0.4884998982E-02     295
   125  0.7058823529      0.3529411765      0.1764705882      0.9769997965E-02     294
   126  0.5882352941      0.4117647059      0.1764705882      0.4884998982E-02     296
   127  0.6470588235      0.4117647059      0.1764705882      0.9769997965E-02     294
   128  0.7058823529      0.4117647059      0.1764705882      0.4884998982E-02     297
   129  0.5294117647      0.4705882353      0.1764705882      0.4884998982E-02     297
   130  0.5882352941      0.4705882353      0.1764705882      0.9769997965E-02     300
   131  0.6470588235      0.4705882353      0.1764705882      0.9769997965E-02     297
   132  0.5294117647      0.5294117647      0.1764705882      0.4884998982E-02     301
   133  0.5882352941      0.5294117647      0.1764705882      0.9769997965E-02     302
   134  0.6470588235      0.5294117647      0.1764705882      0.4884998982E-02     302
   135  0.5882352941      0.5882352941      0.1764705882      0.4884998982E-02     302
   136  0.2352941176      0.2352941176      0.2352941176      0.1628332994E-02     287
   137  0.7647058824      0.2352941176      0.2352941176      0.1221249746E-02     292
   138  0.7058823529      0.2941176471      0.2352941176      0.4884998982E-02     299
   139  0.6470588235      0.3529411765      0.2352941176      0.4884998982E-02     297
   140  0.7058823529      0.3529411765      0.2352941176      0.4884998982E-02     297
   141  0.5882352941      0.4117647059      0.2352941176      0.4884998982E-02     300
   142  0.6470588235      0.4117647059      0.2352941176      0.9769997965E-02     299
   143  0.5294117647      0.4705882353      0.2352941176      0.4884998982E-02     305
   144  0.5882352941      0.4705882353      0.2352941176      0.9769997965E-02     302
   145  0.6470588235      0.4705882353      0.2352941176      0.4884998982E-02     302
   146  0.5294117647      0.5294117647      0.2352941176      0.4884998982E-02     301
   147  0.5882352941      0.5294117647      0.2352941176      0.9769997965E-02     304
   148  0.5882352941      0.5882352941      0.2352941176      0.1628332994E-02     307
   149  0.7058823529      0.2941176471      0.2941176471      0.1221249746E-02     299
   150  0.6470588235      0.3529411765      0.2941176471      0.4884998982E-02     300
   151  0.5882352941      0.4117647059      0.2941176471      0.4884998982E-02     301
   152  0.6470588235      0.4117647059      0.2941176471      0.4884998982E-02     300
   153  0.5294117647      0.4705882353      0.2941176471      0.4884998982E-02     303
   154  0.5882352941      0.4705882353      0.2941176471      0.9769997965E-02     304
   155  0.5294117647      0.5294117647      0.2941176471      0.4884998982E-02     299
   156  0.5882352941      0.5294117647      0.2941176471      0.4884998982E-02     303
   157  0.6470588235      0.3529411765      0.3529411765      0.1221249746E-02     303
   158  0.5882352941      0.4117647059      0.3529411765      0.4884998982E-02     299
   159  0.5294117647      0.4705882353      0.3529411765      0.4884998982E-02     299
   160  0.5882352941      0.4705882353      0.3529411765      0.4884998982E-02     304
   161  0.5294117647      0.5294117647      0.3529411765      0.4884998982E-02     299
   162  0.5882352941      0.4117647059      0.4117647059      0.1221249746E-02     295
   163  0.5294117647      0.4705882353      0.4117647059      0.4884998982E-02     297
   164  0.5294117647      0.5294117647      0.4117647059      0.1628332994E-02     295
   165  0.5294117647      0.4705882353      0.4705882353      0.1221249746E-02     295
