 
Species :    1 (Sc), atom :    1
 n =  1, l =  0, k =  1 :   -161.5242777    
 n =  2, l =  0, k =  1 :   -17.00208884    
 n =  2, l =  1, k =  1 :   -13.94114219    
 n =  2, l =  1, k =  2 :   -13.76968154    
 
Species :    1 (Sc), atom :    2
 n =  1, l =  0, k =  1 :   -161.5242777    
 n =  2, l =  0, k =  1 :   -17.00208884    
 n =  2, l =  1, k =  1 :   -13.94114219    
 n =  2, l =  1, k =  2 :   -13.76968154    
