 
Distance between is =    1 (Sc), ia =    1 and
 is =    1 (Sc), ia =    1 :    0.000000000    
 is =    1 (Sc), ia =    2 :    6.102248059    
 
Distance between is =    1 (Sc), ia =    2 and
 is =    1 (Sc), ia =    1 :    6.102248059    
 is =    1 (Sc), ia =    2 :    0.000000000    
