  0.1552343367E-01
  0.1384109596E-01
  0.5659297431E-02
  0.2030435850E-02
  0.1071064619E-02
  0.5620146433E-03
  0.8065362602E-04
  0.1686188016E-03
  0.1410526900E-03
  0.6379609428E-04
  0.4392669466E-04
  0.7413369888E-04
  0.1420522707E-04
  0.4464276813E-05
  0.8644166527E-04
  0.2802452517E-04
  0.4463745610E-04
  0.9564349722E-04
  0.7817413372E-04
  0.2208263260E-03
  0.1005502700E-03
  0.1170786466E-03
  0.5553106324E-05
  0.2919212325E-04
  0.1184868444E-04
  0.1507108671E-03
  0.2745946930E-03
  0.1015310099E-04
  0.2340767063E-05
  0.1427489782E-03
  0.3699573051E-04
