    0.179676715835E-03
    0.154663843235E-03
    0.475651260092E-03
    0.486277783167E-03
    0.239995074148E-03
    0.121725638634E-03
    0.215282815043E-03
    0.181598525820E-03
    0.177190455052E-03
    0.179634809543E-03
    0.180350225664E-03
    0.181546237481E-03
    0.181518396876E-03
    0.181466521914E-03
    0.181470492325E-03
    0.181430787266E-03
    0.181391812755E-03
    0.181389248585E-03
    0.181395174241E-03
    0.181394683204E-03
    0.181396684061E-03
    0.181397623650E-03
    0.181396303910E-03
    0.181395923350E-03
    0.181396499074E-03
    0.181395881400E-03
    0.181395991226E-03
    0.181395922206E-03
    0.181395888416E-03
    0.181395559708E-03
    0.181395929726E-03
    0.181395829191E-03
    0.181395693564E-03
    0.181395761594E-03
