   3.635213855    
   1.835810067    
  0.6257364620    
  0.1635155527    
  0.3543030350E-01
  0.5560500151E-02
  0.1969911628E-02
  0.1057410030E-03
  0.6258261864E-04
  0.9599739154E-05
  0.1629664928E-05
  0.1692960874E-06
  0.9652539461E-07
  0.1099312966E-07
  0.9845115790E-08
  0.3304301785E-08
  0.3547911549E-08
  0.4195246286E-08
  0.1634180755E-08
