   27.59878253    
   38.75271587    
   37.87249257    
   29.31500078    
   18.91867775    
   11.01978808    
   6.346388196    
   3.754269389    
   2.170597587    
   1.161339603    
  0.5618605851    
  0.2408166119    
  0.8979712354E-01
  0.2814595903E-01
  0.7085872236E-02
  0.1118732020E-02
  0.1323032120E-04
  0.1233199364E-03
  0.4211783380E-04
  0.2782541560E-04
  0.1066400728E-04
  0.5825600965E-05
  0.2104115993E-05
  0.1942687959E-05
  0.4324101610E-06
  0.4597204679E-06
  0.6957270671E-07
  0.4445573722E-06
  0.4017638275E-06
  0.1455664460E-06
  0.2873639460E-07
  0.1912594598E-06
  0.1084154064E-06
  0.1129519660E-06
  0.2388187568E-06
  0.8010829333E-07
  0.1336848072E-06
  0.8372444427E-07
  0.5383481039E-07
  0.2365341061E-06
  0.1629232429E-06
  0.1396037987E-06
  0.4523899406E-05
  0.3318040399E-05
  0.8964707376E-06
  0.2255910658E-07
  0.1026601240E-06
  0.1332809916E-06
  0.3134518920E-06
  0.2445594873E-06
  0.1655353117E-06
  0.5560286809E-07
  0.8489223546E-07
  0.5946640158E-07
  0.1323969627E-06
  0.4581361281E-05
  0.3286018909E-05
  0.7880043995E-06
  0.8187635103E-07
  0.4235971574E-05
  0.3404318704E-05
  0.1025804522E-05
  0.6692789611E-07
  0.1776679710E-06
  0.4555800842E-05
  0.3358567483E-05
  0.9171744750E-06
  0.1215084922E-07
  0.5823858373E-06
  0.3381392162E-06
  0.9488576325E-07
  0.1591397449E-06
  0.1248226909E-06
  0.2221895556E-06
  0.6982372724E-07
  0.1049011189E-06
  0.1323860488E-06
  0.3913737601E-07
  0.4187313607E-07
  0.1516091288E-06
  0.1071457518E-06
  0.1165026333E-06
  0.1341977622E-06
  0.5614492693E-07
  0.2590604709E-07
  0.4445562809E-05
  0.3384935553E-05
  0.8854258340E-06
  0.6313712220E-07
  0.1830703695E-06
  0.1700864232E-06
  0.1790431270E-06
  0.4578490916E-05
  0.3479410225E-05
  0.7984417607E-06
  0.2045489964E-06
  0.2740853233E-07
  0.3605236998E-07
  0.1372827683E-06
  0.1954904292E-06
  0.1856024028E-06
  0.4677567631E-06
  0.3335080692E-06
  0.2170418156E-06
  0.1178013918E-06
  0.4402947525E-05
  0.3409051715E-05
  0.9857358236E-06
  0.1173284545E-06
  0.4346657079E-07
  0.1064217940E-06
  0.1238076948E-06
  0.1424705260E-06
  0.1150801836E-06
  0.1182743290E-06
  0.1224761945E-06
  0.1289517968E-06
  0.2228589437E-06
  0.4524292308E-05
  0.3366996680E-05
  0.8678034646E-06
  0.7117705536E-07
  0.7520065992E-07
  0.5824404070E-08
