   165 : nkpt; k-point, vkl, wkpt, nmat below
     1   0.000000000       0.000000000       0.000000000      0.2035416243E-03     258
     2  0.5882352941E-01   0.000000000       0.000000000      0.1628332994E-02     258
     3  0.1176470588       0.000000000       0.000000000      0.1628332994E-02     261
     4  0.1764705882       0.000000000       0.000000000      0.1628332994E-02     267
     5  0.2352941176       0.000000000       0.000000000      0.1628332994E-02     261
     6  0.2941176471       0.000000000       0.000000000      0.1628332994E-02     259
     7  0.3529411765       0.000000000       0.000000000      0.1628332994E-02     259
     8  0.4117647059       0.000000000       0.000000000      0.1628332994E-02     259
     9  0.4705882353       0.000000000       0.000000000      0.1628332994E-02     259
    10  0.5882352941E-01  0.5882352941E-01   0.000000000      0.1221249746E-02     258
    11  0.1176470588      0.5882352941E-01   0.000000000      0.4884998982E-02     263
    12  0.1764705882      0.5882352941E-01   0.000000000      0.4884998982E-02     265
    13  0.2352941176      0.5882352941E-01   0.000000000      0.4884998982E-02     263
    14  0.2941176471      0.5882352941E-01   0.000000000      0.4884998982E-02     261
    15  0.3529411765      0.5882352941E-01   0.000000000      0.4884998982E-02     258
    16  0.4117647059      0.5882352941E-01   0.000000000      0.4884998982E-02     262
    17  0.4705882353      0.5882352941E-01   0.000000000      0.4884998982E-02     259
    18  0.5294117647      0.5882352941E-01   0.000000000      0.4884998982E-02     261
    19  0.5882352941      0.5882352941E-01   0.000000000      0.4884998982E-02     259
    20  0.6470588235      0.5882352941E-01   0.000000000      0.4884998982E-02     261
    21  0.7058823529      0.5882352941E-01   0.000000000      0.4884998982E-02     260
    22  0.7647058824      0.5882352941E-01   0.000000000      0.4884998982E-02     263
    23  0.8235294118      0.5882352941E-01   0.000000000      0.4884998982E-02     263
    24  0.8823529412      0.5882352941E-01   0.000000000      0.4884998982E-02     263
    25  0.9411764706      0.5882352941E-01   0.000000000      0.2442499491E-02     262
    26  0.1176470588      0.1176470588       0.000000000      0.1221249746E-02     262
    27  0.1764705882      0.1176470588       0.000000000      0.4884998982E-02     266
    28  0.2352941176      0.1176470588       0.000000000      0.4884998982E-02     264
    29  0.2941176471      0.1176470588       0.000000000      0.4884998982E-02     262
    30  0.3529411765      0.1176470588       0.000000000      0.4884998982E-02     257
    31  0.4117647059      0.1176470588       0.000000000      0.4884998982E-02     259
    32  0.4705882353      0.1176470588       0.000000000      0.4884998982E-02     261
    33  0.5294117647      0.1176470588       0.000000000      0.4884998982E-02     260
    34  0.5882352941      0.1176470588       0.000000000      0.4884998982E-02     262
    35  0.6470588235      0.1176470588       0.000000000      0.4884998982E-02     261
    36  0.7058823529      0.1176470588       0.000000000      0.4884998982E-02     259
    37  0.7647058824      0.1176470588       0.000000000      0.4884998982E-02     263
    38  0.8235294118      0.1176470588       0.000000000      0.4884998982E-02     264
    39  0.8823529412      0.1176470588       0.000000000      0.2442499491E-02     262
    40  0.1764705882      0.1764705882       0.000000000      0.1221249746E-02     266
    41  0.2352941176      0.1764705882       0.000000000      0.4884998982E-02     265
    42  0.2941176471      0.1764705882       0.000000000      0.4884998982E-02     263
    43  0.3529411765      0.1764705882       0.000000000      0.4884998982E-02     261
    44  0.4117647059      0.1764705882       0.000000000      0.4884998982E-02     258
    45  0.4705882353      0.1764705882       0.000000000      0.4884998982E-02     260
    46  0.5294117647      0.1764705882       0.000000000      0.4884998982E-02     260
    47  0.5882352941      0.1764705882       0.000000000      0.4884998982E-02     258
    48  0.6470588235      0.1764705882       0.000000000      0.4884998982E-02     260
    49  0.7058823529      0.1764705882       0.000000000      0.4884998982E-02     260
    50  0.7647058824      0.1764705882       0.000000000      0.4884998982E-02     262
    51  0.8235294118      0.1764705882       0.000000000      0.2442499491E-02     260
    52  0.2352941176      0.2352941176       0.000000000      0.1221249746E-02     270
    53  0.2941176471      0.2352941176       0.000000000      0.4884998982E-02     268
    54  0.3529411765      0.2352941176       0.000000000      0.4884998982E-02     263
    55  0.4117647059      0.2352941176       0.000000000      0.4884998982E-02     262
    56  0.4705882353      0.2352941176       0.000000000      0.4884998982E-02     258
    57  0.5294117647      0.2352941176       0.000000000      0.4884998982E-02     260
    58  0.5882352941      0.2352941176       0.000000000      0.4884998982E-02     257
    59  0.6470588235      0.2352941176       0.000000000      0.4884998982E-02     260
    60  0.7058823529      0.2352941176       0.000000000      0.4884998982E-02     260
    61  0.7647058824      0.2352941176       0.000000000      0.2442499491E-02     262
    62  0.2941176471      0.2941176471       0.000000000      0.1221249746E-02     270
    63  0.3529411765      0.2941176471       0.000000000      0.4884998982E-02     263
    64  0.4117647059      0.2941176471       0.000000000      0.4884998982E-02     261
    65  0.4705882353      0.2941176471       0.000000000      0.4884998982E-02     260
    66  0.5294117647      0.2941176471       0.000000000      0.4884998982E-02     259
    67  0.5882352941      0.2941176471       0.000000000      0.4884998982E-02     259
    68  0.6470588235      0.2941176471       0.000000000      0.4884998982E-02     261
    69  0.7058823529      0.2941176471       0.000000000      0.2442499491E-02     256
    70  0.3529411765      0.3529411765       0.000000000      0.1221249746E-02     258
    71  0.4117647059      0.3529411765       0.000000000      0.4884998982E-02     259
    72  0.4705882353      0.3529411765       0.000000000      0.4884998982E-02     260
    73  0.5294117647      0.3529411765       0.000000000      0.4884998982E-02     255
    74  0.5882352941      0.3529411765       0.000000000      0.4884998982E-02     257
    75  0.6470588235      0.3529411765       0.000000000      0.2442499491E-02     261
    76  0.4117647059      0.4117647059       0.000000000      0.1221249746E-02     261
    77  0.4705882353      0.4117647059       0.000000000      0.4884998982E-02     260
    78  0.5294117647      0.4117647059       0.000000000      0.4884998982E-02     259
    79  0.5882352941      0.4117647059       0.000000000      0.2442499491E-02     255
    80  0.4705882353      0.4705882353       0.000000000      0.1221249746E-02     261
    81  0.5294117647      0.4705882353       0.000000000      0.2442499491E-02     261
    82  0.1764705882      0.1176470588      0.5882352941E-01  0.4884998982E-02     266
    83  0.2352941176      0.1176470588      0.5882352941E-01  0.9769997965E-02     265
    84  0.2941176471      0.1176470588      0.5882352941E-01  0.9769997965E-02     263
    85  0.3529411765      0.1176470588      0.5882352941E-01  0.9769997965E-02     261
    86  0.4117647059      0.1176470588      0.5882352941E-01  0.9769997965E-02     258
    87  0.4705882353      0.1176470588      0.5882352941E-01  0.9769997965E-02     260
    88  0.5294117647      0.1176470588      0.5882352941E-01  0.9769997965E-02     259
    89  0.2352941176      0.1764705882      0.5882352941E-01  0.4884998982E-02     263
    90  0.2941176471      0.1764705882      0.5882352941E-01  0.9769997965E-02     265
    91  0.3529411765      0.1764705882      0.5882352941E-01  0.9769997965E-02     262
    92  0.4117647059      0.1764705882      0.5882352941E-01  0.9769997965E-02     258
    93  0.4705882353      0.1764705882      0.5882352941E-01  0.9769997965E-02     260
    94  0.5294117647      0.1764705882      0.5882352941E-01  0.9769997965E-02     263
    95  0.5882352941      0.1764705882      0.5882352941E-01  0.9769997965E-02     259
    96  0.6470588235      0.1764705882      0.5882352941E-01  0.9769997965E-02     261
    97  0.7058823529      0.1764705882      0.5882352941E-01  0.9769997965E-02     260
    98  0.7647058824      0.1764705882      0.5882352941E-01  0.9769997965E-02     260
    99  0.8235294118      0.1764705882      0.5882352941E-01  0.9769997965E-02     263
   100  0.8823529412      0.1764705882      0.5882352941E-01  0.4884998982E-02     262
   101  0.2941176471      0.2352941176      0.5882352941E-01  0.4884998982E-02     267
   102  0.3529411765      0.2352941176      0.5882352941E-01  0.9769997965E-02     263
   103  0.4117647059      0.2352941176      0.5882352941E-01  0.9769997965E-02     262
   104  0.4705882353      0.2352941176      0.5882352941E-01  0.9769997965E-02     258
   105  0.5294117647      0.2352941176      0.5882352941E-01  0.9769997965E-02     260
   106  0.5882352941      0.2352941176      0.5882352941E-01  0.9769997965E-02     260
   107  0.6470588235      0.2352941176      0.5882352941E-01  0.9769997965E-02     260
   108  0.7058823529      0.2352941176      0.5882352941E-01  0.9769997965E-02     261
   109  0.7647058824      0.2352941176      0.5882352941E-01  0.9769997965E-02     260
   110  0.8235294118      0.2352941176      0.5882352941E-01  0.4884998982E-02     264
   111  0.3529411765      0.2941176471      0.5882352941E-01  0.4884998982E-02     263
   112  0.4117647059      0.2941176471      0.5882352941E-01  0.9769997965E-02     262
   113  0.4705882353      0.2941176471      0.5882352941E-01  0.9769997965E-02     260
   114  0.5294117647      0.2941176471      0.5882352941E-01  0.9769997965E-02     260
   115  0.5882352941      0.2941176471      0.5882352941E-01  0.9769997965E-02     258
   116  0.6470588235      0.2941176471      0.5882352941E-01  0.9769997965E-02     260
   117  0.7058823529      0.2941176471      0.5882352941E-01  0.9769997965E-02     260
   118  0.7647058824      0.2941176471      0.5882352941E-01  0.4884998982E-02     259
   119  0.4117647059      0.3529411765      0.5882352941E-01  0.4884998982E-02     261
   120  0.4705882353      0.3529411765      0.5882352941E-01  0.9769997965E-02     260
   121  0.5294117647      0.3529411765      0.5882352941E-01  0.9769997965E-02     256
   122  0.5882352941      0.3529411765      0.5882352941E-01  0.9769997965E-02     255
   123  0.6470588235      0.3529411765      0.5882352941E-01  0.9769997965E-02     255
   124  0.7058823529      0.3529411765      0.5882352941E-01  0.4884998982E-02     256
   125  0.4705882353      0.4117647059      0.5882352941E-01  0.4884998982E-02     259
   126  0.5294117647      0.4117647059      0.5882352941E-01  0.9769997965E-02     257
   127  0.5882352941      0.4117647059      0.5882352941E-01  0.9769997965E-02     256
   128  0.6470588235      0.4117647059      0.5882352941E-01  0.4884998982E-02     258
   129  0.5294117647      0.4705882353      0.5882352941E-01  0.4884998982E-02     259
   130  0.5882352941      0.4705882353      0.5882352941E-01  0.4884998982E-02     259
   131  0.3529411765      0.2352941176      0.1176470588      0.4884998982E-02     261
   132  0.4117647059      0.2352941176      0.1176470588      0.9769997965E-02     262
   133  0.4705882353      0.2352941176      0.1176470588      0.9769997965E-02     261
   134  0.5294117647      0.2352941176      0.1176470588      0.9769997965E-02     260
   135  0.5882352941      0.2352941176      0.1176470588      0.9769997965E-02     260
   136  0.4117647059      0.2941176471      0.1176470588      0.4884998982E-02     263
   137  0.4705882353      0.2941176471      0.1176470588      0.9769997965E-02     260
   138  0.5294117647      0.2941176471      0.1176470588      0.9769997965E-02     259
   139  0.5882352941      0.2941176471      0.1176470588      0.9769997965E-02     259
   140  0.6470588235      0.2941176471      0.1176470588      0.9769997965E-02     259
   141  0.7058823529      0.2941176471      0.1176470588      0.9769997965E-02     259
   142  0.7647058824      0.2941176471      0.1176470588      0.9769997965E-02     259
   143  0.8235294118      0.2941176471      0.1176470588      0.4884998982E-02     263
   144  0.4705882353      0.3529411765      0.1176470588      0.4884998982E-02     261
   145  0.5294117647      0.3529411765      0.1176470588      0.9769997965E-02     258
   146  0.5882352941      0.3529411765      0.1176470588      0.9769997965E-02     257
   147  0.6470588235      0.3529411765      0.1176470588      0.9769997965E-02     256
   148  0.7058823529      0.3529411765      0.1176470588      0.9769997965E-02     256
   149  0.7647058824      0.3529411765      0.1176470588      0.4884998982E-02     257
   150  0.5294117647      0.4117647059      0.1176470588      0.4884998982E-02     258
   151  0.5882352941      0.4117647059      0.1176470588      0.9769997965E-02     253
   152  0.6470588235      0.4117647059      0.1176470588      0.9769997965E-02     255
   153  0.7058823529      0.4117647059      0.1176470588      0.4884998982E-02     255
   154  0.5882352941      0.4705882353      0.1176470588      0.4884998982E-02     256
   155  0.6470588235      0.4705882353      0.1176470588      0.4884998982E-02     255
   156  0.5294117647      0.3529411765      0.1764705882      0.4884998982E-02     257
   157  0.5882352941      0.3529411765      0.1764705882      0.9769997965E-02     258
   158  0.6470588235      0.3529411765      0.1764705882      0.9769997965E-02     257
   159  0.5882352941      0.4117647059      0.1764705882      0.4884998982E-02     256
   160  0.6470588235      0.4117647059      0.1764705882      0.9769997965E-02     256
   161  0.7058823529      0.4117647059      0.1764705882      0.9769997965E-02     256
   162  0.7647058824      0.4117647059      0.1764705882      0.4884998982E-02     257
   163  0.6470588235      0.4705882353      0.1764705882      0.4884998982E-02     257
   164  0.7058823529      0.4705882353      0.1764705882      0.4884998982E-02     255
   165  0.7058823529      0.4705882353      0.2352941176      0.4884998982E-02     253
