 
Species :    1 (Tc), atom :    1
 n =  1, l =  0, k =  1 :   -767.1479912    
 n =  2, l =  0, k =  1 :   -108.5472822    
 n =  2, l =  1, k =  1 :   -100.0034288    
 n =  2, l =  1, k =  2 :   -95.64004886    
 n =  3, l =  0, k =  1 :   -18.17410925    
 n =  3, l =  1, k =  1 :   -14.89625385    
 n =  3, l =  1, k =  2 :   -14.16570339    
 n =  3, l =  2, k =  2 :   -8.364013380    
 n =  3, l =  2, k =  3 :   -8.224275337    
 
Species :    1 (Tc), atom :    2
 n =  1, l =  0, k =  1 :   -767.1479912    
 n =  2, l =  0, k =  1 :   -108.5472822    
 n =  2, l =  1, k =  1 :   -100.0034288    
 n =  2, l =  1, k =  2 :   -95.64004886    
 n =  3, l =  0, k =  1 :   -18.17410925    
 n =  3, l =  1, k =  1 :   -14.89625385    
 n =  3, l =  1, k =  2 :   -14.16570339    
 n =  3, l =  2, k =  2 :   -8.364013380    
 n =  3, l =  2, k =  3 :   -8.224275337    
