    -3011.72715232    
    -3006.23940741    
    -2999.58406588    
    -2993.26791641    
    -2988.39907838    
    -2985.32735881    
    -2983.72465252    
    -2983.01557196    
    -2982.72479456    
    -2982.59622726    
    -2982.53685758    
    -2982.51066211    
    -2982.50080655    
    -2982.49794823    
    -2982.49737622    
    -2982.49737882    
    -2982.49745133    
    -2982.49749414    
    -2982.49750902    
    -2982.49751372    
    -2982.49751920    
    -2982.49752098    
    -2982.49752105    
    -2982.49752184    
    -2982.49752185    
    -2982.49752192    
    -2982.49752192    
    -2982.49752187    
    -2982.49752128    
    -2982.49752191    
    -2982.49752192    
    -2982.49752249    
    -2982.49752252    
    -2982.49752130    
    -2982.49752188    
    -2982.49752190    
    -2982.49752190    
    -2982.49752129    
    -2982.49752130    
    -2982.49752187    
    -2982.49752190    
    -2982.49752191    
    -2982.49752192    
    -2982.49752130    
    -2982.49752193    
    -2982.49752187    
    -2982.49752191    
    -2982.49752191    
    -2982.49752129    
    -2982.49752192    
    -2982.49752187    
    -2982.49752190    
    -2982.49752128    
    -2982.49752191    
    -2982.49752192    
    -2982.49752187    
    -2982.49752190    
    -2982.49752129    
    -2982.49752191    
    -2982.49752192    
    -2982.49752187    
    -2982.49752190    
    -2982.49752191    
    -2982.49752191    
    -2982.49752192    
