   1.079500825    
  0.8662805977    
  0.4504048945    
  0.1694436339    
  0.4833049851E-01
  0.2005818678E-02
  0.1009868385E-02
  0.8581195962E-03
  0.6543691541E-03
  0.4256281885E-03
  0.3523683783E-03
  0.3972011329E-03
  0.4579418495E-03
  0.8115633478E-03
  0.1823398804E-03
  0.5870375986E-04
  0.6291020192E-03
  0.4103468369E-03
  0.1404768666E-03
  0.3519971096E-03
  0.2585773190E-03
  0.1568073900E-02
  0.5692162579E-04
  0.2971740302E-04
  0.1901697319E-03
  0.1412792543E-02
  0.8915624313E-04
  0.5960351520E-03
  0.1264602479E-03
  0.1775136272E-03
  0.1267037705E-02
  0.3269528546E-03
  0.1129924450E-02
  0.7110139553E-04
  0.1160677518E-03
  0.2996634435E-04
  0.1878552865E-03
  0.5754316176E-04
  0.3819512276E-04
  0.1066535570E-03
  0.3034783341E-03
  0.3983984492E-03
  0.2672081129E-03
  0.1563081333E-03
  0.1638194812E-03
  0.3154271826E-03
  0.3542587986E-03
  0.9164807468E-04
  0.4074907826E-04
  0.1583674497E-03
