    -1729.16287666    
    -1728.81029442    
    -1726.53024191    
    -1716.28952972    
    -1711.31929861    
    -1709.33014725    
    -1708.36016569    
    -1708.35589875    
    -1708.37113513    
    -1708.36792594    
    -1708.36533195    
    -1708.36530251    
    -1708.36507203    
    -1708.36519477    
    -1708.36525068    
    -1708.36525404    
    -1708.36529031    
    -1708.36530188    
    -1708.36531544    
    -1708.36530325    
    -1708.36529505    
    -1708.36529545    
    -1708.36529434    
    -1708.36529314    
    -1708.36529193    
    -1708.36529142    
    -1708.36529028    
    -1708.36528989    
    -1708.36528975    
    -1708.36528946    
    -1708.36528894    
    -1708.36528896    
    -1708.36528964    
    -1708.36528915    
    -1708.36528912    
    -1708.36528901    
    -1708.36528902    
    -1708.36528885    
    -1708.36528881    
    -1708.36528880    
    -1708.36528884    
    -1708.36528885    
    -1708.36528885    
    -1708.36528885    
