+----------------------------+
| Elk version 8.3.15 started |
+----------------------------+
 
Date (YYYY-MM-DD) : 2022-02-20
Time (hh:mm:ss)   : 02:01:33
 
All units are atomic (Hartree, Bohr, etc.)
 
+------------------------------------------+
| Ground-state run resuming from STATE.OUT |
+------------------------------------------+
 
Lattice vectors :
   5.325013980      -3.074398254       0.000000000    
   0.000000000       6.148796510       0.000000000    
   0.000000000       0.000000000       9.326753647    
 
Reciprocal lattice vectors :
   1.179937805       0.000000000       0.000000000    
  0.5899689024       1.021856114       0.000000000    
   0.000000000       0.000000000      0.6736733428    
 
Unit cell volume      :    305.3805539    
Brillouin zone volume :   0.8122659097    
 
Muffin-tin inner radius fraction :   0.1000000000E-01
 
Species :    1 (Zr)
 parameters loaded from : Zr.in
 name : zirconium
 nuclear charge    :   -40.00000000    
 electronic charge :    40.00000000    
 atomic mass :    166291.1791    
 muffin-tin radius :    2.500000000    
 number of radial points in muffin-tin :   1200
 number on inner part of muffin-tin    :    866
 atomic positions (lattice), magnetic fields (Cartesian) :
   1 :   0.33333333  0.16666667  0.25000000    0.00000000  0.00000000  0.00000000
   2 :  -0.33333333 -0.16666667 -0.25000000    0.00000000  0.00000000  0.00000000
 
Total number of atoms per unit cell :    2
 
Spin treatment :
 spin-unpolarised
 
Number of Bravais lattice symmetries :   24
Number of crystal symmetries         :   24
Crystal has inversion symmetry
Real symmetric eigensolver will be used
 
k-point grid :     17    17    17
k-point offset :    0.000000000       0.000000000       0.000000000    
k-point set is reduced with full crystal symmetry group
Total number of k-points :      297
 
Muffin-tin radius times maximum |G+k| :    8.000000000    
 using gkmax = rgkmax / 2
Maximum |G+k| for APW functions       :    4.000000000    
Maximum (1/2)|G+k|²                   :    8.000000000    
Maximum |G| for potential and density :    32.00000000    
Constant for pseudocharge density :   20
Radial integration step length :    1
 
G-vector grid sizes :     64    64    96
Number of G-vectors :   168995
 
Maximum angular momentum used for
 APW functions                      :   10
 outer part of muffin-tin           :    8
 inner part of muffin-tin           :    1
 
Total nuclear charge    :   -80.00000000    
Total core charge       :    56.00000000    
Total valence charge    :    24.00000000    
Total excess charge     :    0.000000000    
Total electronic charge :    80.00000000    
 
Effective Wigner radius, rₛ :   0.9695143928    
 
Number of empty states         :   40
Total number of valence states :   53
Total number of core states    :   56
 
Conduction state local-orbitals added automatically
Total number of local-orbitals :  242
 
Using Libxc version 05.01.05
Exchange-correlation functional :    100   493   494
 exchange: mgga_x_rscan; correlation: mgga_c_rscan
 
Smearing type :    1
 Methfessel-Paxton order 1, Phys. Rev. B 40, 3616 (1989)
Smearing width :   0.1000000000E-02
Effective electronic temperature (K) :    315.7750248    
 
Mixing type :    3
 Broyden mixing, J. Phys. A: Math. Gen. 17, L317 (1984)
 
Potential read in from STATE.OUT
 
+------------------------------+
| Self-consistent loop started |
+------------------------------+
 
+--------------------+
| Loop number :    1 |
+--------------------+
 
Energies :
 Fermi                       :     0.422297413948    
 sum of eigenvalues          :     -4260.59291941    
 electron kinetic            :      7450.01823921    
 core electron kinetic       :      7311.65905784    
 Coulomb                     :     -14419.4375570    
 Coulomb potential           :     -11403.7682692    
 nuclear-nuclear             :     -720.035664958    
 electron-nuclear            :     -15995.0355148    
 Hartree                     :      2295.63362281    
 Madelung                    :     -8717.55342237    
 xc potential                :     -306.842889414    
 exchange                    :     -227.103772172    
 correlation                 :     -4.11952197493    
 total energy                :     -7200.64261191    
 
Density of states at Fermi energy :    54.59179829    
 (states/Hartree/unit cell)
 
Estimated indirect band gap :   0.3560358428E-03
 from k-point    196 to k-point    256
Estimated direct band gap   :   0.2839142930E-02
 at k-point    289
 
Charges :
 core                        :    56.00000000    
 valence                     :    24.00000000    
 interstitial                :    4.527662022    
 muffin-tins (core leakage)
  species :    1 (Zr)
   atom    1                 :    37.73616899     (  0.5980583335E-05)
   atom    2                 :    37.73616899     (  0.5980583335E-05)
 total in muffin-tins        :    75.47233798    
 total calculated charge     :    79.99995734    
 total charge                :    80.00000000    
 error                       :   0.4265977600E-04
 
Time (CPU seconds) :        65.78
 
+--------------------+
| Loop number :    2 |
+--------------------+
 
Energies :
 Fermi                       :     0.422289451299    
 sum of eigenvalues          :     -4260.59377066    
 electron kinetic            :      7450.01661974    
 core electron kinetic       :      7311.66267226    
 Coulomb                     :     -14419.4382961    
 Coulomb potential           :     -11403.7674096    
 nuclear-nuclear             :     -720.035664958    
 electron-nuclear            :     -15995.0378527    
 Hartree                     :      2295.63522156    
 Madelung                    :     -8717.55459129    
 xc potential                :     -306.842980847    
 exchange                    :     -227.103833952    
 correlation                 :     -4.11952450608    
 total energy                :     -7200.64503478    
 
Density of states at Fermi energy :    54.48566419    
 (states/Hartree/unit cell)
 
Estimated indirect band gap :   0.3609620502E-03
 from k-point    196 to k-point    256
Estimated direct band gap   :   0.2837606350E-02
 at k-point    289
 
Charges :
 core                        :    56.00000000    
 valence                     :    24.00000000    
 interstitial                :    4.527520776    
 muffin-tins (core leakage)
  species :    1 (Zr)
   atom    1                 :    37.73623961     (  0.5980454787E-05)
   atom    2                 :    37.73623961     (  0.5980454787E-05)
 total in muffin-tins        :    75.47247922    
 total calculated charge     :    79.99995737    
 total charge                :    80.00000000    
 error                       :   0.4262974299E-04
 
Wrote STATE.OUT
 
RMS change in Kohn-Sham potential (target) :   0.3491913435E-01 (   10.00000000    )
Absolute change in total energy (target)   :   0.2422871918E-02 (  0.1000000000E-07)
 
Time (CPU seconds) :       130.90
 
+--------------------+
| Loop number :    3 |
+--------------------+
 
Energies :
 Fermi                       :     0.422114781313    
 sum of eigenvalues          :     -4260.59990559    
 electron kinetic            :      7449.99607210    
 core electron kinetic       :      7311.65880208    
 Coulomb                     :     -14419.4446970    
 Coulomb potential           :     -11403.7516839    
 nuclear-nuclear             :     -720.035664958    
 electron-nuclear            :     -15995.0663802    
 Hartree                     :      2295.65734816    
 Madelung                    :     -8717.56885508    
 xc potential                :     -306.844293772    
 exchange                    :     -227.104647888    
 correlation                 :     -4.11958477239    
 total energy                :     -7200.67285760    
 
Density of states at Fermi energy :    54.02701645    
 (states/Hartree/unit cell)
 
Estimated indirect band gap :   0.1173540995E-03
 from k-point      4 to k-point    196
Estimated direct band gap   :   0.2786396441E-02
 at k-point    289
 
Charges :
 core                        :    56.00000000    
 valence                     :    24.00000000    
 interstitial                :    4.524601335    
 muffin-tins (core leakage)
  species :    1 (Zr)
   atom    1                 :    37.73769933     (  0.5981064440E-05)
   atom    2                 :    37.73769933     (  0.5981064440E-05)
 total in muffin-tins        :    75.47539866    
 total calculated charge     :    79.99995814    
 total charge                :    80.00000000    
 error                       :   0.4186224007E-04
 
RMS change in Kohn-Sham potential (target) :   0.2603324327E-01 (   10.00000000    )
Absolute change in total energy (target)   :   0.2842853458E-01 (  0.1000000000E-07)
 
Time (CPU seconds) :       196.79
 
+--------------------+
| Loop number :    4 |
+--------------------+
 
Energies :
 Fermi                       :     0.421937090320    
 sum of eigenvalues          :     -4260.60561150    
 electron kinetic            :      7449.97571399    
 core electron kinetic       :      7311.65586760    
 Coulomb                     :     -14419.4501084    
 Coulomb potential           :     -11403.7356551    
 nuclear-nuclear             :     -720.035664958    
 electron-nuclear            :     -15995.0932318    
 Hartree                     :      2295.67878832    
 Madelung                    :     -8717.58228085    
 xc potential                :     -306.845670334    
 exchange                    :     -227.105476178    
 correlation                 :     -4.11965558675    
 total energy                :     -7200.69952620    
 
Density of states at Fermi energy :    58.74837307    
 (states/Hartree/unit cell)
 
Estimated indirect band gap :   0.7723863843E-04
 from k-point    231 to k-point    290
Estimated direct band gap   :   0.2715066868E-02
 at k-point    289
 
Charges :
 core                        :    56.00000000    
 valence                     :    24.00000000    
 interstitial                :    4.521187457    
 muffin-tins (core leakage)
  species :    1 (Zr)
   atom    1                 :    37.73940627     (  0.5981612947E-05)
   atom    2                 :    37.73940627     (  0.5981612947E-05)
 total in muffin-tins        :    75.47881254    
 total calculated charge     :    79.99995911    
 total charge                :    80.00000000    
 error                       :   0.4089122473E-04
 
Wrote STATE.OUT
 
RMS change in Kohn-Sham potential (target) :   0.1439560479E-01 (   10.00000000    )
Absolute change in total energy (target)   :   0.3377573938E-01 (  0.1000000000E-07)
 
Time (CPU seconds) :       258.98
 
+--------------------+
| Loop number :    5 |
+--------------------+
 
Energies :
 Fermi                       :     0.421819484001    
 sum of eigenvalues          :     -4260.61080637    
 electron kinetic            :      7449.96511052    
 core electron kinetic       :      7311.65798028    
 Coulomb                     :     -14419.4534753    
 Coulomb potential           :     -11403.7295186    
 nuclear-nuclear             :     -720.035664958    
 electron-nuclear            :     -15995.1061020    
 Hartree                     :      2295.68829171    
 Madelung                    :     -8717.58871597    
 xc potential                :     -306.846398291    
 exchange                    :     -227.105902925    
 correlation                 :     -4.11969676583    
 total energy                :     -7200.71396444    
 
Density of states at Fermi energy :    65.25950691    
 (states/Hartree/unit cell)
 
Estimated indirect band gap :   0.5153845928E-03
 from k-point    295 to k-point    231
Estimated direct band gap   :   0.2664946118E-02
 at k-point    289
 
Charges :
 core                        :    56.00000000    
 valence                     :    24.00000000    
 interstitial                :    4.519305010    
 muffin-tins (core leakage)
  species :    1 (Zr)
   atom    1                 :    37.74034749     (  0.5981868959E-05)
   atom    2                 :    37.74034749     (  0.5981868959E-05)
 total in muffin-tins        :    75.48069499    
 total calculated charge     :    79.99995969    
 total charge                :    80.00000000    
 error                       :   0.4030990370E-04
 
RMS change in Kohn-Sham potential (target) :   0.6683658341E-02 (   10.00000000    )
Absolute change in total energy (target)   :   0.2288216794E-01 (  0.1000000000E-07)
 
Time (CPU seconds) :       322.55
 
+--------------------+
| Loop number :    6 |
+--------------------+
 
Energies :
 Fermi                       :     0.421736600710    
 sum of eigenvalues          :     -4260.61753995    
 electron kinetic            :      7449.95576826    
 core electron kinetic       :      7311.65806842    
 Coulomb                     :     -14419.4573776    
 Coulomb potential           :     -11403.7263874    
 nuclear-nuclear             :     -720.035664958    
 electron-nuclear            :     -15995.1170379    
 Hartree                     :      2295.69532526    
 Madelung                    :     -8717.59418393    
 xc potential                :     -306.846920787    
 exchange                    :     -227.106234411    
 correlation                 :     -4.11971817586    
 total energy                :     -7200.72756197    
 
Density of states at Fermi energy :    69.26079967    
 (states/Hartree/unit cell)
 
Estimated indirect band gap :   0.4607549521E-03
 from k-point    295 to k-point    196
Estimated direct band gap   :   0.2638402488E-02
 at k-point    289
 
Charges :
 core                        :    56.00000000    
 valence                     :    24.00000000    
 interstitial                :    4.518287394    
 muffin-tins (core leakage)
  species :    1 (Zr)
   atom    1                 :    37.74085630     (  0.5981748423E-05)
   atom    2                 :    37.74085630     (  0.5981748423E-05)
 total in muffin-tins        :    75.48171261    
 total calculated charge     :    79.99995999    
 total charge                :    80.00000000    
 error                       :   0.4000586731E-04
 
Wrote STATE.OUT
 
RMS change in Kohn-Sham potential (target) :   0.2460793680E-02 (   10.00000000    )
Absolute change in total energy (target)   :   0.1931807336E-01 (  0.1000000000E-07)
 
Time (CPU seconds) :       384.39
 
+--------------------+
| Loop number :    7 |
+--------------------+
 
Energies :
 Fermi                       :     0.421678305993    
 sum of eigenvalues          :     -4260.62250428    
 electron kinetic            :      7449.94926323    
 core electron kinetic       :      7311.65615493    
 Coulomb                     :     -14419.4596553    
 Coulomb potential           :     -11403.7245398    
 nuclear-nuclear             :     -720.035664958    
 electron-nuclear            :     -15995.1234408    
 Hartree                     :      2295.69945047    
 Madelung                    :     -8717.59738535    
 xc potential                :     -306.847227676    
 exchange                    :     -227.106431232    
 correlation                 :     -4.11972998059    
 total energy                :     -7200.73655325    
 
Density of states at Fermi energy :    71.44177935    
 (states/Hartree/unit cell)
 
Estimated indirect band gap :   0.4094776884E-03
 from k-point    295 to k-point    196
Estimated direct band gap   :   0.2623283623E-02
 at k-point    289
 
Charges :
 core                        :    56.00000000    
 valence                     :    24.00000000    
 interstitial                :    4.517710574    
 muffin-tins (core leakage)
  species :    1 (Zr)
   atom    1                 :    37.74114471     (  0.5981752707E-05)
   atom    2                 :    37.74114471     (  0.5981752707E-05)
 total in muffin-tins        :    75.48228943    
 total calculated charge     :    79.99996017    
 total charge                :    80.00000000    
 error                       :   0.3983194770E-04
 
RMS change in Kohn-Sham potential (target) :   0.1997911465E-03 (   10.00000000    )
Absolute change in total energy (target)   :   0.1382079615E-01 (  0.1000000000E-07)
 
Time (CPU seconds) :       448.17
 
+--------------------+
| Loop number :    8 |
+--------------------+
 
Energies :
 Fermi                       :     0.421666780834    
 sum of eigenvalues          :     -4260.62404398    
 electron kinetic            :      7449.94769497    
 core electron kinetic       :      7311.65515336    
 Coulomb                     :     -14419.4600035    
 Coulomb potential           :     -11403.7244856    
 nuclear-nuclear             :     -720.035664958    
 electron-nuclear            :     -15995.1241914    
 Hartree                     :      2295.69985286    
 Madelung                    :     -8717.59776064    
 xc potential                :     -306.847253300    
 exchange                    :     -227.106451580    
 correlation                 :     -4.11972955845    
 total energy                :     -7200.73848964    
 
Density of states at Fermi energy :    71.37165452    
 (states/Hartree/unit cell)
 
Estimated indirect band gap :   0.4110934798E-03
 from k-point    295 to k-point    196
Estimated direct band gap   :   0.2623423748E-02
 at k-point    289
 
Charges :
 core                        :    56.00000000    
 valence                     :    24.00000000    
 interstitial                :    4.517713140    
 muffin-tins (core leakage)
  species :    1 (Zr)
   atom    1                 :    37.74114343     (  0.5981704501E-05)
   atom    2                 :    37.74114343     (  0.5981704501E-05)
 total in muffin-tins        :    75.48228686    
 total calculated charge     :    79.99996017    
 total charge                :    80.00000000    
 error                       :   0.3983174392E-04
 
Wrote STATE.OUT
 
RMS change in Kohn-Sham potential (target) :   0.8987759721E-04 (   10.00000000    )
Absolute change in total energy (target)   :   0.5391588518E-02 (  0.1000000000E-07)
 
Time (CPU seconds) :       511.23
 
+--------------------+
| Loop number :    9 |
+--------------------+
 
Energies :
 Fermi                       :     0.421663301839    
 sum of eigenvalues          :     -4260.62430892    
 electron kinetic            :      7449.94724498    
 core electron kinetic       :      7311.65484662    
 Coulomb                     :     -14419.4599281    
 Coulomb potential           :     -11403.7242972    
 nuclear-nuclear             :     -720.035664958    
 electron-nuclear            :     -15995.1242290    
 Hartree                     :      2295.69996593    
 Madelung                    :     -8717.59777947    
 xc potential                :     -306.847256731    
 exchange                    :     -227.106453926    
 correlation                 :     -4.11972958222    
 total energy                :     -7200.73886658    
 
Density of states at Fermi energy :    71.38008450    
 (states/Hartree/unit cell)
 
Estimated indirect band gap :   0.4106017780E-03
 from k-point    295 to k-point    196
Estimated direct band gap   :   0.2623570900E-02
 at k-point    289
 
Charges :
 core                        :    56.00000000    
 valence                     :    24.00000000    
 interstitial                :    4.517701731    
 muffin-tins (core leakage)
  species :    1 (Zr)
   atom    1                 :    37.74114913     (  0.5981633091E-05)
   atom    2                 :    37.74114913     (  0.5981633091E-05)
 total in muffin-tins        :    75.48229827    
 total calculated charge     :    79.99996017    
 total charge                :    80.00000000    
 error                       :   0.3982884984E-04
 
RMS change in Kohn-Sham potential (target) :   0.5985080732E-04 (   10.00000000    )
Absolute change in total energy (target)   :   0.1724843096E-02 (  0.1000000000E-07)
 
Time (CPU seconds) :       575.06
 
+--------------------+
| Loop number :   10 |
+--------------------+
 
Energies :
 Fermi                       :     0.421661418698    
 sum of eigenvalues          :     -4260.62441036    
 electron kinetic            :      7449.94705416    
 core electron kinetic       :      7311.65481982    
 Coulomb                     :     -14419.4598542    
 Coulomb potential           :     -11403.7242086    
 nuclear-nuclear             :     -720.035664958    
 electron-nuclear            :     -15995.1241698    
 Hartree                     :      2295.69998061    
 Madelung                    :     -8717.59774988    
 xc potential                :     -306.847255892    
 exchange                    :     -227.106453173    
 correlation                 :     -4.11972958362    
 total energy                :     -7200.73898279    
 
Density of states at Fermi energy :    71.38535685    
 (states/Hartree/unit cell)
 
Estimated indirect band gap :   0.4103294415E-03
 from k-point    295 to k-point    196
Estimated direct band gap   :   0.2623644344E-02
 at k-point    289
 
Charges :
 core                        :    56.00000000    
 valence                     :    24.00000000    
 interstitial                :    4.517696796    
 muffin-tins (core leakage)
  species :    1 (Zr)
   atom    1                 :    37.74115160     (  0.5981922463E-05)
   atom    2                 :    37.74115160     (  0.5981922463E-05)
 total in muffin-tins        :    75.48230320    
 total calculated charge     :    79.99996017    
 total charge                :    80.00000000    
 error                       :   0.3982778981E-04
 
Wrote STATE.OUT
 
RMS change in Kohn-Sham potential (target) :   0.1901385693E-03 (   10.00000000    )
Absolute change in total energy (target)   :   0.5474160116E-03 (  0.1000000000E-07)
 
Time (CPU seconds) :       637.24
 
+--------------------+
| Loop number :   11 |
+--------------------+
 
Energies :
 Fermi                       :     0.421660216959    
 sum of eigenvalues          :     -4260.62458551    
 electron kinetic            :      7449.94688919    
 core electron kinetic       :      7311.65471068    
 Coulomb                     :     -14419.4598970    
 Coulomb potential           :     -11403.7242163    
 nuclear-nuclear             :     -720.035664958    
 electron-nuclear            :     -15995.1242479    
 Hartree                     :      2295.70001577    
 Madelung                    :     -8717.59778889    
 xc potential                :     -306.847258384    
 exchange                    :     -227.106455231    
 correlation                 :     -4.11972951796    
 total energy                :     -7200.73919261    
 
Density of states at Fermi energy :    71.37340887    
 (states/Hartree/unit cell)
 
Estimated indirect band gap :   0.4106330531E-03
 from k-point    295 to k-point    196
Estimated direct band gap   :   0.2623664237E-02
 at k-point    289
 
Charges :
 core                        :    56.00000000    
 valence                     :    24.00000000    
 interstitial                :    4.517698704    
 muffin-tins (core leakage)
  species :    1 (Zr)
   atom    1                 :    37.74115065     (  0.5981829343E-05)
   atom    2                 :    37.74115065     (  0.5981829343E-05)
 total in muffin-tins        :    75.48230130    
 total calculated charge     :    79.99996017    
 total charge                :    80.00000000    
 error                       :   0.3982798506E-04
 
RMS change in Kohn-Sham potential (target) :   0.6002091165E-03 (   10.00000000    )
Absolute change in total energy (target)   :   0.3466729268E-03 (  0.1000000000E-07)
 
Time (CPU seconds) :       699.61
 
+--------------------+
| Loop number :   12 |
+--------------------+
 
Energies :
 Fermi                       :     0.421657351627    
 sum of eigenvalues          :     -4260.62466934    
 electron kinetic            :      7449.94667468    
 core electron kinetic       :      7311.65446261    
 Coulomb                     :     -14419.4597425    
 Coulomb potential           :     -11403.7240902    
 nuclear-nuclear             :     -720.035664958    
 electron-nuclear            :     -15995.1240649    
 Hartree                     :      2295.69998734    
 Madelung                    :     -8717.59769742    
 xc potential                :     -306.847253788    
 exchange                    :     -227.106451525    
 correlation                 :     -4.11972952323    
 total energy                :     -7200.73924890    
 
Density of states at Fermi energy :    71.38651826    
 (states/Hartree/unit cell)
 
Estimated indirect band gap :   0.4100780632E-03
 from k-point    295 to k-point    196
Estimated direct band gap   :   0.2623776928E-02
 at k-point    289
 
Charges :
 core                        :    56.00000000    
 valence                     :    24.00000000    
 interstitial                :    4.517691392    
 muffin-tins (core leakage)
  species :    1 (Zr)
   atom    1                 :    37.74115430     (  0.5981842978E-05)
   atom    2                 :    37.74115430     (  0.5981842978E-05)
 total in muffin-tins        :    75.48230861    
 total calculated charge     :    79.99996018    
 total charge                :    80.00000000    
 error                       :   0.3982483747E-04
 
Wrote STATE.OUT
 
RMS change in Kohn-Sham potential (target) :   0.4228783049E-04 (   10.00000000    )
Absolute change in total energy (target)   :   0.1429605300E-03 (  0.1000000000E-07)
 
Time (CPU seconds) :       762.10
 
+--------------------+
| Loop number :   13 |
+--------------------+
 
Energies :
 Fermi                       :     0.421658307087    
 sum of eigenvalues          :     -4260.62459267    
 electron kinetic            :      7449.94679358    
 core electron kinetic       :      7311.65455865    
 Coulomb                     :     -14419.4597692    
 Coulomb potential           :     -11403.7241327    
 nuclear-nuclear             :     -720.035664958    
 electron-nuclear            :     -15995.1240757    
 Hartree                     :      2295.69997148    
 Madelung                    :     -8717.59770280    
 xc potential                :     -306.847253532    
 exchange                    :     -227.106451408    
 correlation                 :     -4.11972951414    
 total energy                :     -7200.73915650    
 
Density of states at Fermi energy :    71.38775484    
 (states/Hartree/unit cell)
 
Estimated indirect band gap :   0.4101055455E-03
 from k-point    295 to k-point    196
Estimated direct band gap   :   0.2623734837E-02
 at k-point    289
 
Charges :
 core                        :    56.00000000    
 valence                     :    24.00000000    
 interstitial                :    4.517693115    
 muffin-tins (core leakage)
  species :    1 (Zr)
   atom    1                 :    37.74115344     (  0.5981827702E-05)
   atom    2                 :    37.74115344     (  0.5981827702E-05)
 total in muffin-tins        :    75.48230688    
 total calculated charge     :    79.99996017    
 total charge                :    80.00000000    
 error                       :   0.3982513505E-04
 
RMS change in Kohn-Sham potential (target) :   0.2248352524E-04 (   10.00000000    )
Absolute change in total energy (target)   :   0.5665667049E-04 (  0.1000000000E-07)
 
Time (CPU seconds) :       825.49
 
+--------------------+
| Loop number :   14 |
+--------------------+
 
Energies :
 Fermi                       :     0.421658655466    
 sum of eigenvalues          :     -4260.62457456    
 electron kinetic            :      7449.94682798    
 core electron kinetic       :      7311.65460189    
 Coulomb                     :     -14419.4597852    
 Coulomb potential           :     -11403.7241486    
 nuclear-nuclear             :     -720.035664958    
 electron-nuclear            :     -15995.1240918    
 Hartree                     :      2295.69997159    
 Madelung                    :     -8717.59771087    
 xc potential                :     -306.847253894    
 exchange                    :     -227.106451620    
 correlation                 :     -4.11972953814    
 total energy                :     -7200.73913837    
 
Density of states at Fermi energy :    71.38759609    
 (states/Hartree/unit cell)
 
Estimated indirect band gap :   0.4101345219E-03
 from k-point    295 to k-point    196
Estimated direct band gap   :   0.2623716374E-02
 at k-point    289
 
Charges :
 core                        :    56.00000000    
 valence                     :    24.00000000    
 interstitial                :    4.517693762    
 muffin-tins (core leakage)
  species :    1 (Zr)
   atom    1                 :    37.74115312     (  0.5981667101E-05)
   atom    2                 :    37.74115312     (  0.5981667101E-05)
 total in muffin-tins        :    75.48230624    
 total calculated charge     :    79.99996017    
 total charge                :    80.00000000    
 error                       :   0.3982503388E-04
 
Wrote STATE.OUT
 
RMS change in Kohn-Sham potential (target) :   0.1504330492E-03 (   10.00000000    )
Absolute change in total energy (target)   :   0.3229775575E-04 (  0.1000000000E-07)
 
Time (CPU seconds) :       888.08
 
+--------------------+
| Loop number :   15 |
+--------------------+
 
Energies :
 Fermi                       :     0.421658187915    
 sum of eigenvalues          :     -4260.62459593    
 electron kinetic            :      7449.94678880    
 core electron kinetic       :      7311.65456233    
 Coulomb                     :     -14419.4597684    
 Coulomb potential           :     -11403.7241312    
 nuclear-nuclear             :     -720.035664958    
 electron-nuclear            :     -15995.1240757    
 Hartree                     :      2295.69997222    
 Madelung                    :     -8717.59770280    
 xc potential                :     -306.847253482    
 exchange                    :     -227.106451275    
 correlation                 :     -4.11972953754    
 total energy                :     -7200.73916043    
 
Density of states at Fermi energy :    71.38926989    
 (states/Hartree/unit cell)
 
Estimated indirect band gap :   0.4100606760E-03
 from k-point    295 to k-point    196
Estimated direct band gap   :   0.2623729722E-02
 at k-point    289
 
Charges :
 core                        :    56.00000000    
 valence                     :    24.00000000    
 interstitial                :    4.517692686    
 muffin-tins (core leakage)
  species :    1 (Zr)
   atom    1                 :    37.74115366     (  0.5981710650E-05)
   atom    2                 :    37.74115366     (  0.5981710650E-05)
 total in muffin-tins        :    75.48230731    
 total calculated charge     :    79.99996018    
 total charge                :    80.00000000    
 error                       :   0.3982469580E-04
 
RMS change in Kohn-Sham potential (target) :   0.2474094548E-03 (   10.00000000    )
Absolute change in total energy (target)   :   0.1398847326E-04 (  0.1000000000E-07)
 
Time (CPU seconds) :       952.04
 
+--------------------+
| Loop number :   16 |
+--------------------+
 
Energies :
 Fermi                       :     0.421658305630    
 sum of eigenvalues          :     -4260.62458638    
 electron kinetic            :      7449.94680220    
 core electron kinetic       :      7311.65458619    
 Coulomb                     :     -14419.4597703    
 Coulomb potential           :     -11403.7241351    
 nuclear-nuclear             :     -720.035664958    
 electron-nuclear            :     -15995.1240757    
 Hartree                     :      2295.69997030    
 Madelung                    :     -8717.59770280    
 xc potential                :     -306.847253486    
 exchange                    :     -227.106451277    
 correlation                 :     -4.11972953991    
 total energy                :     -7200.73914896    
 
Density of states at Fermi energy :    71.38951312    
 (states/Hartree/unit cell)
 
Estimated indirect band gap :   0.4100599385E-03
 from k-point    295 to k-point    196
Estimated direct band gap   :   0.2623725530E-02
 at k-point    289
 
Charges :
 core                        :    56.00000000    
 valence                     :    24.00000000    
 interstitial                :    4.517692799    
 muffin-tins (core leakage)
  species :    1 (Zr)
   atom    1                 :    37.74115360     (  0.5981757472E-05)
   atom    2                 :    37.74115360     (  0.5981757472E-05)
 total in muffin-tins        :    75.48230720    
 total calculated charge     :    79.99996018    
 total charge                :    80.00000000    
 error                       :   0.3982482465E-04
 
Wrote STATE.OUT
 
RMS change in Kohn-Sham potential (target) :   0.1320615341E-03 (   10.00000000    )
Absolute change in total energy (target)   :   0.7971195373E-05 (  0.1000000000E-07)
 
Time (CPU seconds) :      1013.45
 
+--------------------+
| Loop number :   17 |
+--------------------+
 
Energies :
 Fermi                       :     0.421658197972    
 sum of eigenvalues          :     -4260.62460154    
 electron kinetic            :      7449.94678633    
 core electron kinetic       :      7311.65456933    
 Coulomb                     :     -14419.4597726    
 Coulomb potential           :     -11403.7241342    
 nuclear-nuclear             :     -720.035664958    
 electron-nuclear            :     -15995.1240811    
 Hartree                     :      2295.69997345    
 Madelung                    :     -8717.59770549    
 xc potential                :     -306.847253712    
 exchange                    :     -227.106451461    
 correlation                 :     -4.11972953449    
 total energy                :     -7200.73916723    
 
Density of states at Fermi energy :    71.38869237    
 (states/Hartree/unit cell)
 
Estimated indirect band gap :   0.4100805325E-03
 from k-point    295 to k-point    196
Estimated direct band gap   :   0.2623725468E-02
 at k-point    289
 
Charges :
 core                        :    56.00000000    
 valence                     :    24.00000000    
 interstitial                :    4.517692857    
 muffin-tins (core leakage)
  species :    1 (Zr)
   atom    1                 :    37.74115357     (  0.5981831844E-05)
   atom    2                 :    37.74115357     (  0.5981831844E-05)
 total in muffin-tins        :    75.48230714    
 total calculated charge     :    79.99996018    
 total charge                :    80.00000000    
 error                       :   0.3982490526E-04
 
RMS change in Kohn-Sham potential (target) :   0.1316618764E-03 (   10.00000000    )
Absolute change in total energy (target)   :   0.1627626534E-04 (  0.1000000000E-07)
 
Time (CPU seconds) :      1074.98
 
+--------------------+
| Loop number :   18 |
+--------------------+
 
Energies :
 Fermi                       :     0.421658267766    
 sum of eigenvalues          :     -4260.62459548    
 electron kinetic            :      7449.94679519    
 core electron kinetic       :      7311.65457577    
 Coulomb                     :     -14419.4597753    
 Coulomb potential           :     -11403.7241370    
 nuclear-nuclear             :     -720.035664958    
 electron-nuclear            :     -15995.1240837    
 Hartree                     :      2295.69997339    
 Madelung                    :     -8717.59770683    
 xc potential                :     -306.847253698    
 exchange                    :     -227.106451448    
 correlation                 :     -4.11972953574    
 total energy                :     -7200.73916111    
 
Density of states at Fermi energy :    71.38892576    
 (states/Hartree/unit cell)
 
Estimated indirect band gap :   0.4100783420E-03
 from k-point    295 to k-point    196
Estimated direct band gap   :   0.2623721971E-02
 at k-point    289
 
Charges :
 core                        :    56.00000000    
 valence                     :    24.00000000    
 interstitial                :    4.517692936    
 muffin-tins (core leakage)
  species :    1 (Zr)
   atom    1                 :    37.74115353     (  0.5981822923E-05)
   atom    2                 :    37.74115353     (  0.5981822923E-05)
 total in muffin-tins        :    75.48230706    
 total calculated charge     :    79.99996018    
 total charge                :    80.00000000    
 error                       :   0.3982497046E-04
 
Wrote STATE.OUT
 
RMS change in Kohn-Sham potential (target) :   0.5955613321E-03 (   10.00000000    )
Absolute change in total energy (target)   :   0.2052929631E-05 (  0.1000000000E-07)
 
Time (CPU seconds) :      1137.21
 
+--------------------+
| Loop number :   19 |
+--------------------+
 
Energies :
 Fermi                       :     0.421658359449    
 sum of eigenvalues          :     -4260.62459143    
 electron kinetic            :      7449.94680357    
 core electron kinetic       :      7311.65458587    
 Coulomb                     :     -14419.4597801    
 Coulomb potential           :     -11403.7241411    
 nuclear-nuclear             :     -720.035664958    
 electron-nuclear            :     -15995.1240891    
 Hartree                     :      2295.69997399    
 Madelung                    :     -8717.59770952    
 xc potential                :     -306.847253855    
 exchange                    :     -227.106451564    
 correlation                 :     -4.11972953764    
 total energy                :     -7200.73915763    
 
Density of states at Fermi energy :    71.38907539    
 (states/Hartree/unit cell)
 
Estimated indirect band gap :   0.4100820387E-03
 from k-point    295 to k-point    196
Estimated direct band gap   :   0.2623713973E-02
 at k-point    289
 
Charges :
 core                        :    56.00000000    
 valence                     :    24.00000000    
 interstitial                :    4.517693044    
 muffin-tins (core leakage)
  species :    1 (Zr)
   atom    1                 :    37.74115348     (  0.5981844694E-05)
   atom    2                 :    37.74115348     (  0.5981844694E-05)
 total in muffin-tins        :    75.48230696    
 total calculated charge     :    79.99996018    
 total charge                :    80.00000000    
 error                       :   0.3982498875E-04
 
RMS change in Kohn-Sham potential (target) :   0.1287489899E-03 (   10.00000000    )
Absolute change in total energy (target)   :   0.3994569852E-05 (  0.1000000000E-07)
 
Time (CPU seconds) :      1199.30
 
+--------------------+
| Loop number :   20 |
+--------------------+
 
Energies :
 Fermi                       :     0.421658279631    
 sum of eigenvalues          :     -4260.62459469    
 electron kinetic            :      7449.94679788    
 core electron kinetic       :      7311.65457771    
 Coulomb                     :     -14419.4597776    
 Coulomb potential           :     -11403.7241388    
 nuclear-nuclear             :     -720.035664958    
 electron-nuclear            :     -15995.1240864    
 Hartree                     :      2295.69997381    
 Madelung                    :     -8717.59770818    
 xc potential                :     -306.847253750    
 exchange                    :     -227.106451485    
 correlation                 :     -4.11972953581    
 total energy                :     -7200.73916073    
 
Density of states at Fermi energy :    71.38933441    
 (states/Hartree/unit cell)
 
Estimated indirect band gap :   0.4100706461E-03
 from k-point    295 to k-point    196
Estimated direct band gap   :   0.2623715597E-02
 at k-point    289
 
Charges :
 core                        :    56.00000000    
 valence                     :    24.00000000    
 interstitial                :    4.517692897    
 muffin-tins (core leakage)
  species :    1 (Zr)
   atom    1                 :    37.74115355     (  0.5981763472E-05)
   atom    2                 :    37.74115355     (  0.5981763472E-05)
 total in muffin-tins        :    75.48230710    
 total calculated charge     :    79.99996018    
 total charge                :    80.00000000    
 error                       :   0.3982478766E-04
 
Wrote STATE.OUT
 
RMS change in Kohn-Sham potential (target) :   0.3454904004E-04 (   10.00000000    )
Absolute change in total energy (target)   :   0.2100913662E-05 (  0.1000000000E-07)
 
Time (CPU seconds) :      1261.74
 
+--------------------+
| Loop number :   21 |
+--------------------+
 
Energies :
 Fermi                       :     0.421658390655    
 sum of eigenvalues          :     -4260.62458884    
 electron kinetic            :      7449.94680632    
 core electron kinetic       :      7311.65458195    
 Coulomb                     :     -14419.4597802    
 Coulomb potential           :     -11403.7241413    
 nuclear-nuclear             :     -720.035664958    
 electron-nuclear            :     -15995.1240891    
 Hartree                     :      2295.69997391    
 Madelung                    :     -8717.59770952    
 xc potential                :     -306.847253848    
 exchange                    :     -227.106451563    
 correlation                 :     -4.11972953718    
 total energy                :     -7200.73915496    
 
Density of states at Fermi energy :    71.38910271    
 (states/Hartree/unit cell)
 
Estimated indirect band gap :   0.4100822086E-03
 from k-point    295 to k-point    196
Estimated direct band gap   :   0.2623713493E-02
 at k-point    289
 
Charges :
 core                        :    56.00000000    
 valence                     :    24.00000000    
 interstitial                :    4.517693051    
 muffin-tins (core leakage)
  species :    1 (Zr)
   atom    1                 :    37.74115347     (  0.5981823332E-05)
   atom    2                 :    37.74115347     (  0.5981823332E-05)
 total in muffin-tins        :    75.48230695    
 total calculated charge     :    79.99996017    
 total charge                :    80.00000000    
 error                       :   0.3982500655E-04
 
RMS change in Kohn-Sham potential (target) :   0.1291424379E-03 (   10.00000000    )
Absolute change in total energy (target)   :   0.5245634384E-05 (  0.1000000000E-07)
 
Time (CPU seconds) :      1324.76
 
+--------------------+
| Loop number :   22 |
+--------------------+
 
Energies :
 Fermi                       :     0.421658440631    
 sum of eigenvalues          :     -4260.62458499    
 electron kinetic            :      7449.94681079    
 core electron kinetic       :      7311.65458367    
 Coulomb                     :     -14419.4597805    
 Coulomb potential           :     -11403.7241419    
 nuclear-nuclear             :     -720.035664958    
 electron-nuclear            :     -15995.1240891    
 Hartree                     :      2295.69997361    
 Madelung                    :     -8717.59770952    
 xc potential                :     -306.847253859    
 exchange                    :     -227.106451570    
 correlation                 :     -4.11972953877    
 total energy                :     -7200.73915080    
 
Density of states at Fermi energy :    71.38915412    
 (states/Hartree/unit cell)
 
Estimated indirect band gap :   0.4100824622E-03
 from k-point    295 to k-point    196
Estimated direct band gap   :   0.2623712880E-02
 at k-point    289
 
Charges :
 core                        :    56.00000000    
 valence                     :    24.00000000    
 interstitial                :    4.517693072    
 muffin-tins (core leakage)
  species :    1 (Zr)
   atom    1                 :    37.74115346     (  0.5981707833E-05)
   atom    2                 :    37.74115346     (  0.5981707833E-05)
 total in muffin-tins        :    75.48230693    
 total calculated charge     :    79.99996018    
 total charge                :    80.00000000    
 error                       :   0.3982475702E-04
 
Wrote STATE.OUT
 
RMS change in Kohn-Sham potential (target) :   0.3291015438E-03 (   10.00000000    )
Absolute change in total energy (target)   :   0.5465803952E-05 (  0.1000000000E-07)
 
Time (CPU seconds) :      1387.39
 
+--------------------+
| Loop number :   23 |
+--------------------+
 
Energies :
 Fermi                       :     0.421658488988    
 sum of eigenvalues          :     -4260.62458196    
 electron kinetic            :      7449.94681428    
 core electron kinetic       :      7311.65458500    
 Coulomb                     :     -14419.4597820    
 Coulomb potential           :     -11403.7241423    
 nuclear-nuclear             :     -720.035664958    
 electron-nuclear            :     -15995.1240918    
 Hartree                     :      2295.69997474    
 Madelung                    :     -8717.59771087    
 xc potential                :     -306.847253894    
 exchange                    :     -227.106451596    
 correlation                 :     -4.11972953933    
 total energy                :     -7200.73914890    
 
Density of states at Fermi energy :    71.38915698    
 (states/Hartree/unit cell)
 
Estimated indirect band gap :   0.4100844319E-03
 from k-point    295 to k-point    196
Estimated direct band gap   :   0.2623711657E-02
 at k-point    289
 
Charges :
 core                        :    56.00000000    
 valence                     :    24.00000000    
 interstitial                :    4.517693098    
 muffin-tins (core leakage)
  species :    1 (Zr)
   atom    1                 :    37.74115345     (  0.5981730791E-05)
   atom    2                 :    37.74115345     (  0.5981730791E-05)
 total in muffin-tins        :    75.48230690    
 total calculated charge     :    79.99996018    
 total charge                :    80.00000000    
 error                       :   0.3982485948E-04
 
RMS change in Kohn-Sham potential (target) :   0.1224118146E-02 (   10.00000000    )
Absolute change in total energy (target)   :   0.3271406058E-05 (  0.1000000000E-07)
 
Time (CPU seconds) :      1450.98
 
+--------------------+
| Loop number :   24 |
+--------------------+
 
Energies :
 Fermi                       :     0.421658514012    
 sum of eigenvalues          :     -4260.62457994    
 electron kinetic            :      7449.94681660    
 core electron kinetic       :      7311.65458608    
 Coulomb                     :     -14419.4597822    
 Coulomb potential           :     -11403.7241426    
 nuclear-nuclear             :     -720.035664958    
 electron-nuclear            :     -15995.1240918    
 Hartree                     :      2295.69997459    
 Madelung                    :     -8717.59771087    
 xc potential                :     -306.847253897    
 exchange                    :     -227.106451592    
 correlation                 :     -4.11972954131    
 total energy                :     -7200.73914672    
 
Density of states at Fermi energy :    71.38930812    
 (states/Hartree/unit cell)
 
Estimated indirect band gap :   0.4100819286E-03
 from k-point    295 to k-point    196
Estimated direct band gap   :   0.2623709315E-02
 at k-point    289
 
Charges :
 core                        :    56.00000000    
 valence                     :    24.00000000    
 interstitial                :    4.517693084    
 muffin-tins (core leakage)
  species :    1 (Zr)
   atom    1                 :    37.74115346     (  0.5981794292E-05)
   atom    2                 :    37.74115346     (  0.5981794292E-05)
 total in muffin-tins        :    75.48230692    
 total calculated charge     :    79.99996017    
 total charge                :    80.00000000    
 error                       :   0.3982502190E-04
 
Wrote STATE.OUT
 
RMS change in Kohn-Sham potential (target) :   0.3552940027E-04 (   10.00000000    )
Absolute change in total energy (target)   :   0.2991088877E-05 (  0.1000000000E-07)
 
Time (CPU seconds) :      1513.36
 
+--------------------+
| Loop number :   25 |
+--------------------+
 
Energies :
 Fermi                       :     0.421658536785    
 sum of eigenvalues          :     -4260.62457855    
 electron kinetic            :      7449.94681811    
 core electron kinetic       :      7311.65458681    
 Coulomb                     :     -14419.4597822    
 Coulomb potential           :     -11403.7241427    
 nuclear-nuclear             :     -720.035664958    
 electron-nuclear            :     -15995.1240918    
 Hartree                     :      2295.69997454    
 Madelung                    :     -8717.59771087    
 xc potential                :     -306.847253911    
 exchange                    :     -227.106451606    
 correlation                 :     -4.11972954127    
 total energy                :     -7200.73914528    
 
Density of states at Fermi energy :    71.38922417    
 (states/Hartree/unit cell)
 
Estimated indirect band gap :   0.4100845191E-03
 from k-point    295 to k-point    196
Estimated direct band gap   :   0.2623710272E-02
 at k-point    289
 
Charges :
 core                        :    56.00000000    
 valence                     :    24.00000000    
 interstitial                :    4.517693109    
 muffin-tins (core leakage)
  species :    1 (Zr)
   atom    1                 :    37.74115345     (  0.5981769789E-05)
   atom    2                 :    37.74115345     (  0.5981769789E-05)
 total in muffin-tins        :    75.48230689    
 total calculated charge     :    79.99996018    
 total charge                :    80.00000000    
 error                       :   0.3982493533E-04
 
RMS change in Kohn-Sham potential (target) :   0.6374806330E-04 (   10.00000000    )
Absolute change in total energy (target)   :   0.2190175110E-05 (  0.1000000000E-07)
 
Time (CPU seconds) :      1576.27
 
+--------------------+
| Loop number :   26 |
+--------------------+
 
Energies :
 Fermi                       :     0.421658538226    
 sum of eigenvalues          :     -4260.62457827    
 electron kinetic            :      7449.94681823    
 core electron kinetic       :      7311.65458726    
 Coulomb                     :     -14419.4597822    
 Coulomb potential           :     -11403.7241426    
 nuclear-nuclear             :     -720.035664958    
 electron-nuclear            :     -15995.1240918    
 Hartree                     :      2295.69997461    
 Madelung                    :     -8717.59771087    
 xc potential                :     -306.847253903    
 exchange                    :     -227.106451601    
 correlation                 :     -4.11972954098    
 total energy                :     -7200.73914508    
 
Density of states at Fermi energy :    71.38922275    
 (states/Hartree/unit cell)
 
Estimated indirect band gap :   0.4100843397E-03
 from k-point    295 to k-point    196
Estimated direct band gap   :   0.2623710670E-02
 at k-point    289
 
Charges :
 core                        :    56.00000000    
 valence                     :    24.00000000    
 interstitial                :    4.517693106    
 muffin-tins (core leakage)
  species :    1 (Zr)
   atom    1                 :    37.74115345     (  0.5981733043E-05)
   atom    2                 :    37.74115345     (  0.5981733043E-05)
 total in muffin-tins        :    75.48230689    
 total calculated charge     :    79.99996018    
 total charge                :    80.00000000    
 error                       :   0.3982489223E-04
 
Wrote STATE.OUT
 
RMS change in Kohn-Sham potential (target) :   0.2186598460E-03 (   10.00000000    )
Absolute change in total energy (target)   :   0.7491707947E-06 (  0.1000000000E-07)
 
Time (CPU seconds) :      1640.60
 
+--------------------+
| Loop number :   27 |
+--------------------+
 
Energies :
 Fermi                       :     0.421658524827    
 sum of eigenvalues          :     -4260.62457904    
 electron kinetic            :      7449.94681731    
 core electron kinetic       :      7311.65458661    
 Coulomb                     :     -14419.4597821    
 Coulomb potential           :     -11403.7241425    
 nuclear-nuclear             :     -720.035664958    
 electron-nuclear            :     -15995.1240918    
 Hartree                     :      2295.69997468    
 Madelung                    :     -8717.59771087    
 xc potential                :     -306.847253893    
 exchange                    :     -227.106451596    
 correlation                 :     -4.11972954033    
 total energy                :     -7200.73914592    
 
Density of states at Fermi energy :    71.38922350    
 (states/Hartree/unit cell)
 
Estimated indirect band gap :   0.4100836383E-03
 from k-point    295 to k-point    196
Estimated direct band gap   :   0.2623711163E-02
 at k-point    289
 
Charges :
 core                        :    56.00000000    
 valence                     :    24.00000000    
 interstitial                :    4.517693096    
 muffin-tins (core leakage)
  species :    1 (Zr)
   atom    1                 :    37.74115345     (  0.5981683223E-05)
   atom    2                 :    37.74115345     (  0.5981683223E-05)
 total in muffin-tins        :    75.48230690    
 total calculated charge     :    79.99996018    
 total charge                :    80.00000000    
 error                       :   0.3982481282E-04
 
RMS change in Kohn-Sham potential (target) :   0.4203298547E-03 (   10.00000000    )
Absolute change in total energy (target)   :   0.6572145139E-06 (  0.1000000000E-07)
 
Time (CPU seconds) :      1704.55
 
+--------------------+
| Loop number :   28 |
+--------------------+
 
Energies :
 Fermi                       :     0.421658522245    
 sum of eigenvalues          :     -4260.62457918    
 electron kinetic            :      7449.94681695    
 core electron kinetic       :      7311.65458659    
 Coulomb                     :     -14419.4597806    
 Coulomb potential           :     -11403.7241422    
 nuclear-nuclear             :     -720.035664958    
 electron-nuclear            :     -15995.1240891    
 Hartree                     :      2295.69997344    
 Madelung                    :     -8717.59770952    
 xc potential                :     -306.847253887    
 exchange                    :     -227.106451589    
 correlation                 :     -4.11972954068    
 total energy                :     -7200.73914483    
 
Density of states at Fermi energy :    71.38922598    
 (states/Hartree/unit cell)
 
Estimated indirect band gap :   0.4100834490E-03
 from k-point    295 to k-point    196
Estimated direct band gap   :   0.2623711230E-02
 at k-point    289
 
Charges :
 core                        :    56.00000000    
 valence                     :    24.00000000    
 interstitial                :    4.517693094    
 muffin-tins (core leakage)
  species :    1 (Zr)
   atom    1                 :    37.74115345     (  0.5981744383E-05)
   atom    2                 :    37.74115345     (  0.5981744383E-05)
 total in muffin-tins        :    75.48230691    
 total calculated charge     :    79.99996018    
 total charge                :    80.00000000    
 error                       :   0.3982492764E-04
 
Wrote STATE.OUT
 
RMS change in Kohn-Sham potential (target) :   0.2705002545E-04 (   10.00000000    )
Absolute change in total energy (target)   :   0.9339446478E-06 (  0.1000000000E-07)
 
Time (CPU seconds) :      1767.79
 
+--------------------+
| Loop number :   29 |
+--------------------+
 
Energies :
 Fermi                       :     0.421658514758    
 sum of eigenvalues          :     -4260.62457967    
 electron kinetic            :      7449.94681656    
 core electron kinetic       :      7311.65458613    
 Coulomb                     :     -14419.4597807    
 Coulomb potential           :     -11403.7241423    
 nuclear-nuclear             :     -720.035664958    
 electron-nuclear            :     -15995.1240891    
 Hartree                     :      2295.69997339    
 Madelung                    :     -8717.59770952    
 xc potential                :     -306.847253883    
 exchange                    :     -227.106451586    
 correlation                 :     -4.11972954079    
 total energy                :     -7200.73914526    
 
Density of states at Fermi energy :    71.38922863    
 (states/Hartree/unit cell)
 
Estimated indirect band gap :   0.4100830984E-03
 from k-point    295 to k-point    196
Estimated direct band gap   :   0.2623711319E-02
 at k-point    289
 
Charges :
 core                        :    56.00000000    
 valence                     :    24.00000000    
 interstitial                :    4.517693090    
 muffin-tins (core leakage)
  species :    1 (Zr)
   atom    1                 :    37.74115346     (  0.5981839578E-05)
   atom    2                 :    37.74115346     (  0.5981839578E-05)
 total in muffin-tins        :    75.48230691    
 total calculated charge     :    79.99996017    
 total charge                :    80.00000000    
 error                       :   0.3982511384E-04
 
RMS change in Kohn-Sham potential (target) :   0.3382706745E-03 (   10.00000000    )
Absolute change in total energy (target)   :   0.2047972885E-06 (  0.1000000000E-07)
 
Time (CPU seconds) :      1831.55
 
+--------------------+
| Loop number :   30 |
+--------------------+
 
Energies :
 Fermi                       :     0.421658520067    
 sum of eigenvalues          :     -4260.62457934    
 electron kinetic            :      7449.94681687    
 core electron kinetic       :      7311.65458659    
 Coulomb                     :     -14419.4597807    
 Coulomb potential           :     -11403.7241423    
 nuclear-nuclear             :     -720.035664958    
 electron-nuclear            :     -15995.1240891    
 Hartree                     :      2295.69997340    
 Madelung                    :     -8717.59770952    
 xc potential                :     -306.847253889    
 exchange                    :     -227.106451590    
 correlation                 :     -4.11972954066    
 total energy                :     -7200.73914495    
 
Density of states at Fermi energy :    71.38921330    
 (states/Hartree/unit cell)
 
Estimated indirect band gap :   0.4100836167E-03
 from k-point    295 to k-point    196
Estimated direct band gap   :   0.2623711484E-02
 at k-point    289
 
Charges :
 core                        :    56.00000000    
 valence                     :    24.00000000    
 interstitial                :    4.517693095    
 muffin-tins (core leakage)
  species :    1 (Zr)
   atom    1                 :    37.74115345     (  0.5981758477E-05)
   atom    2                 :    37.74115345     (  0.5981758477E-05)
 total in muffin-tins        :    75.48230691    
 total calculated charge     :    79.99996018    
 total charge                :    80.00000000    
 error                       :   0.3982498318E-04
 
Wrote STATE.OUT
 
RMS change in Kohn-Sham potential (target) :   0.5749938590E-03 (   10.00000000    )
Absolute change in total energy (target)   :   0.2670731192E-06 (  0.1000000000E-07)
 
Time (CPU seconds) :      1894.05
 
+--------------------+
| Loop number :   31 |
+--------------------+
 
Energies :
 Fermi                       :     0.421658513635    
 sum of eigenvalues          :     -4260.62457973    
 electron kinetic            :      7449.94681640    
 core electron kinetic       :      7311.65458597    
 Coulomb                     :     -14419.4597806    
 Coulomb potential           :     -11403.7241423    
 nuclear-nuclear             :     -720.035664958    
 electron-nuclear            :     -15995.1240891    
 Hartree                     :      2295.69997344    
 Madelung                    :     -8717.59770952    
 xc potential                :     -306.847253884    
 exchange                    :     -227.106451589    
 correlation                 :     -4.11972954004    
 total energy                :     -7200.73914538    
 
Density of states at Fermi energy :    71.38919887    
 (states/Hartree/unit cell)
 
Estimated indirect band gap :   0.4100836298E-03
 from k-point    295 to k-point    196
Estimated direct band gap   :   0.2623711898E-02
 at k-point    289
 
Charges :
 core                        :    56.00000000    
 valence                     :    24.00000000    
 interstitial                :    4.517693093    
 muffin-tins (core leakage)
  species :    1 (Zr)
   atom    1                 :    37.74115345     (  0.5981721017E-05)
   atom    2                 :    37.74115345     (  0.5981721017E-05)
 total in muffin-tins        :    75.48230691    
 total calculated charge     :    79.99996018    
 total charge                :    80.00000000    
 error                       :   0.3982490425E-04
 
RMS change in Kohn-Sham potential (target) :   0.3080336035E-03 (   10.00000000    )
Absolute change in total energy (target)   :   0.3632248990E-06 (  0.1000000000E-07)
 
Time (CPU seconds) :      1957.60
 
+--------------------+
| Loop number :   32 |
+--------------------+
 
Energies :
 Fermi                       :     0.421658519340    
 sum of eigenvalues          :     -4260.62457936    
 electron kinetic            :      7449.94681669    
 core electron kinetic       :      7311.65458612    
 Coulomb                     :     -14419.4597806    
 Coulomb potential           :     -11403.7241422    
 nuclear-nuclear             :     -720.035664958    
 electron-nuclear            :     -15995.1240891    
 Hartree                     :      2295.69997348    
 Madelung                    :     -8717.59770952    
 xc potential                :     -306.847253884    
 exchange                    :     -227.106451585    
 correlation                 :     -4.11972954123    
 total energy                :     -7200.73914504    
 
Density of states at Fermi energy :    71.38919191    
 (states/Hartree/unit cell)
 
Estimated indirect band gap :   0.4100839946E-03
 from k-point    295 to k-point    196
Estimated direct band gap   :   0.2623711925E-02
 at k-point    289
 
Charges :
 core                        :    56.00000000    
 valence                     :    24.00000000    
 interstitial                :    4.517693098    
 muffin-tins (core leakage)
  species :    1 (Zr)
   atom    1                 :    37.74115345     (  0.5981715752E-05)
   atom    2                 :    37.74115345     (  0.5981715752E-05)
 total in muffin-tins        :    75.48230690    
 total calculated charge     :    79.99996018    
 total charge                :    80.00000000    
 error                       :   0.3982487929E-04
 
Wrote STATE.OUT
 
RMS change in Kohn-Sham potential (target) :   0.6003291055E-04 (   10.00000000    )
Absolute change in total energy (target)   :   0.2440210665E-06 (  0.1000000000E-07)
 
Time (CPU seconds) :      2020.37
 
+--------------------+
| Loop number :   33 |
+--------------------+
 
Energies :
 Fermi                       :     0.421658519196    
 sum of eigenvalues          :     -4260.62457937    
 electron kinetic            :      7449.94681663    
 core electron kinetic       :      7311.65458605    
 Coulomb                     :     -14419.4597806    
 Coulomb potential           :     -11403.7241421    
 nuclear-nuclear             :     -720.035664958    
 electron-nuclear            :     -15995.1240891    
 Hartree                     :      2295.69997351    
 Madelung                    :     -8717.59770952    
 xc potential                :     -306.847253883    
 exchange                    :     -227.106451584    
 correlation                 :     -4.11972954125    
 total energy                :     -7200.73914507    
 
Density of states at Fermi energy :    71.38918726    
 (states/Hartree/unit cell)
 
Estimated indirect band gap :   0.4100840712E-03
 from k-point    295 to k-point    196
Estimated direct band gap   :   0.2623712039E-02
 at k-point    289
 
Charges :
 core                        :    56.00000000    
 valence                     :    24.00000000    
 interstitial                :    4.517693098    
 muffin-tins (core leakage)
  species :    1 (Zr)
   atom    1                 :    37.74115345     (  0.5981737395E-05)
   atom    2                 :    37.74115345     (  0.5981737395E-05)
 total in muffin-tins        :    75.48230690    
 total calculated charge     :    79.99996018    
 total charge                :    80.00000000    
 error                       :   0.3982492481E-04
 
RMS change in Kohn-Sham potential (target) :   0.8981305411E-04 (   10.00000000    )
Absolute change in total energy (target)   :   0.2906290320E-07 (  0.1000000000E-07)
 
Time (CPU seconds) :      2083.87
 
+--------------------+
| Loop number :   34 |
+--------------------+
 
Energies :
 Fermi                       :     0.421658519142    
 sum of eigenvalues          :     -4260.62457936    
 electron kinetic            :      7449.94681684    
 core electron kinetic       :      7311.65458623    
 Coulomb                     :     -14419.4597807    
 Coulomb potential           :     -11403.7241423    
 nuclear-nuclear             :     -720.035664958    
 electron-nuclear            :     -15995.1240891    
 Hartree                     :      2295.69997340    
 Madelung                    :     -8717.59770952    
 xc potential                :     -306.847253884    
 exchange                    :     -227.106451587    
 correlation                 :     -4.11972954095    
 total energy                :     -7200.73914497    
 
Density of states at Fermi energy :    71.38918702    
 (states/Hartree/unit cell)
 
Estimated indirect band gap :   0.4100840740E-03
 from k-point    295 to k-point    196
Estimated direct band gap   :   0.2623712046E-02
 at k-point    289
 
Charges :
 core                        :    56.00000000    
 valence                     :    24.00000000    
 interstitial                :    4.517693098    
 muffin-tins (core leakage)
  species :    1 (Zr)
   atom    1                 :    37.74115345     (  0.5981841056E-05)
   atom    2                 :    37.74115345     (  0.5981841056E-05)
 total in muffin-tins        :    75.48230690    
 total calculated charge     :    79.99996017    
 total charge                :    80.00000000    
 error                       :   0.3982507101E-04
 
Wrote STATE.OUT
 
RMS change in Kohn-Sham potential (target) :   0.6992029324E-04 (   10.00000000    )
Absolute change in total energy (target)   :   0.1105609044E-06 (  0.1000000000E-07)
 
Time (CPU seconds) :      2146.59
 
+--------------------+
| Loop number :   35 |
+--------------------+
 
Energies :
 Fermi                       :     0.421658519528    
 sum of eigenvalues          :     -4260.62457934    
 electron kinetic            :      7449.94681674    
 core electron kinetic       :      7311.65458615    
 Coulomb                     :     -14419.4597806    
 Coulomb potential           :     -11403.7241422    
 nuclear-nuclear             :     -720.035664958    
 electron-nuclear            :     -15995.1240891    
 Hartree                     :      2295.69997347    
 Madelung                    :     -8717.59770952    
 xc potential                :     -306.847253884    
 exchange                    :     -227.106451587    
 correlation                 :     -4.11972954088    
 total energy                :     -7200.73914501    
 
Density of states at Fermi energy :    71.38918479    
 (states/Hartree/unit cell)
 
Estimated indirect band gap :   0.4100841306E-03
 from k-point    295 to k-point    196
Estimated direct band gap   :   0.2623712091E-02
 at k-point    289
 
Charges :
 core                        :    56.00000000    
 valence                     :    24.00000000    
 interstitial                :    4.517693099    
 muffin-tins (core leakage)
  species :    1 (Zr)
   atom    1                 :    37.74115345     (  0.5981735750E-05)
   atom    2                 :    37.74115345     (  0.5981735750E-05)
 total in muffin-tins        :    75.48230690    
 total calculated charge     :    79.99996018    
 total charge                :    80.00000000    
 error                       :   0.3982493887E-04
 
RMS change in Kohn-Sham potential (target) :   0.8296768921E-04 (   10.00000000    )
Absolute change in total energy (target)   :   0.1469379640E-07 (  0.1000000000E-07)
 
Time (CPU seconds) :      2208.99
 
+--------------------+
| Loop number :   36 |
+--------------------+
 
Energies :
 Fermi                       :     0.421658519173    
 sum of eigenvalues          :     -4260.62457936    
 electron kinetic            :      7449.94681670    
 core electron kinetic       :      7311.65458609    
 Coulomb                     :     -14419.4597806    
 Coulomb potential           :     -11403.7241422    
 nuclear-nuclear             :     -720.035664958    
 electron-nuclear            :     -15995.1240891    
 Hartree                     :      2295.69997348    
 Madelung                    :     -8717.59770952    
 xc potential                :     -306.847253884    
 exchange                    :     -227.106451584    
 correlation                 :     -4.11972954127    
 total energy                :     -7200.73914504    
 
Density of states at Fermi energy :    71.38918236    
 (states/Hartree/unit cell)
 
Estimated indirect band gap :   0.4100841678E-03
 from k-point    295 to k-point    196
Estimated direct band gap   :   0.2623712146E-02
 at k-point    289
 
Charges :
 core                        :    56.00000000    
 valence                     :    24.00000000    
 interstitial                :    4.517693099    
 muffin-tins (core leakage)
  species :    1 (Zr)
   atom    1                 :    37.74115345     (  0.5981804200E-05)
   atom    2                 :    37.74115345     (  0.5981804200E-05)
 total in muffin-tins        :    75.48230690    
 total calculated charge     :    79.99996017    
 total charge                :    80.00000000    
 error                       :   0.3982502008E-04
 
Wrote STATE.OUT
 
RMS change in Kohn-Sham potential (target) :   0.1792386322E-04 (   10.00000000    )
Absolute change in total energy (target)   :   0.3021887096E-07 (  0.1000000000E-07)
 
Time (CPU seconds) :      2271.23
 
+--------------------+
| Loop number :   37 |
+--------------------+
 
Energies :
 Fermi                       :     0.421658519361    
 sum of eigenvalues          :     -4260.62457935    
 electron kinetic            :      7449.94681664    
 core electron kinetic       :      7311.65458601    
 Coulomb                     :     -14419.4597806    
 Coulomb potential           :     -11403.7241421    
 nuclear-nuclear             :     -720.035664958    
 electron-nuclear            :     -15995.1240891    
 Hartree                     :      2295.69997351    
 Madelung                    :     -8717.59770952    
 xc potential                :     -306.847253882    
 exchange                    :     -227.106451580    
 correlation                 :     -4.11972954191    
 total energy                :     -7200.73914506    
 
Density of states at Fermi energy :    71.38918118    
 (states/Hartree/unit cell)
 
Estimated indirect band gap :   0.4100842009E-03
 from k-point    295 to k-point    196
Estimated direct band gap   :   0.2623712167E-02
 at k-point    289
 
Charges :
 core                        :    56.00000000    
 valence                     :    24.00000000    
 interstitial                :    4.517693099    
 muffin-tins (core leakage)
  species :    1 (Zr)
   atom    1                 :    37.74115345     (  0.5981824284E-05)
   atom    2                 :    37.74115345     (  0.5981824284E-05)
 total in muffin-tins        :    75.48230690    
 total calculated charge     :    79.99996017    
 total charge                :    80.00000000    
 error                       :   0.3982503281E-04
 
RMS change in Kohn-Sham potential (target) :   0.2747360354E-04 (   10.00000000    )
Absolute change in total energy (target)   :   0.2846536518E-07 (  0.1000000000E-07)
 
Time (CPU seconds) :      2333.73
 
+--------------------+
| Loop number :   38 |
+--------------------+
 
Energies :
 Fermi                       :     0.421658519520    
 sum of eigenvalues          :     -4260.62457935    
 electron kinetic            :      7449.94681668    
 core electron kinetic       :      7311.65458607    
 Coulomb                     :     -14419.4597806    
 Coulomb potential           :     -11403.7241421    
 nuclear-nuclear             :     -720.035664958    
 electron-nuclear            :     -15995.1240891    
 Hartree                     :      2295.69997349    
 Madelung                    :     -8717.59770952    
 xc potential                :     -306.847253882    
 exchange                    :     -227.106451582    
 correlation                 :     -4.11972954176    
 total energy                :     -7200.73914504    
 
Density of states at Fermi energy :    71.38918047    
 (states/Hartree/unit cell)
 
Estimated indirect band gap :   0.4100842220E-03
 from k-point    295 to k-point    196
Estimated direct band gap   :   0.2623712181E-02
 at k-point    289
 
Charges :
 core                        :    56.00000000    
 valence                     :    24.00000000    
 interstitial                :    4.517693100    
 muffin-tins (core leakage)
  species :    1 (Zr)
   atom    1                 :    37.74115345     (  0.5981782184E-05)
   atom    2                 :    37.74115345     (  0.5981782184E-05)
 total in muffin-tins        :    75.48230690    
 total calculated charge     :    79.99996017    
 total charge                :    80.00000000    
 error                       :   0.3982501818E-04
 
Wrote STATE.OUT
 
RMS change in Kohn-Sham potential (target) :   0.1629801053E-03 (   10.00000000    )
Absolute change in total energy (target)   :   0.8865754353E-08 (  0.1000000000E-07)
 
Convergence targets achieved
 
Time (CPU seconds) :      2396.09
 
+--------------------+
| Loop number :   39 |
+--------------------+
 
Energies :
 Fermi                       :     0.421658519392    
 sum of eigenvalues          :     -4260.62457937    
 electron kinetic            :      7449.94681672    
 core electron kinetic       :      7311.65458606    
 Coulomb                     :     -14419.4597806    
 Coulomb potential           :     -11403.7241422    
 nuclear-nuclear             :     -720.035664958    
 electron-nuclear            :     -15995.1240891    
 Hartree                     :      2295.69997347    
 Madelung                    :     -8717.59770952    
 xc potential                :     -306.847253885    
 exchange                    :     -227.106451586    
 correlation                 :     -4.11972954120    
 total energy                :     -7200.73914503    
 
Density of states at Fermi energy :    71.38917894    
 (states/Hartree/unit cell)
 
Estimated indirect band gap :   0.4100842518E-03
 from k-point    295 to k-point    196
Estimated direct band gap   :   0.2623712211E-02
 at k-point    289
 
Charges :
 core                        :    56.00000000    
 valence                     :    24.00000000    
 interstitial                :    4.517693100    
 muffin-tins (core leakage)
  species :    1 (Zr)
   atom    1                 :    37.74115345     (  0.5981698628E-05)
   atom    2                 :    37.74115345     (  0.5981698628E-05)
 total in muffin-tins        :    75.48230690    
 total calculated charge     :    79.99996018    
 total charge                :    80.00000000    
 error                       :   0.3982483192E-04
 
+------------------------------+
| Self-consistent loop stopped |
+------------------------------+
 
Wrote STATE.OUT
 
Timings (CPU seconds) :
 initialisation                        :         1.08
 Hamiltonian and overlap matrix set up :       720.55
 first-variational eigenvalue equation :       932.95
 charge density calculation            :       242.12
 potential calculation                 :       563.39
 total                                 :      2460.10
 
+----------------------------+
| Elk version 8.3.15 stopped |
+----------------------------+
