 
+----------------------------+
| Real-space lattice vectors |
+----------------------------+
 
vector a1 :    5.325013980      -3.074398254       0.000000000    
vector a2 :    0.000000000       6.148796510       0.000000000    
vector a3 :    0.000000000       0.000000000       9.326753647    
 
Stored column-wise as a matrix :
   5.325013980       0.000000000       0.000000000    
  -3.074398254       6.148796510       0.000000000    
   0.000000000       0.000000000       9.326753647    
 
Inverse of matrix :
  0.1877929342       0.000000000       0.000000000    
  0.9389646709E-01  0.1626334517       0.000000000    
   0.000000000       0.000000000      0.1072184425    
 
Unit cell volume :    305.3805539    
 
 
+----------------------------------+
| Reciprocal-space lattice vectors |
+----------------------------------+
 
vector b1 :    1.179937805       0.000000000       0.000000000    
vector b2 :   0.5899689024       1.021856114       0.000000000    
vector b3 :    0.000000000       0.000000000      0.6736733428    
 
Stored column-wise as a matrix :
   1.179937805      0.5899689024       0.000000000    
   0.000000000       1.021856114       0.000000000    
   0.000000000       0.000000000      0.6736733428    
 
Inverse of matrix :
  0.8475022969     -0.4893056792       0.000000000    
   0.000000000      0.9786113586       0.000000000    
   0.000000000       0.000000000       1.484398946    
 
Brillouin zone volume :   0.8122659097    
