+----------------------------+
| Elk version 8.3.15 started |
+----------------------------+
 
Date (YYYY-MM-DD) : 2022-02-19
Time (hh:mm:ss)   : 04:09:17
 
All units are atomic (Hartree, Bohr, etc.)
 
+-------------------------------------------------+
| Ground-state run starting from atomic densities |
+-------------------------------------------------+
 
Lattice vectors :
   4.663517080      -2.692482842       0.000000000    
   0.000000000       5.384965683       0.000000000    
   0.000000000       0.000000000       8.771966434    
 
Reciprocal lattice vectors :
   1.347306164       0.000000000       0.000000000    
  0.6736530821       1.166801365       0.000000000    
   0.000000000       0.000000000      0.7162801356    
 
Unit cell volume      :    220.2893355    
Brillouin zone volume :    1.126020072    
 
Muffin-tin inner radius fraction :   0.1000000000E-01
 
Species :    1 (Ti)
 parameters loaded from : Ti.in
 name : titanium
 nuclear charge    :   -22.00000000    
 electronic charge :    22.00000000    
 atomic mass :    87256.20310    
 muffin-tin radius :    2.400000000    
 number of radial points in muffin-tin :   1000
 number on inner part of muffin-tin    :    716
 atomic positions (lattice), magnetic fields (Cartesian) :
   1 :   0.33333333  0.16666667  0.25000000    0.00000000  0.00000000  0.00000000
   2 :  -0.33333333 -0.16666667 -0.25000000    0.00000000  0.00000000  0.00000000
 
Total number of atoms per unit cell :    2
 
Spin treatment :
 spin-unpolarised
 
Number of Bravais lattice symmetries :   24
Number of crystal symmetries         :   24
Crystal has inversion symmetry
Real symmetric eigensolver will be used
 
k-point grid :     17    17    17
k-point offset :    0.000000000       0.000000000       0.000000000    
k-point set is reduced with full crystal symmetry group
Total number of k-points :      297
 
Muffin-tin radius times maximum |G+k| :    8.500000000    
 using gkmax = rgkmax / 2
Maximum |G+k| for APW functions       :    4.250000000    
Maximum (1/2)|G+k|²                   :    9.031250000    
Maximum |G| for potential and density :    34.00000000    
Constant for pseudocharge density :   20
Radial integration step length :    1
 
G-vector grid sizes :     60    60    96
Number of G-vectors :   146165
 
Maximum angular momentum used for
 APW functions                      :   10
 outer part of muffin-tin           :    8
 inner part of muffin-tin           :    1
 
Total nuclear charge    :   -44.00000000    
Total core charge       :    20.00000000    
Total valence charge    :    24.00000000    
Total excess charge     :    0.000000000    
Total electronic charge :    44.00000000    
 
Effective Wigner radius, rₛ :    1.061249248    
 
Number of empty states         :   40
Total number of valence states :   53
Total number of core states    :   20
 
Conduction state local-orbitals added automatically
Total number of local-orbitals :  242
 
Using Libxc version 05.01.05
Exchange-correlation functional :    100   493   494
 exchange: mgga_x_rscan; correlation: mgga_c_rscan
 
Smearing type :    1
 Methfessel-Paxton order 1, Phys. Rev. B 40, 3616 (1989)
Smearing width :   0.1000000000E-02
Effective electronic temperature (K) :    315.7750248    
 
Mixing type :    3
 Broyden mixing, J. Phys. A: Math. Gen. 17, L317 (1984)
 
Kohn-Sham potential initialised from atomic data
 
+------------------------------+
| Self-consistent loop started |
+------------------------------+
 
+--------------------+
| Loop number :    1 |
+--------------------+
 
Energies :
 Fermi                       :     0.175737547051    
 sum of eigenvalues          :     -1009.68518863    
 electron kinetic            :      1714.23860982    
 core electron kinetic       :      1592.41648838    
 Coulomb                     :     -3357.95824451    
 Coulomb potential           :     -2610.79876364    
 nuclear-nuclear             :     -235.999005235    
 electron-nuclear            :     -3633.11971492    
 Hartree                     :      511.160475639    
 Madelung                    :     -2052.55886269    
 xc potential                :     -113.125034815    
 exchange                    :     -83.7824073165    
 correlation                 :     -1.93422683008    
 total energy                :     -1729.43626884    
 
Density of states at Fermi energy :    75.48099532    
 (states/Hartree/unit cell)
 
Estimated indirect band gap :   0.8222244108E-04
 from k-point    110 to k-point    293
Estimated direct band gap   :   0.1558167089E-02
 at k-point    198
 
Charges :
 core                        :    20.00000000    
 valence                     :    24.00000000    
 interstitial                :    2.868657089    
 muffin-tins (core leakage)
  species :    1 (Ti)
   atom    1                 :    20.56567146     (  0.4619860050E-09)
   atom    2                 :    20.56567146     (  0.4619860050E-09)
 total in muffin-tins        :    41.13134291    
 total calculated charge     :    43.99995293    
 total charge                :    44.00000000    
 error                       :   0.4706856215E-04
 
Time (CPU seconds) :        71.95
 
+--------------------+
| Loop number :    2 |
+--------------------+
 
Energies :
 Fermi                       :     0.177839346640    
 sum of eigenvalues          :     -1009.49938840    
 electron kinetic            :      1714.42717535    
 core electron kinetic       :      1590.99090636    
 Coulomb                     :     -3357.82062848    
 Coulomb potential           :     -2610.81637647    
 nuclear-nuclear             :     -235.999005235    
 electron-nuclear            :     -3632.82687003    
 Hartree                     :      511.005246778    
 Madelung                    :     -2052.41244025    
 xc potential                :     -113.110187279    
 exchange                    :     -83.7718219240    
 correlation                 :     -1.93417501269    
 total energy                :     -1729.09945007    
 
Density of states at Fermi energy :    73.67534014    
 (states/Hartree/unit cell)
 
Estimated indirect band gap :   0.9525072220E-04
 from k-point    167 to k-point    293
Estimated direct band gap   :   0.1534710320E-02
 at k-point    198
 
Charges :
 core                        :    20.00000000    
 valence                     :    24.00000000    
 interstitial                :    2.874780332    
 muffin-tins (core leakage)
  species :    1 (Ti)
   atom    1                 :    20.56260983     (  0.4599094439E-09)
   atom    2                 :    20.56260983     (  0.4599094439E-09)
 total in muffin-tins        :    41.12521967    
 total calculated charge     :    43.99995274    
 total charge                :    44.00000000    
 error                       :   0.4726052366E-04
 
Wrote STATE.OUT
 
RMS change in Kohn-Sham potential (target) :   0.6011910833     (   10.00000000    )
Absolute change in total energy (target)   :   0.3368187714     (  0.1000000000E-07)
 
Time (CPU seconds) :       140.81
 
+--------------------+
| Loop number :    3 |
+--------------------+
 
Energies :
 Fermi                       :     0.208492753500    
 sum of eigenvalues          :     -1007.24268981    
 electron kinetic            :      1716.55241140    
 core electron kinetic       :      1587.43962637    
 Coulomb                     :     -3357.03747706    
 Coulomb potential           :     -2610.75269045    
 nuclear-nuclear             :     -235.999005235    
 electron-nuclear            :     -3631.32425319    
 Hartree                     :      510.285781370    
 Madelung                    :     -2051.66113183    
 xc potential                :     -113.042410762    
 exchange                    :     -83.7238433817    
 correlation                 :     -1.93397572107    
 total energy                :     -1726.14288476    
 
Density of states at Fermi energy :    63.18015709    
 (states/Hartree/unit cell)
 
Estimated indirect band gap :   0.9266651709E-04
 from k-point    195 to k-point    198
Estimated direct band gap   :   0.1437851167E-02
 at k-point    198
 
Charges :
 core                        :    20.00000000    
 valence                     :    24.00000000    
 interstitial                :    2.898865516    
 muffin-tins (core leakage)
  species :    1 (Ti)
   atom    1                 :    20.55056724     (  0.7241709454E-09)
   atom    2                 :    20.55056724     (  0.7241709454E-09)
 total in muffin-tins        :    41.10113448    
 total calculated charge     :    43.99995255    
 total charge                :    44.00000000    
 error                       :   0.4744893636E-04
 
RMS change in Kohn-Sham potential (target) :   0.5020345696     (   10.00000000    )
Absolute change in total energy (target)   :    3.040770003     (  0.1000000000E-07)
 
Time (CPU seconds) :       209.98
 
+--------------------+
| Loop number :    4 |
+--------------------+
 
Energies :
 Fermi                       :     0.300998097790    
 sum of eigenvalues          :     -1000.25141854    
 electron kinetic            :      1723.40104150    
 core electron kinetic       :      1588.83276040    
 Coulomb                     :     -3354.17381647    
 Coulomb potential           :     -2610.89240934    
 nuclear-nuclear             :     -235.999005235    
 electron-nuclear            :     -3625.45721313    
 Hartree                     :      507.282401895    
 Madelung                    :     -2048.72761180    
 xc potential                :     -112.760050696    
 exchange                    :     -83.5215427059    
 correlation                 :     -1.93307408418    
 total energy                :     -1716.22739177    
 
Density of states at Fermi energy :    63.45984697    
 (states/Hartree/unit cell)
 
Estimated indirect band gap :   0.1291357341E-03
 from k-point    136 to k-point    166
Estimated direct band gap   :   0.4091073313E-02
 at k-point    260
 
Charges :
 core                        :    20.00000000    
 valence                     :    24.00000000    
 interstitial                :    3.022894943    
 muffin-tins (core leakage)
  species :    1 (Ti)
   atom    1                 :    20.48855253     (  0.1706787600E-08)
   atom    2                 :    20.48855253     (  0.1706787600E-08)
 total in muffin-tins        :    40.97710506    
 total calculated charge     :    43.99995157    
 total charge                :    44.00000000    
 error                       :   0.4843470873E-04
 
Wrote STATE.OUT
 
RMS change in Kohn-Sham potential (target) :   0.2233251636     (   10.00000000    )
Absolute change in total energy (target)   :    10.67568549     (  0.1000000000E-07)
 
Time (CPU seconds) :       278.36
 
+--------------------+
| Loop number :    5 |
+--------------------+
 
Energies :
 Fermi                       :     0.346477199517    
 sum of eigenvalues          :     -996.811609785    
 electron kinetic            :      1726.85493215    
 core electron kinetic       :      1589.81681517    
 Coulomb                     :     -3352.77774136    
 Coulomb potential           :     -2611.05139914    
 nuclear-nuclear             :     -235.999005235    
 electron-nuclear            :     -3622.50607311    
 Hartree                     :      505.727336983    
 Madelung                    :     -2047.25204179    
 xc potential                :     -112.615142793    
 exchange                    :     -83.4180024521    
 correlation                 :     -1.93251356345    
 total energy                :     -1711.27332523    
 
Density of states at Fermi energy :    57.52968463    
 (states/Hartree/unit cell)
 
Estimated indirect band gap :   0.4657629399E-03
 from k-point    234 to k-point    230
Estimated direct band gap   :   0.3669528949E-02
 at k-point    260
 
Charges :
 core                        :    20.00000000    
 valence                     :    24.00000000    
 interstitial                :    3.092282155    
 muffin-tins (core leakage)
  species :    1 (Ti)
   atom    1                 :    20.45385892     (  0.2576530989E-08)
   atom    2                 :    20.45385892     (  0.2576530989E-08)
 total in muffin-tins        :    40.90771784    
 total calculated charge     :    43.99995100    
 total charge                :    44.00000000    
 error                       :   0.4899742958E-04
 
RMS change in Kohn-Sham potential (target) :   0.8603327203E-01 (   10.00000000    )
Absolute change in total energy (target)   :    7.622987915     (  0.1000000000E-07)
 
Time (CPU seconds) :       348.25
 
+--------------------+
| Loop number :    6 |
+--------------------+
 
Energies :
 Fermi                       :     0.364692753796    
 sum of eigenvalues          :     -995.447129263    
 electron kinetic            :      1728.26218000    
 core electron kinetic       :      1590.18043527    
 Coulomb                     :     -3352.25252010    
 Coulomb potential           :     -2611.15177502    
 nuclear-nuclear             :     -235.999005235    
 electron-nuclear            :     -3621.35525471    
 Hartree                     :      505.101739844    
 Madelung                    :     -2046.67663259    
 xc potential                :     -112.557534247    
 exchange                    :     -83.3769704909    
 correlation                 :     -1.93226903200    
 total energy                :     -1709.29957962    
 
Density of states at Fermi energy :    48.64859891    
 (states/Hartree/unit cell)
 
Estimated indirect band gap :   0.3120509526E-03
 from k-point    234 to k-point    257
Estimated direct band gap   :   0.3468690034E-02
 at k-point    260
 
Charges :
 core                        :    20.00000000    
 valence                     :    24.00000000    
 interstitial                :    3.121220840    
 muffin-tins (core leakage)
  species :    1 (Ti)
   atom    1                 :    20.43938958     (  0.3168452167E-08)
   atom    2                 :    20.43938958     (  0.3168452167E-08)
 total in muffin-tins        :    40.87877916    
 total calculated charge     :    43.99995069    
 total charge                :    44.00000000    
 error                       :   0.4930630677E-04
 
Wrote STATE.OUT
 
RMS change in Kohn-Sham potential (target) :   0.2957352201E-01 (   10.00000000    )
Absolute change in total energy (target)   :    3.879492587     (  0.1000000000E-07)
 
Time (CPU seconds) :       417.41
 
+--------------------+
| Loop number :    7 |
+--------------------+
 
Energies :
 Fermi                       :     0.373477486806    
 sum of eigenvalues          :     -994.794746096    
 electron kinetic            :      1728.95235016    
 core electron kinetic       :      1590.59933388    
 Coulomb                     :     -3352.01260908    
 Coulomb potential           :     -2611.21744522    
 nuclear-nuclear             :     -235.999005235    
 electron-nuclear            :     -3620.80976247    
 Hartree                     :      504.796158625    
 Madelung                    :     -2046.40388647    
 xc potential                :     -112.529651037    
 exchange                    :     -83.3571505287    
 correlation                 :     -1.93215055077    
 total energy                :     -1708.34956000    
 
Density of states at Fermi energy :    44.66871923    
 (states/Hartree/unit cell)
 
Estimated indirect band gap :   0.3153601655E-03
 from k-point    230 to k-point    234
Estimated direct band gap   :   0.3354924961E-02
 at k-point    260
 
Charges :
 core                        :    20.00000000    
 valence                     :    24.00000000    
 interstitial                :    3.135715964    
 muffin-tins (core leakage)
  species :    1 (Ti)
   atom    1                 :    20.43214202     (  0.3396422699E-08)
   atom    2                 :    20.43214202     (  0.3396422699E-08)
 total in muffin-tins        :    40.86428404    
 total calculated charge     :    43.99995054    
 total charge                :    44.00000000    
 error                       :   0.4945862862E-04
 
RMS change in Kohn-Sham potential (target) :   0.4067185170E-02 (   10.00000000    )
Absolute change in total energy (target)   :    1.919892767     (  0.1000000000E-07)
 
Time (CPU seconds) :       485.48
 
+--------------------+
| Loop number :    8 |
+--------------------+
 
Energies :
 Fermi                       :     0.373263446503    
 sum of eigenvalues          :     -994.814346691    
 electron kinetic            :      1728.95689897    
 core electron kinetic       :      1590.62196548    
 Coulomb                     :     -3352.02252311    
 Coulomb potential           :     -2611.24275537    
 nuclear-nuclear             :     -235.999005235    
 electron-nuclear            :     -3620.80428038    
 Hartree                     :      504.780762503    
 Madelung                    :     -2046.40114542    
 xc potential                :     -112.528490287    
 exchange                    :     -83.3563454862    
 correlation                 :     -1.93214560334    
 total energy                :     -1708.35411523    
 
Density of states at Fermi energy :    44.26351453    
 (states/Hartree/unit cell)
 
Estimated indirect band gap :   0.3297749650E-03
 from k-point    193 to k-point    234
Estimated direct band gap   :   0.3330336560E-02
 at k-point    260
 
Charges :
 core                        :    20.00000000    
 valence                     :    24.00000000    
 interstitial                :    3.137148602    
 muffin-tins (core leakage)
  species :    1 (Ti)
   atom    1                 :    20.43142570     (  0.3396253945E-08)
   atom    2                 :    20.43142570     (  0.3396253945E-08)
 total in muffin-tins        :    40.86285140    
 total calculated charge     :    43.99995054    
 total charge                :    44.00000000    
 error                       :   0.4946352522E-04
 
Wrote STATE.OUT
 
RMS change in Kohn-Sham potential (target) :   0.1063306760E-02 (   10.00000000    )
Absolute change in total energy (target)   :   0.4754179584     (  0.1000000000E-07)
 
Time (CPU seconds) :       553.81
 
+--------------------+
| Loop number :    9 |
+--------------------+
 
Energies :
 Fermi                       :     0.373108409682    
 sum of eigenvalues          :     -994.826289689    
 electron kinetic            :      1728.94703968    
 core electron kinetic       :      1590.61844537    
 Coulomb                     :     -3352.02941813    
 Coulomb potential           :     -2611.24433907    
 nuclear-nuclear             :     -235.999005235    
 electron-nuclear            :     -3620.81648672    
 Hartree                     :      504.786073823    
 Madelung                    :     -2046.40724859    
 xc potential                :     -112.528990294    
 exchange                    :     -83.3567132473    
 correlation                 :     -1.93214986703    
 total energy                :     -1708.37124157    
 
Density of states at Fermi energy :    44.26009050    
 (states/Hartree/unit cell)
 
Estimated indirect band gap :   0.3283855796E-03
 from k-point    193 to k-point    234
Estimated direct band gap   :   0.3329221402E-02
 at k-point    260
 
Charges :
 core                        :    20.00000000    
 valence                     :    24.00000000    
 interstitial                :    3.136959123    
 muffin-tins (core leakage)
  species :    1 (Ti)
   atom    1                 :    20.43152044     (  0.3390500325E-08)
   atom    2                 :    20.43152044     (  0.3390500325E-08)
 total in muffin-tins        :    40.86304088    
 total calculated charge     :    43.99995055    
 total charge                :    44.00000000    
 error                       :   0.4945433138E-04
 
RMS change in Kohn-Sham potential (target) :   0.2488191306E-03 (   10.00000000    )
Absolute change in total energy (target)   :   0.1017281540     (  0.1000000000E-07)
 
Time (CPU seconds) :       623.25
 
+--------------------+
| Loop number :   10 |
+--------------------+
 
Energies :
 Fermi                       :     0.373084883511    
 sum of eigenvalues          :     -994.825244863    
 electron kinetic            :      1728.94516575    
 core electron kinetic       :      1590.61495400    
 Coulomb                     :     -3352.02613649    
 Coulomb potential           :     -2611.24154076    
 nuclear-nuclear             :     -235.999005235    
 electron-nuclear            :     -3620.81272176    
 Hartree                     :      504.785590502    
 Madelung                    :     -2046.40536611    
 xc potential                :     -112.528869856    
 exchange                    :     -83.3566139472    
 correlation                 :     -1.93215123957    
 total energy                :     -1708.36973593    
 
Density of states at Fermi energy :    44.29695003    
 (states/Hartree/unit cell)
 
Estimated indirect band gap :   0.3300592531E-03
 from k-point    193 to k-point    234
Estimated direct band gap   :   0.3331237705E-02
 at k-point    260
 
Charges :
 core                        :    20.00000000    
 valence                     :    24.00000000    
 interstitial                :    3.136921379    
 muffin-tins (core leakage)
  species :    1 (Ti)
   atom    1                 :    20.43153931     (  0.3423734185E-08)
   atom    2                 :    20.43153931     (  0.3423734185E-08)
 total in muffin-tins        :    40.86307862    
 total calculated charge     :    43.99995055    
 total charge                :    44.00000000    
 error                       :   0.4945481650E-04
 
Wrote STATE.OUT
 
RMS change in Kohn-Sham potential (target) :   0.9792050856E-04 (   10.00000000    )
Absolute change in total energy (target)   :   0.2693767402E-01 (  0.1000000000E-07)
 
Time (CPU seconds) :       691.45
 
+--------------------+
| Loop number :   11 |
+--------------------+
 
Energies :
 Fermi                       :     0.373093877680    
 sum of eigenvalues          :     -994.823357178    
 electron kinetic            :      1728.94522058    
 core electron kinetic       :      1590.61430449    
 Coulomb                     :     -3352.02402860    
 Coulomb potential           :     -2611.23978192    
 nuclear-nuclear             :     -235.999005235    
 electron-nuclear            :     -3620.81026481    
 Hartree                     :      504.785241443    
 Madelung                    :     -2046.40413764    
 xc potential                :     -112.528795838    
 exchange                    :     -83.3565537951    
 correlation                 :     -1.93215186007    
 total energy                :     -1708.36751367    
 
Density of states at Fermi energy :    44.32019746    
 (states/Hartree/unit cell)
 
Estimated indirect band gap :   0.3310481643E-03
 from k-point    193 to k-point    234
Estimated direct band gap   :   0.3332599739E-02
 at k-point    260
 
Charges :
 core                        :    20.00000000    
 valence                     :    24.00000000    
 interstitial                :    3.136895019    
 muffin-tins (core leakage)
  species :    1 (Ti)
   atom    1                 :    20.43155249     (  0.3348811006E-08)
   atom    2                 :    20.43155249     (  0.3348811006E-08)
 total in muffin-tins        :    40.86310498    
 total calculated charge     :    43.99995054    
 total charge                :    44.00000000    
 error                       :   0.4945550648E-04
 
RMS change in Kohn-Sham potential (target) :   0.2641997427E-03 (   10.00000000    )
Absolute change in total energy (target)   :   0.8956676762E-02 (  0.1000000000E-07)
 
Time (CPU seconds) :       760.71
 
+--------------------+
| Loop number :   12 |
+--------------------+
 
Energies :
 Fermi                       :     0.373094995693    
 sum of eigenvalues          :     -994.823372795    
 electron kinetic            :      1728.94529623    
 core electron kinetic       :      1590.61448497    
 Coulomb                     :     -3352.02412553    
 Coulomb potential           :     -2611.23986998    
 nuclear-nuclear             :     -235.999005235    
 electron-nuclear            :     -3620.81037060    
 Hartree                     :      504.785250311    
 Madelung                    :     -2046.40419054    
 xc potential                :     -112.528799046    
 exchange                    :     -83.3565564702    
 correlation                 :     -1.93215181142    
 total energy                :     -1708.36753758    
 
Density of states at Fermi energy :    44.31905859    
 (states/Hartree/unit cell)
 
Estimated indirect band gap :   0.3309992349E-03
 from k-point    193 to k-point    234
Estimated direct band gap   :   0.3332539753E-02
 at k-point    260
 
Charges :
 core                        :    20.00000000    
 valence                     :    24.00000000    
 interstitial                :    3.136896486    
 muffin-tins (core leakage)
  species :    1 (Ti)
   atom    1                 :    20.43155176     (  0.3370091761E-08)
   atom    2                 :    20.43155176     (  0.3370091761E-08)
 total in muffin-tins        :    40.86310351    
 total calculated charge     :    43.99995054    
 total charge                :    44.00000000    
 error                       :   0.4945558041E-04
 
Wrote STATE.OUT
 
RMS change in Kohn-Sham potential (target) :   0.8740813364E-04 (   10.00000000    )
Absolute change in total energy (target)   :   0.2215266119E-02 (  0.1000000000E-07)
 
Time (CPU seconds) :       829.00
 
+--------------------+
| Loop number :   13 |
+--------------------+
 
Energies :
 Fermi                       :     0.373094057021    
 sum of eigenvalues          :     -994.823513290    
 electron kinetic            :      1728.94517443    
 core electron kinetic       :      1590.61444931    
 Coulomb                     :     -3352.02419508    
 Coulomb potential           :     -2611.23988481    
 nuclear-nuclear             :     -235.999005235    
 electron-nuclear            :     -3620.81049489    
 Hartree                     :      504.785305044    
 Madelung                    :     -2046.40425268    
 xc potential                :     -112.528802913    
 exchange                    :     -83.3565588888    
 correlation                 :     -1.93215191400    
 total energy                :     -1708.36773146    
 
Density of states at Fermi energy :    44.31893580    
 (states/Hartree/unit cell)
 
Estimated indirect band gap :   0.3310676742E-03
 from k-point    193 to k-point    234
Estimated direct band gap   :   0.3332546483E-02
 at k-point    260
 
Charges :
 core                        :    20.00000000    
 valence                     :    24.00000000    
 interstitial                :    3.136895136    
 muffin-tins (core leakage)
  species :    1 (Ti)
   atom    1                 :    20.43155243     (  0.3394440284E-08)
   atom    2                 :    20.43155243     (  0.3394440284E-08)
 total in muffin-tins        :    40.86310486    
 total calculated charge     :    43.99995054    
 total charge                :    44.00000000    
 error                       :   0.4945568437E-04
 
RMS change in Kohn-Sham potential (target) :   0.1523602641E-03 (   10.00000000    )
Absolute change in total energy (target)   :   0.3599339470E-03 (  0.1000000000E-07)
 
Time (CPU seconds) :       899.20
 
+--------------------+
| Loop number :   14 |
+--------------------+
 
Energies :
 Fermi                       :     0.373094458727    
 sum of eigenvalues          :     -994.823532150    
 electron kinetic            :      1728.94519249    
 core electron kinetic       :      1590.61449971    
 Coulomb                     :     -3352.02424433    
 Coulomb potential           :     -2611.23991968    
 nuclear-nuclear             :     -235.999005235    
 electron-nuclear            :     -3620.81055852    
 Hartree                     :      504.785319417    
 Madelung                    :     -2046.40428449    
 xc potential                :     -112.528804957    
 exchange                    :     -83.3565604627    
 correlation                 :     -1.93215191485    
 total energy                :     -1708.36776422    
 
Density of states at Fermi energy :    44.31848272    
 (states/Hartree/unit cell)
 
Estimated indirect band gap :   0.3310585120E-03
 from k-point    193 to k-point    234
Estimated direct band gap   :   0.3332523911E-02
 at k-point    260
 
Charges :
 core                        :    20.00000000    
 valence                     :    24.00000000    
 interstitial                :    3.136895286    
 muffin-tins (core leakage)
  species :    1 (Ti)
   atom    1                 :    20.43155236     (  0.3324872822E-08)
   atom    2                 :    20.43155236     (  0.3324872822E-08)
 total in muffin-tins        :    40.86310471    
 total calculated charge     :    43.99995054    
 total charge                :    44.00000000    
 error                       :   0.4945559246E-04
 
Wrote STATE.OUT
 
RMS change in Kohn-Sham potential (target) :   0.1371453158E-04 (   10.00000000    )
Absolute change in total energy (target)   :   0.5721963839E-04 (  0.1000000000E-07)
 
Time (CPU seconds) :       967.36
 
+--------------------+
| Loop number :   15 |
+--------------------+
 
Energies :
 Fermi                       :     0.373094870676    
 sum of eigenvalues          :     -994.823549013    
 electron kinetic            :      1728.94516950    
 core electron kinetic       :      1590.61449977    
 Coulomb                     :     -3352.02426250    
 Coulomb potential           :     -2611.23991237    
 nuclear-nuclear             :     -235.999005235    
 electron-nuclear            :     -3620.81060217    
 Hartree                     :      504.785344898    
 Madelung                    :     -2046.40430632    
 xc potential                :     -112.528806141    
 exchange                    :     -83.3565610385    
 correlation                 :     -1.93215198918    
 total energy                :     -1708.36780603    
 
Density of states at Fermi energy :    44.31858763    
 (states/Hartree/unit cell)
 
Estimated indirect band gap :   0.3311126282E-03
 from k-point    193 to k-point    234
Estimated direct band gap   :   0.3332539106E-02
 at k-point    260
 
Charges :
 core                        :    20.00000000    
 valence                     :    24.00000000    
 interstitial                :    3.136894220    
 muffin-tins (core leakage)
  species :    1 (Ti)
   atom    1                 :    20.43155289     (  0.3434246665E-08)
   atom    2                 :    20.43155289     (  0.3434246665E-08)
 total in muffin-tins        :    40.86310578    
 total calculated charge     :    43.99995054    
 total charge                :    44.00000000    
 error                       :   0.4945585012E-04
 
RMS change in Kohn-Sham potential (target) :   0.1613008338E-03 (   10.00000000    )
Absolute change in total energy (target)   :   0.2750440831E-04 (  0.1000000000E-07)
 
Time (CPU seconds) :      1036.12
 
+--------------------+
| Loop number :   16 |
+--------------------+
 
Energies :
 Fermi                       :     0.373094766061    
 sum of eigenvalues          :     -994.823564440    
 electron kinetic            :      1728.94513173    
 core electron kinetic       :      1590.61448563    
 Coulomb                     :     -3352.02425495    
 Coulomb potential           :     -2611.23988987    
 nuclear-nuclear             :     -235.999005235    
 electron-nuclear            :     -3620.81060957    
 Hartree                     :      504.785359846    
 Madelung                    :     -2046.40431002    
 xc potential                :     -112.528806300    
 exchange                    :     -83.3565609002    
 correlation                 :     -1.93215204340    
 total energy                :     -1708.36783616    
 
Density of states at Fermi energy :    44.31886798    
 (states/Hartree/unit cell)
 
Estimated indirect band gap :   0.3311557962E-03
 from k-point    193 to k-point    234
Estimated direct band gap   :   0.3332560654E-02
 at k-point    260
 
Charges :
 core                        :    20.00000000    
 valence                     :    24.00000000    
 interstitial                :    3.136893217    
 muffin-tins (core leakage)
  species :    1 (Ti)
   atom    1                 :    20.43155339     (  0.3379675206E-08)
   atom    2                 :    20.43155339     (  0.3379675206E-08)
 total in muffin-tins        :    40.86310678    
 total calculated charge     :    43.99995054    
 total charge                :    44.00000000    
 error                       :   0.4945577228E-04
 
Wrote STATE.OUT
 
RMS change in Kohn-Sham potential (target) :   0.7094254225E-05 (   10.00000000    )
Absolute change in total energy (target)   :   0.3700817979E-04 (  0.1000000000E-07)
 
Time (CPU seconds) :      1102.57
 
+--------------------+
| Loop number :   17 |
+--------------------+
 
Energies :
 Fermi                       :     0.373095077572    
 sum of eigenvalues          :     -994.823570661    
 electron kinetic            :      1728.94515267    
 core electron kinetic       :      1590.61452170    
 Coulomb                     :     -3352.02428720    
 Coulomb potential           :     -2611.23991590    
 nuclear-nuclear             :     -235.999005235    
 electron-nuclear            :     -3620.81064804    
 Hartree                     :      504.785366070    
 Madelung                    :     -2046.40432925    
 xc potential                :     -112.528807435    
 exchange                    :     -83.3565618116    
 correlation                 :     -1.93215204180    
 total energy                :     -1708.36784838    
 
Density of states at Fermi energy :    44.31850599    
 (states/Hartree/unit cell)
 
Estimated indirect band gap :   0.3311451220E-03
 from k-point    193 to k-point    234
Estimated direct band gap   :   0.3332540511E-02
 at k-point    260
 
Charges :
 core                        :    20.00000000    
 valence                     :    24.00000000    
 interstitial                :    3.136893442    
 muffin-tins (core leakage)
  species :    1 (Ti)
   atom    1                 :    20.43155328     (  0.3382215397E-08)
   atom    2                 :    20.43155328     (  0.3382215397E-08)
 total in muffin-tins        :    40.86310656    
 total calculated charge     :    43.99995054    
 total charge                :    44.00000000    
 error                       :   0.4945583489E-04
 
RMS change in Kohn-Sham potential (target) :   0.3638307021E-04 (   10.00000000    )
Absolute change in total energy (target)   :   0.2147218606E-04 (  0.1000000000E-07)
 
Time (CPU seconds) :      1171.10
 
+--------------------+
| Loop number :   18 |
+--------------------+
 
Energies :
 Fermi                       :     0.373095091813    
 sum of eigenvalues          :     -994.823582598    
 electron kinetic            :      1728.94514451    
 core electron kinetic       :      1590.61452691    
 Coulomb                     :     -3352.02429771    
 Coulomb potential           :     -2611.23991917    
 nuclear-nuclear             :     -235.999005235    
 electron-nuclear            :     -3620.81066579    
 Hartree                     :      504.785373312    
 Madelung                    :     -2046.40433813    
 xc potential                :     -112.528807945    
 exchange                    :     -83.3565621346    
 correlation                 :     -1.93215205666    
 total energy                :     -1708.36786739    
 
Density of states at Fermi energy :    44.31845705    
 (states/Hartree/unit cell)
 
Estimated indirect band gap :   0.3311544233E-03
 from k-point    193 to k-point    234
Estimated direct band gap   :   0.3332539777E-02
 at k-point    260
 
Charges :
 core                        :    20.00000000    
 valence                     :    24.00000000    
 interstitial                :    3.136893241    
 muffin-tins (core leakage)
  species :    1 (Ti)
   atom    1                 :    20.43155338     (  0.3440995044E-08)
   atom    2                 :    20.43155338     (  0.3440995044E-08)
 total in muffin-tins        :    40.86310676    
 total calculated charge     :    43.99995054    
 total charge                :    44.00000000    
 error                       :   0.4945594544E-04
 
Wrote STATE.OUT
 
RMS change in Kohn-Sham potential (target) :   0.7998580638E-04 (   10.00000000    )
Absolute change in total energy (target)   :   0.2437593139E-04 (  0.1000000000E-07)
 
Time (CPU seconds) :      1240.16
 
+--------------------+
| Loop number :   19 |
+--------------------+
 
Energies :
 Fermi                       :     0.373095369582    
 sum of eigenvalues          :     -994.823584099    
 electron kinetic            :      1728.94515772    
 core electron kinetic       :      1590.61454108    
 Coulomb                     :     -3352.02431728    
 Coulomb potential           :     -2611.23993314    
 nuclear-nuclear             :     -235.999005235    
 electron-nuclear            :     -3620.81069095    
 Hartree                     :      504.785378901    
 Madelung                    :     -2046.40435071    
 xc potential                :     -112.528808678    
 exchange                    :     -83.3565626868    
 correlation                 :     -1.93215206327    
 total energy                :     -1708.36787431    
 
Density of states at Fermi energy :    44.31826394    
 (states/Hartree/unit cell)
 
Estimated indirect band gap :   0.3311536649E-03
 from k-point    193 to k-point    234
Estimated direct band gap   :   0.3332529949E-02
 at k-point    260
 
Charges :
 core                        :    20.00000000    
 valence                     :    24.00000000    
 interstitial                :    3.136893260    
 muffin-tins (core leakage)
  species :    1 (Ti)
   atom    1                 :    20.43155337     (  0.3387819802E-08)
   atom    2                 :    20.43155337     (  0.3387819802E-08)
 total in muffin-tins        :    40.86310674    
 total calculated charge     :    43.99995054    
 total charge                :    44.00000000    
 error                       :   0.4945586166E-04
 
RMS change in Kohn-Sham potential (target) :   0.7419981882E-04 (   10.00000000    )
Absolute change in total energy (target)   :   0.1300988151E-04 (  0.1000000000E-07)
 
Time (CPU seconds) :      1309.21
 
+--------------------+
| Loop number :   20 |
+--------------------+
 
Energies :
 Fermi                       :     0.373095466970    
 sum of eigenvalues          :     -994.823582304    
 electron kinetic            :      1728.94516228    
 core electron kinetic       :      1590.61454626    
 Coulomb                     :     -3352.02432155    
 Coulomb potential           :     -2611.23993576    
 nuclear-nuclear             :     -235.999005235    
 electron-nuclear            :     -3620.81069686    
 Hartree                     :      504.785380551    
 Madelung                    :     -2046.40435367    
 xc potential                :     -112.528808825    
 exchange                    :     -83.3565627970    
 correlation                 :     -1.93215206598    
 total energy                :     -1708.36787413    
 
Density of states at Fermi energy :    44.31822844    
 (states/Hartree/unit cell)
 
Estimated indirect band gap :   0.3311543873E-03
 from k-point    193 to k-point    234
Estimated direct band gap   :   0.3332528176E-02
 at k-point    260
 
Charges :
 core                        :    20.00000000    
 valence                     :    24.00000000    
 interstitial                :    3.136893235    
 muffin-tins (core leakage)
  species :    1 (Ti)
   atom    1                 :    20.43155338     (  0.3414839966E-08)
   atom    2                 :    20.43155338     (  0.3414839966E-08)
 total in muffin-tins        :    40.86310676    
 total calculated charge     :    43.99995054    
 total charge                :    44.00000000    
 error                       :   0.4945587506E-04
 
Wrote STATE.OUT
 
RMS change in Kohn-Sham potential (target) :   0.3250269217E-04 (   10.00000000    )
Absolute change in total energy (target)   :   0.3071932042E-05 (  0.1000000000E-07)
 
Time (CPU seconds) :      1379.39
 
+--------------------+
| Loop number :   21 |
+--------------------+
 
Energies :
 Fermi                       :     0.373095515908    
 sum of eigenvalues          :     -994.823582180    
 electron kinetic            :      1728.94516364    
 core electron kinetic       :      1590.61454791    
 Coulomb                     :     -3352.02432396    
 Coulomb potential           :     -2611.23993688    
 nuclear-nuclear             :     -235.999005235    
 electron-nuclear            :     -3620.81070056    
 Hartree                     :      504.785381840    
 Madelung                    :     -2046.40435552    
 xc potential                :     -112.528808940    
 exchange                    :     -83.3565628747    
 correlation                 :     -1.93215206991    
 total energy                :     -1708.36787526    
 
Density of states at Fermi energy :    44.31820835    
 (states/Hartree/unit cell)
 
Estimated indirect band gap :   0.3311562199E-03
 from k-point    193 to k-point    234
Estimated direct band gap   :   0.3332527392E-02
 at k-point    260
 
Charges :
 core                        :    20.00000000    
 valence                     :    24.00000000    
 interstitial                :    3.136893174    
 muffin-tins (core leakage)
  species :    1 (Ti)
   atom    1                 :    20.43155341     (  0.3363004097E-08)
   atom    2                 :    20.43155341     (  0.3363004097E-08)
 total in muffin-tins        :    40.86310683    
 total calculated charge     :    43.99995054    
 total charge                :    44.00000000    
 error                       :   0.4945577835E-04
 
RMS change in Kohn-Sham potential (target) :   0.6587223001E-04 (   10.00000000    )
Absolute change in total energy (target)   :   0.1899891458E-05 (  0.1000000000E-07)
 
Time (CPU seconds) :      1448.92
 
+--------------------+
| Loop number :   22 |
+--------------------+
 
Energies :
 Fermi                       :     0.373095479189    
 sum of eigenvalues          :     -994.823582728    
 electron kinetic            :      1728.94516257    
 core electron kinetic       :      1590.61454757    
 Coulomb                     :     -3352.02432298    
 Coulomb potential           :     -2611.23993640    
 nuclear-nuclear             :     -235.999005235    
 electron-nuclear            :     -3620.81069908    
 Hartree                     :      504.785381341    
 Madelung                    :     -2046.40435478    
 xc potential                :     -112.528808892    
 exchange                    :     -83.3565628416    
 correlation                 :     -1.93215206835    
 total energy                :     -1708.36787532    
 
Density of states at Fermi energy :    44.31821449    
 (states/Hartree/unit cell)
 
Estimated indirect band gap :   0.3311551606E-03
 from k-point    193 to k-point    234
Estimated direct band gap   :   0.3332527512E-02
 at k-point    260
 
Charges :
 core                        :    20.00000000    
 valence                     :    24.00000000    
 interstitial                :    3.136893196    
 muffin-tins (core leakage)
  species :    1 (Ti)
   atom    1                 :    20.43155340     (  0.3344872823E-08)
   atom    2                 :    20.43155340     (  0.3344872823E-08)
 total in muffin-tins        :    40.86310680    
 total calculated charge     :    43.99995054    
 total charge                :    44.00000000    
 error                       :   0.4945578159E-04
 
Wrote STATE.OUT
 
RMS change in Kohn-Sham potential (target) :   0.3015170315E-04 (   10.00000000    )
Absolute change in total energy (target)   :   0.5379545200E-06 (  0.1000000000E-07)
 
Time (CPU seconds) :      1517.47
 
+--------------------+
| Loop number :   23 |
+--------------------+
 
Energies :
 Fermi                       :     0.373095556323    
 sum of eigenvalues          :     -994.823581488    
 electron kinetic            :      1728.94516656    
 core electron kinetic       :      1590.61455047    
 Coulomb                     :     -3352.02432651    
 Coulomb potential           :     -2611.23993902    
 nuclear-nuclear             :     -235.999005235    
 electron-nuclear            :     -3620.81070352    
 Hartree                     :      504.785382250    
 Madelung                    :     -2046.40435700    
 xc potential                :     -112.528809026    
 exchange                    :     -83.3565629403    
 correlation                 :     -1.93215206984    
 total energy                :     -1708.36787496    
 
Density of states at Fermi energy :    44.31817897    
 (states/Hartree/unit cell)
 
Estimated indirect band gap :   0.3311551793E-03
 from k-point    193 to k-point    234
Estimated direct band gap   :   0.3332525670E-02
 at k-point    260
 
Charges :
 core                        :    20.00000000    
 valence                     :    24.00000000    
 interstitial                :    3.136893193    
 muffin-tins (core leakage)
  species :    1 (Ti)
   atom    1                 :    20.43155340     (  0.3384077019E-08)
   atom    2                 :    20.43155340     (  0.3384077019E-08)
 total in muffin-tins        :    40.86310681    
 total calculated charge     :    43.99995054    
 total charge                :    44.00000000    
 error                       :   0.4945582872E-04
 
RMS change in Kohn-Sham potential (target) :   0.1867881722E-03 (   10.00000000    )
Absolute change in total energy (target)   :   0.2306928764E-06 (  0.1000000000E-07)
 
Time (CPU seconds) :      1585.93
 
+--------------------+
| Loop number :   24 |
+--------------------+
 
Energies :
 Fermi                       :     0.373095660488    
 sum of eigenvalues          :     -994.823578300    
 electron kinetic            :      1728.94517077    
 core electron kinetic       :      1590.61455311    
 Coulomb                     :     -3352.02432882    
 Coulomb potential           :     -2611.23993994    
 nuclear-nuclear             :     -235.999005235    
 electron-nuclear            :     -3620.81070722    
 Hartree                     :      504.785383640    
 Madelung                    :     -2046.40435885    
 xc potential                :     -112.528809130    
 exchange                    :     -83.3565630078    
 correlation                 :     -1.93215207447    
 total energy                :     -1708.36787313    
 
Density of states at Fermi energy :    44.31816449    
 (states/Hartree/unit cell)
 
Estimated indirect band gap :   0.3311577716E-03
 from k-point    193 to k-point    234
Estimated direct band gap   :   0.3332525235E-02
 at k-point    260
 
Charges :
 core                        :    20.00000000    
 valence                     :    24.00000000    
 interstitial                :    3.136893114    
 muffin-tins (core leakage)
  species :    1 (Ti)
   atom    1                 :    20.43155344     (  0.3387933489E-08)
   atom    2                 :    20.43155344     (  0.3387933489E-08)
 total in muffin-tins        :    40.86310689    
 total calculated charge     :    43.99995054    
 total charge                :    44.00000000    
 error                       :   0.4945583457E-04
 
Wrote STATE.OUT
 
RMS change in Kohn-Sham potential (target) :   0.1528899788E-04 (   10.00000000    )
Absolute change in total energy (target)   :   0.1887305643E-05 (  0.1000000000E-07)
 
Time (CPU seconds) :      1654.27
 
+--------------------+
| Loop number :   25 |
+--------------------+
 
Energies :
 Fermi                       :     0.373095642172    
 sum of eigenvalues          :     -994.823577721    
 electron kinetic            :      1728.94517048    
 core electron kinetic       :      1590.61455221    
 Coulomb                     :     -3352.02432731    
 Coulomb potential           :     -2611.23993914    
 nuclear-nuclear             :     -235.999005235    
 electron-nuclear            :     -3620.81070500    
 Hartree                     :      504.785382929    
 Madelung                    :     -2046.40435774    
 xc potential                :     -112.528809057    
 exchange                    :     -83.3565629603    
 correlation                 :     -1.93215207309    
 total energy                :     -1708.36787186    
 
Density of states at Fermi energy :    44.31817714    
 (states/Hartree/unit cell)
 
Estimated indirect band gap :   0.3311572071E-03
 from k-point    193 to k-point    234
Estimated direct band gap   :   0.3332525766E-02
 at k-point    260
 
Charges :
 core                        :    20.00000000    
 valence                     :    24.00000000    
 interstitial                :    3.136893133    
 muffin-tins (core leakage)
  species :    1 (Ti)
   atom    1                 :    20.43155343     (  0.3373335389E-08)
   atom    2                 :    20.43155343     (  0.3373335389E-08)
 total in muffin-tins        :    40.86310687    
 total calculated charge     :    43.99995054    
 total charge                :    44.00000000    
 error                       :   0.4945582605E-04
 
RMS change in Kohn-Sham potential (target) :   0.2140990908E-03 (   10.00000000    )
Absolute change in total energy (target)   :   0.1737625325E-05 (  0.1000000000E-07)
 
Time (CPU seconds) :      1719.13
 
+--------------------+
| Loop number :   26 |
+--------------------+
 
Energies :
 Fermi                       :     0.373095597458    
 sum of eigenvalues          :     -994.823578560    
 electron kinetic            :      1728.94516927    
 core electron kinetic       :      1590.61455106    
 Coulomb                     :     -3352.02432604    
 Coulomb potential           :     -2611.23993884    
 nuclear-nuclear             :     -235.999005235    
 electron-nuclear            :     -3620.81070278    
 Hartree                     :      504.785381973    
 Madelung                    :     -2046.40435663    
 xc potential                :     -112.528808993    
 exchange                    :     -83.3565629208    
 correlation                 :     -1.93215207002    
 total energy                :     -1708.36787177    
 
Density of states at Fermi energy :    44.31818436    
 (states/Hartree/unit cell)
 
Estimated indirect band gap :   0.3311553590E-03
 from k-point    193 to k-point    234
Estimated direct band gap   :   0.3332525854E-02
 at k-point    260
 
Charges :
 core                        :    20.00000000    
 valence                     :    24.00000000    
 interstitial                :    3.136893188    
 muffin-tins (core leakage)
  species :    1 (Ti)
   atom    1                 :    20.43155341     (  0.3374495350E-08)
   atom    2                 :    20.43155341     (  0.3374495350E-08)
 total in muffin-tins        :    40.86310681    
 total calculated charge     :    43.99995054    
 total charge                :    44.00000000    
 error                       :   0.4945578499E-04
 
Wrote STATE.OUT
 
RMS change in Kohn-Sham potential (target) :   0.1344692013E-03 (   10.00000000    )
Absolute change in total energy (target)   :   0.5301976671E-06 (  0.1000000000E-07)
 
Time (CPU seconds) :      1785.43
 
+--------------------+
| Loop number :   27 |
+--------------------+
 
Energies :
 Fermi                       :     0.373095574443    
 sum of eigenvalues          :     -994.823579310    
 electron kinetic            :      1728.94516862    
 core electron kinetic       :      1590.61455061    
 Coulomb                     :     -3352.02432610    
 Coulomb potential           :     -2611.23993894    
 nuclear-nuclear             :     -235.999005235    
 electron-nuclear            :     -3620.81070278    
 Hartree                     :      504.785381920    
 Madelung                    :     -2046.40435663    
 xc potential                :     -112.528808983    
 exchange                    :     -83.3565629169    
 correlation                 :     -1.93215206876    
 total energy                :     -1708.36787247    
 
Density of states at Fermi energy :    44.31818324    
 (states/Hartree/unit cell)
 
Estimated indirect band gap :   0.3311545853E-03
 from k-point    193 to k-point    234
Estimated direct band gap   :   0.3332525649E-02
 at k-point    260
 
Charges :
 core                        :    20.00000000    
 valence                     :    24.00000000    
 interstitial                :    3.136893205    
 muffin-tins (core leakage)
  species :    1 (Ti)
   atom    1                 :    20.43155340     (  0.3426068318E-08)
   atom    2                 :    20.43155340     (  0.3426068318E-08)
 total in muffin-tins        :    40.86310679    
 total calculated charge     :    43.99995054    
 total charge                :    44.00000000    
 error                       :   0.4945588253E-04
 
RMS change in Kohn-Sham potential (target) :   0.5450542765E-04 (   10.00000000    )
Absolute change in total energy (target)   :   0.5685067208E-06 (  0.1000000000E-07)
 
Time (CPU seconds) :      1852.17
 
+--------------------+
| Loop number :   28 |
+--------------------+
 
Energies :
 Fermi                       :     0.373095592140    
 sum of eigenvalues          :     -994.823578768    
 electron kinetic            :      1728.94516911    
 core electron kinetic       :      1590.61455109    
 Coulomb                     :     -3352.02432644    
 Coulomb potential           :     -2611.23993888    
 nuclear-nuclear             :     -235.999005235    
 electron-nuclear            :     -3620.81070352    
 Hartree                     :      504.785382322    
 Madelung                    :     -2046.40435700    
 xc potential                :     -112.528808999    
 exchange                    :     -83.3565629259    
 correlation                 :     -1.93215206999    
 total energy                :     -1708.36787232    
 
Density of states at Fermi energy :    44.31818347    
 (states/Hartree/unit cell)
 
Estimated indirect band gap :   0.3311553842E-03
 from k-point    193 to k-point    234
Estimated direct band gap   :   0.3332525773E-02
 at k-point    260
 
Charges :
 core                        :    20.00000000    
 valence                     :    24.00000000    
 interstitial                :    3.136893183    
 muffin-tins (core leakage)
  species :    1 (Ti)
   atom    1                 :    20.43155341     (  0.3412914396E-08)
   atom    2                 :    20.43155341     (  0.3412914396E-08)
 total in muffin-tins        :    40.86310682    
 total calculated charge     :    43.99995054    
 total charge                :    44.00000000    
 error                       :   0.4945586178E-04
 
Wrote STATE.OUT
 
RMS change in Kohn-Sham potential (target) :   0.3774407729E-04 (   10.00000000    )
Absolute change in total energy (target)   :   0.2008391675E-08 (  0.1000000000E-07)
 
Convergence targets achieved
 
Time (CPU seconds) :      1921.56
 
+--------------------+
| Loop number :   29 |
+--------------------+
 
Energies :
 Fermi                       :     0.373095593243    
 sum of eigenvalues          :     -994.823578763    
 electron kinetic            :      1728.94516911    
 core electron kinetic       :      1590.61455110    
 Coulomb                     :     -3352.02432643    
 Coulomb potential           :     -2611.23993887    
 nuclear-nuclear             :     -235.999005235    
 electron-nuclear            :     -3620.81070352    
 Hartree                     :      504.785382328    
 Madelung                    :     -2046.40435700    
 xc potential                :     -112.528809001    
 exchange                    :     -83.3565629272    
 correlation                 :     -1.93215207012    
 total energy                :     -1708.36787232    
 
Density of states at Fermi energy :    44.31818347    
 (states/Hartree/unit cell)
 
Estimated indirect band gap :   0.3311554927E-03
 from k-point    193 to k-point    234
Estimated direct band gap   :   0.3332525794E-02
 at k-point    260
 
Charges :
 core                        :    20.00000000    
 valence                     :    24.00000000    
 interstitial                :    3.136893180    
 muffin-tins (core leakage)
  species :    1 (Ti)
   atom    1                 :    20.43155341     (  0.3413514804E-08)
   atom    2                 :    20.43155341     (  0.3413514804E-08)
 total in muffin-tins        :    40.86310682    
 total calculated charge     :    43.99995054    
 total charge                :    44.00000000    
 error                       :   0.4945592611E-04
 
+------------------------------+
| Self-consistent loop stopped |
+------------------------------+
 
Wrote STATE.OUT
 
Timings (CPU seconds) :
 initialisation                        :         1.10
 Hamiltonian and overlap matrix set up :       564.60
 first-variational eigenvalue equation :       721.84
 charge density calculation            :       221.56
 potential calculation                 :       479.98
 total                                 :      1989.08
 
+----------------------------+
| Elk version 8.3.15 stopped |
+----------------------------+
