    -1548.33847467    
    -1548.02071289    
    -1544.92013160    
    -1536.21635672    
    -1531.68964081    
    -1529.91005817    
    -1529.12863150    
    -1529.14215918    
    -1529.16034200    
    -1529.15926814    
    -1529.15804528    
    -1529.15580375    
    -1529.15568368    
    -1529.15560261    
    -1529.15555470    
    -1529.15555255    
    -1529.15558538    
    -1529.15554430    
    -1529.15553961    
    -1529.15551903    
    -1529.15552668    
    -1529.15554113    
    -1529.15554056    
    -1529.15553313    
    -1529.15553038    
    -1529.15552149    
    -1529.15552052    
    -1529.15552712    
    -1529.15552757    
    -1529.15552818    
    -1529.15552698    
    -1529.15552727    
    -1529.15552675    
    -1529.15552677    
    -1529.15552677    
    -1529.15552680    
    -1529.15552682    
    -1529.15552682    
    -1529.15552678    
    -1529.15552678    
    -1529.15552676    
    -1529.15552676    
    -1529.15552678    
