 
Species :    1 (Os), atom :    1
 APW functions :
  l =  0, energy derivative =  0 :   0.5406905877    
  l =  1, energy derivative =  0 :   0.5406905877    
  l =  2, energy derivative =  0 :   0.5406905877    
  l =  3, energy derivative =  0 :   0.5406905877    
  l =  4, energy derivative =  0 :   0.5406905877    
  l =  5, energy derivative =  0 :   0.5406905877    
  l =  6, energy derivative =  0 :   0.5406905877    
  l =  7, energy derivative =  0 :   0.5406905877    
  l =  8, energy derivative =  0 :   0.5406905877    
  l =  9, energy derivative =  0 :   0.5406905877    
  l = 10, energy derivative =  0 :   0.5406905877    
 local-orbital functions :
  l.o. =  1, l =  0, energy derivative =  0 :   0.5406905877    
  l.o. =  1, l =  0, energy derivative =  1 :   0.5406905877    
  l.o. =  2, l =  1, energy derivative =  0 :   0.5406905877    
  l.o. =  2, l =  1, energy derivative =  1 :   0.5406905877    
  l.o. =  3, l =  2, energy derivative =  0 :   0.5406905877    
  l.o. =  3, l =  2, energy derivative =  1 :   0.5406905877    
  l.o. =  4, l =  3, energy derivative =  0 :   0.5406905877    
  l.o. =  4, l =  3, energy derivative =  1 :   0.5406905877    
  l.o. =  5, l =  3, energy derivative =  0 :   0.5406905877    
  l.o. =  5, l =  3, energy derivative =  0 :   -1.082849666    
  l.o. =  6, l =  0, energy derivative =  0 :   0.5406905877    
  l.o. =  6, l =  0, energy derivative =  0 :   -2.548095900    
  l.o. =  7, l =  1, energy derivative =  0 :   0.5406905877    
  l.o. =  7, l =  1, energy derivative =  0 :   -1.050508387    
  l.o. =  8, l =  2, energy derivative =  0 :   0.5406905877    
  l.o. =  8, l =  2, energy derivative =  0 :   0.7045441046    
  l.o. =  9, l =  4, energy derivative =  0 :   0.5406905877    
  l.o. =  9, l =  4, energy derivative =  1 :   0.5406905877    
  l.o. = 10, l =  5, energy derivative =  0 :   0.5406905877    
  l.o. = 10, l =  5, energy derivative =  1 :   0.5406905877    
  l.o. = 11, l =  6, energy derivative =  0 :   0.5406905877    
  l.o. = 11, l =  6, energy derivative =  1 :   0.5406905877    
  l.o. = 12, l =  0, energy derivative =  0 :    1.480121534    
  l.o. = 12, l =  0, energy derivative =  1 :    1.480121534    
  l.o. = 12, l =  0, energy derivative =  2 :    1.480121534    
  l.o. = 13, l =  1, energy derivative =  0 :    2.325765774    
  l.o. = 13, l =  1, energy derivative =  1 :    2.325765774    
  l.o. = 13, l =  1, energy derivative =  2 :    2.325765774    
  l.o. = 14, l =  2, energy derivative =  0 :   0.7045441046    
  l.o. = 14, l =  2, energy derivative =  1 :   0.7045441046    
  l.o. = 14, l =  2, energy derivative =  2 :   0.7045441046    
  l.o. = 15, l =  3, energy derivative =  0 :    2.413534808    
  l.o. = 15, l =  3, energy derivative =  1 :    2.413534808    
  l.o. = 15, l =  3, energy derivative =  2 :    2.413534808    
  l.o. = 16, l =  4, energy derivative =  0 :    3.806544798    
  l.o. = 16, l =  4, energy derivative =  1 :    3.806544798    
  l.o. = 16, l =  4, energy derivative =  2 :    3.806544798    
  l.o. = 17, l =  5, energy derivative =  0 :    5.590766392    
  l.o. = 17, l =  5, energy derivative =  1 :    5.590766392    
  l.o. = 17, l =  5, energy derivative =  2 :    5.590766392    
  l.o. = 18, l =  6, energy derivative =  0 :    7.468243010    
  l.o. = 18, l =  6, energy derivative =  1 :    7.468243010    
  l.o. = 18, l =  6, energy derivative =  2 :    7.468243010    
  l.o. = 19, l =  7, energy derivative =  0 :    9.505155846    
  l.o. = 19, l =  7, energy derivative =  1 :    9.505155846    
  l.o. = 19, l =  7, energy derivative =  2 :    9.505155846    
  l.o. = 20, l =  8, energy derivative =  0 :    11.71994641    
  l.o. = 20, l =  8, energy derivative =  1 :    11.71994641    
  l.o. = 20, l =  8, energy derivative =  2 :    11.71994641    
 
Species :    1 (Os), atom :    2
 APW functions :
  l =  0, energy derivative =  0 :   0.5406905877    
  l =  1, energy derivative =  0 :   0.5406905877    
  l =  2, energy derivative =  0 :   0.5406905877    
  l =  3, energy derivative =  0 :   0.5406905877    
  l =  4, energy derivative =  0 :   0.5406905877    
  l =  5, energy derivative =  0 :   0.5406905877    
  l =  6, energy derivative =  0 :   0.5406905877    
  l =  7, energy derivative =  0 :   0.5406905877    
  l =  8, energy derivative =  0 :   0.5406905877    
  l =  9, energy derivative =  0 :   0.5406905877    
  l = 10, energy derivative =  0 :   0.5406905877    
 local-orbital functions :
  l.o. =  1, l =  0, energy derivative =  0 :   0.5406905877    
  l.o. =  1, l =  0, energy derivative =  1 :   0.5406905877    
  l.o. =  2, l =  1, energy derivative =  0 :   0.5406905877    
  l.o. =  2, l =  1, energy derivative =  1 :   0.5406905877    
  l.o. =  3, l =  2, energy derivative =  0 :   0.5406905877    
  l.o. =  3, l =  2, energy derivative =  1 :   0.5406905877    
  l.o. =  4, l =  3, energy derivative =  0 :   0.5406905877    
  l.o. =  4, l =  3, energy derivative =  1 :   0.5406905877    
  l.o. =  5, l =  3, energy derivative =  0 :   0.5406905877    
  l.o. =  5, l =  3, energy derivative =  0 :   -1.082849666    
  l.o. =  6, l =  0, energy derivative =  0 :   0.5406905877    
  l.o. =  6, l =  0, energy derivative =  0 :   -2.548095900    
  l.o. =  7, l =  1, energy derivative =  0 :   0.5406905877    
  l.o. =  7, l =  1, energy derivative =  0 :   -1.050508387    
  l.o. =  8, l =  2, energy derivative =  0 :   0.5406905877    
  l.o. =  8, l =  2, energy derivative =  0 :   0.7045441046    
  l.o. =  9, l =  4, energy derivative =  0 :   0.5406905877    
  l.o. =  9, l =  4, energy derivative =  1 :   0.5406905877    
  l.o. = 10, l =  5, energy derivative =  0 :   0.5406905877    
  l.o. = 10, l =  5, energy derivative =  1 :   0.5406905877    
  l.o. = 11, l =  6, energy derivative =  0 :   0.5406905877    
  l.o. = 11, l =  6, energy derivative =  1 :   0.5406905877    
  l.o. = 12, l =  0, energy derivative =  0 :    1.480121534    
  l.o. = 12, l =  0, energy derivative =  1 :    1.480121534    
  l.o. = 12, l =  0, energy derivative =  2 :    1.480121534    
  l.o. = 13, l =  1, energy derivative =  0 :    2.325765774    
  l.o. = 13, l =  1, energy derivative =  1 :    2.325765774    
  l.o. = 13, l =  1, energy derivative =  2 :    2.325765774    
  l.o. = 14, l =  2, energy derivative =  0 :   0.7045441046    
  l.o. = 14, l =  2, energy derivative =  1 :   0.7045441046    
  l.o. = 14, l =  2, energy derivative =  2 :   0.7045441046    
  l.o. = 15, l =  3, energy derivative =  0 :    2.413534808    
  l.o. = 15, l =  3, energy derivative =  1 :    2.413534808    
  l.o. = 15, l =  3, energy derivative =  2 :    2.413534808    
  l.o. = 16, l =  4, energy derivative =  0 :    3.806544798    
  l.o. = 16, l =  4, energy derivative =  1 :    3.806544798    
  l.o. = 16, l =  4, energy derivative =  2 :    3.806544798    
  l.o. = 17, l =  5, energy derivative =  0 :    5.590766392    
  l.o. = 17, l =  5, energy derivative =  1 :    5.590766392    
  l.o. = 17, l =  5, energy derivative =  2 :    5.590766392    
  l.o. = 18, l =  6, energy derivative =  0 :    7.468243010    
  l.o. = 18, l =  6, energy derivative =  1 :    7.468243010    
  l.o. = 18, l =  6, energy derivative =  2 :    7.468243010    
  l.o. = 19, l =  7, energy derivative =  0 :    9.505155846    
  l.o. = 19, l =  7, energy derivative =  1 :    9.505155846    
  l.o. = 19, l =  7, energy derivative =  2 :    9.505155846    
  l.o. = 20, l =  8, energy derivative =  0 :    11.71994641    
  l.o. = 20, l =  8, energy derivative =  1 :    11.71994641    
  l.o. = 20, l =  8, energy derivative =  2 :    11.71994641    
