    -33697.6175231    
    -33692.7774422    
    -33679.0819035    
    -33573.2693849    
    -33494.0888883    
    -33460.4799661    
    -33447.0811229    
    -33447.3395744    
    -33447.3239028    
    -33447.3473350    
    -33447.3495581    
    -33447.3481870    
    -33447.3467618    
    -33447.3462586    
    -33447.3465677    
    -33447.3463321    
    -33447.3461787    
    -33447.3461489    
    -33447.3460117    
    -33447.3460848    
    -33447.3460882    
    -33447.3460947    
    -33447.3461165    
    -33447.3461187    
    -33447.3461207    
    -33447.3461196    
    -33447.3461251    
    -33447.3461244    
    -33447.3461268    
    -33447.3461272    
    -33447.3461278    
    -33447.3461283    
    -33447.3461387    
    -33447.3461396    
    -33447.3461295    
    -33447.3461391    
    -33447.3461393    
    -33447.3461401    
    -33447.3461405    
    -33447.3461403    
    -33447.3461403    
    -33447.3461409    
