    0.127628774828E-03
    0.316888942227E-03
    0.530191378450E-04
    0.101009297012E-03
    0.148406720690E-03
    0.167862368714E-03
    0.141002977046E-03
    0.162773134942E-03
    0.149490687445E-03
    0.142042031403E-03
    0.138195389316E-03
    0.136381229401E-03
    0.135584612897E-03
    0.135280672094E-03
    0.135164039013E-03
    0.135148211791E-03
    0.135132057623E-03
    0.135146392226E-03
    0.135142829733E-03
    0.135140189440E-03
    0.135138214662E-03
    0.135136830594E-03
    0.135135996243E-03
    0.135135516998E-03
    0.135135217568E-03
    0.135135092487E-03
    0.135135059451E-03
    0.135135111658E-03
    0.135135149585E-03
    0.135135163093E-03
    0.135135177016E-03
    0.135135182970E-03
    0.135135183917E-03
    0.135135185736E-03
    0.135135188934E-03
