 
+----------------------------+
| Real-space lattice vectors |
+----------------------------+
 
vector a1 :    3.699014503       3.699014503       0.000000000    
vector a2 :    3.699014503       0.000000000       3.699014503    
vector a3 :    0.000000000       3.699014503       3.699014503    
 
Stored column-wise as a matrix :
   3.699014503       3.699014503       0.000000000    
   3.699014503       0.000000000       3.699014503    
   0.000000000       3.699014503       3.699014503    
 
Inverse of matrix :
  0.1351711380      0.1351711380     -0.1351711380    
  0.1351711380     -0.1351711380      0.1351711380    
 -0.1351711380      0.1351711380      0.1351711380    
 
Unit cell volume :    101.2250728    
 
 
+----------------------------------+
| Reciprocal-space lattice vectors |
+----------------------------------+
 
vector b1 :   0.8493053085      0.8493053085     -0.8493053085    
vector b2 :   0.8493053085     -0.8493053085      0.8493053085    
vector b3 :  -0.8493053085      0.8493053085      0.8493053085    
 
Stored column-wise as a matrix :
  0.8493053085      0.8493053085     -0.8493053085    
  0.8493053085     -0.8493053085      0.8493053085    
 -0.8493053085      0.8493053085      0.8493053085    
 
Inverse of matrix :
  0.5887164427      0.5887164427       0.000000000    
  0.5887164427       0.000000000      0.5887164427    
   0.000000000      0.5887164427      0.5887164427    
 
Brillouin zone volume :    2.450481946    
