  0.3263562623E-02
  0.1265392423E-01
  0.7994107804E-01
  0.5185930183E-01
  0.2205064468E-01
  0.8216365188E-02
  0.1061598039E-02
  0.2293748867E-03
  0.2045354213E-03
  0.9104323362E-04
  0.1972331029E-04
  0.9837067410E-06
  0.1543118742E-05
  0.2733752808E-05
  0.1918186172E-05
  0.1063950276E-04
  0.3317153642E-05
  0.8286740922E-05
  0.6883219612E-05
  0.3734962775E-05
  0.5760313798E-05
  0.7083363016E-06
  0.1952572347E-05
  0.5413194231E-06
  0.6712689355E-06
  0.4916637408E-06
  0.1001113560E-05
  0.2880733518E-07
  0.1555690687E-06
  0.1694943421E-06
  0.1186472218E-06
  0.3080367605E-07
  0.1809239620E-06
  0.1066136974E-06
  0.3787581591E-06
  0.3809873306E-08
