   297 : nkpt; k-point, vkl, wkpt, nmat below
     1   0.000000000       0.000000000       0.000000000      0.2035416243E-03     531
     2  0.5882352941E-01   0.000000000       0.000000000      0.1221249746E-02     533
     3  0.1176470588       0.000000000       0.000000000      0.1221249746E-02     536
     4  0.1764705882       0.000000000       0.000000000      0.1221249746E-02     544
     5  0.2352941176       0.000000000       0.000000000      0.1221249746E-02     540
     6  0.2941176471       0.000000000       0.000000000      0.1221249746E-02     536
     7  0.3529411765       0.000000000       0.000000000      0.1221249746E-02     536
     8  0.4117647059       0.000000000       0.000000000      0.1221249746E-02     532
     9  0.4705882353       0.000000000       0.000000000      0.1221249746E-02     528
    10  0.5882352941E-01  0.5882352941E-01   0.000000000      0.1221249746E-02     533
    11  0.1176470588      0.5882352941E-01   0.000000000      0.2442499491E-02     537
    12  0.1764705882      0.5882352941E-01   0.000000000      0.2442499491E-02     539
    13  0.2352941176      0.5882352941E-01   0.000000000      0.2442499491E-02     540
    14  0.2941176471      0.5882352941E-01   0.000000000      0.2442499491E-02     534
    15  0.3529411765      0.5882352941E-01   0.000000000      0.2442499491E-02     532
    16  0.4117647059      0.5882352941E-01   0.000000000      0.2442499491E-02     528
    17  0.4705882353      0.5882352941E-01   0.000000000      0.1221249746E-02     534
    18  0.1176470588      0.1176470588       0.000000000      0.1221249746E-02     541
    19  0.1764705882      0.1176470588       0.000000000      0.2442499491E-02     541
    20  0.2352941176      0.1176470588       0.000000000      0.2442499491E-02     538
    21  0.2941176471      0.1176470588       0.000000000      0.2442499491E-02     534
    22  0.3529411765      0.1176470588       0.000000000      0.2442499491E-02     529
    23  0.4117647059      0.1176470588       0.000000000      0.2442499491E-02     527
    24  0.1764705882      0.1764705882       0.000000000      0.1221249746E-02     535
    25  0.2352941176      0.1764705882       0.000000000      0.2442499491E-02     535
    26  0.2941176471      0.1764705882       0.000000000      0.2442499491E-02     529
    27  0.3529411765      0.1764705882       0.000000000      0.2442499491E-02     527
    28  0.4117647059      0.1764705882       0.000000000      0.1221249746E-02     528
    29  0.2352941176      0.2352941176       0.000000000      0.1221249746E-02     528
    30  0.2941176471      0.2352941176       0.000000000      0.2442499491E-02     528
    31  0.3529411765      0.2352941176       0.000000000      0.2442499491E-02     525
    32  0.2941176471      0.2941176471       0.000000000      0.1221249746E-02     520
    33  0.3529411765      0.2941176471       0.000000000      0.1221249746E-02     520
    34   0.000000000       0.000000000      0.5882352941E-01  0.4070832485E-03     543
    35  0.5882352941E-01   0.000000000      0.5882352941E-01  0.2442499491E-02     536
    36  0.1176470588       0.000000000      0.5882352941E-01  0.2442499491E-02     535
    37  0.1764705882       0.000000000      0.5882352941E-01  0.2442499491E-02     540
    38  0.2352941176       0.000000000      0.5882352941E-01  0.2442499491E-02     538
    39  0.2941176471       0.000000000      0.5882352941E-01  0.2442499491E-02     532
    40  0.3529411765       0.000000000      0.5882352941E-01  0.2442499491E-02     532
    41  0.4117647059       0.000000000      0.5882352941E-01  0.2442499491E-02     530
    42  0.4705882353       0.000000000      0.5882352941E-01  0.2442499491E-02     529
    43  0.5882352941E-01  0.5882352941E-01  0.5882352941E-01  0.2442499491E-02     537
    44  0.1176470588      0.5882352941E-01  0.5882352941E-01  0.4884998982E-02     538
    45  0.1764705882      0.5882352941E-01  0.5882352941E-01  0.4884998982E-02     539
    46  0.2352941176      0.5882352941E-01  0.5882352941E-01  0.4884998982E-02     536
    47  0.2941176471      0.5882352941E-01  0.5882352941E-01  0.4884998982E-02     534
    48  0.3529411765      0.5882352941E-01  0.5882352941E-01  0.4884998982E-02     531
    49  0.4117647059      0.5882352941E-01  0.5882352941E-01  0.4884998982E-02     530
    50  0.4705882353      0.5882352941E-01  0.5882352941E-01  0.2442499491E-02     528
    51  0.1176470588      0.1176470588      0.5882352941E-01  0.2442499491E-02     545
    52  0.1764705882      0.1176470588      0.5882352941E-01  0.4884998982E-02     539
    53  0.2352941176      0.1176470588      0.5882352941E-01  0.4884998982E-02     536
    54  0.2941176471      0.1176470588      0.5882352941E-01  0.4884998982E-02     533
    55  0.3529411765      0.1176470588      0.5882352941E-01  0.4884998982E-02     530
    56  0.4117647059      0.1176470588      0.5882352941E-01  0.4884998982E-02     529
    57  0.1764705882      0.1764705882      0.5882352941E-01  0.2442499491E-02     539
    58  0.2352941176      0.1764705882      0.5882352941E-01  0.4884998982E-02     535
    59  0.2941176471      0.1764705882      0.5882352941E-01  0.4884998982E-02     530
    60  0.3529411765      0.1764705882      0.5882352941E-01  0.4884998982E-02     527
    61  0.4117647059      0.1764705882      0.5882352941E-01  0.2442499491E-02     527
    62  0.2352941176      0.2352941176      0.5882352941E-01  0.2442499491E-02     528
    63  0.2941176471      0.2352941176      0.5882352941E-01  0.4884998982E-02     529
    64  0.3529411765      0.2352941176      0.5882352941E-01  0.4884998982E-02     526
    65  0.2941176471      0.2941176471      0.5882352941E-01  0.2442499491E-02     526
    66  0.3529411765      0.2941176471      0.5882352941E-01  0.2442499491E-02     523
    67   0.000000000       0.000000000      0.1176470588      0.4070832485E-03     543
    68  0.5882352941E-01   0.000000000      0.1176470588      0.2442499491E-02     537
    69  0.1176470588       0.000000000      0.1176470588      0.2442499491E-02     540
    70  0.1764705882       0.000000000      0.1176470588      0.2442499491E-02     534
    71  0.2352941176       0.000000000      0.1176470588      0.2442499491E-02     537
    72  0.2941176471       0.000000000      0.1176470588      0.2442499491E-02     534
    73  0.3529411765       0.000000000      0.1176470588      0.2442499491E-02     534
    74  0.4117647059       0.000000000      0.1176470588      0.2442499491E-02     528
    75  0.4705882353       0.000000000      0.1176470588      0.2442499491E-02     529
    76  0.5882352941E-01  0.5882352941E-01  0.1176470588      0.2442499491E-02     539
    77  0.1176470588      0.5882352941E-01  0.1176470588      0.4884998982E-02     538
    78  0.1764705882      0.5882352941E-01  0.1176470588      0.4884998982E-02     540
    79  0.2352941176      0.5882352941E-01  0.1176470588      0.4884998982E-02     533
    80  0.2941176471      0.5882352941E-01  0.1176470588      0.4884998982E-02     536
    81  0.3529411765      0.5882352941E-01  0.1176470588      0.4884998982E-02     533
    82  0.4117647059      0.5882352941E-01  0.1176470588      0.4884998982E-02     530
    83  0.4705882353      0.5882352941E-01  0.1176470588      0.2442499491E-02     527
    84  0.1176470588      0.1176470588      0.1176470588      0.2442499491E-02     538
    85  0.1764705882      0.1176470588      0.1176470588      0.4884998982E-02     539
    86  0.2352941176      0.1176470588      0.1176470588      0.4884998982E-02     534
    87  0.2941176471      0.1176470588      0.1176470588      0.4884998982E-02     533
    88  0.3529411765      0.1176470588      0.1176470588      0.4884998982E-02     528
    89  0.4117647059      0.1176470588      0.1176470588      0.4884998982E-02     527
    90  0.1764705882      0.1764705882      0.1176470588      0.2442499491E-02     540
    91  0.2352941176      0.1764705882      0.1176470588      0.4884998982E-02     536
    92  0.2941176471      0.1764705882      0.1176470588      0.4884998982E-02     529
    93  0.3529411765      0.1764705882      0.1176470588      0.4884998982E-02     527
    94  0.4117647059      0.1764705882      0.1176470588      0.2442499491E-02     525
    95  0.2352941176      0.2352941176      0.1176470588      0.2442499491E-02     534
    96  0.2941176471      0.2352941176      0.1176470588      0.4884998982E-02     530
    97  0.3529411765      0.2352941176      0.1176470588      0.4884998982E-02     526
    98  0.2941176471      0.2941176471      0.1176470588      0.2442499491E-02     528
    99  0.3529411765      0.2941176471      0.1176470588      0.2442499491E-02     524
   100   0.000000000       0.000000000      0.1764705882      0.4070832485E-03     537
   101  0.5882352941E-01   0.000000000      0.1764705882      0.2442499491E-02     541
   102  0.1176470588       0.000000000      0.1764705882      0.2442499491E-02     540
   103  0.1764705882       0.000000000      0.1764705882      0.2442499491E-02     535
   104  0.2352941176       0.000000000      0.1764705882      0.2442499491E-02     533
   105  0.2941176471       0.000000000      0.1764705882      0.2442499491E-02     535
   106  0.3529411765       0.000000000      0.1764705882      0.2442499491E-02     535
   107  0.4117647059       0.000000000      0.1764705882      0.2442499491E-02     530
   108  0.4705882353       0.000000000      0.1764705882      0.2442499491E-02     528
   109  0.5882352941E-01  0.5882352941E-01  0.1764705882      0.2442499491E-02     539
   110  0.1176470588      0.5882352941E-01  0.1764705882      0.4884998982E-02     539
   111  0.1764705882      0.5882352941E-01  0.1764705882      0.4884998982E-02     539
   112  0.2352941176      0.5882352941E-01  0.1764705882      0.4884998982E-02     537
   113  0.2941176471      0.5882352941E-01  0.1764705882      0.4884998982E-02     534
   114  0.3529411765      0.5882352941E-01  0.1764705882      0.4884998982E-02     533
   115  0.4117647059      0.5882352941E-01  0.1764705882      0.4884998982E-02     529
   116  0.4705882353      0.5882352941E-01  0.1764705882      0.2442499491E-02     527
   117  0.1176470588      0.1176470588      0.1764705882      0.2442499491E-02     542
   118  0.1764705882      0.1176470588      0.1764705882      0.4884998982E-02     536
   119  0.2352941176      0.1176470588      0.1764705882      0.4884998982E-02     534
   120  0.2941176471      0.1176470588      0.1764705882      0.4884998982E-02     532
   121  0.3529411765      0.1176470588      0.1764705882      0.4884998982E-02     529
   122  0.4117647059      0.1176470588      0.1764705882      0.4884998982E-02     524
   123  0.1764705882      0.1764705882      0.1764705882      0.2442499491E-02     536
   124  0.2352941176      0.1764705882      0.1764705882      0.4884998982E-02     534
   125  0.2941176471      0.1764705882      0.1764705882      0.4884998982E-02     529
   126  0.3529411765      0.1764705882      0.1764705882      0.4884998982E-02     527
   127  0.4117647059      0.1764705882      0.1764705882      0.2442499491E-02     524
   128  0.2352941176      0.2352941176      0.1764705882      0.2442499491E-02     530
   129  0.2941176471      0.2352941176      0.1764705882      0.4884998982E-02     528
   130  0.3529411765      0.2352941176      0.1764705882      0.4884998982E-02     526
   131  0.2941176471      0.2941176471      0.1764705882      0.2442499491E-02     527
   132  0.3529411765      0.2941176471      0.1764705882      0.2442499491E-02     527
   133   0.000000000       0.000000000      0.2352941176      0.4070832485E-03     537
   134  0.5882352941E-01   0.000000000      0.2352941176      0.2442499491E-02     543
   135  0.1176470588       0.000000000      0.2352941176      0.2442499491E-02     539
   136  0.1764705882       0.000000000      0.2352941176      0.2442499491E-02     534
   137  0.2352941176       0.000000000      0.2352941176      0.2442499491E-02     538
   138  0.2941176471       0.000000000      0.2352941176      0.2442499491E-02     536
   139  0.3529411765       0.000000000      0.2352941176      0.2442499491E-02     534
   140  0.4117647059       0.000000000      0.2352941176      0.2442499491E-02     533
   141  0.4705882353       0.000000000      0.2352941176      0.2442499491E-02     528
   142  0.5882352941E-01  0.5882352941E-01  0.2352941176      0.2442499491E-02     540
   143  0.1176470588      0.5882352941E-01  0.2352941176      0.4884998982E-02     538
   144  0.1764705882      0.5882352941E-01  0.2352941176      0.4884998982E-02     536
   145  0.2352941176      0.5882352941E-01  0.2352941176      0.4884998982E-02     537
   146  0.2941176471      0.5882352941E-01  0.2352941176      0.4884998982E-02     534
   147  0.3529411765      0.5882352941E-01  0.2352941176      0.4884998982E-02     531
   148  0.4117647059      0.5882352941E-01  0.2352941176      0.4884998982E-02     526
   149  0.4705882353      0.5882352941E-01  0.2352941176      0.2442499491E-02     523
   150  0.1176470588      0.1176470588      0.2352941176      0.2442499491E-02     534
   151  0.1764705882      0.1176470588      0.2352941176      0.4884998982E-02     539
   152  0.2352941176      0.1176470588      0.2352941176      0.4884998982E-02     534
   153  0.2941176471      0.1176470588      0.2352941176      0.4884998982E-02     532
   154  0.3529411765      0.1176470588      0.2352941176      0.4884998982E-02     528
   155  0.4117647059      0.1176470588      0.2352941176      0.4884998982E-02     526
   156  0.1764705882      0.1764705882      0.2352941176      0.2442499491E-02     538
   157  0.2352941176      0.1764705882      0.2352941176      0.4884998982E-02     531
   158  0.2941176471      0.1764705882      0.2352941176      0.4884998982E-02     531
   159  0.3529411765      0.1764705882      0.2352941176      0.4884998982E-02     525
   160  0.4117647059      0.1764705882      0.2352941176      0.2442499491E-02     525
   161  0.2352941176      0.2352941176      0.2352941176      0.2442499491E-02     530
   162  0.2941176471      0.2352941176      0.2352941176      0.4884998982E-02     529
   163  0.3529411765      0.2352941176      0.2352941176      0.4884998982E-02     527
   164  0.2941176471      0.2941176471      0.2352941176      0.2442499491E-02     526
   165  0.3529411765      0.2941176471      0.2352941176      0.2442499491E-02     527
   166   0.000000000       0.000000000      0.2941176471      0.4070832485E-03     536
   167  0.5882352941E-01   0.000000000      0.2941176471      0.2442499491E-02     542
   168  0.1176470588       0.000000000      0.2941176471      0.2442499491E-02     540
   169  0.1764705882       0.000000000      0.2941176471      0.2442499491E-02     534
   170  0.2352941176       0.000000000      0.2941176471      0.2442499491E-02     537
   171  0.2941176471       0.000000000      0.2941176471      0.2442499491E-02     537
   172  0.3529411765       0.000000000      0.2941176471      0.2442499491E-02     533
   173  0.4117647059       0.000000000      0.2941176471      0.2442499491E-02     530
   174  0.4705882353       0.000000000      0.2941176471      0.2442499491E-02     526
   175  0.5882352941E-01  0.5882352941E-01  0.2941176471      0.2442499491E-02     537
   176  0.1176470588      0.5882352941E-01  0.2941176471      0.4884998982E-02     537
   177  0.1764705882      0.5882352941E-01  0.2941176471      0.4884998982E-02     533
   178  0.2352941176      0.5882352941E-01  0.2941176471      0.4884998982E-02     533
   179  0.2941176471      0.5882352941E-01  0.2941176471      0.4884998982E-02     533
   180  0.3529411765      0.5882352941E-01  0.2941176471      0.4884998982E-02     530
   181  0.4117647059      0.5882352941E-01  0.2941176471      0.4884998982E-02     529
   182  0.4705882353      0.5882352941E-01  0.2941176471      0.2442499491E-02     527
   183  0.1176470588      0.1176470588      0.2941176471      0.2442499491E-02     535
   184  0.1764705882      0.1176470588      0.2941176471      0.4884998982E-02     534
   185  0.2352941176      0.1176470588      0.2941176471      0.4884998982E-02     533
   186  0.2941176471      0.1176470588      0.2941176471      0.4884998982E-02     532
   187  0.3529411765      0.1176470588      0.2941176471      0.4884998982E-02     529
   188  0.4117647059      0.1176470588      0.2941176471      0.4884998982E-02     528
   189  0.1764705882      0.1764705882      0.2941176471      0.2442499491E-02     537
   190  0.2352941176      0.1764705882      0.2941176471      0.4884998982E-02     532
   191  0.2941176471      0.1764705882      0.2941176471      0.4884998982E-02     534
   192  0.3529411765      0.1764705882      0.2941176471      0.4884998982E-02     527
   193  0.4117647059      0.1764705882      0.2941176471      0.2442499491E-02     525
   194  0.2352941176      0.2352941176      0.2941176471      0.2442499491E-02     531
   195  0.2941176471      0.2352941176      0.2941176471      0.4884998982E-02     528
   196  0.3529411765      0.2352941176      0.2941176471      0.4884998982E-02     529
   197  0.2941176471      0.2941176471      0.2941176471      0.2442499491E-02     530
   198  0.3529411765      0.2941176471      0.2941176471      0.2442499491E-02     529
   199   0.000000000       0.000000000      0.3529411765      0.4070832485E-03     542
   200  0.5882352941E-01   0.000000000      0.3529411765      0.2442499491E-02     538
   201  0.1176470588       0.000000000      0.3529411765      0.2442499491E-02     536
   202  0.1764705882       0.000000000      0.3529411765      0.2442499491E-02     534
   203  0.2352941176       0.000000000      0.3529411765      0.2442499491E-02     533
   204  0.2941176471       0.000000000      0.3529411765      0.2442499491E-02     533
   205  0.3529411765       0.000000000      0.3529411765      0.2442499491E-02     534
   206  0.4117647059       0.000000000      0.3529411765      0.2442499491E-02     531
   207  0.4705882353       0.000000000      0.3529411765      0.2442499491E-02     528
   208  0.5882352941E-01  0.5882352941E-01  0.3529411765      0.2442499491E-02     539
   209  0.1176470588      0.5882352941E-01  0.3529411765      0.4884998982E-02     536
   210  0.1764705882      0.5882352941E-01  0.3529411765      0.4884998982E-02     535
   211  0.2352941176      0.5882352941E-01  0.3529411765      0.4884998982E-02     532
   212  0.2941176471      0.5882352941E-01  0.3529411765      0.4884998982E-02     534
   213  0.3529411765      0.5882352941E-01  0.3529411765      0.4884998982E-02     532
   214  0.4117647059      0.5882352941E-01  0.3529411765      0.4884998982E-02     529
   215  0.4705882353      0.5882352941E-01  0.3529411765      0.2442499491E-02     528
   216  0.1176470588      0.1176470588      0.3529411765      0.2442499491E-02     535
   217  0.1764705882      0.1176470588      0.3529411765      0.4884998982E-02     533
   218  0.2352941176      0.1176470588      0.3529411765      0.4884998982E-02     534
   219  0.2941176471      0.1176470588      0.3529411765      0.4884998982E-02     534
   220  0.3529411765      0.1176470588      0.3529411765      0.4884998982E-02     531
   221  0.4117647059      0.1176470588      0.3529411765      0.4884998982E-02     529
   222  0.1764705882      0.1764705882      0.3529411765      0.2442499491E-02     534
   223  0.2352941176      0.1764705882      0.3529411765      0.4884998982E-02     533
   224  0.2941176471      0.1764705882      0.3529411765      0.4884998982E-02     533
   225  0.3529411765      0.1764705882      0.3529411765      0.4884998982E-02     529
   226  0.4117647059      0.1764705882      0.3529411765      0.2442499491E-02     528
   227  0.2352941176      0.2352941176      0.3529411765      0.2442499491E-02     535
   228  0.2941176471      0.2352941176      0.3529411765      0.4884998982E-02     531
   229  0.3529411765      0.2352941176      0.3529411765      0.4884998982E-02     528
   230  0.2941176471      0.2941176471      0.3529411765      0.2442499491E-02     530
   231  0.3529411765      0.2941176471      0.3529411765      0.2442499491E-02     529
   232   0.000000000       0.000000000      0.4117647059      0.4070832485E-03     542
   233  0.5882352941E-01   0.000000000      0.4117647059      0.2442499491E-02     538
   234  0.1176470588       0.000000000      0.4117647059      0.2442499491E-02     536
   235  0.1764705882       0.000000000      0.4117647059      0.2442499491E-02     534
   236  0.2352941176       0.000000000      0.4117647059      0.2442499491E-02     534
   237  0.2941176471       0.000000000      0.4117647059      0.2442499491E-02     536
   238  0.3529411765       0.000000000      0.4117647059      0.2442499491E-02     533
   239  0.4117647059       0.000000000      0.4117647059      0.2442499491E-02     529
   240  0.4705882353       0.000000000      0.4117647059      0.2442499491E-02     527
   241  0.5882352941E-01  0.5882352941E-01  0.4117647059      0.2442499491E-02     535
   242  0.1176470588      0.5882352941E-01  0.4117647059      0.4884998982E-02     536
   243  0.1764705882      0.5882352941E-01  0.4117647059      0.4884998982E-02     533
   244  0.2352941176      0.5882352941E-01  0.4117647059      0.4884998982E-02     534
   245  0.2941176471      0.5882352941E-01  0.4117647059      0.4884998982E-02     533
   246  0.3529411765      0.5882352941E-01  0.4117647059      0.4884998982E-02     532
   247  0.4117647059      0.5882352941E-01  0.4117647059      0.4884998982E-02     530
   248  0.4705882353      0.5882352941E-01  0.4117647059      0.2442499491E-02     528
   249  0.1176470588      0.1176470588      0.4117647059      0.2442499491E-02     535
   250  0.1764705882      0.1176470588      0.4117647059      0.4884998982E-02     535
   251  0.2352941176      0.1176470588      0.4117647059      0.4884998982E-02     533
   252  0.2941176471      0.1176470588      0.4117647059      0.4884998982E-02     532
   253  0.3529411765      0.1176470588      0.4117647059      0.4884998982E-02     533
   254  0.4117647059      0.1176470588      0.4117647059      0.4884998982E-02     528
   255  0.1764705882      0.1764705882      0.4117647059      0.2442499491E-02     530
   256  0.2352941176      0.1764705882      0.4117647059      0.4884998982E-02     532
   257  0.2941176471      0.1764705882      0.4117647059      0.4884998982E-02     530
   258  0.3529411765      0.1764705882      0.4117647059      0.4884998982E-02     532
   259  0.4117647059      0.1764705882      0.4117647059      0.2442499491E-02     532
   260  0.2352941176      0.2352941176      0.4117647059      0.2442499491E-02     537
   261  0.2941176471      0.2352941176      0.4117647059      0.4884998982E-02     529
   262  0.3529411765      0.2352941176      0.4117647059      0.4884998982E-02     531
   263  0.2941176471      0.2941176471      0.4117647059      0.2442499491E-02     531
   264  0.3529411765      0.2941176471      0.4117647059      0.2442499491E-02     530
   265   0.000000000       0.000000000      0.4705882353      0.4070832485E-03     542
   266  0.5882352941E-01   0.000000000      0.4705882353      0.2442499491E-02     540
   267  0.1176470588       0.000000000      0.4705882353      0.2442499491E-02     534
   268  0.1764705882       0.000000000      0.4705882353      0.2442499491E-02     536
   269  0.2352941176       0.000000000      0.4705882353      0.2442499491E-02     536
   270  0.2941176471       0.000000000      0.4705882353      0.2442499491E-02     534
   271  0.3529411765       0.000000000      0.4705882353      0.2442499491E-02     530
   272  0.4117647059       0.000000000      0.4705882353      0.2442499491E-02     531
   273  0.4705882353       0.000000000      0.4705882353      0.2442499491E-02     528
   274  0.5882352941E-01  0.5882352941E-01  0.4705882353      0.2442499491E-02     534
   275  0.1176470588      0.5882352941E-01  0.4705882353      0.4884998982E-02     533
   276  0.1764705882      0.5882352941E-01  0.4705882353      0.4884998982E-02     534
   277  0.2352941176      0.5882352941E-01  0.4705882353      0.4884998982E-02     536
   278  0.2941176471      0.5882352941E-01  0.4705882353      0.4884998982E-02     534
   279  0.3529411765      0.5882352941E-01  0.4705882353      0.4884998982E-02     533
   280  0.4117647059      0.5882352941E-01  0.4705882353      0.4884998982E-02     530
   281  0.4705882353      0.5882352941E-01  0.4705882353      0.2442499491E-02     528
   282  0.1176470588      0.1176470588      0.4705882353      0.2442499491E-02     532
   283  0.1764705882      0.1176470588      0.4705882353      0.4884998982E-02     534
   284  0.2352941176      0.1176470588      0.4705882353      0.4884998982E-02     531
   285  0.2941176471      0.1176470588      0.4705882353      0.4884998982E-02     531
   286  0.3529411765      0.1176470588      0.4705882353      0.4884998982E-02     532
   287  0.4117647059      0.1176470588      0.4705882353      0.4884998982E-02     530
   288  0.1764705882      0.1764705882      0.4705882353      0.2442499491E-02     532
   289  0.2352941176      0.1764705882      0.4705882353      0.4884998982E-02     532
   290  0.2941176471      0.1764705882      0.4705882353      0.4884998982E-02     532
   291  0.3529411765      0.1764705882      0.4705882353      0.4884998982E-02     531
   292  0.4117647059      0.1764705882      0.4705882353      0.2442499491E-02     530
   293  0.2352941176      0.2352941176      0.4705882353      0.2442499491E-02     536
   294  0.2941176471      0.2352941176      0.4705882353      0.4884998982E-02     529
   295  0.3529411765      0.2352941176      0.4705882353      0.4884998982E-02     531
   296  0.2941176471      0.2941176471      0.4705882353      0.2442499491E-02     532
   297  0.3529411765      0.2941176471      0.4705882353      0.2442499491E-02     532
