 
Distance between is =    1 (Tc), ia =    1 and
 is =    1 (Tc), ia =    1 :    0.000000000    
 is =    1 (Tc), ia =    2 :    4.943211530    
 
Distance between is =    1 (Tc), ia =    2 and
 is =    1 (Tc), ia =    1 :    4.943211530    
 is =    1 (Tc), ia =    2 :    0.000000000    
