    0.169370680212E-02
    0.150101824563E-02
    0.617611128549E-03
    0.288257813405E-02
    0.275757463485E-02
    0.244329879391E-02
    0.229211494271E-02
    0.217679325184E-02
    0.216328250591E-02
    0.215727237417E-02
    0.219431527702E-02
    0.217679370077E-02
    0.224212783506E-02
    0.215882517831E-02
    0.220389539048E-02
    0.221183851931E-02
    0.221083217559E-02
    0.221045628882E-02
    0.220995496573E-02
    0.220995435864E-02
    0.220995737598E-02
    0.221005670262E-02
    0.221005043855E-02
    0.221013119907E-02
    0.221005352628E-02
    0.221015927107E-02
    0.221009134116E-02
    0.221010214809E-02
    0.221010608096E-02
    0.221010755677E-02
    0.221010862679E-02
    0.221010934775E-02
    0.221010970881E-02
    0.221010983118E-02
    0.221010983877E-02
    0.221010981055E-02
    0.221010970459E-02
    0.221010975169E-02
    0.221010962733E-02
    0.221010971441E-02
    0.221010966453E-02
    0.221010966662E-02
    0.221010966987E-02
