   297 : nkpt; k-point, vkl, wkpt, nmat below
     1   0.000000000       0.000000000       0.000000000      0.2035416243E-03     539
     2  0.5882352941E-01   0.000000000       0.000000000      0.1221249746E-02     531
     3  0.1176470588       0.000000000       0.000000000      0.1221249746E-02     527
     4  0.1764705882       0.000000000       0.000000000      0.1221249746E-02     526
     5  0.2352941176       0.000000000       0.000000000      0.1221249746E-02     528
     6  0.2941176471       0.000000000       0.000000000      0.1221249746E-02     526
     7  0.3529411765       0.000000000       0.000000000      0.1221249746E-02     524
     8  0.4117647059       0.000000000       0.000000000      0.1221249746E-02     522
     9  0.4705882353       0.000000000       0.000000000      0.1221249746E-02     524
    10  0.5882352941E-01  0.5882352941E-01   0.000000000      0.1221249746E-02     527
    11  0.1176470588      0.5882352941E-01   0.000000000      0.2442499491E-02     526
    12  0.1764705882      0.5882352941E-01   0.000000000      0.2442499491E-02     529
    13  0.2352941176      0.5882352941E-01   0.000000000      0.2442499491E-02     529
    14  0.2941176471      0.5882352941E-01   0.000000000      0.2442499491E-02     522
    15  0.3529411765      0.5882352941E-01   0.000000000      0.2442499491E-02     521
    16  0.4117647059      0.5882352941E-01   0.000000000      0.2442499491E-02     526
    17  0.4705882353      0.5882352941E-01   0.000000000      0.1221249746E-02     528
    18  0.1176470588      0.1176470588       0.000000000      0.1221249746E-02     527
    19  0.1764705882      0.1176470588       0.000000000      0.2442499491E-02     527
    20  0.2352941176      0.1176470588       0.000000000      0.2442499491E-02     523
    21  0.2941176471      0.1176470588       0.000000000      0.2442499491E-02     520
    22  0.3529411765      0.1176470588       0.000000000      0.2442499491E-02     525
    23  0.4117647059      0.1176470588       0.000000000      0.2442499491E-02     522
    24  0.1764705882      0.1764705882       0.000000000      0.1221249746E-02     519
    25  0.2352941176      0.1764705882       0.000000000      0.2442499491E-02     522
    26  0.2941176471      0.1764705882       0.000000000      0.2442499491E-02     524
    27  0.3529411765      0.1764705882       0.000000000      0.2442499491E-02     525
    28  0.4117647059      0.1764705882       0.000000000      0.1221249746E-02     524
    29  0.2352941176      0.2352941176       0.000000000      0.1221249746E-02     534
    30  0.2941176471      0.2352941176       0.000000000      0.2442499491E-02     524
    31  0.3529411765      0.2352941176       0.000000000      0.2442499491E-02     523
    32  0.2941176471      0.2941176471       0.000000000      0.1221249746E-02     526
    33  0.3529411765      0.2941176471       0.000000000      0.1221249746E-02     530
    34   0.000000000       0.000000000      0.5882352941E-01  0.4070832485E-03     539
    35  0.5882352941E-01   0.000000000      0.5882352941E-01  0.2442499491E-02     529
    36  0.1176470588       0.000000000      0.5882352941E-01  0.2442499491E-02     529
    37  0.1764705882       0.000000000      0.5882352941E-01  0.2442499491E-02     530
    38  0.2352941176       0.000000000      0.5882352941E-01  0.2442499491E-02     525
    39  0.2941176471       0.000000000      0.5882352941E-01  0.2442499491E-02     524
    40  0.3529411765       0.000000000      0.5882352941E-01  0.2442499491E-02     522
    41  0.4117647059       0.000000000      0.5882352941E-01  0.2442499491E-02     523
    42  0.4705882353       0.000000000      0.5882352941E-01  0.2442499491E-02     525
    43  0.5882352941E-01  0.5882352941E-01  0.5882352941E-01  0.2442499491E-02     529
    44  0.1176470588      0.5882352941E-01  0.5882352941E-01  0.4884998982E-02     528
    45  0.1764705882      0.5882352941E-01  0.5882352941E-01  0.4884998982E-02     528
    46  0.2352941176      0.5882352941E-01  0.5882352941E-01  0.4884998982E-02     526
    47  0.2941176471      0.5882352941E-01  0.5882352941E-01  0.4884998982E-02     523
    48  0.3529411765      0.5882352941E-01  0.5882352941E-01  0.4884998982E-02     523
    49  0.4117647059      0.5882352941E-01  0.5882352941E-01  0.4884998982E-02     524
    50  0.4705882353      0.5882352941E-01  0.5882352941E-01  0.2442499491E-02     524
    51  0.1176470588      0.1176470588      0.5882352941E-01  0.2442499491E-02     526
    52  0.1764705882      0.1176470588      0.5882352941E-01  0.4884998982E-02     527
    53  0.2352941176      0.1176470588      0.5882352941E-01  0.4884998982E-02     521
    54  0.2941176471      0.1176470588      0.5882352941E-01  0.4884998982E-02     523
    55  0.3529411765      0.1176470588      0.5882352941E-01  0.4884998982E-02     526
    56  0.4117647059      0.1176470588      0.5882352941E-01  0.4884998982E-02     521
    57  0.1764705882      0.1764705882      0.5882352941E-01  0.2442499491E-02     523
    58  0.2352941176      0.1764705882      0.5882352941E-01  0.4884998982E-02     523
    59  0.2941176471      0.1764705882      0.5882352941E-01  0.4884998982E-02     524
    60  0.3529411765      0.1764705882      0.5882352941E-01  0.4884998982E-02     523
    61  0.4117647059      0.1764705882      0.5882352941E-01  0.2442499491E-02     520
    62  0.2352941176      0.2352941176      0.5882352941E-01  0.2442499491E-02     526
    63  0.2941176471      0.2352941176      0.5882352941E-01  0.4884998982E-02     525
    64  0.3529411765      0.2352941176      0.5882352941E-01  0.4884998982E-02     523
    65  0.2941176471      0.2941176471      0.5882352941E-01  0.2442499491E-02     525
    66  0.3529411765      0.2941176471      0.5882352941E-01  0.2442499491E-02     526
    67   0.000000000       0.000000000      0.1176470588      0.4070832485E-03     527
    68  0.5882352941E-01   0.000000000      0.1176470588      0.2442499491E-02     532
    69  0.1176470588       0.000000000      0.1176470588      0.2442499491E-02     533
    70  0.1764705882       0.000000000      0.1176470588      0.2442499491E-02     528
    71  0.2352941176       0.000000000      0.1176470588      0.2442499491E-02     527
    72  0.2941176471       0.000000000      0.1176470588      0.2442499491E-02     524
    73  0.3529411765       0.000000000      0.1176470588      0.2442499491E-02     520
    74  0.4117647059       0.000000000      0.1176470588      0.2442499491E-02     523
    75  0.4705882353       0.000000000      0.1176470588      0.2442499491E-02     522
    76  0.5882352941E-01  0.5882352941E-01  0.1176470588      0.2442499491E-02     528
    77  0.1176470588      0.5882352941E-01  0.1176470588      0.4884998982E-02     529
    78  0.1764705882      0.5882352941E-01  0.1176470588      0.4884998982E-02     526
    79  0.2352941176      0.5882352941E-01  0.1176470588      0.4884998982E-02     524
    80  0.2941176471      0.5882352941E-01  0.1176470588      0.4884998982E-02     521
    81  0.3529411765      0.5882352941E-01  0.1176470588      0.4884998982E-02     524
    82  0.4117647059      0.5882352941E-01  0.1176470588      0.4884998982E-02     524
    83  0.4705882353      0.5882352941E-01  0.1176470588      0.2442499491E-02     519
    84  0.1176470588      0.1176470588      0.1176470588      0.2442499491E-02     528
    85  0.1764705882      0.1176470588      0.1176470588      0.4884998982E-02     526
    86  0.2352941176      0.1176470588      0.1176470588      0.4884998982E-02     523
    87  0.2941176471      0.1176470588      0.1176470588      0.4884998982E-02     523
    88  0.3529411765      0.1176470588      0.1176470588      0.4884998982E-02     524
    89  0.4117647059      0.1176470588      0.1176470588      0.4884998982E-02     519
    90  0.1764705882      0.1764705882      0.1176470588      0.2442499491E-02     525
    91  0.2352941176      0.1764705882      0.1176470588      0.4884998982E-02     525
    92  0.2941176471      0.1764705882      0.1176470588      0.4884998982E-02     526
    93  0.3529411765      0.1764705882      0.1176470588      0.4884998982E-02     523
    94  0.4117647059      0.1764705882      0.1176470588      0.2442499491E-02     520
    95  0.2352941176      0.2352941176      0.1176470588      0.2442499491E-02     528
    96  0.2941176471      0.2352941176      0.1176470588      0.4884998982E-02     524
    97  0.3529411765      0.2352941176      0.1176470588      0.4884998982E-02     522
    98  0.2941176471      0.2941176471      0.1176470588      0.2442499491E-02     523
    99  0.3529411765      0.2941176471      0.1176470588      0.2442499491E-02     528
   100   0.000000000       0.000000000      0.1764705882      0.4070832485E-03     527
   101  0.5882352941E-01   0.000000000      0.1764705882      0.2442499491E-02     533
   102  0.1176470588       0.000000000      0.1764705882      0.2442499491E-02     529
   103  0.1764705882       0.000000000      0.1764705882      0.2442499491E-02     525
   104  0.2352941176       0.000000000      0.1764705882      0.2442499491E-02     525
   105  0.2941176471       0.000000000      0.1764705882      0.2442499491E-02     525
   106  0.3529411765       0.000000000      0.1764705882      0.2442499491E-02     520
   107  0.4117647059       0.000000000      0.1764705882      0.2442499491E-02     522
   108  0.4705882353       0.000000000      0.1764705882      0.2442499491E-02     522
   109  0.5882352941E-01  0.5882352941E-01  0.1764705882      0.2442499491E-02     532
   110  0.1176470588      0.5882352941E-01  0.1764705882      0.4884998982E-02     529
   111  0.1764705882      0.5882352941E-01  0.1764705882      0.4884998982E-02     527
   112  0.2352941176      0.5882352941E-01  0.1764705882      0.4884998982E-02     524
   113  0.2941176471      0.5882352941E-01  0.1764705882      0.4884998982E-02     523
   114  0.3529411765      0.5882352941E-01  0.1764705882      0.4884998982E-02     522
   115  0.4117647059      0.5882352941E-01  0.1764705882      0.4884998982E-02     522
   116  0.4705882353      0.5882352941E-01  0.1764705882      0.2442499491E-02     521
   117  0.1176470588      0.1176470588      0.1764705882      0.2442499491E-02     528
   118  0.1764705882      0.1176470588      0.1764705882      0.4884998982E-02     526
   119  0.2352941176      0.1176470588      0.1764705882      0.4884998982E-02     526
   120  0.2941176471      0.1176470588      0.1764705882      0.4884998982E-02     525
   121  0.3529411765      0.1176470588      0.1764705882      0.4884998982E-02     524
   122  0.4117647059      0.1176470588      0.1764705882      0.4884998982E-02     520
   123  0.1764705882      0.1764705882      0.1764705882      0.2442499491E-02     524
   124  0.2352941176      0.1764705882      0.1764705882      0.4884998982E-02     529
   125  0.2941176471      0.1764705882      0.1764705882      0.4884998982E-02     526
   126  0.3529411765      0.1764705882      0.1764705882      0.4884998982E-02     520
   127  0.4117647059      0.1764705882      0.1764705882      0.2442499491E-02     518
   128  0.2352941176      0.2352941176      0.1764705882      0.2442499491E-02     528
   129  0.2941176471      0.2352941176      0.1764705882      0.4884998982E-02     520
   130  0.3529411765      0.2352941176      0.1764705882      0.4884998982E-02     520
   131  0.2941176471      0.2941176471      0.1764705882      0.2442499491E-02     524
   132  0.3529411765      0.2941176471      0.1764705882      0.2442499491E-02     524
   133   0.000000000       0.000000000      0.2352941176      0.4070832485E-03     534
   134  0.5882352941E-01   0.000000000      0.2352941176      0.2442499491E-02     534
   135  0.1176470588       0.000000000      0.2352941176      0.2442499491E-02     533
   136  0.1764705882       0.000000000      0.2352941176      0.2442499491E-02     530
   137  0.2352941176       0.000000000      0.2352941176      0.2442499491E-02     525
   138  0.2941176471       0.000000000      0.2352941176      0.2442499491E-02     527
   139  0.3529411765       0.000000000      0.2352941176      0.2442499491E-02     522
   140  0.4117647059       0.000000000      0.2352941176      0.2442499491E-02     522
   141  0.4705882353       0.000000000      0.2352941176      0.2442499491E-02     518
   142  0.5882352941E-01  0.5882352941E-01  0.2352941176      0.2442499491E-02     533
   143  0.1176470588      0.5882352941E-01  0.2352941176      0.4884998982E-02     530
   144  0.1764705882      0.5882352941E-01  0.2352941176      0.4884998982E-02     528
   145  0.2352941176      0.5882352941E-01  0.2352941176      0.4884998982E-02     524
   146  0.2941176471      0.5882352941E-01  0.2352941176      0.4884998982E-02     524
   147  0.3529411765      0.5882352941E-01  0.2352941176      0.4884998982E-02     521
   148  0.4117647059      0.5882352941E-01  0.2352941176      0.4884998982E-02     522
   149  0.4705882353      0.5882352941E-01  0.2352941176      0.2442499491E-02     521
   150  0.1176470588      0.1176470588      0.2352941176      0.2442499491E-02     529
   151  0.1764705882      0.1176470588      0.2352941176      0.4884998982E-02     526
   152  0.2352941176      0.1176470588      0.2352941176      0.4884998982E-02     527
   153  0.2941176471      0.1176470588      0.2352941176      0.4884998982E-02     526
   154  0.3529411765      0.1176470588      0.2352941176      0.4884998982E-02     520
   155  0.4117647059      0.1176470588      0.2352941176      0.4884998982E-02     519
   156  0.1764705882      0.1764705882      0.2352941176      0.2442499491E-02     530
   157  0.2352941176      0.1764705882      0.2352941176      0.4884998982E-02     526
   158  0.2941176471      0.1764705882      0.2352941176      0.4884998982E-02     524
   159  0.3529411765      0.1764705882      0.2352941176      0.4884998982E-02     518
   160  0.4117647059      0.1764705882      0.2352941176      0.2442499491E-02     518
   161  0.2352941176      0.2352941176      0.2352941176      0.2442499491E-02     526
   162  0.2941176471      0.2352941176      0.2352941176      0.4884998982E-02     521
   163  0.3529411765      0.2352941176      0.2352941176      0.4884998982E-02     519
   164  0.2941176471      0.2941176471      0.2352941176      0.2442499491E-02     524
   165  0.3529411765      0.2941176471      0.2352941176      0.2442499491E-02     525
   166   0.000000000       0.000000000      0.2941176471      0.4070832485E-03     534
   167  0.5882352941E-01   0.000000000      0.2941176471      0.2442499491E-02     536
   168  0.1176470588       0.000000000      0.2941176471      0.2442499491E-02     534
   169  0.1764705882       0.000000000      0.2941176471      0.2442499491E-02     528
   170  0.2352941176       0.000000000      0.2941176471      0.2442499491E-02     523
   171  0.2941176471       0.000000000      0.2941176471      0.2442499491E-02     525
   172  0.3529411765       0.000000000      0.2941176471      0.2442499491E-02     527
   173  0.4117647059       0.000000000      0.2941176471      0.2442499491E-02     524
   174  0.4705882353       0.000000000      0.2941176471      0.2442499491E-02     521
   175  0.5882352941E-01  0.5882352941E-01  0.2941176471      0.2442499491E-02     535
   176  0.1176470588      0.5882352941E-01  0.2941176471      0.4884998982E-02     528
   177  0.1764705882      0.5882352941E-01  0.2941176471      0.4884998982E-02     530
   178  0.2352941176      0.5882352941E-01  0.2941176471      0.4884998982E-02     527
   179  0.2941176471      0.5882352941E-01  0.2941176471      0.4884998982E-02     526
   180  0.3529411765      0.5882352941E-01  0.2941176471      0.4884998982E-02     522
   181  0.4117647059      0.5882352941E-01  0.2941176471      0.4884998982E-02     522
   182  0.4705882353      0.5882352941E-01  0.2941176471      0.2442499491E-02     521
   183  0.1176470588      0.1176470588      0.2941176471      0.2442499491E-02     527
   184  0.1764705882      0.1176470588      0.2941176471      0.4884998982E-02     529
   185  0.2352941176      0.1176470588      0.2941176471      0.4884998982E-02     528
   186  0.2941176471      0.1176470588      0.2941176471      0.4884998982E-02     527
   187  0.3529411765      0.1176470588      0.2941176471      0.4884998982E-02     521
   188  0.4117647059      0.1176470588      0.2941176471      0.4884998982E-02     518
   189  0.1764705882      0.1764705882      0.2941176471      0.2442499491E-02     529
   190  0.2352941176      0.1764705882      0.2941176471      0.4884998982E-02     525
   191  0.2941176471      0.1764705882      0.2941176471      0.4884998982E-02     525
   192  0.3529411765      0.1764705882      0.2941176471      0.4884998982E-02     520
   193  0.4117647059      0.1764705882      0.2941176471      0.2442499491E-02     517
   194  0.2352941176      0.2352941176      0.2941176471      0.2442499491E-02     524
   195  0.2941176471      0.2352941176      0.2941176471      0.4884998982E-02     523
   196  0.3529411765      0.2352941176      0.2941176471      0.4884998982E-02     518
   197  0.2941176471      0.2941176471      0.2941176471      0.2442499491E-02     519
   198  0.3529411765      0.2941176471      0.2941176471      0.2442499491E-02     523
   199   0.000000000       0.000000000      0.3529411765      0.4070832485E-03     534
   200  0.5882352941E-01   0.000000000      0.3529411765      0.2442499491E-02     535
   201  0.1176470588       0.000000000      0.3529411765      0.2442499491E-02     531
   202  0.1764705882       0.000000000      0.3529411765      0.2442499491E-02     529
   203  0.2352941176       0.000000000      0.3529411765      0.2442499491E-02     523
   204  0.2941176471       0.000000000      0.3529411765      0.2442499491E-02     523
   205  0.3529411765       0.000000000      0.3529411765      0.2442499491E-02     528
   206  0.4117647059       0.000000000      0.3529411765      0.2442499491E-02     524
   207  0.4705882353       0.000000000      0.3529411765      0.2442499491E-02     524
   208  0.5882352941E-01  0.5882352941E-01  0.3529411765      0.2442499491E-02     532
   209  0.1176470588      0.5882352941E-01  0.3529411765      0.4884998982E-02     530
   210  0.1764705882      0.5882352941E-01  0.3529411765      0.4884998982E-02     527
   211  0.2352941176      0.5882352941E-01  0.3529411765      0.4884998982E-02     528
   212  0.2941176471      0.5882352941E-01  0.3529411765      0.4884998982E-02     526
   213  0.3529411765      0.5882352941E-01  0.3529411765      0.4884998982E-02     523
   214  0.4117647059      0.5882352941E-01  0.3529411765      0.4884998982E-02     520
   215  0.4705882353      0.5882352941E-01  0.3529411765      0.2442499491E-02     522
   216  0.1176470588      0.1176470588      0.3529411765      0.2442499491E-02     531
   217  0.1764705882      0.1176470588      0.3529411765      0.4884998982E-02     529
   218  0.2352941176      0.1176470588      0.3529411765      0.4884998982E-02     529
   219  0.2941176471      0.1176470588      0.3529411765      0.4884998982E-02     526
   220  0.3529411765      0.1176470588      0.3529411765      0.4884998982E-02     521
   221  0.4117647059      0.1176470588      0.3529411765      0.4884998982E-02     518
   222  0.1764705882      0.1764705882      0.3529411765      0.2442499491E-02     527
   223  0.2352941176      0.1764705882      0.3529411765      0.4884998982E-02     526
   224  0.2941176471      0.1764705882      0.3529411765      0.4884998982E-02     524
   225  0.3529411765      0.1764705882      0.3529411765      0.4884998982E-02     519
   226  0.4117647059      0.1764705882      0.3529411765      0.2442499491E-02     519
   227  0.2352941176      0.2352941176      0.3529411765      0.2442499491E-02     528
   228  0.2941176471      0.2352941176      0.3529411765      0.4884998982E-02     525
   229  0.3529411765      0.2352941176      0.3529411765      0.4884998982E-02     521
   230  0.2941176471      0.2941176471      0.3529411765      0.2442499491E-02     516
   231  0.3529411765      0.2941176471      0.3529411765      0.2442499491E-02     521
   232   0.000000000       0.000000000      0.4117647059      0.4070832485E-03     540
   233  0.5882352941E-01   0.000000000      0.4117647059      0.2442499491E-02     531
   234  0.1176470588       0.000000000      0.4117647059      0.2442499491E-02     529
   235  0.1764705882       0.000000000      0.4117647059      0.2442499491E-02     532
   236  0.2352941176       0.000000000      0.4117647059      0.2442499491E-02     526
   237  0.2941176471       0.000000000      0.4117647059      0.2442499491E-02     526
   238  0.3529411765       0.000000000      0.4117647059      0.2442499491E-02     524
   239  0.4117647059       0.000000000      0.4117647059      0.2442499491E-02     522
   240  0.4705882353       0.000000000      0.4117647059      0.2442499491E-02     523
   241  0.5882352941E-01  0.5882352941E-01  0.4117647059      0.2442499491E-02     534
   242  0.1176470588      0.5882352941E-01  0.4117647059      0.4884998982E-02     528
   243  0.1764705882      0.5882352941E-01  0.4117647059      0.4884998982E-02     528
   244  0.2352941176      0.5882352941E-01  0.4117647059      0.4884998982E-02     528
   245  0.2941176471      0.5882352941E-01  0.4117647059      0.4884998982E-02     525
   246  0.3529411765      0.5882352941E-01  0.4117647059      0.4884998982E-02     526
   247  0.4117647059      0.5882352941E-01  0.4117647059      0.4884998982E-02     522
   248  0.4705882353      0.5882352941E-01  0.4117647059      0.2442499491E-02     522
   249  0.1176470588      0.1176470588      0.4117647059      0.2442499491E-02     531
   250  0.1764705882      0.1176470588      0.4117647059      0.4884998982E-02     529
   251  0.2352941176      0.1176470588      0.4117647059      0.4884998982E-02     530
   252  0.2941176471      0.1176470588      0.4117647059      0.4884998982E-02     527
   253  0.3529411765      0.1176470588      0.4117647059      0.4884998982E-02     522
   254  0.4117647059      0.1176470588      0.4117647059      0.4884998982E-02     519
   255  0.1764705882      0.1764705882      0.4117647059      0.2442499491E-02     526
   256  0.2352941176      0.1764705882      0.4117647059      0.4884998982E-02     528
   257  0.2941176471      0.1764705882      0.4117647059      0.4884998982E-02     525
   258  0.3529411765      0.1764705882      0.4117647059      0.4884998982E-02     522
   259  0.4117647059      0.1764705882      0.4117647059      0.2442499491E-02     521
   260  0.2352941176      0.2352941176      0.4117647059      0.2442499491E-02     524
   261  0.2941176471      0.2352941176      0.4117647059      0.4884998982E-02     522
   262  0.3529411765      0.2352941176      0.4117647059      0.4884998982E-02     520
   263  0.2941176471      0.2941176471      0.4117647059      0.2442499491E-02     510
   264  0.3529411765      0.2941176471      0.4117647059      0.2442499491E-02     516
   265   0.000000000       0.000000000      0.4705882353      0.4070832485E-03     534
   266  0.5882352941E-01   0.000000000      0.4705882353      0.2442499491E-02     529
   267  0.1176470588       0.000000000      0.4705882353      0.2442499491E-02     528
   268  0.1764705882       0.000000000      0.4705882353      0.2442499491E-02     530
   269  0.2352941176       0.000000000      0.4705882353      0.2442499491E-02     530
   270  0.2941176471       0.000000000      0.4705882353      0.2442499491E-02     526
   271  0.3529411765       0.000000000      0.4705882353      0.2442499491E-02     526
   272  0.4117647059       0.000000000      0.4705882353      0.2442499491E-02     524
   273  0.4705882353       0.000000000      0.4705882353      0.2442499491E-02     528
   274  0.5882352941E-01  0.5882352941E-01  0.4705882353      0.2442499491E-02     534
   275  0.1176470588      0.5882352941E-01  0.4705882353      0.4884998982E-02     529
   276  0.1764705882      0.5882352941E-01  0.4705882353      0.4884998982E-02     530
   277  0.2352941176      0.5882352941E-01  0.4705882353      0.4884998982E-02     528
   278  0.2941176471      0.5882352941E-01  0.4705882353      0.4884998982E-02     527
   279  0.3529411765      0.5882352941E-01  0.4705882353      0.4884998982E-02     526
   280  0.4117647059      0.5882352941E-01  0.4705882353      0.4884998982E-02     522
   281  0.4705882353      0.5882352941E-01  0.4705882353      0.2442499491E-02     522
   282  0.1176470588      0.1176470588      0.4705882353      0.2442499491E-02     528
   283  0.1764705882      0.1176470588      0.4705882353      0.4884998982E-02     529
   284  0.2352941176      0.1176470588      0.4705882353      0.4884998982E-02     527
   285  0.2941176471      0.1176470588      0.4705882353      0.4884998982E-02     527
   286  0.3529411765      0.1176470588      0.4705882353      0.4884998982E-02     524
   287  0.4117647059      0.1176470588      0.4705882353      0.4884998982E-02     522
   288  0.1764705882      0.1764705882      0.4705882353      0.2442499491E-02     528
   289  0.2352941176      0.1764705882      0.4705882353      0.4884998982E-02     528
   290  0.2941176471      0.1764705882      0.4705882353      0.4884998982E-02     523
   291  0.3529411765      0.1764705882      0.4705882353      0.4884998982E-02     521
   292  0.4117647059      0.1764705882      0.4705882353      0.2442499491E-02     518
   293  0.2352941176      0.2352941176      0.4705882353      0.2442499491E-02     522
   294  0.2941176471      0.2352941176      0.4705882353      0.4884998982E-02     523
   295  0.3529411765      0.2352941176      0.4705882353      0.4884998982E-02     519
   296  0.2941176471      0.2941176471      0.4705882353      0.2442499491E-02     514
   297  0.3529411765      0.2941176471      0.4705882353      0.2442499491E-02     512
