   115.2650283    
   115.1287146    
   113.7338403    
   107.1127174    
   105.0392808    
   104.5922458    
   104.5089537    
   104.3127640    
   104.0611448    
   103.8804321    
   103.7886397    
   103.7516166    
   103.7399330    
   103.7372570    
   103.7373236    
   103.7376650    
   103.7380959    
   103.7381707    
   103.7382483    
   103.7382419    
   103.7382500    
   103.7382488    
   103.7382501    
   103.7382500    
   103.7382501    
   103.7382496    
   103.7382498    
   103.7382504    
   103.7382501    
   103.7382503    
   103.7382504    
   103.7382502    
   103.7382501    
   103.7382501    
   103.7382500    
   103.7382499    
   103.7382499    
