 
+----------------------------+
| Real-space lattice vectors |
+----------------------------+
 
vector a1 :    5.494821744      -3.172436814       0.000000000    
vector a2 :    0.000000000       6.344873626       0.000000000    
vector a3 :    0.000000000       0.000000000       9.280781986    
 
Stored column-wise as a matrix :
   5.494821744       0.000000000       0.000000000    
  -3.172436814       6.344873626       0.000000000    
   0.000000000       0.000000000       9.280781986    
 
Inverse of matrix :
  0.1819895251       0.000000000       0.000000000    
  0.9099476259E-01  0.1576075520       0.000000000    
   0.000000000       0.000000000      0.1077495411    
 
Unit cell volume :    323.5647151    
 
 
+----------------------------------+
| Reciprocal-space lattice vectors |
+----------------------------------+
 
vector b1 :    1.143473910       0.000000000       0.000000000    
vector b2 :   0.5717369553      0.9902774550       0.000000000    
vector b3 :    0.000000000       0.000000000      0.6770103335    
 
Stored column-wise as a matrix :
   1.143473910      0.5717369553       0.000000000    
   0.000000000      0.9902774550       0.000000000    
   0.000000000       0.000000000      0.6770103335    
 
Inverse of matrix :
  0.8745280420     -0.5049090005       0.000000000    
   0.000000000       1.009818001       0.000000000    
   0.000000000       0.000000000       1.477082329    
 
Brillouin zone volume :   0.7666170070    
