  0.5310403684    
  0.4286902859    
  0.1930658016    
  0.6930450945E-01
  0.2171951782E-01
  0.3723010909E-02
  0.9996533244E-03
  0.1652519794E-03
  0.1131779042E-03
  0.4226831957E-04
  0.9664235766E-05
  0.8493230600E-04
  0.8144607032E-04
  0.3624238798E-04
  0.1375997105E-04
  0.1456934965E-04
  0.2946343393E-04
  0.8220430205E-04
  0.1356727123E-03
  0.7610607492E-04
  0.8195531596E-04
  0.1816198850E-04
  0.9716076385E-04
  0.1281242092E-04
  0.1897310291E-04
  0.2278831577E-04
  0.1024255950E-03
  0.2497995283E-04
  0.1050791764E-04
  0.6849324948E-05
  0.7991880511E-04
  0.1296362170E-04
  0.8290756356E-04
  0.6455684514E-04
  0.1969536577E-03
  0.1143916428E-03
  0.8604982140E-05
  0.1296156678E-03
  0.9132135014E-05
  0.2716417360E-03
  0.7025991803E-04
  0.1591350962E-04
  0.6981446563E-04
  0.6986185285E-05
