    -246.396300603    
    -246.352070411    
    -244.426635589    
    -243.368050588    
    -243.052088335    
    -242.996395647    
    -242.992012120    
    -243.001952726    
    -243.003748075    
    -243.002064307    
    -243.001277924    
    -243.001274147    
    -243.001282430    
    -243.001282498    
    -243.001282529    
    -243.001282524    
    -243.001282523    
    -243.001282516    
    -243.001282518    
    -243.001282517    
    -243.001282517    
