   165 : nkpt; k-point, vkl, wkpt, nmat below
     1   0.000000000       0.000000000       0.000000000      0.2035416243E-03     263
     2  0.5882352941E-01   0.000000000       0.000000000      0.1628332994E-02     260
     3  0.1176470588       0.000000000       0.000000000      0.1628332994E-02     254
     4  0.1764705882       0.000000000       0.000000000      0.1628332994E-02     258
     5  0.2352941176       0.000000000       0.000000000      0.1628332994E-02     264
     6  0.2941176471       0.000000000       0.000000000      0.1628332994E-02     264
     7  0.3529411765       0.000000000       0.000000000      0.1628332994E-02     264
     8  0.4117647059       0.000000000       0.000000000      0.1628332994E-02     255
     9  0.4705882353       0.000000000       0.000000000      0.1628332994E-02     261
    10  0.5882352941E-01  0.5882352941E-01   0.000000000      0.1221249746E-02     259
    11  0.1176470588      0.5882352941E-01   0.000000000      0.4884998982E-02     255
    12  0.1764705882      0.5882352941E-01   0.000000000      0.4884998982E-02     259
    13  0.2352941176      0.5882352941E-01   0.000000000      0.4884998982E-02     259
    14  0.2941176471      0.5882352941E-01   0.000000000      0.4884998982E-02     262
    15  0.3529411765      0.5882352941E-01   0.000000000      0.4884998982E-02     266
    16  0.4117647059      0.5882352941E-01   0.000000000      0.4884998982E-02     258
    17  0.4705882353      0.5882352941E-01   0.000000000      0.4884998982E-02     255
    18  0.5294117647      0.5882352941E-01   0.000000000      0.4884998982E-02     255
    19  0.5882352941      0.5882352941E-01   0.000000000      0.4884998982E-02     255
    20  0.6470588235      0.5882352941E-01   0.000000000      0.4884998982E-02     259
    21  0.7058823529      0.5882352941E-01   0.000000000      0.4884998982E-02     262
    22  0.7647058824      0.5882352941E-01   0.000000000      0.4884998982E-02     262
    23  0.8235294118      0.5882352941E-01   0.000000000      0.4884998982E-02     258
    24  0.8823529412      0.5882352941E-01   0.000000000      0.4884998982E-02     258
    25  0.9411764706      0.5882352941E-01   0.000000000      0.2442499491E-02     257
    26  0.1176470588      0.1176470588       0.000000000      0.1221249746E-02     255
    27  0.1764705882      0.1176470588       0.000000000      0.4884998982E-02     258
    28  0.2352941176      0.1176470588       0.000000000      0.4884998982E-02     258
    29  0.2941176471      0.1176470588       0.000000000      0.4884998982E-02     262
    30  0.3529411765      0.1176470588       0.000000000      0.4884998982E-02     260
    31  0.4117647059      0.1176470588       0.000000000      0.4884998982E-02     256
    32  0.4705882353      0.1176470588       0.000000000      0.4884998982E-02     257
    33  0.5294117647      0.1176470588       0.000000000      0.4884998982E-02     255
    34  0.5882352941      0.1176470588       0.000000000      0.4884998982E-02     255
    35  0.6470588235      0.1176470588       0.000000000      0.4884998982E-02     257
    36  0.7058823529      0.1176470588       0.000000000      0.4884998982E-02     260
    37  0.7647058824      0.1176470588       0.000000000      0.4884998982E-02     262
    38  0.8235294118      0.1176470588       0.000000000      0.4884998982E-02     261
    39  0.8823529412      0.1176470588       0.000000000      0.2442499491E-02     259
    40  0.1764705882      0.1764705882       0.000000000      0.1221249746E-02     255
    41  0.2352941176      0.1764705882       0.000000000      0.4884998982E-02     258
    42  0.2941176471      0.1764705882       0.000000000      0.4884998982E-02     260
    43  0.3529411765      0.1764705882       0.000000000      0.4884998982E-02     262
    44  0.4117647059      0.1764705882       0.000000000      0.4884998982E-02     260
    45  0.4705882353      0.1764705882       0.000000000      0.4884998982E-02     256
    46  0.5294117647      0.1764705882       0.000000000      0.4884998982E-02     251
    47  0.5882352941      0.1764705882       0.000000000      0.4884998982E-02     253
    48  0.6470588235      0.1764705882       0.000000000      0.4884998982E-02     255
    49  0.7058823529      0.1764705882       0.000000000      0.4884998982E-02     259
    50  0.7647058824      0.1764705882       0.000000000      0.4884998982E-02     261
    51  0.8235294118      0.1764705882       0.000000000      0.2442499491E-02     263
    52  0.2352941176      0.2352941176       0.000000000      0.1221249746E-02     259
    53  0.2941176471      0.2352941176       0.000000000      0.4884998982E-02     259
    54  0.3529411765      0.2352941176       0.000000000      0.4884998982E-02     258
    55  0.4117647059      0.2352941176       0.000000000      0.4884998982E-02     258
    56  0.4705882353      0.2352941176       0.000000000      0.4884998982E-02     256
    57  0.5294117647      0.2352941176       0.000000000      0.4884998982E-02     254
    58  0.5882352941      0.2352941176       0.000000000      0.4884998982E-02     253
    59  0.6470588235      0.2352941176       0.000000000      0.4884998982E-02     253
    60  0.7058823529      0.2352941176       0.000000000      0.4884998982E-02     257
    61  0.7647058824      0.2352941176       0.000000000      0.2442499491E-02     259
    62  0.2941176471      0.2941176471       0.000000000      0.1221249746E-02     255
    63  0.3529411765      0.2941176471       0.000000000      0.4884998982E-02     255
    64  0.4117647059      0.2941176471       0.000000000      0.4884998982E-02     257
    65  0.4705882353      0.2941176471       0.000000000      0.4884998982E-02     252
    66  0.5294117647      0.2941176471       0.000000000      0.4884998982E-02     254
    67  0.5882352941      0.2941176471       0.000000000      0.4884998982E-02     253
    68  0.6470588235      0.2941176471       0.000000000      0.4884998982E-02     253
    69  0.7058823529      0.2941176471       0.000000000      0.2442499491E-02     256
    70  0.3529411765      0.3529411765       0.000000000      0.1221249746E-02     255
    71  0.4117647059      0.3529411765       0.000000000      0.4884998982E-02     255
    72  0.4705882353      0.3529411765       0.000000000      0.4884998982E-02     251
    73  0.5294117647      0.3529411765       0.000000000      0.4884998982E-02     255
    74  0.5882352941      0.3529411765       0.000000000      0.4884998982E-02     256
    75  0.6470588235      0.3529411765       0.000000000      0.2442499491E-02     252
    76  0.4117647059      0.4117647059       0.000000000      0.1221249746E-02     255
    77  0.4705882353      0.4117647059       0.000000000      0.4884998982E-02     251
    78  0.5294117647      0.4117647059       0.000000000      0.4884998982E-02     251
    79  0.5882352941      0.4117647059       0.000000000      0.2442499491E-02     254
    80  0.4705882353      0.4705882353       0.000000000      0.1221249746E-02     247
    81  0.5294117647      0.4705882353       0.000000000      0.2442499491E-02     246
    82  0.1764705882      0.1176470588      0.5882352941E-01  0.4884998982E-02     257
    83  0.2352941176      0.1176470588      0.5882352941E-01  0.9769997965E-02     261
    84  0.2941176471      0.1176470588      0.5882352941E-01  0.9769997965E-02     262
    85  0.3529411765      0.1176470588      0.5882352941E-01  0.9769997965E-02     262
    86  0.4117647059      0.1176470588      0.5882352941E-01  0.9769997965E-02     260
    87  0.4705882353      0.1176470588      0.5882352941E-01  0.9769997965E-02     257
    88  0.5294117647      0.1176470588      0.5882352941E-01  0.9769997965E-02     257
    89  0.2352941176      0.1764705882      0.5882352941E-01  0.4884998982E-02     259
    90  0.2941176471      0.1764705882      0.5882352941E-01  0.9769997965E-02     262
    91  0.3529411765      0.1764705882      0.5882352941E-01  0.9769997965E-02     262
    92  0.4117647059      0.1764705882      0.5882352941E-01  0.9769997965E-02     260
    93  0.4705882353      0.1764705882      0.5882352941E-01  0.9769997965E-02     258
    94  0.5294117647      0.1764705882      0.5882352941E-01  0.9769997965E-02     255
    95  0.5882352941      0.1764705882      0.5882352941E-01  0.9769997965E-02     254
    96  0.6470588235      0.1764705882      0.5882352941E-01  0.9769997965E-02     255
    97  0.7058823529      0.1764705882      0.5882352941E-01  0.9769997965E-02     258
    98  0.7647058824      0.1764705882      0.5882352941E-01  0.9769997965E-02     261
    99  0.8235294118      0.1764705882      0.5882352941E-01  0.9769997965E-02     261
   100  0.8823529412      0.1764705882      0.5882352941E-01  0.4884998982E-02     263
   101  0.2941176471      0.2352941176      0.5882352941E-01  0.4884998982E-02     257
   102  0.3529411765      0.2352941176      0.5882352941E-01  0.9769997965E-02     260
   103  0.4117647059      0.2352941176      0.5882352941E-01  0.9769997965E-02     260
   104  0.4705882353      0.2352941176      0.5882352941E-01  0.9769997965E-02     256
   105  0.5294117647      0.2352941176      0.5882352941E-01  0.9769997965E-02     254
   106  0.5882352941      0.2352941176      0.5882352941E-01  0.9769997965E-02     253
   107  0.6470588235      0.2352941176      0.5882352941E-01  0.9769997965E-02     254
   108  0.7058823529      0.2352941176      0.5882352941E-01  0.9769997965E-02     258
   109  0.7647058824      0.2352941176      0.5882352941E-01  0.9769997965E-02     257
   110  0.8235294118      0.2352941176      0.5882352941E-01  0.4884998982E-02     261
   111  0.3529411765      0.2941176471      0.5882352941E-01  0.4884998982E-02     256
   112  0.4117647059      0.2941176471      0.5882352941E-01  0.9769997965E-02     256
   113  0.4705882353      0.2941176471      0.5882352941E-01  0.9769997965E-02     253
   114  0.5294117647      0.2941176471      0.5882352941E-01  0.9769997965E-02     254
   115  0.5882352941      0.2941176471      0.5882352941E-01  0.9769997965E-02     254
   116  0.6470588235      0.2941176471      0.5882352941E-01  0.9769997965E-02     253
   117  0.7058823529      0.2941176471      0.5882352941E-01  0.9769997965E-02     256
   118  0.7647058824      0.2941176471      0.5882352941E-01  0.4884998982E-02     256
   119  0.4117647059      0.3529411765      0.5882352941E-01  0.4884998982E-02     255
   120  0.4705882353      0.3529411765      0.5882352941E-01  0.9769997965E-02     253
   121  0.5294117647      0.3529411765      0.5882352941E-01  0.9769997965E-02     252
   122  0.5882352941      0.3529411765      0.5882352941E-01  0.9769997965E-02     253
   123  0.6470588235      0.3529411765      0.5882352941E-01  0.9769997965E-02     253
   124  0.7058823529      0.3529411765      0.5882352941E-01  0.4884998982E-02     252
   125  0.4705882353      0.4117647059      0.5882352941E-01  0.4884998982E-02     254
   126  0.5294117647      0.4117647059      0.5882352941E-01  0.9769997965E-02     252
   127  0.5882352941      0.4117647059      0.5882352941E-01  0.9769997965E-02     253
   128  0.6470588235      0.4117647059      0.5882352941E-01  0.4884998982E-02     253
   129  0.5294117647      0.4705882353      0.5882352941E-01  0.4884998982E-02     251
   130  0.5882352941      0.4705882353      0.5882352941E-01  0.4884998982E-02     250
   131  0.3529411765      0.2352941176      0.1176470588      0.4884998982E-02     260
   132  0.4117647059      0.2352941176      0.1176470588      0.9769997965E-02     261
   133  0.4705882353      0.2352941176      0.1176470588      0.9769997965E-02     257
   134  0.5294117647      0.2352941176      0.1176470588      0.9769997965E-02     256
   135  0.5882352941      0.2352941176      0.1176470588      0.9769997965E-02     253
   136  0.4117647059      0.2941176471      0.1176470588      0.4884998982E-02     258
   137  0.4705882353      0.2941176471      0.1176470588      0.9769997965E-02     254
   138  0.5294117647      0.2941176471      0.1176470588      0.9769997965E-02     255
   139  0.5882352941      0.2941176471      0.1176470588      0.9769997965E-02     255
   140  0.6470588235      0.2941176471      0.1176470588      0.9769997965E-02     253
   141  0.7058823529      0.2941176471      0.1176470588      0.9769997965E-02     256
   142  0.7647058824      0.2941176471      0.1176470588      0.9769997965E-02     255
   143  0.8235294118      0.2941176471      0.1176470588      0.4884998982E-02     253
   144  0.4705882353      0.3529411765      0.1176470588      0.4884998982E-02     254
   145  0.5294117647      0.3529411765      0.1176470588      0.9769997965E-02     253
   146  0.5882352941      0.3529411765      0.1176470588      0.9769997965E-02     254
   147  0.6470588235      0.3529411765      0.1176470588      0.9769997965E-02     251
   148  0.7058823529      0.3529411765      0.1176470588      0.9769997965E-02     253
   149  0.7647058824      0.3529411765      0.1176470588      0.4884998982E-02     254
   150  0.5294117647      0.4117647059      0.1176470588      0.4884998982E-02     253
   151  0.5882352941      0.4117647059      0.1176470588      0.9769997965E-02     252
   152  0.6470588235      0.4117647059      0.1176470588      0.9769997965E-02     254
   153  0.7058823529      0.4117647059      0.1176470588      0.4884998982E-02     251
   154  0.5882352941      0.4705882353      0.1176470588      0.4884998982E-02     251
   155  0.6470588235      0.4705882353      0.1176470588      0.4884998982E-02     252
   156  0.5294117647      0.3529411765      0.1764705882      0.4884998982E-02     256
   157  0.5882352941      0.3529411765      0.1764705882      0.9769997965E-02     254
   158  0.6470588235      0.3529411765      0.1764705882      0.9769997965E-02     250
   159  0.5882352941      0.4117647059      0.1764705882      0.4884998982E-02     251
   160  0.6470588235      0.4117647059      0.1764705882      0.9769997965E-02     253
   161  0.7058823529      0.4117647059      0.1764705882      0.9769997965E-02     252
   162  0.7647058824      0.4117647059      0.1764705882      0.4884998982E-02     255
   163  0.6470588235      0.4705882353      0.1764705882      0.4884998982E-02     253
   164  0.7058823529      0.4705882353      0.1764705882      0.4884998982E-02     251
   165  0.7058823529      0.4705882353      0.2352941176      0.4884998982E-02     251
