 
Species :    1 (Pd), atom :    1
 APW functions :
  l =  0, energy derivative =  0 :   0.3051355930    
  l =  1, energy derivative =  0 :   0.3051355930    
  l =  2, energy derivative =  0 :   0.3051355930    
  l =  3, energy derivative =  0 :   0.3051355930    
  l =  4, energy derivative =  0 :   0.3051355930    
  l =  5, energy derivative =  0 :   0.3051355930    
  l =  6, energy derivative =  0 :   0.3051355930    
  l =  7, energy derivative =  0 :   0.3051355930    
  l =  8, energy derivative =  0 :   0.3051355930    
  l =  9, energy derivative =  0 :   0.3051355930    
  l = 10, energy derivative =  0 :   0.3051355930    
 local-orbital functions :
  l.o. =  1, l =  0, energy derivative =  0 :   0.3051355930    
  l.o. =  1, l =  0, energy derivative =  1 :   0.3051355930    
  l.o. =  2, l =  1, energy derivative =  0 :   0.3051355930    
  l.o. =  2, l =  1, energy derivative =  1 :   0.3051355930    
  l.o. =  3, l =  2, energy derivative =  0 :   0.3051355930    
  l.o. =  3, l =  2, energy derivative =  1 :   0.3051355930    
  l.o. =  4, l =  0, energy derivative =  0 :   0.3051355930    
  l.o. =  4, l =  0, energy derivative =  0 :   -2.693433416    
  l.o. =  5, l =  1, energy derivative =  0 :   0.3051355930    
  l.o. =  5, l =  1, energy derivative =  0 :   -1.429687594    
  l.o. =  6, l =  2, energy derivative =  0 :   0.3051355930    
  l.o. =  6, l =  2, energy derivative =  0 :   0.3747373824    
  l.o. =  7, l =  3, energy derivative =  0 :   0.3051355930    
  l.o. =  7, l =  3, energy derivative =  1 :   0.3051355930    
  l.o. =  8, l =  4, energy derivative =  0 :   0.3051355930    
  l.o. =  8, l =  4, energy derivative =  1 :   0.3051355930    
  l.o. =  9, l =  5, energy derivative =  0 :   0.3051355930    
  l.o. =  9, l =  5, energy derivative =  1 :   0.3051355930    
  l.o. = 10, l =  0, energy derivative =  0 :    1.163742515    
  l.o. = 10, l =  0, energy derivative =  1 :    1.163742515    
  l.o. = 10, l =  0, energy derivative =  2 :    1.163742515    
  l.o. = 11, l =  1, energy derivative =  0 :    1.731219736    
  l.o. = 11, l =  1, energy derivative =  1 :    1.731219736    
  l.o. = 11, l =  1, energy derivative =  2 :    1.731219736    
  l.o. = 12, l =  2, energy derivative =  0 :   0.3747373824    
  l.o. = 12, l =  2, energy derivative =  1 :   0.3747373824    
  l.o. = 12, l =  2, energy derivative =  2 :   0.3747373824    
  l.o. = 13, l =  3, energy derivative =  0 :    2.014734688    
  l.o. = 13, l =  3, energy derivative =  1 :    2.014734688    
  l.o. = 13, l =  3, energy derivative =  2 :    2.014734688    
  l.o. = 14, l =  4, energy derivative =  0 :    3.727871513    
  l.o. = 14, l =  4, energy derivative =  1 :    3.727871513    
  l.o. = 14, l =  4, energy derivative =  2 :    3.727871513    
  l.o. = 15, l =  5, energy derivative =  0 :    5.334240950    
  l.o. = 15, l =  5, energy derivative =  1 :    5.334240950    
  l.o. = 15, l =  5, energy derivative =  2 :    5.334240950    
  l.o. = 16, l =  6, energy derivative =  0 :    7.063914288    
  l.o. = 16, l =  6, energy derivative =  1 :    7.063914288    
  l.o. = 16, l =  6, energy derivative =  2 :    7.063914288    
  l.o. = 17, l =  7, energy derivative =  0 :    8.953237324    
  l.o. = 17, l =  7, energy derivative =  1 :    8.953237324    
  l.o. = 17, l =  7, energy derivative =  2 :    8.953237324    
  l.o. = 18, l =  8, energy derivative =  0 :    11.01399722    
  l.o. = 18, l =  8, energy derivative =  1 :    11.01399722    
  l.o. = 18, l =  8, energy derivative =  2 :    11.01399722    
