 
Species :    1 (Ru), atom :    1
 APW functions :
  l =  0, energy derivative =  0 :   0.4481984656    
  l =  1, energy derivative =  0 :   0.4481984656    
  l =  2, energy derivative =  0 :   0.4481984656    
  l =  3, energy derivative =  0 :   0.4481984656    
  l =  4, energy derivative =  0 :   0.4481984656    
  l =  5, energy derivative =  0 :   0.4481984656    
  l =  6, energy derivative =  0 :   0.4481984656    
  l =  7, energy derivative =  0 :   0.4481984656    
  l =  8, energy derivative =  0 :   0.4481984656    
  l =  9, energy derivative =  0 :   0.4481984656    
  l = 10, energy derivative =  0 :   0.4481984656    
 local-orbital functions :
  l.o. =  1, l =  0, energy derivative =  0 :   0.4481984656    
  l.o. =  1, l =  0, energy derivative =  1 :   0.4481984656    
  l.o. =  2, l =  1, energy derivative =  0 :   0.4481984656    
  l.o. =  2, l =  1, energy derivative =  1 :   0.4481984656    
  l.o. =  3, l =  2, energy derivative =  0 :   0.4481984656    
  l.o. =  3, l =  2, energy derivative =  1 :   0.4481984656    
  l.o. =  4, l =  0, energy derivative =  0 :   0.4481984656    
  l.o. =  4, l =  0, energy derivative =  0 :   -2.141846363    
  l.o. =  5, l =  1, energy derivative =  0 :   0.4481984656    
  l.o. =  5, l =  1, energy derivative =  0 :   -1.030693524    
  l.o. =  6, l =  2, energy derivative =  0 :   0.4481984656    
  l.o. =  6, l =  2, energy derivative =  0 :   0.5869707756    
  l.o. =  7, l =  3, energy derivative =  0 :   0.4481984656    
  l.o. =  7, l =  3, energy derivative =  1 :   0.4481984656    
  l.o. =  8, l =  4, energy derivative =  0 :   0.4481984656    
  l.o. =  8, l =  4, energy derivative =  1 :   0.4481984656    
  l.o. =  9, l =  5, energy derivative =  0 :   0.4481984656    
  l.o. =  9, l =  5, energy derivative =  1 :   0.4481984656    
  l.o. = 10, l =  0, energy derivative =  0 :    1.665371042    
  l.o. = 10, l =  0, energy derivative =  1 :    1.665371042    
  l.o. = 10, l =  0, energy derivative =  2 :    1.665371042    
  l.o. = 11, l =  1, energy derivative =  0 :    2.306332766    
  l.o. = 11, l =  1, energy derivative =  1 :    2.306332766    
  l.o. = 11, l =  1, energy derivative =  2 :    2.306332766    
  l.o. = 12, l =  2, energy derivative =  0 :   0.5869707756    
  l.o. = 12, l =  2, energy derivative =  1 :   0.5869707756    
  l.o. = 12, l =  2, energy derivative =  2 :   0.5869707756    
  l.o. = 13, l =  3, energy derivative =  0 :    2.162491896    
  l.o. = 13, l =  3, energy derivative =  1 :    2.162491896    
  l.o. = 13, l =  3, energy derivative =  2 :    2.162491896    
  l.o. = 14, l =  4, energy derivative =  0 :    4.063468712    
  l.o. = 14, l =  4, energy derivative =  1 :    4.063468712    
  l.o. = 14, l =  4, energy derivative =  2 :    4.063468712    
  l.o. = 15, l =  5, energy derivative =  0 :    5.868648240    
  l.o. = 15, l =  5, energy derivative =  1 :    5.868648240    
  l.o. = 15, l =  5, energy derivative =  2 :    5.868648240    
  l.o. = 16, l =  6, energy derivative =  0 :    7.807836956    
  l.o. = 16, l =  6, energy derivative =  1 :    7.807836956    
  l.o. = 16, l =  6, energy derivative =  2 :    7.807836956    
  l.o. = 17, l =  7, energy derivative =  0 :    9.922414258    
  l.o. = 17, l =  7, energy derivative =  1 :    9.922414258    
  l.o. = 17, l =  7, energy derivative =  2 :    9.922414258    
  l.o. = 18, l =  8, energy derivative =  0 :    12.22638115    
  l.o. = 18, l =  8, energy derivative =  1 :    12.22638115    
  l.o. = 18, l =  8, energy derivative =  2 :    12.22638115    
 
Species :    1 (Ru), atom :    2
 APW functions :
  l =  0, energy derivative =  0 :   0.4481984656    
  l =  1, energy derivative =  0 :   0.4481984656    
  l =  2, energy derivative =  0 :   0.4481984656    
  l =  3, energy derivative =  0 :   0.4481984656    
  l =  4, energy derivative =  0 :   0.4481984656    
  l =  5, energy derivative =  0 :   0.4481984656    
  l =  6, energy derivative =  0 :   0.4481984656    
  l =  7, energy derivative =  0 :   0.4481984656    
  l =  8, energy derivative =  0 :   0.4481984656    
  l =  9, energy derivative =  0 :   0.4481984656    
  l = 10, energy derivative =  0 :   0.4481984656    
 local-orbital functions :
  l.o. =  1, l =  0, energy derivative =  0 :   0.4481984656    
  l.o. =  1, l =  0, energy derivative =  1 :   0.4481984656    
  l.o. =  2, l =  1, energy derivative =  0 :   0.4481984656    
  l.o. =  2, l =  1, energy derivative =  1 :   0.4481984656    
  l.o. =  3, l =  2, energy derivative =  0 :   0.4481984656    
  l.o. =  3, l =  2, energy derivative =  1 :   0.4481984656    
  l.o. =  4, l =  0, energy derivative =  0 :   0.4481984656    
  l.o. =  4, l =  0, energy derivative =  0 :   -2.141846363    
  l.o. =  5, l =  1, energy derivative =  0 :   0.4481984656    
  l.o. =  5, l =  1, energy derivative =  0 :   -1.030693524    
  l.o. =  6, l =  2, energy derivative =  0 :   0.4481984656    
  l.o. =  6, l =  2, energy derivative =  0 :   0.5869707756    
  l.o. =  7, l =  3, energy derivative =  0 :   0.4481984656    
  l.o. =  7, l =  3, energy derivative =  1 :   0.4481984656    
  l.o. =  8, l =  4, energy derivative =  0 :   0.4481984656    
  l.o. =  8, l =  4, energy derivative =  1 :   0.4481984656    
  l.o. =  9, l =  5, energy derivative =  0 :   0.4481984656    
  l.o. =  9, l =  5, energy derivative =  1 :   0.4481984656    
  l.o. = 10, l =  0, energy derivative =  0 :    1.665371042    
  l.o. = 10, l =  0, energy derivative =  1 :    1.665371042    
  l.o. = 10, l =  0, energy derivative =  2 :    1.665371042    
  l.o. = 11, l =  1, energy derivative =  0 :    2.306332766    
  l.o. = 11, l =  1, energy derivative =  1 :    2.306332766    
  l.o. = 11, l =  1, energy derivative =  2 :    2.306332766    
  l.o. = 12, l =  2, energy derivative =  0 :   0.5869707756    
  l.o. = 12, l =  2, energy derivative =  1 :   0.5869707756    
  l.o. = 12, l =  2, energy derivative =  2 :   0.5869707756    
  l.o. = 13, l =  3, energy derivative =  0 :    2.162491896    
  l.o. = 13, l =  3, energy derivative =  1 :    2.162491896    
  l.o. = 13, l =  3, energy derivative =  2 :    2.162491896    
  l.o. = 14, l =  4, energy derivative =  0 :    4.063468712    
  l.o. = 14, l =  4, energy derivative =  1 :    4.063468712    
  l.o. = 14, l =  4, energy derivative =  2 :    4.063468712    
  l.o. = 15, l =  5, energy derivative =  0 :    5.868648240    
  l.o. = 15, l =  5, energy derivative =  1 :    5.868648240    
  l.o. = 15, l =  5, energy derivative =  2 :    5.868648240    
  l.o. = 16, l =  6, energy derivative =  0 :    7.807836956    
  l.o. = 16, l =  6, energy derivative =  1 :    7.807836956    
  l.o. = 16, l =  6, energy derivative =  2 :    7.807836956    
  l.o. = 17, l =  7, energy derivative =  0 :    9.922414258    
  l.o. = 17, l =  7, energy derivative =  1 :    9.922414258    
  l.o. = 17, l =  7, energy derivative =  2 :    9.922414258    
  l.o. = 18, l =  8, energy derivative =  0 :    12.22638115    
  l.o. = 18, l =  8, energy derivative =  1 :    12.22638115    
  l.o. = 18, l =  8, energy derivative =  2 :    12.22638115    
