   74.33912468    
   77.21586174    
   83.76314879    
   64.73357804    
   64.62690298    
   64.96094784    
   64.71444552    
   64.64152679    
   64.65765628    
   64.67252456    
   64.67497312    
   64.67636435    
   64.67631351    
   64.67559314    
   64.67541037    
   64.67532949    
   64.67527733    
   64.67507342    
   64.67510207    
   64.67501977    
   64.67500403    
   64.67503874    
   64.67511342    
   64.67489196    
   64.67492085    
   64.67499006    
   64.67502575    
   64.67504968    
   64.67511111    
   64.67508796    
   64.67509041    
   64.67508196    
   64.67507630    
