 
Species :    1 (Zr), atom :    1
 n =  1, l =  0, k =  1 :   -655.5389992    
 n =  2, l =  0, k =  1 :   -90.20592525    
 n =  2, l =  1, k =  1 :   -82.50197860    
 n =  2, l =  1, k =  2 :   -79.33358739    
 n =  3, l =  0, k =  1 :   -14.29585115    
 n =  3, l =  1, k =  1 :   -11.43258490    
 n =  3, l =  1, k =  2 :   -10.92755669    
 n =  3, l =  2, k =  2 :   -5.878596452    
 n =  3, l =  2, k =  3 :   -5.786843966    
 
Species :    1 (Zr), atom :    2
 n =  1, l =  0, k =  1 :   -655.5389992    
 n =  2, l =  0, k =  1 :   -90.20592525    
 n =  2, l =  1, k =  1 :   -82.50197860    
 n =  2, l =  1, k =  2 :   -79.33358739    
 n =  3, l =  0, k =  1 :   -14.29585115    
 n =  3, l =  1, k =  1 :   -11.43258490    
 n =  3, l =  1, k =  2 :   -10.92755669    
 n =  3, l =  2, k =  2 :   -5.878596452    
 n =  3, l =  2, k =  3 :   -5.786843966    
