 
+----------------------------+
| Real-space lattice vectors |
+----------------------------+
 
vector a1 :    5.456798100      -3.150483853       0.000000000    
vector a2 :    0.000000000       6.300967704       0.000000000    
vector a3 :    0.000000000       0.000000000       9.216559857    
 
Stored column-wise as a matrix :
   5.456798100       0.000000000       0.000000000    
  -3.150483853       6.300967704       0.000000000    
   0.000000000       0.000000000       9.216559857    
 
Inverse of matrix :
  0.1832576507       0.000000000       0.000000000    
  0.9162882534E-01  0.1587057809       0.000000000    
   0.000000000       0.000000000      0.1085003532    
 
Unit cell volume :    316.8939785    
 
 
+----------------------------------+
| Reciprocal-space lattice vectors |
+----------------------------------+
 
vector b1 :    1.151441778       0.000000000       0.000000000    
vector b2 :   0.5757208891      0.9971778308       0.000000000    
vector b3 :    0.000000000       0.000000000      0.6817278252    
 
Stored column-wise as a matrix :
   1.151441778      0.5757208891       0.000000000    
   0.000000000      0.9971778308       0.000000000    
   0.000000000       0.000000000      0.6817278252    
 
Inverse of matrix :
  0.8684763911     -0.5014150783       0.000000000    
   0.000000000       1.002830156       0.000000000    
   0.000000000       0.000000000       1.466861060    
 
Brillouin zone volume :   0.7827545813    
