 
Species :    1 (Zr), atom :    1
 n =  1, l =  0, k =  1 :   -655.5380152    
 n =  2, l =  0, k =  1 :   -90.20481358    
 n =  2, l =  1, k =  1 :   -82.50088089    
 n =  2, l =  1, k =  2 :   -79.33248692    
 n =  3, l =  0, k =  1 :   -14.29473418    
 n =  3, l =  1, k =  1 :   -11.43146711    
 n =  3, l =  1, k =  2 :   -10.92643803    
 n =  3, l =  2, k =  2 :   -5.877468886    
 n =  3, l =  2, k =  3 :   -5.785716162    
 
Species :    1 (Zr), atom :    2
 n =  1, l =  0, k =  1 :   -655.5380152    
 n =  2, l =  0, k =  1 :   -90.20481358    
 n =  2, l =  1, k =  1 :   -82.50088089    
 n =  2, l =  1, k =  2 :   -79.33248692    
 n =  3, l =  0, k =  1 :   -14.29473418    
 n =  3, l =  1, k =  1 :   -11.43146711    
 n =  3, l =  1, k =  2 :   -10.92643803    
 n =  3, l =  2, k =  2 :   -5.877468886    
 n =  3, l =  2, k =  3 :   -5.785716162    
