    -6838.12482282    
    -6837.14716466    
    -6825.67745984    
    -6802.87612689    
    -6784.45385916    
    -6776.55706500    
    -6773.63906606    
    -6773.65885341    
    -6773.66806604    
    -6773.67026713    
    -6773.67050863    
    -6773.66528152    
    -6773.66489749    
    -6773.66491090    
    -6773.66466251    
    -6773.66500611    
    -6773.66481291    
    -6773.66474223    
    -6773.66477205    
    -6773.66475537    
    -6773.66463338    
    -6773.66468198    
    -6773.66469690    
    -6773.66469633    
    -6773.66469887    
    -6773.66469965    
    -6773.66469526    
    -6773.66469645    
    -6773.66469683    
    -6773.66469557    
    -6773.66469663    
    -6773.66469680    
    -6773.66469789    
    -6773.66469718    
    -6773.66469686    
    -6773.66469704    
    -6773.66469718    
    -6773.66469728    
    -6773.66469723    
    -6773.66469692    
    -6773.66469692    
    -6773.66469696    
    -6773.66469688    
    -6773.66469712    
    -6773.66469692    
    -6773.66469703    
    -6773.66469707    
    -6773.66469691    
    -6773.66469693    
    -6773.66469687    
    -6773.66469693    
    -6773.66469687    
    -6773.66469689    
    -6773.66469687    
