   4.826858378    
   14.22807562    
   108.1766324    
   105.2418520    
   59.36920620    
   28.16338638    
   6.781260397    
   1.711052834    
  0.4019701748    
  0.1006125179    
  0.2627278587E-01
  0.8102123633E-02
  0.2514841544E-02
  0.6532914413E-03
  0.4317995554E-03
  0.9898100689E-04
  0.6820577255E-04
  0.5040798715E-04
  0.6619867054E-04
  0.5550502829E-04
  0.3551357077E-04
  0.1103589602E-04
  0.7691261271E-04
  0.8367191185E-05
  0.1991169847E-04
  0.8014802006E-05
  0.1316511771E-06
  0.1303320460E-05
  0.2340377250E-05
  0.2877641236E-07
  0.1696025720E-06
  0.2592860255E-06
  0.1462467480E-08
