+----------------------------+
| Elk version 8.3.15 started |
+----------------------------+
 
Date (YYYY-MM-DD) : 2022-02-15
Time (hh:mm:ss)   : 08:53:41
 
All units are atomic (Hartree, Bohr, etc.)
 
+------------------------------------------+
| Ground-state run resuming from STATE.OUT |
+------------------------------------------+
 
Lattice vectors :
   4.508681617      -2.603088545       0.000000000    
   0.000000000       5.206177091       0.000000000    
   0.000000000       0.000000000       8.451893609    
 
Reciprocal lattice vectors :
   1.393574850       0.000000000       0.000000000    
  0.6967874249       1.206871222       0.000000000    
   0.000000000       0.000000000      0.7434056317    
 
Unit cell volume      :    198.3912560    
Brillouin zone volume :    1.250308197    
 
Muffin-tin inner radius fraction :   0.1000000000E-01
 
Species :    1 (Ru)
 parameters loaded from : Ru.in
 name : ruthenium
 nuclear charge    :   -44.00000000    
 electronic charge :    44.00000000    
 atomic mass :    184239.3392    
 muffin-tin radius :    2.320000000    
 number of radial points in muffin-tin :   1200
 number on inner part of muffin-tin    :    866
 atomic positions (lattice), magnetic fields (Cartesian) :
   1 :   0.33333333  0.16666667  0.25000000    0.00000000  0.00000000  0.00000000
   2 :  -0.33333333 -0.16666667 -0.25000000    0.00000000  0.00000000  0.00000000
 
Total number of atoms per unit cell :    2
 
Spin treatment :
 spin-unpolarised
 
Number of Bravais lattice symmetries :   24
Number of crystal symmetries         :   24
Crystal has inversion symmetry
Real symmetric eigensolver will be used
 
k-point grid :     17    17    17
k-point offset :    0.000000000       0.000000000       0.000000000    
k-point set is reduced with full crystal symmetry group
Total number of k-points :      297
 
Muffin-tin radius times maximum |G+k| :    8.500000000    
 using gkmax = rgkmax / 2
Maximum |G+k| for APW functions       :    4.250000000    
Maximum (1/2)|G+k|²                   :    9.031250000    
Maximum |G| for potential and density :    34.00000000    
Constant for pseudocharge density :   20
Radial integration step length :    1
 
G-vector grid sizes :     60    60    96
Number of G-vectors :   131731
 
Maximum angular momentum used for
 APW functions                      :   10
 outer part of muffin-tin           :    8
 inner part of muffin-tin           :    1
 
Total nuclear charge    :   -88.00000000    
Total core charge       :    56.00000000    
Total valence charge    :    32.00000000    
Total excess charge     :    0.000000000    
Total electronic charge :    88.00000000    
 
Effective Wigner radius, rₛ :   0.8134241868    
 
Number of empty states         :   40
Total number of valence states :   57
Total number of core states    :   56
 
Conduction state local-orbitals added automatically
Total number of local-orbitals :  252
 
Using Libxc version 05.01.05
Exchange-correlation functional :    100   493   494
 exchange: mgga_x_rscan; correlation: mgga_c_rscan
 
Smearing type :    1
 Methfessel-Paxton order 1, Phys. Rev. B 40, 3616 (1989)
Smearing width :   0.1000000000E-02
Effective electronic temperature (K) :    315.7750248    
 
Mixing type :    3
 Broyden mixing, J. Phys. A: Math. Gen. 17, L317 (1984)
 
Potential read in from STATE.OUT
 
+------------------------------+
| Self-consistent loop started |
+------------------------------+
 
+--------------------+
| Loop number :    1 |
+--------------------+
 
Energies :
 Fermi                       :     0.539604773370    
 sum of eigenvalues          :     -5395.82274422    
 electron kinetic            :      9443.21275784    
 core electron kinetic       :      9181.22972293    
 Coulomb                     :     -18239.0121715    
 Coulomb potential           :     -14479.9779068    
 nuclear-nuclear             :     -977.056117016    
 electron-nuclear            :     -20043.9342021    
 Hartree                     :      2781.97814763    
 Madelung                    :     -10999.0232181    
 xc potential                :     -359.057595240    
 exchange                    :     -265.868502347    
 correlation                 :     -4.69160870851    
 total energy                :     -9066.35952469    
 
Density of states at Fermi energy :    57.16820099    
 (states/Hartree/unit cell)
 
Estimated indirect band gap :   0.1930897686E-03
 from k-point    151 to k-point    145
Estimated direct band gap   :   0.2625935105E-02
 at k-point    145
 
Charges :
 core                        :    56.00000000    
 valence                     :    32.00000000    
 interstitial                :    3.977612232    
 muffin-tins (core leakage)
  species :    1 (Ru)
   atom    1                 :    42.01119388     (  0.4386718615E-06)
   atom    2                 :    42.01119388     (  0.4386718615E-06)
 total in muffin-tins        :    84.02238777    
 total calculated charge     :    87.99977968    
 total charge                :    88.00000000    
 error                       :   0.2203235283E-03
 
Time (CPU seconds) :        70.86
 
+--------------------+
| Loop number :    2 |
+--------------------+
 
Energies :
 Fermi                       :     0.539606170353    
 sum of eigenvalues          :     -5395.82349315    
 electron kinetic            :      9443.21164780    
 core electron kinetic       :      9181.23808482    
 Coulomb                     :     -18239.0130214    
 Coulomb potential           :     -14479.9774731    
 nuclear-nuclear             :     -977.056117016    
 electron-nuclear            :     -20043.9363357    
 Hartree                     :      2781.97943130    
 Madelung                    :     -10999.0242849    
 xc potential                :     -359.057667820    
 exchange                    :     -265.868557472    
 correlation                 :     -4.69160836184    
 total energy                :     -9066.36153948    
 
Density of states at Fermi energy :    57.39880029    
 (states/Hartree/unit cell)
 
Estimated indirect band gap :   0.1874874433E-03
 from k-point    151 to k-point    145
Estimated direct band gap   :   0.2612872210E-02
 at k-point    145
 
Charges :
 core                        :    56.00000000    
 valence                     :    32.00000000    
 interstitial                :    3.977572363    
 muffin-tins (core leakage)
  species :    1 (Ru)
   atom    1                 :    42.01121382     (  0.4388517922E-06)
   atom    2                 :    42.01121382     (  0.4388517922E-06)
 total in muffin-tins        :    84.02242764    
 total calculated charge     :    87.99977969    
 total charge                :    88.00000000    
 error                       :   0.2203144400E-03
 
Wrote STATE.OUT
 
RMS change in Kohn-Sham potential (target) :   0.2697086019E-01 (   10.00000000    )
Absolute change in total energy (target)   :   0.2014795868E-02 (  0.1000000000E-07)
 
Time (CPU seconds) :       139.26
 
+--------------------+
| Loop number :    3 |
+--------------------+
 
Energies :
 Fermi                       :     0.539687624387    
 sum of eigenvalues          :     -5395.83435581    
 electron kinetic            :      9443.19069505    
 core electron kinetic       :      9181.23660986    
 Coulomb                     :     -18239.0277502    
 Coulomb potential           :     -14479.9659711    
 nuclear-nuclear             :     -977.056117016    
 electron-nuclear            :     -20043.9772953    
 Hartree                     :      2782.00566211    
 Madelung                    :     -10999.0447647    
 xc potential                :     -359.059079786    
 exchange                    :     -265.869631742    
 correlation                 :     -4.69160192030    
 total energy                :     -9066.39828881    
 
Density of states at Fermi energy :    64.81861747    
 (states/Hartree/unit cell)
 
Estimated indirect band gap :   0.2822390151E-03
 from k-point    287 to k-point    151
Estimated direct band gap   :   0.1018854179E-02
 at k-point    151
 
Charges :
 core                        :    56.00000000    
 valence                     :    32.00000000    
 interstitial                :    3.976691692    
 muffin-tins (core leakage)
  species :    1 (Ru)
   atom    1                 :    42.01165415     (  0.4387997130E-06)
   atom    2                 :    42.01165415     (  0.4387997130E-06)
 total in muffin-tins        :    84.02330831    
 total calculated charge     :    87.99978014    
 total charge                :    88.00000000    
 error                       :   0.2198582187E-03
 
RMS change in Kohn-Sham potential (target) :   0.1667804743E-01 (   10.00000000    )
Absolute change in total energy (target)   :   0.3725302294E-01 (  0.1000000000E-07)
 
Time (CPU seconds) :       207.45
 
+--------------------+
| Loop number :    4 |
+--------------------+
 
Energies :
 Fermi                       :     0.539732305808    
 sum of eigenvalues          :     -5395.84253370    
 electron kinetic            :      9443.17616895    
 core electron kinetic       :      9181.23481767    
 Coulomb                     :     -18239.0380443    
 Coulomb potential           :     -14479.9586709    
 nuclear-nuclear             :     -977.056117016    
 electron-nuclear            :     -20044.0051837    
 Hartree                     :      2782.02325640    
 Madelung                    :     -10999.0587088    
 xc potential                :     -359.060031784    
 exchange                    :     -265.870361129    
 correlation                 :     -4.69159785480    
 total energy                :     -9066.42383432    
 
Density of states at Fermi energy :    68.05943619    
 (states/Hartree/unit cell)
 
Estimated indirect band gap :   0.1276757373E-04
 from k-point    170 to k-point    201
Estimated direct band gap   :   0.9949750521E-03
 at k-point    151
 
Charges :
 core                        :    56.00000000    
 valence                     :    32.00000000    
 interstitial                :    3.976157126    
 muffin-tins (core leakage)
  species :    1 (Ru)
   atom    1                 :    42.01192144     (  0.4384593915E-06)
   atom    2                 :    42.01192144     (  0.4384593915E-06)
 total in muffin-tins        :    84.02384287    
 total calculated charge     :    87.99978058    
 total charge                :    88.00000000    
 error                       :   0.2194196985E-03
 
Wrote STATE.OUT
 
RMS change in Kohn-Sham potential (target) :   0.6305091558E-02 (   10.00000000    )
Absolute change in total energy (target)   :   0.3485876724E-01 (  0.1000000000E-07)
 
Time (CPU seconds) :       275.53
 
+--------------------+
| Loop number :    5 |
+--------------------+
 
Energies :
 Fermi                       :     0.539737878344    
 sum of eigenvalues          :     -5395.84775447    
 electron kinetic            :      9443.16784799    
 core electron kinetic       :      9181.23274027    
 Coulomb                     :     -18239.0445455    
 Coulomb potential           :     -14479.9549977    
 nuclear-nuclear             :     -977.056117016    
 electron-nuclear            :     -20044.0218593    
 Hartree                     :      2782.03343079    
 Madelung                    :     -10999.0670467    
 xc potential                :     -359.060604766    
 exchange                    :     -265.870806003    
 correlation                 :     -4.69159318022    
 total energy                :     -9066.43909669    
 
Density of states at Fermi energy :    66.87782796    
 (states/Hartree/unit cell)
 
Estimated indirect band gap :   0.2579653467E-04
 from k-point    287 to k-point    145
Estimated direct band gap   :   0.9895058293E-03
 at k-point    151
 
Charges :
 core                        :    56.00000000    
 valence                     :    32.00000000    
 interstitial                :    3.975863523    
 muffin-tins (core leakage)
  species :    1 (Ru)
   atom    1                 :    42.01206824     (  0.4387919894E-06)
   atom    2                 :    42.01206824     (  0.4387919894E-06)
 total in muffin-tins        :    84.02413648    
 total calculated charge     :    87.99978077    
 total charge                :    88.00000000    
 error                       :   0.2192261391E-03
 
RMS change in Kohn-Sham potential (target) :   0.2009167164E-02 (   10.00000000    )
Absolute change in total energy (target)   :   0.2397706623E-01 (  0.1000000000E-07)
 
Time (CPU seconds) :       343.83
 
+--------------------+
| Loop number :    6 |
+--------------------+
 
Energies :
 Fermi                       :     0.539738595682    
 sum of eigenvalues          :     -5395.84919354    
 electron kinetic            :      9443.16552814    
 core electron kinetic       :      9181.23235668    
 Coulomb                     :     -18239.0465348    
 Coulomb potential           :     -14479.9539425    
 nuclear-nuclear             :     -977.056117016    
 electron-nuclear            :     -20044.0268930    
 Hartree                     :      2782.03647527    
 Madelung                    :     -10999.0695635    
 xc potential                :     -359.060779180    
 exchange                    :     -265.870942311    
 correlation                 :     -4.69159138460    
 total energy                :     -9066.44354034    
 
Density of states at Fermi energy :    66.53644005    
 (states/Hartree/unit cell)
 
Estimated indirect band gap :   0.1882004665E-04
 from k-point    287 to k-point    145
Estimated direct band gap   :   0.9871782261E-03
 at k-point    151
 
Charges :
 core                        :    56.00000000    
 valence                     :    32.00000000    
 interstitial                :    3.975774683    
 muffin-tins (core leakage)
  species :    1 (Ru)
   atom    1                 :    42.01211266     (  0.4385707868E-06)
   atom    2                 :    42.01211266     (  0.4385707868E-06)
 total in muffin-tins        :    84.02422532    
 total calculated charge     :    87.99978084    
 total charge                :    88.00000000    
 error                       :   0.2191582217E-03
 
Wrote STATE.OUT
 
RMS change in Kohn-Sham potential (target) :   0.7760259478E-03 (   10.00000000    )
Absolute change in total energy (target)   :   0.1043791270E-01 (  0.1000000000E-07)
 
Time (CPU seconds) :       411.88
 
+--------------------+
| Loop number :    7 |
+--------------------+
 
Energies :
 Fermi                       :     0.539739043939    
 sum of eigenvalues          :     -5395.84970963    
 electron kinetic            :      9443.16465404    
 core electron kinetic       :      9181.23201937    
 Coulomb                     :     -18239.0474183    
 Coulomb potential           :     -14479.9535078    
 nuclear-nuclear             :     -977.056117016    
 electron-nuclear            :     -20044.0290947    
 Hartree                     :      2782.03779346    
 Madelung                    :     -10999.0706644    
 xc potential                :     -359.060855838    
 exchange                    :     -265.871002615    
 correlation                 :     -4.69159049472    
 total energy                :     -9066.44535737    
 
Density of states at Fermi energy :    66.40291844    
 (states/Hartree/unit cell)
 
Estimated indirect band gap :   0.2110338652E-04
 from k-point    287 to k-point    145
Estimated direct band gap   :   0.9856530995E-03
 at k-point    151
 
Charges :
 core                        :    56.00000000    
 valence                     :    32.00000000    
 interstitial                :    3.975737218    
 muffin-tins (core leakage)
  species :    1 (Ru)
   atom    1                 :    42.01213139     (  0.4385897796E-06)
   atom    2                 :    42.01213139     (  0.4385897796E-06)
 total in muffin-tins        :    84.02426278    
 total calculated charge     :    87.99978089    
 total charge                :    88.00000000    
 error                       :   0.2191119680E-03
 
RMS change in Kohn-Sham potential (target) :   0.1619019833E-02 (   10.00000000    )
Absolute change in total energy (target)   :   0.4426512289E-02 (  0.1000000000E-07)
 
Time (CPU seconds) :       479.79
 
+--------------------+
| Loop number :    8 |
+--------------------+
 
Energies :
 Fermi                       :     0.539738619536    
 sum of eigenvalues          :     -5395.84959606    
 electron kinetic            :      9443.16490036    
 core electron kinetic       :      9181.23212884    
 Coulomb                     :     -18239.0473982    
 Coulomb potential           :     -14479.9536481    
 nuclear-nuclear             :     -977.056117016    
 electron-nuclear            :     -20044.0289142    
 Hartree                     :      2782.03763306    
 Madelung                    :     -10999.0705741    
 xc potential                :     -359.060848309    
 exchange                    :     -265.870996885    
 correlation                 :     -4.69159060362    
 total energy                :     -9066.44508531    
 
Density of states at Fermi energy :    66.41978636    
 (states/Hartree/unit cell)
 
Estimated indirect band gap :   0.2888389484E-04
 from k-point    287 to k-point    145
Estimated direct band gap   :   0.9851318350E-03
 at k-point    151
 
Charges :
 core                        :    56.00000000    
 valence                     :    32.00000000    
 interstitial                :    3.975746251    
 muffin-tins (core leakage)
  species :    1 (Ru)
   atom    1                 :    42.01212687     (  0.4386325010E-06)
   atom    2                 :    42.01212687     (  0.4386325010E-06)
 total in muffin-tins        :    84.02425375    
 total calculated charge     :    87.99978090    
 total charge                :    88.00000000    
 error                       :   0.2190995949E-03
 
Wrote STATE.OUT
 
RMS change in Kohn-Sham potential (target) :   0.6195675449E-03 (   10.00000000    )
Absolute change in total energy (target)   :   0.8345679034E-03 (  0.1000000000E-07)
 
Time (CPU seconds) :       547.35
 
+--------------------+
| Loop number :    9 |
+--------------------+
 
Energies :
 Fermi                       :     0.539738584985    
 sum of eigenvalues          :     -5395.84955530    
 electron kinetic            :      9443.16495272    
 core electron kinetic       :      9181.23216406    
 Coulomb                     :     -18239.0474226    
 Coulomb potential           :     -14479.9536584    
 nuclear-nuclear             :     -977.056117016    
 electron-nuclear            :     -20044.0289527    
 Hartree                     :      2782.03764715    
 Madelung                    :     -10999.0705934    
 xc potential                :     -359.060849621    
 exchange                    :     -265.870998009    
 correlation                 :     -4.69159054784    
 total energy                :     -9066.44505840    
 
Density of states at Fermi energy :    66.43602730    
 (states/Hartree/unit cell)
 
Estimated indirect band gap :   0.2966915045E-04
 from k-point    287 to k-point    145
Estimated direct band gap   :   0.9852471857E-03
 at k-point    151
 
Charges :
 core                        :    56.00000000    
 valence                     :    32.00000000    
 interstitial                :    3.975745822    
 muffin-tins (core leakage)
  species :    1 (Ru)
   atom    1                 :    42.01212709     (  0.4385902983E-06)
   atom    2                 :    42.01212709     (  0.4385902983E-06)
 total in muffin-tins        :    84.02425418    
 total calculated charge     :    87.99978091    
 total charge                :    88.00000000    
 error                       :   0.2190912555E-03
 
RMS change in Kohn-Sham potential (target) :   0.4263201546E-03 (   10.00000000    )
Absolute change in total energy (target)   :   0.1817303619E-03 (  0.1000000000E-07)
 
Time (CPU seconds) :       614.55
 
+--------------------+
| Loop number :   10 |
+--------------------+
 
Energies :
 Fermi                       :     0.539738700835    
 sum of eigenvalues          :     -5395.84952756    
 electron kinetic            :      9443.16497624    
 core electron kinetic       :      9181.23219318    
 Coulomb                     :     -18239.0474332    
 Coulomb potential           :     -14479.9536531    
 nuclear-nuclear             :     -977.056117016    
 electron-nuclear            :     -20044.0289793    
 Hartree                     :      2782.03766312    
 Madelung                    :     -10999.0706067    
 xc potential                :     -359.060850698    
 exchange                    :     -265.870998938    
 correlation                 :     -4.69159049197    
 total energy                :     -9066.44504643    
 
Density of states at Fermi energy :    66.44777403    
 (states/Hartree/unit cell)
 
Estimated indirect band gap :   0.2898027732E-04
 from k-point    287 to k-point    145
Estimated direct band gap   :   0.9854361714E-03
 at k-point    151
 
Charges :
 core                        :    56.00000000    
 valence                     :    32.00000000    
 interstitial                :    3.975744523    
 muffin-tins (core leakage)
  species :    1 (Ru)
   atom    1                 :    42.01212774     (  0.4386149470E-06)
   atom    2                 :    42.01212774     (  0.4386149470E-06)
 total in muffin-tins        :    84.02425548    
 total calculated charge     :    87.99978091    
 total charge                :    88.00000000    
 error                       :   0.2190852859E-03
 
Wrote STATE.OUT
 
RMS change in Kohn-Sham potential (target) :   0.3721885632E-03 (   10.00000000    )
Absolute change in total energy (target)   :   0.3345531513E-04 (  0.1000000000E-07)
 
Time (CPU seconds) :       681.37
 
+--------------------+
| Loop number :   11 |
+--------------------+
 
Energies :
 Fermi                       :     0.539738795415    
 sum of eigenvalues          :     -5395.84952102    
 electron kinetic            :      9443.16497835    
 core electron kinetic       :      9181.23218428    
 Coulomb                     :     -18239.0474267    
 Coulomb potential           :     -14479.9536489    
 nuclear-nuclear             :     -977.056117016    
 electron-nuclear            :     -20044.0289705    
 Hartree                     :      2782.03766078    
 Madelung                    :     -10999.0706022    
 xc potential                :     -359.060850476    
 exchange                    :     -265.870998797    
 correlation                 :     -4.69159048078    
 total energy                :     -9066.44503762    
 
Density of states at Fermi energy :    66.44870530    
 (states/Hartree/unit cell)
 
Estimated indirect band gap :   0.2842111288E-04
 from k-point    287 to k-point    145
Estimated direct band gap   :   0.9854943313E-03
 at k-point    151
 
Charges :
 core                        :    56.00000000    
 valence                     :    32.00000000    
 interstitial                :    3.975744151    
 muffin-tins (core leakage)
  species :    1 (Ru)
   atom    1                 :    42.01212792     (  0.4387408801E-06)
   atom    2                 :    42.01212792     (  0.4387408801E-06)
 total in muffin-tins        :    84.02425585    
 total calculated charge     :    87.99978092    
 total charge                :    88.00000000    
 error                       :   0.2190845603E-03
 
RMS change in Kohn-Sham potential (target) :   0.2350023533E-03 (   10.00000000    )
Absolute change in total energy (target)   :   0.4441044439E-06 (  0.1000000000E-07)
 
Time (CPU seconds) :       748.02
 
+--------------------+
| Loop number :   12 |
+--------------------+
 
Energies :
 Fermi                       :     0.539738925286    
 sum of eigenvalues          :     -5395.84950428    
 electron kinetic            :      9443.16499426    
 core electron kinetic       :      9181.23220055    
 Coulomb                     :     -18239.0474205    
 Coulomb potential           :     -14479.9536484    
 nuclear-nuclear             :     -977.056117016    
 electron-nuclear            :     -20044.0289586    
 Hartree                     :      2782.03765509    
 Madelung                    :     -10999.0705963    
 xc potential                :     -359.060850095    
 exchange                    :     -265.870998557    
 correlation                 :     -4.69159046679    
 total energy                :     -9066.44501531    
 
Density of states at Fermi energy :    66.45024330    
 (states/Hartree/unit cell)
 
Estimated indirect band gap :   0.2809744557E-04
 from k-point    287 to k-point    145
Estimated direct band gap   :   0.9855423189E-03
 at k-point    151
 
Charges :
 core                        :    56.00000000    
 valence                     :    32.00000000    
 interstitial                :    3.975743925    
 muffin-tins (core leakage)
  species :    1 (Ru)
   atom    1                 :    42.01212804     (  0.4385986649E-06)
   atom    2                 :    42.01212804     (  0.4385986649E-06)
 total in muffin-tins        :    84.02425608    
 total calculated charge     :    87.99978092    
 total charge                :    88.00000000    
 error                       :   0.2190814393E-03
 
Wrote STATE.OUT
 
RMS change in Kohn-Sham potential (target) :   0.2227182447E-03 (   10.00000000    )
Absolute change in total energy (target)   :   0.2241912443E-04 (  0.1000000000E-07)
 
Time (CPU seconds) :       814.61
 
+--------------------+
| Loop number :   13 |
+--------------------+
 
Energies :
 Fermi                       :     0.539738928031    
 sum of eigenvalues          :     -5395.84950651    
 electron kinetic            :      9443.16499190    
 core electron kinetic       :      9181.23221906    
 Coulomb                     :     -18239.0474190    
 Coulomb potential           :     -14479.9536484    
 nuclear-nuclear             :     -977.056117016    
 electron-nuclear            :     -20044.0289557    
 Hartree                     :      2782.03765365    
 Madelung                    :     -10999.0705948    
 xc potential                :     -359.060850046    
 exchange                    :     -265.870998514    
 correlation                 :     -4.69159046802    
 total energy                :     -9066.44501611    
 
Density of states at Fermi energy :    66.45016648    
 (states/Hartree/unit cell)
 
Estimated indirect band gap :   0.2802657372E-04
 from k-point    287 to k-point    145
Estimated direct band gap   :   0.9855473911E-03
 at k-point    151
 
Charges :
 core                        :    56.00000000    
 valence                     :    32.00000000    
 interstitial                :    3.975743928    
 muffin-tins (core leakage)
  species :    1 (Ru)
   atom    1                 :    42.01212804     (  0.4387739203E-06)
   atom    2                 :    42.01212804     (  0.4387739203E-06)
 total in muffin-tins        :    84.02425607    
 total calculated charge     :    87.99978092    
 total charge                :    88.00000000    
 error                       :   0.2190819375E-03
 
RMS change in Kohn-Sham potential (target) :   0.9814949819E-04 (   10.00000000    )
Absolute change in total energy (target)   :   0.4802854164E-05 (  0.1000000000E-07)
 
Time (CPU seconds) :       881.21
 
+--------------------+
| Loop number :   14 |
+--------------------+
 
Energies :
 Fermi                       :     0.539738825228    
 sum of eigenvalues          :     -5395.84953365    
 electron kinetic            :      9443.16496476    
 core electron kinetic       :      9181.23219167    
 Coulomb                     :     -18239.0474234    
 Coulomb potential           :     -14479.9536482    
 nuclear-nuclear             :     -977.056117016    
 electron-nuclear            :     -20044.0289645    
 Hartree                     :      2782.03765818    
 Madelung                    :     -10999.0705993    
 xc potential                :     -359.060850228    
 exchange                    :     -265.870998583    
 correlation                 :     -4.69159049683    
 total energy                :     -9066.44504769    
 
Density of states at Fermi energy :    66.44333949    
 (states/Hartree/unit cell)
 
Estimated indirect band gap :   0.2832051416E-04
 from k-point    287 to k-point    145
Estimated direct band gap   :   0.9854450394E-03
 at k-point    151
 
Charges :
 core                        :    56.00000000    
 valence                     :    32.00000000    
 interstitial                :    3.975744356    
 muffin-tins (core leakage)
  species :    1 (Ru)
   atom    1                 :    42.01212782     (  0.4386468078E-06)
   atom    2                 :    42.01212782     (  0.4386468078E-06)
 total in muffin-tins        :    84.02425564    
 total calculated charge     :    87.99978091    
 total charge                :    88.00000000    
 error                       :   0.2190858444E-03
 
Wrote STATE.OUT
 
RMS change in Kohn-Sham potential (target) :   0.3654674393E-03 (   10.00000000    )
Absolute change in total energy (target)   :   0.3038028262E-04 (  0.1000000000E-07)
 
Time (CPU seconds) :       947.61
 
+--------------------+
| Loop number :   15 |
+--------------------+
 
Energies :
 Fermi                       :     0.539738880336    
 sum of eigenvalues          :     -5395.84953216    
 electron kinetic            :      9443.16496589    
 core electron kinetic       :      9181.23219347    
 Coulomb                     :     -18239.0474204    
 Coulomb potential           :     -14479.9536481    
 nuclear-nuclear             :     -977.056117016    
 electron-nuclear            :     -20044.0289586    
 Hartree                     :      2782.03765526    
 Madelung                    :     -10999.0705963    
 xc potential                :     -359.060849957    
 exchange                    :     -265.870998382    
 correlation                 :     -4.69159049860    
 total energy                :     -9066.44504336    
 
Density of states at Fermi energy :    66.44301848    
 (states/Hartree/unit cell)
 
Estimated indirect band gap :   0.2809935706E-04
 from k-point    287 to k-point    145
Estimated direct band gap   :   0.9854615550E-03
 at k-point    151
 
Charges :
 core                        :    56.00000000    
 valence                     :    32.00000000    
 interstitial                :    3.975744338    
 muffin-tins (core leakage)
  species :    1 (Ru)
   atom    1                 :    42.01212783     (  0.4387079713E-06)
   atom    2                 :    42.01212783     (  0.4387079713E-06)
 total in muffin-tins        :    84.02425566    
 total calculated charge     :    87.99978091    
 total charge                :    88.00000000    
 error                       :   0.2190853263E-03
 
RMS change in Kohn-Sham potential (target) :   0.2609643919E-03 (   10.00000000    )
Absolute change in total energy (target)   :   0.3264218321E-05 (  0.1000000000E-07)
 
Time (CPU seconds) :      1014.12
 
+--------------------+
| Loop number :   16 |
+--------------------+
 
Energies :
 Fermi                       :     0.539738863087    
 sum of eigenvalues          :     -5395.84953303    
 electron kinetic            :      9443.16496549    
 core electron kinetic       :      9181.23219898    
 Coulomb                     :     -18239.0474220    
 Coulomb potential           :     -14479.9536485    
 nuclear-nuclear             :     -977.056117016    
 electron-nuclear            :     -20044.0289616    
 Hartree                     :      2782.03765654    
 Madelung                    :     -10999.0705978    
 xc potential                :     -359.060850031    
 exchange                    :     -265.870998434    
 correlation                 :     -4.69159049853    
 total energy                :     -9066.44504549    
 
Density of states at Fermi energy :    66.44368211    
 (states/Hartree/unit cell)
 
Estimated indirect band gap :   0.2812541109E-04
 from k-point    287 to k-point    145
Estimated direct band gap   :   0.9854659451E-03
 at k-point    151
 
Charges :
 core                        :    56.00000000    
 valence                     :    32.00000000    
 interstitial                :    3.975744348    
 muffin-tins (core leakage)
  species :    1 (Ru)
   atom    1                 :    42.01212783     (  0.4387024397E-06)
   atom    2                 :    42.01212783     (  0.4387024397E-06)
 total in muffin-tins        :    84.02425565    
 total calculated charge     :    87.99978091    
 total charge                :    88.00000000    
 error                       :   0.2190854490E-03
 
Wrote STATE.OUT
 
RMS change in Kohn-Sham potential (target) :   0.2508710957E-03 (   10.00000000    )
Absolute change in total energy (target)   :   0.2943419531E-05 (  0.1000000000E-07)
 
Time (CPU seconds) :      1080.63
 
+--------------------+
| Loop number :   17 |
+--------------------+
 
Energies :
 Fermi                       :     0.539738815793    
 sum of eigenvalues          :     -5395.84954020    
 electron kinetic            :      9443.16495875    
 core electron kinetic       :      9181.23218628    
 Coulomb                     :     -18239.0474237    
 Coulomb potential           :     -14479.9536488    
 nuclear-nuclear             :     -977.056117016    
 electron-nuclear            :     -20044.0289645    
 Hartree                     :      2782.03765788    
 Madelung                    :     -10999.0705993    
 xc potential                :     -359.060850164    
 exchange                    :     -265.870998509    
 correlation                 :     -4.69159050601    
 total energy                :     -9066.44505394    
 
Density of states at Fermi energy :    66.44304573    
 (states/Hartree/unit cell)
 
Estimated indirect band gap :   0.2822378032E-04
 from k-point    287 to k-point    145
Estimated direct band gap   :   0.9854489935E-03
 at k-point    151
 
Charges :
 core                        :    56.00000000    
 valence                     :    32.00000000    
 interstitial                :    3.975744459    
 muffin-tins (core leakage)
  species :    1 (Ru)
   atom    1                 :    42.01212777     (  0.4386126946E-06)
   atom    2                 :    42.01212777     (  0.4386126946E-06)
 total in muffin-tins        :    84.02425554    
 total calculated charge     :    87.99978091    
 total charge                :    88.00000000    
 error                       :   0.2190864995E-03
 
RMS change in Kohn-Sham potential (target) :   0.4260267764E-03 (   10.00000000    )
Absolute change in total energy (target)   :   0.9190378478E-05 (  0.1000000000E-07)
 
Time (CPU seconds) :      1147.22
 
+--------------------+
| Loop number :   18 |
+--------------------+
 
Energies :
 Fermi                       :     0.539738893639    
 sum of eigenvalues          :     -5395.84953109    
 electron kinetic            :      9443.16496809    
 core electron kinetic       :      9181.23219224    
 Coulomb                     :     -18239.0474224    
 Coulomb potential           :     -14479.9536491    
 nuclear-nuclear             :     -977.056117016    
 electron-nuclear            :     -20044.0289616    
 Hartree                     :      2782.03765622    
 Madelung                    :     -10999.0705978    
 xc potential                :     -359.060850040    
 exchange                    :     -265.870998454    
 correlation                 :     -4.69159049688    
 total energy                :     -9066.44504324    
 
Density of states at Fermi energy :    66.44401435    
 (states/Hartree/unit cell)
 
Estimated indirect band gap :   0.2810756260E-04
 from k-point    287 to k-point    145
Estimated direct band gap   :   0.9854726499E-03
 at k-point    151
 
Charges :
 core                        :    56.00000000    
 valence                     :    32.00000000    
 interstitial                :    3.975744329    
 muffin-tins (core leakage)
  species :    1 (Ru)
   atom    1                 :    42.01212784     (  0.4386381818E-06)
   atom    2                 :    42.01212784     (  0.4386381818E-06)
 total in muffin-tins        :    84.02425567    
 total calculated charge     :    87.99978092    
 total charge                :    88.00000000    
 error                       :   0.2190842850E-03
 
Wrote STATE.OUT
 
RMS change in Kohn-Sham potential (target) :   0.3961877019E-03 (   10.00000000    )
Absolute change in total energy (target)   :   0.8409628208E-05 (  0.1000000000E-07)
 
Time (CPU seconds) :      1213.79
 
+--------------------+
| Loop number :   19 |
+--------------------+
 
Energies :
 Fermi                       :     0.539738930026    
 sum of eigenvalues          :     -5395.84952621    
 electron kinetic            :      9443.16497311    
 core electron kinetic       :      9181.23219740    
 Coulomb                     :     -18239.0474225    
 Coulomb potential           :     -14479.9536493    
 nuclear-nuclear             :     -977.056117016    
 electron-nuclear            :     -20044.0289616    
 Hartree                     :      2782.03765614    
 Madelung                    :     -10999.0705978    
 xc potential                :     -359.060850024    
 exchange                    :     -265.870998463    
 correlation                 :     -4.69159049066    
 total energy                :     -9066.44503829    
 
Density of states at Fermi energy :    66.44472411    
 (states/Hartree/unit cell)
 
Estimated indirect band gap :   0.2808408319E-04
 from k-point    287 to k-point    145
Estimated direct band gap   :   0.9854841787E-03
 at k-point    151
 
Charges :
 core                        :    56.00000000    
 valence                     :    32.00000000    
 interstitial                :    3.975744262    
 muffin-tins (core leakage)
  species :    1 (Ru)
   atom    1                 :    42.01212787     (  0.4385978016E-06)
   atom    2                 :    42.01212787     (  0.4385978016E-06)
 total in muffin-tins        :    84.02425574    
 total calculated charge     :    87.99978092    
 total charge                :    88.00000000    
 error                       :   0.2190829507E-03
 
RMS change in Kohn-Sham potential (target) :   0.2612101646E-03 (   10.00000000    )
Absolute change in total energy (target)   :   0.7044067388E-05 (  0.1000000000E-07)
 
Time (CPU seconds) :      1280.38
 
+--------------------+
| Loop number :   20 |
+--------------------+
 
Energies :
 Fermi                       :     0.539738952418    
 sum of eigenvalues          :     -5395.84952588    
 electron kinetic            :      9443.16497375    
 core electron kinetic       :      9181.23219608    
 Coulomb                     :     -18239.0474226    
 Coulomb potential           :     -14479.9536496    
 nuclear-nuclear             :     -977.056117016    
 electron-nuclear            :     -20044.0289616    
 Hartree                     :      2782.03765598    
 Madelung                    :     -10999.0705978    
 xc potential                :     -359.060850007    
 exchange                    :     -265.870998460    
 correlation                 :     -4.69159049078    
 total energy                :     -9066.44503782    
 
Density of states at Fermi energy :    66.44429299    
 (states/Hartree/unit cell)
 
Estimated indirect band gap :   0.2809020278E-04
 from k-point    287 to k-point    145
Estimated direct band gap   :   0.9854802126E-03
 at k-point    151
 
Charges :
 core                        :    56.00000000    
 valence                     :    32.00000000    
 interstitial                :    3.975744276    
 muffin-tins (core leakage)
  species :    1 (Ru)
   atom    1                 :    42.01212786     (  0.4387669996E-06)
   atom    2                 :    42.01212786     (  0.4387669996E-06)
 total in muffin-tins        :    84.02425572    
 total calculated charge     :    87.99978092    
 total charge                :    88.00000000    
 error                       :   0.2190826923E-03
 
Wrote STATE.OUT
 
RMS change in Kohn-Sham potential (target) :   0.3585493386E-03 (   10.00000000    )
Absolute change in total energy (target)   :   0.2233711712E-05 (  0.1000000000E-07)
 
Time (CPU seconds) :      1346.98
 
+--------------------+
| Loop number :   21 |
+--------------------+
 
Energies :
 Fermi                       :     0.539738931626    
 sum of eigenvalues          :     -5395.84952401    
 electron kinetic            :      9443.16497502    
 core electron kinetic       :      9181.23219370    
 Coulomb                     :     -18239.0474223    
 Coulomb potential           :     -14479.9536490    
 nuclear-nuclear             :     -977.056117016    
 electron-nuclear            :     -20044.0289616    
 Hartree                     :      2782.03765630    
 Madelung                    :     -10999.0705978    
 xc potential                :     -359.060850057    
 exchange                    :     -265.870998494    
 correlation                 :     -4.69159048833    
 total energy                :     -9066.44503625    
 
Density of states at Fermi energy :    66.44462053    
 (states/Hartree/unit cell)
 
Estimated indirect band gap :   0.2814955922E-04
 from k-point    287 to k-point    145
Estimated direct band gap   :   0.9854779743E-03
 at k-point    151
 
Charges :
 core                        :    56.00000000    
 valence                     :    32.00000000    
 interstitial                :    3.975744241    
 muffin-tins (core leakage)
  species :    1 (Ru)
   atom    1                 :    42.01212788     (  0.4387385317E-06)
   atom    2                 :    42.01212788     (  0.4387385317E-06)
 total in muffin-tins        :    84.02425576    
 total calculated charge     :    87.99978092    
 total charge                :    88.00000000    
 error                       :   0.2190829579E-03
 
RMS change in Kohn-Sham potential (target) :   0.3218040511E-03 (   10.00000000    )
Absolute change in total energy (target)   :   0.2126595064E-05 (  0.1000000000E-07)
 
Time (CPU seconds) :      1413.47
 
+--------------------+
| Loop number :   22 |
+--------------------+
 
Energies :
 Fermi                       :     0.539738946623    
 sum of eigenvalues          :     -5395.84951977    
 electron kinetic            :      9443.16497920    
 core electron kinetic       :      9181.23219757    
 Coulomb                     :     -18239.0474223    
 Coulomb potential           :     -14479.9536489    
 nuclear-nuclear             :     -977.056117016    
 electron-nuclear            :     -20044.0289616    
 Hartree                     :      2782.03765634    
 Madelung                    :     -10999.0705978    
 xc potential                :     -359.060850064    
 exchange                    :     -265.870998510    
 correlation                 :     -4.69159048370    
 total energy                :     -9066.44503205    
 
Density of states at Fermi energy :    66.44506156    
 (states/Hartree/unit cell)
 
Estimated indirect band gap :   0.2815889337E-04
 from k-point    287 to k-point    145
Estimated direct band gap   :   0.9854828464E-03
 at k-point    151
 
Charges :
 core                        :    56.00000000    
 valence                     :    32.00000000    
 interstitial                :    3.975744174    
 muffin-tins (core leakage)
  species :    1 (Ru)
   atom    1                 :    42.01212791     (  0.4385704671E-06)
   atom    2                 :    42.01212791     (  0.4385704671E-06)
 total in muffin-tins        :    84.02425583    
 total calculated charge     :    87.99978092    
 total charge                :    88.00000000    
 error                       :   0.2190819558E-03
 
Wrote STATE.OUT
 
RMS change in Kohn-Sham potential (target) :   0.2598714453E-03 (   10.00000000    )
Absolute change in total energy (target)   :   0.4736371920E-05 (  0.1000000000E-07)
 
Time (CPU seconds) :      1480.11
 
+--------------------+
| Loop number :   23 |
+--------------------+
 
Energies :
 Fermi                       :     0.539738895631    
 sum of eigenvalues          :     -5395.84952084    
 electron kinetic            :      9443.16497787    
 core electron kinetic       :      9181.23219659    
 Coulomb                     :     -18239.0474221    
 Coulomb potential           :     -14479.9536486    
 nuclear-nuclear             :     -977.056117016    
 electron-nuclear            :     -20044.0289616    
 Hartree                     :      2782.03765650    
 Madelung                    :     -10999.0705978    
 xc potential                :     -359.060850121    
 exchange                    :     -265.870998546    
 correlation                 :     -4.69159048251    
 total energy                :     -9066.44503326    
 
Density of states at Fermi energy :    66.44495123    
 (states/Hartree/unit cell)
 
Estimated indirect band gap :   0.2822831319E-04
 from k-point    287 to k-point    145
Estimated direct band gap   :   0.9854735066E-03
 at k-point    151
 
Charges :
 core                        :    56.00000000    
 valence                     :    32.00000000    
 interstitial                :    3.975744170    
 muffin-tins (core leakage)
  species :    1 (Ru)
   atom    1                 :    42.01212791     (  0.4386172598E-06)
   atom    2                 :    42.01212791     (  0.4386172598E-06)
 total in muffin-tins        :    84.02425583    
 total calculated charge     :    87.99978092    
 total charge                :    88.00000000    
 error                       :   0.2190833293E-03
 
RMS change in Kohn-Sham potential (target) :   0.2935232387E-03 (   10.00000000    )
Absolute change in total energy (target)   :   0.2514570951E-07 (  0.1000000000E-07)
 
Time (CPU seconds) :      1546.80
 
+--------------------+
| Loop number :   24 |
+--------------------+
 
Energies :
 Fermi                       :     0.539738887564    
 sum of eigenvalues          :     -5395.84952175    
 electron kinetic            :      9443.16497680    
 core electron kinetic       :      9181.23219224    
 Coulomb                     :     -18239.0474220    
 Coulomb potential           :     -14479.9536484    
 nuclear-nuclear             :     -977.056117016    
 electron-nuclear            :     -20044.0289616    
 Hartree                     :      2782.03765657    
 Madelung                    :     -10999.0705978    
 xc potential                :     -359.060850116    
 exchange                    :     -265.870998537    
 correlation                 :     -4.69159048354    
 total energy                :     -9066.44503424    
 
Density of states at Fermi energy :    66.44490683    
 (states/Hartree/unit cell)
 
Estimated indirect band gap :   0.2822177503E-04
 from k-point    287 to k-point    145
Estimated direct band gap   :   0.9854731399E-03
 at k-point    151
 
Charges :
 core                        :    56.00000000    
 valence                     :    32.00000000    
 interstitial                :    3.975744176    
 muffin-tins (core leakage)
  species :    1 (Ru)
   atom    1                 :    42.01212791     (  0.4386848147E-06)
   atom    2                 :    42.01212791     (  0.4386848147E-06)
 total in muffin-tins        :    84.02425582    
 total calculated charge     :    87.99978092    
 total charge                :    88.00000000    
 error                       :   0.2190837450E-03
 
Wrote STATE.OUT
 
RMS change in Kohn-Sham potential (target) :   0.7381964131E-03 (   10.00000000    )
Absolute change in total energy (target)   :   0.9926061466E-06 (  0.1000000000E-07)
 
Time (CPU seconds) :      1613.48
 
+--------------------+
| Loop number :   25 |
+--------------------+
 
Energies :
 Fermi                       :     0.539738895282    
 sum of eigenvalues          :     -5395.84951762    
 electron kinetic            :      9443.16498075    
 core electron kinetic       :      9181.23219777    
 Coulomb                     :     -18239.0474204    
 Coulomb potential           :     -14479.9536482    
 nuclear-nuclear             :     -977.056117016    
 electron-nuclear            :     -20044.0289586    
 Hartree                     :      2782.03765519    
 Madelung                    :     -10999.0705963    
 xc potential                :     -359.060850123    
 exchange                    :     -265.870998555    
 correlation                 :     -4.69159047731    
 total energy                :     -9066.44502873    
 
Density of states at Fermi energy :    66.44534491    
 (states/Hartree/unit cell)
 
Estimated indirect band gap :   0.2823796844E-04
 from k-point    287 to k-point    145
Estimated direct band gap   :   0.9854770611E-03
 at k-point    151
 
Charges :
 core                        :    56.00000000    
 valence                     :    32.00000000    
 interstitial                :    3.975744107    
 muffin-tins (core leakage)
  species :    1 (Ru)
   atom    1                 :    42.01212795     (  0.4387341654E-06)
   atom    2                 :    42.01212795     (  0.4387341654E-06)
 total in muffin-tins        :    84.02425589    
 total calculated charge     :    87.99978092    
 total charge                :    88.00000000    
 error                       :   0.2190834222E-03
 
RMS change in Kohn-Sham potential (target) :   0.9049799057E-03 (   10.00000000    )
Absolute change in total energy (target)   :   0.5264877473E-05 (  0.1000000000E-07)
 
Time (CPU seconds) :      1679.99
 
+--------------------+
| Loop number :   26 |
+--------------------+
 
Energies :
 Fermi                       :     0.539738885752    
 sum of eigenvalues          :     -5395.84951999    
 electron kinetic            :      9443.16497831    
 core electron kinetic       :      9181.23220377    
 Coulomb                     :     -18239.0474219    
 Coulomb potential           :     -14479.9536482    
 nuclear-nuclear             :     -977.056117016    
 electron-nuclear            :     -20044.0289616    
 Hartree                     :      2782.03765671    
 Madelung                    :     -10999.0705978    
 xc potential                :     -359.060850141    
 exchange                    :     -265.870998559    
 correlation                 :     -4.69159048127    
 total energy                :     -9066.44503262    
 
Density of states at Fermi energy :    66.44482291    
 (states/Hartree/unit cell)
 
Estimated indirect band gap :   0.2826307568E-04
 from k-point    287 to k-point    145
Estimated direct band gap   :   0.9854687883E-03
 at k-point    151
 
Charges :
 core                        :    56.00000000    
 valence                     :    32.00000000    
 interstitial                :    3.975744157    
 muffin-tins (core leakage)
  species :    1 (Ru)
   atom    1                 :    42.01212792     (  0.4387699519E-06)
   atom    2                 :    42.01212792     (  0.4387699519E-06)
 total in muffin-tins        :    84.02425584    
 total calculated charge     :    87.99978092    
 total charge                :    88.00000000    
 error                       :   0.2190838950E-03
 
Wrote STATE.OUT
 
RMS change in Kohn-Sham potential (target) :   0.7329470617E-03 (   10.00000000    )
Absolute change in total energy (target)   :   0.2571541700E-05 (  0.1000000000E-07)
 
Time (CPU seconds) :      1746.64
 
+--------------------+
| Loop number :   27 |
+--------------------+
 
Energies :
 Fermi                       :     0.539738877720    
 sum of eigenvalues          :     -5395.84953048    
 electron kinetic            :      9443.16496829    
 core electron kinetic       :      9181.23219575    
 Coulomb                     :     -18239.0474236    
 Coulomb potential           :     -14479.9536486    
 nuclear-nuclear             :     -977.056117016    
 electron-nuclear            :     -20044.0289645    
 Hartree                     :      2782.03765795    
 Madelung                    :     -10999.0705993    
 xc potential                :     -359.060850135    
 exchange                    :     -265.870998523    
 correlation                 :     -4.69159049569    
 total energy                :     -9066.44504433    
 
Density of states at Fermi energy :    66.44324385    
 (states/Hartree/unit cell)
 
Estimated indirect band gap :   0.2824308142E-04
 from k-point    287 to k-point    145
Estimated direct band gap   :   0.9854525587E-03
 at k-point    151
 
Charges :
 core                        :    56.00000000    
 valence                     :    32.00000000    
 interstitial                :    3.975744362    
 muffin-tins (core leakage)
  species :    1 (Ru)
   atom    1                 :    42.01212782     (  0.4386578389E-06)
   atom    2                 :    42.01212782     (  0.4386578389E-06)
 total in muffin-tins        :    84.02425564    
 total calculated charge     :    87.99978092    
 total charge                :    88.00000000    
 error                       :   0.2190845816E-03
 
RMS change in Kohn-Sham potential (target) :   0.6001634018E-03 (   10.00000000    )
Absolute change in total energy (target)   :   0.1235159289E-04 (  0.1000000000E-07)
 
Time (CPU seconds) :      1813.31
 
+--------------------+
| Loop number :   28 |
+--------------------+
 
Energies :
 Fermi                       :     0.539738866253    
 sum of eigenvalues          :     -5395.84953300    
 electron kinetic            :      9443.16496571    
 core electron kinetic       :      9181.23219078    
 Coulomb                     :     -18239.0474236    
 Coulomb potential           :     -14479.9536486    
 nuclear-nuclear             :     -977.056117016    
 electron-nuclear            :     -20044.0289645    
 Hartree                     :      2782.03765798    
 Madelung                    :     -10999.0705993    
 xc potential                :     -359.060850135    
 exchange                    :     -265.870998515    
 correlation                 :     -4.69159049879    
 total energy                :     -9066.44504688    
 
Density of states at Fermi energy :    66.44282965    
 (states/Hartree/unit cell)
 
Estimated indirect band gap :   0.2824929892E-04
 from k-point    287 to k-point    145
Estimated direct band gap   :   0.9854468922E-03
 at k-point    151
 
Charges :
 core                        :    56.00000000    
 valence                     :    32.00000000    
 interstitial                :    3.975744413    
 muffin-tins (core leakage)
  species :    1 (Ru)
   atom    1                 :    42.01212779     (  0.4385543910E-06)
   atom    2                 :    42.01212779     (  0.4385543910E-06)
 total in muffin-tins        :    84.02425559    
 total calculated charge     :    87.99978092    
 total charge                :    88.00000000    
 error                       :   0.2190848857E-03
 
Wrote STATE.OUT
 
RMS change in Kohn-Sham potential (target) :   0.1276316982E-03 (   10.00000000    )
Absolute change in total energy (target)   :   0.5638838047E-05 (  0.1000000000E-07)
 
Time (CPU seconds) :      1879.96
 
+--------------------+
| Loop number :   29 |
+--------------------+
 
Energies :
 Fermi                       :     0.539738869599    
 sum of eigenvalues          :     -5395.84953020    
 electron kinetic            :      9443.16496856    
 core electron kinetic       :      9181.23219970    
 Coulomb                     :     -18239.0474221    
 Coulomb potential           :     -14479.9536486    
 nuclear-nuclear             :     -977.056117016    
 electron-nuclear            :     -20044.0289616    
 Hartree                     :      2782.03765648    
 Madelung                    :     -10999.0705978    
 xc potential                :     -359.060850129    
 exchange                    :     -265.870998524    
 correlation                 :     -4.69159049415    
 total energy                :     -9066.44504258    
 
Density of states at Fermi energy :    66.44328606    
 (states/Hartree/unit cell)
 
Estimated indirect band gap :   0.2824197045E-04
 from k-point    287 to k-point    145
Estimated direct band gap   :   0.9854527514E-03
 at k-point    151
 
Charges :
 core                        :    56.00000000    
 valence                     :    32.00000000    
 interstitial                :    3.975744347    
 muffin-tins (core leakage)
  species :    1 (Ru)
   atom    1                 :    42.01212783     (  0.4385855590E-06)
   atom    2                 :    42.01212783     (  0.4385855590E-06)
 total in muffin-tins        :    84.02425565    
 total calculated charge     :    87.99978092    
 total charge                :    88.00000000    
 error                       :   0.2190846366E-03
 
RMS change in Kohn-Sham potential (target) :   0.1507615645E-02 (   10.00000000    )
Absolute change in total energy (target)   :   0.2890266842E-05 (  0.1000000000E-07)
 
Time (CPU seconds) :      1946.57
 
+--------------------+
| Loop number :   30 |
+--------------------+
 
Energies :
 Fermi                       :     0.539738846904    
 sum of eigenvalues          :     -5395.84953777    
 electron kinetic            :      9443.16496110    
 core electron kinetic       :      9181.23218890    
 Coulomb                     :     -18239.0474222    
 Coulomb potential           :     -14479.9536487    
 nuclear-nuclear             :     -977.056117016    
 electron-nuclear            :     -20044.0289616    
 Hartree                     :      2782.03765643    
 Madelung                    :     -10999.0705978    
 xc potential                :     -359.060850142    
 exchange                    :     -265.870998506    
 correlation                 :     -4.69159050418    
 total energy                :     -9066.44505008    
 
Density of states at Fermi energy :    66.44223045    
 (states/Hartree/unit cell)
 
Estimated indirect band gap :   0.2824365828E-04
 from k-point    287 to k-point    145
Estimated direct band gap   :   0.9854397290E-03
 at k-point    151
 
Charges :
 core                        :    56.00000000    
 valence                     :    32.00000000    
 interstitial                :    3.975744494    
 muffin-tins (core leakage)
  species :    1 (Ru)
   atom    1                 :    42.01212775     (  0.4385188035E-06)
   atom    2                 :    42.01212775     (  0.4385188035E-06)
 total in muffin-tins        :    84.02425551    
 total calculated charge     :    87.99978091    
 total charge                :    88.00000000    
 error                       :   0.2190856092E-03
 
Wrote STATE.OUT
 
RMS change in Kohn-Sham potential (target) :   0.6706905955E-03 (   10.00000000    )
Absolute change in total energy (target)   :   0.6778445822E-05 (  0.1000000000E-07)
 
Time (CPU seconds) :      2013.31
 
+--------------------+
| Loop number :   31 |
+--------------------+
 
Energies :
 Fermi                       :     0.539738859947    
 sum of eigenvalues          :     -5395.84953355    
 electron kinetic            :      9443.16496532    
 core electron kinetic       :      9181.23219074    
 Coulomb                     :     -18239.0474237    
 Coulomb potential           :     -14479.9536487    
 nuclear-nuclear             :     -977.056117016    
 electron-nuclear            :     -20044.0289645    
 Hartree                     :      2782.03765790    
 Madelung                    :     -10999.0705993    
 xc potential                :     -359.060850132    
 exchange                    :     -265.870998512    
 correlation                 :     -4.69159049868    
 total energy                :     -9066.44504734    
 
Density of states at Fermi energy :    66.44285779    
 (states/Hartree/unit cell)
 
Estimated indirect band gap :   0.2823785267E-04
 from k-point    287 to k-point    145
Estimated direct band gap   :   0.9854478411E-03
 at k-point    151
 
Charges :
 core                        :    56.00000000    
 valence                     :    32.00000000    
 interstitial                :    3.975744412    
 muffin-tins (core leakage)
  species :    1 (Ru)
   atom    1                 :    42.01212779     (  0.4386396419E-06)
   atom    2                 :    42.01212779     (  0.4386396419E-06)
 total in muffin-tins        :    84.02425559    
 total calculated charge     :    87.99978091    
 total charge                :    88.00000000    
 error                       :   0.2190851834E-03
 
RMS change in Kohn-Sham potential (target) :   0.8176124791E-04 (   10.00000000    )
Absolute change in total energy (target)   :   0.1040625648E-05 (  0.1000000000E-07)
 
Time (CPU seconds) :      2079.91
 
+--------------------+
| Loop number :   32 |
+--------------------+
 
Energies :
 Fermi                       :     0.539738864684    
 sum of eigenvalues          :     -5395.84953054    
 electron kinetic            :      9443.16496798    
 core electron kinetic       :      9181.23219455    
 Coulomb                     :     -18239.0474220    
 Coulomb potential           :     -14479.9536484    
 nuclear-nuclear             :     -977.056117016    
 electron-nuclear            :     -20044.0289616    
 Hartree                     :      2782.03765659    
 Madelung                    :     -10999.0705978    
 xc potential                :     -359.060850124    
 exchange                    :     -265.870998510    
 correlation                 :     -4.69159049610    
 total energy                :     -9066.44504303    
 
Density of states at Fermi energy :    66.44327028    
 (states/Hartree/unit cell)
 
Estimated indirect band gap :   0.2823826753E-04
 from k-point    287 to k-point    145
Estimated direct band gap   :   0.9854526615E-03
 at k-point    151
 
Charges :
 core                        :    56.00000000    
 valence                     :    32.00000000    
 interstitial                :    3.975744347    
 muffin-tins (core leakage)
  species :    1 (Ru)
   atom    1                 :    42.01212783     (  0.4385974997E-06)
   atom    2                 :    42.01212783     (  0.4385974997E-06)
 total in muffin-tins        :    84.02425565    
 total calculated charge     :    87.99978092    
 total charge                :    88.00000000    
 error                       :   0.2190848019E-03
 
Wrote STATE.OUT
 
RMS change in Kohn-Sham potential (target) :   0.2348330114E-03 (   10.00000000    )
Absolute change in total energy (target)   :   0.4573666956E-05 (  0.1000000000E-07)
 
Time (CPU seconds) :      2146.57
 
+--------------------+
| Loop number :   33 |
+--------------------+
 
Energies :
 Fermi                       :     0.539738863542    
 sum of eigenvalues          :     -5395.84953185    
 electron kinetic            :      9443.16496700    
 core electron kinetic       :      9181.23219444    
 Coulomb                     :     -18239.0474236    
 Coulomb potential           :     -14479.9536487    
 nuclear-nuclear             :     -977.056117016    
 electron-nuclear            :     -20044.0289645    
 Hartree                     :      2782.03765791    
 Madelung                    :     -10999.0705993    
 xc potential                :     -359.060850130    
 exchange                    :     -265.870998519    
 correlation                 :     -4.69159049591    
 total energy                :     -9066.44504566    
 
Density of states at Fermi energy :    66.44305812    
 (states/Hartree/unit cell)
 
Estimated indirect band gap :   0.2823837262E-04
 from k-point    287 to k-point    145
Estimated direct band gap   :   0.9854502751E-03
 at k-point    151
 
Charges :
 core                        :    56.00000000    
 valence                     :    32.00000000    
 interstitial                :    3.975744372    
 muffin-tins (core leakage)
  species :    1 (Ru)
   atom    1                 :    42.01212781     (  0.4385937089E-06)
   atom    2                 :    42.01212781     (  0.4385937089E-06)
 total in muffin-tins        :    84.02425563    
 total calculated charge     :    87.99978092    
 total charge                :    88.00000000    
 error                       :   0.2190848948E-03
 
RMS change in Kohn-Sham potential (target) :   0.5615849290E-03 (   10.00000000    )
Absolute change in total energy (target)   :   0.1485810571E-05 (  0.1000000000E-07)
 
Time (CPU seconds) :      2213.43
 
+--------------------+
| Loop number :   34 |
+--------------------+
 
Energies :
 Fermi                       :     0.539738861646    
 sum of eigenvalues          :     -5395.84953285    
 electron kinetic            :      9443.16496585    
 core electron kinetic       :      9181.23219266    
 Coulomb                     :     -18239.0474236    
 Coulomb potential           :     -14479.9536486    
 nuclear-nuclear             :     -977.056117016    
 electron-nuclear            :     -20044.0289645    
 Hartree                     :      2782.03765798    
 Madelung                    :     -10999.0705993    
 xc potential                :     -359.060850129    
 exchange                    :     -265.870998512    
 correlation                 :     -4.69159049777    
 total energy                :     -9066.44504673    
 
Density of states at Fermi energy :    66.44291037    
 (states/Hartree/unit cell)
 
Estimated indirect band gap :   0.2823963698E-04
 from k-point    287 to k-point    145
Estimated direct band gap   :   0.9854484231E-03
 at k-point    151
 
Charges :
 core                        :    56.00000000    
 valence                     :    32.00000000    
 interstitial                :    3.975744395    
 muffin-tins (core leakage)
  species :    1 (Ru)
   atom    1                 :    42.01212780     (  0.4385881738E-06)
   atom    2                 :    42.01212780     (  0.4385881738E-06)
 total in muffin-tins        :    84.02425560    
 total calculated charge     :    87.99978092    
 total charge                :    88.00000000    
 error                       :   0.2190849745E-03
 
Wrote STATE.OUT
 
RMS change in Kohn-Sham potential (target) :   0.1665894089E-03 (   10.00000000    )
Absolute change in total energy (target)   :   0.1444737791E-05 (  0.1000000000E-07)
 
Time (CPU seconds) :      2280.09
 
+--------------------+
| Loop number :   35 |
+--------------------+
 
Energies :
 Fermi                       :     0.539738864697    
 sum of eigenvalues          :     -5395.84953209    
 electron kinetic            :      9443.16496675    
 core electron kinetic       :      9181.23219393    
 Coulomb                     :     -18239.0474236    
 Coulomb potential           :     -14479.9536487    
 nuclear-nuclear             :     -977.056117016    
 electron-nuclear            :     -20044.0289645    
 Hartree                     :      2782.03765791    
 Madelung                    :     -10999.0705993    
 xc potential                :     -359.060850128    
 exchange                    :     -265.870998513    
 correlation                 :     -4.69159049768    
 total energy                :     -9066.44504590    
 
Density of states at Fermi energy :    66.44300842    
 (states/Hartree/unit cell)
 
Estimated indirect band gap :   0.2823955544E-04
 from k-point    287 to k-point    145
Estimated direct band gap   :   0.9854496989E-03
 at k-point    151
 
Charges :
 core                        :    56.00000000    
 valence                     :    32.00000000    
 interstitial                :    3.975744380    
 muffin-tins (core leakage)
  species :    1 (Ru)
   atom    1                 :    42.01212781     (  0.4386445767E-06)
   atom    2                 :    42.01212781     (  0.4386445767E-06)
 total in muffin-tins        :    84.02425562    
 total calculated charge     :    87.99978092    
 total charge                :    88.00000000    
 error                       :   0.2190849875E-03
 
RMS change in Kohn-Sham potential (target) :   0.2215935236E-03 (   10.00000000    )
Absolute change in total energy (target)   :   0.4691937647E-06 (  0.1000000000E-07)
 
Time (CPU seconds) :      2346.72
 
+--------------------+
| Loop number :   36 |
+--------------------+
 
Energies :
 Fermi                       :     0.539738864001    
 sum of eigenvalues          :     -5395.84953252    
 electron kinetic            :      9443.16496627    
 core electron kinetic       :      9181.23219323    
 Coulomb                     :     -18239.0474236    
 Coulomb potential           :     -14479.9536487    
 nuclear-nuclear             :     -977.056117016    
 electron-nuclear            :     -20044.0289645    
 Hartree                     :      2782.03765793    
 Madelung                    :     -10999.0705993    
 xc potential                :     -359.060850128    
 exchange                    :     -265.870998515    
 correlation                 :     -4.69159049719    
 total energy                :     -9066.44504636    
 
Density of states at Fermi energy :    66.44294647    
 (states/Hartree/unit cell)
 
Estimated indirect band gap :   0.2824031358E-04
 from k-point    287 to k-point    145
Estimated direct band gap   :   0.9854489072E-03
 at k-point    151
 
Charges :
 core                        :    56.00000000    
 valence                     :    32.00000000    
 interstitial                :    3.975744390    
 muffin-tins (core leakage)
  species :    1 (Ru)
   atom    1                 :    42.01212781     (  0.4386904067E-06)
   atom    2                 :    42.01212781     (  0.4386904067E-06)
 total in muffin-tins        :    84.02425561    
 total calculated charge     :    87.99978091    
 total charge                :    88.00000000    
 error                       :   0.2190851053E-03
 
Wrote STATE.OUT
 
RMS change in Kohn-Sham potential (target) :   0.6304913125E-04 (   10.00000000    )
Absolute change in total energy (target)   :   0.3380409908E-06 (  0.1000000000E-07)
 
Time (CPU seconds) :      2413.45
 
+--------------------+
| Loop number :   37 |
+--------------------+
 
Energies :
 Fermi                       :     0.539738865237    
 sum of eigenvalues          :     -5395.84953225    
 electron kinetic            :      9443.16496657    
 core electron kinetic       :      9181.23219363    
 Coulomb                     :     -18239.0474236    
 Coulomb potential           :     -14479.9536487    
 nuclear-nuclear             :     -977.056117016    
 electron-nuclear            :     -20044.0289645    
 Hartree                     :      2782.03765792    
 Madelung                    :     -10999.0705993    
 xc potential                :     -359.060850131    
 exchange                    :     -265.870998516    
 correlation                 :     -4.69159049712    
 total energy                :     -9066.44504607    
 
Density of states at Fermi energy :    66.44298114    
 (states/Hartree/unit cell)
 
Estimated indirect band gap :   0.2824048788E-04
 from k-point    287 to k-point    145
Estimated direct band gap   :   0.9854493493E-03
 at k-point    151
 
Charges :
 core                        :    56.00000000    
 valence                     :    32.00000000    
 interstitial                :    3.975744384    
 muffin-tins (core leakage)
  species :    1 (Ru)
   atom    1                 :    42.01212781     (  0.4387442658E-06)
   atom    2                 :    42.01212781     (  0.4387442658E-06)
 total in muffin-tins        :    84.02425562    
 total calculated charge     :    87.99978091    
 total charge                :    88.00000000    
 error                       :   0.2190851492E-03
 
RMS change in Kohn-Sham potential (target) :   0.1832968045E-03 (   10.00000000    )
Absolute change in total energy (target)   :   0.2008309821E-06 (  0.1000000000E-07)
 
Time (CPU seconds) :      2480.12
 
+--------------------+
| Loop number :   38 |
+--------------------+
 
Energies :
 Fermi                       :     0.539738865153    
 sum of eigenvalues          :     -5395.84953236    
 electron kinetic            :      9443.16496646    
 core electron kinetic       :      9181.23219354    
 Coulomb                     :     -18239.0474236    
 Coulomb potential           :     -14479.9536487    
 nuclear-nuclear             :     -977.056117016    
 electron-nuclear            :     -20044.0289645    
 Hartree                     :      2782.03765792    
 Madelung                    :     -10999.0705993    
 xc potential                :     -359.060850130    
 exchange                    :     -265.870998517    
 correlation                 :     -4.69159049723    
 total energy                :     -9066.44504618    
 
Density of states at Fermi energy :    66.44296648    
 (states/Hartree/unit cell)
 
Estimated indirect band gap :   0.2824070600E-04
 from k-point    287 to k-point    145
Estimated direct band gap   :   0.9854491597E-03
 at k-point    151
 
Charges :
 core                        :    56.00000000    
 valence                     :    32.00000000    
 interstitial                :    3.975744388    
 muffin-tins (core leakage)
  species :    1 (Ru)
   atom    1                 :    42.01212781     (  0.4386264827E-06)
   atom    2                 :    42.01212781     (  0.4386264827E-06)
 total in muffin-tins        :    84.02425561    
 total calculated charge     :    87.99978092    
 total charge                :    88.00000000    
 error                       :   0.2190849088E-03
 
Wrote STATE.OUT
 
RMS change in Kohn-Sham potential (target) :   0.1940494224E-04 (   10.00000000    )
Absolute change in total energy (target)   :   0.6020854926E-07 (  0.1000000000E-07)
 
Time (CPU seconds) :      2546.74
 
+--------------------+
| Loop number :   39 |
+--------------------+
 
Energies :
 Fermi                       :     0.539738865418    
 sum of eigenvalues          :     -5395.84953238    
 electron kinetic            :      9443.16496629    
 core electron kinetic       :      9181.23219333    
 Coulomb                     :     -18239.0474236    
 Coulomb potential           :     -14479.9536485    
 nuclear-nuclear             :     -977.056117016    
 electron-nuclear            :     -20044.0289645    
 Hartree                     :      2782.03765800    
 Madelung                    :     -10999.0705993    
 xc potential                :     -359.060850128    
 exchange                    :     -265.870998511    
 correlation                 :     -4.69159049784    
 total energy                :     -9066.44504627    
 
Density of states at Fermi energy :    66.44296228    
 (states/Hartree/unit cell)
 
Estimated indirect band gap :   0.2824092244E-04
 from k-point    287 to k-point    145
Estimated direct band gap   :   0.9854491085E-03
 at k-point    151
 
Charges :
 core                        :    56.00000000    
 valence                     :    32.00000000    
 interstitial                :    3.975744389    
 muffin-tins (core leakage)
  species :    1 (Ru)
   atom    1                 :    42.01212781     (  0.4386647596E-06)
   atom    2                 :    42.01212781     (  0.4386647596E-06)
 total in muffin-tins        :    84.02425561    
 total calculated charge     :    87.99978092    
 total charge                :    88.00000000    
 error                       :   0.2190849609E-03
 
RMS change in Kohn-Sham potential (target) :   0.1306595133E-03 (   10.00000000    )
Absolute change in total energy (target)   :   0.1042571967E-06 (  0.1000000000E-07)
 
Time (CPU seconds) :      2613.31
 
+--------------------+
| Loop number :   40 |
+--------------------+
 
Energies :
 Fermi                       :     0.539738865447    
 sum of eigenvalues          :     -5395.84953238    
 electron kinetic            :      9443.16496622    
 core electron kinetic       :      9181.23219335    
 Coulomb                     :     -18239.0474235    
 Coulomb potential           :     -14479.9536485    
 nuclear-nuclear             :     -977.056117016    
 electron-nuclear            :     -20044.0289645    
 Hartree                     :      2782.03765803    
 Madelung                    :     -10999.0705993    
 xc potential                :     -359.060850125    
 exchange                    :     -265.870998505    
 correlation                 :     -4.69159049895    
 total energy                :     -9066.44504631    
 
Density of states at Fermi energy :    66.44296280    
 (states/Hartree/unit cell)
 
Estimated indirect band gap :   0.2824094368E-04
 from k-point    287 to k-point    145
Estimated direct band gap   :   0.9854491150E-03
 at k-point    151
 
Charges :
 core                        :    56.00000000    
 valence                     :    32.00000000    
 interstitial                :    3.975744389    
 muffin-tins (core leakage)
  species :    1 (Ru)
   atom    1                 :    42.01212781     (  0.4387259800E-06)
   atom    2                 :    42.01212781     (  0.4387259800E-06)
 total in muffin-tins        :    84.02425561    
 total calculated charge     :    87.99978091    
 total charge                :    88.00000000    
 error                       :   0.2190851468E-03
 
Wrote STATE.OUT
 
RMS change in Kohn-Sham potential (target) :   0.2636295295E-03 (   10.00000000    )
Absolute change in total energy (target)   :   0.5846595741E-07 (  0.1000000000E-07)
 
Time (CPU seconds) :      2679.97
 
+--------------------+
| Loop number :   41 |
+--------------------+
 
Energies :
 Fermi                       :     0.539738865192    
 sum of eigenvalues          :     -5395.84953253    
 electron kinetic            :      9443.16496635    
 core electron kinetic       :      9181.23219351    
 Coulomb                     :     -18239.0474237    
 Coulomb potential           :     -14479.9536487    
 nuclear-nuclear             :     -977.056117016    
 electron-nuclear            :     -20044.0289645    
 Hartree                     :      2782.03765790    
 Madelung                    :     -10999.0705993    
 xc potential                :     -359.060850134    
 exchange                    :     -265.870998520    
 correlation                 :     -4.69159049697    
 total energy                :     -9066.44504633    
 
Density of states at Fermi energy :    66.44294290    
 (states/Hartree/unit cell)
 
Estimated indirect band gap :   0.2824119956E-04
 from k-point    287 to k-point    145
Estimated direct band gap   :   0.9854488539E-03
 at k-point    151
 
Charges :
 core                        :    56.00000000    
 valence                     :    32.00000000    
 interstitial                :    3.975744392    
 muffin-tins (core leakage)
  species :    1 (Ru)
   atom    1                 :    42.01212780     (  0.4386650367E-06)
   atom    2                 :    42.01212780     (  0.4386650367E-06)
 total in muffin-tins        :    84.02425561    
 total calculated charge     :    87.99978091    
 total charge                :    88.00000000    
 error                       :   0.2190850096E-03
 
RMS change in Kohn-Sham potential (target) :   0.1163388768E-03 (   10.00000000    )
Absolute change in total energy (target)   :   0.3601962817E-07 (  0.1000000000E-07)
 
Time (CPU seconds) :      2746.65
 
+--------------------+
| Loop number :   42 |
+--------------------+
 
Energies :
 Fermi                       :     0.539738865355    
 sum of eigenvalues          :     -5395.84953248    
 electron kinetic            :      9443.16496633    
 core electron kinetic       :      9181.23219343    
 Coulomb                     :     -18239.0474236    
 Coulomb potential           :     -14479.9536487    
 nuclear-nuclear             :     -977.056117016    
 electron-nuclear            :     -20044.0289645    
 Hartree                     :      2782.03765793    
 Madelung                    :     -10999.0705993    
 xc potential                :     -359.060850126    
 exchange                    :     -265.870998514    
 correlation                 :     -4.69159049730    
 total energy                :     -9066.44504631    
 
Density of states at Fermi energy :    66.44294456    
 (states/Hartree/unit cell)
 
Estimated indirect band gap :   0.2824126644E-04
 from k-point    287 to k-point    145
Estimated direct band gap   :   0.9854488712E-03
 at k-point    151
 
Charges :
 core                        :    56.00000000    
 valence                     :    32.00000000    
 interstitial                :    3.975744393    
 muffin-tins (core leakage)
  species :    1 (Ru)
   atom    1                 :    42.01212780     (  0.4388149861E-06)
   atom    2                 :    42.01212780     (  0.4388149861E-06)
 total in muffin-tins        :    84.02425561    
 total calculated charge     :    87.99978091    
 total charge                :    88.00000000    
 error                       :   0.2190853091E-03
 
Wrote STATE.OUT
 
RMS change in Kohn-Sham potential (target) :   0.4524249734E-03 (   10.00000000    )
Absolute change in total energy (target)   :   0.9940777090E-08 (  0.1000000000E-07)
 
Convergence targets achieved
 
Time (CPU seconds) :      2813.42
 
+--------------------+
| Loop number :   43 |
+--------------------+
 
Energies :
 Fermi                       :     0.539738865348    
 sum of eigenvalues          :     -5395.84953252    
 electron kinetic            :      9443.16496612    
 core electron kinetic       :      9181.23219319    
 Coulomb                     :     -18239.0474235    
 Coulomb potential           :     -14479.9536485    
 nuclear-nuclear             :     -977.056117016    
 electron-nuclear            :     -20044.0289645    
 Hartree                     :      2782.03765801    
 Madelung                    :     -10999.0705993    
 xc potential                :     -359.060850128    
 exchange                    :     -265.870998507    
 correlation                 :     -4.69159049881    
 total energy                :     -9066.44504642    
 
Density of states at Fermi energy :    66.44293723    
 (states/Hartree/unit cell)
 
Estimated indirect band gap :   0.2824140748E-04
 from k-point    287 to k-point    145
Estimated direct band gap   :   0.9854487716E-03
 at k-point    151
 
Charges :
 core                        :    56.00000000    
 valence                     :    32.00000000    
 interstitial                :    3.975744395    
 muffin-tins (core leakage)
  species :    1 (Ru)
   atom    1                 :    42.01212780     (  0.4385887031E-06)
   atom    2                 :    42.01212780     (  0.4385887031E-06)
 total in muffin-tins        :    84.02425560    
 total calculated charge     :    87.99978092    
 total charge                :    88.00000000    
 error                       :   0.2190848851E-03
 
+------------------------------+
| Self-consistent loop stopped |
+------------------------------+
 
Wrote STATE.OUT
 
Timings (CPU seconds) :
 initialisation                        :         2.58
 Hamiltonian and overlap matrix set up :       450.25
 first-variational eigenvalue equation :       569.87
 charge density calculation            :       358.42
 potential calculation                 :      1499.01
 total                                 :      2880.13
 
+----------------------------+
| Elk version 8.3.15 stopped |
+----------------------------+
