 
Species :    1 (Cu), atom :    1
 APW functions :
  l =  0, energy derivative =  0 :   0.1819356465    
  l =  1, energy derivative =  0 :   0.1819356465    
  l =  2, energy derivative =  0 :   0.1819356465    
  l =  3, energy derivative =  0 :   0.1819356465    
  l =  4, energy derivative =  0 :   0.1819356465    
  l =  5, energy derivative =  0 :   0.1819356465    
  l =  6, energy derivative =  0 :   0.1819356465    
  l =  7, energy derivative =  0 :   0.1819356465    
  l =  8, energy derivative =  0 :   0.1819356465    
  l =  9, energy derivative =  0 :   0.1819356465    
  l = 10, energy derivative =  0 :   0.1819356465    
 local-orbital functions :
  l.o. =  1, l =  0, energy derivative =  0 :   0.1819356465    
  l.o. =  1, l =  0, energy derivative =  1 :   0.1819356465    
  l.o. =  2, l =  1, energy derivative =  0 :   0.1819356465    
  l.o. =  2, l =  1, energy derivative =  1 :   0.1819356465    
  l.o. =  3, l =  2, energy derivative =  0 :   0.1819356465    
  l.o. =  3, l =  2, energy derivative =  1 :   0.1819356465    
  l.o. =  4, l =  1, energy derivative =  0 :   0.1819356465    
  l.o. =  4, l =  1, energy derivative =  0 :   -2.296459720    
  l.o. =  5, l =  2, energy derivative =  0 :   0.1819356465    
  l.o. =  5, l =  2, energy derivative =  0 :   0.2057449338    
  l.o. =  6, l =  3, energy derivative =  0 :   0.1819356465    
  l.o. =  6, l =  3, energy derivative =  1 :   0.1819356465    
  l.o. =  7, l =  4, energy derivative =  0 :   0.1819356465    
  l.o. =  7, l =  4, energy derivative =  1 :   0.1819356465    
  l.o. =  8, l =  5, energy derivative =  0 :   0.1819356465    
  l.o. =  8, l =  5, energy derivative =  1 :   0.1819356465    
  l.o. =  9, l =  0, energy derivative =  0 :   0.9173286204    
  l.o. =  9, l =  0, energy derivative =  1 :   0.9173286204    
  l.o. =  9, l =  0, energy derivative =  2 :   0.9173286204    
  l.o. = 10, l =  1, energy derivative =  0 :    1.444956011    
  l.o. = 10, l =  1, energy derivative =  1 :    1.444956011    
  l.o. = 10, l =  1, energy derivative =  2 :    1.444956011    
  l.o. = 11, l =  2, energy derivative =  0 :   0.2057449338    
  l.o. = 11, l =  2, energy derivative =  1 :   0.2057449338    
  l.o. = 11, l =  2, energy derivative =  2 :   0.2057449338    
  l.o. = 12, l =  3, energy derivative =  0 :    2.877461950    
  l.o. = 12, l =  3, energy derivative =  1 :    2.877461950    
  l.o. = 12, l =  3, energy derivative =  2 :    2.877461950    
  l.o. = 13, l =  4, energy derivative =  0 :    4.566818121    
  l.o. = 13, l =  4, energy derivative =  1 :    4.566818121    
  l.o. = 13, l =  4, energy derivative =  2 :    4.566818121    
  l.o. = 14, l =  5, energy derivative =  0 :    6.382139011    
  l.o. = 14, l =  5, energy derivative =  1 :    6.382139011    
  l.o. = 14, l =  5, energy derivative =  2 :    6.382139011    
  l.o. = 15, l =  6, energy derivative =  0 :    8.387542141    
  l.o. = 15, l =  6, energy derivative =  1 :    8.387542141    
  l.o. = 15, l =  6, energy derivative =  2 :    8.387542141    
  l.o. = 16, l =  7, energy derivative =  0 :    10.59923192    
  l.o. = 16, l =  7, energy derivative =  1 :    10.59923192    
  l.o. = 16, l =  7, energy derivative =  2 :    10.59923192    
  l.o. = 17, l =  8, energy derivative =  0 :    13.02285032    
  l.o. = 17, l =  8, energy derivative =  1 :    13.02285032    
  l.o. = 17, l =  8, energy derivative =  2 :    13.02285032    
