   297 : nkpt; k-point, vkl, wkpt, nmat below
     1   0.000000000       0.000000000       0.000000000      0.2035416243E-03     555
     2  0.5882352941E-01   0.000000000       0.000000000      0.1221249746E-02     563
     3  0.1176470588       0.000000000       0.000000000      0.1221249746E-02     567
     4  0.1764705882       0.000000000       0.000000000      0.1221249746E-02     568
     5  0.2352941176       0.000000000       0.000000000      0.1221249746E-02     562
     6  0.2941176471       0.000000000       0.000000000      0.1221249746E-02     558
     7  0.3529411765       0.000000000       0.000000000      0.1221249746E-02     554
     8  0.4117647059       0.000000000       0.000000000      0.1221249746E-02     548
     9  0.4705882353       0.000000000       0.000000000      0.1221249746E-02     550
    10  0.5882352941E-01  0.5882352941E-01   0.000000000      0.1221249746E-02     571
    11  0.1176470588      0.5882352941E-01   0.000000000      0.2442499491E-02     565
    12  0.1764705882      0.5882352941E-01   0.000000000      0.2442499491E-02     560
    13  0.2352941176      0.5882352941E-01   0.000000000      0.2442499491E-02     559
    14  0.2941176471      0.5882352941E-01   0.000000000      0.2442499491E-02     552
    15  0.3529411765      0.5882352941E-01   0.000000000      0.2442499491E-02     549
    16  0.4117647059      0.5882352941E-01   0.000000000      0.2442499491E-02     546
    17  0.4705882353      0.5882352941E-01   0.000000000      0.1221249746E-02     548
    18  0.1176470588      0.1176470588       0.000000000      0.1221249746E-02     561
    19  0.1764705882      0.1176470588       0.000000000      0.2442499491E-02     559
    20  0.2352941176      0.1176470588       0.000000000      0.2442499491E-02     556
    21  0.2941176471      0.1176470588       0.000000000      0.2442499491E-02     554
    22  0.3529411765      0.1176470588       0.000000000      0.2442499491E-02     550
    23  0.4117647059      0.1176470588       0.000000000      0.2442499491E-02     545
    24  0.1764705882      0.1764705882       0.000000000      0.1221249746E-02     554
    25  0.2352941176      0.1764705882       0.000000000      0.2442499491E-02     556
    26  0.2941176471      0.1764705882       0.000000000      0.2442499491E-02     554
    27  0.3529411765      0.1764705882       0.000000000      0.2442499491E-02     549
    28  0.4117647059      0.1764705882       0.000000000      0.1221249746E-02     548
    29  0.2352941176      0.2352941176       0.000000000      0.1221249746E-02     554
    30  0.2941176471      0.2352941176       0.000000000      0.2442499491E-02     555
    31  0.3529411765      0.2352941176       0.000000000      0.2442499491E-02     554
    32  0.2941176471      0.2941176471       0.000000000      0.1221249746E-02     552
    33  0.3529411765      0.2941176471       0.000000000      0.1221249746E-02     562
    34   0.000000000       0.000000000      0.5882352941E-01  0.4070832485E-03     567
    35  0.5882352941E-01   0.000000000      0.5882352941E-01  0.2442499491E-02     566
    36  0.1176470588       0.000000000      0.5882352941E-01  0.2442499491E-02     566
    37  0.1764705882       0.000000000      0.5882352941E-01  0.2442499491E-02     565
    38  0.2352941176       0.000000000      0.5882352941E-01  0.2442499491E-02     559
    39  0.2941176471       0.000000000      0.5882352941E-01  0.2442499491E-02     559
    40  0.3529411765       0.000000000      0.5882352941E-01  0.2442499491E-02     553
    41  0.4117647059       0.000000000      0.5882352941E-01  0.2442499491E-02     550
    42  0.4705882353       0.000000000      0.5882352941E-01  0.2442499491E-02     552
    43  0.5882352941E-01  0.5882352941E-01  0.5882352941E-01  0.2442499491E-02     569
    44  0.1176470588      0.5882352941E-01  0.5882352941E-01  0.4884998982E-02     563
    45  0.1764705882      0.5882352941E-01  0.5882352941E-01  0.4884998982E-02     561
    46  0.2352941176      0.5882352941E-01  0.5882352941E-01  0.4884998982E-02     558
    47  0.2941176471      0.5882352941E-01  0.5882352941E-01  0.4884998982E-02     552
    48  0.3529411765      0.5882352941E-01  0.5882352941E-01  0.4884998982E-02     550
    49  0.4117647059      0.5882352941E-01  0.5882352941E-01  0.4884998982E-02     548
    50  0.4705882353      0.5882352941E-01  0.5882352941E-01  0.2442499491E-02     551
    51  0.1176470588      0.1176470588      0.5882352941E-01  0.2442499491E-02     559
    52  0.1764705882      0.1176470588      0.5882352941E-01  0.4884998982E-02     559
    53  0.2352941176      0.1176470588      0.5882352941E-01  0.4884998982E-02     555
    54  0.2941176471      0.1176470588      0.5882352941E-01  0.4884998982E-02     553
    55  0.3529411765      0.1176470588      0.5882352941E-01  0.4884998982E-02     551
    56  0.4117647059      0.1176470588      0.5882352941E-01  0.4884998982E-02     547
    57  0.1764705882      0.1764705882      0.5882352941E-01  0.2442499491E-02     558
    58  0.2352941176      0.1764705882      0.5882352941E-01  0.4884998982E-02     555
    59  0.2941176471      0.1764705882      0.5882352941E-01  0.4884998982E-02     552
    60  0.3529411765      0.1764705882      0.5882352941E-01  0.4884998982E-02     551
    61  0.4117647059      0.1764705882      0.5882352941E-01  0.2442499491E-02     548
    62  0.2352941176      0.2352941176      0.5882352941E-01  0.2442499491E-02     555
    63  0.2941176471      0.2352941176      0.5882352941E-01  0.4884998982E-02     556
    64  0.3529411765      0.2352941176      0.5882352941E-01  0.4884998982E-02     555
    65  0.2941176471      0.2941176471      0.5882352941E-01  0.2442499491E-02     555
    66  0.3529411765      0.2941176471      0.5882352941E-01  0.2442499491E-02     558
    67   0.000000000       0.000000000      0.1176470588      0.4070832485E-03     567
    68  0.5882352941E-01   0.000000000      0.1176470588      0.2442499491E-02     562
    69  0.1176470588       0.000000000      0.1176470588      0.2442499491E-02     564
    70  0.1764705882       0.000000000      0.1176470588      0.2442499491E-02     560
    71  0.2352941176       0.000000000      0.1176470588      0.2442499491E-02     557
    72  0.2941176471       0.000000000      0.1176470588      0.2442499491E-02     555
    73  0.3529411765       0.000000000      0.1176470588      0.2442499491E-02     552
    74  0.4117647059       0.000000000      0.1176470588      0.2442499491E-02     547
    75  0.4705882353       0.000000000      0.1176470588      0.2442499491E-02     556
    76  0.5882352941E-01  0.5882352941E-01  0.1176470588      0.2442499491E-02     565
    77  0.1176470588      0.5882352941E-01  0.1176470588      0.4884998982E-02     563
    78  0.1764705882      0.5882352941E-01  0.1176470588      0.4884998982E-02     561
    79  0.2352941176      0.5882352941E-01  0.1176470588      0.4884998982E-02     557
    80  0.2941176471      0.5882352941E-01  0.1176470588      0.4884998982E-02     555
    81  0.3529411765      0.5882352941E-01  0.1176470588      0.4884998982E-02     549
    82  0.4117647059      0.5882352941E-01  0.1176470588      0.4884998982E-02     552
    83  0.4705882353      0.5882352941E-01  0.1176470588      0.2442499491E-02     555
    84  0.1176470588      0.1176470588      0.1176470588      0.2442499491E-02     561
    85  0.1764705882      0.1176470588      0.1176470588      0.4884998982E-02     557
    86  0.2352941176      0.1176470588      0.1176470588      0.4884998982E-02     556
    87  0.2941176471      0.1176470588      0.1176470588      0.4884998982E-02     553
    88  0.3529411765      0.1176470588      0.1176470588      0.4884998982E-02     552
    89  0.4117647059      0.1176470588      0.1176470588      0.4884998982E-02     552
    90  0.1764705882      0.1764705882      0.1176470588      0.2442499491E-02     556
    91  0.2352941176      0.1764705882      0.1176470588      0.4884998982E-02     554
    92  0.2941176471      0.1764705882      0.1176470588      0.4884998982E-02     553
    93  0.3529411765      0.1764705882      0.1176470588      0.4884998982E-02     553
    94  0.4117647059      0.1764705882      0.1176470588      0.2442499491E-02     552
    95  0.2352941176      0.2352941176      0.1176470588      0.2442499491E-02     556
    96  0.2941176471      0.2352941176      0.1176470588      0.4884998982E-02     554
    97  0.3529411765      0.2352941176      0.1176470588      0.4884998982E-02     552
    98  0.2941176471      0.2941176471      0.1176470588      0.2442499491E-02     554
    99  0.3529411765      0.2941176471      0.1176470588      0.2442499491E-02     555
   100   0.000000000       0.000000000      0.1764705882      0.4070832485E-03     561
   101  0.5882352941E-01   0.000000000      0.1764705882      0.2442499491E-02     559
   102  0.1176470588       0.000000000      0.1764705882      0.2442499491E-02     562
   103  0.1764705882       0.000000000      0.1764705882      0.2442499491E-02     560
   104  0.2352941176       0.000000000      0.1764705882      0.2442499491E-02     562
   105  0.2941176471       0.000000000      0.1764705882      0.2442499491E-02     555
   106  0.3529411765       0.000000000      0.1764705882      0.2442499491E-02     550
   107  0.4117647059       0.000000000      0.1764705882      0.2442499491E-02     554
   108  0.4705882353       0.000000000      0.1764705882      0.2442499491E-02     554
   109  0.5882352941E-01  0.5882352941E-01  0.1764705882      0.2442499491E-02     561
   110  0.1176470588      0.5882352941E-01  0.1764705882      0.4884998982E-02     560
   111  0.1764705882      0.5882352941E-01  0.1764705882      0.4884998982E-02     559
   112  0.2352941176      0.5882352941E-01  0.1764705882      0.4884998982E-02     556
   113  0.2941176471      0.5882352941E-01  0.1764705882      0.4884998982E-02     556
   114  0.3529411765      0.5882352941E-01  0.1764705882      0.4884998982E-02     552
   115  0.4117647059      0.5882352941E-01  0.1764705882      0.4884998982E-02     555
   116  0.4705882353      0.5882352941E-01  0.1764705882      0.2442499491E-02     555
   117  0.1176470588      0.1176470588      0.1764705882      0.2442499491E-02     557
   118  0.1764705882      0.1176470588      0.1764705882      0.4884998982E-02     556
   119  0.2352941176      0.1176470588      0.1764705882      0.4884998982E-02     555
   120  0.2941176471      0.1176470588      0.1764705882      0.4884998982E-02     553
   121  0.3529411765      0.1176470588      0.1764705882      0.4884998982E-02     551
   122  0.4117647059      0.1176470588      0.1764705882      0.4884998982E-02     558
   123  0.1764705882      0.1764705882      0.1764705882      0.2442499491E-02     554
   124  0.2352941176      0.1764705882      0.1764705882      0.4884998982E-02     553
   125  0.2941176471      0.1764705882      0.1764705882      0.4884998982E-02     557
   126  0.3529411765      0.1764705882      0.1764705882      0.4884998982E-02     553
   127  0.4117647059      0.1764705882      0.1764705882      0.2442499491E-02     553
   128  0.2352941176      0.2352941176      0.1764705882      0.2442499491E-02     554
   129  0.2941176471      0.2352941176      0.1764705882      0.4884998982E-02     553
   130  0.3529411765      0.2352941176      0.1764705882      0.4884998982E-02     550
   131  0.2941176471      0.2941176471      0.1764705882      0.2442499491E-02     551
   132  0.3529411765      0.2941176471      0.1764705882      0.2442499491E-02     551
   133   0.000000000       0.000000000      0.2352941176      0.4070832485E-03     555
   134  0.5882352941E-01   0.000000000      0.2352941176      0.2442499491E-02     561
   135  0.1176470588       0.000000000      0.2352941176      0.2442499491E-02     559
   136  0.1764705882       0.000000000      0.2352941176      0.2442499491E-02     557
   137  0.2352941176       0.000000000      0.2352941176      0.2442499491E-02     558
   138  0.2941176471       0.000000000      0.2352941176      0.2442499491E-02     556
   139  0.3529411765       0.000000000      0.2352941176      0.2442499491E-02     550
   140  0.4117647059       0.000000000      0.2352941176      0.2442499491E-02     554
   141  0.4705882353       0.000000000      0.2352941176      0.2442499491E-02     555
   142  0.5882352941E-01  0.5882352941E-01  0.2352941176      0.2442499491E-02     555
   143  0.1176470588      0.5882352941E-01  0.2352941176      0.4884998982E-02     556
   144  0.1764705882      0.5882352941E-01  0.2352941176      0.4884998982E-02     558
   145  0.2352941176      0.5882352941E-01  0.2352941176      0.4884998982E-02     555
   146  0.2941176471      0.5882352941E-01  0.2352941176      0.4884998982E-02     553
   147  0.3529411765      0.5882352941E-01  0.2352941176      0.4884998982E-02     552
   148  0.4117647059      0.5882352941E-01  0.2352941176      0.4884998982E-02     554
   149  0.4705882353      0.5882352941E-01  0.2352941176      0.2442499491E-02     556
   150  0.1176470588      0.1176470588      0.2352941176      0.2442499491E-02     555
   151  0.1764705882      0.1176470588      0.2352941176      0.4884998982E-02     555
   152  0.2352941176      0.1176470588      0.2352941176      0.4884998982E-02     557
   153  0.2941176471      0.1176470588      0.2352941176      0.4884998982E-02     555
   154  0.3529411765      0.1176470588      0.2352941176      0.4884998982E-02     553
   155  0.4117647059      0.1176470588      0.2352941176      0.4884998982E-02     559
   156  0.1764705882      0.1764705882      0.2352941176      0.2442499491E-02     554
   157  0.2352941176      0.1764705882      0.2352941176      0.4884998982E-02     553
   158  0.2941176471      0.1764705882      0.2352941176      0.4884998982E-02     554
   159  0.3529411765      0.1764705882      0.2352941176      0.4884998982E-02     553
   160  0.4117647059      0.1764705882      0.2352941176      0.2442499491E-02     555
   161  0.2352941176      0.2352941176      0.2352941176      0.2442499491E-02     554
   162  0.2941176471      0.2352941176      0.2352941176      0.4884998982E-02     552
   163  0.3529411765      0.2352941176      0.2352941176      0.4884998982E-02     553
   164  0.2941176471      0.2941176471      0.2352941176      0.2442499491E-02     553
   165  0.3529411765      0.2941176471      0.2352941176      0.2442499491E-02     551
   166   0.000000000       0.000000000      0.2941176471      0.4070832485E-03     561
   167  0.5882352941E-01   0.000000000      0.2941176471      0.2442499491E-02     558
   168  0.1176470588       0.000000000      0.2941176471      0.2442499491E-02     556
   169  0.1764705882       0.000000000      0.2941176471      0.2442499491E-02     555
   170  0.2352941176       0.000000000      0.2941176471      0.2442499491E-02     555
   171  0.2941176471       0.000000000      0.2941176471      0.2442499491E-02     554
   172  0.3529411765       0.000000000      0.2941176471      0.2442499491E-02     552
   173  0.4117647059       0.000000000      0.2941176471      0.2442499491E-02     554
   174  0.4705882353       0.000000000      0.2941176471      0.2442499491E-02     555
   175  0.5882352941E-01  0.5882352941E-01  0.2941176471      0.2442499491E-02     557
   176  0.1176470588      0.5882352941E-01  0.2941176471      0.4884998982E-02     557
   177  0.1764705882      0.5882352941E-01  0.2941176471      0.4884998982E-02     555
   178  0.2352941176      0.5882352941E-01  0.2941176471      0.4884998982E-02     553
   179  0.2941176471      0.5882352941E-01  0.2941176471      0.4884998982E-02     551
   180  0.3529411765      0.5882352941E-01  0.2941176471      0.4884998982E-02     553
   181  0.4117647059      0.5882352941E-01  0.2941176471      0.4884998982E-02     556
   182  0.4705882353      0.5882352941E-01  0.2941176471      0.2442499491E-02     560
   183  0.1176470588      0.1176470588      0.2941176471      0.2442499491E-02     553
   184  0.1764705882      0.1176470588      0.2941176471      0.4884998982E-02     553
   185  0.2352941176      0.1176470588      0.2941176471      0.4884998982E-02     554
   186  0.2941176471      0.1176470588      0.2941176471      0.4884998982E-02     555
   187  0.3529411765      0.1176470588      0.2941176471      0.4884998982E-02     555
   188  0.4117647059      0.1176470588      0.2941176471      0.4884998982E-02     556
   189  0.1764705882      0.1764705882      0.2941176471      0.2442499491E-02     554
   190  0.2352941176      0.1764705882      0.2941176471      0.4884998982E-02     555
   191  0.2941176471      0.1764705882      0.2941176471      0.4884998982E-02     554
   192  0.3529411765      0.1764705882      0.2941176471      0.4884998982E-02     552
   193  0.4117647059      0.1764705882      0.2941176471      0.2442499491E-02     554
   194  0.2352941176      0.2352941176      0.2941176471      0.2442499491E-02     550
   195  0.2941176471      0.2352941176      0.2941176471      0.4884998982E-02     553
   196  0.3529411765      0.2352941176      0.2941176471      0.4884998982E-02     554
   197  0.2941176471      0.2941176471      0.2941176471      0.2442499491E-02     553
   198  0.3529411765      0.2941176471      0.2941176471      0.2442499491E-02     553
   199   0.000000000       0.000000000      0.3529411765      0.4070832485E-03     561
   200  0.5882352941E-01   0.000000000      0.3529411765      0.2442499491E-02     558
   201  0.1176470588       0.000000000      0.3529411765      0.2442499491E-02     558
   202  0.1764705882       0.000000000      0.3529411765      0.2442499491E-02     553
   203  0.2352941176       0.000000000      0.3529411765      0.2442499491E-02     553
   204  0.2941176471       0.000000000      0.3529411765      0.2442499491E-02     552
   205  0.3529411765       0.000000000      0.3529411765      0.2442499491E-02     553
   206  0.4117647059       0.000000000      0.3529411765      0.2442499491E-02     556
   207  0.4705882353       0.000000000      0.3529411765      0.2442499491E-02     554
   208  0.5882352941E-01  0.5882352941E-01  0.3529411765      0.2442499491E-02     557
   209  0.1176470588      0.5882352941E-01  0.3529411765      0.4884998982E-02     553
   210  0.1764705882      0.5882352941E-01  0.3529411765      0.4884998982E-02     553
   211  0.2352941176      0.5882352941E-01  0.3529411765      0.4884998982E-02     552
   212  0.2941176471      0.5882352941E-01  0.3529411765      0.4884998982E-02     552
   213  0.3529411765      0.5882352941E-01  0.3529411765      0.4884998982E-02     553
   214  0.4117647059      0.5882352941E-01  0.3529411765      0.4884998982E-02     555
   215  0.4705882353      0.5882352941E-01  0.3529411765      0.2442499491E-02     558
   216  0.1176470588      0.1176470588      0.3529411765      0.2442499491E-02     555
   217  0.1764705882      0.1176470588      0.3529411765      0.4884998982E-02     552
   218  0.2352941176      0.1176470588      0.3529411765      0.4884998982E-02     552
   219  0.2941176471      0.1176470588      0.3529411765      0.4884998982E-02     555
   220  0.3529411765      0.1176470588      0.3529411765      0.4884998982E-02     554
   221  0.4117647059      0.1176470588      0.3529411765      0.4884998982E-02     552
   222  0.1764705882      0.1764705882      0.3529411765      0.2442499491E-02     551
   223  0.2352941176      0.1764705882      0.3529411765      0.4884998982E-02     557
   224  0.2941176471      0.1764705882      0.3529411765      0.4884998982E-02     555
   225  0.3529411765      0.1764705882      0.3529411765      0.4884998982E-02     554
   226  0.4117647059      0.1764705882      0.3529411765      0.2442499491E-02     549
   227  0.2352941176      0.2352941176      0.3529411765      0.2442499491E-02     552
   228  0.2941176471      0.2352941176      0.3529411765      0.4884998982E-02     552
   229  0.3529411765      0.2352941176      0.3529411765      0.4884998982E-02     555
   230  0.2941176471      0.2941176471      0.3529411765      0.2442499491E-02     552
   231  0.3529411765      0.2941176471      0.3529411765      0.2442499491E-02     547
   232   0.000000000       0.000000000      0.4117647059      0.4070832485E-03     561
   233  0.5882352941E-01   0.000000000      0.4117647059      0.2442499491E-02     559
   234  0.1176470588       0.000000000      0.4117647059      0.2442499491E-02     557
   235  0.1764705882       0.000000000      0.4117647059      0.2442499491E-02     550
   236  0.2352941176       0.000000000      0.4117647059      0.2442499491E-02     551
   237  0.2941176471       0.000000000      0.4117647059      0.2442499491E-02     549
   238  0.3529411765       0.000000000      0.4117647059      0.2442499491E-02     550
   239  0.4117647059       0.000000000      0.4117647059      0.2442499491E-02     557
   240  0.4705882353       0.000000000      0.4117647059      0.2442499491E-02     556
   241  0.5882352941E-01  0.5882352941E-01  0.4117647059      0.2442499491E-02     558
   242  0.1176470588      0.5882352941E-01  0.4117647059      0.4884998982E-02     552
   243  0.1764705882      0.5882352941E-01  0.4117647059      0.4884998982E-02     549
   244  0.2352941176      0.5882352941E-01  0.4117647059      0.4884998982E-02     551
   245  0.2941176471      0.5882352941E-01  0.4117647059      0.4884998982E-02     554
   246  0.3529411765      0.5882352941E-01  0.4117647059      0.4884998982E-02     553
   247  0.4117647059      0.5882352941E-01  0.4117647059      0.4884998982E-02     554
   248  0.4705882353      0.5882352941E-01  0.4117647059      0.2442499491E-02     556
   249  0.1176470588      0.1176470588      0.4117647059      0.2442499491E-02     552
   250  0.1764705882      0.1176470588      0.4117647059      0.4884998982E-02     551
   251  0.2352941176      0.1176470588      0.4117647059      0.4884998982E-02     553
   252  0.2941176471      0.1176470588      0.4117647059      0.4884998982E-02     556
   253  0.3529411765      0.1176470588      0.4117647059      0.4884998982E-02     552
   254  0.4117647059      0.1176470588      0.4117647059      0.4884998982E-02     551
   255  0.1764705882      0.1764705882      0.4117647059      0.2442499491E-02     556
   256  0.2352941176      0.1764705882      0.4117647059      0.4884998982E-02     556
   257  0.2941176471      0.1764705882      0.4117647059      0.4884998982E-02     552
   258  0.3529411765      0.1764705882      0.4117647059      0.4884998982E-02     555
   259  0.4117647059      0.1764705882      0.4117647059      0.2442499491E-02     551
   260  0.2352941176      0.2352941176      0.4117647059      0.2442499491E-02     554
   261  0.2941176471      0.2352941176      0.4117647059      0.4884998982E-02     552
   262  0.3529411765      0.2352941176      0.4117647059      0.4884998982E-02     552
   263  0.2941176471      0.2941176471      0.4117647059      0.2442499491E-02     554
   264  0.3529411765      0.2941176471      0.4117647059      0.2442499491E-02     548
   265   0.000000000       0.000000000      0.4705882353      0.4070832485E-03     566
   266  0.5882352941E-01   0.000000000      0.4705882353      0.2442499491E-02     562
   267  0.1176470588       0.000000000      0.4705882353      0.2442499491E-02     556
   268  0.1764705882       0.000000000      0.4705882353      0.2442499491E-02     550
   269  0.2352941176       0.000000000      0.4705882353      0.2442499491E-02     549
   270  0.2941176471       0.000000000      0.4705882353      0.2442499491E-02     548
   271  0.3529411765       0.000000000      0.4705882353      0.2442499491E-02     552
   272  0.4117647059       0.000000000      0.4705882353      0.2442499491E-02     553
   273  0.4705882353       0.000000000      0.4705882353      0.2442499491E-02     554
   274  0.5882352941E-01  0.5882352941E-01  0.4705882353      0.2442499491E-02     558
   275  0.1176470588      0.5882352941E-01  0.4705882353      0.4884998982E-02     555
   276  0.1764705882      0.5882352941E-01  0.4705882353      0.4884998982E-02     547
   277  0.2352941176      0.5882352941E-01  0.4705882353      0.4884998982E-02     550
   278  0.2941176471      0.5882352941E-01  0.4705882353      0.4884998982E-02     553
   279  0.3529411765      0.5882352941E-01  0.4705882353      0.4884998982E-02     555
   280  0.4117647059      0.5882352941E-01  0.4705882353      0.4884998982E-02     551
   281  0.4705882353      0.5882352941E-01  0.4705882353      0.2442499491E-02     554
   282  0.1176470588      0.1176470588      0.4705882353      0.2442499491E-02     548
   283  0.1764705882      0.1176470588      0.4705882353      0.4884998982E-02     551
   284  0.2352941176      0.1176470588      0.4705882353      0.4884998982E-02     554
   285  0.2941176471      0.1176470588      0.4705882353      0.4884998982E-02     555
   286  0.3529411765      0.1176470588      0.4705882353      0.4884998982E-02     554
   287  0.4117647059      0.1176470588      0.4705882353      0.4884998982E-02     554
   288  0.1764705882      0.1764705882      0.4705882353      0.2442499491E-02     554
   289  0.2352941176      0.1764705882      0.4705882353      0.4884998982E-02     556
   290  0.2941176471      0.1764705882      0.4705882353      0.4884998982E-02     553
   291  0.3529411765      0.1764705882      0.4705882353      0.4884998982E-02     554
   292  0.4117647059      0.1764705882      0.4705882353      0.2442499491E-02     550
   293  0.2352941176      0.2352941176      0.4705882353      0.2442499491E-02     556
   294  0.2941176471      0.2352941176      0.4705882353      0.4884998982E-02     554
   295  0.3529411765      0.2352941176      0.4705882353      0.4884998982E-02     552
   296  0.2941176471      0.2941176471      0.4705882353      0.2442499491E-02     554
   297  0.3529411765      0.2941176471      0.4705882353      0.2442499491E-02     548
