 
+----------------------------+
| Real-space lattice vectors |
+----------------------------+
 
vector a1 :    3.929847047       3.929847047       0.000000000    
vector a2 :    3.929847047       0.000000000       3.929847047    
vector a3 :    0.000000000       3.929847047       3.929847047    
 
Stored column-wise as a matrix :
   3.929847047       3.929847047       0.000000000    
   3.929847047       0.000000000       3.929847047    
   0.000000000       3.929847047       3.929847047    
 
Inverse of matrix :
  0.1272314149      0.1272314149     -0.1272314149    
  0.1272314149     -0.1272314149      0.1272314149    
 -0.1272314149      0.1272314149      0.1272314149    
 
Unit cell volume :    121.3827405    
 
 
+----------------------------------+
| Reciprocal-space lattice vectors |
+----------------------------------+
 
vector b1 :   0.7994185565      0.7994185565     -0.7994185565    
vector b2 :   0.7994185565     -0.7994185565      0.7994185565    
vector b3 :  -0.7994185565      0.7994185565      0.7994185565    
 
Stored column-wise as a matrix :
  0.7994185565      0.7994185565     -0.7994185565    
  0.7994185565     -0.7994185565      0.7994185565    
 -0.7994185565      0.7994185565      0.7994185565    
 
Inverse of matrix :
  0.6254545832      0.6254545832       0.000000000    
  0.6254545832       0.000000000      0.6254545832    
   0.000000000      0.6254545832      0.6254545832    
 
Brillouin zone volume :    2.043537758    
