 
Species :    1 (Sc), atom :    1
 n =  1, l =  0, k =  1 :   -161.5326934    
 n =  2, l =  0, k =  1 :   -17.01080855    
 n =  2, l =  1, k =  1 :   -13.94983161    
 n =  2, l =  1, k =  2 :   -13.77837262    
 
Species :    1 (Sc), atom :    2
 n =  1, l =  0, k =  1 :   -161.5326934    
 n =  2, l =  0, k =  1 :   -17.01080855    
 n =  2, l =  1, k =  1 :   -13.94983161    
 n =  2, l =  1, k =  2 :   -13.77837262    
