   131.8457748    
   131.4745350    
   123.7619869    
   107.7734450    
   101.8689471    
   100.7285699    
   100.6872196    
   100.8508316    
   100.8980882    
   100.8907736    
   100.8841598    
   100.8826578    
   100.8784128    
   100.8729903    
   100.8736962    
   100.8728032    
   100.8736937    
   100.8763751    
   100.8756761    
   100.8718287    
   100.8724126    
   100.8727304    
   100.8707377    
   100.8698110    
   100.8697628    
   100.8693967    
   100.8691789    
   100.8690865    
   100.8692267    
   100.8692969    
   100.8693417    
   100.8693314    
   100.8693558    
   100.8693713    
   100.8693493    
   100.8693595    
   100.8693528    
   100.8693456    
   100.8693450    
