   48.96085798    
   18.83412923    
   4.134098312    
  0.3443149151    
   9.461592074    
   4.609106657    
   4.134098312    
   4.133964783    
   31.65444517    
   5534.611136    
   111.8273747    
   90.71075560    
   150.8560058    
   127.8345921    
   146.9574053    
   134.1095425    
   135.2417135    
   137.4299636    
   137.2648054    
   137.1584457    
   137.0691335    
   137.0545992    
   137.0530276    
   137.0517181    
   137.0565470    
   137.0555423    
   137.0550119    
   137.0560937    
   137.0553218    
   137.0548656    
   137.0549021    
   137.0547937    
   137.0548243    
   137.0548071    
   137.0548354    
   137.0549646    
   137.0550013    
   137.0549272    
   137.0548558    
   137.0548338    
   137.0548011    
   137.0548248    
   137.0548372    
   137.0548152    
   137.0548019    
   137.0547823    
   137.0547795    
   137.0547830    
   137.0547856    
   137.0547841    
   137.0547804    
