 
scale
 1.0
 
scale1
 1.0
 
scale2
 1.0
 
scale3
 1.0
 
avec
   5.532390286      -3.194127022       0.000000000    
   0.000000000       6.388254042       0.000000000    
   0.000000000       0.000000000       9.910426116    
 
atoms
   1                                    : nspecies
'Sc.in'                                 : spfname
   2                                    : natoms; atpos, bfcmt below
    0.33333333    0.16666667    0.25000000    0.00000000  0.00000000  0.00000000
   -0.33333333   -0.16666667   -0.25000000    0.00000000  0.00000000  0.00000000
