+----------------------------+
| Elk version 8.3.15 started |
+----------------------------+
 
Date (YYYY-MM-DD) : 2022-01-26
Time (hh:mm:ss)   : 15:58:21
 
All units are atomic (Hartree, Bohr, etc.)
 
+-------------------------------------------------+
| Ground-state run starting from atomic densities |
+-------------------------------------------------+
 
Lattice vectors :
   3.147268091       3.147268091      -3.147268091    
   3.147268091      -3.147268091       3.147268091    
  -3.147268091       3.147268091       3.147268091    
 
Reciprocal lattice vectors :
  0.9981967098      0.9981967098       0.000000000    
  0.9981967098       0.000000000      0.9981967098    
   0.000000000      0.9981967098      0.9981967098    
 
Unit cell volume      :    124.6984937    
Brillouin zone volume :    1.989199758    
 
Muffin-tin inner radius fraction :   0.1000000000E-01
 
Species :    1 (Nb)
 parameters loaded from : Nb.in
 name : niobium
 nuclear charge    :   -41.00000000    
 electronic charge :    41.00000000    
 atomic mass :    169357.9703    
 muffin-tin radius :    2.580000000    
 number of radial points in muffin-tin :   1200
 number on inner part of muffin-tin    :    867
 atomic positions (lattice), magnetic fields (Cartesian) :
   1 :   0.00000000  0.00000000  0.00000000    0.00000000  0.00000000  0.00000000
 
Total number of atoms per unit cell :    1
 
Spin treatment :
 spin-unpolarised
 
Number of Bravais lattice symmetries :   48
Number of crystal symmetries         :   48
Crystal has inversion symmetry
Real symmetric eigensolver will be used
 
k-point grid :     17    17    17
k-point offset :    0.000000000       0.000000000       0.000000000    
k-point set is reduced with full crystal symmetry group
Total number of k-points :      165
 
Muffin-tin radius times maximum |G+k| :    8.500000000    
 using gkmax = rgkmax / 2
Maximum |G+k| for APW functions       :    4.250000000    
Maximum (1/2)|G+k|²                   :    9.031250000    
Maximum |G| for potential and density :    18.00000000    
Constant for pseudocharge density :   12
Radial integration step length :    1
 
G-vector grid sizes :     32    32    32
Number of G-vectors :    12215
 
Maximum angular momentum used for
 APW functions                      :   10
 outer part of muffin-tin           :    8
 inner part of muffin-tin           :    1
 
Total nuclear charge    :   -41.00000000    
Total core charge       :    28.00000000    
Total valence charge    :    13.00000000    
Total excess charge     :    0.000000000    
Total electronic charge :    41.00000000    
 
Effective Wigner radius, rₛ :   0.8987996896    
 
Number of empty states         :   20
Total number of valence states :   27
Total number of core states    :   28
 
Conduction state local-orbitals added automatically
Total number of local-orbitals :  126
 
Using Libxc version 05.01.05
Exchange-correlation functional :    100   493   494
 exchange: mgga_x_rscan; correlation: mgga_c_rscan
 
Smearing type :    1
 Methfessel-Paxton order 1, Phys. Rev. B 40, 3616 (1989)
Smearing width :   0.1000000000E-02
Effective electronic temperature (K) :    315.7750248    
 
Mixing type :    3
 Broyden mixing, J. Phys. A: Math. Gen. 17, L317 (1984)
 
Kohn-Sham potential initialised from atomic data
 
+------------------------------+
| Self-consistent loop started |
+------------------------------+
 
+--------------------+
| Loop number :    1 |
+--------------------+
 
Energies :
 Fermi                       :     0.190883252767    
 sum of eigenvalues          :     -2287.82642208    
 electron kinetic            :      3941.78517970    
 core electron kinetic       :      3890.36741800    
 Coulomb                     :     -7675.24196926    
 Coulomb potential           :     -6069.07698921    
 nuclear-nuclear             :     -385.710122113    
 electron-nuclear            :     -8509.98670508    
 Hartree                     :      1220.45485794    
 Madelung                    :     -4640.70347465    
 xc potential                :     -160.534612568    
 exchange                    :     -118.762932626    
 correlation                 :     -2.14141381325    
 total energy                :     -3854.36113600    
 
Density of states at Fermi energy :    33.88105631    
 (states/Hartree/unit cell)
 
Estimated indirect band gap :   0.3686889887E-03
 from k-point    130 to k-point     34
Estimated direct band gap   :   0.6571986635E-02
 at k-point     11
 
Charges :
 core                        :    28.00000000    
 valence                     :    13.00000000    
 interstitial                :    1.722309153    
 muffin-tins (core leakage)
  species :    1 (Nb)
   atom    1                 :    39.27769085     (  0.7760581830E-06)
 total in muffin-tins        :    39.27769085    
 total calculated charge     :    40.99996633    
 total charge                :    41.00000000    
 error                       :   0.3366864718E-04
 
Time (CPU seconds) :         6.86
 
+--------------------+
| Loop number :    2 |
+--------------------+
 
Energies :
 Fermi                       :     0.193449737505    
 sum of eigenvalues          :     -2287.53870546    
 electron kinetic            :      3942.00296474    
 core electron kinetic       :      3887.72009465    
 Coulomb                     :     -7675.01541742    
 Coulomb potential           :     -6069.01833253    
 nuclear-nuclear             :     -385.710122113    
 electron-nuclear            :     -8509.59225808    
 Hartree                     :      1220.28696277    
 Madelung                    :     -4640.50625115    
 xc potential                :     -160.523337668    
 exchange                    :     -118.754560584    
 correlation                 :     -2.14138333507    
 total energy                :     -3853.90839659    
 
Density of states at Fermi energy :    33.69855471    
 (states/Hartree/unit cell)
 
Estimated indirect band gap :   0.3819136838E-03
 from k-point    130 to k-point     34
Estimated direct band gap   :   0.6572418397E-02
 at k-point     11
 
Charges :
 core                        :    28.00000000    
 valence                     :    13.00000000    
 interstitial                :    1.723226437    
 muffin-tins (core leakage)
  species :    1 (Nb)
   atom    1                 :    39.27677356     (  0.7803394091E-06)
 total in muffin-tins        :    39.27677356    
 total calculated charge     :    40.99996601    
 total charge                :    41.00000000    
 error                       :   0.3398577230E-04
 
Wrote STATE.OUT
 
RMS change in Kohn-Sham potential (target) :   0.9769292433     (   10.00000000    )
Absolute change in total energy (target)   :   0.4527394087     (  0.1000000000E-07)
 
Time (CPU seconds) :        13.10
 
+--------------------+
| Loop number :    3 |
+--------------------+
 
Energies :
 Fermi                       :     0.226872978299    
 sum of eigenvalues          :     -2284.39412058    
 electron kinetic            :      3944.40730864    
 core electron kinetic       :      3882.52040037    
 Coulomb                     :     -7672.90549837    
 Coulomb potential           :     -6068.37813605    
 nuclear-nuclear             :     -385.710122113    
 electron-nuclear            :     -8506.01261646    
 Hartree                     :      1218.81724021    
 Madelung                    :     -4638.71643034    
 xc potential                :     -160.423293173    
 exchange                    :     -118.680561026    
 correlation                 :     -2.14106959657    
 total energy                :     -3849.31982035    
 
Density of states at Fermi energy :    33.92508282    
 (states/Hartree/unit cell)
 
Estimated indirect band gap :   0.3807085997E-03
 from k-point    130 to k-point     34
Estimated direct band gap   :   0.6599933238E-02
 at k-point     11
 
Charges :
 core                        :    28.00000000    
 valence                     :    13.00000000    
 interstitial                :    1.727011375    
 muffin-tins (core leakage)
  species :    1 (Nb)
   atom    1                 :    39.27298862     (  0.8240915541E-06)
 total in muffin-tins        :    39.27298862    
 total calculated charge     :    40.99996654    
 total charge                :    41.00000000    
 error                       :   0.3345910065E-04
 
RMS change in Kohn-Sham potential (target) :   0.8468586339     (   10.00000000    )
Absolute change in total energy (target)   :    4.701761099     (  0.1000000000E-07)
 
Time (CPU seconds) :        19.37
 
+--------------------+
| Loop number :    4 |
+--------------------+
 
Energies :
 Fermi                       :     0.308513109579    
 sum of eigenvalues          :     -2277.37053438    
 electron kinetic            :      3950.00236871    
 core electron kinetic       :      3878.47470902    
 Coulomb                     :     -7668.65258077    
 Coulomb potential           :     -6067.15308328    
 nuclear-nuclear             :     -385.710122113    
 electron-nuclear            :     -8498.73183404    
 Hartree                     :      1215.78937538    
 Madelung                    :     -4635.07603913    
 xc potential                :     -160.219819806    
 exchange                    :     -118.530646276    
 correlation                 :     -2.14040466258    
 total energy                :     -3839.32126300    
 
Density of states at Fermi energy :    35.60372102    
 (states/Hartree/unit cell)
 
Estimated indirect band gap :   0.3808239738E-03
 from k-point    130 to k-point     34
Estimated direct band gap   :   0.6656379429E-02
 at k-point     11
 
Charges :
 core                        :    28.00000000    
 valence                     :    13.00000000    
 interstitial                :    1.734733688    
 muffin-tins (core leakage)
  species :    1 (Nb)
   atom    1                 :    39.26526631     (  0.9270598440E-06)
 total in muffin-tins        :    39.26526631    
 total calculated charge     :    40.99996737    
 total charge                :    41.00000000    
 error                       :   0.3262776906E-04
 
Wrote STATE.OUT
 
RMS change in Kohn-Sham potential (target) :   0.5444426375     (   10.00000000    )
Absolute change in total energy (target)   :    11.17399762     (  0.1000000000E-07)
 
Time (CPU seconds) :        25.73
 
+--------------------+
| Loop number :    5 |
+--------------------+
 
Energies :
 Fermi                       :     0.394751802633    
 sum of eigenvalues          :     -2270.14312713    
 electron kinetic            :      3955.88013615    
 core electron kinetic       :      3877.66937010    
 Coulomb                     :     -7664.44150466    
 Coulomb potential           :     -6066.00770956    
 nuclear-nuclear             :     -385.710122113    
 electron-nuclear            :     -8491.45505554    
 Hartree                     :      1212.72367299    
 Madelung                    :     -4631.43764988    
 xc potential                :     -160.015553715    
 exchange                    :     -118.380285192    
 correlation                 :     -2.13975533695    
 total energy                :     -3829.08140904    
 
Density of states at Fermi energy :    34.85675286    
 (states/Hartree/unit cell)
 
Estimated indirect band gap :   0.4369990444E-03
 from k-point    130 to k-point     34
Estimated direct band gap   :   0.6701051697E-02
 at k-point     11
 
Charges :
 core                        :    28.00000000    
 valence                     :    13.00000000    
 interstitial                :    1.744669744    
 muffin-tins (core leakage)
  species :    1 (Nb)
   atom    1                 :    39.25533026     (  0.1047949887E-05)
 total in muffin-tins        :    39.25533026    
 total calculated charge     :    40.99996787    
 total charge                :    41.00000000    
 error                       :   0.3212629506E-04
 
RMS change in Kohn-Sham potential (target) :   0.2299396730     (   10.00000000    )
Absolute change in total energy (target)   :    13.03335336     (  0.1000000000E-07)
 
Time (CPU seconds) :        31.90
 
+--------------------+
| Loop number :    6 |
+--------------------+
 
Energies :
 Fermi                       :     0.438946983255    
 sum of eigenvalues          :     -2266.48215516    
 electron kinetic            :      3958.90197427    
 core electron kinetic       :      3877.55789696    
 Coulomb                     :     -7662.35329035    
 Coulomb potential           :     -6065.47122129    
 nuclear-nuclear             :     -385.710122113    
 electron-nuclear            :     -8487.81511518    
 Hartree                     :      1211.17194695    
 Madelung                    :     -4629.61767970    
 xc potential                :     -159.912908147    
 exchange                    :     -118.304759437    
 correlation                 :     -2.13943984339    
 total energy                :     -3823.89551536    
 
Density of states at Fermi energy :    32.74802296    
 (states/Hartree/unit cell)
 
Estimated indirect band gap :   0.4968835698E-03
 from k-point    130 to k-point     34
Estimated direct band gap   :   0.6716909566E-02
 at k-point     11
 
Charges :
 core                        :    28.00000000    
 valence                     :    13.00000000    
 interstitial                :    1.750848343    
 muffin-tins (core leakage)
  species :    1 (Nb)
   atom    1                 :    39.24915166     (  0.1113577145E-05)
 total in muffin-tins        :    39.24915166    
 total calculated charge     :    40.99996790    
 total charge                :    41.00000000    
 error                       :   0.3210097769E-04
 
Wrote STATE.OUT
 
RMS change in Kohn-Sham potential (target) :   0.6965973021E-01 (   10.00000000    )
Absolute change in total energy (target)   :    8.444232029     (  0.1000000000E-07)
 
Time (CPU seconds) :        38.10
 
+--------------------+
| Loop number :    7 |
+--------------------+
 
Energies :
 Fermi                       :     0.457812476764    
 sum of eigenvalues          :     -2264.91653231    
 electron kinetic            :      3960.20264682    
 core electron kinetic       :      3878.08817495    
 Coulomb                     :     -7661.46250655    
 Coulomb potential           :     -6065.25039748    
 nuclear-nuclear             :     -385.710122113    
 electron-nuclear            :     -8486.25437140    
 Hartree                     :      1210.50198696    
 Madelung                    :     -4628.83730781    
 xc potential                :     -159.868781649    
 exchange                    :     -118.272292681    
 correlation                 :     -2.13930786915    
 total energy                :     -3821.67146028    
 
Density of states at Fermi energy :    31.52792122    
 (states/Hartree/unit cell)
 
Estimated indirect band gap :   0.5328925777E-03
 from k-point    130 to k-point     34
Estimated direct band gap   :   0.6721673921E-02
 at k-point     11
 
Charges :
 core                        :    28.00000000    
 valence                     :    13.00000000    
 interstitial                :    1.753854278    
 muffin-tins (core leakage)
  species :    1 (Nb)
   atom    1                 :    39.24614572     (  0.1144588147E-05)
 total in muffin-tins        :    39.24614572    
 total calculated charge     :    40.99996783    
 total charge                :    41.00000000    
 error                       :   0.3216983332E-04
 
RMS change in Kohn-Sham potential (target) :   0.2763051232E-02 (   10.00000000    )
Absolute change in total energy (target)   :    4.335113080     (  0.1000000000E-07)
 
Time (CPU seconds) :        44.21
 
+--------------------+
| Loop number :    8 |
+--------------------+
 
Energies :
 Fermi                       :     0.457942163964    
 sum of eigenvalues          :     -2264.92215378    
 electron kinetic            :      3960.21656906    
 core electron kinetic       :      3878.12210547    
 Coulomb                     :     -7661.48431602    
 Coulomb potential           :     -6065.26938210    
 nuclear-nuclear             :     -385.710122113    
 electron-nuclear            :     -8486.27900572    
 Hartree                     :      1210.50481181    
 Madelung                    :     -4628.84962497    
 xc potential                :     -159.869340737    
 exchange                    :     -118.272739714    
 correlation                 :     -2.13931188663    
 total energy                :     -3821.67979856    
 
Density of states at Fermi energy :    31.10283801    
 (states/Hartree/unit cell)
 
Estimated indirect band gap :   0.5443235465E-03
 from k-point    130 to k-point     34
Estimated direct band gap   :   0.6719396469E-02
 at k-point     11
 
Charges :
 core                        :    28.00000000    
 valence                     :    13.00000000    
 interstitial                :    1.754246366    
 muffin-tins (core leakage)
  species :    1 (Nb)
   atom    1                 :    39.24575363     (  0.1144517761E-05)
 total in muffin-tins        :    39.24575363    
 total calculated charge     :    40.99996771    
 total charge                :    41.00000000    
 error                       :   0.3228806729E-04
 
Wrote STATE.OUT
 
RMS change in Kohn-Sham potential (target) :   0.1657713033E-02 (   10.00000000    )
Absolute change in total energy (target)   :    1.075439991     (  0.1000000000E-07)
 
Time (CPU seconds) :        50.63
 
+--------------------+
| Loop number :    9 |
+--------------------+
 
Energies :
 Fermi                       :     0.457861170957    
 sum of eigenvalues          :     -2264.93658495    
 electron kinetic            :      3960.21869278    
 core electron kinetic       :      3878.13386562    
 Coulomb                     :     -7661.50500493    
 Coulomb potential           :     -6065.28531487    
 nuclear-nuclear             :     -385.710122113    
 electron-nuclear            :     -8486.30445076    
 Hartree                     :      1210.50956794    
 Madelung                    :     -4628.86234749    
 xc potential                :     -159.869962859    
 exchange                    :     -118.273230027    
 correlation                 :     -2.13931608704    
 total energy                :     -3821.69885826    
 
Density of states at Fermi energy :    30.79450398    
 (states/Hartree/unit cell)
 
Estimated indirect band gap :   0.5542614044E-03
 from k-point    130 to k-point     34
Estimated direct band gap   :   0.6717415393E-02
 at k-point     11
 
Charges :
 core                        :    28.00000000    
 valence                     :    13.00000000    
 interstitial                :    1.754570593    
 muffin-tins (core leakage)
  species :    1 (Nb)
   atom    1                 :    39.24542941     (  0.1144805747E-05)
 total in muffin-tins        :    39.24542941    
 total calculated charge     :    40.99996762    
 total charge                :    41.00000000    
 error                       :   0.3238467725E-04
 
RMS change in Kohn-Sham potential (target) :   0.5747044706E-03 (   10.00000000    )
Absolute change in total energy (target)   :   0.2498002972     (  0.1000000000E-07)
 
Time (CPU seconds) :        56.81
 
+--------------------+
| Loop number :   10 |
+--------------------+
 
Energies :
 Fermi                       :     0.457777791259    
 sum of eigenvalues          :     -2264.93838706    
 electron kinetic            :      3960.21569304    
 core electron kinetic       :      3878.13084396    
 Coulomb                     :     -7661.50270973    
 Coulomb potential           :     -6065.28420033    
 nuclear-nuclear             :     -385.710122113    
 electron-nuclear            :     -8486.30097490    
 Hartree                     :      1210.50838728    
 Madelung                    :     -4628.86060956    
 xc potential                :     -159.869879764    
 exchange                    :     -118.273168677    
 correlation                 :     -2.13931586873    
 total energy                :     -3821.69950123    
 
Density of states at Fermi energy :    30.79303436    
 (states/Hartree/unit cell)
 
Estimated indirect band gap :   0.5543684818E-03
 from k-point    130 to k-point     34
Estimated direct band gap   :   0.6717474111E-02
 at k-point     11
 
Charges :
 core                        :    28.00000000    
 valence                     :    13.00000000    
 interstitial                :    1.754570092    
 muffin-tins (core leakage)
  species :    1 (Nb)
   atom    1                 :    39.24542991     (  0.1144299240E-05)
 total in muffin-tins        :    39.24542991    
 total calculated charge     :    40.99996760    
 total charge                :    41.00000000    
 error                       :   0.3239954216E-04
 
Wrote STATE.OUT
 
RMS change in Kohn-Sham potential (target) :   0.1021293689E-02 (   10.00000000    )
Absolute change in total energy (target)   :   0.6180710215E-01 (  0.1000000000E-07)
 
Time (CPU seconds) :        62.78
 
+--------------------+
| Loop number :   11 |
+--------------------+
 
Energies :
 Fermi                       :     0.457730719452    
 sum of eigenvalues          :     -2264.93935091    
 electron kinetic            :      3960.21382571    
 core electron kinetic       :      3878.12884342    
 Coulomb                     :     -7661.50122869    
 Coulomb potential           :     -6065.28334637    
 nuclear-nuclear             :     -385.710122113    
 electron-nuclear            :     -8486.29886677    
 Hartree                     :      1210.50776020    
 Madelung                    :     -4628.85955550    
 xc potential                :     -159.869830242    
 exchange                    :     -118.273131558    
 correlation                 :     -2.13931570715    
 total energy                :     -3821.69985024    
 
Density of states at Fermi energy :    30.79730492    
 (states/Hartree/unit cell)
 
Estimated indirect band gap :   0.5542457434E-03
 from k-point    130 to k-point     34
Estimated direct band gap   :   0.6717543221E-02
 at k-point     11
 
Charges :
 core                        :    28.00000000    
 valence                     :    13.00000000    
 interstitial                :    1.754563861    
 muffin-tins (core leakage)
  species :    1 (Nb)
   atom    1                 :    39.24543614     (  0.1144450394E-05)
 total in muffin-tins        :    39.24543614    
 total calculated charge     :    40.99996759    
 total charge                :    41.00000000    
 error                       :   0.3240638955E-04
 
RMS change in Kohn-Sham potential (target) :   0.4799754817E-03 (   10.00000000    )
Absolute change in total energy (target)   :   0.1510276867E-01 (  0.1000000000E-07)
 
Time (CPU seconds) :        69.06
 
+--------------------+
| Loop number :   12 |
+--------------------+
 
Energies :
 Fermi                       :     0.457719898211    
 sum of eigenvalues          :     -2264.93959195    
 electron kinetic            :      3960.21329155    
 core electron kinetic       :      3878.12824330    
 Coulomb                     :     -7661.50088601    
 Coulomb potential           :     -6065.28306087    
 nuclear-nuclear             :     -385.710122113    
 electron-nuclear            :     -8486.29846693    
 Hartree                     :      1210.50770303    
 Madelung                    :     -4628.85935558    
 xc potential                :     -159.869822637    
 exchange                    :     -118.273125707    
 correlation                 :     -2.13931566896    
 total energy                :     -3821.70003584    
 
Density of states at Fermi energy :    30.80147131    
 (states/Hartree/unit cell)
 
Estimated indirect band gap :   0.5541026865E-03
 from k-point    130 to k-point     34
Estimated direct band gap   :   0.6717587639E-02
 at k-point     11
 
Charges :
 core                        :    28.00000000    
 valence                     :    13.00000000    
 interstitial                :    1.754558814    
 muffin-tins (core leakage)
  species :    1 (Nb)
   atom    1                 :    39.24544119     (  0.1144446276E-05)
 total in muffin-tins        :    39.24544119    
 total calculated charge     :    40.99996759    
 total charge                :    41.00000000    
 error                       :   0.3240710726E-04
 
Wrote STATE.OUT
 
RMS change in Kohn-Sham potential (target) :   0.3933930345E-03 (   10.00000000    )
Absolute change in total energy (target)   :   0.3590097299E-02 (  0.1000000000E-07)
 
Time (CPU seconds) :        75.30
 
+--------------------+
| Loop number :   13 |
+--------------------+
 
Energies :
 Fermi                       :     0.457720375222    
 sum of eigenvalues          :     -2264.93953075    
 electron kinetic            :      3960.21332117    
 core electron kinetic       :      3878.12822734    
 Coulomb                     :     -7661.50083123    
 Coulomb potential           :     -6065.28303127    
 nuclear-nuclear             :     -385.710122113    
 electron-nuclear            :     -8486.29838697    
 Hartree                     :      1210.50767785    
 Madelung                    :     -4628.85931560    
 xc potential                :     -159.869820652    
 exchange                    :     -118.273124286    
 correlation                 :     -2.13931564374    
 total energy                :     -3821.69994999    
 
Density of states at Fermi energy :    30.80187648    
 (states/Hartree/unit cell)
 
Estimated indirect band gap :   0.5540886543E-03
 from k-point    130 to k-point     34
Estimated direct band gap   :   0.6717591589E-02
 at k-point     11
 
Charges :
 core                        :    28.00000000    
 valence                     :    13.00000000    
 interstitial                :    1.754558392    
 muffin-tins (core leakage)
  species :    1 (Nb)
   atom    1                 :    39.24544161     (  0.1144439320E-05)
 total in muffin-tins        :    39.24544161    
 total calculated charge     :    40.99996759    
 total charge                :    41.00000000    
 error                       :   0.3240709184E-04
 
RMS change in Kohn-Sham potential (target) :   0.7807795682E-04 (   10.00000000    )
Absolute change in total energy (target)   :   0.9833698350E-03 (  0.1000000000E-07)
 
Time (CPU seconds) :        81.39
 
+--------------------+
| Loop number :   14 |
+--------------------+
 
Energies :
 Fermi                       :     0.457720499386    
 sum of eigenvalues          :     -2264.93951779    
 electron kinetic            :      3960.21334441    
 core electron kinetic       :      3878.12825809    
 Coulomb                     :     -7661.50084628    
 Coulomb potential           :     -6065.28304069    
 nuclear-nuclear             :     -385.710122113    
 electron-nuclear            :     -8486.29840765    
 Hartree                     :      1210.50768348    
 Madelung                    :     -4628.85932594    
 xc potential                :     -159.869821512    
 exchange                    :     -118.273125038    
 correlation                 :     -2.13931564557    
 total energy                :     -3821.69994256    
 
Density of states at Fermi energy :    30.80201172    
 (states/Hartree/unit cell)
 
Estimated indirect band gap :   0.5540837095E-03
 from k-point    130 to k-point     34
Estimated direct band gap   :   0.6717597699E-02
 at k-point     11
 
Charges :
 core                        :    28.00000000    
 valence                     :    13.00000000    
 interstitial                :    1.754558505    
 muffin-tins (core leakage)
  species :    1 (Nb)
   atom    1                 :    39.24544149     (  0.1144461205E-05)
 total in muffin-tins        :    39.24544149    
 total calculated charge     :    40.99996759    
 total charge                :    41.00000000    
 error                       :   0.3240729443E-04
 
Wrote STATE.OUT
 
RMS change in Kohn-Sham potential (target) :   0.3561570487E-03 (   10.00000000    )
Absolute change in total energy (target)   :   0.2532767166E-03 (  0.1000000000E-07)
 
Time (CPU seconds) :        87.99
 
+--------------------+
| Loop number :   15 |
+--------------------+
 
Energies :
 Fermi                       :     0.457718782744    
 sum of eigenvalues          :     -2264.93954102    
 electron kinetic            :      3960.21327567    
 core electron kinetic       :      3878.12818425    
 Coulomb                     :     -7661.50078434    
 Coulomb potential           :     -6065.28299677    
 nuclear-nuclear             :     -385.710122113    
 electron-nuclear            :     -8486.29832768    
 Hartree                     :      1210.50766545    
 Madelung                    :     -4628.85928595    
 xc potential                :     -159.869819911    
 exchange                    :     -118.273123862    
 correlation                 :     -2.13931563789    
 total energy                :     -3821.69994817    
 
Density of states at Fermi energy :    30.80270455    
 (states/Hartree/unit cell)
 
Estimated indirect band gap :   0.5540599681E-03
 from k-point    130 to k-point     34
Estimated direct band gap   :   0.6717607968E-02
 at k-point     11
 
Charges :
 core                        :    28.00000000    
 valence                     :    13.00000000    
 interstitial                :    1.754557897    
 muffin-tins (core leakage)
  species :    1 (Nb)
   atom    1                 :    39.24544210     (  0.1144340157E-05)
 total in muffin-tins        :    39.24544210    
 total calculated charge     :    40.99996759    
 total charge                :    41.00000000    
 error                       :   0.3240733123E-04
 
RMS change in Kohn-Sham potential (target) :   0.1920243946E-03 (   10.00000000    )
Absolute change in total energy (target)   :   0.5770658299E-04 (  0.1000000000E-07)
 
Time (CPU seconds) :        94.04
 
+--------------------+
| Loop number :   16 |
+--------------------+
 
Energies :
 Fermi                       :     0.457717981470    
 sum of eigenvalues          :     -2264.93955161    
 electron kinetic            :      3960.21323799    
 core electron kinetic       :      3878.12816370    
 Coulomb                     :     -7661.50075455    
 Coulomb potential           :     -6065.28297029    
 nuclear-nuclear             :     -385.710122113    
 electron-nuclear            :     -8486.29829459    
 Hartree                     :      1210.50766215    
 Madelung                    :     -4628.85926941    
 xc potential                :     -159.869819310    
 exchange                    :     -118.273123400    
 correlation                 :     -2.13931563476    
 total energy                :     -3821.69995560    
 
Density of states at Fermi energy :    30.80329408    
 (states/Hartree/unit cell)
 
Estimated indirect band gap :   0.5540391857E-03
 from k-point    130 to k-point     34
Estimated direct band gap   :   0.6717616014E-02
 at k-point     11
 
Charges :
 core                        :    28.00000000    
 valence                     :    13.00000000    
 interstitial                :    1.754557441    
 muffin-tins (core leakage)
  species :    1 (Nb)
   atom    1                 :    39.24544256     (  0.1144341148E-05)
 total in muffin-tins        :    39.24544256    
 total calculated charge     :    40.99996759    
 total charge                :    41.00000000    
 error                       :   0.3240728029E-04
 
Wrote STATE.OUT
 
RMS change in Kohn-Sham potential (target) :   0.2373169138E-03 (   10.00000000    )
Absolute change in total energy (target)   :   0.6995759577E-05 (  0.1000000000E-07)
 
Time (CPU seconds) :        99.98
 
+--------------------+
| Loop number :   17 |
+--------------------+
 
Energies :
 Fermi                       :     0.457716735192    
 sum of eigenvalues          :     -2264.93958338    
 electron kinetic            :      3960.21318788    
 core electron kinetic       :      3878.12810985    
 Coulomb                     :     -7661.50072649    
 Coulomb potential           :     -6065.28295277    
 nuclear-nuclear             :     -385.710122113    
 electron-nuclear            :     -8486.29825598    
 Hartree                     :      1210.50765161    
 Madelung                    :     -4628.85925010    
 xc potential                :     -159.869818487    
 exchange                    :     -118.273122791    
 correlation                 :     -2.13931563177    
 total energy                :     -3821.69997704    
 
Density of states at Fermi energy :    30.80344644    
 (states/Hartree/unit cell)
 
Estimated indirect band gap :   0.5540343506E-03
 from k-point    130 to k-point     34
Estimated direct band gap   :   0.6717619049E-02
 at k-point     11
 
Charges :
 core                        :    28.00000000    
 valence                     :    13.00000000    
 interstitial                :    1.754557314    
 muffin-tins (core leakage)
  species :    1 (Nb)
   atom    1                 :    39.24544269     (  0.1144389376E-05)
 total in muffin-tins        :    39.24544269    
 total calculated charge     :    40.99996759    
 total charge                :    41.00000000    
 error                       :   0.3240748009E-04
 
RMS change in Kohn-Sham potential (target) :   0.1374131027E-03 (   10.00000000    )
Absolute change in total energy (target)   :   0.1968672677E-04 (  0.1000000000E-07)
 
Time (CPU seconds) :       106.14
 
+--------------------+
| Loop number :   18 |
+--------------------+
 
Energies :
 Fermi                       :     0.457717091370    
 sum of eigenvalues          :     -2264.93957271    
 electron kinetic            :      3960.21320768    
 core electron kinetic       :      3878.12813233    
 Coulomb                     :     -7661.50073780    
 Coulomb potential           :     -6065.28296160    
 nuclear-nuclear             :     -385.710122113    
 electron-nuclear            :     -8486.29826977    
 Hartree                     :      1210.50765409    
 Madelung                    :     -4628.85925700    
 xc potential                :     -159.869818782    
 exchange                    :     -118.273123016    
 correlation                 :     -2.13931563498    
 total energy                :     -3821.69996877    
 
Density of states at Fermi energy :    30.80343001    
 (states/Hartree/unit cell)
 
Estimated indirect band gap :   0.5540345456E-03
 from k-point    130 to k-point     34
Estimated direct band gap   :   0.6717620074E-02
 at k-point     11
 
Charges :
 core                        :    28.00000000    
 valence                     :    13.00000000    
 interstitial                :    1.754557478    
 muffin-tins (core leakage)
  species :    1 (Nb)
   atom    1                 :    39.24544252     (  0.1144461560E-05)
 total in muffin-tins        :    39.24544252    
 total calculated charge     :    40.99996759    
 total charge                :    41.00000000    
 error                       :   0.3240753252E-04
 
Wrote STATE.OUT
 
RMS change in Kohn-Sham potential (target) :   0.1322259458E-03 (   10.00000000    )
Absolute change in total energy (target)   :   0.3340705007E-05 (  0.1000000000E-07)
 
Time (CPU seconds) :       112.63
 
+--------------------+
| Loop number :   19 |
+--------------------+
 
Energies :
 Fermi                       :     0.457717134231    
 sum of eigenvalues          :     -2264.93957203    
 electron kinetic            :      3960.21321355    
 core electron kinetic       :      3878.12813379    
 Coulomb                     :     -7661.50074444    
 Coulomb potential           :     -6065.28296660    
 nuclear-nuclear             :     -385.710122113    
 electron-nuclear            :     -8486.29827804    
 Hartree                     :      1210.50765572    
 Madelung                    :     -4628.85926113    
 xc potential                :     -159.869818974    
 exchange                    :     -118.273123167    
 correlation                 :     -2.13931563722    
 total energy                :     -3821.69996969    
 
Density of states at Fermi energy :    30.80345903    
 (states/Hartree/unit cell)
 
Estimated indirect band gap :   0.5540332138E-03
 from k-point    130 to k-point     34
Estimated direct band gap   :   0.6717621782E-02
 at k-point     11
 
Charges :
 core                        :    28.00000000    
 valence                     :    13.00000000    
 interstitial                :    1.754557582    
 muffin-tins (core leakage)
  species :    1 (Nb)
   atom    1                 :    39.24544242     (  0.1144499425E-05)
 total in muffin-tins        :    39.24544242    
 total calculated charge     :    40.99996759    
 total charge                :    41.00000000    
 error                       :   0.3240752931E-04
 
RMS change in Kohn-Sham potential (target) :   0.3658739577E-03 (   10.00000000    )
Absolute change in total energy (target)   :   0.8508095561E-07 (  0.1000000000E-07)
 
Time (CPU seconds) :       118.84
 
+--------------------+
| Loop number :   20 |
+--------------------+
 
Energies :
 Fermi                       :     0.457718316475    
 sum of eigenvalues          :     -2264.93954871    
 electron kinetic            :      3960.21325631    
 core electron kinetic       :      3878.12817029    
 Coulomb                     :     -7661.50077173    
 Coulomb potential           :     -6065.28298534    
 nuclear-nuclear             :     -385.710122113    
 electron-nuclear            :     -8486.29831389    
 Hartree                     :      1210.50766428    
 Madelung                    :     -4628.85927906    
 xc potential                :     -159.869819687    
 exchange                    :     -118.273123636    
 correlation                 :     -2.13931565303    
 total energy                :     -3821.69995471    
 
Density of states at Fermi energy :    30.80302797    
 (states/Hartree/unit cell)
 
Estimated indirect band gap :   0.5540484253E-03
 from k-point    130 to k-point     34
Estimated direct band gap   :   0.6717613292E-02
 at k-point     11
 
Charges :
 core                        :    28.00000000    
 valence                     :    13.00000000    
 interstitial                :    1.754557739    
 muffin-tins (core leakage)
  species :    1 (Nb)
   atom    1                 :    39.24544226     (  0.1144475451E-05)
 total in muffin-tins        :    39.24544226    
 total calculated charge     :    40.99996759    
 total charge                :    41.00000000    
 error                       :   0.3240744901E-04
 
Wrote STATE.OUT
 
RMS change in Kohn-Sham potential (target) :   0.1840956276E-03 (   10.00000000    )
Absolute change in total energy (target)   :   0.1496610957E-04 (  0.1000000000E-07)
 
Time (CPU seconds) :       125.21
 
+--------------------+
| Loop number :   21 |
+--------------------+
 
Energies :
 Fermi                       :     0.457717810770    
 sum of eigenvalues          :     -2264.93955436    
 electron kinetic            :      3960.21324272    
 core electron kinetic       :      3878.12816016    
 Coulomb                     :     -7661.50075962    
 Coulomb potential           :     -6065.28297767    
 nuclear-nuclear             :     -385.710122113    
 electron-nuclear            :     -8486.29829735    
 Hartree                     :      1210.50765984    
 Madelung                    :     -4628.85927079    
 xc potential                :     -159.869819400    
 exchange                    :     -118.273123492    
 correlation                 :     -2.13931563859    
 total energy                :     -3821.69995604    
 
Density of states at Fermi energy :    30.80332050    
 (states/Hartree/unit cell)
 
Estimated indirect band gap :   0.5540378754E-03
 from k-point    130 to k-point     34
Estimated direct band gap   :   0.6717619598E-02
 at k-point     11
 
Charges :
 core                        :    28.00000000    
 valence                     :    13.00000000    
 interstitial                :    1.754557695    
 muffin-tins (core leakage)
  species :    1 (Nb)
   atom    1                 :    39.24544231     (  0.1144442081E-05)
 total in muffin-tins        :    39.24544231    
 total calculated charge     :    40.99996759    
 total charge                :    41.00000000    
 error                       :   0.3240740260E-04
 
RMS change in Kohn-Sham potential (target) :   0.5403020086E-03 (   10.00000000    )
Absolute change in total energy (target)   :   0.2412213689E-05 (  0.1000000000E-07)
 
Time (CPU seconds) :       131.24
 
+--------------------+
| Loop number :   22 |
+--------------------+
 
Energies :
 Fermi                       :     0.457717849519    
 sum of eigenvalues          :     -2264.93955321    
 electron kinetic            :      3960.21325011    
 core electron kinetic       :      3878.12817149    
 Coulomb                     :     -7661.50076543    
 Coulomb potential           :     -6065.28298378    
 nuclear-nuclear             :     -385.710122113    
 electron-nuclear            :     -8486.29830286    
 Hartree                     :      1210.50765954    
 Madelung                    :     -4628.85927354    
 xc potential                :     -159.869819545    
 exchange                    :     -118.273123616    
 correlation                 :     -2.13931564006    
 total energy                :     -3821.69995458    
 
Density of states at Fermi energy :    30.80330146    
 (states/Hartree/unit cell)
 
Estimated indirect band gap :   0.5540382779E-03
 from k-point    130 to k-point     34
Estimated direct band gap   :   0.6717620807E-02
 at k-point     11
 
Charges :
 core                        :    28.00000000    
 valence                     :    13.00000000    
 interstitial                :    1.754557832    
 muffin-tins (core leakage)
  species :    1 (Nb)
   atom    1                 :    39.24544217     (  0.1144427959E-05)
 total in muffin-tins        :    39.24544217    
 total calculated charge     :    40.99996759    
 total charge                :    41.00000000    
 error                       :   0.3240736847E-04
 
Wrote STATE.OUT
 
RMS change in Kohn-Sham potential (target) :   0.4563093373E-03 (   10.00000000    )
Absolute change in total energy (target)   :   0.2059836334E-05 (  0.1000000000E-07)
 
Time (CPU seconds) :       137.58
 
+--------------------+
| Loop number :   23 |
+--------------------+
 
Energies :
 Fermi                       :     0.457717849403    
 sum of eigenvalues          :     -2264.93955515    
 electron kinetic            :      3960.21324540    
 core electron kinetic       :      3878.12816085    
 Coulomb                     :     -7661.50076271    
 Coulomb potential           :     -6065.28298109    
 nuclear-nuclear             :     -385.710122113    
 electron-nuclear            :     -8486.29830010    
 Hartree                     :      1210.50765951    
 Madelung                    :     -4628.85927216    
 xc potential                :     -159.869819464    
 exchange                    :     -118.273123495    
 correlation                 :     -2.13931565371    
 total energy                :     -3821.69995646    
 
Density of states at Fermi energy :    30.80322325    
 (states/Hartree/unit cell)
 
Estimated indirect band gap :   0.5540413435E-03
 from k-point    130 to k-point     34
Estimated direct band gap   :   0.6717618354E-02
 at k-point     11
 
Charges :
 core                        :    28.00000000    
 valence                     :    13.00000000    
 interstitial                :    1.754557757    
 muffin-tins (core leakage)
  species :    1 (Nb)
   atom    1                 :    39.24544224     (  0.1144414490E-05)
 total in muffin-tins        :    39.24544224    
 total calculated charge     :    40.99996759    
 total charge                :    41.00000000    
 error                       :   0.3240740072E-04
 
RMS change in Kohn-Sham potential (target) :   0.1063116828E-03 (   10.00000000    )
Absolute change in total energy (target)   :   0.1362691819E-05 (  0.1000000000E-07)
 
Time (CPU seconds) :       143.52
 
+--------------------+
| Loop number :   24 |
+--------------------+
 
Energies :
 Fermi                       :     0.457718044944    
 sum of eigenvalues          :     -2264.93954957    
 electron kinetic            :      3960.21325488    
 core electron kinetic       :      3878.12816960    
 Coulomb                     :     -7661.50076736    
 Coulomb potential           :     -6065.28298488    
 nuclear-nuclear             :     -385.710122113    
 electron-nuclear            :     -8486.29830562    
 Hartree                     :      1210.50766037    
 Madelung                    :     -4628.85927492    
 xc potential                :     -159.869819571    
 exchange                    :     -118.273123579    
 correlation                 :     -2.13931565417    
 total energy                :     -3821.69995172    
 
Density of states at Fermi energy :    30.80316609    
 (states/Hartree/unit cell)
 
Estimated indirect band gap :   0.5540432859E-03
 from k-point    130 to k-point     34
Estimated direct band gap   :   0.6717617677E-02
 at k-point     11
 
Charges :
 core                        :    28.00000000    
 valence                     :    13.00000000    
 interstitial                :    1.754557812    
 muffin-tins (core leakage)
  species :    1 (Nb)
   atom    1                 :    39.24544219     (  0.1144403530E-05)
 total in muffin-tins        :    39.24544219    
 total calculated charge     :    40.99996759    
 total charge                :    41.00000000    
 error                       :   0.3240740222E-04
 
Wrote STATE.OUT
 
RMS change in Kohn-Sham potential (target) :   0.4387992876E-03 (   10.00000000    )
Absolute change in total energy (target)   :   0.4398983492E-05 (  0.1000000000E-07)
 
Time (CPU seconds) :       149.71
 
+--------------------+
| Loop number :   25 |
+--------------------+
 
Energies :
 Fermi                       :     0.457718028125    
 sum of eigenvalues          :     -2264.93955001    
 electron kinetic            :      3960.21325460    
 core electron kinetic       :      3878.12816823    
 Coulomb                     :     -7661.50076745    
 Coulomb potential           :     -6065.28298505    
 nuclear-nuclear             :     -385.710122113    
 electron-nuclear            :     -8486.29830562    
 Hartree                     :      1210.50766028    
 Madelung                    :     -4628.85927492    
 xc potential                :     -159.869819566    
 exchange                    :     -118.273123577    
 correlation                 :     -2.13931565384    
 total energy                :     -3821.69995208    
 
Density of states at Fermi energy :    30.80316018    
 (states/Hartree/unit cell)
 
Estimated indirect band gap :   0.5540434997E-03
 from k-point    130 to k-point     34
Estimated direct band gap   :   0.6717617670E-02
 at k-point     11
 
Charges :
 core                        :    28.00000000    
 valence                     :    13.00000000    
 interstitial                :    1.754557818    
 muffin-tins (core leakage)
  species :    1 (Nb)
   atom    1                 :    39.24544218     (  0.1144316673E-05)
 total in muffin-tins        :    39.24544218    
 total calculated charge     :    40.99996759    
 total charge                :    41.00000000    
 error                       :   0.3240732713E-04
 
RMS change in Kohn-Sham potential (target) :   0.3614233285E-03 (   10.00000000    )
Absolute change in total energy (target)   :   0.7385588106E-06 (  0.1000000000E-07)
 
Time (CPU seconds) :       155.79
 
+--------------------+
| Loop number :   26 |
+--------------------+
 
Energies :
 Fermi                       :     0.457718128758    
 sum of eigenvalues          :     -2264.93954771    
 electron kinetic            :      3960.21325809    
 core electron kinetic       :      3878.12816797    
 Coulomb                     :     -7661.50076941    
 Coulomb potential           :     -6065.28298621    
 nuclear-nuclear             :     -385.710122113    
 electron-nuclear            :     -8486.29830838    
 Hartree                     :      1210.50766108    
 Madelung                    :     -4628.85927630    
 xc potential                :     -159.869819596    
 exchange                    :     -118.273123601    
 correlation                 :     -2.13931565351    
 total energy                :     -3821.69995056    
 
Density of states at Fermi energy :    30.80310861    
 (states/Hartree/unit cell)
 
Estimated indirect band gap :   0.5540453854E-03
 from k-point    130 to k-point     34
Estimated direct band gap   :   0.6717616583E-02
 at k-point     11
 
Charges :
 core                        :    28.00000000    
 valence                     :    13.00000000    
 interstitial                :    1.754557824    
 muffin-tins (core leakage)
  species :    1 (Nb)
   atom    1                 :    39.24544218     (  0.1144274972E-05)
 total in muffin-tins        :    39.24544218    
 total calculated charge     :    40.99996759    
 total charge                :    41.00000000    
 error                       :   0.3240726145E-04
 
Wrote STATE.OUT
 
RMS change in Kohn-Sham potential (target) :   0.4456174338E-03 (   10.00000000    )
Absolute change in total energy (target)   :   0.1697853804E-05 (  0.1000000000E-07)
 
Time (CPU seconds) :       161.87
 
+--------------------+
| Loop number :   27 |
+--------------------+
 
Energies :
 Fermi                       :     0.457718173278    
 sum of eigenvalues          :     -2264.93954449    
 electron kinetic            :      3960.21326180    
 core electron kinetic       :      3878.12817230    
 Coulomb                     :     -7661.50076964    
 Coulomb potential           :     -6065.28298668    
 nuclear-nuclear             :     -385.710122113    
 electron-nuclear            :     -8486.29830838    
 Hartree                     :      1210.50766085    
 Madelung                    :     -4628.85927630    
 xc potential                :     -159.869819607    
 exchange                    :     -118.273123665    
 correlation                 :     -2.13931563904    
 total energy                :     -3821.69994714    
 
Density of states at Fermi energy :    30.80315261    
 (states/Hartree/unit cell)
 
Estimated indirect band gap :   0.5540437095E-03
 from k-point    130 to k-point     34
Estimated direct band gap   :   0.6717617608E-02
 at k-point     11
 
Charges :
 core                        :    28.00000000    
 valence                     :    13.00000000    
 interstitial                :    1.754557833    
 muffin-tins (core leakage)
  species :    1 (Nb)
   atom    1                 :    39.24544217     (  0.1144377638E-05)
 total in muffin-tins        :    39.24544217    
 total calculated charge     :    40.99996759    
 total charge                :    41.00000000    
 error                       :   0.3240734664E-04
 
RMS change in Kohn-Sham potential (target) :   0.4266431697E-03 (   10.00000000    )
Absolute change in total energy (target)   :   0.3844168532E-05 (  0.1000000000E-07)
 
Time (CPU seconds) :       167.97
 
+--------------------+
| Loop number :   28 |
+--------------------+
 
Energies :
 Fermi                       :     0.457718145818    
 sum of eigenvalues          :     -2264.93954535    
 electron kinetic            :      3960.21326007    
 core electron kinetic       :      3878.12817037    
 Coulomb                     :     -7661.50076853    
 Coulomb potential           :     -6065.28298584    
 nuclear-nuclear             :     -385.710122113    
 electron-nuclear            :     -8486.29830700    
 Hartree                     :      1210.50766058    
 Madelung                    :     -4628.85927561    
 xc potential                :     -159.869819575    
 exchange                    :     -118.273123641    
 correlation                 :     -2.13931563833    
 total energy                :     -3821.69994774    
 
Density of states at Fermi energy :    30.80314570    
 (states/Hartree/unit cell)
 
Estimated indirect band gap :   0.5540440209E-03
 from k-point    130 to k-point     34
Estimated direct band gap   :   0.6717617335E-02
 at k-point     11
 
Charges :
 core                        :    28.00000000    
 valence                     :    13.00000000    
 interstitial                :    1.754557819    
 muffin-tins (core leakage)
  species :    1 (Nb)
   atom    1                 :    39.24544218     (  0.1144586058E-05)
 total in muffin-tins        :    39.24544218    
 total calculated charge     :    40.99996759    
 total charge                :    41.00000000    
 error                       :   0.3240760691E-04
 
Wrote STATE.OUT
 
RMS change in Kohn-Sham potential (target) :   0.4899068916E-03 (   10.00000000    )
Absolute change in total energy (target)   :   0.3636782822E-06 (  0.1000000000E-07)
 
Time (CPU seconds) :       174.29
 
+--------------------+
| Loop number :   29 |
+--------------------+
 
Energies :
 Fermi                       :     0.457718130069    
 sum of eigenvalues          :     -2264.93954571    
 electron kinetic            :      3960.21325937    
 core electron kinetic       :      3878.12816925    
 Coulomb                     :     -7661.50076837    
 Coulomb potential           :     -6065.28298551    
 nuclear-nuclear             :     -385.710122113    
 electron-nuclear            :     -8486.29830700    
 Hartree                     :      1210.50766074    
 Madelung                    :     -4628.85927561    
 xc potential                :     -159.869819570    
 exchange                    :     -118.273123582    
 correlation                 :     -2.13931565408    
 total energy                :     -3821.69994823    
 
Density of states at Fermi energy :    30.80315446    
 (states/Hartree/unit cell)
 
Estimated indirect band gap :   0.5540437022E-03
 from k-point    130 to k-point     34
Estimated direct band gap   :   0.6717617518E-02
 at k-point     11
 
Charges :
 core                        :    28.00000000    
 valence                     :    13.00000000    
 interstitial                :    1.754557818    
 muffin-tins (core leakage)
  species :    1 (Nb)
   atom    1                 :    39.24544218     (  0.1144379471E-05)
 total in muffin-tins        :    39.24544218    
 total calculated charge     :    40.99996759    
 total charge                :    41.00000000    
 error                       :   0.3240735619E-04
 
RMS change in Kohn-Sham potential (target) :   0.6615756244E-04 (   10.00000000    )
Absolute change in total energy (target)   :   0.3972272680E-06 (  0.1000000000E-07)
 
Time (CPU seconds) :       180.57
 
+--------------------+
| Loop number :   30 |
+--------------------+
 
Energies :
 Fermi                       :     0.457718154388    
 sum of eigenvalues          :     -2264.93954478    
 electron kinetic            :      3960.21326078    
 core electron kinetic       :      3878.12817031    
 Coulomb                     :     -7661.50076860    
 Coulomb potential           :     -6065.28298598    
 nuclear-nuclear             :     -385.710122113    
 electron-nuclear            :     -8486.29830700    
 Hartree                     :      1210.50766051    
 Madelung                    :     -4628.85927561    
 xc potential                :     -159.869819580    
 exchange                    :     -118.273123593    
 correlation                 :     -2.13931565375    
 total energy                :     -3821.69994707    
 
Density of states at Fermi energy :    30.80315122    
 (states/Hartree/unit cell)
 
Estimated indirect band gap :   0.5540438049E-03
 from k-point    130 to k-point     34
Estimated direct band gap   :   0.6717617500E-02
 at k-point     11
 
Charges :
 core                        :    28.00000000    
 valence                     :    13.00000000    
 interstitial                :    1.754557823    
 muffin-tins (core leakage)
  species :    1 (Nb)
   atom    1                 :    39.24544218     (  0.1144563388E-05)
 total in muffin-tins        :    39.24544218    
 total calculated charge     :    40.99996759    
 total charge                :    41.00000000    
 error                       :   0.3240756291E-04
 
Wrote STATE.OUT
 
RMS change in Kohn-Sham potential (target) :   0.1456155272E-02 (   10.00000000    )
Absolute change in total energy (target)   :   0.1062826868E-05 (  0.1000000000E-07)
 
Time (CPU seconds) :       186.71
 
+--------------------+
| Loop number :   31 |
+--------------------+
 
Energies :
 Fermi                       :     0.457718174709    
 sum of eigenvalues          :     -2264.93954436    
 electron kinetic            :      3960.21326162    
 core electron kinetic       :      3878.12817098    
 Coulomb                     :     -7661.50076880    
 Coulomb potential           :     -6065.28298638    
 nuclear-nuclear             :     -385.710122113    
 electron-nuclear            :     -8486.29830700    
 Hartree                     :      1210.50766031    
 Madelung                    :     -4628.85927561    
 xc potential                :     -159.869819597    
 exchange                    :     -118.273123605    
 correlation                 :     -2.13931565387    
 total energy                :     -3821.69994644    
 
Density of states at Fermi energy :    30.80314198    
 (states/Hartree/unit cell)
 
Estimated indirect band gap :   0.5540441189E-03
 from k-point    130 to k-point     34
Estimated direct band gap   :   0.6717617376E-02
 at k-point     11
 
Charges :
 core                        :    28.00000000    
 valence                     :    13.00000000    
 interstitial                :    1.754557830    
 muffin-tins (core leakage)
  species :    1 (Nb)
   atom    1                 :    39.24544217     (  0.1144337709E-05)
 total in muffin-tins        :    39.24544217    
 total calculated charge     :    40.99996759    
 total charge                :    41.00000000    
 error                       :   0.3240731094E-04
 
RMS change in Kohn-Sham potential (target) :   0.6148127740E-03 (   10.00000000    )
Absolute change in total energy (target)   :   0.8929087016E-06 (  0.1000000000E-07)
 
Time (CPU seconds) :       192.99
 
+--------------------+
| Loop number :   32 |
+--------------------+
 
Energies :
 Fermi                       :     0.457718176854    
 sum of eigenvalues          :     -2264.93954420    
 electron kinetic            :      3960.21326203    
 core electron kinetic       :      3878.12817094    
 Coulomb                     :     -7661.50076892    
 Coulomb potential           :     -6065.28298662    
 nuclear-nuclear             :     -385.710122113    
 electron-nuclear            :     -8486.29830700    
 Hartree                     :      1210.50766019    
 Madelung                    :     -4628.85927561    
 xc potential                :     -159.869819599    
 exchange                    :     -118.273123608    
 correlation                 :     -2.13931565398    
 total energy                :     -3821.69994616    
 
Density of states at Fermi energy :    30.80314479    
 (states/Hartree/unit cell)
 
Estimated indirect band gap :   0.5540439982E-03
 from k-point    130 to k-point     34
Estimated direct band gap   :   0.6717617480E-02
 at k-point     11
 
Charges :
 core                        :    28.00000000    
 valence                     :    13.00000000    
 interstitial                :    1.754557833    
 muffin-tins (core leakage)
  species :    1 (Nb)
   atom    1                 :    39.24544217     (  0.1144569858E-05)
 total in muffin-tins        :    39.24544217    
 total calculated charge     :    40.99996759    
 total charge                :    41.00000000    
 error                       :   0.3240754705E-04
 
Wrote STATE.OUT
 
RMS change in Kohn-Sham potential (target) :   0.9422262307E-04 (   10.00000000    )
Absolute change in total energy (target)   :   0.5060196600E-06 (  0.1000000000E-07)
 
Time (CPU seconds) :       199.10
 
+--------------------+
| Loop number :   33 |
+--------------------+
 
Energies :
 Fermi                       :     0.457718183004    
 sum of eigenvalues          :     -2264.93954363    
 electron kinetic            :      3960.21326261    
 core electron kinetic       :      3878.12817154    
 Coulomb                     :     -7661.50076893    
 Coulomb potential           :     -6065.28298663    
 nuclear-nuclear             :     -385.710122113    
 electron-nuclear            :     -8486.29830700    
 Hartree                     :      1210.50766018    
 Madelung                    :     -4628.85927561    
 xc potential                :     -159.869819599    
 exchange                    :     -118.273123609    
 correlation                 :     -2.13931565378    
 total energy                :     -3821.69994558    
 
Density of states at Fermi energy :    30.80315259    
 (states/Hartree/unit cell)
 
Estimated indirect band gap :   0.5540437007E-03
 from k-point    130 to k-point     34
Estimated direct band gap   :   0.6717617660E-02
 at k-point     11
 
Charges :
 core                        :    28.00000000    
 valence                     :    13.00000000    
 interstitial                :    1.754557833    
 muffin-tins (core leakage)
  species :    1 (Nb)
   atom    1                 :    39.24544217     (  0.1144451790E-05)
 total in muffin-tins        :    39.24544217    
 total calculated charge     :    40.99996759    
 total charge                :    41.00000000    
 error                       :   0.3240743654E-04
 
RMS change in Kohn-Sham potential (target) :   0.8144218877E-04 (   10.00000000    )
Absolute change in total energy (target)   :   0.7001917766E-06 (  0.1000000000E-07)
 
Time (CPU seconds) :       205.16
 
+--------------------+
| Loop number :   34 |
+--------------------+
 
Energies :
 Fermi                       :     0.457718178505    
 sum of eigenvalues          :     -2264.93954374    
 electron kinetic            :      3960.21326252    
 core electron kinetic       :      3878.12817146    
 Coulomb                     :     -7661.50076894    
 Coulomb potential           :     -6065.28298667    
 nuclear-nuclear             :     -385.710122113    
 electron-nuclear            :     -8486.29830700    
 Hartree                     :      1210.50766016    
 Madelung                    :     -4628.85927561    
 xc potential                :     -159.869819595    
 exchange                    :     -118.273123659    
 correlation                 :     -2.13931563875    
 total energy                :     -3821.69994572    
 
Density of states at Fermi energy :    30.80315197    
 (states/Hartree/unit cell)
 
Estimated indirect band gap :   0.5540437309E-03
 from k-point    130 to k-point     34
Estimated direct band gap   :   0.6717617639E-02
 at k-point     11
 
Charges :
 core                        :    28.00000000    
 valence                     :    13.00000000    
 interstitial                :    1.754557832    
 muffin-tins (core leakage)
  species :    1 (Nb)
   atom    1                 :    39.24544217     (  0.1144603235E-05)
 total in muffin-tins        :    39.24544217    
 total calculated charge     :    40.99996759    
 total charge                :    41.00000000    
 error                       :   0.3240762160E-04
 
Wrote STATE.OUT
 
RMS change in Kohn-Sham potential (target) :   0.1307584450E-03 (   10.00000000    )
Absolute change in total energy (target)   :   0.4132152753E-07 (  0.1000000000E-07)
 
Time (CPU seconds) :       211.27
 
+--------------------+
| Loop number :   35 |
+--------------------+
 
Energies :
 Fermi                       :     0.457718179829    
 sum of eigenvalues          :     -2264.93954373    
 electron kinetic            :      3960.21326233    
 core electron kinetic       :      3878.12817110    
 Coulomb                     :     -7661.50076884    
 Coulomb potential           :     -6065.28298647    
 nuclear-nuclear             :     -385.710122113    
 electron-nuclear            :     -8486.29830700    
 Hartree                     :      1210.50766026    
 Madelung                    :     -4628.85927561    
 xc potential                :     -159.869819594    
 exchange                    :     -118.273123603    
 correlation                 :     -2.13931565428    
 total energy                :     -3821.69994577    
 
Density of states at Fermi energy :    30.80315099    
 (states/Hartree/unit cell)
 
Estimated indirect band gap :   0.5540437666E-03
 from k-point    130 to k-point     34
Estimated direct band gap   :   0.6717617618E-02
 at k-point     11
 
Charges :
 core                        :    28.00000000    
 valence                     :    13.00000000    
 interstitial                :    1.754557832    
 muffin-tins (core leakage)
  species :    1 (Nb)
   atom    1                 :    39.24544217     (  0.1144360446E-05)
 total in muffin-tins        :    39.24544217    
 total calculated charge     :    40.99996759    
 total charge                :    41.00000000    
 error                       :   0.3240738604E-04
 
RMS change in Kohn-Sham potential (target) :   0.3512610397E-03 (   10.00000000    )
Absolute change in total energy (target)   :   0.4366211215E-07 (  0.1000000000E-07)
 
Time (CPU seconds) :       217.64
 
+--------------------+
| Loop number :   36 |
+--------------------+
 
Energies :
 Fermi                       :     0.457718178607    
 sum of eigenvalues          :     -2264.93954362    
 electron kinetic            :      3960.21326259    
 core electron kinetic       :      3878.12817123    
 Coulomb                     :     -7661.50076892    
 Coulomb potential           :     -6065.28298662    
 nuclear-nuclear             :     -385.710122113    
 electron-nuclear            :     -8486.29830700    
 Hartree                     :      1210.50766019    
 Madelung                    :     -4628.85927561    
 xc potential                :     -159.869819594    
 exchange                    :     -118.273123659    
 correlation                 :     -2.13931563870    
 total energy                :     -3821.69994563    
 
Density of states at Fermi energy :    30.80315329    
 (states/Hartree/unit cell)
 
Estimated indirect band gap :   0.5540436847E-03
 from k-point    130 to k-point     34
Estimated direct band gap   :   0.6717617665E-02
 at k-point     11
 
Charges :
 core                        :    28.00000000    
 valence                     :    13.00000000    
 interstitial                :    1.754557832    
 muffin-tins (core leakage)
  species :    1 (Nb)
   atom    1                 :    39.24544217     (  0.1144275537E-05)
 total in muffin-tins        :    39.24544217    
 total calculated charge     :    40.99996759    
 total charge                :    41.00000000    
 error                       :   0.3240727278E-04
 
Wrote STATE.OUT
 
RMS change in Kohn-Sham potential (target) :   0.3051174138E-03 (   10.00000000    )
Absolute change in total energy (target)   :   0.1355774657E-06 (  0.1000000000E-07)
 
Time (CPU seconds) :       223.64
 
+--------------------+
| Loop number :   37 |
+--------------------+
 
Energies :
 Fermi                       :     0.457718180224    
 sum of eigenvalues          :     -2264.93954342    
 electron kinetic            :      3960.21326277    
 core electron kinetic       :      3878.12817139    
 Coulomb                     :     -7661.50076891    
 Coulomb potential           :     -6065.28298660    
 nuclear-nuclear             :     -385.710122113    
 electron-nuclear            :     -8486.29830700    
 Hartree                     :      1210.50766020    
 Madelung                    :     -4628.85927561    
 xc potential                :     -159.869819592    
 exchange                    :     -118.273123606    
 correlation                 :     -2.13931565358    
 total energy                :     -3821.69994540    
 
Density of states at Fermi energy :    30.80315572    
 (states/Hartree/unit cell)
 
Estimated indirect band gap :   0.5540435914E-03
 from k-point    130 to k-point     34
Estimated direct band gap   :   0.6717617733E-02
 at k-point     11
 
Charges :
 core                        :    28.00000000    
 valence                     :    13.00000000    
 interstitial                :    1.754557833    
 muffin-tins (core leakage)
  species :    1 (Nb)
   atom    1                 :    39.24544217     (  0.1144307280E-05)
 total in muffin-tins        :    39.24544217    
 total calculated charge     :    40.99996759    
 total charge                :    41.00000000    
 error                       :   0.3240731809E-04
 
RMS change in Kohn-Sham potential (target) :   0.2909138669E-03 (   10.00000000    )
Absolute change in total energy (target)   :   0.2626957212E-06 (  0.1000000000E-07)
 
Time (CPU seconds) :       229.87
 
+--------------------+
| Loop number :   38 |
+--------------------+
 
Energies :
 Fermi                       :     0.457718180323    
 sum of eigenvalues          :     -2264.93954347    
 electron kinetic            :      3960.21326268    
 core electron kinetic       :      3878.12817124    
 Coulomb                     :     -7661.50076889    
 Coulomb potential           :     -6065.28298656    
 nuclear-nuclear             :     -385.710122113    
 electron-nuclear            :     -8486.29830700    
 Hartree                     :      1210.50766022    
 Madelung                    :     -4628.85927561    
 xc potential                :     -159.869819591    
 exchange                    :     -118.273123603    
 correlation                 :     -2.13931565384    
 total energy                :     -3821.69994547    
 
Density of states at Fermi energy :    30.80315453    
 (states/Hartree/unit cell)
 
Estimated indirect band gap :   0.5540436370E-03
 from k-point    130 to k-point     34
Estimated direct band gap   :   0.6717617701E-02
 at k-point     11
 
Charges :
 core                        :    28.00000000    
 valence                     :    13.00000000    
 interstitial                :    1.754557833    
 muffin-tins (core leakage)
  species :    1 (Nb)
   atom    1                 :    39.24544217     (  0.1144431977E-05)
 total in muffin-tins        :    39.24544217    
 total calculated charge     :    40.99996759    
 total charge                :    41.00000000    
 error                       :   0.3240741378E-04
 
Wrote STATE.OUT
 
RMS change in Kohn-Sham potential (target) :   0.6358954548E-04 (   10.00000000    )
Absolute change in total energy (target)   :   0.8215465641E-08 (  0.1000000000E-07)
 
Convergence targets achieved
 
Time (CPU seconds) :       236.02
 
+--------------------+
| Loop number :   39 |
+--------------------+
 
Energies :
 Fermi                       :     0.457718180631    
 sum of eigenvalues          :     -2264.93954344    
 electron kinetic            :      3960.21326271    
 core electron kinetic       :      3878.12817126    
 Coulomb                     :     -7661.50076889    
 Coulomb potential           :     -6065.28298656    
 nuclear-nuclear             :     -385.710122113    
 electron-nuclear            :     -8486.29830700    
 Hartree                     :      1210.50766022    
 Madelung                    :     -4628.85927561    
 xc potential                :     -159.869819592    
 exchange                    :     -118.273123604    
 correlation                 :     -2.13931565379    
 total energy                :     -3821.69994544    
 
Density of states at Fermi energy :    30.80315506    
 (states/Hartree/unit cell)
 
Estimated indirect band gap :   0.5540436134E-03
 from k-point    130 to k-point     34
Estimated direct band gap   :   0.6717617720E-02
 at k-point     11
 
Charges :
 core                        :    28.00000000    
 valence                     :    13.00000000    
 interstitial                :    1.754557833    
 muffin-tins (core leakage)
  species :    1 (Nb)
   atom    1                 :    39.24544217     (  0.1144498931E-05)
 total in muffin-tins        :    39.24544217    
 total calculated charge     :    40.99996759    
 total charge                :    41.00000000    
 error                       :   0.3240747466E-04
 
+------------------------------+
| Self-consistent loop stopped |
+------------------------------+
 
Wrote STATE.OUT
 
Timings (CPU seconds) :
 initialisation                        :         0.47
 Hamiltonian and overlap matrix set up :        81.23
 first-variational eigenvalue equation :        64.87
 charge density calculation            :        35.88
 potential calculation                 :        59.41
 total                                 :       241.87
 
+----------------------------+
| Elk version 8.3.15 stopped |
+----------------------------+
