   297 : nkpt; k-point, vkl, wkpt, nmat below
     1   0.000000000       0.000000000       0.000000000      0.2035416243E-03     543
     2  0.5882352941E-01   0.000000000       0.000000000      0.1221249746E-02     542
     3  0.1176470588       0.000000000       0.000000000      0.1221249746E-02     550
     4  0.1764705882       0.000000000       0.000000000      0.1221249746E-02     552
     5  0.2352941176       0.000000000       0.000000000      0.1221249746E-02     542
     6  0.2941176471       0.000000000       0.000000000      0.1221249746E-02     542
     7  0.3529411765       0.000000000       0.000000000      0.1221249746E-02     538
     8  0.4117647059       0.000000000       0.000000000      0.1221249746E-02     538
     9  0.4705882353       0.000000000       0.000000000      0.1221249746E-02     534
    10  0.5882352941E-01  0.5882352941E-01   0.000000000      0.1221249746E-02     549
    11  0.1176470588      0.5882352941E-01   0.000000000      0.2442499491E-02     548
    12  0.1764705882      0.5882352941E-01   0.000000000      0.2442499491E-02     546
    13  0.2352941176      0.5882352941E-01   0.000000000      0.2442499491E-02     544
    14  0.2941176471      0.5882352941E-01   0.000000000      0.2442499491E-02     542
    15  0.3529411765      0.5882352941E-01   0.000000000      0.2442499491E-02     541
    16  0.4117647059      0.5882352941E-01   0.000000000      0.2442499491E-02     535
    17  0.4705882353      0.5882352941E-01   0.000000000      0.1221249746E-02     534
    18  0.1176470588      0.1176470588       0.000000000      0.1221249746E-02     545
    19  0.1764705882      0.1176470588       0.000000000      0.2442499491E-02     548
    20  0.2352941176      0.1176470588       0.000000000      0.2442499491E-02     550
    21  0.2941176471      0.1176470588       0.000000000      0.2442499491E-02     544
    22  0.3529411765      0.1176470588       0.000000000      0.2442499491E-02     534
    23  0.4117647059      0.1176470588       0.000000000      0.2442499491E-02     536
    24  0.1764705882      0.1764705882       0.000000000      0.1221249746E-02     543
    25  0.2352941176      0.1764705882       0.000000000      0.2442499491E-02     544
    26  0.2941176471      0.1764705882       0.000000000      0.2442499491E-02     536
    27  0.3529411765      0.1764705882       0.000000000      0.2442499491E-02     534
    28  0.4117647059      0.1764705882       0.000000000      0.1221249746E-02     538
    29  0.2352941176      0.2352941176       0.000000000      0.1221249746E-02     541
    30  0.2941176471      0.2352941176       0.000000000      0.2442499491E-02     533
    31  0.3529411765      0.2352941176       0.000000000      0.2442499491E-02     536
    32  0.2941176471      0.2941176471       0.000000000      0.1221249746E-02     532
    33  0.3529411765      0.2941176471       0.000000000      0.1221249746E-02     538
    34   0.000000000       0.000000000      0.5882352941E-01  0.4070832485E-03     543
    35  0.5882352941E-01   0.000000000      0.5882352941E-01  0.2442499491E-02     542
    36  0.1176470588       0.000000000      0.5882352941E-01  0.2442499491E-02     549
    37  0.1764705882       0.000000000      0.5882352941E-01  0.2442499491E-02     549
    38  0.2352941176       0.000000000      0.5882352941E-01  0.2442499491E-02     546
    39  0.2941176471       0.000000000      0.5882352941E-01  0.2442499491E-02     542
    40  0.3529411765       0.000000000      0.5882352941E-01  0.2442499491E-02     539
    41  0.4117647059       0.000000000      0.5882352941E-01  0.2442499491E-02     535
    42  0.4705882353       0.000000000      0.5882352941E-01  0.2442499491E-02     534
    43  0.5882352941E-01  0.5882352941E-01  0.5882352941E-01  0.2442499491E-02     547
    44  0.1176470588      0.5882352941E-01  0.5882352941E-01  0.4884998982E-02     548
    45  0.1764705882      0.5882352941E-01  0.5882352941E-01  0.4884998982E-02     549
    46  0.2352941176      0.5882352941E-01  0.5882352941E-01  0.4884998982E-02     545
    47  0.2941176471      0.5882352941E-01  0.5882352941E-01  0.4884998982E-02     545
    48  0.3529411765      0.5882352941E-01  0.5882352941E-01  0.4884998982E-02     538
    49  0.4117647059      0.5882352941E-01  0.5882352941E-01  0.4884998982E-02     534
    50  0.4705882353      0.5882352941E-01  0.5882352941E-01  0.2442499491E-02     531
    51  0.1176470588      0.1176470588      0.5882352941E-01  0.2442499491E-02     547
    52  0.1764705882      0.1176470588      0.5882352941E-01  0.4884998982E-02     547
    53  0.2352941176      0.1176470588      0.5882352941E-01  0.4884998982E-02     549
    54  0.2941176471      0.1176470588      0.5882352941E-01  0.4884998982E-02     541
    55  0.3529411765      0.1176470588      0.5882352941E-01  0.4884998982E-02     536
    56  0.4117647059      0.1176470588      0.5882352941E-01  0.4884998982E-02     534
    57  0.1764705882      0.1764705882      0.5882352941E-01  0.2442499491E-02     546
    58  0.2352941176      0.1764705882      0.5882352941E-01  0.4884998982E-02     542
    59  0.2941176471      0.1764705882      0.5882352941E-01  0.4884998982E-02     536
    60  0.3529411765      0.1764705882      0.5882352941E-01  0.4884998982E-02     536
    61  0.4117647059      0.1764705882      0.5882352941E-01  0.2442499491E-02     538
    62  0.2352941176      0.2352941176      0.5882352941E-01  0.2442499491E-02     536
    63  0.2941176471      0.2352941176      0.5882352941E-01  0.4884998982E-02     536
    64  0.3529411765      0.2352941176      0.5882352941E-01  0.4884998982E-02     535
    65  0.2941176471      0.2941176471      0.5882352941E-01  0.2442499491E-02     534
    66  0.3529411765      0.2941176471      0.5882352941E-01  0.2442499491E-02     534
    67   0.000000000       0.000000000      0.1176470588      0.4070832485E-03     543
    68  0.5882352941E-01   0.000000000      0.1176470588      0.2442499491E-02     544
    69  0.1176470588       0.000000000      0.1176470588      0.2442499491E-02     547
    70  0.1764705882       0.000000000      0.1176470588      0.2442499491E-02     548
    71  0.2352941176       0.000000000      0.1176470588      0.2442499491E-02     546
    72  0.2941176471       0.000000000      0.1176470588      0.2442499491E-02     545
    73  0.3529411765       0.000000000      0.1176470588      0.2442499491E-02     541
    74  0.4117647059       0.000000000      0.1176470588      0.2442499491E-02     536
    75  0.4705882353       0.000000000      0.1176470588      0.2442499491E-02     530
    76  0.5882352941E-01  0.5882352941E-01  0.1176470588      0.2442499491E-02     547
    77  0.1176470588      0.5882352941E-01  0.1176470588      0.4884998982E-02     549
    78  0.1764705882      0.5882352941E-01  0.1176470588      0.4884998982E-02     547
    79  0.2352941176      0.5882352941E-01  0.1176470588      0.4884998982E-02     547
    80  0.2941176471      0.5882352941E-01  0.1176470588      0.4884998982E-02     545
    81  0.3529411765      0.5882352941E-01  0.1176470588      0.4884998982E-02     539
    82  0.4117647059      0.5882352941E-01  0.1176470588      0.4884998982E-02     533
    83  0.4705882353      0.5882352941E-01  0.1176470588      0.2442499491E-02     533
    84  0.1176470588      0.1176470588      0.1176470588      0.2442499491E-02     549
    85  0.1764705882      0.1176470588      0.1176470588      0.4884998982E-02     547
    86  0.2352941176      0.1176470588      0.1176470588      0.4884998982E-02     545
    87  0.2941176471      0.1176470588      0.1176470588      0.4884998982E-02     539
    88  0.3529411765      0.1176470588      0.1176470588      0.4884998982E-02     536
    89  0.4117647059      0.1176470588      0.1176470588      0.4884998982E-02     534
    90  0.1764705882      0.1764705882      0.1176470588      0.2442499491E-02     544
    91  0.2352941176      0.1764705882      0.1176470588      0.4884998982E-02     538
    92  0.2941176471      0.1764705882      0.1176470588      0.4884998982E-02     535
    93  0.3529411765      0.1764705882      0.1176470588      0.4884998982E-02     536
    94  0.4117647059      0.1764705882      0.1176470588      0.2442499491E-02     540
    95  0.2352941176      0.2352941176      0.1176470588      0.2442499491E-02     535
    96  0.2941176471      0.2352941176      0.1176470588      0.4884998982E-02     533
    97  0.3529411765      0.2352941176      0.1176470588      0.4884998982E-02     536
    98  0.2941176471      0.2941176471      0.1176470588      0.2442499491E-02     533
    99  0.3529411765      0.2941176471      0.1176470588      0.2442499491E-02     532
   100   0.000000000       0.000000000      0.1764705882      0.4070832485E-03     543
   101  0.5882352941E-01   0.000000000      0.1764705882      0.2442499491E-02     545
   102  0.1176470588       0.000000000      0.1764705882      0.2442499491E-02     547
   103  0.1764705882       0.000000000      0.1764705882      0.2442499491E-02     546
   104  0.2352941176       0.000000000      0.1764705882      0.2442499491E-02     547
   105  0.2941176471       0.000000000      0.1764705882      0.2442499491E-02     547
   106  0.3529411765       0.000000000      0.1764705882      0.2442499491E-02     541
   107  0.4117647059       0.000000000      0.1764705882      0.2442499491E-02     536
   108  0.4705882353       0.000000000      0.1764705882      0.2442499491E-02     535
   109  0.5882352941E-01  0.5882352941E-01  0.1764705882      0.2442499491E-02     547
   110  0.1176470588      0.5882352941E-01  0.1764705882      0.4884998982E-02     545
   111  0.1764705882      0.5882352941E-01  0.1764705882      0.4884998982E-02     547
   112  0.2352941176      0.5882352941E-01  0.1764705882      0.4884998982E-02     548
   113  0.2941176471      0.5882352941E-01  0.1764705882      0.4884998982E-02     543
   114  0.3529411765      0.5882352941E-01  0.1764705882      0.4884998982E-02     535
   115  0.4117647059      0.5882352941E-01  0.1764705882      0.4884998982E-02     535
   116  0.4705882353      0.5882352941E-01  0.1764705882      0.2442499491E-02     533
   117  0.1176470588      0.1176470588      0.1764705882      0.2442499491E-02     550
   118  0.1764705882      0.1176470588      0.1764705882      0.4884998982E-02     545
   119  0.2352941176      0.1176470588      0.1764705882      0.4884998982E-02     542
   120  0.2941176471      0.1176470588      0.1764705882      0.4884998982E-02     538
   121  0.3529411765      0.1176470588      0.1764705882      0.4884998982E-02     536
   122  0.4117647059      0.1176470588      0.1764705882      0.4884998982E-02     535
   123  0.1764705882      0.1764705882      0.1764705882      0.2442499491E-02     543
   124  0.2352941176      0.1764705882      0.1764705882      0.4884998982E-02     539
   125  0.2941176471      0.1764705882      0.1764705882      0.4884998982E-02     537
   126  0.3529411765      0.1764705882      0.1764705882      0.4884998982E-02     536
   127  0.4117647059      0.1764705882      0.1764705882      0.2442499491E-02     536
   128  0.2352941176      0.2352941176      0.1764705882      0.2442499491E-02     533
   129  0.2941176471      0.2352941176      0.1764705882      0.4884998982E-02     537
   130  0.3529411765      0.2352941176      0.1764705882      0.4884998982E-02     537
   131  0.2941176471      0.2941176471      0.1764705882      0.2442499491E-02     532
   132  0.3529411765      0.2941176471      0.1764705882      0.2442499491E-02     534
   133   0.000000000       0.000000000      0.2352941176      0.4070832485E-03     537
   134  0.5882352941E-01   0.000000000      0.2352941176      0.2442499491E-02     544
   135  0.1176470588       0.000000000      0.2352941176      0.2442499491E-02     547
   136  0.1764705882       0.000000000      0.2352941176      0.2442499491E-02     547
   137  0.2352941176       0.000000000      0.2352941176      0.2442499491E-02     546
   138  0.2941176471       0.000000000      0.2352941176      0.2442499491E-02     543
   139  0.3529411765       0.000000000      0.2352941176      0.2442499491E-02     543
   140  0.4117647059       0.000000000      0.2352941176      0.2442499491E-02     539
   141  0.4705882353       0.000000000      0.2352941176      0.2442499491E-02     532
   142  0.5882352941E-01  0.5882352941E-01  0.2352941176      0.2442499491E-02     547
   143  0.1176470588      0.5882352941E-01  0.2352941176      0.4884998982E-02     544
   144  0.1764705882      0.5882352941E-01  0.2352941176      0.4884998982E-02     547
   145  0.2352941176      0.5882352941E-01  0.2352941176      0.4884998982E-02     546
   146  0.2941176471      0.5882352941E-01  0.2352941176      0.4884998982E-02     541
   147  0.3529411765      0.5882352941E-01  0.2352941176      0.4884998982E-02     536
   148  0.4117647059      0.5882352941E-01  0.2352941176      0.4884998982E-02     536
   149  0.4705882353      0.5882352941E-01  0.2352941176      0.2442499491E-02     533
   150  0.1176470588      0.1176470588      0.2352941176      0.2442499491E-02     546
   151  0.1764705882      0.1176470588      0.2352941176      0.4884998982E-02     546
   152  0.2352941176      0.1176470588      0.2352941176      0.4884998982E-02     542
   153  0.2941176471      0.1176470588      0.2352941176      0.4884998982E-02     537
   154  0.3529411765      0.1176470588      0.2352941176      0.4884998982E-02     537
   155  0.4117647059      0.1176470588      0.2352941176      0.4884998982E-02     535
   156  0.1764705882      0.1764705882      0.2352941176      0.2442499491E-02     543
   157  0.2352941176      0.1764705882      0.2352941176      0.4884998982E-02     539
   158  0.2941176471      0.1764705882      0.2352941176      0.4884998982E-02     537
   159  0.3529411765      0.1764705882      0.2352941176      0.4884998982E-02     538
   160  0.4117647059      0.1764705882      0.2352941176      0.2442499491E-02     536
   161  0.2352941176      0.2352941176      0.2352941176      0.2442499491E-02     535
   162  0.2941176471      0.2352941176      0.2352941176      0.4884998982E-02     536
   163  0.3529411765      0.2352941176      0.2352941176      0.4884998982E-02     536
   164  0.2941176471      0.2941176471      0.2352941176      0.2442499491E-02     535
   165  0.3529411765      0.2941176471      0.2352941176      0.2442499491E-02     531
   166   0.000000000       0.000000000      0.2941176471      0.4070832485E-03     537
   167  0.5882352941E-01   0.000000000      0.2941176471      0.2442499491E-02     543
   168  0.1176470588       0.000000000      0.2941176471      0.2442499491E-02     544
   169  0.1764705882       0.000000000      0.2941176471      0.2442499491E-02     545
   170  0.2352941176       0.000000000      0.2941176471      0.2442499491E-02     547
   171  0.2941176471       0.000000000      0.2941176471      0.2442499491E-02     545
   172  0.3529411765       0.000000000      0.2941176471      0.2442499491E-02     544
   173  0.4117647059       0.000000000      0.2941176471      0.2442499491E-02     539
   174  0.4705882353       0.000000000      0.2941176471      0.2442499491E-02     532
   175  0.5882352941E-01  0.5882352941E-01  0.2941176471      0.2442499491E-02     546
   176  0.1176470588      0.5882352941E-01  0.2941176471      0.4884998982E-02     544
   177  0.1764705882      0.5882352941E-01  0.2941176471      0.4884998982E-02     546
   178  0.2352941176      0.5882352941E-01  0.2941176471      0.4884998982E-02     544
   179  0.2941176471      0.5882352941E-01  0.2941176471      0.4884998982E-02     540
   180  0.3529411765      0.5882352941E-01  0.2941176471      0.4884998982E-02     539
   181  0.4117647059      0.5882352941E-01  0.2941176471      0.4884998982E-02     536
   182  0.4705882353      0.5882352941E-01  0.2941176471      0.2442499491E-02     535
   183  0.1176470588      0.1176470588      0.2941176471      0.2442499491E-02     546
   184  0.1764705882      0.1176470588      0.2941176471      0.4884998982E-02     543
   185  0.2352941176      0.1176470588      0.2941176471      0.4884998982E-02     541
   186  0.2941176471      0.1176470588      0.2941176471      0.4884998982E-02     538
   187  0.3529411765      0.1176470588      0.2941176471      0.4884998982E-02     536
   188  0.4117647059      0.1176470588      0.2941176471      0.4884998982E-02     536
   189  0.1764705882      0.1764705882      0.2941176471      0.2442499491E-02     539
   190  0.2352941176      0.1764705882      0.2941176471      0.4884998982E-02     536
   191  0.2941176471      0.1764705882      0.2941176471      0.4884998982E-02     537
   192  0.3529411765      0.1764705882      0.2941176471      0.4884998982E-02     535
   193  0.4117647059      0.1764705882      0.2941176471      0.2442499491E-02     542
   194  0.2352941176      0.2352941176      0.2941176471      0.2442499491E-02     535
   195  0.2941176471      0.2352941176      0.2941176471      0.4884998982E-02     537
   196  0.3529411765      0.2352941176      0.2941176471      0.4884998982E-02     535
   197  0.2941176471      0.2941176471      0.2941176471      0.2442499491E-02     533
   198  0.3529411765      0.2941176471      0.2941176471      0.2442499491E-02     530
   199   0.000000000       0.000000000      0.3529411765      0.4070832485E-03     543
   200  0.5882352941E-01   0.000000000      0.3529411765      0.2442499491E-02     542
   201  0.1176470588       0.000000000      0.3529411765      0.2442499491E-02     542
   202  0.1764705882       0.000000000      0.3529411765      0.2442499491E-02     543
   203  0.2352941176       0.000000000      0.3529411765      0.2442499491E-02     543
   204  0.2941176471       0.000000000      0.3529411765      0.2442499491E-02     545
   205  0.3529411765       0.000000000      0.3529411765      0.2442499491E-02     545
   206  0.4117647059       0.000000000      0.3529411765      0.2442499491E-02     539
   207  0.4705882353       0.000000000      0.3529411765      0.2442499491E-02     534
   208  0.5882352941E-01  0.5882352941E-01  0.3529411765      0.2442499491E-02     544
   209  0.1176470588      0.5882352941E-01  0.3529411765      0.4884998982E-02     544
   210  0.1764705882      0.5882352941E-01  0.3529411765      0.4884998982E-02     542
   211  0.2352941176      0.5882352941E-01  0.3529411765      0.4884998982E-02     545
   212  0.2941176471      0.5882352941E-01  0.3529411765      0.4884998982E-02     541
   213  0.3529411765      0.5882352941E-01  0.3529411765      0.4884998982E-02     541
   214  0.4117647059      0.5882352941E-01  0.3529411765      0.4884998982E-02     538
   215  0.4705882353      0.5882352941E-01  0.3529411765      0.2442499491E-02     536
   216  0.1176470588      0.1176470588      0.3529411765      0.2442499491E-02     543
   217  0.1764705882      0.1176470588      0.3529411765      0.4884998982E-02     542
   218  0.2352941176      0.1176470588      0.3529411765      0.4884998982E-02     540
   219  0.2941176471      0.1176470588      0.3529411765      0.4884998982E-02     539
   220  0.3529411765      0.1176470588      0.3529411765      0.4884998982E-02     536
   221  0.4117647059      0.1176470588      0.3529411765      0.4884998982E-02     536
   222  0.1764705882      0.1764705882      0.3529411765      0.2442499491E-02     537
   223  0.2352941176      0.1764705882      0.3529411765      0.4884998982E-02     539
   224  0.2941176471      0.1764705882      0.3529411765      0.4884998982E-02     536
   225  0.3529411765      0.1764705882      0.3529411765      0.4884998982E-02     534
   226  0.4117647059      0.1764705882      0.3529411765      0.2442499491E-02     535
   227  0.2352941176      0.2352941176      0.3529411765      0.2442499491E-02     535
   228  0.2941176471      0.2352941176      0.3529411765      0.4884998982E-02     537
   229  0.3529411765      0.2352941176      0.3529411765      0.4884998982E-02     535
   230  0.2941176471      0.2941176471      0.3529411765      0.2442499491E-02     533
   231  0.3529411765      0.2941176471      0.3529411765      0.2442499491E-02     532
   232   0.000000000       0.000000000      0.4117647059      0.4070832485E-03     550
   233  0.5882352941E-01   0.000000000      0.4117647059      0.2442499491E-02     544
   234  0.1176470588       0.000000000      0.4117647059      0.2442499491E-02     542
   235  0.1764705882       0.000000000      0.4117647059      0.2442499491E-02     542
   236  0.2352941176       0.000000000      0.4117647059      0.2442499491E-02     544
   237  0.2941176471       0.000000000      0.4117647059      0.2442499491E-02     544
   238  0.3529411765       0.000000000      0.4117647059      0.2442499491E-02     542
   239  0.4117647059       0.000000000      0.4117647059      0.2442499491E-02     536
   240  0.4705882353       0.000000000      0.4117647059      0.2442499491E-02     534
   241  0.5882352941E-01  0.5882352941E-01  0.4117647059      0.2442499491E-02     541
   242  0.1176470588      0.5882352941E-01  0.4117647059      0.4884998982E-02     541
   243  0.1764705882      0.5882352941E-01  0.4117647059      0.4884998982E-02     542
   244  0.2352941176      0.5882352941E-01  0.4117647059      0.4884998982E-02     544
   245  0.2941176471      0.5882352941E-01  0.4117647059      0.4884998982E-02     545
   246  0.3529411765      0.5882352941E-01  0.4117647059      0.4884998982E-02     542
   247  0.4117647059      0.5882352941E-01  0.4117647059      0.4884998982E-02     538
   248  0.4705882353      0.5882352941E-01  0.4117647059      0.2442499491E-02     533
   249  0.1176470588      0.1176470588      0.4117647059      0.2442499491E-02     542
   250  0.1764705882      0.1176470588      0.4117647059      0.4884998982E-02     541
   251  0.2352941176      0.1176470588      0.4117647059      0.4884998982E-02     541
   252  0.2941176471      0.1176470588      0.4117647059      0.4884998982E-02     541
   253  0.3529411765      0.1176470588      0.4117647059      0.4884998982E-02     537
   254  0.4117647059      0.1176470588      0.4117647059      0.4884998982E-02     536
   255  0.1764705882      0.1764705882      0.4117647059      0.2442499491E-02     538
   256  0.2352941176      0.1764705882      0.4117647059      0.4884998982E-02     541
   257  0.2941176471      0.1764705882      0.4117647059      0.4884998982E-02     537
   258  0.3529411765      0.1764705882      0.4117647059      0.4884998982E-02     534
   259  0.4117647059      0.1764705882      0.4117647059      0.2442499491E-02     533
   260  0.2352941176      0.2352941176      0.4117647059      0.2442499491E-02     536
   261  0.2941176471      0.2352941176      0.4117647059      0.4884998982E-02     534
   262  0.3529411765      0.2352941176      0.4117647059      0.4884998982E-02     535
   263  0.2941176471      0.2941176471      0.4117647059      0.2442499491E-02     533
   264  0.3529411765      0.2941176471      0.4117647059      0.2442499491E-02     532
   265   0.000000000       0.000000000      0.4705882353      0.4070832485E-03     550
   266  0.5882352941E-01   0.000000000      0.4705882353      0.2442499491E-02     548
   267  0.1176470588       0.000000000      0.4705882353      0.2442499491E-02     542
   268  0.1764705882       0.000000000      0.4705882353      0.2442499491E-02     541
   269  0.2352941176       0.000000000      0.4705882353      0.2442499491E-02     544
   270  0.2941176471       0.000000000      0.4705882353      0.2442499491E-02     542
   271  0.3529411765       0.000000000      0.4705882353      0.2442499491E-02     540
   272  0.4117647059       0.000000000      0.4705882353      0.2442499491E-02     542
   273  0.4705882353       0.000000000      0.4705882353      0.2442499491E-02     538
   274  0.5882352941E-01  0.5882352941E-01  0.4705882353      0.2442499491E-02     541
   275  0.1176470588      0.5882352941E-01  0.4705882353      0.4884998982E-02     540
   276  0.1764705882      0.5882352941E-01  0.4705882353      0.4884998982E-02     542
   277  0.2352941176      0.5882352941E-01  0.4705882353      0.4884998982E-02     540
   278  0.2941176471      0.5882352941E-01  0.4705882353      0.4884998982E-02     545
   279  0.3529411765      0.5882352941E-01  0.4705882353      0.4884998982E-02     541
   280  0.4117647059      0.5882352941E-01  0.4705882353      0.4884998982E-02     538
   281  0.4705882353      0.5882352941E-01  0.4705882353      0.2442499491E-02     536
   282  0.1176470588      0.1176470588      0.4705882353      0.2442499491E-02     536
   283  0.1764705882      0.1176470588      0.4705882353      0.4884998982E-02     538
   284  0.2352941176      0.1176470588      0.4705882353      0.4884998982E-02     542
   285  0.2941176471      0.1176470588      0.4705882353      0.4884998982E-02     540
   286  0.3529411765      0.1176470588      0.4705882353      0.4884998982E-02     534
   287  0.4117647059      0.1176470588      0.4705882353      0.4884998982E-02     537
   288  0.1764705882      0.1764705882      0.4705882353      0.2442499491E-02     538
   289  0.2352941176      0.1764705882      0.4705882353      0.4884998982E-02     540
   290  0.2941176471      0.1764705882      0.4705882353      0.4884998982E-02     540
   291  0.3529411765      0.1764705882      0.4705882353      0.4884998982E-02     536
   292  0.4117647059      0.1764705882      0.4705882353      0.2442499491E-02     535
   293  0.2352941176      0.2352941176      0.4705882353      0.2442499491E-02     534
   294  0.2941176471      0.2352941176      0.4705882353      0.4884998982E-02     534
   295  0.3529411765      0.2352941176      0.4705882353      0.4884998982E-02     536
   296  0.2941176471      0.2941176471      0.4705882353      0.2442499491E-02     534
   297  0.3529411765      0.2941176471      0.4705882353      0.2442499491E-02     535
