+----------------------------+
| Elk version 8.3.15 started |
+----------------------------+
 
Date (YYYY-MM-DD) : 2022-02-14
Time (hh:mm:ss)   : 10:55:15
 
All units are atomic (Hartree, Bohr, etc.)
 
+------------------------------------------+
| Ground-state run resuming from STATE.OUT |
+------------------------------------------+
 
Lattice vectors :
   4.186443950      -2.417044541       0.000000000    
   0.000000000       4.834089083       0.000000000    
   0.000000000       0.000000000       8.094356795    
 
Reciprocal lattice vectors :
   1.500840662       0.000000000       0.000000000    
  0.7504203308       1.299766140       0.000000000    
   0.000000000       0.000000000      0.7762426918    
 
Unit cell volume      :    163.8107031    
Brillouin zone volume :    1.514249123    
 
Muffin-tin inner radius fraction :   0.1000000000E-01
 
Species :    1 (Ru)
 parameters loaded from : Ru.in
 name : ruthenium
 nuclear charge    :   -44.00000000    
 electronic charge :    44.00000000    
 atomic mass :    184239.3392    
 muffin-tin radius :    2.320000000    
 number of radial points in muffin-tin :   1200
 number on inner part of muffin-tin    :    866
 atomic positions (lattice), magnetic fields (Cartesian) :
   1 :   0.33333333  0.16666667  0.25000000    0.00000000  0.00000000  0.00000000
   2 :  -0.33333333 -0.16666667 -0.25000000    0.00000000  0.00000000  0.00000000
 
Total number of atoms per unit cell :    2
 
Spin treatment :
 spin-unpolarised
 
Number of Bravais lattice symmetries :   24
Number of crystal symmetries         :   24
Crystal has inversion symmetry
Real symmetric eigensolver will be used
 
k-point grid :     17    17    17
k-point offset :    0.000000000       0.000000000       0.000000000    
k-point set is reduced with full crystal symmetry group
Total number of k-points :      297
 
Muffin-tin radius times maximum |G+k| :    8.500000000    
 using gkmax = rgkmax / 2
Maximum |G+k| for APW functions       :    4.250000000    
Maximum (1/2)|G+k|²                   :    9.031250000    
Maximum |G| for potential and density :    34.00000000    
Constant for pseudocharge density :   20
Radial integration step length :    1
 
G-vector grid sizes :     54    54    90
Number of G-vectors :   108429
 
Maximum angular momentum used for
 APW functions                      :   10
 outer part of muffin-tin           :    8
 inner part of muffin-tin           :    1
 
Total nuclear charge    :   -88.00000000    
Total core charge       :    56.00000000    
Total valence charge    :    32.00000000    
Total excess charge     :    0.000000000    
Total electronic charge :    88.00000000    
 
Effective Wigner radius, rₛ :   0.7631155987    
 
Number of empty states         :   40
Total number of valence states :   57
Total number of core states    :   56
 
Conduction state local-orbitals added automatically
Total number of local-orbitals :  252
 
Using Libxc version 05.01.05
Exchange-correlation functional :    100   493   494
 exchange: mgga_x_rscan; correlation: mgga_c_rscan
 
Smearing type :    1
 Methfessel-Paxton order 1, Phys. Rev. B 40, 3616 (1989)
Smearing width :   0.1000000000E-02
Effective electronic temperature (K) :    315.7750248    
 
Mixing type :    3
 Broyden mixing, J. Phys. A: Math. Gen. 17, L317 (1984)
 
Potential read in from STATE.OUT
 
+------------------------------+
| Self-consistent loop started |
+------------------------------+
 
+--------------------+
| Loop number :    1 |
+--------------------+
 
Energies :
 Fermi                       :     0.696707888983    
 sum of eigenvalues          :     -5382.69137570    
 electron kinetic            :      9444.39266344    
 core electron kinetic       :      9180.97759062    
 Coulomb                     :     -18239.9985150    
 Coulomb potential           :     -14467.6778006    
 nuclear-nuclear             :     -1007.86502186    
 electron-nuclear            :     -19996.5891856    
 Hartree                     :      2764.45569251    
 Madelung                    :     -11006.1596147    
 xc potential                :     -359.406238534    
 exchange                    :     -266.103553648    
 correlation                 :     -4.72694627514    
 total energy                :     -9066.43635145    
 
Density of states at Fermi energy :    45.40897137    
 (states/Hartree/unit cell)
 
Estimated indirect band gap :   0.1730439498E-03
 from k-point    208 to k-point    200
Estimated direct band gap   :   0.1539754383E-02
 at k-point    145
 
Charges :
 core                        :    56.00000000    
 valence                     :    32.00000000    
 interstitial                :    3.237074298    
 muffin-tins (core leakage)
  species :    1 (Ru)
   atom    1                 :    42.38146285     (  0.4494752446E-06)
   atom    2                 :    42.38146285     (  0.4494752446E-06)
 total in muffin-tins        :    84.76292570    
 total calculated charge     :    87.99950183    
 total charge                :    88.00000000    
 error                       :   0.4981658090E-03
 
Time (CPU seconds) :        67.33
 
+--------------------+
| Loop number :    2 |
+--------------------+
 
Energies :
 Fermi                       :     0.696707888983    
 sum of eigenvalues          :     -5382.69137569    
 electron kinetic            :      9444.39266333    
 core electron kinetic       :      9180.97759051    
 Coulomb                     :     -18239.9985149    
 Coulomb potential           :     -14467.6778005    
 nuclear-nuclear             :     -1007.86502186    
 electron-nuclear            :     -19996.5891856    
 Hartree                     :      2764.45569256    
 Madelung                    :     -11006.1596147    
 xc potential                :     -359.406238534    
 exchange                    :     -266.103553645    
 correlation                 :     -4.72694627563    
 total energy                :     -9066.43635150    
 
Density of states at Fermi energy :    45.40897137    
 (states/Hartree/unit cell)
 
Estimated indirect band gap :   0.1730439498E-03
 from k-point    208 to k-point    200
Estimated direct band gap   :   0.1539754382E-02
 at k-point    145
 
Charges :
 core                        :    56.00000000    
 valence                     :    32.00000000    
 interstitial                :    3.237074298    
 muffin-tins (core leakage)
  species :    1 (Ru)
   atom    1                 :    42.38146285     (  0.4494236059E-06)
   atom    2                 :    42.38146285     (  0.4494236059E-06)
 total in muffin-tins        :    84.76292570    
 total calculated charge     :    87.99950183    
 total charge                :    88.00000000    
 error                       :   0.4981656842E-03
 
Wrote STATE.OUT
 
RMS change in Kohn-Sham potential (target) :   0.8319061540E-03 (   10.00000000    )
Absolute change in total energy (target)   :   0.5163383321E-07 (  0.1000000000E-07)
 
Time (CPU seconds) :       132.74
 
+--------------------+
| Loop number :    3 |
+--------------------+
 
Energies :
 Fermi                       :     0.696707888981    
 sum of eigenvalues          :     -5382.69137570    
 electron kinetic            :      9444.39266319    
 core electron kinetic       :      9180.97759037    
 Coulomb                     :     -18239.9985148    
 Coulomb potential           :     -14467.6778004    
 nuclear-nuclear             :     -1007.86502186    
 electron-nuclear            :     -19996.5891856    
 Hartree                     :      2764.45569263    
 Madelung                    :     -11006.1596147    
 xc potential                :     -359.406238532    
 exchange                    :     -266.103553642    
 correlation                 :     -4.72694627578    
 total energy                :     -9066.43635157    
 
Density of states at Fermi energy :    45.40897130    
 (states/Hartree/unit cell)
 
Estimated indirect band gap :   0.1730439494E-03
 from k-point    208 to k-point    200
Estimated direct band gap   :   0.1539754382E-02
 at k-point    145
 
Charges :
 core                        :    56.00000000    
 valence                     :    32.00000000    
 interstitial                :    3.237074297    
 muffin-tins (core leakage)
  species :    1 (Ru)
   atom    1                 :    42.38146285     (  0.4494399910E-06)
   atom    2                 :    42.38146285     (  0.4494399910E-06)
 total in muffin-tins        :    84.76292570    
 total calculated charge     :    87.99950183    
 total charge                :    88.00000000    
 error                       :   0.4981657582E-03
 
RMS change in Kohn-Sham potential (target) :   0.7370200812E-04 (   10.00000000    )
Absolute change in total energy (target)   :   0.8237839211E-07 (  0.1000000000E-07)
 
Time (CPU seconds) :       198.59
 
+--------------------+
| Loop number :    4 |
+--------------------+
 
Energies :
 Fermi                       :     0.696707888983    
 sum of eigenvalues          :     -5382.69137570    
 electron kinetic            :      9444.39266323    
 core electron kinetic       :      9180.97759044    
 Coulomb                     :     -18239.9985149    
 Coulomb potential           :     -14467.6778004    
 nuclear-nuclear             :     -1007.86502186    
 electron-nuclear            :     -19996.5891856    
 Hartree                     :      2764.45569261    
 Madelung                    :     -11006.1596147    
 xc potential                :     -359.406238536    
 exchange                    :     -266.103553649    
 correlation                 :     -4.72694627463    
 total energy                :     -9066.43635156    
 
Density of states at Fermi energy :    45.40897121    
 (states/Hartree/unit cell)
 
Estimated indirect band gap :   0.1730439489E-03
 from k-point    208 to k-point    200
Estimated direct band gap   :   0.1539754381E-02
 at k-point    145
 
Charges :
 core                        :    56.00000000    
 valence                     :    32.00000000    
 interstitial                :    3.237074297    
 muffin-tins (core leakage)
  species :    1 (Ru)
   atom    1                 :    42.38146285     (  0.4493826538E-06)
   atom    2                 :    42.38146285     (  0.4493826538E-06)
 total in muffin-tins        :    84.76292570    
 total calculated charge     :    87.99950183    
 total charge                :    88.00000000    
 error                       :   0.4981656411E-03
 
Wrote STATE.OUT
 
RMS change in Kohn-Sham potential (target) :   0.2401206837E-03 (   10.00000000    )
Absolute change in total energy (target)   :   0.4611138138E-08 (  0.1000000000E-07)
 
Convergence targets achieved
 
Time (CPU seconds) :       265.23
 
+--------------------+
| Loop number :    5 |
+--------------------+
 
Energies :
 Fermi                       :     0.696707888993    
 sum of eigenvalues          :     -5382.69137570    
 electron kinetic            :      9444.39266315    
 core electron kinetic       :      9180.97759034    
 Coulomb                     :     -18239.9985148    
 Coulomb potential           :     -14467.6778003    
 nuclear-nuclear             :     -1007.86502186    
 electron-nuclear            :     -19996.5891856    
 Hartree                     :      2764.45569265    
 Madelung                    :     -11006.1596147    
 xc potential                :     -359.406238535    
 exchange                    :     -266.103553645    
 correlation                 :     -4.72694627517    
 total energy                :     -9066.43635159    
 
Density of states at Fermi energy :    45.40897126    
 (states/Hartree/unit cell)
 
Estimated indirect band gap :   0.1730439493E-03
 from k-point    208 to k-point    200
Estimated direct band gap   :   0.1539754382E-02
 at k-point    145
 
Charges :
 core                        :    56.00000000    
 valence                     :    32.00000000    
 interstitial                :    3.237074297    
 muffin-tins (core leakage)
  species :    1 (Ru)
   atom    1                 :    42.38146285     (  0.4493968468E-06)
   atom    2                 :    42.38146285     (  0.4493968468E-06)
 total in muffin-tins        :    84.76292570    
 total calculated charge     :    87.99950183    
 total charge                :    88.00000000    
 error                       :   0.4981656719E-03
 
+------------------------------+
| Self-consistent loop stopped |
+------------------------------+
 
Wrote STATE.OUT
 
Timings (CPU seconds) :
 initialisation                        :         1.32
 Hamiltonian and overlap matrix set up :        68.93
 first-variational eigenvalue equation :       105.16
 charge density calculation            :        55.75
 potential calculation                 :       100.34
 total                                 :       331.50
 
+----------------------------+
| Elk version 8.3.15 stopped |
+----------------------------+
