 
scale
 1.0
 
scale1
 1.0
 
scale2
 1.0
 
scale3
 1.0
 
avec
   4.463376809      -2.576931802       0.000000000    
   0.000000000       5.153863605       0.000000000    
   0.000000000       0.000000000       8.870244593    
 
atoms
   1                                    : nspecies
'Re.in'                                 : spfname
   2                                    : natoms; atpos, bfcmt below
    0.33333333    0.16666667    0.25000000    0.00000000  0.00000000  0.00000000
   -0.33333333   -0.16666667   -0.25000000    0.00000000  0.00000000  0.00000000
