   4.839088955    
   13.95456677    
   107.0931124    
   105.0405541    
   59.76952259    
   28.45774128    
   6.837091891    
   1.728625876    
  0.4063659730    
  0.9885073196E-01
  0.2675597775E-01
  0.8429241199E-02
  0.2436083822E-02
  0.9069462540E-03
  0.2455369249E-03
  0.4211634223E-04
  0.2835247142E-04
  0.2486642916E-04
  0.6544677308E-04
  0.3860380093E-04
  0.8742681530E-05
  0.4875349987E-05
  0.7251539500E-05
  0.6074136763E-05
  0.9498471627E-05
  0.9370480257E-05
  0.4385903594E-05
  0.2945736924E-05
  0.3905006452E-06
  0.8659844752E-06
  0.4399989848E-06
  0.9434734238E-06
  0.7879134500E-07
  0.3286404535E-06
  0.7739290595E-06
  0.2063316060E-06
  0.5017645890E-06
  0.1438820618E-06
  0.4251560313E-06
  0.5237598089E-06
  0.3197710612E-06
  0.2440647222E-06
  0.2773958840E-06
  0.5177571438E-07
  0.3527311492E-06
  0.2029846655E-06
  0.3418317647E-06
  0.4502944648E-06
  0.4526955308E-06
  0.2093147486E-06
  0.4695175448E-07
  0.3779714461E-06
  0.3872628440E-06
  0.2379529178E-06
  0.3220411600E-06
  0.1646403689E-06
  0.1004591468E-06
  0.5076435627E-06
  0.3138047759E-06
  0.7983180694E-07
  0.2617016435E-06
  0.3883615136E-06
  0.3067470971E-06
  0.2889282769E-07
  0.2621600288E-06
  0.2191372914E-06
  0.9125506040E-07
  0.1839216566E-06
  0.3499735612E-06
  0.1979642548E-06
  0.3878085408E-07
  0.8328061085E-07
  0.4622415872E-06
  0.6307891454E-06
  0.4749599611E-06
  0.4336470738E-07
  0.1640000846E-06
  0.3246677807E-06
  0.4315661499E-06
  0.2380547812E-06
  0.1388470992E-06
  0.5221809261E-06
  0.2551241778E-06
  0.1989246812E-06
  0.4957473720E-06
  0.1017033355E-06
  0.2422166290E-06
  0.3949389793E-07
  0.1489606802E-06
  0.1030639396E-06
  0.2968590707E-06
  0.4283647286E-06
  0.4785761121E-06
  0.2995147952E-06
  0.4284229362E-06
  0.5269539542E-06
  0.2144661266E-06
  0.1054213499E-06
  0.1680091373E-06
  0.2019369276E-06
  0.1002917998E-06
  0.2530141501E-06
  0.2465021680E-06
  0.2522065188E-06
  0.8651113603E-07
  0.4380272003E-06
  0.4777684808E-06
  0.3098975867E-06
  0.3045206540E-06
  0.9212817531E-07
  0.3827954060E-06
  0.3534369171E-06
  0.2219603630E-06
  0.2882879926E-06
  0.3618333722E-06
  0.8656934369E-07
  0.3256645869E-06
  0.3671666491E-06
  0.2460510586E-06
  0.2222077455E-06
  0.2672531991E-06
  0.3361710696E-06
  0.2320666681E-06
  0.3295717761E-06
  0.1148582669E-06
  0.4925095709E-07
  0.3394161467E-06
  0.2909655450E-06
  0.2298329491E-06
  0.1171429176E-08
