   68.92647299    
   70.65423727    
   74.33906009    
   83.05394973    
   87.13963580    
   95.59374371    
   87.90199242    
   87.90735077    
   87.75554250    
   87.71075173    
   87.69740505    
   87.69175271    
   87.68844429    
   87.68802256    
   87.68801510    
   87.68832621    
   87.68832745    
   87.68830191    
   87.68818516    
   87.68842984    
   87.68851336    
   87.68850912    
   87.68854558    
   87.68860361    
   87.68854469    
   87.68855448    
   87.68857160    
   87.68858309    
   87.68859704    
   87.68859286    
   87.68858960    
   87.68859294    
   87.68860088    
   87.68860054    
   87.68859503    
   87.68858998    
   87.68858897    
   87.68858734    
   87.68858462    
   87.68858491    
   87.68858684    
   87.68858658    
   87.68858680    
   87.68858589    
   87.68858535    
   87.68858504    
   87.68858525    
   87.68858389    
   87.68858400    
   87.68858423    
   87.68858394    
   87.68858420    
   87.68858452    
   87.68858437    
   87.68858435    
   87.68858430    
   87.68858440    
   87.68858472    
   87.68858460    
   87.68858485    
   87.68858428    
   87.68858479    
   87.68858474    
   87.68858475    
   87.68858452    
   87.68858458    
   87.68858374    
   87.68858384    
   87.68858419    
   87.68858441    
   87.68858450    
   87.68858443    
   87.68858480    
   87.68858487    
   87.68858499    
   87.68858488    
   87.68858449    
   87.68858423    
   87.68858426    
   87.68858447    
   87.68858448    
   87.68858477    
   87.68858462    
   87.68858437    
   87.68858446    
   87.68858485    
   87.68858449    
   87.68858441    
   87.68858487    
   87.68858497    
   87.68858500    
   87.68858491    
   87.68858469    
   87.68858466    
   87.68858501    
   87.68858513    
   87.68858464    
   87.68858454    
   87.68858442    
   87.68858448    
   87.68858478    
   87.68858405    
   87.68858421    
   87.68858451    
   87.68858471    
   87.68858447    
   87.68858465    
   87.68858476    
   87.68858431    
   87.68858418    
   87.68858423    
   87.68858398    
   87.68858416    
   87.68858418    
   87.68858400    
   87.68858476    
   87.68858536    
   87.68858524    
   87.68858515    
   87.68858470    
   87.68858470    
   87.68858459    
   87.68858372    
   87.68858369    
   87.68858396    
   87.68858408    
   87.68858426    
   87.68858433    
   87.68858459    
   87.68858470    
   87.68858504    
   87.68858457    
