+----------------------------+
| Elk version 8.3.15 started |
+----------------------------+
 
Date (YYYY-MM-DD) : 2022-02-19
Time (hh:mm:ss)   : 16:01:55
 
All units are atomic (Hartree, Bohr, etc.)
 
+------------------------------------------+
| Ground-state run resuming from STATE.OUT |
+------------------------------------------+
 
Lattice vectors :
   5.148842540      -2.972685626       0.000000000    
   0.000000000       5.945371253       0.000000000    
   0.000000000       0.000000000       9.564624384    
 
Reciprocal lattice vectors :
   1.220310246       0.000000000       0.000000000    
  0.6101551229       1.056819674       0.000000000    
   0.000000000       0.000000000      0.6569191904    
 
Unit cell volume      :    292.7901815    
Brillouin zone volume :   0.8471944385    
 
Muffin-tin inner radius fraction :   0.1000000000E-01
 
Species :    1 (Zr)
 parameters loaded from : Zr.in
 name : zirconium
 nuclear charge    :   -40.00000000    
 electronic charge :    40.00000000    
 atomic mass :    166291.1791    
 muffin-tin radius :    2.500000000    
 number of radial points in muffin-tin :   1200
 number on inner part of muffin-tin    :    866
 atomic positions (lattice), magnetic fields (Cartesian) :
   1 :   0.33333333  0.16666667  0.25000000    0.00000000  0.00000000  0.00000000
   2 :  -0.33333333 -0.16666667 -0.25000000    0.00000000  0.00000000  0.00000000
 
Total number of atoms per unit cell :    2
 
Spin treatment :
 spin-unpolarised
 
Number of Bravais lattice symmetries :   24
Number of crystal symmetries         :   24
Crystal has inversion symmetry
Real symmetric eigensolver will be used
 
k-point grid :     17    17    17
k-point offset :    0.000000000       0.000000000       0.000000000    
k-point set is reduced with full crystal symmetry group
Total number of k-points :      297
 
Muffin-tin radius times maximum |G+k| :    8.000000000    
 using gkmax = rgkmax / 2
Maximum |G+k| for APW functions       :    4.000000000    
Maximum (1/2)|G+k|²                   :    8.000000000    
Maximum |G| for potential and density :    32.00000000    
Constant for pseudocharge density :   20
Radial integration step length :    1
 
G-vector grid sizes :     64    64   100
Number of G-vectors :   162091
 
Maximum angular momentum used for
 APW functions                      :   10
 outer part of muffin-tin           :    8
 inner part of muffin-tin           :    1
 
Total nuclear charge    :   -80.00000000    
Total core charge       :    56.00000000    
Total valence charge    :    24.00000000    
Total excess charge     :    0.000000000    
Total electronic charge :    80.00000000    
 
Effective Wigner radius, rₛ :   0.9560031081    
 
Number of empty states         :   40
Total number of valence states :   53
Total number of core states    :   56
 
Conduction state local-orbitals added automatically
Total number of local-orbitals :  242
 
Using Libxc version 05.01.05
Exchange-correlation functional :    100   493   494
 exchange: mgga_x_rscan; correlation: mgga_c_rscan
 
Smearing type :    1
 Methfessel-Paxton order 1, Phys. Rev. B 40, 3616 (1989)
Smearing width :   0.1000000000E-02
Effective electronic temperature (K) :    315.7750248    
 
Mixing type :    3
 Broyden mixing, J. Phys. A: Math. Gen. 17, L317 (1984)
 
Potential read in from STATE.OUT
 
+------------------------------+
| Self-consistent loop started |
+------------------------------+
 
+--------------------+
| Loop number :    1 |
+--------------------+
 
Energies :
 Fermi                       :     0.441615432626    
 sum of eigenvalues          :     -4258.50147961    
 electron kinetic            :      7450.11607580    
 core electron kinetic       :      7311.63226782    
 Coulomb                     :     -14419.5132191    
 Coulomb potential           :     -11401.7193249    
 nuclear-nuclear             :     -726.665809676    
 electron-nuclear            :     -15983.9754941    
 Hartree                     :      2291.12808459    
 Madelung                    :     -8718.65355671    
 xc potential                :     -306.898230533    
 exchange                    :     -227.138208135    
 correlation                 :     -4.12509847136    
 total energy                :     -7200.66044996    
 
Density of states at Fermi energy :    52.44528139    
 (states/Hartree/unit cell)
 
Estimated indirect band gap :   0.6023017557E-03
 from k-point    293 to k-point    231
Estimated direct band gap   :   0.3180550289E-02
 at k-point    289
 
Charges :
 core                        :    56.00000000    
 valence                     :    24.00000000    
 interstitial                :    4.410103050    
 muffin-tins (core leakage)
  species :    1 (Zr)
   atom    1                 :    37.79494848     (  0.6013934957E-05)
   atom    2                 :    37.79494848     (  0.6013934957E-05)
 total in muffin-tins        :    75.58989695    
 total calculated charge     :    79.99994533    
 total charge                :    80.00000000    
 error                       :   0.5466543774E-04
 
Time (CPU seconds) :        62.22
 
+--------------------+
| Loop number :    2 |
+--------------------+
 
Energies :
 Fermi                       :     0.441616984198    
 sum of eigenvalues          :     -4258.50215443    
 electron kinetic            :      7450.11489266    
 core electron kinetic       :      7311.63806294    
 Coulomb                     :     -14419.5138255    
 Coulomb potential           :     -11401.7187566    
 nuclear-nuclear             :     -726.665809676    
 electron-nuclear            :     -15983.9772750    
 Hartree                     :      2291.12925919    
 Madelung                    :     -8718.65444719    
 xc potential                :     -306.898290451    
 exchange                    :     -227.138245863    
 correlation                 :     -4.12510167570    
 total energy                :     -7200.66228039    
 
Density of states at Fermi energy :    52.50341597    
 (states/Hartree/unit cell)
 
Estimated indirect band gap :   0.6079863437E-03
 from k-point    293 to k-point    231
Estimated direct band gap   :   0.3179932718E-02
 at k-point    289
 
Charges :
 core                        :    56.00000000    
 valence                     :    24.00000000    
 interstitial                :    4.410026671    
 muffin-tins (core leakage)
  species :    1 (Zr)
   atom    1                 :    37.79498666     (  0.6013941356E-05)
   atom    2                 :    37.79498666     (  0.6013941356E-05)
 total in muffin-tins        :    75.58997333    
 total calculated charge     :    79.99994536    
 total charge                :    80.00000000    
 error                       :   0.5464394873E-04
 
Wrote STATE.OUT
 
RMS change in Kohn-Sham potential (target) :   0.5100622603E-01 (   10.00000000    )
Absolute change in total energy (target)   :   0.1830427304E-02 (  0.1000000000E-07)
 
Time (CPU seconds) :       124.39
 
+--------------------+
| Loop number :    3 |
+--------------------+
 
Energies :
 Fermi                       :     0.441760855987    
 sum of eigenvalues          :     -4258.50983284    
 electron kinetic            :      7450.09230218    
 core electron kinetic       :      7311.63317120    
 Coulomb                     :     -14419.5220017    
 Coulomb potential           :     -11401.7026806    
 nuclear-nuclear             :     -726.665809676    
 electron-nuclear            :     -15984.0097035    
 Hartree                     :      2291.15351144    
 Madelung                    :     -8718.67066142    
 xc potential                :     -306.899454413    
 exchange                    :     -227.138897681    
 correlation                 :     -4.12519603405    
 total energy                :     -7200.69379326    
 
Density of states at Fermi energy :    55.26647052    
 (states/Hartree/unit cell)
 
Estimated indirect band gap :   0.7569640130E-04
 from k-point    296 to k-point    195
Estimated direct band gap   :   0.8646252414E-03
 at k-point    264
 
Charges :
 core                        :    56.00000000    
 valence                     :    24.00000000    
 interstitial                :    4.407865349    
 muffin-tins (core leakage)
  species :    1 (Zr)
   atom    1                 :    37.79606733     (  0.6013480053E-05)
   atom    2                 :    37.79606733     (  0.6013480053E-05)
 total in muffin-tins        :    75.59213465    
 total calculated charge     :    79.99994590    
 total charge                :    80.00000000    
 error                       :   0.5410087019E-04
 
RMS change in Kohn-Sham potential (target) :   0.3456421360E-01 (   10.00000000    )
Absolute change in total energy (target)   :   0.3197048074E-01 (  0.1000000000E-07)
 
Time (CPU seconds) :       187.16
 
+--------------------+
| Loop number :    4 |
+--------------------+
 
Energies :
 Fermi                       :     0.441942943462    
 sum of eigenvalues          :     -4258.51465586    
 electron kinetic            :      7450.07134274    
 core electron kinetic       :      7311.62859404    
 Coulomb                     :     -14419.5280856    
 Coulomb potential           :     -11401.6853818    
 nuclear-nuclear             :     -726.665809676    
 electron-nuclear            :     -15984.0391700    
 Hartree                     :      2291.17689407    
 Madelung                    :     -8718.68539466    
 xc potential                :     -306.900616777    
 exchange                    :     -227.139515773    
 correlation                 :     -4.12530243834    
 total energy                :     -7200.72156104    
 
Density of states at Fermi energy :    63.57698347    
 (states/Hartree/unit cell)
 
Estimated indirect band gap :   0.1185086834E-03
 from k-point    257 to k-point    293
Estimated direct band gap   :   0.8370443400E-03
 at k-point    264
 
Charges :
 core                        :    56.00000000    
 valence                     :    24.00000000    
 interstitial                :    4.405325573    
 muffin-tins (core leakage)
  species :    1 (Zr)
   atom    1                 :    37.79733721     (  0.6013385587E-05)
   atom    2                 :    37.79733721     (  0.6013385587E-05)
 total in muffin-tins        :    75.59467443    
 total calculated charge     :    79.99994640    
 total charge                :    80.00000000    
 error                       :   0.5359639003E-04
 
Wrote STATE.OUT
 
RMS change in Kohn-Sham potential (target) :   0.1388342451E-01 (   10.00000000    )
Absolute change in total energy (target)   :   0.3576039878E-01 (  0.1000000000E-07)
 
Time (CPU seconds) :       250.12
 
+--------------------+
| Loop number :    5 |
+--------------------+
 
Energies :
 Fermi                       :     0.441974555270    
 sum of eigenvalues          :     -4258.51673373    
 electron kinetic            :      7450.06503172    
 core electron kinetic       :      7311.62887632    
 Coulomb                     :     -14419.5307096    
 Coulomb potential           :     -11401.6807566    
 nuclear-nuclear             :     -726.665809676    
 electron-nuclear            :     -15984.0490432    
 Hartree                     :      2291.18414331    
 Madelung                    :     -8718.69033129    
 xc potential                :     -306.901008845    
 exchange                    :     -227.139715265    
 correlation                 :     -4.12534404128    
 total energy                :     -7200.73073718    
 
Density of states at Fermi energy :    68.57246548    
 (states/Hartree/unit cell)
 
Estimated indirect band gap :   0.1327163403E-03
 from k-point    297 to k-point    264
Estimated direct band gap   :   0.2035316574E-02
 at k-point    265
 
Charges :
 core                        :    56.00000000    
 valence                     :    24.00000000    
 interstitial                :    4.404514527    
 muffin-tins (core leakage)
  species :    1 (Zr)
   atom    1                 :    37.79774274     (  0.6013389680E-05)
   atom    2                 :    37.79774274     (  0.6013389680E-05)
 total in muffin-tins        :    75.59548547    
 total calculated charge     :    79.99994653    
 total charge                :    80.00000000    
 error                       :   0.5346576211E-04
 
RMS change in Kohn-Sham potential (target) :   0.4505515851E-02 (   10.00000000    )
Absolute change in total energy (target)   :   0.1811624190E-01 (  0.1000000000E-07)
 
Time (CPU seconds) :       311.05
 
+--------------------+
| Loop number :    6 |
+--------------------+
 
Energies :
 Fermi                       :     0.441975484053    
 sum of eigenvalues          :     -4258.51875743    
 electron kinetic            :      7450.06231360    
 core electron kinetic       :      7311.62925610    
 Coulomb                     :     -14419.5327135    
 Coulomb potential           :     -11401.6798870    
 nuclear-nuclear             :     -726.665809676    
 electron-nuclear            :     -15984.0539207    
 Hartree                     :      2291.18701685    
 Madelung                    :     -8718.69277002    
 xc potential                :     -306.901184028    
 exchange                    :     -227.139823230    
 correlation                 :     -4.12535490808    
 total energy                :     -7200.73557806    
 
Density of states at Fermi energy :    69.67243370    
 (states/Hartree/unit cell)
 
Estimated indirect band gap :   0.1092297648E-03
 from k-point    297 to k-point    256
Estimated direct band gap   :   0.2059200024E-02
 at k-point    265
 
Charges :
 core                        :    56.00000000    
 valence                     :    24.00000000    
 interstitial                :    4.404296789    
 muffin-tins (core leakage)
  species :    1 (Zr)
   atom    1                 :    37.79785161     (  0.6013388422E-05)
   atom    2                 :    37.79785161     (  0.6013388422E-05)
 total in muffin-tins        :    75.59570321    
 total calculated charge     :    79.99994654    
 total charge                :    80.00000000    
 error                       :   0.5346098769E-04
 
Wrote STATE.OUT
 
RMS change in Kohn-Sham potential (target) :   0.1231998597E-02 (   10.00000000    )
Absolute change in total energy (target)   :   0.9369939327E-02 (  0.1000000000E-07)
 
Time (CPU seconds) :       374.65
 
+--------------------+
| Loop number :    7 |
+--------------------+
 
Energies :
 Fermi                       :     0.441974959724    
 sum of eigenvalues          :     -4258.51996005    
 electron kinetic            :      7450.06141048    
 core electron kinetic       :      7311.62958045    
 Coulomb                     :     -14419.5337600    
 Coulomb potential           :     -11401.6801264    
 nuclear-nuclear             :     -726.665809676    
 electron-nuclear            :     -15984.0557743    
 Hartree                     :      2291.18782394    
 Madelung                    :     -8718.69369682    
 xc potential                :     -306.901244135    
 exchange                    :     -227.139868081    
 correlation                 :     -4.12535502922    
 total energy                :     -7200.73757264    
 
Density of states at Fermi energy :    69.91426606    
 (states/Hartree/unit cell)
 
Estimated indirect band gap :   0.1237081059E-03
 from k-point    297 to k-point    264
Estimated direct band gap   :   0.2063118098E-02
 at k-point    265
 
Charges :
 core                        :    56.00000000    
 valence                     :    24.00000000    
 interstitial                :    4.404271461    
 muffin-tins (core leakage)
  species :    1 (Zr)
   atom    1                 :    37.79786427     (  0.6013186717E-05)
   atom    2                 :    37.79786427     (  0.6013186717E-05)
 total in muffin-tins        :    75.59572854    
 total calculated charge     :    79.99994650    
 total charge                :    80.00000000    
 error                       :   0.5349705329E-04
 
RMS change in Kohn-Sham potential (target) :   0.4779484911E-03 (   10.00000000    )
Absolute change in total energy (target)   :   0.4337067736E-02 (  0.1000000000E-07)
 
Time (CPU seconds) :       437.59
 
+--------------------+
| Loop number :    8 |
+--------------------+
 
Energies :
 Fermi                       :     0.441973325068    
 sum of eigenvalues          :     -4258.52054680    
 electron kinetic            :      7450.06116121    
 core electron kinetic       :      7311.62916912    
 Coulomb                     :     -14419.5340877    
 Coulomb potential           :     -11401.6804563    
 nuclear-nuclear             :     -726.665809676    
 electron-nuclear            :     -15984.0560998    
 Hartree                     :      2291.18782173    
 Madelung                    :     -8718.69385958    
 xc potential                :     -306.901251671    
 exchange                    :     -227.139878028    
 correlation                 :     -4.12535292470    
 total energy                :     -7200.73815749    
 
Density of states at Fermi energy :    69.89930075    
 (states/Hartree/unit cell)
 
Estimated indirect band gap :   0.1253973870E-03
 from k-point    297 to k-point    264
Estimated direct band gap   :   0.2060765691E-02
 at k-point    265
 
Charges :
 core                        :    56.00000000    
 valence                     :    24.00000000    
 interstitial                :    4.404295681    
 muffin-tins (core leakage)
  species :    1 (Zr)
   atom    1                 :    37.79785216     (  0.6013184844E-05)
   atom    2                 :    37.79785216     (  0.6013184844E-05)
 total in muffin-tins        :    75.59570432    
 total calculated charge     :    79.99994648    
 total charge                :    80.00000000    
 error                       :   0.5352351889E-04
 
Wrote STATE.OUT
 
RMS change in Kohn-Sham potential (target) :   0.4459206191E-04 (   10.00000000    )
Absolute change in total energy (target)   :   0.1669112923E-02 (  0.1000000000E-07)
 
Time (CPU seconds) :       499.33
 
+--------------------+
| Loop number :    9 |
+--------------------+
 
Energies :
 Fermi                       :     0.441972977053    
 sum of eigenvalues          :     -4258.52026502    
 electron kinetic            :      7450.06136338    
 core electron kinetic       :      7311.62919612    
 Coulomb                     :     -14419.5337821    
 Coulomb potential           :     -11401.6803938    
 nuclear-nuclear             :     -726.665809676    
 electron-nuclear            :     -15984.0555510    
 Hartree                     :      2291.18757858    
 Madelung                    :     -8718.69358517    
 xc potential                :     -306.901234576    
 exchange                    :     -227.139863673    
 correlation                 :     -4.12535357014    
 total energy                :     -7200.73763595    
 
Density of states at Fermi energy :    69.90366996    
 (states/Hartree/unit cell)
 
Estimated indirect band gap :   0.1249180904E-03
 from k-point    297 to k-point    264
Estimated direct band gap   :   0.2061273308E-02
 at k-point    265
 
Charges :
 core                        :    56.00000000    
 valence                     :    24.00000000    
 interstitial                :    4.404295886    
 muffin-tins (core leakage)
  species :    1 (Zr)
   atom    1                 :    37.79785206     (  0.6013275936E-05)
   atom    2                 :    37.79785206     (  0.6013275936E-05)
 total in muffin-tins        :    75.59570411    
 total calculated charge     :    79.99994649    
 total charge                :    80.00000000    
 error                       :   0.5351366600E-04
 
RMS change in Kohn-Sham potential (target) :   0.2149120442E-03 (   10.00000000    )
Absolute change in total energy (target)   :   0.1042589229E-03 (  0.1000000000E-07)
 
Time (CPU seconds) :       561.43
 
+--------------------+
| Loop number :   10 |
+--------------------+
 
Energies :
 Fermi                       :     0.441972962402    
 sum of eigenvalues          :     -4258.52027042    
 electron kinetic            :      7450.06135885    
 core electron kinetic       :      7311.62913061    
 Coulomb                     :     -14419.5337851    
 Coulomb potential           :     -11401.6803945    
 nuclear-nuclear             :     -726.665809676    
 electron-nuclear            :     -15984.0555564    
 Hartree                     :      2291.18758094    
 Madelung                    :     -8718.69358786    
 xc potential                :     -306.901234782    
 exchange                    :     -227.139863845    
 correlation                 :     -4.12535356169    
 total energy                :     -7200.73764366    
 
Density of states at Fermi energy :    69.90353736    
 (states/Hartree/unit cell)
 
Estimated indirect band gap :   0.1249245416E-03
 from k-point    297 to k-point    264
Estimated direct band gap   :   0.2061262711E-02
 at k-point    265
 
Charges :
 core                        :    56.00000000    
 valence                     :    24.00000000    
 interstitial                :    4.404295896    
 muffin-tins (core leakage)
  species :    1 (Zr)
   atom    1                 :    37.79785205     (  0.6013116188E-05)
   atom    2                 :    37.79785205     (  0.6013116188E-05)
 total in muffin-tins        :    75.59570410    
 total calculated charge     :    79.99994649    
 total charge                :    80.00000000    
 error                       :   0.5351339942E-04
 
Wrote STATE.OUT
 
RMS change in Kohn-Sham potential (target) :   0.3182796730E-04 (   10.00000000    )
Absolute change in total energy (target)   :   0.1835757939E-04 (  0.1000000000E-07)
 
Time (CPU seconds) :       621.53
 
+--------------------+
| Loop number :   11 |
+--------------------+
 
Energies :
 Fermi                       :     0.441972868225    
 sum of eigenvalues          :     -4258.52020349    
 electron kinetic            :      7450.06140927    
 core electron kinetic       :      7311.62912308    
 Coulomb                     :     -14419.5337195    
 Coulomb potential           :     -11401.6803817    
 nuclear-nuclear             :     -726.665809676    
 electron-nuclear            :     -15984.0554380    
 Hartree                     :      2291.18752817    
 Madelung                    :     -8718.69352868    
 xc potential                :     -306.901231096    
 exchange                    :     -227.139860551    
 correlation                 :     -4.12535380028    
 total energy                :     -7200.73752459    
 
Density of states at Fermi energy :    69.90656192    
 (states/Hartree/unit cell)
 
Estimated indirect band gap :   0.1247541791E-03
 from k-point    297 to k-point    264
Estimated direct band gap   :   0.2061483753E-02
 at k-point    265
 
Charges :
 core                        :    56.00000000    
 valence                     :    24.00000000    
 interstitial                :    4.404295551    
 muffin-tins (core leakage)
  species :    1 (Zr)
   atom    1                 :    37.79785222     (  0.6013227608E-05)
   atom    2                 :    37.79785222     (  0.6013227608E-05)
 total in muffin-tins        :    75.59570445    
 total calculated charge     :    79.99994649    
 total charge                :    80.00000000    
 error                       :   0.5351018997E-04
 
RMS change in Kohn-Sham potential (target) :   0.6169477138E-04 (   10.00000000    )
Absolute change in total energy (target)   :   0.1236550943E-03 (  0.1000000000E-07)
 
Time (CPU seconds) :       682.67
 
+--------------------+
| Loop number :   12 |
+--------------------+
 
Energies :
 Fermi                       :     0.441972858687    
 sum of eigenvalues          :     -4258.52018183    
 electron kinetic            :      7450.06142696    
 core electron kinetic       :      7311.62913205    
 Coulomb                     :     -14419.5337032    
 Coulomb potential           :     -11401.6803787    
 nuclear-nuclear             :     -726.665809676    
 electron-nuclear            :     -15984.0554084    
 Hartree                     :      2291.18751486    
 Madelung                    :     -8718.69351388    
 xc potential                :     -306.901230108    
 exchange                    :     -227.139859615    
 correlation                 :     -4.12535389128    
 total energy                :     -7200.73748976    
 
Density of states at Fermi energy :    69.90815376    
 (states/Hartree/unit cell)
 
Estimated indirect band gap :   0.1246907364E-03
 from k-point    297 to k-point    264
Estimated direct band gap   :   0.2061580483E-02
 at k-point    265
 
Charges :
 core                        :    56.00000000    
 valence                     :    24.00000000    
 interstitial                :    4.404295385    
 muffin-tins (core leakage)
  species :    1 (Zr)
   atom    1                 :    37.79785231     (  0.6013314859E-05)
   atom    2                 :    37.79785231     (  0.6013314859E-05)
 total in muffin-tins        :    75.59570462    
 total calculated charge     :    79.99994649    
 total charge                :    80.00000000    
 error                       :   0.5350909083E-04
 
Wrote STATE.OUT
 
RMS change in Kohn-Sham potential (target) :   0.7929392355E-04 (   10.00000000    )
Absolute change in total energy (target)   :   0.6574469353E-04 (  0.1000000000E-07)
 
Time (CPU seconds) :       745.09
 
+--------------------+
| Loop number :   13 |
+--------------------+
 
Energies :
 Fermi                       :     0.441972758545    
 sum of eigenvalues          :     -4258.52018435    
 electron kinetic            :      7450.06142794    
 core electron kinetic       :      7311.62913203    
 Coulomb                     :     -14419.5336998    
 Coulomb potential           :     -11401.6803827    
 nuclear-nuclear             :     -726.665809676    
 electron-nuclear            :     -15984.0553976    
 Hartree                     :      2291.18750749    
 Madelung                    :     -8718.69350850    
 xc potential                :     -306.901229632    
 exchange                    :     -227.139859188    
 correlation                 :     -4.12535392231    
 total energy                :     -7200.73748500    
 
Density of states at Fermi energy :    69.90908269    
 (states/Hartree/unit cell)
 
Estimated indirect band gap :   0.1246731815E-03
 from k-point    297 to k-point    264
Estimated direct band gap   :   0.2061604982E-02
 at k-point    265
 
Charges :
 core                        :    56.00000000    
 valence                     :    24.00000000    
 interstitial                :    4.404295664    
 muffin-tins (core leakage)
  species :    1 (Zr)
   atom    1                 :    37.79785217     (  0.6013084416E-05)
   atom    2                 :    37.79785217     (  0.6013084416E-05)
 total in muffin-tins        :    75.59570434    
 total calculated charge     :    79.99994649    
 total charge                :    80.00000000    
 error                       :   0.5350811008E-04
 
RMS change in Kohn-Sham potential (target) :   0.3359919783E-03 (   10.00000000    )
Absolute change in total energy (target)   :   0.2120241061E-04 (  0.1000000000E-07)
 
Time (CPU seconds) :       807.93
 
+--------------------+
| Loop number :   14 |
+--------------------+
 
Energies :
 Fermi                       :     0.441972745651    
 sum of eigenvalues          :     -4258.52018740    
 electron kinetic            :      7450.06142576    
 core electron kinetic       :      7311.62913207    
 Coulomb                     :     -14419.5337016    
 Coulomb potential           :     -11401.6803834    
 nuclear-nuclear             :     -726.665809676    
 electron-nuclear            :     -15984.0554003    
 Hartree                     :      2291.18750846    
 Madelung                    :     -8718.69350984    
 xc potential                :     -306.901229747    
 exchange                    :     -227.139859271    
 correlation                 :     -4.12535392407    
 total energy                :     -7200.73748898    
 
Density of states at Fermi energy :    69.90931808    
 (states/Hartree/unit cell)
 
Estimated indirect band gap :   0.1246726365E-03
 from k-point    297 to k-point    264
Estimated direct band gap   :   0.2061609343E-02
 at k-point    265
 
Charges :
 core                        :    56.00000000    
 valence                     :    24.00000000    
 interstitial                :    4.404295659    
 muffin-tins (core leakage)
  species :    1 (Zr)
   atom    1                 :    37.79785217     (  0.6013198099E-05)
   atom    2                 :    37.79785217     (  0.6013198099E-05)
 total in muffin-tins        :    75.59570434    
 total calculated charge     :    79.99994649    
 total charge                :    80.00000000    
 error                       :   0.5350832144E-04
 
Wrote STATE.OUT
 
RMS change in Kohn-Sham potential (target) :   0.3630577855E-04 (   10.00000000    )
Absolute change in total energy (target)   :   0.1312751920E-05 (  0.1000000000E-07)
 
Time (CPU seconds) :       868.83
 
+--------------------+
| Loop number :   15 |
+--------------------+
 
Energies :
 Fermi                       :     0.441972701499    
 sum of eigenvalues          :     -4258.52018895    
 electron kinetic            :      7450.06142516    
 core electron kinetic       :      7311.62913492    
 Coulomb                     :     -14419.5336994    
 Coulomb potential           :     -11401.6803845    
 nuclear-nuclear             :     -726.665809676    
 electron-nuclear            :     -15984.0553950    
 Hartree                     :      2291.18750523    
 Madelung                    :     -8718.69350715    
 xc potential                :     -306.901229611    
 exchange                    :     -227.139859128    
 correlation                 :     -4.12535394201    
 total energy                :     -7200.73748731    
 
Density of states at Fermi energy :    69.90988722    
 (states/Hartree/unit cell)
 
Estimated indirect band gap :   0.1246630623E-03
 from k-point    297 to k-point    264
Estimated direct band gap   :   0.2061627088E-02
 at k-point    265
 
Charges :
 core                        :    56.00000000    
 valence                     :    24.00000000    
 interstitial                :    4.404295725    
 muffin-tins (core leakage)
  species :    1 (Zr)
   atom    1                 :    37.79785214     (  0.6013211845E-05)
   atom    2                 :    37.79785214     (  0.6013211845E-05)
 total in muffin-tins        :    75.59570427    
 total calculated charge     :    79.99994649    
 total charge                :    80.00000000    
 error                       :   0.5350803789E-04
 
RMS change in Kohn-Sham potential (target) :   0.1179854220E-03 (   10.00000000    )
Absolute change in total energy (target)   :   0.2001241228E-05 (  0.1000000000E-07)
 
Time (CPU seconds) :       930.22
 
+--------------------+
| Loop number :   16 |
+--------------------+
 
Energies :
 Fermi                       :     0.441972683640    
 sum of eigenvalues          :     -4258.52019394    
 electron kinetic            :      7450.06142154    
 core electron kinetic       :      7311.62913562    
 Coulomb                     :     -14419.5337027    
 Coulomb potential           :     -11401.6803857    
 nuclear-nuclear             :     -726.665809676    
 electron-nuclear            :     -15984.0554003    
 Hartree                     :      2291.18750731    
 Madelung                    :     -8718.69350984    
 xc potential                :     -306.901229764    
 exchange                    :     -227.139859267    
 correlation                 :     -4.12535393179    
 total energy                :     -7200.73749436    
 
Density of states at Fermi energy :    69.90996882    
 (states/Hartree/unit cell)
 
Estimated indirect band gap :   0.1246702445E-03
 from k-point    297 to k-point    264
Estimated direct band gap   :   0.2061620053E-02
 at k-point    265
 
Charges :
 core                        :    56.00000000    
 valence                     :    24.00000000    
 interstitial                :    4.404295772    
 muffin-tins (core leakage)
  species :    1 (Zr)
   atom    1                 :    37.79785211     (  0.6013160103E-05)
   atom    2                 :    37.79785211     (  0.6013160103E-05)
 total in muffin-tins        :    75.59570423    
 total calculated charge     :    79.99994649    
 total charge                :    80.00000000    
 error                       :   0.5350798138E-04
 
Wrote STATE.OUT
 
RMS change in Kohn-Sham potential (target) :   0.8176138141E-03 (   10.00000000    )
Absolute change in total energy (target)   :   0.6551072147E-05 (  0.1000000000E-07)
 
Time (CPU seconds) :       992.98
 
+--------------------+
| Loop number :   17 |
+--------------------+
 
Energies :
 Fermi                       :     0.441972663217    
 sum of eigenvalues          :     -4258.52019713    
 electron kinetic            :      7450.06141839    
 core electron kinetic       :      7311.62913162    
 Coulomb                     :     -14419.5337040    
 Coulomb potential           :     -11401.6803857    
 nuclear-nuclear             :     -726.665809676    
 electron-nuclear            :     -15984.0554030    
 Hartree                     :      2291.18750867    
 Madelung                    :     -8718.69351119    
 xc potential                :     -306.901229833    
 exchange                    :     -227.139859326    
 correlation                 :     -4.12535392766    
 total energy                :     -7200.73749889    
 
Density of states at Fermi energy :    69.90999494    
 (states/Hartree/unit cell)
 
Estimated indirect band gap :   0.1246744774E-03
 from k-point    297 to k-point    264
Estimated direct band gap   :   0.2061615543E-02
 at k-point    265
 
Charges :
 core                        :    56.00000000    
 valence                     :    24.00000000    
 interstitial                :    4.404295768    
 muffin-tins (core leakage)
  species :    1 (Zr)
   atom    1                 :    37.79785212     (  0.6013134509E-05)
   atom    2                 :    37.79785212     (  0.6013134509E-05)
 total in muffin-tins        :    75.59570423    
 total calculated charge     :    79.99994649    
 total charge                :    80.00000000    
 error                       :   0.5350793644E-04
 
RMS change in Kohn-Sham potential (target) :   0.1563090399E-03 (   10.00000000    )
Absolute change in total energy (target)   :   0.6170440429E-05 (  0.1000000000E-07)
 
Time (CPU seconds) :      1055.17
 
+--------------------+
| Loop number :   18 |
+--------------------+
 
Energies :
 Fermi                       :     0.441972652279    
 sum of eigenvalues          :     -4258.52019544    
 electron kinetic            :      7450.06141988    
 core electron kinetic       :      7311.62913162    
 Coulomb                     :     -14419.5337013    
 Coulomb potential           :     -11401.6803856    
 nuclear-nuclear             :     -726.665809676    
 electron-nuclear            :     -15984.0553976    
 Hartree                     :      2291.18750601    
 Madelung                    :     -8718.69350850    
 xc potential                :     -306.901229701    
 exchange                    :     -227.139859199    
 correlation                 :     -4.12535393944    
 total energy                :     -7200.73749456    
 
Density of states at Fermi energy :    69.91019947    
 (states/Hartree/unit cell)
 
Estimated indirect band gap :   0.1246669449E-03
 from k-point    297 to k-point    264
Estimated direct band gap   :   0.2061626177E-02
 at k-point    265
 
Charges :
 core                        :    56.00000000    
 valence                     :    24.00000000    
 interstitial                :    4.404295773    
 muffin-tins (core leakage)
  species :    1 (Zr)
   atom    1                 :    37.79785211     (  0.6013128399E-05)
   atom    2                 :    37.79785211     (  0.6013128399E-05)
 total in muffin-tins        :    75.59570423    
 total calculated charge     :    79.99994649    
 total charge                :    80.00000000    
 error                       :   0.5350777934E-04
 
Wrote STATE.OUT
 
RMS change in Kohn-Sham potential (target) :   0.2276854469E-03 (   10.00000000    )
Absolute change in total energy (target)   :   0.2787079211E-05 (  0.1000000000E-07)
 
Time (CPU seconds) :      1116.43
 
+--------------------+
| Loop number :   19 |
+--------------------+
 
Energies :
 Fermi                       :     0.441972655938    
 sum of eigenvalues          :     -4258.52019508    
 electron kinetic            :      7450.06142024    
 core electron kinetic       :      7311.62913102    
 Coulomb                     :     -14419.5337013    
 Coulomb potential           :     -11401.6803856    
 nuclear-nuclear             :     -726.665809676    
 electron-nuclear            :     -15984.0553976    
 Hartree                     :      2291.18750602    
 Madelung                    :     -8718.69350850    
 xc potential                :     -306.901229702    
 exchange                    :     -227.139859203    
 correlation                 :     -4.12535393869    
 total energy                :     -7200.73749421    
 
Density of states at Fermi energy :    69.91017314    
 (states/Hartree/unit cell)
 
Estimated indirect band gap :   0.1246670911E-03
 from k-point    297 to k-point    264
Estimated direct band gap   :   0.2061625835E-02
 at k-point    265
 
Charges :
 core                        :    56.00000000    
 valence                     :    24.00000000    
 interstitial                :    4.404295767    
 muffin-tins (core leakage)
  species :    1 (Zr)
   atom    1                 :    37.79785212     (  0.6013131532E-05)
   atom    2                 :    37.79785212     (  0.6013131532E-05)
 total in muffin-tins        :    75.59570423    
 total calculated charge     :    79.99994649    
 total charge                :    80.00000000    
 error                       :   0.5350778594E-04
 
RMS change in Kohn-Sham potential (target) :   0.7333679588E-03 (   10.00000000    )
Absolute change in total energy (target)   :   0.1051980689E-05 (  0.1000000000E-07)
 
Time (CPU seconds) :      1179.18
 
+--------------------+
| Loop number :   20 |
+--------------------+
 
Energies :
 Fermi                       :     0.441972680706    
 sum of eigenvalues          :     -4258.52019368    
 electron kinetic            :      7450.06142113    
 core electron kinetic       :      7311.62913214    
 Coulomb                     :     -14419.5337024    
 Coulomb potential           :     -11401.6803851    
 nuclear-nuclear             :     -726.665809676    
 electron-nuclear            :     -15984.0554003    
 Hartree                     :      2291.18750763    
 Madelung                    :     -8718.69350984    
 xc potential                :     -306.901229740    
 exchange                    :     -227.139859251    
 correlation                 :     -4.12535393030    
 total energy                :     -7200.73749443    
 
Density of states at Fermi energy :    69.90990097    
 (states/Hartree/unit cell)
 
Estimated indirect band gap :   0.1246711580E-03
 from k-point    297 to k-point    264
Estimated direct band gap   :   0.2061617711E-02
 at k-point    265
 
Charges :
 core                        :    56.00000000    
 valence                     :    24.00000000    
 interstitial                :    4.404295744    
 muffin-tins (core leakage)
  species :    1 (Zr)
   atom    1                 :    37.79785213     (  0.6013205574E-05)
   atom    2                 :    37.79785213     (  0.6013205574E-05)
 total in muffin-tins        :    75.59570426    
 total calculated charge     :    79.99994649    
 total charge                :    80.00000000    
 error                       :   0.5350807338E-04
 
Wrote STATE.OUT
 
RMS change in Kohn-Sham potential (target) :   0.1399395475E-03 (   10.00000000    )
Absolute change in total energy (target)   :   0.4517460184E-07 (  0.1000000000E-07)
 
Time (CPU seconds) :      1241.95
 
+--------------------+
| Loop number :   21 |
+--------------------+
 
Energies :
 Fermi                       :     0.441972659268    
 sum of eigenvalues          :     -4258.52019410    
 electron kinetic            :      7450.06142106    
 core electron kinetic       :      7311.62913197    
 Coulomb                     :     -14419.5337012    
 Coulomb potential           :     -11401.6803855    
 nuclear-nuclear             :     -726.665809676    
 electron-nuclear            :     -15984.0553976    
 Hartree                     :      2291.18750608    
 Madelung                    :     -8718.69350850    
 xc potential                :     -306.901229669    
 exchange                    :     -227.139859174    
 correlation                 :     -4.12535394077    
 total energy                :     -7200.73749330    
 
Density of states at Fermi energy :    69.91020722    
 (states/Hartree/unit cell)
 
Estimated indirect band gap :   0.1246648540E-03
 from k-point    297 to k-point    264
Estimated direct band gap   :   0.2061628779E-02
 at k-point    265
 
Charges :
 core                        :    56.00000000    
 valence                     :    24.00000000    
 interstitial                :    4.404295766    
 muffin-tins (core leakage)
  species :    1 (Zr)
   atom    1                 :    37.79785212     (  0.6013125564E-05)
   atom    2                 :    37.79785212     (  0.6013125564E-05)
 total in muffin-tins        :    75.59570423    
 total calculated charge     :    79.99994649    
 total charge                :    80.00000000    
 error                       :   0.5350781568E-04
 
RMS change in Kohn-Sham potential (target) :   0.1520396174E-03 (   10.00000000    )
Absolute change in total energy (target)   :   0.1138854714E-05 (  0.1000000000E-07)
 
Time (CPU seconds) :      1304.83
 
+--------------------+
| Loop number :   22 |
+--------------------+
 
Energies :
 Fermi                       :     0.441972647047    
 sum of eigenvalues          :     -4258.52019468    
 electron kinetic            :      7450.06142081    
 core electron kinetic       :      7311.62913189    
 Coulomb                     :     -14419.5337014    
 Coulomb potential           :     -11401.6803858    
 nuclear-nuclear             :     -726.665809676    
 electron-nuclear            :     -15984.0553976    
 Hartree                     :      2291.18750590    
 Madelung                    :     -8718.69350850    
 xc potential                :     -306.901229648    
 exchange                    :     -227.139859147    
 correlation                 :     -4.12535394612    
 total energy                :     -7200.73749370    
 
Density of states at Fermi energy :    69.91036570    
 (states/Hartree/unit cell)
 
Estimated indirect band gap :   0.1246621967E-03
 from k-point    297 to k-point    264
Estimated direct band gap   :   0.2061634091E-02
 at k-point    265
 
Charges :
 core                        :    56.00000000    
 valence                     :    24.00000000    
 interstitial                :    4.404295778    
 muffin-tins (core leakage)
  species :    1 (Zr)
   atom    1                 :    37.79785211     (  0.6013132804E-05)
   atom    2                 :    37.79785211     (  0.6013132804E-05)
 total in muffin-tins        :    75.59570422    
 total calculated charge     :    79.99994649    
 total charge                :    80.00000000    
 error                       :   0.5350774723E-04
 
Wrote STATE.OUT
 
RMS change in Kohn-Sham potential (target) :   0.1884206486E-04 (   10.00000000    )
Absolute change in total energy (target)   :   0.1192729542E-06 (  0.1000000000E-07)
 
Time (CPU seconds) :      1368.24
 
+--------------------+
| Loop number :   23 |
+--------------------+
 
Energies :
 Fermi                       :     0.441972647426    
 sum of eigenvalues          :     -4258.52019497    
 electron kinetic            :      7450.06142045    
 core electron kinetic       :      7311.62913170    
 Coulomb                     :     -14419.5337014    
 Coulomb potential           :     -11401.6803858    
 nuclear-nuclear             :     -726.665809676    
 electron-nuclear            :     -15984.0553976    
 Hartree                     :      2291.18750594    
 Madelung                    :     -8718.69350850    
 xc potential                :     -306.901229664    
 exchange                    :     -227.139859160    
 correlation                 :     -4.12535394503    
 total energy                :     -7200.73749403    
 
Density of states at Fermi energy :    69.91033327    
 (states/Hartree/unit cell)
 
Estimated indirect band gap :   0.1246634452E-03
 from k-point    297 to k-point    264
Estimated direct band gap   :   0.2061632360E-02
 at k-point    265
 
Charges :
 core                        :    56.00000000    
 valence                     :    24.00000000    
 interstitial                :    4.404295777    
 muffin-tins (core leakage)
  species :    1 (Zr)
   atom    1                 :    37.79785211     (  0.6013145690E-05)
   atom    2                 :    37.79785211     (  0.6013145690E-05)
 total in muffin-tins        :    75.59570422    
 total calculated charge     :    79.99994649    
 total charge                :    80.00000000    
 error                       :   0.5350774950E-04
 
RMS change in Kohn-Sham potential (target) :   0.2089338555E-03 (   10.00000000    )
Absolute change in total energy (target)   :   0.3586656021E-06 (  0.1000000000E-07)
 
Time (CPU seconds) :      1429.33
 
+--------------------+
| Loop number :   24 |
+--------------------+
 
Energies :
 Fermi                       :     0.441972643657    
 sum of eigenvalues          :     -4258.52019506    
 electron kinetic            :      7450.06142046    
 core electron kinetic       :      7311.62913177    
 Coulomb                     :     -14419.5337014    
 Coulomb potential           :     -11401.6803859    
 nuclear-nuclear             :     -726.665809676    
 electron-nuclear            :     -15984.0553976    
 Hartree                     :      2291.18750589    
 Madelung                    :     -8718.69350850    
 xc potential                :     -306.901229655    
 exchange                    :     -227.139859153    
 correlation                 :     -4.12535394604    
 total energy                :     -7200.73749407    
 
Density of states at Fermi energy :    69.91038269    
 (states/Hartree/unit cell)
 
Estimated indirect band gap :   0.1246624356E-03
 from k-point    297 to k-point    264
Estimated direct band gap   :   0.2061634192E-02
 at k-point    265
 
Charges :
 core                        :    56.00000000    
 valence                     :    24.00000000    
 interstitial                :    4.404295780    
 muffin-tins (core leakage)
  species :    1 (Zr)
   atom    1                 :    37.79785211     (  0.6013160469E-05)
   atom    2                 :    37.79785211     (  0.6013160469E-05)
 total in muffin-tins        :    75.59570422    
 total calculated charge     :    79.99994649    
 total charge                :    80.00000000    
 error                       :   0.5350771241E-04
 
Wrote STATE.OUT
 
RMS change in Kohn-Sham potential (target) :   0.1066373519E-03 (   10.00000000    )
Absolute change in total energy (target)   :   0.1265834726E-06 (  0.1000000000E-07)
 
Time (CPU seconds) :      1491.58
 
+--------------------+
| Loop number :   25 |
+--------------------+
 
Energies :
 Fermi                       :     0.441972642013    
 sum of eigenvalues          :     -4258.52019520    
 electron kinetic            :      7450.06142038    
 core electron kinetic       :      7311.62913188    
 Coulomb                     :     -14419.5337015    
 Coulomb potential           :     -11401.6803859    
 nuclear-nuclear             :     -726.665809676    
 electron-nuclear            :     -15984.0553976    
 Hartree                     :      2291.18750586    
 Madelung                    :     -8718.69350850    
 xc potential                :     -306.901229655    
 exchange                    :     -227.139859151    
 correlation                 :     -4.12535394655    
 total energy                :     -7200.73749418    
 
Density of states at Fermi energy :    69.91039120    
 (states/Hartree/unit cell)
 
Estimated indirect band gap :   0.1246624758E-03
 from k-point    297 to k-point    264
Estimated direct band gap   :   0.2061634354E-02
 at k-point    265
 
Charges :
 core                        :    56.00000000    
 valence                     :    24.00000000    
 interstitial                :    4.404295781    
 muffin-tins (core leakage)
  species :    1 (Zr)
   atom    1                 :    37.79785211     (  0.6013279926E-05)
   atom    2                 :    37.79785211     (  0.6013279926E-05)
 total in muffin-tins        :    75.59570422    
 total calculated charge     :    79.99994649    
 total charge                :    80.00000000    
 error                       :   0.5350797527E-04
 
RMS change in Kohn-Sham potential (target) :   0.9592231568E-04 (   10.00000000    )
Absolute change in total energy (target)   :   0.1421622073E-06 (  0.1000000000E-07)
 
Time (CPU seconds) :      1555.35
 
+--------------------+
| Loop number :   26 |
+--------------------+
 
Energies :
 Fermi                       :     0.441972637530    
 sum of eigenvalues          :     -4258.52019550    
 electron kinetic            :      7450.06142017    
 core electron kinetic       :      7311.62913183    
 Coulomb                     :     -14419.5337015    
 Coulomb potential           :     -11401.6803860    
 nuclear-nuclear             :     -726.665809676    
 electron-nuclear            :     -15984.0553976    
 Hartree                     :      2291.18750582    
 Madelung                    :     -8718.69350850    
 xc potential                :     -306.901229653    
 exchange                    :     -227.139859150    
 correlation                 :     -4.12535394705    
 total energy                :     -7200.73749443    
 
Density of states at Fermi energy :    69.91043803    
 (states/Hartree/unit cell)
 
Estimated indirect band gap :   0.1246618564E-03
 from k-point    297 to k-point    264
Estimated direct band gap   :   0.2061635763E-02
 at k-point    265
 
Charges :
 core                        :    56.00000000    
 valence                     :    24.00000000    
 interstitial                :    4.404295784    
 muffin-tins (core leakage)
  species :    1 (Zr)
   atom    1                 :    37.79785211     (  0.6013227111E-05)
   atom    2                 :    37.79785211     (  0.6013227111E-05)
 total in muffin-tins        :    75.59570422    
 total calculated charge     :    79.99994649    
 total charge                :    80.00000000    
 error                       :   0.5350786023E-04
 
Wrote STATE.OUT
 
RMS change in Kohn-Sham potential (target) :   0.4233830537E-04 (   10.00000000    )
Absolute change in total energy (target)   :   0.2858778316E-06 (  0.1000000000E-07)
 
Time (CPU seconds) :      1615.79
 
+--------------------+
| Loop number :   27 |
+--------------------+
 
Energies :
 Fermi                       :     0.441972634240    
 sum of eigenvalues          :     -4258.52019568    
 electron kinetic            :      7450.06141999    
 core electron kinetic       :      7311.62913180    
 Coulomb                     :     -14419.5337015    
 Coulomb potential           :     -11401.6803860    
 nuclear-nuclear             :     -726.665809676    
 electron-nuclear            :     -15984.0553976    
 Hartree                     :      2291.18750581    
 Madelung                    :     -8718.69350850    
 xc potential                :     -306.901229647    
 exchange                    :     -227.139859141    
 correlation                 :     -4.12535394863    
 total energy                :     -7200.73749461    
 
Density of states at Fermi energy :    69.91047483    
 (states/Hartree/unit cell)
 
Estimated indirect band gap :   0.1246613308E-03
 from k-point    297 to k-point    264
Estimated direct band gap   :   0.2061636866E-02
 at k-point    265
 
Charges :
 core                        :    56.00000000    
 valence                     :    24.00000000    
 interstitial                :    4.404295787    
 muffin-tins (core leakage)
  species :    1 (Zr)
   atom    1                 :    37.79785211     (  0.6013185001E-05)
   atom    2                 :    37.79785211     (  0.6013185001E-05)
 total in muffin-tins        :    75.59570421    
 total calculated charge     :    79.99994649    
 total charge                :    80.00000000    
 error                       :   0.5350770110E-04
 
RMS change in Kohn-Sham potential (target) :   0.6462354506E-04 (   10.00000000    )
Absolute change in total energy (target)   :   0.2537208275E-06 (  0.1000000000E-07)
 
Time (CPU seconds) :      1675.40
 
+--------------------+
| Loop number :   28 |
+--------------------+
 
Energies :
 Fermi                       :     0.441972630824    
 sum of eigenvalues          :     -4258.52019594    
 electron kinetic            :      7450.06141987    
 core electron kinetic       :      7311.62913182    
 Coulomb                     :     -14419.5337016    
 Coulomb potential           :     -11401.6803862    
 nuclear-nuclear             :     -726.665809676    
 electron-nuclear            :     -15984.0553976    
 Hartree                     :      2291.18750574    
 Madelung                    :     -8718.69350850    
 xc potential                :     -306.901229649    
 exchange                    :     -227.139859140    
 correlation                 :     -4.12535394934    
 total energy                :     -7200.73749480    
 
Density of states at Fermi energy :    69.91050267    
 (states/Hartree/unit cell)
 
Estimated indirect band gap :   0.1246610749E-03
 from k-point    297 to k-point    264
Estimated direct band gap   :   0.2061637618E-02
 at k-point    265
 
Charges :
 core                        :    56.00000000    
 valence                     :    24.00000000    
 interstitial                :    4.404295789    
 muffin-tins (core leakage)
  species :    1 (Zr)
   atom    1                 :    37.79785211     (  0.6013259256E-05)
   atom    2                 :    37.79785211     (  0.6013259256E-05)
 total in muffin-tins        :    75.59570421    
 total calculated charge     :    79.99994649    
 total charge                :    80.00000000    
 error                       :   0.5350783063E-04
 
Wrote STATE.OUT
 
RMS change in Kohn-Sham potential (target) :   0.2454871531E-03 (   10.00000000    )
Absolute change in total energy (target)   :   0.2465030775E-06 (  0.1000000000E-07)
 
Time (CPU seconds) :      1736.59
 
+--------------------+
| Loop number :   29 |
+--------------------+
 
Energies :
 Fermi                       :     0.441972628557    
 sum of eigenvalues          :     -4258.52019609    
 electron kinetic            :      7450.06141968    
 core electron kinetic       :      7311.62913176    
 Coulomb                     :     -14419.5337016    
 Coulomb potential           :     -11401.6803861    
 nuclear-nuclear             :     -726.665809676    
 electron-nuclear            :     -15984.0553976    
 Hartree                     :      2291.18750576    
 Madelung                    :     -8718.69350850    
 xc potential                :     -306.901229647    
 exchange                    :     -227.139859139    
 correlation                 :     -4.12535394940    
 total energy                :     -7200.73749497    
 
Density of states at Fermi energy :    69.91052308    
 (states/Hartree/unit cell)
 
Estimated indirect band gap :   0.1246608549E-03
 from k-point    297 to k-point    264
Estimated direct band gap   :   0.2061638192E-02
 at k-point    265
 
Charges :
 core                        :    56.00000000    
 valence                     :    24.00000000    
 interstitial                :    4.404295791    
 muffin-tins (core leakage)
  species :    1 (Zr)
   atom    1                 :    37.79785210     (  0.6013192074E-05)
   atom    2                 :    37.79785210     (  0.6013192074E-05)
 total in muffin-tins        :    75.59570421    
 total calculated charge     :    79.99994649    
 total charge                :    80.00000000    
 error                       :   0.5350770209E-04
 
RMS change in Kohn-Sham potential (target) :   0.3352307203E-03 (   10.00000000    )
Absolute change in total energy (target)   :   0.2364249667E-06 (  0.1000000000E-07)
 
Time (CPU seconds) :      1798.92
 
+--------------------+
| Loop number :   30 |
+--------------------+
 
Energies :
 Fermi                       :     0.441972626901    
 sum of eigenvalues          :     -4258.52019623    
 electron kinetic            :      7450.06141963    
 core electron kinetic       :      7311.62913176    
 Coulomb                     :     -14419.5337016    
 Coulomb potential           :     -11401.6803862    
 nuclear-nuclear             :     -726.665809676    
 electron-nuclear            :     -15984.0553976    
 Hartree                     :      2291.18750572    
 Madelung                    :     -8718.69350850    
 xc potential                :     -306.901229650    
 exchange                    :     -227.139859140    
 correlation                 :     -4.12535394993    
 total energy                :     -7200.73749506    
 
Density of states at Fermi energy :    69.91053141    
 (states/Hartree/unit cell)
 
Estimated indirect band gap :   0.1246608583E-03
 from k-point    297 to k-point    264
Estimated direct band gap   :   0.2061638334E-02
 at k-point    265
 
Charges :
 core                        :    56.00000000    
 valence                     :    24.00000000    
 interstitial                :    4.404295791    
 muffin-tins (core leakage)
  species :    1 (Zr)
   atom    1                 :    37.79785210     (  0.6013063675E-05)
   atom    2                 :    37.79785210     (  0.6013063675E-05)
 total in muffin-tins        :    75.59570421    
 total calculated charge     :    79.99994649    
 total charge                :    80.00000000    
 error                       :   0.5350747854E-04
 
Wrote STATE.OUT
 
RMS change in Kohn-Sham potential (target) :   0.1211269700E-03 (   10.00000000    )
Absolute change in total energy (target)   :   0.1524176696E-06 (  0.1000000000E-07)
 
Time (CPU seconds) :      1860.96
 
+--------------------+
| Loop number :   31 |
+--------------------+
 
Energies :
 Fermi                       :     0.441972626388    
 sum of eigenvalues          :     -4258.52019626    
 electron kinetic            :      7450.06141949    
 core electron kinetic       :      7311.62913166    
 Coulomb                     :     -14419.5337016    
 Coulomb potential           :     -11401.6803861    
 nuclear-nuclear             :     -726.665809676    
 electron-nuclear            :     -15984.0553976    
 Hartree                     :      2291.18750577    
 Madelung                    :     -8718.69350850    
 xc potential                :     -306.901229646    
 exchange                    :     -227.139859136    
 correlation                 :     -4.12535395016    
 total energy                :     -7200.73749515    
 
Density of states at Fermi energy :    69.91053418    
 (states/Hartree/unit cell)
 
Estimated indirect band gap :   0.1246608490E-03
 from k-point    297 to k-point    264
Estimated direct band gap   :   0.2061638393E-02
 at k-point    265
 
Charges :
 core                        :    56.00000000    
 valence                     :    24.00000000    
 interstitial                :    4.404295792    
 muffin-tins (core leakage)
  species :    1 (Zr)
   atom    1                 :    37.79785210     (  0.6013191694E-05)
   atom    2                 :    37.79785210     (  0.6013191694E-05)
 total in muffin-tins        :    75.59570421    
 total calculated charge     :    79.99994649    
 total charge                :    80.00000000    
 error                       :   0.5350774089E-04
 
RMS change in Kohn-Sham potential (target) :   0.9446349803E-04 (   10.00000000    )
Absolute change in total energy (target)   :   0.1191519914E-06 (  0.1000000000E-07)
 
Time (CPU seconds) :      1922.56
 
+--------------------+
| Loop number :   32 |
+--------------------+
 
Energies :
 Fermi                       :     0.441972625249    
 sum of eigenvalues          :     -4258.52019635    
 electron kinetic            :      7450.06141957    
 core electron kinetic       :      7311.62913179    
 Coulomb                     :     -14419.5337016    
 Coulomb potential           :     -11401.6803863    
 nuclear-nuclear             :     -726.665809676    
 electron-nuclear            :     -15984.0553976    
 Hartree                     :      2291.18750569    
 Madelung                    :     -8718.69350850    
 xc potential                :     -306.901229651    
 exchange                    :     -227.139859145    
 correlation                 :     -4.12535394887    
 total energy                :     -7200.73749516    
 
Density of states at Fermi energy :    69.91054246    
 (states/Hartree/unit cell)
 
Estimated indirect band gap :   0.1246607803E-03
 from k-point    297 to k-point    264
Estimated direct band gap   :   0.2061638600E-02
 at k-point    265
 
Charges :
 core                        :    56.00000000    
 valence                     :    24.00000000    
 interstitial                :    4.404295792    
 muffin-tins (core leakage)
  species :    1 (Zr)
   atom    1                 :    37.79785210     (  0.6013117297E-05)
   atom    2                 :    37.79785210     (  0.6013117297E-05)
 total in muffin-tins        :    75.59570421    
 total calculated charge     :    79.99994649    
 total charge                :    80.00000000    
 error                       :   0.5350755626E-04
 
Wrote STATE.OUT
 
RMS change in Kohn-Sham potential (target) :   0.1002337603E-03 (   10.00000000    )
Absolute change in total energy (target)   :   0.4251342034E-07 (  0.1000000000E-07)
 
Time (CPU seconds) :      1984.72
 
+--------------------+
| Loop number :   33 |
+--------------------+
 
Energies :
 Fermi                       :     0.441972625182    
 sum of eigenvalues          :     -4258.52019635    
 electron kinetic            :      7450.06141940    
 core electron kinetic       :      7311.62913157    
 Coulomb                     :     -14419.5337015    
 Coulomb potential           :     -11401.6803861    
 nuclear-nuclear             :     -726.665809676    
 electron-nuclear            :     -15984.0553976    
 Hartree                     :      2291.18750577    
 Madelung                    :     -8718.69350850    
 xc potential                :     -306.901229646    
 exchange                    :     -227.139859137    
 correlation                 :     -4.12535394973    
 total energy                :     -7200.73749524    
 
Density of states at Fermi energy :    69.91054110    
 (states/Hartree/unit cell)
 
Estimated indirect band gap :   0.1246608120E-03
 from k-point    297 to k-point    264
Estimated direct band gap   :   0.2061638550E-02
 at k-point    265
 
Charges :
 core                        :    56.00000000    
 valence                     :    24.00000000    
 interstitial                :    4.404295792    
 muffin-tins (core leakage)
  species :    1 (Zr)
   atom    1                 :    37.79785210     (  0.6013190060E-05)
   atom    2                 :    37.79785210     (  0.6013190060E-05)
 total in muffin-tins        :    75.59570421    
 total calculated charge     :    79.99994649    
 total charge                :    80.00000000    
 error                       :   0.5350772767E-04
 
RMS change in Kohn-Sham potential (target) :   0.3966473929E-04 (   10.00000000    )
Absolute change in total energy (target)   :   0.8881033864E-07 (  0.1000000000E-07)
 
Time (CPU seconds) :      2046.11
 
+--------------------+
| Loop number :   34 |
+--------------------+
 
Energies :
 Fermi                       :     0.441972625241    
 sum of eigenvalues          :     -4258.52019635    
 electron kinetic            :      7450.06141938    
 core electron kinetic       :      7311.62913155    
 Coulomb                     :     -14419.5337015    
 Coulomb potential           :     -11401.6803861    
 nuclear-nuclear             :     -726.665809676    
 electron-nuclear            :     -15984.0553976    
 Hartree                     :      2291.18750578    
 Madelung                    :     -8718.69350850    
 xc potential                :     -306.901229647    
 exchange                    :     -227.139859136    
 correlation                 :     -4.12535395009    
 total energy                :     -7200.73749524    
 
Density of states at Fermi energy :    69.91053993    
 (states/Hartree/unit cell)
 
Estimated indirect band gap :   0.1246608258E-03
 from k-point    297 to k-point    264
Estimated direct band gap   :   0.2061638514E-02
 at k-point    265
 
Charges :
 core                        :    56.00000000    
 valence                     :    24.00000000    
 interstitial                :    4.404295792    
 muffin-tins (core leakage)
  species :    1 (Zr)
   atom    1                 :    37.79785210     (  0.6013181110E-05)
   atom    2                 :    37.79785210     (  0.6013181110E-05)
 total in muffin-tins        :    75.59570421    
 total calculated charge     :    79.99994649    
 total charge                :    80.00000000    
 error                       :   0.5350767844E-04
 
Wrote STATE.OUT
 
RMS change in Kohn-Sham potential (target) :   0.1034251024E-02 (   10.00000000    )
Absolute change in total energy (target)   :   0.2979140845E-07 (  0.1000000000E-07)
 
Time (CPU seconds) :      2107.72
 
+--------------------+
| Loop number :   35 |
+--------------------+
 
Energies :
 Fermi                       :     0.441972625762    
 sum of eigenvalues          :     -4258.52019632    
 electron kinetic            :      7450.06141945    
 core electron kinetic       :      7311.62913162    
 Coulomb                     :     -14419.5337016    
 Coulomb potential           :     -11401.6803861    
 nuclear-nuclear             :     -726.665809676    
 electron-nuclear            :     -15984.0553976    
 Hartree                     :      2291.18750576    
 Madelung                    :     -8718.69350850    
 xc potential                :     -306.901229650    
 exchange                    :     -227.139859140    
 correlation                 :     -4.12535394952    
 total energy                :     -7200.73749520    
 
Density of states at Fermi energy :    69.91053725    
 (states/Hartree/unit cell)
 
Estimated indirect band gap :   0.1246608290E-03
 from k-point    297 to k-point    264
Estimated direct band gap   :   0.2061638463E-02
 at k-point    265
 
Charges :
 core                        :    56.00000000    
 valence                     :    24.00000000    
 interstitial                :    4.404295792    
 muffin-tins (core leakage)
  species :    1 (Zr)
   atom    1                 :    37.79785210     (  0.6013120316E-05)
   atom    2                 :    37.79785210     (  0.6013120316E-05)
 total in muffin-tins        :    75.59570421    
 total calculated charge     :    79.99994649    
 total charge                :    80.00000000    
 error                       :   0.5350753779E-04
 
RMS change in Kohn-Sham potential (target) :   0.4001393363E-04 (   10.00000000    )
Absolute change in total energy (target)   :   0.3712375474E-07 (  0.1000000000E-07)
 
Time (CPU seconds) :      2170.00
 
+--------------------+
| Loop number :   36 |
+--------------------+
 
Energies :
 Fermi                       :     0.441972625772    
 sum of eigenvalues          :     -4258.52019630    
 electron kinetic            :      7450.06141954    
 core electron kinetic       :      7311.62913168    
 Coulomb                     :     -14419.5337016    
 Coulomb potential           :     -11401.6803862    
 nuclear-nuclear             :     -726.665809676    
 electron-nuclear            :     -15984.0553976    
 Hartree                     :      2291.18750573    
 Madelung                    :     -8718.69350850    
 xc potential                :     -306.901229647    
 exchange                    :     -227.139859138    
 correlation                 :     -4.12535394986    
 total energy                :     -7200.73749514    
 
Density of states at Fermi energy :    69.91053690    
 (states/Hartree/unit cell)
 
Estimated indirect band gap :   0.1246608384E-03
 from k-point    297 to k-point    264
Estimated direct band gap   :   0.2061638449E-02
 at k-point    265
 
Charges :
 core                        :    56.00000000    
 valence                     :    24.00000000    
 interstitial                :    4.404295792    
 muffin-tins (core leakage)
  species :    1 (Zr)
   atom    1                 :    37.79785210     (  0.6013267864E-05)
   atom    2                 :    37.79785210     (  0.6013267864E-05)
 total in muffin-tins        :    75.59570421    
 total calculated charge     :    79.99994649    
 total charge                :    80.00000000    
 error                       :   0.5350788261E-04
 
Wrote STATE.OUT
 
RMS change in Kohn-Sham potential (target) :   0.4685464700E-04 (   10.00000000    )
Absolute change in total energy (target)   :   0.6827303878E-07 (  0.1000000000E-07)
 
Time (CPU seconds) :      2231.87
 
+--------------------+
| Loop number :   37 |
+--------------------+
 
Energies :
 Fermi                       :     0.441972625572    
 sum of eigenvalues          :     -4258.52019632    
 electron kinetic            :      7450.06141945    
 core electron kinetic       :      7311.62913166    
 Coulomb                     :     -14419.5337016    
 Coulomb potential           :     -11401.6803861    
 nuclear-nuclear             :     -726.665809676    
 electron-nuclear            :     -15984.0553976    
 Hartree                     :      2291.18750576    
 Madelung                    :     -8718.69350850    
 xc potential                :     -306.901229647    
 exchange                    :     -227.139859138    
 correlation                 :     -4.12535394985    
 total energy                :     -7200.73749520    
 
Density of states at Fermi energy :    69.91053787    
 (states/Hartree/unit cell)
 
Estimated indirect band gap :   0.1246608349E-03
 from k-point    297 to k-point    264
Estimated direct band gap   :   0.2061638468E-02
 at k-point    265
 
Charges :
 core                        :    56.00000000    
 valence                     :    24.00000000    
 interstitial                :    4.404295792    
 muffin-tins (core leakage)
  species :    1 (Zr)
   atom    1                 :    37.79785210     (  0.6013226393E-05)
   atom    2                 :    37.79785210     (  0.6013226393E-05)
 total in muffin-tins        :    75.59570421    
 total calculated charge     :    79.99994649    
 total charge                :    80.00000000    
 error                       :   0.5350780179E-04
 
RMS change in Kohn-Sham potential (target) :   0.2041471524E-02 (   10.00000000    )
Absolute change in total energy (target)   :   0.4101275408E-07 (  0.1000000000E-07)
 
Time (CPU seconds) :      2292.06
 
+--------------------+
| Loop number :   38 |
+--------------------+
 
Energies :
 Fermi                       :     0.441972625006    
 sum of eigenvalues          :     -4258.52019638    
 electron kinetic            :      7450.06141948    
 core electron kinetic       :      7311.62913169    
 Coulomb                     :     -14419.5337016    
 Coulomb potential           :     -11401.6803862    
 nuclear-nuclear             :     -726.665809676    
 electron-nuclear            :     -15984.0553976    
 Hartree                     :      2291.18750572    
 Madelung                    :     -8718.69350850    
 xc potential                :     -306.901229648    
 exchange                    :     -227.139859140    
 correlation                 :     -4.12535394964    
 total energy                :     -7200.73749522    
 
Density of states at Fermi energy :    69.91053643    
 (states/Hartree/unit cell)
 
Estimated indirect band gap :   0.1246608750E-03
 from k-point    297 to k-point    264
Estimated direct band gap   :   0.2061638415E-02
 at k-point    265
 
Charges :
 core                        :    56.00000000    
 valence                     :    24.00000000    
 interstitial                :    4.404295792    
 muffin-tins (core leakage)
  species :    1 (Zr)
   atom    1                 :    37.79785210     (  0.6013197456E-05)
   atom    2                 :    37.79785210     (  0.6013197456E-05)
 total in muffin-tins        :    75.59570421    
 total calculated charge     :    79.99994649    
 total charge                :    80.00000000    
 error                       :   0.5350771542E-04
 
Wrote STATE.OUT
 
RMS change in Kohn-Sham potential (target) :   0.8090537805E-04 (   10.00000000    )
Absolute change in total energy (target)   :   0.2865181159E-07 (  0.1000000000E-07)
 
Time (CPU seconds) :      2354.49
 
+--------------------+
| Loop number :   39 |
+--------------------+
 
Energies :
 Fermi                       :     0.441972625077    
 sum of eigenvalues          :     -4258.52019635    
 electron kinetic            :      7450.06141949    
 core electron kinetic       :      7311.62913168    
 Coulomb                     :     -14419.5337016    
 Coulomb potential           :     -11401.6803862    
 nuclear-nuclear             :     -726.665809676    
 electron-nuclear            :     -15984.0553976    
 Hartree                     :      2291.18750573    
 Madelung                    :     -8718.69350850    
 xc potential                :     -306.901229647    
 exchange                    :     -227.139859140    
 correlation                 :     -4.12535394947    
 total energy                :     -7200.73749520    
 
Density of states at Fermi energy :    69.91053803    
 (states/Hartree/unit cell)
 
Estimated indirect band gap :   0.1246608469E-03
 from k-point    297 to k-point    264
Estimated direct band gap   :   0.2061638464E-02
 at k-point    265
 
Charges :
 core                        :    56.00000000    
 valence                     :    24.00000000    
 interstitial                :    4.404295792    
 muffin-tins (core leakage)
  species :    1 (Zr)
   atom    1                 :    37.79785210     (  0.6013149726E-05)
   atom    2                 :    37.79785210     (  0.6013149726E-05)
 total in muffin-tins        :    75.59570421    
 total calculated charge     :    79.99994649    
 total charge                :    80.00000000    
 error                       :   0.5350758966E-04
 
RMS change in Kohn-Sham potential (target) :   0.2245245907E-03 (   10.00000000    )
Absolute change in total energy (target)   :   0.1432908903E-07 (  0.1000000000E-07)
 
Time (CPU seconds) :      2416.31
 
+--------------------+
| Loop number :   40 |
+--------------------+
 
Energies :
 Fermi                       :     0.441972625072    
 sum of eigenvalues          :     -4258.52019635    
 electron kinetic            :      7450.06141942    
 core electron kinetic       :      7311.62913160    
 Coulomb                     :     -14419.5337016    
 Coulomb potential           :     -11401.6803861    
 nuclear-nuclear             :     -726.665809676    
 electron-nuclear            :     -15984.0553976    
 Hartree                     :      2291.18750576    
 Madelung                    :     -8718.69350850    
 xc potential                :     -306.901229646    
 exchange                    :     -227.139859137    
 correlation                 :     -4.12535394986    
 total energy                :     -7200.73749523    
 
Density of states at Fermi energy :    69.91053869    
 (states/Hartree/unit cell)
 
Estimated indirect band gap :   0.1246608389E-03
 from k-point    297 to k-point    264
Estimated direct band gap   :   0.2061638481E-02
 at k-point    265
 
Charges :
 core                        :    56.00000000    
 valence                     :    24.00000000    
 interstitial                :    4.404295792    
 muffin-tins (core leakage)
  species :    1 (Zr)
   atom    1                 :    37.79785210     (  0.6013214094E-05)
   atom    2                 :    37.79785210     (  0.6013214094E-05)
 total in muffin-tins        :    75.59570421    
 total calculated charge     :    79.99994649    
 total charge                :    80.00000000    
 error                       :   0.5350775149E-04
 
Wrote STATE.OUT
 
RMS change in Kohn-Sham potential (target) :   0.9179764791E-04 (   10.00000000    )
Absolute change in total energy (target)   :   0.3067179932E-07 (  0.1000000000E-07)
 
Time (CPU seconds) :      2477.79
 
+--------------------+
| Loop number :   41 |
+--------------------+
 
Energies :
 Fermi                       :     0.441972625089    
 sum of eigenvalues          :     -4258.52019635    
 electron kinetic            :      7450.06141937    
 core electron kinetic       :      7311.62913157    
 Coulomb                     :     -14419.5337015    
 Coulomb potential           :     -11401.6803861    
 nuclear-nuclear             :     -726.665809676    
 electron-nuclear            :     -15984.0553976    
 Hartree                     :      2291.18750578    
 Madelung                    :     -8718.69350850    
 xc potential                :     -306.901229647    
 exchange                    :     -227.139859137    
 correlation                 :     -4.12535395008    
 total energy                :     -7200.73749525    
 
Density of states at Fermi energy :    69.91053891    
 (states/Hartree/unit cell)
 
Estimated indirect band gap :   0.1246608351E-03
 from k-point    297 to k-point    264
Estimated direct band gap   :   0.2061638488E-02
 at k-point    265
 
Charges :
 core                        :    56.00000000    
 valence                     :    24.00000000    
 interstitial                :    4.404295792    
 muffin-tins (core leakage)
  species :    1 (Zr)
   atom    1                 :    37.79785210     (  0.6013102333E-05)
   atom    2                 :    37.79785210     (  0.6013102333E-05)
 total in muffin-tins        :    75.59570421    
 total calculated charge     :    79.99994649    
 total charge                :    80.00000000    
 error                       :   0.5350759426E-04
 
RMS change in Kohn-Sham potential (target) :   0.3714694679E-04 (   10.00000000    )
Absolute change in total energy (target)   :   0.3244531399E-07 (  0.1000000000E-07)
 
Time (CPU seconds) :      2539.33
 
+--------------------+
| Loop number :   42 |
+--------------------+
 
Energies :
 Fermi                       :     0.441972625102    
 sum of eigenvalues          :     -4258.52019635    
 electron kinetic            :      7450.06141955    
 core electron kinetic       :      7311.62913176    
 Coulomb                     :     -14419.5337016    
 Coulomb potential           :     -11401.6803863    
 nuclear-nuclear             :     -726.665809676    
 electron-nuclear            :     -15984.0553976    
 Hartree                     :      2291.18750569    
 Madelung                    :     -8718.69350850    
 xc potential                :     -306.901229649    
 exchange                    :     -227.139859140    
 correlation                 :     -4.12535394986    
 total energy                :     -7200.73749516    
 
Density of states at Fermi energy :    69.91053892    
 (states/Hartree/unit cell)
 
Estimated indirect band gap :   0.1246608368E-03
 from k-point    297 to k-point    264
Estimated direct band gap   :   0.2061638486E-02
 at k-point    265
 
Charges :
 core                        :    56.00000000    
 valence                     :    24.00000000    
 interstitial                :    4.404295792    
 muffin-tins (core leakage)
  species :    1 (Zr)
   atom    1                 :    37.79785210     (  0.6013161375E-05)
   atom    2                 :    37.79785210     (  0.6013161375E-05)
 total in muffin-tins        :    75.59570421    
 total calculated charge     :    79.99994649    
 total charge                :    80.00000000    
 error                       :   0.5350768900E-04
 
Wrote STATE.OUT
 
RMS change in Kohn-Sham potential (target) :   0.1579171441E-04 (   10.00000000    )
Absolute change in total energy (target)   :   0.8383995009E-07 (  0.1000000000E-07)
 
Time (CPU seconds) :      2601.33
 
+--------------------+
| Loop number :   43 |
+--------------------+
 
Energies :
 Fermi                       :     0.441972625114    
 sum of eigenvalues          :     -4258.52019636    
 electron kinetic            :      7450.06141939    
 core electron kinetic       :      7311.62913158    
 Coulomb                     :     -14419.5337015    
 Coulomb potential           :     -11401.6803861    
 nuclear-nuclear             :     -726.665809676    
 electron-nuclear            :     -15984.0553976    
 Hartree                     :      2291.18750577    
 Madelung                    :     -8718.69350850    
 xc potential                :     -306.901229647    
 exchange                    :     -227.139859137    
 correlation                 :     -4.12535395001    
 total energy                :     -7200.73749525    
 
Density of states at Fermi energy :    69.91053903    
 (states/Hartree/unit cell)
 
Estimated indirect band gap :   0.1246608362E-03
 from k-point    297 to k-point    264
Estimated direct band gap   :   0.2061638487E-02
 at k-point    265
 
Charges :
 core                        :    56.00000000    
 valence                     :    24.00000000    
 interstitial                :    4.404295792    
 muffin-tins (core leakage)
  species :    1 (Zr)
   atom    1                 :    37.79785210     (  0.6013222531E-05)
   atom    2                 :    37.79785210     (  0.6013222531E-05)
 total in muffin-tins        :    75.59570421    
 total calculated charge     :    79.99994649    
 total charge                :    80.00000000    
 error                       :   0.5350783536E-04
 
RMS change in Kohn-Sham potential (target) :   0.4286986034E-03 (   10.00000000    )
Absolute change in total energy (target)   :   0.6457139534E-07 (  0.1000000000E-07)
 
Time (CPU seconds) :      2663.01
 
+--------------------+
| Loop number :   44 |
+--------------------+
 
Energies :
 Fermi                       :     0.441972625093    
 sum of eigenvalues          :     -4258.52019637    
 electron kinetic            :      7450.06141935    
 core electron kinetic       :      7311.62913156    
 Coulomb                     :     -14419.5337015    
 Coulomb potential           :     -11401.6803861    
 nuclear-nuclear             :     -726.665809676    
 electron-nuclear            :     -15984.0553976    
 Hartree                     :      2291.18750579    
 Madelung                    :     -8718.69350850    
 xc potential                :     -306.901229647    
 exchange                    :     -227.139859137    
 correlation                 :     -4.12535395029    
 total energy                :     -7200.73749527    
 
Density of states at Fermi energy :    69.91053881    
 (states/Hartree/unit cell)
 
Estimated indirect band gap :   0.1246608367E-03
 from k-point    297 to k-point    264
Estimated direct band gap   :   0.2061638483E-02
 at k-point    265
 
Charges :
 core                        :    56.00000000    
 valence                     :    24.00000000    
 interstitial                :    4.404295792    
 muffin-tins (core leakage)
  species :    1 (Zr)
   atom    1                 :    37.79785210     (  0.6013085759E-05)
   atom    2                 :    37.79785210     (  0.6013085759E-05)
 total in muffin-tins        :    75.59570421    
 total calculated charge     :    79.99994649    
 total charge                :    80.00000000    
 error                       :   0.5350755909E-04
 
Wrote STATE.OUT
 
RMS change in Kohn-Sham potential (target) :   0.3221681377E-04 (   10.00000000    )
Absolute change in total energy (target)   :   0.3856439434E-07 (  0.1000000000E-07)
 
Time (CPU seconds) :      2723.88
 
+--------------------+
| Loop number :   45 |
+--------------------+
 
Energies :
 Fermi                       :     0.441972625137    
 sum of eigenvalues          :     -4258.52019636    
 electron kinetic            :      7450.06141949    
 core electron kinetic       :      7311.62913169    
 Coulomb                     :     -14419.5337016    
 Coulomb potential           :     -11401.6803862    
 nuclear-nuclear             :     -726.665809676    
 electron-nuclear            :     -15984.0553976    
 Hartree                     :      2291.18750572    
 Madelung                    :     -8718.69350850    
 xc potential                :     -306.901229648    
 exchange                    :     -227.139859139    
 correlation                 :     -4.12535394978    
 total energy                :     -7200.73749519    
 
Density of states at Fermi energy :    69.91053884    
 (states/Hartree/unit cell)
 
Estimated indirect band gap :   0.1246608384E-03
 from k-point    297 to k-point    264
Estimated direct band gap   :   0.2061638481E-02
 at k-point    265
 
Charges :
 core                        :    56.00000000    
 valence                     :    24.00000000    
 interstitial                :    4.404295792    
 muffin-tins (core leakage)
  species :    1 (Zr)
   atom    1                 :    37.79785210     (  0.6013222126E-05)
   atom    2                 :    37.79785210     (  0.6013222126E-05)
 total in muffin-tins        :    75.59570421    
 total calculated charge     :    79.99994649    
 total charge                :    80.00000000    
 error                       :   0.5350782180E-04
 
RMS change in Kohn-Sham potential (target) :   0.3307788958E-03 (   10.00000000    )
Absolute change in total energy (target)   :   0.6577920431E-07 (  0.1000000000E-07)
 
Time (CPU seconds) :      2784.87
 
+--------------------+
| Loop number :   46 |
+--------------------+
 
Energies :
 Fermi                       :     0.441972625128    
 sum of eigenvalues          :     -4258.52019636    
 electron kinetic            :      7450.06141935    
 core electron kinetic       :      7311.62913155    
 Coulomb                     :     -14419.5337015    
 Coulomb potential           :     -11401.6803861    
 nuclear-nuclear             :     -726.665809676    
 electron-nuclear            :     -15984.0553976    
 Hartree                     :      2291.18750579    
 Madelung                    :     -8718.69350850    
 xc potential                :     -306.901229646    
 exchange                    :     -227.139859136    
 correlation                 :     -4.12535395003    
 total energy                :     -7200.73749527    
 
Density of states at Fermi energy :    69.91053901    
 (states/Hartree/unit cell)
 
Estimated indirect band gap :   0.1246608372E-03
 from k-point    297 to k-point    264
Estimated direct band gap   :   0.2061638484E-02
 at k-point    265
 
Charges :
 core                        :    56.00000000    
 valence                     :    24.00000000    
 interstitial                :    4.404295792    
 muffin-tins (core leakage)
  species :    1 (Zr)
   atom    1                 :    37.79785210     (  0.6013235542E-05)
   atom    2                 :    37.79785210     (  0.6013235542E-05)
 total in muffin-tins        :    75.59570421    
 total calculated charge     :    79.99994649    
 total charge                :    80.00000000    
 error                       :   0.5350779752E-04
 
Wrote STATE.OUT
 
RMS change in Kohn-Sham potential (target) :   0.1764970371E-03 (   10.00000000    )
Absolute change in total energy (target)   :   0.5695983418E-07 (  0.1000000000E-07)
 
Time (CPU seconds) :      2846.05
 
+--------------------+
| Loop number :   47 |
+--------------------+
 
Energies :
 Fermi                       :     0.441972625134    
 sum of eigenvalues          :     -4258.52019637    
 electron kinetic            :      7450.06141938    
 core electron kinetic       :      7311.62913158    
 Coulomb                     :     -14419.5337015    
 Coulomb potential           :     -11401.6803861    
 nuclear-nuclear             :     -726.665809676    
 electron-nuclear            :     -15984.0553976    
 Hartree                     :      2291.18750577    
 Madelung                    :     -8718.69350850    
 xc potential                :     -306.901229648    
 exchange                    :     -227.139859137    
 correlation                 :     -4.12535395005    
 total energy                :     -7200.73749526    
 
Density of states at Fermi energy :    69.91053911    
 (states/Hartree/unit cell)
 
Estimated indirect band gap :   0.1246608365E-03
 from k-point    297 to k-point    264
Estimated direct band gap   :   0.2061638486E-02
 at k-point    265
 
Charges :
 core                        :    56.00000000    
 valence                     :    24.00000000    
 interstitial                :    4.404295792    
 muffin-tins (core leakage)
  species :    1 (Zr)
   atom    1                 :    37.79785210     (  0.6013176510E-05)
   atom    2                 :    37.79785210     (  0.6013176510E-05)
 total in muffin-tins        :    75.59570421    
 total calculated charge     :    79.99994649    
 total charge                :    80.00000000    
 error                       :   0.5350766207E-04
 
RMS change in Kohn-Sham potential (target) :   0.5638914583E-03 (   10.00000000    )
Absolute change in total energy (target)   :   0.2429260348E-08 (  0.1000000000E-07)
 
Convergence targets achieved
 
Time (CPU seconds) :      2908.41
 
+--------------------+
| Loop number :   48 |
+--------------------+
 
Energies :
 Fermi                       :     0.441972625125    
 sum of eigenvalues          :     -4258.52019635    
 electron kinetic            :      7450.06141960    
 core electron kinetic       :      7311.62913182    
 Coulomb                     :     -14419.5337016    
 Coulomb potential           :     -11401.6803863    
 nuclear-nuclear             :     -726.665809676    
 electron-nuclear            :     -15984.0553976    
 Hartree                     :      2291.18750567    
 Madelung                    :     -8718.69350850    
 xc potential                :     -306.901229651    
 exchange                    :     -227.139859146    
 correlation                 :     -4.12535394842    
 total energy                :     -7200.73749515    
 
Density of states at Fermi energy :    69.91053901    
 (states/Hartree/unit cell)
 
Estimated indirect band gap :   0.1246608373E-03
 from k-point    297 to k-point    264
Estimated direct band gap   :   0.2061638485E-02
 at k-point    265
 
Charges :
 core                        :    56.00000000    
 valence                     :    24.00000000    
 interstitial                :    4.404295792    
 muffin-tins (core leakage)
  species :    1 (Zr)
   atom    1                 :    37.79785210     (  0.6013180876E-05)
   atom    2                 :    37.79785210     (  0.6013180876E-05)
 total in muffin-tins        :    75.59570421    
 total calculated charge     :    79.99994649    
 total charge                :    80.00000000    
 error                       :   0.5350770090E-04
 
Wrote STATE.OUT
 
+------------------------------+
| Self-consistent loop stopped |
+------------------------------+
 
Wrote STATE.OUT
 
Timings (CPU seconds) :
 initialisation                        :         1.07
 Hamiltonian and overlap matrix set up :       854.71
 first-variational eigenvalue equation :      1098.09
 charge density calculation            :       301.81
 potential calculation                 :       713.74
 total                                 :      2969.42
 
+----------------------------+
| Elk version 8.3.15 stopped |
+----------------------------+
