    0.170328440608E-03
    0.162089618080E-03
    0.503632391068E-04
    0.151260128732E-03
    0.248001671444E-03
    0.228996859843E-03
    0.166052755576E-03
    0.155324016790E-03
    0.148742284511E-03
    0.149003330451E-03
    0.148423467054E-03
    0.148346837111E-03
    0.148520417578E-03
    0.148476454040E-03
    0.148485391175E-03
    0.148473288293E-03
    0.148456824286E-03
    0.148484149995E-03
    0.148471546267E-03
    0.148473447160E-03
    0.148462123136E-03
    0.148466854541E-03
    0.148471151796E-03
    0.148471672667E-03
    0.148469005741E-03
    0.148468629627E-03
    0.148467106199E-03
    0.148467116329E-03
    0.148466491374E-03
    0.148465876629E-03
    0.148464859149E-03
    0.148464670469E-03
    0.148464726221E-03
    0.148464067118E-03
    0.148464052701E-03
    0.148463331760E-03
    0.148463578102E-03
    0.148463640085E-03
    0.148463860459E-03
    0.148463951958E-03
    0.148463941495E-03
    0.148463957985E-03
    0.148463992108E-03
    0.148463982421E-03
    0.148464099541E-03
    0.148464054420E-03
    0.148464086671E-03
    0.148464091627E-03
    0.148464080421E-03
    0.148464074569E-03
    0.148464066117E-03
    0.148464051852E-03
    0.148464079635E-03
    0.148464072040E-03
    0.148464069643E-03
