 
+----------------------------+
| Real-space lattice vectors |
+----------------------------+
 
vector a1 :    5.929259521      -3.423259581       0.000000000    
vector a2 :    0.000000000       6.846519161       0.000000000    
vector a3 :    0.000000000       0.000000000       10.87241670    
 
Stored column-wise as a matrix :
   5.929259521       0.000000000       0.000000000    
  -3.423259581       6.846519161       0.000000000    
   0.000000000       0.000000000       10.87241670    
 
Inverse of matrix :
  0.1686551240       0.000000000       0.000000000    
  0.8432756202E-01  0.1460596219       0.000000000    
   0.000000000       0.000000000      0.9197587139E-01
 
Unit cell volume :    441.3634610    
 
 
+----------------------------------+
| Reciprocal-space lattice vectors |
+----------------------------------+
 
vector b1 :    1.059691397       0.000000000       0.000000000    
vector b2 :   0.5298456987      0.9177196703       0.000000000    
vector b3 :    0.000000000       0.000000000      0.5779014437    
 
Stored column-wise as a matrix :
   1.059691397      0.5298456987       0.000000000    
   0.000000000      0.9177196703       0.000000000    
   0.000000000       0.000000000      0.5779014437    
 
Inverse of matrix :
  0.9436709617     -0.5448286837       0.000000000    
   0.000000000       1.089657367       0.000000000    
   0.000000000       0.000000000       1.730398861    
 
Brillouin zone volume :   0.5620089458    
