 
Species :    1 (Ti), atom :    1
 n =  1, l =  0, k =  1 :   -178.7349303    
 n =  2, l =  0, k =  1 :   -19.15742281    
 n =  2, l =  1, k =  1 :   -15.88035474    
 n =  2, l =  1, k =  2 :   -15.66718056    
 
Species :    1 (Ti), atom :    2
 n =  1, l =  0, k =  1 :   -178.7349303    
 n =  2, l =  0, k =  1 :   -19.15742281    
 n =  2, l =  1, k =  1 :   -15.88035474    
 n =  2, l =  1, k =  2 :   -15.66718056    
