    -6837.38786153    
    -6836.41519604    
    -6824.30217327    
    -6801.74803496    
    -6783.93608785    
    -6776.40898013    
    -6773.64245764    
    -6773.66244315    
    -6773.67017091    
    -6773.67215822    
    -6773.66846544    
    -6773.66826252    
    -6773.66822958    
    -6773.66821506    
    -6773.66786295    
    -6773.66826468    
    -6773.66823639    
    -6773.66830353    
    -6773.66826634    
    -6773.66829206    
    -6773.66824237    
    -6773.66825574    
    -6773.66825376    
    -6773.66825378    
    -6773.66825733    
    -6773.66825211    
    -6773.66824880    
    -6773.66824130    
    -6773.66824119    
    -6773.66824245    
    -6773.66824255    
    -6773.66824380    
    -6773.66824404    
    -6773.66824424    
    -6773.66824549    
    -6773.66824591    
    -6773.66824637    
    -6773.66824484    
    -6773.66824423    
    -6773.66824471    
    -6773.66824512    
    -6773.66824508    
    -6773.66824503    
    -6773.66824501    
    -6773.66824514    
    -6773.66824519    
    -6773.66824504    
    -6773.66824506    
    -6773.66824509    
    -6773.66824514    
    -6773.66824511    
    -6773.66824518    
    -6773.66824513    
    -6773.66824511    
    -6773.66824513    
    -6773.66824507    
    -6773.66824506    
    -6773.66824502    
    -6773.66824507    
    -6773.66824509    
    -6773.66824500    
    -6773.66824503    
    -6773.66824513    
