 
+----------------------------+
| Real-space lattice vectors |
+----------------------------+
 
vector a1 :    5.205687920      -3.005505322       0.000000000    
vector a2 :    0.000000000       6.011010643       0.000000000    
vector a3 :    0.000000000       0.000000000       9.914073658    
 
Stored column-wise as a matrix :
   5.205687920       0.000000000       0.000000000    
  -3.005505322       6.011010643       0.000000000    
   0.000000000       0.000000000       9.914073658    
 
Inverse of matrix :
  0.1920975701       0.000000000       0.000000000    
  0.9604878506E-01  0.1663613757       0.000000000    
   0.000000000       0.000000000      0.1008667107    
 
Unit cell volume :    310.2256954    
 
 
+----------------------------------+
| Reciprocal-space lattice vectors |
+----------------------------------+
 
vector b1 :    1.206984630       0.000000000       0.000000000    
vector b2 :   0.6034923151       1.045279352       0.000000000    
vector b3 :    0.000000000       0.000000000      0.6337642350    
 
Stored column-wise as a matrix :
   1.206984630      0.6034923151       0.000000000    
   0.000000000       1.045279352       0.000000000    
   0.000000000       0.000000000      0.6337642350    
 
Inverse of matrix :
  0.8285109646     -0.4783410285       0.000000000    
   0.000000000      0.9566820568       0.000000000    
   0.000000000       0.000000000       1.577873829    
 
Brillouin zone volume :   0.7995798449    
