 
Species :    1 (Os), atom :    1
 n =  1, l =  0, k =  1 :   -2713.629131    
 n =  2, l =  0, k =  1 :   -471.1740667    
 n =  2, l =  1, k =  1 :   -451.4638764    
 n =  2, l =  1, k =  2 :   -394.9119506    
 n =  3, l =  0, k =  1 :   -108.9973196    
 n =  3, l =  1, k =  1 :   -100.1027625    
 n =  3, l =  1, k =  2 :   -87.76755896    
 n =  3, l =  2, k =  2 :   -72.64933642    
 n =  3, l =  2, k =  3 :   -69.98847452    
 n =  4, l =  0, k =  1 :   -22.38188590    
 n =  4, l =  1, k =  1 :   -18.62833329    
 n =  4, l =  1, k =  2 :   -15.72893532    
 n =  4, l =  2, k =  2 :   -9.520342482    
 n =  4, l =  2, k =  3 :   -8.985765747    
 
Species :    1 (Os), atom :    2
 n =  1, l =  0, k =  1 :   -2713.629131    
 n =  2, l =  0, k =  1 :   -471.1740667    
 n =  2, l =  1, k =  1 :   -451.4638764    
 n =  2, l =  1, k =  2 :   -394.9119506    
 n =  3, l =  0, k =  1 :   -108.9973196    
 n =  3, l =  1, k =  1 :   -100.1027625    
 n =  3, l =  1, k =  2 :   -87.76755896    
 n =  3, l =  2, k =  2 :   -72.64933642    
 n =  3, l =  2, k =  3 :   -69.98847452    
 n =  4, l =  0, k =  1 :   -22.38188590    
 n =  4, l =  1, k =  1 :   -18.62833329    
 n =  4, l =  1, k =  2 :   -15.72893532    
 n =  4, l =  2, k =  2 :   -9.520342482    
 n =  4, l =  2, k =  3 :   -8.985765747    
