 
+----------------------------+
| Real-space lattice vectors |
+----------------------------+
 
vector a1 :    4.409127405      -2.545610894       0.000000000    
vector a2 :    0.000000000       5.091221788       0.000000000    
vector a3 :    0.000000000       0.000000000       7.783861536    
 
Stored column-wise as a matrix :
   4.409127405       0.000000000       0.000000000    
  -2.545610894       5.091221788       0.000000000    
   0.000000000       0.000000000       7.783861536    
 
Inverse of matrix :
  0.2268022464       0.000000000       0.000000000    
  0.1134011232      0.1964165070       0.000000000    
   0.000000000       0.000000000      0.1284709389    
 
Unit cell volume :    174.7309212    
 
 
+----------------------------------+
| Reciprocal-space lattice vectors |
+----------------------------------+
 
vector b1 :    1.425040542       0.000000000       0.000000000    
vector b2 :   0.7125202711       1.234121311       0.000000000    
vector b3 :    0.000000000       0.000000000      0.8072067159    
 
Stored column-wise as a matrix :
   1.425040542      0.7125202711       0.000000000    
   0.000000000       1.234121311       0.000000000    
   0.000000000       0.000000000      0.8072067159    
 
Inverse of matrix :
  0.7017344212     -0.4051465570       0.000000000    
   0.000000000      0.8102931140       0.000000000    
   0.000000000       0.000000000       1.238840040    
 
Brillouin zone volume :    1.419612577    
