    0.436700709890E-03
    0.427697351200E-03
    0.311555127736E-03
    0.325690621864E-03
    0.638490951155E-04
    0.288249375360E-04
    0.122888238550E-03
    0.148636473630E-03
    0.168966094069E-03
    0.170260495669E-03
    0.169145778670E-03
    0.169819677993E-03
    0.170100035434E-03
    0.170047162949E-03
    0.170014909274E-03
    0.170047062014E-03
    0.170001189966E-03
    0.170115431253E-03
    0.170106283045E-03
    0.170125057545E-03
    0.170148369982E-03
    0.170169113076E-03
    0.170177049166E-03
    0.170176250413E-03
    0.170166137834E-03
    0.170165655527E-03
    0.170168441318E-03
    0.170161321297E-03
    0.170166247095E-03
    0.170159939432E-03
    0.170166109947E-03
    0.170168114045E-03
    0.170168092176E-03
    0.170170116517E-03
    0.170174573200E-03
    0.170173740029E-03
    0.170173304442E-03
    0.170173250388E-03
    0.170172579340E-03
    0.170173134804E-03
    0.170172725464E-03
