    0.851081622646E-03
    0.844521957526E-03
    0.797736799881E-03
    0.280182261895E-03
    0.127263058964E-03
    0.332033746994E-04
    0.843071258932E-04
    0.934863175862E-04
    0.684825639501E-04
    0.698451512027E-04
    0.689170567571E-04
    0.681952194179E-04
    0.692302470330E-04
    0.694823680735E-04
    0.692069469527E-04
    0.691607560656E-04
    0.691136732808E-04
    0.689619887750E-04
    0.690400015405E-04
    0.690318196808E-04
    0.690195866005E-04
    0.690286707992E-04
    0.690470111522E-04
    0.690480398469E-04
    0.690665754119E-04
    0.690711767924E-04
    0.690587778537E-04
    0.690558401999E-04
    0.690595702740E-04
    0.690629525414E-04
    0.690661481906E-04
    0.690656708556E-04
    0.690628451598E-04
    0.690613338991E-04
    0.690576653150E-04
    0.690547450957E-04
    0.690536591811E-04
    0.690528916882E-04
    0.690520903584E-04
    0.690522764053E-04
    0.690534395366E-04
    0.690528145260E-04
    0.690525785527E-04
    0.690517700617E-04
    0.690516535421E-04
    0.690513080530E-04
    0.690514131078E-04
    0.690511411530E-04
    0.690513911696E-04
    0.690511370569E-04
    0.690513512285E-04
    0.690512720538E-04
    0.690512702141E-04
    0.690512645239E-04
    0.690513600988E-04
