 
Species :    1 (Re), atom :    1
 n =  1, l =  0, k =  1 :   -2632.471917    
 n =  2, l =  0, k =  1 :   -455.0270120    
 n =  2, l =  1, k =  1 :   -435.7466823    
 n =  2, l =  1, k =  2 :   -382.5734440    
 n =  3, l =  0, k =  1 :   -104.7032836    
 n =  3, l =  1, k =  1 :   -96.01965130    
 n =  3, l =  1, k =  2 :   -84.46954898    
 n =  3, l =  2, k =  2 :   -69.66778928    
 n =  3, l =  2, k =  3 :   -67.17115274    
 n =  4, l =  0, k =  1 :   -21.23644822    
 n =  4, l =  1, k =  1 :   -17.59286179    
 n =  4, l =  1, k =  2 :   -14.89645697    
 n =  4, l =  2, k =  2 :   -8.865588789    
 n =  4, l =  2, k =  3 :   -8.369710916    
 
Species :    1 (Re), atom :    2
 n =  1, l =  0, k =  1 :   -2632.471917    
 n =  2, l =  0, k =  1 :   -455.0270120    
 n =  2, l =  1, k =  1 :   -435.7466823    
 n =  2, l =  1, k =  2 :   -382.5734440    
 n =  3, l =  0, k =  1 :   -104.7032836    
 n =  3, l =  1, k =  1 :   -96.01965130    
 n =  3, l =  1, k =  2 :   -84.46954898    
 n =  3, l =  2, k =  2 :   -69.66778928    
 n =  3, l =  2, k =  3 :   -67.17115274    
 n =  4, l =  0, k =  1 :   -21.23644822    
 n =  4, l =  1, k =  1 :   -17.59286179    
 n =  4, l =  1, k =  2 :   -14.89645697    
 n =  4, l =  2, k =  2 :   -8.865588789    
 n =  4, l =  2, k =  3 :   -8.369710916    
