 
Species :    1 (K), atom :    1
 n =  1, l =  0, k =  1 :   -129.5650029    
 n =  2, l =  0, k =  1 :   -12.80893003    
 n =  2, l =  1, k =  1 :   -10.17627588    
 n =  2, l =  1, k =  2 :   -10.06939102    
