   165 : nkpt; k-point, vkl, wkpt, nmat below
     1   0.000000000       0.000000000       0.000000000      0.2035416243E-03     713
     2  0.5882352941E-01   0.000000000       0.000000000      0.2442499491E-02     723
     3  0.1176470588       0.000000000       0.000000000      0.2442499491E-02     719
     4  0.1764705882       0.000000000       0.000000000      0.2442499491E-02     719
     5  0.2352941176       0.000000000       0.000000000      0.2442499491E-02     713
     6  0.2941176471       0.000000000       0.000000000      0.2442499491E-02     711
     7  0.3529411765       0.000000000       0.000000000      0.2442499491E-02     712
     8  0.4117647059       0.000000000       0.000000000      0.2442499491E-02     708
     9  0.4705882353       0.000000000       0.000000000      0.2442499491E-02     716
    10  0.5882352941E-01  0.5882352941E-01   0.000000000      0.4884998982E-02     719
    11  0.1176470588      0.5882352941E-01   0.000000000      0.9769997965E-02     719
    12  0.1764705882      0.5882352941E-01   0.000000000      0.9769997965E-02     720
    13  0.2352941176      0.5882352941E-01   0.000000000      0.9769997965E-02     718
    14  0.2941176471      0.5882352941E-01   0.000000000      0.9769997965E-02     715
    15  0.3529411765      0.5882352941E-01   0.000000000      0.9769997965E-02     710
    16  0.4117647059      0.5882352941E-01   0.000000000      0.9769997965E-02     711
    17  0.4705882353      0.5882352941E-01   0.000000000      0.4884998982E-02     714
    18  0.1176470588      0.1176470588       0.000000000      0.4884998982E-02     719
    19  0.1764705882      0.1176470588       0.000000000      0.9769997965E-02     722
    20  0.2352941176      0.1176470588       0.000000000      0.9769997965E-02     721
    21  0.2941176471      0.1176470588       0.000000000      0.9769997965E-02     716
    22  0.3529411765      0.1176470588       0.000000000      0.9769997965E-02     714
    23  0.4117647059      0.1176470588       0.000000000      0.9769997965E-02     715
    24  0.1764705882      0.1764705882       0.000000000      0.4884998982E-02     716
    25  0.2352941176      0.1764705882       0.000000000      0.9769997965E-02     714
    26  0.2941176471      0.1764705882       0.000000000      0.9769997965E-02     716
    27  0.3529411765      0.1764705882       0.000000000      0.9769997965E-02     713
    28  0.4117647059      0.1764705882       0.000000000      0.4884998982E-02     712
    29  0.2352941176      0.2352941176       0.000000000      0.4884998982E-02     713
    30  0.2941176471      0.2352941176       0.000000000      0.9769997965E-02     711
    31  0.3529411765      0.2352941176       0.000000000      0.9769997965E-02     713
    32  0.2941176471      0.2941176471       0.000000000      0.4884998982E-02     706
    33  0.3529411765      0.2941176471       0.000000000      0.4884998982E-02     706
    34  0.5882352941E-01  0.5882352941E-01  0.5882352941E-01  0.1628332994E-02     713
    35  0.1176470588      0.5882352941E-01  0.5882352941E-01  0.4884998982E-02     722
    36  0.1764705882      0.5882352941E-01  0.5882352941E-01  0.4884998982E-02     722
    37  0.2352941176      0.5882352941E-01  0.5882352941E-01  0.4884998982E-02     720
    38  0.2941176471      0.5882352941E-01  0.5882352941E-01  0.4884998982E-02     718
    39  0.3529411765      0.5882352941E-01  0.5882352941E-01  0.4884998982E-02     720
    40  0.4117647059      0.5882352941E-01  0.5882352941E-01  0.4884998982E-02     715
    41  0.9411764706      0.5882352941E-01  0.5882352941E-01  0.1221249746E-02     725
    42  0.1176470588      0.1176470588      0.5882352941E-01  0.4884998982E-02     726
    43  0.1764705882      0.1176470588      0.5882352941E-01  0.9769997965E-02     720
    44  0.2352941176      0.1176470588      0.5882352941E-01  0.9769997965E-02     718
    45  0.2941176471      0.1176470588      0.5882352941E-01  0.9769997965E-02     714
    46  0.3529411765      0.1176470588      0.5882352941E-01  0.9769997965E-02     715
    47  0.4117647059      0.1176470588      0.5882352941E-01  0.4884998982E-02     712
    48  0.8823529412      0.1176470588      0.5882352941E-01  0.4884998982E-02     717
    49  0.1764705882      0.1764705882      0.5882352941E-01  0.4884998982E-02     720
    50  0.2352941176      0.1764705882      0.5882352941E-01  0.9769997965E-02     717
    51  0.2941176471      0.1764705882      0.5882352941E-01  0.9769997965E-02     711
    52  0.3529411765      0.1764705882      0.5882352941E-01  0.9769997965E-02     713
    53  0.8235294118      0.1764705882      0.5882352941E-01  0.4884998982E-02     719
    54  0.8823529412      0.1764705882      0.5882352941E-01  0.4884998982E-02     717
    55  0.2352941176      0.2352941176      0.5882352941E-01  0.4884998982E-02     709
    56  0.2941176471      0.2352941176      0.5882352941E-01  0.9769997965E-02     708
    57  0.3529411765      0.2352941176      0.5882352941E-01  0.4884998982E-02     715
    58  0.7647058824      0.2352941176      0.5882352941E-01  0.4884998982E-02     720
    59  0.8235294118      0.2352941176      0.5882352941E-01  0.9769997965E-02     717
    60  0.2941176471      0.2941176471      0.5882352941E-01  0.4884998982E-02     711
    61  0.7058823529      0.2941176471      0.5882352941E-01  0.4884998982E-02     715
    62  0.7647058824      0.2941176471      0.5882352941E-01  0.9769997965E-02     712
    63  0.8235294118      0.2941176471      0.5882352941E-01  0.4884998982E-02     716
    64  0.6470588235      0.3529411765      0.5882352941E-01  0.4884998982E-02     707
    65  0.7058823529      0.3529411765      0.5882352941E-01  0.9769997965E-02     714
    66  0.7647058824      0.3529411765      0.5882352941E-01  0.9769997965E-02     710
    67  0.5882352941      0.4117647059      0.5882352941E-01  0.4884998982E-02     712
    68  0.6470588235      0.4117647059      0.5882352941E-01  0.9769997965E-02     715
    69  0.7058823529      0.4117647059      0.5882352941E-01  0.9769997965E-02     713
    70  0.7647058824      0.4117647059      0.5882352941E-01  0.4884998982E-02     711
    71  0.5294117647      0.4705882353      0.5882352941E-01  0.4884998982E-02     713
    72  0.5882352941      0.4705882353      0.5882352941E-01  0.9769997965E-02     715
    73  0.6470588235      0.4705882353      0.5882352941E-01  0.9769997965E-02     713
    74  0.7058823529      0.4705882353      0.5882352941E-01  0.9769997965E-02     715
    75  0.5294117647      0.5294117647      0.5882352941E-01  0.4884998982E-02     716
    76  0.5882352941      0.5294117647      0.5882352941E-01  0.9769997965E-02     715
    77  0.6470588235      0.5294117647      0.5882352941E-01  0.9769997965E-02     710
    78  0.7058823529      0.5294117647      0.5882352941E-01  0.4884998982E-02     708
    79  0.5882352941      0.5882352941      0.5882352941E-01  0.4884998982E-02     712
    80  0.6470588235      0.5882352941      0.5882352941E-01  0.9769997965E-02     709
    81  0.6470588235      0.6470588235      0.5882352941E-01  0.1628332994E-02     714
    82  0.1176470588      0.1176470588      0.1176470588      0.1628332994E-02     720
    83  0.1764705882      0.1176470588      0.1176470588      0.4884998982E-02     719
    84  0.2352941176      0.1176470588      0.1176470588      0.4884998982E-02     718
    85  0.2941176471      0.1176470588      0.1176470588      0.4884998982E-02     705
    86  0.3529411765      0.1176470588      0.1176470588      0.4884998982E-02     713
    87  0.8823529412      0.1176470588      0.1176470588      0.1221249746E-02     717
    88  0.1764705882      0.1764705882      0.1176470588      0.4884998982E-02     719
    89  0.2352941176      0.1764705882      0.1176470588      0.9769997965E-02     716
    90  0.2941176471      0.1764705882      0.1176470588      0.9769997965E-02     709
    91  0.3529411765      0.1764705882      0.1176470588      0.4884998982E-02     714
    92  0.8235294118      0.1764705882      0.1176470588      0.4884998982E-02     718
    93  0.2352941176      0.2352941176      0.1176470588      0.4884998982E-02     715
    94  0.2941176471      0.2352941176      0.1176470588      0.9769997965E-02     711
    95  0.7647058824      0.2352941176      0.1176470588      0.4884998982E-02     709
    96  0.8235294118      0.2352941176      0.1176470588      0.4884998982E-02     715
    97  0.2941176471      0.2941176471      0.1176470588      0.1628332994E-02     705
    98  0.7058823529      0.2941176471      0.1176470588      0.4884998982E-02     714
    99  0.7647058824      0.2941176471      0.1176470588      0.9769997965E-02     713
   100  0.6470588235      0.3529411765      0.1176470588      0.4884998982E-02     710
   101  0.7058823529      0.3529411765      0.1176470588      0.9769997965E-02     710
   102  0.7647058824      0.3529411765      0.1176470588      0.4884998982E-02     713
   103  0.5882352941      0.4117647059      0.1176470588      0.4884998982E-02     718
   104  0.6470588235      0.4117647059      0.1176470588      0.9769997965E-02     714
   105  0.7058823529      0.4117647059      0.1176470588      0.9769997965E-02     711
   106  0.5294117647      0.4705882353      0.1176470588      0.4884998982E-02     719
   107  0.5882352941      0.4705882353      0.1176470588      0.9769997965E-02     713
   108  0.6470588235      0.4705882353      0.1176470588      0.9769997965E-02     711
   109  0.7058823529      0.4705882353      0.1176470588      0.4884998982E-02     708
   110  0.5294117647      0.5294117647      0.1176470588      0.4884998982E-02     710
   111  0.5882352941      0.5294117647      0.1176470588      0.9769997965E-02     711
   112  0.6470588235      0.5294117647      0.1176470588      0.9769997965E-02     707
   113  0.5882352941      0.5882352941      0.1176470588      0.4884998982E-02     712
   114  0.6470588235      0.5882352941      0.1176470588      0.4884998982E-02     708
   115  0.1764705882      0.1764705882      0.1764705882      0.1628332994E-02     720
   116  0.2352941176      0.1764705882      0.1764705882      0.4884998982E-02     713
   117  0.2941176471      0.1764705882      0.1764705882      0.4884998982E-02     710
   118  0.8235294118      0.1764705882      0.1764705882      0.1221249746E-02     713
   119  0.2352941176      0.2352941176      0.1764705882      0.4884998982E-02     711
   120  0.2941176471      0.2352941176      0.1764705882      0.4884998982E-02     708
   121  0.7647058824      0.2352941176      0.1764705882      0.4884998982E-02     717
   122  0.7058823529      0.2941176471      0.1764705882      0.4884998982E-02     716
   123  0.7647058824      0.2941176471      0.1764705882      0.4884998982E-02     715
   124  0.6470588235      0.3529411765      0.1764705882      0.4884998982E-02     715
   125  0.7058823529      0.3529411765      0.1764705882      0.9769997965E-02     711
   126  0.5882352941      0.4117647059      0.1764705882      0.4884998982E-02     718
   127  0.6470588235      0.4117647059      0.1764705882      0.9769997965E-02     715
   128  0.7058823529      0.4117647059      0.1764705882      0.4884998982E-02     710
   129  0.5294117647      0.4705882353      0.1764705882      0.4884998982E-02     713
   130  0.5882352941      0.4705882353      0.1764705882      0.9769997965E-02     712
   131  0.6470588235      0.4705882353      0.1764705882      0.9769997965E-02     711
   132  0.5294117647      0.5294117647      0.1764705882      0.4884998982E-02     712
   133  0.5882352941      0.5294117647      0.1764705882      0.9769997965E-02     709
   134  0.6470588235      0.5294117647      0.1764705882      0.4884998982E-02     709
   135  0.5882352941      0.5882352941      0.1764705882      0.4884998982E-02     708
   136  0.2352941176      0.2352941176      0.2352941176      0.1628332994E-02     714
   137  0.7647058824      0.2352941176      0.2352941176      0.1221249746E-02     721
   138  0.7058823529      0.2941176471      0.2352941176      0.4884998982E-02     713
   139  0.6470588235      0.3529411765      0.2352941176      0.4884998982E-02     713
   140  0.7058823529      0.3529411765      0.2352941176      0.4884998982E-02     718
   141  0.5882352941      0.4117647059      0.2352941176      0.4884998982E-02     713
   142  0.6470588235      0.4117647059      0.2352941176      0.9769997965E-02     711
   143  0.5294117647      0.4705882353      0.2352941176      0.4884998982E-02     711
   144  0.5882352941      0.4705882353      0.2352941176      0.9769997965E-02     715
   145  0.6470588235      0.4705882353      0.2352941176      0.4884998982E-02     715
   146  0.5294117647      0.5294117647      0.2352941176      0.4884998982E-02     712
   147  0.5882352941      0.5294117647      0.2352941176      0.9769997965E-02     711
   148  0.5882352941      0.5882352941      0.2352941176      0.1628332994E-02     714
   149  0.7058823529      0.2941176471      0.2941176471      0.1221249746E-02     717
   150  0.6470588235      0.3529411765      0.2941176471      0.4884998982E-02     714
   151  0.5882352941      0.4117647059      0.2941176471      0.4884998982E-02     713
   152  0.6470588235      0.4117647059      0.2941176471      0.4884998982E-02     717
   153  0.5294117647      0.4705882353      0.2941176471      0.4884998982E-02     717
   154  0.5882352941      0.4705882353      0.2941176471      0.9769997965E-02     723
   155  0.5294117647      0.5294117647      0.2941176471      0.4884998982E-02     723
   156  0.5882352941      0.5294117647      0.2941176471      0.4884998982E-02     724
   157  0.6470588235      0.3529411765      0.3529411765      0.1221249746E-02     720
   158  0.5882352941      0.4117647059      0.3529411765      0.4884998982E-02     726
   159  0.5294117647      0.4705882353      0.3529411765      0.4884998982E-02     730
   160  0.5882352941      0.4705882353      0.3529411765      0.4884998982E-02     728
   161  0.5294117647      0.5294117647      0.3529411765      0.4884998982E-02     726
   162  0.5882352941      0.4117647059      0.4117647059      0.1221249746E-02     728
   163  0.5294117647      0.4705882353      0.4117647059      0.4884998982E-02     722
   164  0.5294117647      0.5294117647      0.4117647059      0.1628332994E-02     717
   165  0.5294117647      0.4705882353      0.4705882353      0.1221249746E-02     720
