  0.3313509566E-01
  0.2491232722E-01
  0.1815640090E-01
  0.9266418908E-02
  0.3005501040E-02
  0.9895750524E-04
  0.3560907930E-04
  0.2296574344E-04
  0.1806419184E-04
  0.2807132818E-04
  0.1807133139E-04
  0.5810315971E-04
  0.2582782444E-04
  0.5412273178E-05
  0.5033566898E-04
  0.1844635462E-03
  0.6322759201E-05
  0.2063028392E-04
  0.1692510053E-04
  0.4579035020E-04
  0.2959901098E-05
  0.1748728308E-04
  0.5552450370E-04
  0.1309465060E-04
  0.1777531417E-05
  0.6699912701E-05
  0.2461510654E-04
  0.5396725587E-04
  0.2853519090E-04
  0.3562500143E-04
  0.5251011354E-04
  0.3211044634E-04
  0.2415733343E-04
  0.4049250996E-04
  0.3549195305E-04
  0.1259782268E-04
  0.5702320874E-04
  0.3482288937E-05
  0.1435929704E-04
  0.4969531200E-04
  0.1810506505E-04
  0.3051460822E-05
  0.4911266499E-04
  0.5814185811E-04
  0.9675452197E-05
  0.2435375023E-04
  0.2805126850E-05
  0.8810880636E-05
  0.2683655209E-04
  0.3247245472E-05
  0.1567501209E-04
  0.1677536902E-04
  0.5090948972E-05
  0.6606284434E-05
  0.6493449540E-05
  0.8622381531E-04
  0.6776183778E-05
  0.1430949284E-04
  0.1641730612E-04
  0.1192973312E-04
  0.1090733637E-04
  0.4768644433E-05
  0.6839934051E-05
  0.1478704704E-04
  0.1185880488E-04
  0.4118725676E-04
  0.6041549936E-05
  0.6214361362E-05
  0.1293065756E-04
  0.1878386168E-04
  0.1575009660E-04
  0.3789406739E-04
  0.1035011723E-04
  0.3053711403E-05
  0.3001417818E-04
  0.1451980370E-04
  0.6578596259E-05
  0.4977405639E-05
  0.2047203830E-04
  0.4325136496E-04
  0.2233020861E-04
  0.6135608185E-05
  0.1097518543E-04
  0.1392892924E-04
  0.6051344025E-05
  0.8168494285E-04
  0.1395616485E-04
  0.1263304329E-04
  0.3548885991E-04
  0.1115476506E-04
  0.5934745560E-05
  0.1373465421E-04
  0.3595502472E-05
  0.4308467630E-05
  0.1175116300E-04
  0.1712162486E-04
  0.7461243421E-05
  0.7226766046E-05
  0.4956117795E-05
  0.9778558665E-05
  0.9691604219E-05
  0.8733779100E-05
  0.1085695496E-04
  0.4972492340E-04
  0.5067512688E-05
  0.6575724699E-05
  0.6074630197E-04
  0.7923035542E-05
  0.5990598493E-04
  0.7191134655E-04
  0.1225324774E-04
  0.1579173906E-04
  0.6226692751E-05
  0.1012127718E-04
  0.2460373372E-04
  0.1949995370E-04
  0.7355585349E-04
  0.1711968917E-04
  0.4365289546E-04
  0.7260233005E-05
  0.1542548919E-04
  0.3318459693E-04
  0.3616543875E-04
  0.1861022314E-04
  0.1416308579E-04
  0.4906523558E-04
  0.1997711187E-04
  0.4716962384E-05
  0.2524388684E-05
  0.1589468415E-04
  0.1908008229E-04
  0.3646992023E-05
  0.3275396896E-05
  0.6777067209E-05
  0.8331764144E-05
  0.1331132258E-04
  0.1208281902E-04
  0.7543422614E-04
  0.2870176000E-04
  0.2481937759E-04
  0.8977910380E-05
  0.1328056395E-04
  0.6599379315E-05
  0.4024798104E-04
  0.4658730667E-05
  0.4629659600E-05
  0.2694102205E-04
  0.4662398397E-05
  0.3743122958E-04
  0.4116674165E-04
  0.3287700137E-04
  0.9378417323E-04
  0.5520668830E-04
  0.8282279427E-05
  0.2578452859E-04
  0.8952791433E-04
  0.5939790234E-05
  0.6272773357E-05
  0.6905502731E-04
  0.1765623690E-04
  0.3949299273E-05
  0.3219262657E-04
  0.2610740707E-04
  0.9230203266E-04
  0.3163336359E-04
  0.4175582120E-04
  0.5213479110E-05
  0.4960973935E-05
  0.1034165186E-04
  0.2671626012E-04
  0.3528557413E-05
  0.1764423387E-04
  0.2763663834E-05
  0.6091702778E-05
  0.2525595530E-04
  0.9923911770E-04
