  0.5288219254E-03
  0.5287137144E-02
  0.9980420044E-02
  0.5104710690E-02
  0.1302754645E-02
  0.2001897934E-02
  0.5069726307E-02
  0.1589138934E-02
  0.5049464889E-03
  0.1269296044E-03
  0.5735083687E-04
  0.6415682583E-04
  0.2557515108E-04
  0.1526631240E-04
  0.1003616489E-05
  0.1101018279E-04
  0.1004123624E-04
  0.5239315215E-05
  0.3677960194E-05
  0.1739914296E-05
  0.2373693860E-05
  0.3627137630E-05
  0.1980566594E-05
  0.8984352462E-06
  0.1939144568E-05
  0.9911309462E-07
  0.2266315278E-06
  0.2025990398E-06
  0.3662935342E-06
  0.5846886779E-06
  0.4075991455E-06
  0.4523462849E-07
  0.3690583981E-06
  0.1378793968E-07
  0.4766261554E-06
  0.2071392373E-06
  0.4307366908E-07
  0.2427259460E-07
  0.3578606993E-06
  0.1521839295E-06
  0.5718102329E-06
  0.3046443453E-07
  0.4636749509E-06
  0.3144596121E-06
  0.3385939635E-06
  0.4782632459E-06
  0.1867520041E-06
  0.2692613634E-06
  0.2664746717E-06
  0.1057924237E-07
  0.2295273589E-06
  0.2611050149E-06
  0.1300650183E-06
  0.2493688953E-06
  0.4382236511E-06
  0.3040913725E-06
  0.3122913768E-06
  0.3240493243E-06
  0.2558954293E-06
  0.2177912393E-06
  0.2182059688E-07
  0.1664666343E-06
  0.9821087588E-07
  0.1177104423E-06
  0.9284121916E-07
  0.1225562301E-06
  0.2536835382E-06
  0.2238812158E-06
  0.4862886271E-06
  0.3593595466E-06
  0.1962762326E-06
  0.2705055522E-06
  0.3199529601E-06
  0.1909793355E-06
  0.2379965736E-06
  0.5767215043E-06
  0.5000911187E-06
  0.2962988219E-06
  0.1629014150E-06
  0.5243782653E-06
  0.4813045962E-06
  0.3842287697E-06
  0.2730739652E-06
  0.5803885870E-06
  0.2398373908E-06
  0.1035441528E-06
  0.2776068868E-06
  0.1564767445E-06
  0.5105393939E-06
  0.2755914466E-06
  0.6178743206E-07
  0.3137902240E-06
  0.2856759238E-06
  0.2107990440E-06
  0.3230452421E-06
  0.1448206604E-06
  0.1697917469E-06
  0.3120221663E-06
  0.2959204721E-06
  0.3336681402E-06
  0.3148306860E-06
  0.5723995855E-06
  0.3728928277E-06
  0.2549058991E-06
  0.2885717549E-06
  0.2523011062E-06
  0.9892391972E-07
  0.1855150913E-06
  0.7939524949E-07
  0.1341322786E-06
  0.1455264282E-06
  0.1215375960E-06
  0.1130683813E-07
  0.4887988325E-07
  0.2544402378E-06
  0.3216555342E-06
  0.4967369023E-06
  0.4129906301E-06
  0.2495653462E-06
  0.3592140274E-07
  0.1208245521E-06
  0.3664099495E-06
  0.8890492609E-07
  0.3236709745E-06
  0.2398373908E-06
  0.3032691893E-06
  0.3258173820E-07
  0.1305888873E-06
  0.1277439878E-06
  0.3869063221E-06
  0.4133107723E-06
  0.8267670637E-07
  0.1782391337E-06
  0.1691441867E-06
  0.1017615432E-06
  0.1350417733E-06
  0.5314504961E-06
  0.2108281478E-06
  0.1598382369E-06
  0.1180014806E-06
  0.1986772986E-06
  0.1612934284E-06
  0.3866298357E-06
  0.3184395609E-06
  0.1898442861E-06
  0.4789180821E-06
  0.2479428076E-06
  0.3880850272E-06
  0.4225148587E-06
  0.1765874913E-06
  0.3181921784E-06
  0.3164095688E-06
  0.4538524081E-06
  0.4980975064E-06
  0.5656766007E-06
  0.4179964890E-06
  0.3148306860E-06
  0.4211178748E-06
  0.4072062438E-06
  0.4575267667E-06
  0.3715467756E-06
  0.3529130481E-06
  0.5174297257E-06
  0.3829700290E-06
  0.5478068488E-07
  0.2700398909E-06
  0.2904344001E-06
  0.3129753168E-06
  0.2915621735E-06
  0.2441956894E-06
  0.3081368050E-06
  0.5113543011E-07
  0.3900931915E-06
  0.3152963473E-06
  0.4990433808E-06
  0.3708191798E-06
  0.2219530870E-06
  0.2275628503E-06
  0.3786408342E-07
  0.6082700565E-06
  0.4799949238E-06
  0.1747248461E-06
  0.1228327164E-06
  0.2177694114E-06
  0.5640031304E-06
  0.4573739716E-06
  0.2421948011E-06
  0.3097084118E-06
  0.2820015652E-06
  0.2384040272E-06
  0.3241657396E-06
  0.2464075806E-06
  0.2078013495E-06
  0.3027598723E-06
  0.1691660145E-07
  0.2828091965E-06
  0.4048924893E-06
  0.1295775292E-06
