    0.658862214051E-03
    0.133480529169E-02
    0.310317347578E-03
    0.268830490910E-02
    0.254534565167E-02
    0.216085247511E-02
    0.196828215300E-02
    0.185950615765E-02
    0.184711325854E-02
    0.184305962032E-02
    0.187972686563E-02
    0.186249989833E-02
    0.192895465385E-02
    0.184266602539E-02
    0.188979174361E-02
    0.189789746970E-02
    0.189650274336E-02
    0.189612512260E-02
    0.189560335088E-02
    0.189561846445E-02
    0.189561426922E-02
    0.189572436493E-02
    0.189570713631E-02
    0.189580300580E-02
    0.189570489602E-02
    0.189581239238E-02
    0.189575938464E-02
    0.189576270221E-02
    0.189576561985E-02
    0.189576774649E-02
    0.189576924481E-02
    0.189577015274E-02
    0.189577059174E-02
    0.189577074845E-02
    0.189577079290E-02
    0.189577069933E-02
    0.189577070094E-02
    0.189577056779E-02
    0.189577071281E-02
