+----------------------------+
| Elk version 8.3.15 started |
+----------------------------+
 
Date (YYYY-MM-DD) : 2022-02-17
Time (hh:mm:ss)   : 15:25:42
 
All units are atomic (Hartree, Bohr, etc.)
 
+-------------------------------------------------+
| Ground-state run starting from atomic densities |
+-------------------------------------------------+
 
Lattice vectors :
   3.639300515       3.639300515       0.000000000    
   3.639300515       0.000000000       3.639300515    
   0.000000000       3.639300515       3.639300515    
 
Reciprocal lattice vectors :
  0.8632407905      0.8632407905     -0.8632407905    
  0.8632407905     -0.8632407905      0.8632407905    
 -0.8632407905      0.8632407905      0.8632407905    
 
Unit cell volume      :    96.40149131    
Brillouin zone volume :    2.573095188    
 
Muffin-tin inner radius fraction :   0.1000000000E-01
 
Species :    1 (Al)
 parameters loaded from : Al.in
 name : aluminium
 nuclear charge    :   -13.00000000    
 electronic charge :    13.00000000    
 atomic mass :    49184.33492    
 muffin-tin radius :    2.000000000    
 number of radial points in muffin-tin :    800
 number on inner part of muffin-tin    :    566
 atomic positions (lattice), magnetic fields (Cartesian) :
   1 :   0.00000000  0.00000000  0.00000000    0.00000000  0.00000000  0.00000000
 
Total number of atoms per unit cell :    1
 
Spin treatment :
 spin-unpolarised
 
Number of Bravais lattice symmetries :   48
Number of crystal symmetries         :   48
Crystal has inversion symmetry
Real symmetric eigensolver will be used
 
k-point grid :     17    17    17
k-point offset :    0.000000000       0.000000000       0.000000000    
k-point set is reduced with full crystal symmetry group
Total number of k-points :      165
 
Muffin-tin radius times maximum |G+k| :    8.000000000    
 using gkmax = rgkmax / 2
Maximum |G+k| for APW functions       :    4.000000000    
Maximum (1/2)|G+k|²                   :    8.000000000    
Maximum |G| for potential and density :    32.00000000    
Constant for pseudocharge density :   16
Radial integration step length :    1
 
G-vector grid sizes :     54    54    54
Number of G-vectors :    53377
 
Maximum angular momentum used for
 APW functions                      :   10
 outer part of muffin-tin           :    8
 inner part of muffin-tin           :    1
 
Total nuclear charge    :   -13.00000000    
Total core charge       :    4.000000000    
Total valence charge    :    9.000000000    
Total excess charge     :    0.000000000    
Total electronic charge :    13.00000000    
 
Effective Wigner radius, rₛ :    1.209717408    
 
Number of empty states         :   20
Total number of valence states :   25
Total number of core states    :    4
 
Conduction state local-orbitals added automatically
Total number of local-orbitals :  109
 
Using Libxc version 05.01.05
Exchange-correlation functional :    100   493   494
 exchange: mgga_x_rscan; correlation: mgga_c_rscan
 
Smearing type :    1
 Methfessel-Paxton order 1, Phys. Rev. B 40, 3616 (1989)
Smearing width :   0.1000000000E-02
Effective electronic temperature (K) :    315.7750248    
 
Mixing type :    3
 Broyden mixing, J. Phys. A: Math. Gen. 17, L317 (1984)
 
Kohn-Sham potential initialised from atomic data
 
+------------------------------+
| Self-consistent loop started |
+------------------------------+
 
+--------------------+
| Loop number :    1 |
+--------------------+
 
Energies :
 Fermi                       :     0.255261489032    
 sum of eigenvalues          :     -131.485464687    
 electron kinetic            :      242.268821832    
 core electron kinetic       :      181.148954483    
 Coulomb                     :     -469.680887189    
 Coulomb potential           :     -348.732480054    
 nuclear-nuclear             :     -45.4684138910    
 electron-nuclear            :     -499.692466542    
 Hartree                     :      75.4799932440    
 Madelung                    :     -295.314647162    
 xc potential                :     -25.0218064646    
 exchange                    :     -18.4967843046    
 correlation                 :    -0.516792908045    
 total energy                :     -246.425642570    
 
Density of states at Fermi energy :    6.770003678    
 (states/Hartree/unit cell)
 
Estimated indirect band gap :   0.1435836540E-02
 from k-point    138 to k-point    164
Estimated direct band gap   :   0.2119351493E-01
 at k-point    163
 
Charges :
 core                        :    4.000000000    
 valence                     :    9.000000000    
 interstitial                :    1.998180761    
 muffin-tins (core leakage)
  species :    1 (Al)
   atom    1                 :    11.00181924     (  0.1247923479E-02)
 total in muffin-tins        :    11.00181924    
 total calculated charge     :    12.99875043    
 total charge                :    13.00000000    
 error                       :   0.1249568856E-02
 
Time (CPU seconds) :         9.81
 
+--------------------+
| Loop number :    2 |
+--------------------+
 
Energies :
 Fermi                       :     0.256080476922    
 sum of eigenvalues          :     -131.454941768    
 electron kinetic            :      242.291444073    
 core electron kinetic       :      180.621034344    
 Coulomb                     :     -469.660670780    
 Coulomb potential           :     -348.726704616    
 nuclear-nuclear             :     -45.4684138910    
 electron-nuclear            :     -499.657809162    
 Hartree                     :      75.4655522731    
 Madelung                    :     -295.297318472    
 xc potential                :     -25.0196812253    
 exchange                    :     -18.4951800259    
 correlation                 :    -0.516780248802    
 total energy                :     -246.381186981    
 
Density of states at Fermi energy :    6.680004244    
 (states/Hartree/unit cell)
 
Estimated indirect band gap :   0.1444741359E-02
 from k-point    138 to k-point    164
Estimated direct band gap   :   0.2119520653E-01
 at k-point    163
 
Charges :
 core                        :    4.000000000    
 valence                     :    9.000000000    
 interstitial                :    1.998650127    
 muffin-tins (core leakage)
  species :    1 (Al)
   atom    1                 :    11.00134987     (  0.1249347645E-02)
 total in muffin-tins        :    11.00134987    
 total calculated charge     :    12.99874900    
 total charge                :    13.00000000    
 error                       :   0.1250999975E-02
 
Wrote STATE.OUT
 
RMS change in Kohn-Sham potential (target) :    5.461502389     (   10.00000000    )
Absolute change in total energy (target)   :   0.4445558834E-01 (  0.1000000000E-07)
 
Time (CPU seconds) :        17.62
 
+--------------------+
| Loop number :    3 |
+--------------------+
 
Energies :
 Fermi                       :     0.300662185409    
 sum of eigenvalues          :     -130.077667946    
 electron kinetic            :      243.430364858    
 core electron kinetic       :      181.049380206    
 Coulomb                     :     -468.923029069    
 Coulomb potential           :     -348.568812788    
 nuclear-nuclear             :     -45.4684138910    
 electron-nuclear            :     -498.340417568    
 Hartree                     :      74.8858023901    
 Madelung                    :     -294.638622675    
 xc potential                :     -24.9392200155    
 exchange                    :     -18.4341664731    
 correlation                 :    -0.516258388001    
 total energy                :     -244.443089072    
 
Density of states at Fermi energy :    6.431252795    
 (states/Hartree/unit cell)
 
Estimated indirect band gap :   0.1727858268E-02
 from k-point    138 to k-point    149
Estimated direct band gap   :   0.2114473960E-01
 at k-point    163
 
Charges :
 core                        :    4.000000000    
 valence                     :    9.000000000    
 interstitial                :    2.021238411    
 muffin-tins (core leakage)
  species :    1 (Al)
   atom    1                 :    10.97876159     (  0.1297381101E-02)
 total in muffin-tins        :    10.97876159    
 total calculated charge     :    12.99870130    
 total charge                :    13.00000000    
 error                       :   0.1298702654E-02
 
RMS change in Kohn-Sham potential (target) :    2.751042920     (   10.00000000    )
Absolute change in total energy (target)   :    1.949211806     (  0.1000000000E-07)
 
Time (CPU seconds) :        26.06
 
+--------------------+
| Loop number :    4 |
+--------------------+
 
Energies :
 Fermi                       :     0.329481080613    
 sum of eigenvalues          :     -129.294389802    
 electron kinetic            :      244.135997859    
 core electron kinetic       :      181.419800715    
 Coulomb                     :     -468.588484235    
 Coulomb potential           :     -348.529869213    
 nuclear-nuclear             :     -45.4684138910    
 electron-nuclear            :     -497.710271475    
 Hartree                     :      74.5902011307    
 Madelung                    :     -294.323549628    
 xc potential                :     -24.9005184478    
 exchange                    :     -18.4049164465    
 correlation                 :    -0.515957601529    
 total energy                :     -243.373360424    
 
Density of states at Fermi energy :    7.573946199    
 (states/Hartree/unit cell)
 
Estimated indirect band gap :   0.1428038192E-02
 from k-point    138 to k-point    149
Estimated direct band gap   :   0.2103135217E-01
 at k-point    163
 
Charges :
 core                        :    4.000000000    
 valence                     :    9.000000000    
 interstitial                :    2.034228227    
 muffin-tins (core leakage)
  species :    1 (Al)
   atom    1                 :    10.96577177     (  0.1316330202E-02)
 total in muffin-tins        :    10.96577177    
 total calculated charge     :    12.99868257    
 total charge                :    13.00000000    
 error                       :   0.1317433229E-02
 
Wrote STATE.OUT
 
RMS change in Kohn-Sham potential (target) :   0.9362878440     (   10.00000000    )
Absolute change in total energy (target)   :    1.557031600     (  0.1000000000E-07)
 
Time (CPU seconds) :        34.11
 
+--------------------+
| Loop number :    5 |
+--------------------+
 
Energies :
 Fermi                       :     0.340161314558    
 sum of eigenvalues          :     -129.048956678    
 electron kinetic            :      244.382729682    
 core electron kinetic       :      181.568125456    
 Coulomb                     :     -468.521198930    
 Coulomb potential           :     -348.540180174    
 nuclear-nuclear             :     -45.4684138910    
 electron-nuclear            :     -497.565389904    
 Hartree                     :      74.5126048649    
 Madelung                    :     -294.251108843    
 xc potential                :     -24.8915061859    
 exchange                    :     -18.3981918452    
 correlation                 :    -0.515861139393    
 total energy                :     -243.052522233    
 
Density of states at Fermi energy :    9.042741748    
 (states/Hartree/unit cell)
 
Estimated indirect band gap :   0.1311653800E-02
 from k-point    138 to k-point    149
Estimated direct band gap   :   0.2093938846E-01
 at k-point    163
 
Charges :
 core                        :    4.000000000    
 valence                     :    9.000000000    
 interstitial                :    2.038504092    
 muffin-tins (core leakage)
  species :    1 (Al)
   atom    1                 :    10.96149591     (  0.1318213789E-02)
 total in muffin-tins        :    10.96149591    
 total calculated charge     :    12.99868077    
 total charge                :    13.00000000    
 error                       :   0.1319231843E-02
 
RMS change in Kohn-Sham potential (target) :   0.2448600748     (   10.00000000    )
Absolute change in total energy (target)   :   0.7100960909     (  0.1000000000E-07)
 
Time (CPU seconds) :        41.83
 
+--------------------+
| Loop number :    6 |
+--------------------+
 
Energies :
 Fermi                       :     0.342995707108    
 sum of eigenvalues          :     -129.000388252    
 electron kinetic            :      244.442572916    
 core electron kinetic       :      181.607966363    
 Coulomb                     :     -468.524116479    
 Coulomb potential           :     -348.551873326    
 nuclear-nuclear             :     -45.4684138910    
 electron-nuclear            :     -497.559531851    
 Hartree                     :      74.5038292621    
 Madelung                    :     -294.248179816    
 xc potential                :     -24.8910878424    
 exchange                    :     -18.3979421812    
 correlation                 :    -0.515840129060    
 total energy                :     -242.995325874    
 
Density of states at Fermi energy :    9.572821874    
 (states/Hartree/unit cell)
 
Estimated indirect band gap :   0.1275631058E-02
 from k-point    138 to k-point    149
Estimated direct band gap   :   0.2089011688E-01
 at k-point    163
 
Charges :
 core                        :    4.000000000    
 valence                     :    9.000000000    
 interstitial                :    2.039488405    
 muffin-tins (core leakage)
  species :    1 (Al)
   atom    1                 :    10.96051160     (  0.1316813794E-02)
 total in muffin-tins        :    10.96051160    
 total calculated charge     :    12.99868219    
 total charge                :    13.00000000    
 error                       :   0.1317805655E-02
 
Wrote STATE.OUT
 
RMS change in Kohn-Sham potential (target) :   0.5361743477E-01 (   10.00000000    )
Absolute change in total energy (target)   :   0.2347203820     (  0.1000000000E-07)
 
Time (CPU seconds) :        49.66
 
+--------------------+
| Loop number :    7 |
+--------------------+
 
Energies :
 Fermi                       :     0.343686938381    
 sum of eigenvalues          :     -128.993854917    
 electron kinetic            :      244.455379076    
 core electron kinetic       :      181.619885829    
 Coulomb                     :     -468.531662050    
 Coulomb potential           :     -348.557578140    
 nuclear-nuclear             :     -45.4684138910    
 electron-nuclear            :     -497.568918179    
 Hartree                     :      74.5056700195    
 Madelung                    :     -294.252872980    
 xc potential                :     -24.8916558532    
 exchange                    :     -18.3984058505    
 correlation                 :    -0.515836030713    
 total energy                :     -242.990524855    
 
Density of states at Fermi energy :    9.758994145    
 (states/Hartree/unit cell)
 
Estimated indirect band gap :   0.1263348961E-02
 from k-point    138 to k-point    149
Estimated direct band gap   :   0.2086585661E-01
 at k-point    163
 
Charges :
 core                        :    4.000000000    
 valence                     :    9.000000000    
 interstitial                :    2.039699698    
 muffin-tins (core leakage)
  species :    1 (Al)
   atom    1                 :    10.96030030     (  0.1315867151E-02)
 total in muffin-tins        :    10.96030030    
 total calculated charge     :    12.99868315    
 total charge                :    13.00000000    
 error                       :   0.1316849838E-02
 
RMS change in Kohn-Sham potential (target) :   0.8193435229E-02 (   10.00000000    )
Absolute change in total energy (target)   :   0.6348111386E-01 (  0.1000000000E-07)
 
Time (CPU seconds) :        57.34
 
+--------------------+
| Loop number :    8 |
+--------------------+
 
Energies :
 Fermi                       :     0.343618272780    
 sum of eigenvalues          :     -128.999937934    
 electron kinetic            :      244.452288668    
 core electron kinetic       :      181.618552860    
 Coulomb                     :     -468.537981645    
 Coulomb potential           :     -348.559924861    
 nuclear-nuclear             :     -45.4684138910    
 electron-nuclear            :     -497.579210647    
 Hartree                     :      74.5096428929    
 Madelung                    :     -294.258019215    
 xc potential                :     -24.8923017403    
 exchange                    :     -18.3989107873    
 correlation                 :    -0.515837274019    
 total energy                :     -243.000441039    
 
Density of states at Fermi energy :    9.808018036    
 (states/Hartree/unit cell)
 
Estimated indirect band gap :   0.1260137802E-02
 from k-point    138 to k-point    149
Estimated direct band gap   :   0.2085374220E-01
 at k-point    163
 
Charges :
 core                        :    4.000000000    
 valence                     :    9.000000000    
 interstitial                :    2.039657957    
 muffin-tins (core leakage)
  species :    1 (Al)
   atom    1                 :    10.96034204     (  0.1315343628E-02)
 total in muffin-tins        :    10.96034204    
 total calculated charge     :    12.99868368    
 total charge                :    13.00000000    
 error                       :   0.1316323690E-02
 
Wrote STATE.OUT
 
RMS change in Kohn-Sham potential (target) :   0.3209607631E-02 (   10.00000000    )
Absolute change in total energy (target)   :   0.5954094811E-02 (  0.1000000000E-07)
 
Time (CPU seconds) :        64.85
 
+--------------------+
| Loop number :    9 |
+--------------------+
 
Energies :
 Fermi                       :     0.343578863961    
 sum of eigenvalues          :     -129.001063965    
 electron kinetic            :      244.451337917    
 core electron kinetic       :      181.617394244    
 Coulomb                     :     -468.538749533    
 Coulomb potential           :     -348.559989348    
 nuclear-nuclear             :     -45.4684138910    
 electron-nuclear            :     -497.580681937    
 Hartree                     :      74.5103462944    
 Madelung                    :     -294.258754859    
 xc potential                :     -24.8924125348    
 exchange                    :     -18.3989996809    
 correlation                 :    -0.515837046408    
 total energy                :     -243.002248343    
 
Density of states at Fermi energy :    9.839700363    
 (states/Hartree/unit cell)
 
Estimated indirect band gap :   0.1258066024E-02
 from k-point    138 to k-point    149
Estimated direct band gap   :   0.2084799159E-01
 at k-point    163
 
Charges :
 core                        :    4.000000000    
 valence                     :    9.000000000    
 interstitial                :    2.039664113    
 muffin-tins (core leakage)
  species :    1 (Al)
   atom    1                 :    10.96033589     (  0.1315317264E-02)
 total in muffin-tins        :    10.96033589    
 total calculated charge     :    12.99868370    
 total charge                :    13.00000000    
 error                       :   0.1316295481E-02
 
RMS change in Kohn-Sham potential (target) :   0.1189966805E-03 (   10.00000000    )
Absolute change in total energy (target)   :   0.3187806960E-03 (  0.1000000000E-07)
 
Time (CPU seconds) :        72.95
 
+--------------------+
| Loop number :   10 |
+--------------------+
 
Energies :
 Fermi                       :     0.343582053957    
 sum of eigenvalues          :     -129.000037556    
 electron kinetic            :      244.451742378    
 core electron kinetic       :      181.617350138    
 Coulomb                     :     -468.537564081    
 Coulomb potential           :     -348.559477501    
 nuclear-nuclear             :     -45.4684138910    
 electron-nuclear            :     -497.578822879    
 Hartree                     :      74.5096726891    
 Madelung                    :     -294.257825331    
 xc potential                :     -24.8923024333    
 exchange                    :     -18.3989144631    
 correlation                 :    -0.515836657661    
 total energy                :     -243.000572824    
 
Density of states at Fermi energy :    9.840186388    
 (states/Hartree/unit cell)
 
Estimated indirect band gap :   0.1258032833E-02
 from k-point    138 to k-point    149
Estimated direct band gap   :   0.2084866125E-01
 at k-point    163
 
Charges :
 core                        :    4.000000000    
 valence                     :    9.000000000    
 interstitial                :    2.039676560    
 muffin-tins (core leakage)
  species :    1 (Al)
   atom    1                 :    10.96032344     (  0.1315428706E-02)
 total in muffin-tins        :    10.96032344    
 total calculated charge     :    12.99868359    
 total charge                :    13.00000000    
 error                       :   0.1316406856E-02
 
Wrote STATE.OUT
 
RMS change in Kohn-Sham potential (target) :   0.4718909778E-04 (   10.00000000    )
Absolute change in total energy (target)   :   0.1595824290E-02 (  0.1000000000E-07)
 
Time (CPU seconds) :        81.08
 
+--------------------+
| Loop number :   11 |
+--------------------+
 
Energies :
 Fermi                       :     0.343583687060    
 sum of eigenvalues          :     -128.999557379    
 electron kinetic            :      244.451934713    
 core electron kinetic       :      181.617447541    
 Coulomb                     :     -468.537011964    
 Coulomb potential           :     -348.559241046    
 nuclear-nuclear             :     -45.4684138910    
 electron-nuclear            :     -497.577955100    
 Hartree                     :      74.5093570271    
 Madelung                    :     -294.257391441    
 xc potential                :     -24.8922510452    
 exchange                    :     -18.3988747257    
 correlation                 :    -0.515836464509    
 total energy                :     -242.999788442    
 
Density of states at Fermi energy :    9.840767114    
 (states/Hartree/unit cell)
 
Estimated indirect band gap :   0.1257994143E-02
 from k-point    138 to k-point    149
Estimated direct band gap   :   0.2084891158E-01
 at k-point    163
 
Charges :
 core                        :    4.000000000    
 valence                     :    9.000000000    
 interstitial                :    2.039682583    
 muffin-tins (core leakage)
  species :    1 (Al)
   atom    1                 :    10.96031742     (  0.1315481099E-02)
 total in muffin-tins        :    10.96031742    
 total calculated charge     :    12.99868354    
 total charge                :    13.00000000    
 error                       :   0.1316459207E-02
 
RMS change in Kohn-Sham potential (target) :   0.6125076942E-05 (   10.00000000    )
Absolute change in total energy (target)   :   0.1183337990E-02 (  0.1000000000E-07)
 
Time (CPU seconds) :        88.37
 
+--------------------+
| Loop number :   12 |
+--------------------+
 
Energies :
 Fermi                       :     0.343583606596    
 sum of eigenvalues          :     -128.999554854    
 electron kinetic            :      244.451935454    
 core electron kinetic       :      181.617451062    
 Coulomb                     :     -468.537008179    
 Coulomb potential           :     -348.559239487    
 nuclear-nuclear             :     -45.4684138910    
 electron-nuclear            :     -497.577949089    
 Hartree                     :      74.5093548009    
 Madelung                    :     -294.257388436    
 xc potential                :     -24.8922508210    
 exchange                    :     -18.3988746003    
 correlation                 :    -0.515836451192    
 total energy                :     -242.999783776    
 
Density of states at Fermi energy :    9.841216026    
 (states/Hartree/unit cell)
 
Estimated indirect band gap :   0.1257964744E-02
 from k-point    138 to k-point    149
Estimated direct band gap   :   0.2084883725E-01
 at k-point    163
 
Charges :
 core                        :    4.000000000    
 valence                     :    9.000000000    
 interstitial                :    2.039682873    
 muffin-tins (core leakage)
  species :    1 (Al)
   atom    1                 :    10.96031713     (  0.1315482075E-02)
 total in muffin-tins        :    10.96031713    
 total calculated charge     :    12.99868354    
 total charge                :    13.00000000    
 error                       :   0.1316460163E-02
 
Wrote STATE.OUT
 
RMS change in Kohn-Sham potential (target) :   0.3254317824E-05 (   10.00000000    )
Absolute change in total energy (target)   :   0.3004998910E-03 (  0.1000000000E-07)
 
Time (CPU seconds) :        95.25
 
+--------------------+
| Loop number :   13 |
+--------------------+
 
Energies :
 Fermi                       :     0.343583483855    
 sum of eigenvalues          :     -128.999559412    
 electron kinetic            :      244.451933305    
 core electron kinetic       :      181.617449808    
 Coulomb                     :     -468.537012496    
 Coulomb potential           :     -348.559241346    
 nuclear-nuclear             :     -45.4684138910    
 electron-nuclear            :     -497.577955865    
 Hartree                     :      74.5093572598    
 Madelung                    :     -294.257391824    
 xc potential                :     -24.8922513716    
 exchange                    :     -18.3988750806    
 correlation                 :    -0.515836439215    
 total energy                :     -242.999790711    
 
Density of states at Fermi energy :    9.841712926    
 (states/Hartree/unit cell)
 
Estimated indirect band gap :   0.1257932212E-02
 from k-point    138 to k-point    149
Estimated direct band gap   :   0.2084874957E-01
 at k-point    163
 
Charges :
 core                        :    4.000000000    
 valence                     :    9.000000000    
 interstitial                :    2.039683107    
 muffin-tins (core leakage)
  species :    1 (Al)
   atom    1                 :    10.96031689     (  0.1315482370E-02)
 total in muffin-tins        :    10.96031689    
 total calculated charge     :    12.99868354    
 total charge                :    13.00000000    
 error                       :   0.1316460437E-02
 
RMS change in Kohn-Sham potential (target) :   0.7308186672E-07 (   10.00000000    )
Absolute change in total energy (target)   :   0.6818992148E-04 (  0.1000000000E-07)
 
Time (CPU seconds) :       103.18
 
+--------------------+
| Loop number :   14 |
+--------------------+
 
Energies :
 Fermi                       :     0.343583479593    
 sum of eigenvalues          :     -128.999559556    
 electron kinetic            :      244.451933258    
 core electron kinetic       :      181.617449768    
 Coulomb                     :     -468.537012698    
 Coulomb potential           :     -348.559241420    
 nuclear-nuclear             :     -45.4684138910    
 electron-nuclear            :     -497.577956193    
 Hartree                     :      74.5093573866    
 Madelung                    :     -294.257391988    
 xc potential                :     -24.8922513942    
 exchange                    :     -18.3988750984    
 correlation                 :    -0.515836439198    
 total energy                :     -242.999790977    
 
Density of states at Fermi energy :    9.841716455    
 (states/Hartree/unit cell)
 
Estimated indirect band gap :   0.1257931980E-02
 from k-point    138 to k-point    149
Estimated direct band gap   :   0.2084874878E-01
 at k-point    163
 
Charges :
 core                        :    4.000000000    
 valence                     :    9.000000000    
 interstitial                :    2.039683107    
 muffin-tins (core leakage)
  species :    1 (Al)
   atom    1                 :    10.96031689     (  0.1315482395E-02)
 total in muffin-tins        :    10.96031689    
 total calculated charge     :    12.99868354    
 total charge                :    13.00000000    
 error                       :   0.1316460465E-02
 
Wrote STATE.OUT
 
RMS change in Kohn-Sham potential (target) :   0.3535777948E-07 (   10.00000000    )
Absolute change in total energy (target)   :   0.1678184580E-04 (  0.1000000000E-07)
 
Time (CPU seconds) :       109.84
 
+--------------------+
| Loop number :   15 |
+--------------------+
 
Energies :
 Fermi                       :     0.343583478094    
 sum of eigenvalues          :     -128.999559570    
 electron kinetic            :      244.451933259    
 core electron kinetic       :      181.617449739    
 Coulomb                     :     -468.537012702    
 Coulomb potential           :     -348.559241430    
 nuclear-nuclear             :     -45.4684138910    
 electron-nuclear            :     -497.577956193    
 Hartree                     :      74.5093573818    
 Madelung                    :     -294.257391988    
 xc potential                :     -24.8922513996    
 exchange                    :     -18.3988751023    
 correlation                 :    -0.515836439288    
 total energy                :     -242.999790985    
 
Density of states at Fermi energy :    9.841713736    
 (states/Hartree/unit cell)
 
Estimated indirect band gap :   0.1257932157E-02
 from k-point    138 to k-point    149
Estimated direct band gap   :   0.2084874918E-01
 at k-point    163
 
Charges :
 core                        :    4.000000000    
 valence                     :    9.000000000    
 interstitial                :    2.039683105    
 muffin-tins (core leakage)
  species :    1 (Al)
   atom    1                 :    10.96031690     (  0.1315482344E-02)
 total in muffin-tins        :    10.96031690    
 total calculated charge     :    12.99868354    
 total charge                :    13.00000000    
 error                       :   0.1316460411E-02
 
RMS change in Kohn-Sham potential (target) :   0.2461194678E-07 (   10.00000000    )
Absolute change in total energy (target)   :   0.4187642730E-05 (  0.1000000000E-07)
 
Time (CPU seconds) :       117.19
 
+--------------------+
| Loop number :   16 |
+--------------------+
 
Energies :
 Fermi                       :     0.343583476614    
 sum of eigenvalues          :     -128.999559555    
 electron kinetic            :      244.451933274    
 core electron kinetic       :      181.617449744    
 Coulomb                     :     -468.537012701    
 Coulomb potential           :     -348.559241428    
 nuclear-nuclear             :     -45.4684138910    
 electron-nuclear            :     -497.577956193    
 Hartree                     :      74.5093573827    
 Madelung                    :     -294.257391988    
 xc potential                :     -24.8922514019    
 exchange                    :     -18.3988751038    
 correlation                 :    -0.515836439375    
 total energy                :     -242.999790970    
 
Density of states at Fermi energy :    9.841710802    
 (states/Hartree/unit cell)
 
Estimated indirect band gap :   0.1257932348E-02
 from k-point    138 to k-point    149
Estimated direct band gap   :   0.2084874962E-01
 at k-point    163
 
Charges :
 core                        :    4.000000000    
 valence                     :    9.000000000    
 interstitial                :    2.039683103    
 muffin-tins (core leakage)
  species :    1 (Al)
   atom    1                 :    10.96031690     (  0.1315482281E-02)
 total in muffin-tins        :    10.96031690    
 total calculated charge     :    12.99868354    
 total charge                :    13.00000000    
 error                       :   0.1316460346E-02
 
Wrote STATE.OUT
 
RMS change in Kohn-Sham potential (target) :   0.2605924799E-07 (   10.00000000    )
Absolute change in total energy (target)   :   0.1061664648E-05 (  0.1000000000E-07)
 
Time (CPU seconds) :       124.57
 
+--------------------+
| Loop number :   17 |
+--------------------+
 
Energies :
 Fermi                       :     0.343583476406    
 sum of eigenvalues          :     -128.999559552    
 electron kinetic            :      244.451933273    
 core electron kinetic       :      181.617449738    
 Coulomb                     :     -468.537012699    
 Coulomb potential           :     -348.559241423    
 nuclear-nuclear             :     -45.4684138910    
 electron-nuclear            :     -497.577956193    
 Hartree                     :      74.5093573851    
 Madelung                    :     -294.257391988    
 xc potential                :     -24.8922514015    
 exchange                    :     -18.3988751034    
 correlation                 :    -0.515836439382    
 total energy                :     -242.999790969    
 
Density of states at Fermi energy :    9.841710355    
 (states/Hartree/unit cell)
 
Estimated indirect band gap :   0.1257932377E-02
 from k-point    138 to k-point    149
Estimated direct band gap   :   0.2084874969E-01
 at k-point    163
 
Charges :
 core                        :    4.000000000    
 valence                     :    9.000000000    
 interstitial                :    2.039683102    
 muffin-tins (core leakage)
  species :    1 (Al)
   atom    1                 :    10.96031690     (  0.1315482293E-02)
 total in muffin-tins        :    10.96031690    
 total calculated charge     :    12.99868354    
 total charge                :    13.00000000    
 error                       :   0.1316460357E-02
 
RMS change in Kohn-Sham potential (target) :   0.1778214826E-07 (   10.00000000    )
Absolute change in total energy (target)   :   0.2664912699E-06 (  0.1000000000E-07)
 
Time (CPU seconds) :       131.56
 
+--------------------+
| Loop number :   18 |
+--------------------+
 
Energies :
 Fermi                       :     0.343583476246    
 sum of eigenvalues          :     -128.999559549    
 electron kinetic            :      244.451933275    
 core electron kinetic       :      181.617449740    
 Coulomb                     :     -468.537012699    
 Coulomb potential           :     -348.559241422    
 nuclear-nuclear             :     -45.4684138910    
 electron-nuclear            :     -497.577956193    
 Hartree                     :      74.5093573855    
 Madelung                    :     -294.257391988    
 xc potential                :     -24.8922514013    
 exchange                    :     -18.3988751032    
 correlation                 :    -0.515836439391    
 total energy                :     -242.999790966    
 
Density of states at Fermi energy :    9.841709969    
 (states/Hartree/unit cell)
 
Estimated indirect band gap :   0.1257932402E-02
 from k-point    138 to k-point    149
Estimated direct band gap   :   0.2084874975E-01
 at k-point    163
 
Charges :
 core                        :    4.000000000    
 valence                     :    9.000000000    
 interstitial                :    2.039683102    
 muffin-tins (core leakage)
  species :    1 (Al)
   atom    1                 :    10.96031690     (  0.1315482366E-02)
 total in muffin-tins        :    10.96031690    
 total calculated charge     :    12.99868354    
 total charge                :    13.00000000    
 error                       :   0.1316460427E-02
 
Wrote STATE.OUT
 
RMS change in Kohn-Sham potential (target) :   0.2373693794E-07 (   10.00000000    )
Absolute change in total energy (target)   :   0.6926381957E-07 (  0.1000000000E-07)
 
Time (CPU seconds) :       137.67
 
+--------------------+
| Loop number :   19 |
+--------------------+
 
Energies :
 Fermi                       :     0.343583476202    
 sum of eigenvalues          :     -128.999559552    
 electron kinetic            :      244.451933273    
 core electron kinetic       :      181.617449739    
 Coulomb                     :     -468.537012699    
 Coulomb potential           :     -348.559241423    
 nuclear-nuclear             :     -45.4684138910    
 electron-nuclear            :     -497.577956193    
 Hartree                     :      74.5093573849    
 Madelung                    :     -294.257391988    
 xc potential                :     -24.8922514018    
 exchange                    :     -18.3988751036    
 correlation                 :    -0.515836439393    
 total energy                :     -242.999790969    
 
Density of states at Fermi energy :    9.841709838    
 (states/Hartree/unit cell)
 
Estimated indirect band gap :   0.1257932411E-02
 from k-point    138 to k-point    149
Estimated direct band gap   :   0.2084874976E-01
 at k-point    163
 
Charges :
 core                        :    4.000000000    
 valence                     :    9.000000000    
 interstitial                :    2.039683102    
 muffin-tins (core leakage)
  species :    1 (Al)
   atom    1                 :    10.96031690     (  0.1315482311E-02)
 total in muffin-tins        :    10.96031690    
 total calculated charge     :    12.99868354    
 total charge                :    13.00000000    
 error                       :   0.1316460378E-02
 
RMS change in Kohn-Sham potential (target) :   0.2185016882E-08 (   10.00000000    )
Absolute change in total energy (target)   :   0.1467668653E-07 (  0.1000000000E-07)
 
Time (CPU seconds) :       144.76
 
+--------------------+
| Loop number :   20 |
+--------------------+
 
Energies :
 Fermi                       :     0.343583476154    
 sum of eigenvalues          :     -128.999559552    
 electron kinetic            :      244.451933273    
 core electron kinetic       :      181.617449739    
 Coulomb                     :     -468.537012699    
 Coulomb potential           :     -348.559241423    
 nuclear-nuclear             :     -45.4684138910    
 electron-nuclear            :     -497.577956193    
 Hartree                     :      74.5093573849    
 Madelung                    :     -294.257391988    
 xc potential                :     -24.8922514017    
 exchange                    :     -18.3988751035    
 correlation                 :    -0.515836439395    
 total energy                :     -242.999790969    
 
Density of states at Fermi energy :    9.841709769    
 (states/Hartree/unit cell)
 
Estimated indirect band gap :   0.1257932415E-02
 from k-point    138 to k-point    149
Estimated direct band gap   :   0.2084874977E-01
 at k-point    163
 
Charges :
 core                        :    4.000000000    
 valence                     :    9.000000000    
 interstitial                :    2.039683102    
 muffin-tins (core leakage)
  species :    1 (Al)
   atom    1                 :    10.96031690     (  0.1315482367E-02)
 total in muffin-tins        :    10.96031690    
 total calculated charge     :    12.99868354    
 total charge                :    13.00000000    
 error                       :   0.1316460430E-02
 
Wrote STATE.OUT
 
RMS change in Kohn-Sham potential (target) :   0.1353639130E-07 (   10.00000000    )
Absolute change in total energy (target)   :   0.3842842489E-08 (  0.1000000000E-07)
 
Convergence targets achieved
 
Time (CPU seconds) :       151.96
 
+--------------------+
| Loop number :   21 |
+--------------------+
 
Energies :
 Fermi                       :     0.343583476144    
 sum of eigenvalues          :     -128.999559551    
 electron kinetic            :      244.451933278    
 core electron kinetic       :      181.617449744    
 Coulomb                     :     -468.537012701    
 Coulomb potential           :     -348.559241427    
 nuclear-nuclear             :     -45.4684138910    
 electron-nuclear            :     -497.577956193    
 Hartree                     :      74.5093573830    
 Madelung                    :     -294.257391988    
 xc potential                :     -24.8922514017    
 exchange                    :     -18.3988751035    
 correlation                 :    -0.515836439400    
 total energy                :     -242.999790966    
 
Density of states at Fermi energy :    9.841709761    
 (states/Hartree/unit cell)
 
Estimated indirect band gap :   0.1257932416E-02
 from k-point    138 to k-point    149
Estimated direct band gap   :   0.2084874977E-01
 at k-point    163
 
Charges :
 core                        :    4.000000000    
 valence                     :    9.000000000    
 interstitial                :    2.039683102    
 muffin-tins (core leakage)
  species :    1 (Al)
   atom    1                 :    10.96031690     (  0.1315482331E-02)
 total in muffin-tins        :    10.96031690    
 total calculated charge     :    12.99868354    
 total charge                :    13.00000000    
 error                       :   0.1316460401E-02
 
+------------------------------+
| Self-consistent loop stopped |
+------------------------------+
 
Wrote STATE.OUT
 
Timings (CPU seconds) :
 initialisation                        :         0.82
 Hamiltonian and overlap matrix set up :        48.99
 first-variational eigenvalue equation :        38.70
 charge density calculation            :        13.43
 potential calculation                 :        57.04
 total                                 :       158.98
 
+----------------------------+
| Elk version 8.3.15 stopped |
+----------------------------+
