   165 : nkpt; k-point, vkl, wkpt, nmat below
     1   0.000000000       0.000000000       0.000000000      0.2035416243E-03     303
     2  0.5882352941E-01   0.000000000       0.000000000      0.2442499491E-02     290
     3  0.1176470588       0.000000000       0.000000000      0.2442499491E-02     288
     4  0.1764705882       0.000000000       0.000000000      0.2442499491E-02     290
     5  0.2352941176       0.000000000       0.000000000      0.2442499491E-02     294
     6  0.2941176471       0.000000000       0.000000000      0.2442499491E-02     292
     7  0.3529411765       0.000000000       0.000000000      0.2442499491E-02     288
     8  0.4117647059       0.000000000       0.000000000      0.2442499491E-02     288
     9  0.4705882353       0.000000000       0.000000000      0.2442499491E-02     288
    10  0.5882352941E-01  0.5882352941E-01   0.000000000      0.4884998982E-02     288
    11  0.1176470588      0.5882352941E-01   0.000000000      0.9769997965E-02     287
    12  0.1764705882      0.5882352941E-01   0.000000000      0.9769997965E-02     288
    13  0.2352941176      0.5882352941E-01   0.000000000      0.9769997965E-02     289
    14  0.2941176471      0.5882352941E-01   0.000000000      0.9769997965E-02     290
    15  0.3529411765      0.5882352941E-01   0.000000000      0.9769997965E-02     293
    16  0.4117647059      0.5882352941E-01   0.000000000      0.9769997965E-02     289
    17  0.4705882353      0.5882352941E-01   0.000000000      0.4884998982E-02     292
    18  0.1176470588      0.1176470588       0.000000000      0.4884998982E-02     290
    19  0.1764705882      0.1176470588       0.000000000      0.9769997965E-02     289
    20  0.2352941176      0.1176470588       0.000000000      0.9769997965E-02     291
    21  0.2941176471      0.1176470588       0.000000000      0.9769997965E-02     294
    22  0.3529411765      0.1176470588       0.000000000      0.9769997965E-02     292
    23  0.4117647059      0.1176470588       0.000000000      0.9769997965E-02     291
    24  0.1764705882      0.1764705882       0.000000000      0.4884998982E-02     293
    25  0.2352941176      0.1764705882       0.000000000      0.9769997965E-02     295
    26  0.2941176471      0.1764705882       0.000000000      0.9769997965E-02     291
    27  0.3529411765      0.1764705882       0.000000000      0.9769997965E-02     289
    28  0.4117647059      0.1764705882       0.000000000      0.4884998982E-02     290
    29  0.2352941176      0.2352941176       0.000000000      0.4884998982E-02     292
    30  0.2941176471      0.2352941176       0.000000000      0.9769997965E-02     289
    31  0.3529411765      0.2352941176       0.000000000      0.9769997965E-02     285
    32  0.2941176471      0.2941176471       0.000000000      0.4884998982E-02     285
    33  0.3529411765      0.2941176471       0.000000000      0.4884998982E-02     284
    34  0.5882352941E-01  0.5882352941E-01  0.5882352941E-01  0.1628332994E-02     288
    35  0.1176470588      0.5882352941E-01  0.5882352941E-01  0.4884998982E-02     290
    36  0.1764705882      0.5882352941E-01  0.5882352941E-01  0.4884998982E-02     293
    37  0.2352941176      0.5882352941E-01  0.5882352941E-01  0.4884998982E-02     291
    38  0.2941176471      0.5882352941E-01  0.5882352941E-01  0.4884998982E-02     293
    39  0.3529411765      0.5882352941E-01  0.5882352941E-01  0.4884998982E-02     292
    40  0.4117647059      0.5882352941E-01  0.5882352941E-01  0.4884998982E-02     288
    41  0.9411764706      0.5882352941E-01  0.5882352941E-01  0.1221249746E-02     287
    42  0.1176470588      0.1176470588      0.5882352941E-01  0.4884998982E-02     292
    43  0.1764705882      0.1176470588      0.5882352941E-01  0.9769997965E-02     290
    44  0.2352941176      0.1176470588      0.5882352941E-01  0.9769997965E-02     293
    45  0.2941176471      0.1176470588      0.5882352941E-01  0.9769997965E-02     292
    46  0.3529411765      0.1176470588      0.5882352941E-01  0.9769997965E-02     289
    47  0.4117647059      0.1176470588      0.5882352941E-01  0.4884998982E-02     290
    48  0.8823529412      0.1176470588      0.5882352941E-01  0.4884998982E-02     287
    49  0.1764705882      0.1764705882      0.5882352941E-01  0.4884998982E-02     294
    50  0.2352941176      0.1764705882      0.5882352941E-01  0.9769997965E-02     292
    51  0.2941176471      0.1764705882      0.5882352941E-01  0.9769997965E-02     288
    52  0.3529411765      0.1764705882      0.5882352941E-01  0.9769997965E-02     288
    53  0.8235294118      0.1764705882      0.5882352941E-01  0.4884998982E-02     289
    54  0.8823529412      0.1764705882      0.5882352941E-01  0.4884998982E-02     292
    55  0.2352941176      0.2352941176      0.5882352941E-01  0.4884998982E-02     286
    56  0.2941176471      0.2352941176      0.5882352941E-01  0.9769997965E-02     287
    57  0.3529411765      0.2352941176      0.5882352941E-01  0.4884998982E-02     286
    58  0.7647058824      0.2352941176      0.5882352941E-01  0.4884998982E-02     288
    59  0.8235294118      0.2352941176      0.5882352941E-01  0.9769997965E-02     290
    60  0.2941176471      0.2941176471      0.5882352941E-01  0.4884998982E-02     285
    61  0.7058823529      0.2941176471      0.5882352941E-01  0.4884998982E-02     288
    62  0.7647058824      0.2941176471      0.5882352941E-01  0.9769997965E-02     289
    63  0.8235294118      0.2941176471      0.5882352941E-01  0.4884998982E-02     293
    64  0.6470588235      0.3529411765      0.5882352941E-01  0.4884998982E-02     292
    65  0.7058823529      0.3529411765      0.5882352941E-01  0.9769997965E-02     292
    66  0.7647058824      0.3529411765      0.5882352941E-01  0.9769997965E-02     291
    67  0.5882352941      0.4117647059      0.5882352941E-01  0.4884998982E-02     290
    68  0.6470588235      0.4117647059      0.5882352941E-01  0.9769997965E-02     293
    69  0.7058823529      0.4117647059      0.5882352941E-01  0.9769997965E-02     292
    70  0.7647058824      0.4117647059      0.5882352941E-01  0.4884998982E-02     293
    71  0.5294117647      0.4705882353      0.5882352941E-01  0.4884998982E-02     290
    72  0.5882352941      0.4705882353      0.5882352941E-01  0.9769997965E-02     290
    73  0.6470588235      0.4705882353      0.5882352941E-01  0.9769997965E-02     290
    74  0.7058823529      0.4705882353      0.5882352941E-01  0.9769997965E-02     290
    75  0.5294117647      0.5294117647      0.5882352941E-01  0.4884998982E-02     290
    76  0.5882352941      0.5294117647      0.5882352941E-01  0.9769997965E-02     289
    77  0.6470588235      0.5294117647      0.5882352941E-01  0.9769997965E-02     291
    78  0.7058823529      0.5294117647      0.5882352941E-01  0.4884998982E-02     287
    79  0.5882352941      0.5882352941      0.5882352941E-01  0.4884998982E-02     286
    80  0.6470588235      0.5882352941      0.5882352941E-01  0.9769997965E-02     285
    81  0.6470588235      0.6470588235      0.5882352941E-01  0.1628332994E-02     281
    82  0.1176470588      0.1176470588      0.1176470588      0.1628332994E-02     294
    83  0.1764705882      0.1176470588      0.1176470588      0.4884998982E-02     293
    84  0.2352941176      0.1176470588      0.1176470588      0.4884998982E-02     289
    85  0.2941176471      0.1176470588      0.1176470588      0.4884998982E-02     286
    86  0.3529411765      0.1176470588      0.1176470588      0.4884998982E-02     286
    87  0.8823529412      0.1176470588      0.1176470588      0.1221249746E-02     291
    88  0.1764705882      0.1764705882      0.1176470588      0.4884998982E-02     290
    89  0.2352941176      0.1764705882      0.1176470588      0.9769997965E-02     285
    90  0.2941176471      0.1764705882      0.1176470588      0.9769997965E-02     287
    91  0.3529411765      0.1764705882      0.1176470588      0.4884998982E-02     290
    92  0.8235294118      0.1764705882      0.1176470588      0.4884998982E-02     290
    93  0.2352941176      0.2352941176      0.1176470588      0.4884998982E-02     287
    94  0.2941176471      0.2352941176      0.1176470588      0.9769997965E-02     287
    95  0.7647058824      0.2352941176      0.1176470588      0.4884998982E-02     289
    96  0.8235294118      0.2352941176      0.1176470588      0.4884998982E-02     289
    97  0.2941176471      0.2941176471      0.1176470588      0.1628332994E-02     284
    98  0.7058823529      0.2941176471      0.1176470588      0.4884998982E-02     289
    99  0.7647058824      0.2941176471      0.1176470588      0.9769997965E-02     291
   100  0.6470588235      0.3529411765      0.1176470588      0.4884998982E-02     291
   101  0.7058823529      0.3529411765      0.1176470588      0.9769997965E-02     291
   102  0.7647058824      0.3529411765      0.1176470588      0.4884998982E-02     289
   103  0.5882352941      0.4117647059      0.1176470588      0.4884998982E-02     290
   104  0.6470588235      0.4117647059      0.1176470588      0.9769997965E-02     292
   105  0.7058823529      0.4117647059      0.1176470588      0.9769997965E-02     290
   106  0.5294117647      0.4705882353      0.1176470588      0.4884998982E-02     292
   107  0.5882352941      0.4705882353      0.1176470588      0.9769997965E-02     288
   108  0.6470588235      0.4705882353      0.1176470588      0.9769997965E-02     290
   109  0.7058823529      0.4705882353      0.1176470588      0.4884998982E-02     286
   110  0.5294117647      0.5294117647      0.1176470588      0.4884998982E-02     292
   111  0.5882352941      0.5294117647      0.1176470588      0.9769997965E-02     287
   112  0.6470588235      0.5294117647      0.1176470588      0.9769997965E-02     289
   113  0.5882352941      0.5882352941      0.1176470588      0.4884998982E-02     286
   114  0.6470588235      0.5882352941      0.1176470588      0.4884998982E-02     281
   115  0.1764705882      0.1764705882      0.1764705882      0.1628332994E-02     282
   116  0.2352941176      0.1764705882      0.1764705882      0.4884998982E-02     286
   117  0.2941176471      0.1764705882      0.1764705882      0.4884998982E-02     287
   118  0.8235294118      0.1764705882      0.1764705882      0.1221249746E-02     290
   119  0.2352941176      0.2352941176      0.1764705882      0.4884998982E-02     287
   120  0.2941176471      0.2352941176      0.1764705882      0.4884998982E-02     282
   121  0.7647058824      0.2352941176      0.1764705882      0.4884998982E-02     289
   122  0.7058823529      0.2941176471      0.1764705882      0.4884998982E-02     291
   123  0.7647058824      0.2941176471      0.1764705882      0.4884998982E-02     291
   124  0.6470588235      0.3529411765      0.1764705882      0.4884998982E-02     293
   125  0.7058823529      0.3529411765      0.1764705882      0.9769997965E-02     290
   126  0.5882352941      0.4117647059      0.1764705882      0.4884998982E-02     290
   127  0.6470588235      0.4117647059      0.1764705882      0.9769997965E-02     289
   128  0.7058823529      0.4117647059      0.1764705882      0.4884998982E-02     287
   129  0.5294117647      0.4705882353      0.1764705882      0.4884998982E-02     294
   130  0.5882352941      0.4705882353      0.1764705882      0.9769997965E-02     289
   131  0.6470588235      0.4705882353      0.1764705882      0.9769997965E-02     288
   132  0.5294117647      0.5294117647      0.1764705882      0.4884998982E-02     290
   133  0.5882352941      0.5294117647      0.1764705882      0.9769997965E-02     286
   134  0.6470588235      0.5294117647      0.1764705882      0.4884998982E-02     287
   135  0.5882352941      0.5882352941      0.1764705882      0.4884998982E-02     283
   136  0.2352941176      0.2352941176      0.2352941176      0.1628332994E-02     278
   137  0.7647058824      0.2352941176      0.2352941176      0.1221249746E-02     290
   138  0.7058823529      0.2941176471      0.2352941176      0.4884998982E-02     291
   139  0.6470588235      0.3529411765      0.2352941176      0.4884998982E-02     291
   140  0.7058823529      0.3529411765      0.2352941176      0.4884998982E-02     291
   141  0.5882352941      0.4117647059      0.2352941176      0.4884998982E-02     289
   142  0.6470588235      0.4117647059      0.2352941176      0.9769997965E-02     288
   143  0.5294117647      0.4705882353      0.2352941176      0.4884998982E-02     288
   144  0.5882352941      0.4705882353      0.2352941176      0.9769997965E-02     287
   145  0.6470588235      0.4705882353      0.2352941176      0.4884998982E-02     284
   146  0.5294117647      0.5294117647      0.2352941176      0.4884998982E-02     286
   147  0.5882352941      0.5294117647      0.2352941176      0.9769997965E-02     282
   148  0.5882352941      0.5882352941      0.2352941176      0.1628332994E-02     287
   149  0.7058823529      0.2941176471      0.2941176471      0.1221249746E-02     290
   150  0.6470588235      0.3529411765      0.2941176471      0.4884998982E-02     289
   151  0.5882352941      0.4117647059      0.2941176471      0.4884998982E-02     287
   152  0.6470588235      0.4117647059      0.2941176471      0.4884998982E-02     287
   153  0.5294117647      0.4705882353      0.2941176471      0.4884998982E-02     285
   154  0.5882352941      0.4705882353      0.2941176471      0.9769997965E-02     285
   155  0.5294117647      0.5294117647      0.2941176471      0.4884998982E-02     287
   156  0.5882352941      0.5294117647      0.2941176471      0.4884998982E-02     289
   157  0.6470588235      0.3529411765      0.3529411765      0.1221249746E-02     282
   158  0.5882352941      0.4117647059      0.3529411765      0.4884998982E-02     292
   159  0.5294117647      0.4705882353      0.3529411765      0.4884998982E-02     290
   160  0.5882352941      0.4705882353      0.3529411765      0.4884998982E-02     290
   161  0.5294117647      0.5294117647      0.3529411765      0.4884998982E-02     293
   162  0.5882352941      0.4117647059      0.4117647059      0.1221249746E-02     294
   163  0.5294117647      0.4705882353      0.4117647059      0.4884998982E-02     294
   164  0.5294117647      0.5294117647      0.4117647059      0.1628332994E-02     293
   165  0.5294117647      0.4705882353      0.4705882353      0.1221249746E-02     290
