    -9066.41778970    
    -9066.41867387    
    -9066.43480517    
    -9066.43933664    
    -9066.44298332    
    -9066.44442156    
    -9066.44529860    
    -9066.44535405    
    -9066.44535101    
    -9066.44533527    
    -9066.44526727    
    -9066.44521834    
    -9066.44521342    
    -9066.44521052    
    -9066.44516874    
    -9066.44519516    
    -9066.44518342    
    -9066.44518107    
    -9066.44518311    
    -9066.44517953    
    -9066.44518256    
    -9066.44518337    
    -9066.44518375    
    -9066.44518412    
    -9066.44518300    
    -9066.44518354    
    -9066.44518381    
    -9066.44518365    
    -9066.44518382    
    -9066.44518391    
    -9066.44518400    
    -9066.44518402    
    -9066.44518411    
    -9066.44518410    
    -9066.44518408    
    -9066.44518542    
    -9066.44518392    
    -9066.44518385    
    -9066.44518397    
    -9066.44518405    
    -9066.44518409    
    -9066.44518401    
    -9066.44518407    
    -9066.44518407    
    -9066.44518397    
    -9066.44518409    
    -9066.44518406    
    -9066.44518412    
