    0.892822965306E-04
    0.162310107143E-03
    0.229473043031E-03
    0.605170032953E-04
    0.157227743866E-03
    0.870089079732E-04
    0.717998673977E-04
    0.322300853564E-04
    0.340150901745E-04
    0.332313964213E-04
    0.332406683715E-04
    0.331565495696E-04
    0.331941730676E-04
    0.332263710179E-04
    0.332265080691E-04
    0.332478335740E-04
    0.332436562242E-04
    0.332774088228E-04
    0.332736304515E-04
    0.332827985021E-04
    0.332646593449E-04
    0.332716746191E-04
    0.332707294918E-04
    0.332700607955E-04
    0.332725196875E-04
    0.332723763727E-04
    0.332748103084E-04
    0.332779652035E-04
    0.332765475718E-04
    0.332766347529E-04
    0.332762478928E-04
    0.332757009436E-04
    0.332754603973E-04
    0.332752374501E-04
    0.332752120850E-04
    0.332754268916E-04
    0.332752277720E-04
    0.332753894229E-04
    0.332752376639E-04
    0.332754362061E-04
    0.332754948253E-04
    0.332755138414E-04
    0.332752897760E-04
    0.332755157615E-04
    0.332754140821E-04
    0.332752970588E-04
    0.332752141706E-04
    0.332751650589E-04
    0.332751809616E-04
    0.332751589937E-04
    0.332751435153E-04
    0.332751503672E-04
    0.332751417597E-04
    0.332751339375E-04
    0.332751369791E-04
    0.332751324506E-04
