   297 : nkpt; k-point, vkl, wkpt, nmat below
     1   0.000000000       0.000000000       0.000000000      0.2035416243E-03     543
     2  0.5882352941E-01   0.000000000       0.000000000      0.1221249746E-02     548
     3  0.1176470588       0.000000000       0.000000000      0.1221249746E-02     554
     4  0.1764705882       0.000000000       0.000000000      0.1221249746E-02     554
     5  0.2352941176       0.000000000       0.000000000      0.1221249746E-02     550
     6  0.2941176471       0.000000000       0.000000000      0.1221249746E-02     542
     7  0.3529411765       0.000000000       0.000000000      0.1221249746E-02     542
     8  0.4117647059       0.000000000       0.000000000      0.1221249746E-02     544
     9  0.4705882353       0.000000000       0.000000000      0.1221249746E-02     536
    10  0.5882352941E-01  0.5882352941E-01   0.000000000      0.1221249746E-02     549
    11  0.1176470588      0.5882352941E-01   0.000000000      0.2442499491E-02     550
    12  0.1764705882      0.5882352941E-01   0.000000000      0.2442499491E-02     550
    13  0.2352941176      0.5882352941E-01   0.000000000      0.2442499491E-02     550
    14  0.2941176471      0.5882352941E-01   0.000000000      0.2442499491E-02     548
    15  0.3529411765      0.5882352941E-01   0.000000000      0.2442499491E-02     544
    16  0.4117647059      0.5882352941E-01   0.000000000      0.2442499491E-02     540
    17  0.4705882353      0.5882352941E-01   0.000000000      0.1221249746E-02     538
    18  0.1176470588      0.1176470588       0.000000000      0.1221249746E-02     549
    19  0.1764705882      0.1176470588       0.000000000      0.2442499491E-02     550
    20  0.2352941176      0.1176470588       0.000000000      0.2442499491E-02     550
    21  0.2941176471      0.1176470588       0.000000000      0.2442499491E-02     546
    22  0.3529411765      0.1176470588       0.000000000      0.2442499491E-02     539
    23  0.4117647059      0.1176470588       0.000000000      0.2442499491E-02     538
    24  0.1764705882      0.1764705882       0.000000000      0.1221249746E-02     549
    25  0.2352941176      0.1764705882       0.000000000      0.2442499491E-02     544
    26  0.2941176471      0.1764705882       0.000000000      0.2442499491E-02     542
    27  0.3529411765      0.1764705882       0.000000000      0.2442499491E-02     539
    28  0.4117647059      0.1764705882       0.000000000      0.1221249746E-02     538
    29  0.2352941176      0.2352941176       0.000000000      0.1221249746E-02     545
    30  0.2941176471      0.2352941176       0.000000000      0.2442499491E-02     537
    31  0.3529411765      0.2352941176       0.000000000      0.2442499491E-02     538
    32  0.2941176471      0.2941176471       0.000000000      0.1221249746E-02     532
    33  0.3529411765      0.2941176471       0.000000000      0.1221249746E-02     540
    34   0.000000000       0.000000000      0.5882352941E-01  0.4070832485E-03     543
    35  0.5882352941E-01   0.000000000      0.5882352941E-01  0.2442499491E-02     548
    36  0.1176470588       0.000000000      0.5882352941E-01  0.2442499491E-02     551
    37  0.1764705882       0.000000000      0.5882352941E-01  0.2442499491E-02     554
    38  0.2352941176       0.000000000      0.5882352941E-01  0.2442499491E-02     546
    39  0.2941176471       0.000000000      0.5882352941E-01  0.2442499491E-02     544
    40  0.3529411765       0.000000000      0.5882352941E-01  0.2442499491E-02     544
    41  0.4117647059       0.000000000      0.5882352941E-01  0.2442499491E-02     542
    42  0.4705882353       0.000000000      0.5882352941E-01  0.2442499491E-02     539
    43  0.5882352941E-01  0.5882352941E-01  0.5882352941E-01  0.2442499491E-02     551
    44  0.1176470588      0.5882352941E-01  0.5882352941E-01  0.4884998982E-02     552
    45  0.1764705882      0.5882352941E-01  0.5882352941E-01  0.4884998982E-02     550
    46  0.2352941176      0.5882352941E-01  0.5882352941E-01  0.4884998982E-02     549
    47  0.2941176471      0.5882352941E-01  0.5882352941E-01  0.4884998982E-02     547
    48  0.3529411765      0.5882352941E-01  0.5882352941E-01  0.4884998982E-02     544
    49  0.4117647059      0.5882352941E-01  0.5882352941E-01  0.4884998982E-02     540
    50  0.4705882353      0.5882352941E-01  0.5882352941E-01  0.2442499491E-02     538
    51  0.1176470588      0.1176470588      0.5882352941E-01  0.2442499491E-02     551
    52  0.1764705882      0.1176470588      0.5882352941E-01  0.4884998982E-02     551
    53  0.2352941176      0.1176470588      0.5882352941E-01  0.4884998982E-02     551
    54  0.2941176471      0.1176470588      0.5882352941E-01  0.4884998982E-02     544
    55  0.3529411765      0.1176470588      0.5882352941E-01  0.4884998982E-02     539
    56  0.4117647059      0.1176470588      0.5882352941E-01  0.4884998982E-02     538
    57  0.1764705882      0.1764705882      0.5882352941E-01  0.2442499491E-02     548
    58  0.2352941176      0.1764705882      0.5882352941E-01  0.4884998982E-02     544
    59  0.2941176471      0.1764705882      0.5882352941E-01  0.4884998982E-02     540
    60  0.3529411765      0.1764705882      0.5882352941E-01  0.4884998982E-02     538
    61  0.4117647059      0.1764705882      0.5882352941E-01  0.2442499491E-02     538
    62  0.2352941176      0.2352941176      0.5882352941E-01  0.2442499491E-02     542
    63  0.2941176471      0.2352941176      0.5882352941E-01  0.4884998982E-02     537
    64  0.3529411765      0.2352941176      0.5882352941E-01  0.4884998982E-02     540
    65  0.2941176471      0.2941176471      0.5882352941E-01  0.2442499491E-02     538
    66  0.3529411765      0.2941176471      0.5882352941E-01  0.2442499491E-02     540
    67   0.000000000       0.000000000      0.1176470588      0.4070832485E-03     543
    68  0.5882352941E-01   0.000000000      0.1176470588      0.2442499491E-02     552
    69  0.1176470588       0.000000000      0.1176470588      0.2442499491E-02     549
    70  0.1764705882       0.000000000      0.1176470588      0.2442499491E-02     550
    71  0.2352941176       0.000000000      0.1176470588      0.2442499491E-02     548
    72  0.2941176471       0.000000000      0.1176470588      0.2442499491E-02     548
    73  0.3529411765       0.000000000      0.1176470588      0.2442499491E-02     547
    74  0.4117647059       0.000000000      0.1176470588      0.2442499491E-02     540
    75  0.4705882353       0.000000000      0.1176470588      0.2442499491E-02     540
    76  0.5882352941E-01  0.5882352941E-01  0.1176470588      0.2442499491E-02     547
    77  0.1176470588      0.5882352941E-01  0.1176470588      0.4884998982E-02     552
    78  0.1764705882      0.5882352941E-01  0.1176470588      0.4884998982E-02     554
    79  0.2352941176      0.5882352941E-01  0.1176470588      0.4884998982E-02     548
    80  0.2941176471      0.5882352941E-01  0.1176470588      0.4884998982E-02     547
    81  0.3529411765      0.5882352941E-01  0.1176470588      0.4884998982E-02     541
    82  0.4117647059      0.5882352941E-01  0.1176470588      0.4884998982E-02     536
    83  0.4705882353      0.5882352941E-01  0.1176470588      0.2442499491E-02     539
    84  0.1176470588      0.1176470588      0.1176470588      0.2442499491E-02     554
    85  0.1764705882      0.1176470588      0.1176470588      0.4884998982E-02     551
    86  0.2352941176      0.1176470588      0.1176470588      0.4884998982E-02     549
    87  0.2941176471      0.1176470588      0.1176470588      0.4884998982E-02     543
    88  0.3529411765      0.1176470588      0.1176470588      0.4884998982E-02     539
    89  0.4117647059      0.1176470588      0.1176470588      0.4884998982E-02     539
    90  0.1764705882      0.1764705882      0.1176470588      0.2442499491E-02     550
    91  0.2352941176      0.1764705882      0.1176470588      0.4884998982E-02     543
    92  0.2941176471      0.1764705882      0.1176470588      0.4884998982E-02     540
    93  0.3529411765      0.1764705882      0.1176470588      0.4884998982E-02     540
    94  0.4117647059      0.1764705882      0.1176470588      0.2442499491E-02     542
    95  0.2352941176      0.2352941176      0.1176470588      0.2442499491E-02     539
    96  0.2941176471      0.2352941176      0.1176470588      0.4884998982E-02     543
    97  0.3529411765      0.2352941176      0.1176470588      0.4884998982E-02     542
    98  0.2941176471      0.2941176471      0.1176470588      0.2442499491E-02     540
    99  0.3529411765      0.2941176471      0.1176470588      0.2442499491E-02     539
   100   0.000000000       0.000000000      0.1764705882      0.4070832485E-03     543
   101  0.5882352941E-01   0.000000000      0.1764705882      0.2442499491E-02     547
   102  0.1176470588       0.000000000      0.1764705882      0.2442499491E-02     549
   103  0.1764705882       0.000000000      0.1764705882      0.2442499491E-02     552
   104  0.2352941176       0.000000000      0.1764705882      0.2442499491E-02     552
   105  0.2941176471       0.000000000      0.1764705882      0.2442499491E-02     549
   106  0.3529411765       0.000000000      0.1764705882      0.2442499491E-02     547
   107  0.4117647059       0.000000000      0.1764705882      0.2442499491E-02     539
   108  0.4705882353       0.000000000      0.1764705882      0.2442499491E-02     539
   109  0.5882352941E-01  0.5882352941E-01  0.1764705882      0.2442499491E-02     549
   110  0.1176470588      0.5882352941E-01  0.1764705882      0.4884998982E-02     551
   111  0.1764705882      0.5882352941E-01  0.1764705882      0.4884998982E-02     553
   112  0.2352941176      0.5882352941E-01  0.1764705882      0.4884998982E-02     548
   113  0.2941176471      0.5882352941E-01  0.1764705882      0.4884998982E-02     546
   114  0.3529411765      0.5882352941E-01  0.1764705882      0.4884998982E-02     541
   115  0.4117647059      0.5882352941E-01  0.1764705882      0.4884998982E-02     538
   116  0.4705882353      0.5882352941E-01  0.1764705882      0.2442499491E-02     537
   117  0.1176470588      0.1176470588      0.1764705882      0.2442499491E-02     552
   118  0.1764705882      0.1176470588      0.1764705882      0.4884998982E-02     548
   119  0.2352941176      0.1176470588      0.1764705882      0.4884998982E-02     548
   120  0.2941176471      0.1176470588      0.1764705882      0.4884998982E-02     543
   121  0.3529411765      0.1176470588      0.1764705882      0.4884998982E-02     538
   122  0.4117647059      0.1176470588      0.1764705882      0.4884998982E-02     539
   123  0.1764705882      0.1764705882      0.1764705882      0.2442499491E-02     548
   124  0.2352941176      0.1764705882      0.1764705882      0.4884998982E-02     541
   125  0.2941176471      0.1764705882      0.1764705882      0.4884998982E-02     540
   126  0.3529411765      0.1764705882      0.1764705882      0.4884998982E-02     541
   127  0.4117647059      0.1764705882      0.1764705882      0.2442499491E-02     542
   128  0.2352941176      0.2352941176      0.1764705882      0.2442499491E-02     539
   129  0.2941176471      0.2352941176      0.1764705882      0.4884998982E-02     541
   130  0.3529411765      0.2352941176      0.1764705882      0.4884998982E-02     540
   131  0.2941176471      0.2941176471      0.1764705882      0.2442499491E-02     540
   132  0.3529411765      0.2941176471      0.1764705882      0.2442499491E-02     537
   133   0.000000000       0.000000000      0.2352941176      0.4070832485E-03     549
   134  0.5882352941E-01   0.000000000      0.2352941176      0.2442499491E-02     547
   135  0.1176470588       0.000000000      0.2352941176      0.2442499491E-02     551
   136  0.1764705882       0.000000000      0.2352941176      0.2442499491E-02     551
   137  0.2352941176       0.000000000      0.2352941176      0.2442499491E-02     552
   138  0.2941176471       0.000000000      0.2352941176      0.2442499491E-02     549
   139  0.3529411765       0.000000000      0.2352941176      0.2442499491E-02     543
   140  0.4117647059       0.000000000      0.2352941176      0.2442499491E-02     541
   141  0.4705882353       0.000000000      0.2352941176      0.2442499491E-02     537
   142  0.5882352941E-01  0.5882352941E-01  0.2352941176      0.2442499491E-02     552
   143  0.1176470588      0.5882352941E-01  0.2352941176      0.4884998982E-02     549
   144  0.1764705882      0.5882352941E-01  0.2352941176      0.4884998982E-02     552
   145  0.2352941176      0.5882352941E-01  0.2352941176      0.4884998982E-02     546
   146  0.2941176471      0.5882352941E-01  0.2352941176      0.4884998982E-02     544
   147  0.3529411765      0.5882352941E-01  0.2352941176      0.4884998982E-02     542
   148  0.4117647059      0.5882352941E-01  0.2352941176      0.4884998982E-02     538
   149  0.4705882353      0.5882352941E-01  0.2352941176      0.2442499491E-02     537
   150  0.1176470588      0.1176470588      0.2352941176      0.2442499491E-02     550
   151  0.1764705882      0.1176470588      0.2352941176      0.4884998982E-02     548
   152  0.2352941176      0.1176470588      0.2352941176      0.4884998982E-02     546
   153  0.2941176471      0.1176470588      0.2352941176      0.4884998982E-02     543
   154  0.3529411765      0.1176470588      0.2352941176      0.4884998982E-02     537
   155  0.4117647059      0.1176470588      0.2352941176      0.4884998982E-02     538
   156  0.1764705882      0.1764705882      0.2352941176      0.2442499491E-02     547
   157  0.2352941176      0.1764705882      0.2352941176      0.4884998982E-02     544
   158  0.2941176471      0.1764705882      0.2352941176      0.4884998982E-02     542
   159  0.3529411765      0.1764705882      0.2352941176      0.4884998982E-02     540
   160  0.4117647059      0.1764705882      0.2352941176      0.2442499491E-02     542
   161  0.2352941176      0.2352941176      0.2352941176      0.2442499491E-02     539
   162  0.2941176471      0.2352941176      0.2352941176      0.4884998982E-02     541
   163  0.3529411765      0.2352941176      0.2352941176      0.4884998982E-02     541
   164  0.2941176471      0.2941176471      0.2352941176      0.2442499491E-02     538
   165  0.3529411765      0.2941176471      0.2352941176      0.2442499491E-02     533
   166   0.000000000       0.000000000      0.2941176471      0.4070832485E-03     555
   167  0.5882352941E-01   0.000000000      0.2941176471      0.2442499491E-02     551
   168  0.1176470588       0.000000000      0.2941176471      0.2442499491E-02     551
   169  0.1764705882       0.000000000      0.2941176471      0.2442499491E-02     545
   170  0.2352941176       0.000000000      0.2941176471      0.2442499491E-02     550
   171  0.2941176471       0.000000000      0.2941176471      0.2442499491E-02     547
   172  0.3529411765       0.000000000      0.2941176471      0.2442499491E-02     545
   173  0.4117647059       0.000000000      0.2941176471      0.2442499491E-02     541
   174  0.4705882353       0.000000000      0.2941176471      0.2442499491E-02     536
   175  0.5882352941E-01  0.5882352941E-01  0.2941176471      0.2442499491E-02     550
   176  0.1176470588      0.5882352941E-01  0.2941176471      0.4884998982E-02     548
   177  0.1764705882      0.5882352941E-01  0.2941176471      0.4884998982E-02     549
   178  0.2352941176      0.5882352941E-01  0.2941176471      0.4884998982E-02     549
   179  0.2941176471      0.5882352941E-01  0.2941176471      0.4884998982E-02     544
   180  0.3529411765      0.5882352941E-01  0.2941176471      0.4884998982E-02     543
   181  0.4117647059      0.5882352941E-01  0.2941176471      0.4884998982E-02     539
   182  0.4705882353      0.5882352941E-01  0.2941176471      0.2442499491E-02     538
   183  0.1176470588      0.1176470588      0.2941176471      0.2442499491E-02     550
   184  0.1764705882      0.1176470588      0.2941176471      0.4884998982E-02     547
   185  0.2352941176      0.1176470588      0.2941176471      0.4884998982E-02     543
   186  0.2941176471      0.1176470588      0.2941176471      0.4884998982E-02     545
   187  0.3529411765      0.1176470588      0.2941176471      0.4884998982E-02     540
   188  0.4117647059      0.1176470588      0.2941176471      0.4884998982E-02     538
   189  0.1764705882      0.1764705882      0.2941176471      0.2442499491E-02     549
   190  0.2352941176      0.1764705882      0.2941176471      0.4884998982E-02     544
   191  0.2941176471      0.1764705882      0.2941176471      0.4884998982E-02     540
   192  0.3529411765      0.1764705882      0.2941176471      0.4884998982E-02     543
   193  0.4117647059      0.1764705882      0.2941176471      0.2442499491E-02     542
   194  0.2352941176      0.2352941176      0.2941176471      0.2442499491E-02     539
   195  0.2941176471      0.2352941176      0.2941176471      0.4884998982E-02     541
   196  0.3529411765      0.2352941176      0.2941176471      0.4884998982E-02     536
   197  0.2941176471      0.2941176471      0.2941176471      0.2442499491E-02     537
   198  0.3529411765      0.2941176471      0.2941176471      0.2442499491E-02     532
   199   0.000000000       0.000000000      0.3529411765      0.4070832485E-03     556
   200  0.5882352941E-01   0.000000000      0.3529411765      0.2442499491E-02     548
   201  0.1176470588       0.000000000      0.3529411765      0.2442499491E-02     548
   202  0.1764705882       0.000000000      0.3529411765      0.2442499491E-02     546
   203  0.2352941176       0.000000000      0.3529411765      0.2442499491E-02     550
   204  0.2941176471       0.000000000      0.3529411765      0.2442499491E-02     549
   205  0.3529411765       0.000000000      0.3529411765      0.2442499491E-02     547
   206  0.4117647059       0.000000000      0.3529411765      0.2442499491E-02     541
   207  0.4705882353       0.000000000      0.3529411765      0.2442499491E-02     538
   208  0.5882352941E-01  0.5882352941E-01  0.3529411765      0.2442499491E-02     549
   209  0.1176470588      0.5882352941E-01  0.3529411765      0.4884998982E-02     548
   210  0.1764705882      0.5882352941E-01  0.3529411765      0.4884998982E-02     548
   211  0.2352941176      0.5882352941E-01  0.3529411765      0.4884998982E-02     548
   212  0.2941176471      0.5882352941E-01  0.3529411765      0.4884998982E-02     547
   213  0.3529411765      0.5882352941E-01  0.3529411765      0.4884998982E-02     545
   214  0.4117647059      0.5882352941E-01  0.3529411765      0.4884998982E-02     540
   215  0.4705882353      0.5882352941E-01  0.3529411765      0.2442499491E-02     538
   216  0.1176470588      0.1176470588      0.3529411765      0.2442499491E-02     547
   217  0.1764705882      0.1176470588      0.3529411765      0.4884998982E-02     543
   218  0.2352941176      0.1176470588      0.3529411765      0.4884998982E-02     544
   219  0.2941176471      0.1176470588      0.3529411765      0.4884998982E-02     544
   220  0.3529411765      0.1176470588      0.3529411765      0.4884998982E-02     544
   221  0.4117647059      0.1176470588      0.3529411765      0.4884998982E-02     542
   222  0.1764705882      0.1764705882      0.3529411765      0.2442499491E-02     541
   223  0.2352941176      0.1764705882      0.3529411765      0.4884998982E-02     544
   224  0.2941176471      0.1764705882      0.3529411765      0.4884998982E-02     539
   225  0.3529411765      0.1764705882      0.3529411765      0.4884998982E-02     538
   226  0.4117647059      0.1764705882      0.3529411765      0.2442499491E-02     538
   227  0.2352941176      0.2352941176      0.3529411765      0.2442499491E-02     537
   228  0.2941176471      0.2352941176      0.3529411765      0.4884998982E-02     539
   229  0.3529411765      0.2352941176      0.3529411765      0.4884998982E-02     536
   230  0.2941176471      0.2941176471      0.3529411765      0.2442499491E-02     535
   231  0.3529411765      0.2941176471      0.3529411765      0.2442499491E-02     534
   232   0.000000000       0.000000000      0.4117647059      0.4070832485E-03     556
   233  0.5882352941E-01   0.000000000      0.4117647059      0.2442499491E-02     546
   234  0.1176470588       0.000000000      0.4117647059      0.2442499491E-02     546
   235  0.1764705882       0.000000000      0.4117647059      0.2442499491E-02     546
   236  0.2352941176       0.000000000      0.4117647059      0.2442499491E-02     547
   237  0.2941176471       0.000000000      0.4117647059      0.2442499491E-02     550
   238  0.3529411765       0.000000000      0.4117647059      0.2442499491E-02     550
   239  0.4117647059       0.000000000      0.4117647059      0.2442499491E-02     540
   240  0.4705882353       0.000000000      0.4117647059      0.2442499491E-02     539
   241  0.5882352941E-01  0.5882352941E-01  0.4117647059      0.2442499491E-02     545
   242  0.1176470588      0.5882352941E-01  0.4117647059      0.4884998982E-02     547
   243  0.1764705882      0.5882352941E-01  0.4117647059      0.4884998982E-02     545
   244  0.2352941176      0.5882352941E-01  0.4117647059      0.4884998982E-02     548
   245  0.2941176471      0.5882352941E-01  0.4117647059      0.4884998982E-02     547
   246  0.3529411765      0.5882352941E-01  0.4117647059      0.4884998982E-02     546
   247  0.4117647059      0.5882352941E-01  0.4117647059      0.4884998982E-02     540
   248  0.4705882353      0.5882352941E-01  0.4117647059      0.2442499491E-02     543
   249  0.1176470588      0.1176470588      0.4117647059      0.2442499491E-02     546
   250  0.1764705882      0.1176470588      0.4117647059      0.4884998982E-02     546
   251  0.2352941176      0.1176470588      0.4117647059      0.4884998982E-02     545
   252  0.2941176471      0.1176470588      0.4117647059      0.4884998982E-02     545
   253  0.3529411765      0.1176470588      0.4117647059      0.4884998982E-02     542
   254  0.4117647059      0.1176470588      0.4117647059      0.4884998982E-02     541
   255  0.1764705882      0.1764705882      0.4117647059      0.2442499491E-02     542
   256  0.2352941176      0.1764705882      0.4117647059      0.4884998982E-02     545
   257  0.2941176471      0.1764705882      0.4117647059      0.4884998982E-02     540
   258  0.3529411765      0.1764705882      0.4117647059      0.4884998982E-02     539
   259  0.4117647059      0.1764705882      0.4117647059      0.2442499491E-02     537
   260  0.2352941176      0.2352941176      0.4117647059      0.2442499491E-02     538
   261  0.2941176471      0.2352941176      0.4117647059      0.4884998982E-02     539
   262  0.3529411765      0.2352941176      0.4117647059      0.4884998982E-02     536
   263  0.2941176471      0.2941176471      0.4117647059      0.2442499491E-02     537
   264  0.3529411765      0.2941176471      0.4117647059      0.2442499491E-02     535
   265   0.000000000       0.000000000      0.4705882353      0.4070832485E-03     556
   266  0.5882352941E-01   0.000000000      0.4705882353      0.2442499491E-02     550
   267  0.1176470588       0.000000000      0.4705882353      0.2442499491E-02     542
   268  0.1764705882       0.000000000      0.4705882353      0.2442499491E-02     545
   269  0.2352941176       0.000000000      0.4705882353      0.2442499491E-02     547
   270  0.2941176471       0.000000000      0.4705882353      0.2442499491E-02     549
   271  0.3529411765       0.000000000      0.4705882353      0.2442499491E-02     548
   272  0.4117647059       0.000000000      0.4705882353      0.2442499491E-02     542
   273  0.4705882353       0.000000000      0.4705882353      0.2442499491E-02     544
   274  0.5882352941E-01  0.5882352941E-01  0.4705882353      0.2442499491E-02     549
   275  0.1176470588      0.5882352941E-01  0.4705882353      0.4884998982E-02     544
   276  0.1764705882      0.5882352941E-01  0.4705882353      0.4884998982E-02     543
   277  0.2352941176      0.5882352941E-01  0.4705882353      0.4884998982E-02     546
   278  0.2941176471      0.5882352941E-01  0.4705882353      0.4884998982E-02     548
   279  0.3529411765      0.5882352941E-01  0.4705882353      0.4884998982E-02     546
   280  0.4117647059      0.5882352941E-01  0.4705882353      0.4884998982E-02     540
   281  0.4705882353      0.5882352941E-01  0.4705882353      0.2442499491E-02     542
   282  0.1176470588      0.1176470588      0.4705882353      0.2442499491E-02     544
   283  0.1764705882      0.1176470588      0.4705882353      0.4884998982E-02     544
   284  0.2352941176      0.1176470588      0.4705882353      0.4884998982E-02     546
   285  0.2941176471      0.1176470588      0.4705882353      0.4884998982E-02     547
   286  0.3529411765      0.1176470588      0.4705882353      0.4884998982E-02     544
   287  0.4117647059      0.1176470588      0.4705882353      0.4884998982E-02     544
   288  0.1764705882      0.1764705882      0.4705882353      0.2442499491E-02     544
   289  0.2352941176      0.1764705882      0.4705882353      0.4884998982E-02     545
   290  0.2941176471      0.1764705882      0.4705882353      0.4884998982E-02     542
   291  0.3529411765      0.1764705882      0.4705882353      0.4884998982E-02     540
   292  0.4117647059      0.1764705882      0.4705882353      0.2442499491E-02     535
   293  0.2352941176      0.2352941176      0.4705882353      0.2442499491E-02     536
   294  0.2941176471      0.2352941176      0.4705882353      0.4884998982E-02     539
   295  0.3529411765      0.2352941176      0.4705882353      0.4884998982E-02     538
   296  0.2941176471      0.2941176471      0.4705882353      0.2442499491E-02     540
   297  0.3529411765      0.2941176471      0.4705882353      0.2442499491E-02     538
