    -33697.1642122    
    -33692.3274801    
    -33678.7077171    
    -33573.2976836    
    -33493.9974132    
    -33460.5265219    
    -33447.0827679    
    -33447.3399206    
    -33447.3265232    
    -33447.3487643    
    -33447.3510872    
    -33447.3505097    
    -33447.3490666    
    -33447.3483062    
    -33447.3481049    
    -33447.3480920    
    -33447.3480927    
    -33447.3480926    
    -33447.3480917    
    -33447.3480908    
    -33447.3480734    
    -33447.3480729    
    -33447.3480734    
    -33447.3480566    
    -33447.3480572    
    -33447.3480558    
    -33447.3480559    
    -33447.3480556    
    -33447.3480561    
    -33447.3480554    
    -33447.3480554    
    -33447.3480542    
    -33447.3480543    
    -33447.3480539    
    -33447.3480534    
    -33447.3480534    
    -33447.3480534    
    -33447.3480534    
    -33447.3480535    
    -33447.3480534    
    -33447.3480531    
    -33447.3480531    
    -33447.3480535    
    -33447.3480537    
    -33447.3480529    
    -33447.3480535    
    -33447.3480532    
    -33447.3480533    
    -33447.3480531    
    -33447.3480533    
    -33447.3480531    
    -33447.3480532    
    -33447.3480529    
    -33447.3480533    
    -33447.3480530    
    -33447.3480533    
    -33447.3480535    
    -33447.3480530    
    -33447.3480535    
    -33447.3480531    
    -33447.3480534    
    -33447.3480531    
    -33447.3480535    
    -33447.3480531    
    -33447.3480531    
    -33447.3480530    
    -33447.3480534    
    -33447.3480531    
    -33447.3480532    
    -33447.3480536    
    -33447.3480531    
    -33447.3480534    
    -33447.3480532    
    -33447.3480534    
    -33447.3480530    
    -33447.3480535    
    -33447.3480537    
    -33447.3480532    
    -33447.3480534    
    -33447.3480533    
    -33447.3480536    
    -33447.3480532    
    -33447.3480533    
    -33447.3480530    
    -33447.3480531    
    -33447.3480532    
    -33447.3480535    
    -33447.3480531    
    -33447.3480531    
    -33447.3480529    
    -33447.3480533    
    -33447.3480531    
    -33447.3480533    
    -33447.3480534    
    -33447.3480531    
    -33447.3480535    
    -33447.3480530    
    -33447.3480535    
    -33447.3480531    
    -33447.3480533    
    -33447.3480530    
    -33447.3480530    
    -33447.3480530    
    -33447.3480532    
    -33447.3480535    
    -33447.3480532    
    -33447.3480535    
    -33447.3480535    
    -33447.3480530    
    -33447.3480529    
    -33447.3480534    
    -33447.3480536    
    -33447.3480531    
    -33447.3480535    
    -33447.3480531    
    -33447.3480533    
    -33447.3480529    
    -33447.3480533    
    -33447.3480530    
    -33447.3480534    
    -33447.3480530    
    -33447.3480534    
    -33447.3480531    
    -33447.3480532    
    -33447.3480529    
    -33447.3480534    
    -33447.3480536    
    -33447.3480530    
    -33447.3480532    
    -33447.3480532    
    -33447.3480535    
