+----------------------------+
| Elk version 8.3.15 started |
+----------------------------+
 
Date (YYYY-MM-DD) : 2022-02-14
Time (hh:mm:ss)   : 19:27:46
 
All units are atomic (Hartree, Bohr, etc.)
 
+-------------------------------------------------+
| Ground-state run starting from atomic densities |
+-------------------------------------------------+
 
Lattice vectors :
   3.604919102       3.604919102       0.000000000    
   3.604919102       0.000000000       3.604919102    
   0.000000000       3.604919102       3.604919102    
 
Reciprocal lattice vectors :
  0.8714738291      0.8714738291     -0.8714738291    
  0.8714738291     -0.8714738291      0.8714738291    
 -0.8714738291      0.8714738291      0.8714738291    
 
Unit cell volume      :    93.69503228    
Brillouin zone volume :    2.647421186    
 
Muffin-tin inner radius fraction :   0.1000000000E-01
 
Species :    1 (Rh)
 parameters loaded from : Rh.in
 name : rhodium
 nuclear charge    :   -45.00000000    
 electronic charge :    45.00000000    
 atomic mass :    187585.2510    
 muffin-tin radius :    2.420000000    
 number of radial points in muffin-tin :   1200
 number on inner part of muffin-tin    :    867
 atomic positions (lattice), magnetic fields (Cartesian) :
   1 :   0.00000000  0.00000000  0.00000000    0.00000000  0.00000000  0.00000000
 
Total number of atoms per unit cell :    1
 
Spin treatment :
 spin-unpolarised
 
Number of Bravais lattice symmetries :   48
Number of crystal symmetries         :   48
Crystal has inversion symmetry
Real symmetric eigensolver will be used
 
k-point grid :     17    17    17
k-point offset :    0.000000000       0.000000000       0.000000000    
k-point set is reduced with full crystal symmetry group
Total number of k-points :      165
 
Muffin-tin radius times maximum |G+k| :    8.500000000    
 using gkmax = rgkmax / 2
Maximum |G+k| for APW functions       :    4.250000000    
Maximum (1/2)|G+k|²                   :    9.031250000    
Maximum |G| for potential and density :    34.00000000    
Constant for pseudocharge density :   21
Radial integration step length :    1
 
G-vector grid sizes :     60    60    60
Number of G-vectors :    62079
 
Maximum angular momentum used for
 APW functions                      :   10
 outer part of muffin-tin           :    8
 inner part of muffin-tin           :    1
 
Total nuclear charge    :   -45.00000000    
Total core charge       :    28.00000000    
Total valence charge    :    17.00000000    
Total excess charge     :    0.000000000    
Total electronic charge :    45.00000000    
 
Effective Wigner radius, rₛ :   0.7921458428    
 
Number of empty states         :   20
Total number of valence states :   29
Total number of core states    :   28
 
Conduction state local-orbitals added automatically
Total number of local-orbitals :  126
 
Using Libxc version 05.01.05
Exchange-correlation functional :    100   493   494
 exchange: mgga_x_rscan; correlation: mgga_c_rscan
 
Smearing type :    1
 Methfessel-Paxton order 1, Phys. Rev. B 40, 3616 (1989)
Smearing width :   0.1000000000E-02
Effective electronic temperature (K) :    315.7750248    
 
Mixing type :    3
 Broyden mixing, J. Phys. A: Math. Gen. 17, L317 (1984)
 
Kohn-Sham potential initialised from atomic data
 
+------------------------------+
| Self-consistent loop started |
+------------------------------+
 
+--------------------+
| Loop number :    1 |
+--------------------+
 
Energies :
 Fermi                       :     0.160427037351    
 sum of eigenvalues          :     -2882.05681144    
 electron kinetic            :      4969.44190890    
 core electron kinetic       :      4855.96528140    
 Coulomb                     :     -9658.00532684    
 Coulomb potential           :     -7664.08030903    
 nuclear-nuclear             :     -505.008345578    
 electron-nuclear            :     -10641.9136535    
 Hartree                     :      1488.91667223    
 Madelung                    :     -5825.96517233    
 xc potential                :     -187.418411312    
 exchange                    :     -138.761700337    
 correlation                 :     -2.40943386021    
 total energy                :     -4829.73455213    
 
Density of states at Fermi energy :    25.41954308    
 (states/Hartree/unit cell)
 
Estimated indirect band gap :   0.1044306157E-02
 from k-point     15 to k-point    112
Estimated direct band gap   :   0.7868613928E-02
 at k-point    119
 
Charges :
 core                        :    28.00000000    
 valence                     :    17.00000000    
 interstitial                :    1.294116532    
 muffin-tins (core leakage)
  species :    1 (Rh)
   atom    1                 :    43.70588347     (  0.4442242130E-07)
 total in muffin-tins        :    43.70588347    
 total calculated charge     :    45.00044148    
 total charge                :    45.00000000    
 error                       :   0.4414754912E-03
 
Time (CPU seconds) :        14.51
 
+--------------------+
| Loop number :    2 |
+--------------------+
 
Energies :
 Fermi                       :     0.164203998519    
 sum of eigenvalues          :     -2881.67718410    
 electron kinetic            :      4969.78269656    
 core electron kinetic       :      4853.48746866    
 Coulomb                     :     -9657.69313754    
 Coulomb potential           :     -7664.05907922    
 nuclear-nuclear             :     -505.008345578    
 electron-nuclear            :     -10641.3105047    
 Hartree                     :      1488.62571274    
 Madelung                    :     -5825.66359793    
 xc potential                :     -187.400801436    
 exchange                    :     -138.748344485    
 correlation                 :     -2.40946194930    
 total energy                :     -4829.06824741    
 
Density of states at Fermi energy :    25.05737864    
 (states/Hartree/unit cell)
 
Estimated indirect band gap :   0.1001305362E-02
 from k-point     15 to k-point    112
Estimated direct band gap   :   0.7843697031E-02
 at k-point    119
 
Charges :
 core                        :    28.00000000    
 valence                     :    17.00000000    
 interstitial                :    1.297058455    
 muffin-tins (core leakage)
  species :    1 (Rh)
   atom    1                 :    43.70294155     (  0.4458158998E-07)
 total in muffin-tins        :    43.70294155    
 total calculated charge     :    45.00044320    
 total charge                :    45.00000000    
 error                       :   0.4431954506E-03
 
Wrote STATE.OUT
 
RMS change in Kohn-Sham potential (target) :   0.9718746817     (   10.00000000    )
Absolute change in total energy (target)   :   0.6663047209     (  0.1000000000E-07)
 
Time (CPU seconds) :        26.40
 
+--------------------+
| Loop number :    3 |
+--------------------+
 
Energies :
 Fermi                       :     0.201297004655    
 sum of eigenvalues          :     -2878.45276327    
 electron kinetic            :      4972.28905278    
 core electron kinetic       :      4843.31647898    
 Coulomb                     :     -9655.81147942    
 Coulomb potential           :     -7663.42108318    
 nuclear-nuclear             :     -505.008345578    
 electron-nuclear            :     -10638.1851845    
 Hartree                     :      1487.38205066    
 Madelung                    :     -5824.10093783    
 xc potential                :     -187.320732866    
 exchange                    :     -138.689459534    
 correlation                 :     -2.40924412716    
 total energy                :     -4824.62113030    
 
Density of states at Fermi energy :    24.80398321    
 (states/Hartree/unit cell)
 
Estimated indirect band gap :   0.9951942989E-03
 from k-point     15 to k-point    112
Estimated direct band gap   :   0.7899466506E-02
 at k-point    119
 
Charges :
 core                        :    28.00000000    
 valence                     :    17.00000000    
 interstitial                :    1.299588066    
 muffin-tins (core leakage)
  species :    1 (Rh)
   atom    1                 :    43.70041193     (  0.4738037518E-07)
 total in muffin-tins        :    43.70041193    
 total calculated charge     :    45.00044448    
 total charge                :    45.00000000    
 error                       :   0.4444835328E-03
 
RMS change in Kohn-Sham potential (target) :   0.8601070838     (   10.00000000    )
Absolute change in total energy (target)   :    4.613693293     (  0.1000000000E-07)
 
Time (CPU seconds) :        38.28
 
+--------------------+
| Loop number :    4 |
+--------------------+
 
Energies :
 Fermi                       :     0.364561025771    
 sum of eigenvalues          :     -2864.49363916    
 electron kinetic            :      4984.03868599    
 core electron kinetic       :      4842.41398766    
 Coulomb                     :     -9647.38212205    
 Coulomb potential           :     -7661.62422147    
 nuclear-nuclear             :     -505.008345578    
 electron-nuclear            :     -10623.1233315    
 Hartree                     :      1480.74955501    
 Madelung                    :     -5816.57001132    
 xc potential                :     -186.908103680    
 exchange                    :     -138.381725707    
 correlation                 :     -2.40920493949    
 total energy                :     -4804.13436672    
 
Density of states at Fermi energy :    24.25306365    
 (states/Hartree/unit cell)
 
Estimated indirect band gap :   0.3820603892E-03
 from k-point     15 to k-point    112
Estimated direct band gap   :   0.7665208679E-02
 at k-point    119
 
Charges :
 core                        :    28.00000000    
 valence                     :    17.00000000    
 interstitial                :    1.345159627    
 muffin-tins (core leakage)
  species :    1 (Rh)
   atom    1                 :    43.65484037     (  0.6690422083E-07)
 total in muffin-tins        :    43.65484037    
 total calculated charge     :    45.00045085    
 total charge                :    45.00000000    
 error                       :   0.4508477352E-03
 
Wrote STATE.OUT
 
RMS change in Kohn-Sham potential (target) :   0.4117284325     (   10.00000000    )
Absolute change in total energy (target)   :    21.64018691     (  0.1000000000E-07)
 
Time (CPU seconds) :        50.18
 
+--------------------+
| Loop number :    5 |
+--------------------+
 
Energies :
 Fermi                       :     0.454215780731    
 sum of eigenvalues          :     -2857.22667762    
 electron kinetic            :      4990.35057975    
 core electron kinetic       :      4842.66202293    
 Coulomb                     :     -9643.32412000    
 Coulomb potential           :     -7660.87221456    
 nuclear-nuclear             :     -505.008345578    
 electron-nuclear            :     -10615.7593343    
 Hartree                     :      1477.44355986    
 Madelung                    :     -5812.88801272    
 xc potential                :     -186.705042811    
 exchange                    :     -138.230501038    
 correlation                 :     -2.40924655965    
 total energy                :     -4793.61328784    
 
Density of states at Fermi energy :    23.74826304    
 (states/Hartree/unit cell)
 
Estimated indirect band gap :   0.1254813396E-02
 from k-point    112 to k-point    126
Estimated direct band gap   :   0.7480702678E-02
 at k-point    119
 
Charges :
 core                        :    28.00000000    
 valence                     :    17.00000000    
 interstitial                :    1.369414147    
 muffin-tins (core leakage)
  species :    1 (Rh)
   atom    1                 :    43.63058585     (  0.7271453484E-07)
 total in muffin-tins        :    43.63058585    
 total calculated charge     :    45.00045478    
 total charge                :    45.00000000    
 error                       :   0.4547787095E-03
 
RMS change in Kohn-Sham potential (target) :   0.1679769947     (   10.00000000    )
Absolute change in total energy (target)   :    15.93112560     (  0.1000000000E-07)
 
Time (CPU seconds) :        62.03
 
+--------------------+
| Loop number :    6 |
+--------------------+
 
Energies :
 Fermi                       :     0.496086782557    
 sum of eigenvalues          :     -2853.97964597    
 electron kinetic            :      4993.26820585    
 core electron kinetic       :      4842.81266710    
 Coulomb                     :     -9641.63328759    
 Coulomb potential           :     -7660.63044581    
 nuclear-nuclear             :     -505.008345578    
 electron-nuclear            :     -10612.6194382    
 Hartree                     :      1475.99449621    
 Madelung                    :     -5811.31806469    
 xc potential                :     -186.617406010    
 exchange                    :     -138.165257401    
 correlation                 :     -2.40930612394    
 total energy                :     -4788.93964527    
 
Density of states at Fermi energy :    22.83985415    
 (states/Hartree/unit cell)
 
Estimated indirect band gap :   0.1807995820E-03
 from k-point    112 to k-point     15
Estimated direct band gap   :   0.4449165950E-02
 at k-point     15
 
Charges :
 core                        :    28.00000000    
 valence                     :    17.00000000    
 interstitial                :    1.381259266    
 muffin-tins (core leakage)
  species :    1 (Rh)
   atom    1                 :    43.61874073     (  0.7978761829E-07)
 total in muffin-tins        :    43.61874073    
 total calculated charge     :    45.00045646    
 total charge                :    45.00000000    
 error                       :   0.4564556930E-03
 
Wrote STATE.OUT
 
RMS change in Kohn-Sham potential (target) :   0.5557165734E-01 (   10.00000000    )
Absolute change in total energy (target)   :    8.656423970     (  0.1000000000E-07)
 
Time (CPU seconds) :        73.91
 
+--------------------+
| Loop number :    7 |
+--------------------+
 
Energies :
 Fermi                       :     0.516505658834    
 sum of eigenvalues          :     -2852.42409058    
 electron kinetic            :      4994.68775076    
 core electron kinetic       :      4843.51589451    
 Coulomb                     :     -9640.85045476    
 Coulomb potential           :     -7660.53568436    
 nuclear-nuclear             :     -505.008345578    
 electron-nuclear            :     -10611.1485340    
 Hartree                     :      1475.30642482    
 Madelung                    :     -5810.58261258    
 xc potential                :     -186.576156979    
 exchange                    :     -138.134564861    
 correlation                 :     -2.40934219870    
 total energy                :     -4786.70661106    
 
Density of states at Fermi energy :    22.32768211    
 (states/Hartree/unit cell)
 
Estimated indirect band gap :   0.2784167762E-03
 from k-point    112 to k-point     15
Estimated direct band gap   :   0.4656943109E-02
 at k-point     15
 
Charges :
 core                        :    28.00000000    
 valence                     :    17.00000000    
 interstitial                :    1.387137069    
 muffin-tins (core leakage)
  species :    1 (Rh)
   atom    1                 :    43.61286293     (  0.8193006806E-07)
 total in muffin-tins        :    43.61286293    
 total calculated charge     :    45.00045716    
 total charge                :    45.00000000    
 error                       :   0.4571615104E-03
 
RMS change in Kohn-Sham potential (target) :   0.4759050906E-02 (   10.00000000    )
Absolute change in total energy (target)   :    4.397140205     (  0.1000000000E-07)
 
Time (CPU seconds) :        85.82
 
+--------------------+
| Loop number :    8 |
+--------------------+
 
Energies :
 Fermi                       :     0.516892034481    
 sum of eigenvalues          :     -2852.44402359    
 electron kinetic            :      4994.71671732    
 core electron kinetic       :      4843.57210646    
 Coulomb                     :     -9640.89881898    
 Coulomb potential           :     -7660.58385940    
 nuclear-nuclear             :     -505.008345578    
 electron-nuclear            :     -10611.1970874    
 Hartree                     :      1475.30661401    
 Madelung                    :     -5810.60688928    
 xc potential                :     -186.576881510    
 exchange                    :     -138.135087751    
 correlation                 :     -2.40936218555    
 total energy                :     -4786.72655160    
 
Density of states at Fermi energy :    22.27775115    
 (states/Hartree/unit cell)
 
Estimated indirect band gap :   0.2911647572E-03
 from k-point    112 to k-point     15
Estimated direct band gap   :   0.4682450338E-02
 at k-point     15
 
Charges :
 core                        :    28.00000000    
 valence                     :    17.00000000    
 interstitial                :    1.387790046    
 muffin-tins (core leakage)
  species :    1 (Rh)
   atom    1                 :    43.61220995     (  0.8196103707E-07)
 total in muffin-tins        :    43.61220995    
 total calculated charge     :    45.00045724    
 total charge                :    45.00000000    
 error                       :   0.4572394003E-03
 
Wrote STATE.OUT
 
RMS change in Kohn-Sham potential (target) :   0.2307351936E-02 (   10.00000000    )
Absolute change in total energy (target)   :    1.079344511     (  0.1000000000E-07)
 
Time (CPU seconds) :        97.70
 
+--------------------+
| Loop number :    9 |
+--------------------+
 
Energies :
 Fermi                       :     0.516932955564    
 sum of eigenvalues          :     -2852.45970559    
 electron kinetic            :      4994.71880279    
 core electron kinetic       :      4843.57523848    
 Coulomb                     :     -9640.92604328    
 Coulomb potential           :     -7660.60070162    
 nuclear-nuclear             :     -505.008345578    
 electron-nuclear            :     -10611.2346938    
 Hartree                     :      1475.31699609    
 Madelung                    :     -5810.62569248    
 xc potential                :     -186.577806760    
 exchange                    :     -138.135799291    
 correlation                 :     -2.40936557564    
 total energy                :     -4786.75240536    
 
Density of states at Fermi energy :    22.27910218    
 (states/Hartree/unit cell)
 
Estimated indirect band gap :   0.2925989377E-03
 from k-point    112 to k-point     15
Estimated direct band gap   :   0.4684526931E-02
 at k-point     15
 
Charges :
 core                        :    28.00000000    
 valence                     :    17.00000000    
 interstitial                :    1.387868872    
 muffin-tins (core leakage)
  species :    1 (Rh)
   atom    1                 :    43.61213113     (  0.8208762381E-07)
 total in muffin-tins        :    43.61213113    
 total calculated charge     :    45.00045715    
 total charge                :    45.00000000    
 error                       :   0.4571489160E-03
 
RMS change in Kohn-Sham potential (target) :   0.6741790851E-03 (   10.00000000    )
Absolute change in total energy (target)   :   0.2439823616     (  0.1000000000E-07)
 
Time (CPU seconds) :       109.61
 
+--------------------+
| Loop number :   10 |
+--------------------+
 
Energies :
 Fermi                       :     0.516834703629    
 sum of eigenvalues          :     -2852.45162393    
 electron kinetic            :      4994.71826325    
 core electron kinetic       :      4843.56482779    
 Coulomb                     :     -9640.90846804    
 Coulomb potential           :     -7660.59275223    
 nuclear-nuclear             :     -505.008345578    
 electron-nuclear            :     -10611.2074927    
 Hartree                     :      1475.30737023    
 Madelung                    :     -5810.61209192    
 xc potential                :     -186.577134950    
 exchange                    :     -138.135294159    
 correlation                 :     -2.40936403438    
 total energy                :     -4786.73486298    
 
Density of states at Fermi energy :    22.27932543    
 (states/Hartree/unit cell)
 
Estimated indirect band gap :   0.2926476550E-03
 from k-point    112 to k-point     15
Estimated direct band gap   :   0.4684560860E-02
 at k-point     15
 
Charges :
 core                        :    28.00000000    
 valence                     :    17.00000000    
 interstitial                :    1.387881340    
 muffin-tins (core leakage)
  species :    1 (Rh)
   atom    1                 :    43.61211866     (  0.8200296620E-07)
 total in muffin-tins        :    43.61211866    
 total calculated charge     :    45.00045715    
 total charge                :    45.00000000    
 error                       :   0.4571498700E-03
 
Wrote STATE.OUT
 
RMS change in Kohn-Sham potential (target) :   0.1753083180E-02 (   10.00000000    )
Absolute change in total energy (target)   :   0.7853797551E-01 (  0.1000000000E-07)
 
Time (CPU seconds) :       121.47
 
+--------------------+
| Loop number :   11 |
+--------------------+
 
Energies :
 Fermi                       :     0.516817289283    
 sum of eigenvalues          :     -2852.44852921    
 electron kinetic            :      4994.71589012    
 core electron kinetic       :      4843.56130437    
 Coulomb                     :     -9640.90277100    
 Coulomb potential           :     -7660.58739613    
 nuclear-nuclear             :     -505.008345578    
 electron-nuclear            :     -10611.2014547    
 Hartree                     :      1475.30702930    
 Madelung                    :     -5810.60907294    
 xc potential                :     -186.577023210    
 exchange                    :     -138.135208918    
 correlation                 :     -2.40936203522    
 total energy                :     -4786.73145183    
 
Density of states at Fermi energy :    22.28306638    
 (states/Hartree/unit cell)
 
Estimated indirect band gap :   0.2913381482E-03
 from k-point    112 to k-point     15
Estimated direct band gap   :   0.4682100096E-02
 at k-point     15
 
Charges :
 core                        :    28.00000000    
 valence                     :    17.00000000    
 interstitial                :    1.387812333    
 muffin-tins (core leakage)
  species :    1 (Rh)
   atom    1                 :    43.61218767     (  0.8197844181E-07)
 total in muffin-tins        :    43.61218767    
 total calculated charge     :    45.00045718    
 total charge                :    45.00000000    
 error                       :   0.4571763563E-03
 
RMS change in Kohn-Sham potential (target) :   0.4652675012E-03 (   10.00000000    )
Absolute change in total energy (target)   :   0.2304564001E-01 (  0.1000000000E-07)
 
Time (CPU seconds) :       133.36
 
+--------------------+
| Loop number :   12 |
+--------------------+
 
Energies :
 Fermi                       :     0.516820779261    
 sum of eigenvalues          :     -2852.44908635    
 electron kinetic            :      4994.71598724    
 core electron kinetic       :      4843.56256945    
 Coulomb                     :     -9640.90402602    
 Coulomb potential           :     -7660.58799792    
 nuclear-nuclear             :     -505.008345578    
 electron-nuclear            :     -10611.2033630    
 Hartree                     :      1475.30768252    
 Madelung                    :     -5810.61002706    
 xc potential                :     -186.577075666    
 exchange                    :     -138.135249938    
 correlation                 :     -2.40936202585    
 total energy                :     -4786.73265074    
 
Density of states at Fermi energy :    22.28376541    
 (states/Hartree/unit cell)
 
Estimated indirect band gap :   0.2912895354E-03
 from k-point    112 to k-point     15
Estimated direct band gap   :   0.4681942952E-02
 at k-point     15
 
Charges :
 core                        :    28.00000000    
 valence                     :    17.00000000    
 interstitial                :    1.387810309    
 muffin-tins (core leakage)
  species :    1 (Rh)
   atom    1                 :    43.61218969     (  0.8198398760E-07)
 total in muffin-tins        :    43.61218969    
 total calculated charge     :    45.00045717    
 total charge                :    45.00000000    
 error                       :   0.4571713281E-03
 
Wrote STATE.OUT
 
RMS change in Kohn-Sham potential (target) :   0.3129371016E-03 (   10.00000000    )
Absolute change in total energy (target)   :   0.4562498861E-02 (  0.1000000000E-07)
 
Time (CPU seconds) :       145.23
 
+--------------------+
| Loop number :   13 |
+--------------------+
 
Energies :
 Fermi                       :     0.516823512696    
 sum of eigenvalues          :     -2852.44971887    
 electron kinetic            :      4994.71640435    
 core electron kinetic       :      4843.56315935    
 Coulomb                     :     -9640.90543449    
 Coulomb potential           :     -7660.58900045    
 nuclear-nuclear             :     -505.008345578    
 electron-nuclear            :     -10611.2051774    
 Hartree                     :      1475.30808847    
 Madelung                    :     -5810.61093427    
 xc potential                :     -186.577122766    
 exchange                    :     -138.135287460    
 correlation                 :     -2.40936217750    
 total energy                :     -4786.73367978    
 
Density of states at Fermi energy :    22.28421884    
 (states/Hartree/unit cell)
 
Estimated indirect band gap :   0.2913828780E-03
 from k-point    112 to k-point     15
Estimated direct band gap   :   0.4682034376E-02
 at k-point     15
 
Charges :
 core                        :    28.00000000    
 valence                     :    17.00000000    
 interstitial                :    1.387816409    
 muffin-tins (core leakage)
  species :    1 (Rh)
   atom    1                 :    43.61218359     (  0.8200293777E-07)
 total in muffin-tins        :    43.61218359    
 total calculated charge     :    45.00045716    
 total charge                :    45.00000000    
 error                       :   0.4571619520E-03
 
RMS change in Kohn-Sham potential (target) :   0.1739737481E-03 (   10.00000000    )
Absolute change in total energy (target)   :   0.1115869545E-03 (  0.1000000000E-07)
 
Time (CPU seconds) :       157.07
 
+--------------------+
| Loop number :   14 |
+--------------------+
 
Energies :
 Fermi                       :     0.516824137924    
 sum of eigenvalues          :     -2852.44937404    
 electron kinetic            :      4994.71654535    
 core electron kinetic       :      4843.56302177    
 Coulomb                     :     -9640.90501583    
 Coulomb potential           :     -7660.58881232    
 nuclear-nuclear             :     -505.008345578    
 electron-nuclear            :     -10611.2045282    
 Hartree                     :      1475.30785793    
 Madelung                    :     -5810.61060967    
 xc potential                :     -186.577107067    
 exchange                    :     -138.135275832    
 correlation                 :     -2.40936214106    
 total energy                :     -4786.73310846    
 
Density of states at Fermi energy :    22.28426080    
 (states/Hartree/unit cell)
 
Estimated indirect band gap :   0.2913842192E-03
 from k-point    112 to k-point     15
Estimated direct band gap   :   0.4682030241E-02
 at k-point     15
 
Charges :
 core                        :    28.00000000    
 valence                     :    17.00000000    
 interstitial                :    1.387816694    
 muffin-tins (core leakage)
  species :    1 (Rh)
   atom    1                 :    43.61218331     (  0.8199031143E-07)
 total in muffin-tins        :    43.61218331    
 total calculated charge     :    45.00045716    
 total charge                :    45.00000000    
 error                       :   0.4571619863E-03
 
Wrote STATE.OUT
 
RMS change in Kohn-Sham potential (target) :   0.2492506288E-04 (   10.00000000    )
Absolute change in total energy (target)   :   0.5992236638E-03 (  0.1000000000E-07)
 
Time (CPU seconds) :       168.95
 
+--------------------+
| Loop number :   15 |
+--------------------+
 
Energies :
 Fermi                       :     0.516824001113    
 sum of eigenvalues          :     -2852.44930209    
 electron kinetic            :      4994.71658292    
 core electron kinetic       :      4843.56302869    
 Coulomb                     :     -9640.90494651    
 Coulomb potential           :     -7660.58877960    
 nuclear-nuclear             :     -505.008345578    
 electron-nuclear            :     -10611.2044223    
 Hartree                     :      1475.30782133    
 Madelung                    :     -5810.61055671    
 xc potential                :     -186.577105416    
 exchange                    :     -138.135274858    
 correlation                 :     -2.40936211969    
 total energy                :     -4786.73300056    
 
Density of states at Fermi energy :    22.28438242    
 (states/Hartree/unit cell)
 
Estimated indirect band gap :   0.2913773704E-03
 from k-point    112 to k-point     15
Estimated direct band gap   :   0.4682004999E-02
 at k-point     15
 
Charges :
 core                        :    28.00000000    
 valence                     :    17.00000000    
 interstitial                :    1.387816508    
 muffin-tins (core leakage)
  species :    1 (Rh)
   atom    1                 :    43.61218349     (  0.8197663703E-07)
 total in muffin-tins        :    43.61218349    
 total calculated charge     :    45.00045716    
 total charge                :    45.00000000    
 error                       :   0.4571613485E-03
 
RMS change in Kohn-Sham potential (target) :   0.8069616374E-04 (   10.00000000    )
Absolute change in total energy (target)   :   0.2577020205E-03 (  0.1000000000E-07)
 
Time (CPU seconds) :       180.81
 
+--------------------+
| Loop number :   16 |
+--------------------+
 
Energies :
 Fermi                       :     0.516824096055    
 sum of eigenvalues          :     -2852.44930235    
 electron kinetic            :      4994.71660852    
 core electron kinetic       :      4843.56293950    
 Coulomb                     :     -9640.90496533    
 Coulomb potential           :     -7660.58880515    
 nuclear-nuclear             :     -505.008345578    
 electron-nuclear            :     -10611.2044344    
 Hartree                     :      1475.30781461    
 Madelung                    :     -5810.61056276    
 xc potential                :     -186.577105728    
 exchange                    :     -138.135275171    
 correlation                 :     -2.40936212967    
 total energy                :     -4786.73299411    
 
Density of states at Fermi energy :    22.28439069    
 (states/Hartree/unit cell)
 
Estimated indirect band gap :   0.2913848901E-03
 from k-point    112 to k-point     15
Estimated direct band gap   :   0.4682015464E-02
 at k-point     15
 
Charges :
 core                        :    28.00000000    
 valence                     :    17.00000000    
 interstitial                :    1.387816933    
 muffin-tins (core leakage)
  species :    1 (Rh)
   atom    1                 :    43.61218307     (  0.8197544332E-07)
 total in muffin-tins        :    43.61218307    
 total calculated charge     :    45.00045716    
 total charge                :    45.00000000    
 error                       :   0.4571609788E-03
 
Wrote STATE.OUT
 
RMS change in Kohn-Sham potential (target) :   0.4182576477E-03 (   10.00000000    )
Absolute change in total energy (target)   :   0.7087294034E-04 (  0.1000000000E-07)
 
Time (CPU seconds) :       192.67
 
+--------------------+
| Loop number :   17 |
+--------------------+
 
Energies :
 Fermi                       :     0.516824301150    
 sum of eigenvalues          :     -2852.44918165    
 electron kinetic            :      4994.71661764    
 core electron kinetic       :      4843.56289355    
 Coulomb                     :     -9640.90480963    
 Coulomb potential           :     -7660.58869804    
 nuclear-nuclear             :     -505.008345578    
 electron-nuclear            :     -10611.2042301    
 Hartree                     :      1475.30776601    
 Madelung                    :     -5810.61046061    
 xc potential                :     -186.577101243    
 exchange                    :     -138.135271830    
 correlation                 :     -2.40936210172    
 total energy                :     -4786.73282593    
 
Density of states at Fermi energy :    22.28444369    
 (states/Hartree/unit cell)
 
Estimated indirect band gap :   0.2913709502E-03
 from k-point    112 to k-point     15
Estimated direct band gap   :   0.4681986918E-02
 at k-point     15
 
Charges :
 core                        :    28.00000000    
 valence                     :    17.00000000    
 interstitial                :    1.387816173    
 muffin-tins (core leakage)
  species :    1 (Rh)
   atom    1                 :    43.61218383     (  0.8193034517E-07)
 total in muffin-tins        :    43.61218383    
 total calculated charge     :    45.00045716    
 total charge                :    45.00000000    
 error                       :   0.4571614756E-03
 
RMS change in Kohn-Sham potential (target) :   0.2317672265E-04 (   10.00000000    )
Absolute change in total energy (target)   :   0.1859017630E-03 (  0.1000000000E-07)
 
Time (CPU seconds) :       204.54
 
+--------------------+
| Loop number :   18 |
+--------------------+
 
Energies :
 Fermi                       :     0.516824229517    
 sum of eigenvalues          :     -2852.44919487    
 electron kinetic            :      4994.71662155    
 core electron kinetic       :      4843.56291061    
 Coulomb                     :     -9640.90482852    
 Coulomb potential           :     -7660.58871462    
 nuclear-nuclear             :     -505.008345578    
 electron-nuclear            :     -10611.2042513    
 Hartree                     :      1475.30776832    
 Madelung                    :     -5810.61047121    
 xc potential                :     -186.577101798    
 exchange                    :     -138.135272280    
 correlation                 :     -2.40936210748    
 total energy                :     -4786.73284135    
 
Density of states at Fermi energy :    22.28444828    
 (states/Hartree/unit cell)
 
Estimated indirect band gap :   0.2913746026E-03
 from k-point    112 to k-point     15
Estimated direct band gap   :   0.4681991887E-02
 at k-point     15
 
Charges :
 core                        :    28.00000000    
 valence                     :    17.00000000    
 interstitial                :    1.387816368    
 muffin-tins (core leakage)
  species :    1 (Rh)
   atom    1                 :    43.61218363     (  0.8190542999E-07)
 total in muffin-tins        :    43.61218363    
 total calculated charge     :    45.00045716    
 total charge                :    45.00000000    
 error                       :   0.4571613390E-03
 
Wrote STATE.OUT
 
RMS change in Kohn-Sham potential (target) :   0.7345971639E-04 (   10.00000000    )
Absolute change in total energy (target)   :   0.3105149153E-04 (  0.1000000000E-07)
 
Time (CPU seconds) :       216.41
 
+--------------------+
| Loop number :   19 |
+--------------------+
 
Energies :
 Fermi                       :     0.516824217102    
 sum of eigenvalues          :     -2852.44920047    
 electron kinetic            :      4994.71662154    
 core electron kinetic       :      4843.56299441    
 Coulomb                     :     -9640.90483651    
 Coulomb potential           :     -7660.58872002    
 nuclear-nuclear             :     -505.008345578    
 electron-nuclear            :     -10611.2042618    
 Hartree                     :      1475.30777091    
 Madelung                    :     -5810.61047650    
 xc potential                :     -186.577101993    
 exchange                    :     -138.135272427    
 correlation                 :     -2.40936210984    
 total energy                :     -4786.73284951    
 
Density of states at Fermi energy :    22.28444550    
 (states/Hartree/unit cell)
 
Estimated indirect band gap :   0.2913758317E-03
 from k-point    112 to k-point     15
Estimated direct band gap   :   0.4681994065E-02
 at k-point     15
 
Charges :
 core                        :    28.00000000    
 valence                     :    17.00000000    
 interstitial                :    1.387816426    
 muffin-tins (core leakage)
  species :    1 (Rh)
   atom    1                 :    43.61218357     (  0.8198697898E-07)
 total in muffin-tins        :    43.61218357    
 total calculated charge     :    45.00045716    
 total charge                :    45.00000000    
 error                       :   0.4571612281E-03
 
RMS change in Kohn-Sham potential (target) :   0.5702669896E-03 (   10.00000000    )
Absolute change in total energy (target)   :   0.3922659744E-06 (  0.1000000000E-07)
 
Time (CPU seconds) :       228.26
 
+--------------------+
| Loop number :   20 |
+--------------------+
 
Energies :
 Fermi                       :     0.516824276003    
 sum of eigenvalues          :     -2852.44927945    
 electron kinetic            :      4994.71658790    
 core electron kinetic       :      4843.56297277    
 Coulomb                     :     -9640.90492810    
 Coulomb potential           :     -7660.58876246    
 nuclear-nuclear             :     -505.008345578    
 electron-nuclear            :     -10611.2044026    
 Hartree                     :      1475.30782006    
 Madelung                    :     -5810.61054687    
 xc potential                :     -186.577104898    
 exchange                    :     -138.135274447    
 correlation                 :     -2.40936212262    
 total energy                :     -4786.73297676    
 
Density of states at Fermi energy :    22.28437714    
 (states/Hartree/unit cell)
 
Estimated indirect band gap :   0.2913778150E-03
 from k-point    112 to k-point     15
Estimated direct band gap   :   0.4682005724E-02
 at k-point     15
 
Charges :
 core                        :    28.00000000    
 valence                     :    17.00000000    
 interstitial                :    1.387816440    
 muffin-tins (core leakage)
  species :    1 (Rh)
   atom    1                 :    43.61218356     (  0.8197421053E-07)
 total in muffin-tins        :    43.61218356    
 total calculated charge     :    45.00045716    
 total charge                :    45.00000000    
 error                       :   0.4571615733E-03
 
Wrote STATE.OUT
 
RMS change in Kohn-Sham potential (target) :   0.3464193635E-04 (   10.00000000    )
Absolute change in total energy (target)   :   0.1273539547E-03 (  0.1000000000E-07)
 
Time (CPU seconds) :       240.14
 
+--------------------+
| Loop number :   21 |
+--------------------+
 
Energies :
 Fermi                       :     0.516824209445    
 sum of eigenvalues          :     -2852.44925117    
 electron kinetic            :      4994.71660752    
 core electron kinetic       :      4843.56296844    
 Coulomb                     :     -9640.90489708    
 Coulomb potential           :     -7660.58875490    
 nuclear-nuclear             :     -505.008345578    
 electron-nuclear            :     -10611.2043481    
 Hartree                     :      1475.30779660    
 Madelung                    :     -5810.61051963    
 xc potential                :     -186.577103794    
 exchange                    :     -138.135273707    
 correlation                 :     -2.40936212014    
 total energy                :     -4786.73292539    
 
Density of states at Fermi energy :    22.28440605    
 (states/Hartree/unit cell)
 
Estimated indirect band gap :   0.2913797736E-03
 from k-point    112 to k-point     15
Estimated direct band gap   :   0.4682005069E-02
 at k-point     15
 
Charges :
 core                        :    28.00000000    
 valence                     :    17.00000000    
 interstitial                :    1.387816592    
 muffin-tins (core leakage)
  species :    1 (Rh)
   atom    1                 :    43.61218341     (  0.8195393875E-07)
 total in muffin-tins        :    43.61218341    
 total calculated charge     :    45.00045716    
 total charge                :    45.00000000    
 error                       :   0.4571613341E-03
 
RMS change in Kohn-Sham potential (target) :   0.4078300299E-04 (   10.00000000    )
Absolute change in total energy (target)   :   0.1953794981E-04 (  0.1000000000E-07)
 
Time (CPU seconds) :       251.95
 
+--------------------+
| Loop number :   22 |
+--------------------+
 
Energies :
 Fermi                       :     0.516824177650    
 sum of eigenvalues          :     -2852.44924307    
 electron kinetic            :      4994.71661120    
 core electron kinetic       :      4843.56295332    
 Coulomb                     :     -9640.90488746    
 Coulomb potential           :     -7660.58875078    
 nuclear-nuclear             :     -505.008345578    
 electron-nuclear            :     -10611.2043330    
 Hartree                     :      1475.30779109    
 Madelung                    :     -5810.61051206    
 xc potential                :     -186.577103485    
 exchange                    :     -138.135273500    
 correlation                 :     -2.40936211892    
 total energy                :     -4786.73291188    
 
Density of states at Fermi energy :    22.28441592    
 (states/Hartree/unit cell)
 
Estimated indirect band gap :   0.2913796276E-03
 from k-point    112 to k-point     15
Estimated direct band gap   :   0.4682003619E-02
 at k-point     15
 
Charges :
 core                        :    28.00000000    
 valence                     :    17.00000000    
 interstitial                :    1.387816598    
 muffin-tins (core leakage)
  species :    1 (Rh)
   atom    1                 :    43.61218340     (  0.8190050238E-07)
 total in muffin-tins        :    43.61218340    
 total calculated charge     :    45.00045716    
 total charge                :    45.00000000    
 error                       :   0.4571613159E-03
 
Wrote STATE.OUT
 
RMS change in Kohn-Sham potential (target) :   0.2112365176E-03 (   10.00000000    )
Absolute change in total energy (target)   :   0.1839330525E-04 (  0.1000000000E-07)
 
Time (CPU seconds) :       263.84
 
+--------------------+
| Loop number :   23 |
+--------------------+
 
Energies :
 Fermi                       :     0.516824192360    
 sum of eigenvalues          :     -2852.44922836    
 electron kinetic            :      4994.71661364    
 core electron kinetic       :      4843.56295197    
 Coulomb                     :     -9640.90486947    
 Coulomb potential           :     -7660.58873903    
 nuclear-nuclear             :     -505.008345578    
 electron-nuclear            :     -10611.2043088    
 Hartree                     :      1475.30778486    
 Madelung                    :     -5810.61049996    
 xc potential                :     -186.577102969    
 exchange                    :     -138.135273126    
 correlation                 :     -2.40936211442    
 total energy                :     -4786.73289108    
 
Density of states at Fermi energy :    22.28442552    
 (states/Hartree/unit cell)
 
Estimated indirect band gap :   0.2913777401E-03
 from k-point    112 to k-point     15
Estimated direct band gap   :   0.4681999539E-02
 at k-point     15
 
Charges :
 core                        :    28.00000000    
 valence                     :    17.00000000    
 interstitial                :    1.387816509    
 muffin-tins (core leakage)
  species :    1 (Rh)
   atom    1                 :    43.61218349     (  0.8196064627E-07)
 total in muffin-tins        :    43.61218349    
 total calculated charge     :    45.00045716    
 total charge                :    45.00000000    
 error                       :   0.4571612931E-03
 
RMS change in Kohn-Sham potential (target) :   0.2087858750E-03 (   10.00000000    )
Absolute change in total energy (target)   :   0.2540065270E-04 (  0.1000000000E-07)
 
Time (CPU seconds) :       275.80
 
+--------------------+
| Loop number :   24 |
+--------------------+
 
Energies :
 Fermi                       :     0.516824168579    
 sum of eigenvalues          :     -2852.44923283    
 electron kinetic            :      4994.71661380    
 core electron kinetic       :      4843.56295784    
 Coulomb                     :     -9640.90487399    
 Coulomb potential           :     -7660.58874352    
 nuclear-nuclear             :     -505.008345578    
 electron-nuclear            :     -10611.2043133    
 Hartree                     :      1475.30778489    
 Madelung                    :     -5810.61050223    
 xc potential                :     -186.577103106    
 exchange                    :     -138.135273233    
 correlation                 :     -2.40936211609    
 total energy                :     -4786.73289554    
 
Density of states at Fermi energy :    22.28442444    
 (states/Hartree/unit cell)
 
Estimated indirect band gap :   0.2913788297E-03
 from k-point    112 to k-point     15
Estimated direct band gap   :   0.4682001322E-02
 at k-point     15
 
Charges :
 core                        :    28.00000000    
 valence                     :    17.00000000    
 interstitial                :    1.387816565    
 muffin-tins (core leakage)
  species :    1 (Rh)
   atom    1                 :    43.61218343     (  0.8200042245E-07)
 total in muffin-tins        :    43.61218343    
 total calculated charge     :    45.00045716    
 total charge                :    45.00000000    
 error                       :   0.4571612080E-03
 
Wrote STATE.OUT
 
RMS change in Kohn-Sham potential (target) :   0.2537988434E-03 (   10.00000000    )
Absolute change in total energy (target)   :   0.1887744475E-05 (  0.1000000000E-07)
 
Time (CPU seconds) :       287.80
 
+--------------------+
| Loop number :   25 |
+--------------------+
 
Energies :
 Fermi                       :     0.516824150493    
 sum of eigenvalues          :     -2852.44923652    
 electron kinetic            :      4994.71661271    
 core electron kinetic       :      4843.56295558    
 Coulomb                     :     -9640.90487826    
 Coulomb potential           :     -7660.58874602    
 nuclear-nuclear             :     -505.008345578    
 electron-nuclear            :     -10611.2043194    
 Hartree                     :      1475.30778667    
 Madelung                    :     -5810.61050525    
 xc potential                :     -186.577103215    
 exchange                    :     -138.135273311    
 correlation                 :     -2.40936211703    
 total energy                :     -4786.73290098    
 
Density of states at Fermi energy :    22.28442280    
 (states/Hartree/unit cell)
 
Estimated indirect band gap :   0.2913791660E-03
 from k-point    112 to k-point     15
Estimated direct band gap   :   0.4682002054E-02
 at k-point     15
 
Charges :
 core                        :    28.00000000    
 valence                     :    17.00000000    
 interstitial                :    1.387816582    
 muffin-tins (core leakage)
  species :    1 (Rh)
   atom    1                 :    43.61218342     (  0.8207433666E-07)
 total in muffin-tins        :    43.61218342    
 total calculated charge     :    45.00045716    
 total charge                :    45.00000000    
 error                       :   0.4571611358E-03
 
RMS change in Kohn-Sham potential (target) :   0.4502599558E-04 (   10.00000000    )
Absolute change in total energy (target)   :   0.4971055205E-05 (  0.1000000000E-07)
 
Time (CPU seconds) :       299.74
 
+--------------------+
| Loop number :   26 |
+--------------------+
 
Energies :
 Fermi                       :     0.516824176431    
 sum of eigenvalues          :     -2852.44923303    
 electron kinetic            :      4994.71661209    
 core electron kinetic       :      4843.56295053    
 Coulomb                     :     -9640.90487399    
 Coulomb potential           :     -7660.58874202    
 nuclear-nuclear             :     -505.008345578    
 electron-nuclear            :     -10611.2043148    
 Hartree                     :      1475.30778640    
 Madelung                    :     -5810.61050298    
 xc potential                :     -186.577103104    
 exchange                    :     -138.135273222    
 correlation                 :     -2.40936211582    
 total energy                :     -4786.73289724    
 
Density of states at Fermi energy :    22.28442241    
 (states/Hartree/unit cell)
 
Estimated indirect band gap :   0.2913782616E-03
 from k-point    112 to k-point     15
Estimated direct band gap   :   0.4682000719E-02
 at k-point     15
 
Charges :
 core                        :    28.00000000    
 valence                     :    17.00000000    
 interstitial                :    1.387816532    
 muffin-tins (core leakage)
  species :    1 (Rh)
   atom    1                 :    43.61218347     (  0.8205681823E-07)
 total in muffin-tins        :    43.61218347    
 total calculated charge     :    45.00045716    
 total charge                :    45.00000000    
 error                       :   0.4571611921E-03
 
Wrote STATE.OUT
 
RMS change in Kohn-Sham potential (target) :   0.1154904450E-03 (   10.00000000    )
Absolute change in total energy (target)   :   0.2496955858E-05 (  0.1000000000E-07)
 
Time (CPU seconds) :       311.67
 
+--------------------+
| Loop number :   27 |
+--------------------+
 
Energies :
 Fermi                       :     0.516824165564    
 sum of eigenvalues          :     -2852.44923069    
 electron kinetic            :      4994.71661356    
 core electron kinetic       :      4843.56295048    
 Coulomb                     :     -9640.90487133    
 Coulomb potential           :     -7660.58874124    
 nuclear-nuclear             :     -505.008345578    
 electron-nuclear            :     -10611.2043103    
 Hartree                     :      1475.30778452    
 Madelung                    :     -5810.61050071    
 xc potential                :     -186.577103016    
 exchange                    :     -138.135273164    
 correlation                 :     -2.40936211571    
 total energy                :     -4786.73289305    
 
Density of states at Fermi energy :    22.28442568    
 (states/Hartree/unit cell)
 
Estimated indirect band gap :   0.2913784574E-03
 from k-point    112 to k-point     15
Estimated direct band gap   :   0.4682000599E-02
 at k-point     15
 
Charges :
 core                        :    28.00000000    
 valence                     :    17.00000000    
 interstitial                :    1.387816546    
 muffin-tins (core leakage)
  species :    1 (Rh)
   atom    1                 :    43.61218345     (  0.8209229918E-07)
 total in muffin-tins        :    43.61218345    
 total calculated charge     :    45.00045716    
 total charge                :    45.00000000    
 error                       :   0.4571611379E-03
 
RMS change in Kohn-Sham potential (target) :   0.2616485687E-04 (   10.00000000    )
Absolute change in total energy (target)   :   0.4817475201E-05 (  0.1000000000E-07)
 
Time (CPU seconds) :       323.59
 
+--------------------+
| Loop number :   28 |
+--------------------+
 
Energies :
 Fermi                       :     0.516824155300    
 sum of eigenvalues          :     -2852.44923060    
 electron kinetic            :      4994.71661383    
 core electron kinetic       :      4843.56294964    
 Coulomb                     :     -9640.90487067    
 Coulomb potential           :     -7660.58874143    
 nuclear-nuclear             :     -505.008345578    
 electron-nuclear            :     -10611.2043088    
 Hartree                     :      1475.30778366    
 Madelung                    :     -5810.61049996    
 xc potential                :     -186.577103001    
 exchange                    :     -138.135273155    
 correlation                 :     -2.40936211616    
 total energy                :     -4786.73289211    
 
Density of states at Fermi energy :    22.28442667    
 (states/Hartree/unit cell)
 
Estimated indirect band gap :   0.2913786690E-03
 from k-point    112 to k-point     15
Estimated direct band gap   :   0.4682000793E-02
 at k-point     15
 
Charges :
 core                        :    28.00000000    
 valence                     :    17.00000000    
 interstitial                :    1.387816558    
 muffin-tins (core leakage)
  species :    1 (Rh)
   atom    1                 :    43.61218344     (  0.8202162149E-07)
 total in muffin-tins        :    43.61218344    
 total calculated charge     :    45.00045716    
 total charge                :    45.00000000    
 error                       :   0.4571611903E-03
 
Wrote STATE.OUT
 
RMS change in Kohn-Sham potential (target) :   0.4794525205E-04 (   10.00000000    )
Absolute change in total energy (target)   :   0.2143058737E-05 (  0.1000000000E-07)
 
Time (CPU seconds) :       335.50
 
+--------------------+
| Loop number :   29 |
+--------------------+
 
Energies :
 Fermi                       :     0.516824150707    
 sum of eigenvalues          :     -2852.44922966    
 electron kinetic            :      4994.71661421    
 core electron kinetic       :      4843.56294936    
 Coulomb                     :     -9640.90486965    
 Coulomb potential           :     -7660.58874090    
 nuclear-nuclear             :     -505.008345578    
 electron-nuclear            :     -10611.2043072    
 Hartree                     :      1475.30778317    
 Madelung                    :     -5810.61049920    
 xc potential                :     -186.577102961    
 exchange                    :     -138.135273128    
 correlation                 :     -2.40936211586    
 total energy                :     -4786.73289069    
 
Density of states at Fermi energy :    22.28442775    
 (states/Hartree/unit cell)
 
Estimated indirect band gap :   0.2913786950E-03
 from k-point    112 to k-point     15
Estimated direct band gap   :   0.4682000692E-02
 at k-point     15
 
Charges :
 core                        :    28.00000000    
 valence                     :    17.00000000    
 interstitial                :    1.387816561    
 muffin-tins (core leakage)
  species :    1 (Rh)
   atom    1                 :    43.61218344     (  0.8210003699E-07)
 total in muffin-tins        :    43.61218344    
 total calculated charge     :    45.00045716    
 total charge                :    45.00000000    
 error                       :   0.4571610983E-03
 
RMS change in Kohn-Sham potential (target) :   0.1519433690E-03 (   10.00000000    )
Absolute change in total energy (target)   :   0.1956483175E-05 (  0.1000000000E-07)
 
Time (CPU seconds) :       347.33
 
+--------------------+
| Loop number :   30 |
+--------------------+
 
Energies :
 Fermi                       :     0.516824146992    
 sum of eigenvalues          :     -2852.44922961    
 electron kinetic            :      4994.71661420    
 core electron kinetic       :      4843.56294863    
 Coulomb                     :     -9640.90486962    
 Coulomb potential           :     -7660.58874085    
 nuclear-nuclear             :     -505.008345578    
 electron-nuclear            :     -10611.2043072    
 Hartree                     :      1475.30778320    
 Madelung                    :     -5810.61049920    
 xc potential                :     -186.577102954    
 exchange                    :     -138.135273124    
 correlation                 :     -2.40936211601    
 total energy                :     -4786.73289067    
 
Density of states at Fermi energy :    22.28442796    
 (states/Hartree/unit cell)
 
Estimated indirect band gap :   0.2913787059E-03
 from k-point    112 to k-point     15
Estimated direct band gap   :   0.4682000678E-02
 at k-point     15
 
Charges :
 core                        :    28.00000000    
 valence                     :    17.00000000    
 interstitial                :    1.387816561    
 muffin-tins (core leakage)
  species :    1 (Rh)
   atom    1                 :    43.61218344     (  0.8204940372E-07)
 total in muffin-tins        :    43.61218344    
 total calculated charge     :    45.00045716    
 total charge                :    45.00000000    
 error                       :   0.4571611595E-03
 
Wrote STATE.OUT
 
RMS change in Kohn-Sham potential (target) :   0.1436120200E-03 (   10.00000000    )
Absolute change in total energy (target)   :   0.5095735105E-06 (  0.1000000000E-07)
 
Time (CPU seconds) :       359.27
 
+--------------------+
| Loop number :   31 |
+--------------------+
 
Energies :
 Fermi                       :     0.516824161962    
 sum of eigenvalues          :     -2852.44922864    
 electron kinetic            :      4994.71661409    
 core electron kinetic       :      4843.56294893    
 Coulomb                     :     -9640.90486834    
 Coulomb potential           :     -7660.58873979    
 nuclear-nuclear             :     -505.008345578    
 electron-nuclear            :     -10611.2043057    
 Hartree                     :      1475.30778297    
 Madelung                    :     -5810.61049844    
 xc potential                :     -186.577102937    
 exchange                    :     -138.135273110    
 correlation                 :     -2.40936211523    
 total energy                :     -4786.73288948    
 
Density of states at Fermi energy :    22.28442740    
 (states/Hartree/unit cell)
 
Estimated indirect band gap :   0.2913783906E-03
 from k-point    112 to k-point     15
Estimated direct band gap   :   0.4682000267E-02
 at k-point     15
 
Charges :
 core                        :    28.00000000    
 valence                     :    17.00000000    
 interstitial                :    1.387816543    
 muffin-tins (core leakage)
  species :    1 (Rh)
   atom    1                 :    43.61218346     (  0.8196270329E-07)
 total in muffin-tins        :    43.61218346    
 total calculated charge     :    45.00045716    
 total charge                :    45.00000000    
 error                       :   0.4571612530E-03
 
RMS change in Kohn-Sham potential (target) :   0.1466837300E-03 (   10.00000000    )
Absolute change in total energy (target)   :   0.1319893272E-05 (  0.1000000000E-07)
 
Time (CPU seconds) :       371.21
 
+--------------------+
| Loop number :   32 |
+--------------------+
 
Energies :
 Fermi                       :     0.516824154751    
 sum of eigenvalues          :     -2852.44922962    
 electron kinetic            :      4994.71661404    
 core electron kinetic       :      4843.56294859    
 Coulomb                     :     -9640.90486955    
 Coulomb potential           :     -7660.58874069    
 nuclear-nuclear             :     -505.008345578    
 electron-nuclear            :     -10611.2043072    
 Hartree                     :      1475.30778328    
 Madelung                    :     -5810.61049920    
 xc potential                :     -186.577102964    
 exchange                    :     -138.135273131    
 correlation                 :     -2.40936211559    
 total energy                :     -4786.73289076    
 
Density of states at Fermi energy :    22.28442732    
 (states/Hartree/unit cell)
 
Estimated indirect band gap :   0.2913785850E-03
 from k-point    112 to k-point     15
Estimated direct band gap   :   0.4682000576E-02
 at k-point     15
 
Charges :
 core                        :    28.00000000    
 valence                     :    17.00000000    
 interstitial                :    1.387816554    
 muffin-tins (core leakage)
  species :    1 (Rh)
   atom    1                 :    43.61218345     (  0.8198022172E-07)
 total in muffin-tins        :    43.61218345    
 total calculated charge     :    45.00045716    
 total charge                :    45.00000000    
 error                       :   0.4571612327E-03
 
Wrote STATE.OUT
 
RMS change in Kohn-Sham potential (target) :   0.2274512033E-03 (   10.00000000    )
Absolute change in total energy (target)   :   0.9507803043E-06 (  0.1000000000E-07)
 
Time (CPU seconds) :       383.15
 
+--------------------+
| Loop number :   33 |
+--------------------+
 
Energies :
 Fermi                       :     0.516824148777    
 sum of eigenvalues          :     -2852.44922896    
 electron kinetic            :      4994.71661427    
 core electron kinetic       :      4843.56294843    
 Coulomb                     :     -9640.90486859    
 Coulomb potential           :     -7660.58874030    
 nuclear-nuclear             :     -505.008345578    
 electron-nuclear            :     -10611.2043057    
 Hartree                     :      1475.30778272    
 Madelung                    :     -5810.61049844    
 xc potential                :     -186.577102932    
 exchange                    :     -138.135273108    
 correlation                 :     -2.40936211582    
 total energy                :     -4786.73288954    
 
Density of states at Fermi energy :    22.28442827    
 (states/Hartree/unit cell)
 
Estimated indirect band gap :   0.2913786597E-03
 from k-point    112 to k-point     15
Estimated direct band gap   :   0.4682000562E-02
 at k-point     15
 
Charges :
 core                        :    28.00000000    
 valence                     :    17.00000000    
 interstitial                :    1.387816558    
 muffin-tins (core leakage)
  species :    1 (Rh)
   atom    1                 :    43.61218344     (  0.8196303369E-07)
 total in muffin-tins        :    43.61218344    
 total calculated charge     :    45.00045716    
 total charge                :    45.00000000    
 error                       :   0.4571612395E-03
 
RMS change in Kohn-Sham potential (target) :   0.6131226792E-04 (   10.00000000    )
Absolute change in total energy (target)   :   0.9759987734E-06 (  0.1000000000E-07)
 
Time (CPU seconds) :       394.87
 
+--------------------+
| Loop number :   34 |
+--------------------+
 
Energies :
 Fermi                       :     0.516824141328    
 sum of eigenvalues          :     -2852.44922909    
 electron kinetic            :      4994.71661434    
 core electron kinetic       :      4843.56294877    
 Coulomb                     :     -9640.90486870    
 Coulomb potential           :     -7660.58874050    
 nuclear-nuclear             :     -505.008345578    
 electron-nuclear            :     -10611.2043057    
 Hartree                     :      1475.30778261    
 Madelung                    :     -5810.61049844    
 xc potential                :     -186.577102927    
 exchange                    :     -138.135273104    
 correlation                 :     -2.40936211632    
 total energy                :     -4786.73288958    
 
Density of states at Fermi energy :    22.28442875    
 (states/Hartree/unit cell)
 
Estimated indirect band gap :   0.2913787959E-03
 from k-point    112 to k-point     15
Estimated direct band gap   :   0.4682000705E-02
 at k-point     15
 
Charges :
 core                        :    28.00000000    
 valence                     :    17.00000000    
 interstitial                :    1.387816566    
 muffin-tins (core leakage)
  species :    1 (Rh)
   atom    1                 :    43.61218343     (  0.8207471680E-07)
 total in muffin-tins        :    43.61218343    
 total calculated charge     :    45.00045716    
 total charge                :    45.00000000    
 error                       :   0.4571611111E-03
 
Wrote STATE.OUT
 
RMS change in Kohn-Sham potential (target) :   0.3987757514E-04 (   10.00000000    )
Absolute change in total energy (target)   :   0.2086180757E-06 (  0.1000000000E-07)
 
Time (CPU seconds) :       406.64
 
+--------------------+
| Loop number :   35 |
+--------------------+
 
Energies :
 Fermi                       :     0.516824135384    
 sum of eigenvalues          :     -2852.44922946    
 electron kinetic            :      4994.71661440    
 core electron kinetic       :      4843.56294901    
 Coulomb                     :     -9640.90486891    
 Coulomb potential           :     -7660.58874093    
 nuclear-nuclear             :     -505.008345578    
 electron-nuclear            :     -10611.2043057    
 Hartree                     :      1475.30778240    
 Madelung                    :     -5810.61049844    
 xc potential                :     -186.577102935    
 exchange                    :     -138.135273114    
 correlation                 :     -2.40936211596    
 total energy                :     -4786.73288974    
 
Density of states at Fermi energy :    22.28442894    
 (states/Hartree/unit cell)
 
Estimated indirect band gap :   0.2913789009E-03
 from k-point    112 to k-point     15
Estimated direct band gap   :   0.4682000840E-02
 at k-point     15
 
Charges :
 core                        :    28.00000000    
 valence                     :    17.00000000    
 interstitial                :    1.387816571    
 muffin-tins (core leakage)
  species :    1 (Rh)
   atom    1                 :    43.61218343     (  0.8202775703E-07)
 total in muffin-tins        :    43.61218343    
 total calculated charge     :    45.00045716    
 total charge                :    45.00000000    
 error                       :   0.4571611666E-03
 
RMS change in Kohn-Sham potential (target) :   0.5294453868E-04 (   10.00000000    )
Absolute change in total energy (target)   :   0.1059370334E-06 (  0.1000000000E-07)
 
Time (CPU seconds) :       418.53
 
+--------------------+
| Loop number :   36 |
+--------------------+
 
Energies :
 Fermi                       :     0.516824134247    
 sum of eigenvalues          :     -2852.44922946    
 electron kinetic            :      4994.71661437    
 core electron kinetic       :      4843.56294884    
 Coulomb                     :     -9640.90486890    
 Coulomb potential           :     -7660.58874090    
 nuclear-nuclear             :     -505.008345578    
 electron-nuclear            :     -10611.2043057    
 Hartree                     :      1475.30778241    
 Madelung                    :     -5810.61049844    
 xc potential                :     -186.577102933    
 exchange                    :     -138.135273112    
 correlation                 :     -2.40936211591    
 total energy                :     -4786.73288975    
 
Density of states at Fermi energy :    22.28442900    
 (states/Hartree/unit cell)
 
Estimated indirect band gap :   0.2913789117E-03
 from k-point    112 to k-point     15
Estimated direct band gap   :   0.4682000848E-02
 at k-point     15
 
Charges :
 core                        :    28.00000000    
 valence                     :    17.00000000    
 interstitial                :    1.387816572    
 muffin-tins (core leakage)
  species :    1 (Rh)
   atom    1                 :    43.61218343     (  0.8201918433E-07)
 total in muffin-tins        :    43.61218343    
 total calculated charge     :    45.00045716    
 total charge                :    45.00000000    
 error                       :   0.4571611678E-03
 
Wrote STATE.OUT
 
RMS change in Kohn-Sham potential (target) :   0.1811365252E-03 (   10.00000000    )
Absolute change in total energy (target)   :   0.4207140591E-07 (  0.1000000000E-07)
 
Time (CPU seconds) :       430.39
 
+--------------------+
| Loop number :   37 |
+--------------------+
 
Energies :
 Fermi                       :     0.516824133032    
 sum of eigenvalues          :     -2852.44922936    
 electron kinetic            :      4994.71661439    
 core electron kinetic       :      4843.56294885    
 Coulomb                     :     -9640.90486886    
 Coulomb potential           :     -7660.58874083    
 nuclear-nuclear             :     -505.008345578    
 electron-nuclear            :     -10611.2043057    
 Hartree                     :      1475.30778245    
 Madelung                    :     -5810.61049844    
 xc potential                :     -186.577102928    
 exchange                    :     -138.135273108    
 correlation                 :     -2.40936211619    
 total energy                :     -4786.73288969    
 
Density of states at Fermi energy :    22.28442913    
 (states/Hartree/unit cell)
 
Estimated indirect band gap :   0.2913789285E-03
 from k-point    112 to k-point     15
Estimated direct band gap   :   0.4682000853E-02
 at k-point     15
 
Charges :
 core                        :    28.00000000    
 valence                     :    17.00000000    
 interstitial                :    1.387816572    
 muffin-tins (core leakage)
  species :    1 (Rh)
   atom    1                 :    43.61218343     (  0.8200331436E-07)
 total in muffin-tins        :    43.61218343    
 total calculated charge     :    45.00045716    
 total charge                :    45.00000000    
 error                       :   0.4571611732E-03
 
RMS change in Kohn-Sham potential (target) :   0.3206587680E-04 (   10.00000000    )
Absolute change in total energy (target)   :   0.5412130122E-07 (  0.1000000000E-07)
 
Time (CPU seconds) :       442.17
 
+--------------------+
| Loop number :   38 |
+--------------------+
 
Energies :
 Fermi                       :     0.516824132766    
 sum of eigenvalues          :     -2852.44922942    
 electron kinetic            :      4994.71661430    
 core electron kinetic       :      4843.56294887    
 Coulomb                     :     -9640.90486884    
 Coulomb potential           :     -7660.58874079    
 nuclear-nuclear             :     -505.008345578    
 electron-nuclear            :     -10611.2043057    
 Hartree                     :      1475.30778247    
 Madelung                    :     -5810.61049844    
 xc potential                :     -186.577102927    
 exchange                    :     -138.135273106    
 correlation                 :     -2.40936211666    
 total energy                :     -4786.73288976    
 
Density of states at Fermi energy :    22.28442908    
 (states/Hartree/unit cell)
 
Estimated indirect band gap :   0.2913789344E-03
 from k-point    112 to k-point     15
Estimated direct band gap   :   0.4682000868E-02
 at k-point     15
 
Charges :
 core                        :    28.00000000    
 valence                     :    17.00000000    
 interstitial                :    1.387816573    
 muffin-tins (core leakage)
  species :    1 (Rh)
   atom    1                 :    43.61218343     (  0.8203168989E-07)
 total in muffin-tins        :    43.61218343    
 total calculated charge     :    45.00045716    
 total charge                :    45.00000000    
 error                       :   0.4571611506E-03
 
Wrote STATE.OUT
 
RMS change in Kohn-Sham potential (target) :   0.2065788560E-03 (   10.00000000    )
Absolute change in total energy (target)   :   0.5940091796E-07 (  0.1000000000E-07)
 
Time (CPU seconds) :       454.07
 
+--------------------+
| Loop number :   39 |
+--------------------+
 
Energies :
 Fermi                       :     0.516824129558    
 sum of eigenvalues          :     -2852.44922958    
 electron kinetic            :      4994.71661427    
 core electron kinetic       :      4843.56294891    
 Coulomb                     :     -9640.90486890    
 Coulomb potential           :     -7660.58874092    
 nuclear-nuclear             :     -505.008345578    
 electron-nuclear            :     -10611.2043057    
 Hartree                     :      1475.30778241    
 Madelung                    :     -5810.61049844    
 xc potential                :     -186.577102929    
 exchange                    :     -138.135273108    
 correlation                 :     -2.40936211649    
 total energy                :     -4786.73288986    
 
Density of states at Fermi energy :    22.28442919    
 (states/Hartree/unit cell)
 
Estimated indirect band gap :   0.2913789794E-03
 from k-point    112 to k-point     15
Estimated direct band gap   :   0.4682000921E-02
 at k-point     15
 
Charges :
 core                        :    28.00000000    
 valence                     :    17.00000000    
 interstitial                :    1.387816575    
 muffin-tins (core leakage)
  species :    1 (Rh)
   atom    1                 :    43.61218342     (  0.8201882906E-07)
 total in muffin-tins        :    43.61218342    
 total calculated charge     :    45.00045716    
 total charge                :    45.00000000    
 error                       :   0.4571611623E-03
 
RMS change in Kohn-Sham potential (target) :   0.1152482592E-03 (   10.00000000    )
Absolute change in total energy (target)   :   0.1097041604E-06 (  0.1000000000E-07)
 
Time (CPU seconds) :       466.00
 
+--------------------+
| Loop number :   40 |
+--------------------+
 
Energies :
 Fermi                       :     0.516824130132    
 sum of eigenvalues          :     -2852.44922956    
 electron kinetic            :      4994.71661433    
 core electron kinetic       :      4843.56294903    
 Coulomb                     :     -9640.90486892    
 Coulomb potential           :     -7660.58874096    
 nuclear-nuclear             :     -505.008345578    
 electron-nuclear            :     -10611.2043057    
 Hartree                     :      1475.30778239    
 Madelung                    :     -5810.61049844    
 xc potential                :     -186.577102931    
 exchange                    :     -138.135273110    
 correlation                 :     -2.40936211645    
 total energy                :     -4786.73288982    
 
Density of states at Fermi energy :    22.28442915    
 (states/Hartree/unit cell)
 
Estimated indirect band gap :   0.2913789658E-03
 from k-point    112 to k-point     15
Estimated direct band gap   :   0.4682000906E-02
 at k-point     15
 
Charges :
 core                        :    28.00000000    
 valence                     :    17.00000000    
 interstitial                :    1.387816574    
 muffin-tins (core leakage)
  species :    1 (Rh)
   atom    1                 :    43.61218343     (  0.8201556412E-07)
 total in muffin-tins        :    43.61218343    
 total calculated charge     :    45.00045716    
 total charge                :    45.00000000    
 error                       :   0.4571611634E-03
 
Wrote STATE.OUT
 
RMS change in Kohn-Sham potential (target) :   0.6644693291E-04 (   10.00000000    )
Absolute change in total energy (target)   :   0.8450115274E-08 (  0.1000000000E-07)
 
Convergence targets achieved
 
Time (CPU seconds) :       477.83
 
+--------------------+
| Loop number :   41 |
+--------------------+
 
Energies :
 Fermi                       :     0.516824128716    
 sum of eigenvalues          :     -2852.44922965    
 electron kinetic            :      4994.71661420    
 core electron kinetic       :      4843.56294894    
 Coulomb                     :     -9640.90486891    
 Coulomb potential           :     -7660.58874092    
 nuclear-nuclear             :     -505.008345578    
 electron-nuclear            :     -10611.2043057    
 Hartree                     :      1475.30778240    
 Madelung                    :     -5810.61049844    
 xc potential                :     -186.577102930    
 exchange                    :     -138.135273108    
 correlation                 :     -2.40936211663    
 total energy                :     -4786.73288993    
 
Density of states at Fermi energy :    22.28442917    
 (states/Hartree/unit cell)
 
Estimated indirect band gap :   0.2913789829E-03
 from k-point    112 to k-point     15
Estimated direct band gap   :   0.4682000929E-02
 at k-point     15
 
Charges :
 core                        :    28.00000000    
 valence                     :    17.00000000    
 interstitial                :    1.387816575    
 muffin-tins (core leakage)
  species :    1 (Rh)
   atom    1                 :    43.61218342     (  0.8206287916E-07)
 total in muffin-tins        :    43.61218342    
 total calculated charge     :    45.00045716    
 total charge                :    45.00000000    
 error                       :   0.4571611127E-03
 
+------------------------------+
| Self-consistent loop stopped |
+------------------------------+
 
Wrote STATE.OUT
 
Timings (CPU seconds) :
 initialisation                        :         1.90
 Hamiltonian and overlap matrix set up :        73.74
 first-variational eigenvalue equation :        51.47
 charge density calculation            :        67.82
 potential calculation                 :       294.69
 total                                 :       489.62
 
+----------------------------+
| Elk version 8.3.15 stopped |
+----------------------------+
