 
Distance between is =    1 (Os), ia =    1 and
 is =    1 (Os), ia =    1 :    0.000000000    
 is =    1 (Os), ia =    2 :    4.938164227    
 
Distance between is =    1 (Os), ia =    2 and
 is =    1 (Os), ia =    1 :    4.938164227    
 is =    1 (Os), ia =    2 :    0.000000000    
