    0.283611266380E-04
    0.399287026479E-04
    0.419937285029E-04
    0.820297003391E-04
    0.322286246962E-03
    0.278853960718E-03
    0.207326899461E-03
    0.249421395885E-03
    0.214390879989E-03
    0.200154767572E-03
    0.199709445878E-03
    0.200593182416E-03
    0.200667528980E-03
    0.200960454698E-03
    0.201210323934E-03
    0.200928382745E-03
    0.201234547258E-03
    0.201242786147E-03
    0.201268592729E-03
    0.201199356326E-03
    0.201097437210E-03
    0.201080391116E-03
    0.201099301580E-03
    0.201078470334E-03
    0.201042641898E-03
    0.201025621647E-03
    0.201044879210E-03
    0.201050494782E-03
    0.201056894596E-03
    0.201066959105E-03
    0.201067836084E-03
    0.201068426063E-03
    0.201063179313E-03
    0.201062777488E-03
    0.201051182143E-03
    0.201055805025E-03
    0.201059336625E-03
    0.201061359141E-03
    0.201065199531E-03
    0.201064626576E-03
    0.201064375337E-03
    0.201065089166E-03
