 
Distance between is =    1 (Tc), ia =    1 and
 is =    1 (Tc), ia =    1 :    0.000000000    
 is =    1 (Tc), ia =    2 :    5.170988901    
 
Distance between is =    1 (Tc), ia =    2 and
 is =    1 (Tc), ia =    1 :    5.170988901    
 is =    1 (Tc), ia =    2 :    0.000000000    
