   41.29069610    
   41.28977137    
   41.22991983    
   41.18052512    
   41.15690315    
   41.14818801    
   41.14475263    
   41.14340485    
   41.14266572    
   41.14262170    
   41.14253947    
   41.14252166    
   41.14251817    
   41.14251752    
   41.14251683    
   41.14251665    
   41.14251664    
   41.14251663    
   41.14251667    
   41.14251666    
   41.14251663    
