   165 : nkpt; k-point, vkl, wkpt, nmat below
     1   0.000000000       0.000000000       0.000000000      0.2035416243E-03     491
     2  0.5882352941E-01   0.000000000       0.000000000      0.2442499491E-02     486
     3  0.1176470588       0.000000000       0.000000000      0.2442499491E-02     486
     4  0.1764705882       0.000000000       0.000000000      0.2442499491E-02     484
     5  0.2352941176       0.000000000       0.000000000      0.2442499491E-02     488
     6  0.2941176471       0.000000000       0.000000000      0.2442499491E-02     486
     7  0.3529411765       0.000000000       0.000000000      0.2442499491E-02     484
     8  0.4117647059       0.000000000       0.000000000      0.2442499491E-02     488
     9  0.4705882353       0.000000000       0.000000000      0.2442499491E-02     494
    10  0.5882352941E-01  0.5882352941E-01   0.000000000      0.4884998982E-02     486
    11  0.1176470588      0.5882352941E-01   0.000000000      0.9769997965E-02     487
    12  0.1764705882      0.5882352941E-01   0.000000000      0.9769997965E-02     485
    13  0.2352941176      0.5882352941E-01   0.000000000      0.9769997965E-02     484
    14  0.2941176471      0.5882352941E-01   0.000000000      0.9769997965E-02     488
    15  0.3529411765      0.5882352941E-01   0.000000000      0.9769997965E-02     486
    16  0.4117647059      0.5882352941E-01   0.000000000      0.9769997965E-02     488
    17  0.4705882353      0.5882352941E-01   0.000000000      0.4884998982E-02     494
    18  0.1176470588      0.1176470588       0.000000000      0.4884998982E-02     481
    19  0.1764705882      0.1176470588       0.000000000      0.9769997965E-02     484
    20  0.2352941176      0.1176470588       0.000000000      0.9769997965E-02     487
    21  0.2941176471      0.1176470588       0.000000000      0.9769997965E-02     491
    22  0.3529411765      0.1176470588       0.000000000      0.9769997965E-02     491
    23  0.4117647059      0.1176470588       0.000000000      0.9769997965E-02     490
    24  0.1764705882      0.1764705882       0.000000000      0.4884998982E-02     489
    25  0.2352941176      0.1764705882       0.000000000      0.9769997965E-02     490
    26  0.2941176471      0.1764705882       0.000000000      0.9769997965E-02     492
    27  0.3529411765      0.1764705882       0.000000000      0.9769997965E-02     488
    28  0.4117647059      0.1764705882       0.000000000      0.4884998982E-02     491
    29  0.2352941176      0.2352941176       0.000000000      0.4884998982E-02     492
    30  0.2941176471      0.2352941176       0.000000000      0.9769997965E-02     490
    31  0.3529411765      0.2352941176       0.000000000      0.9769997965E-02     490
    32  0.2941176471      0.2941176471       0.000000000      0.4884998982E-02     490
    33  0.3529411765      0.2941176471       0.000000000      0.4884998982E-02     486
    34  0.5882352941E-01  0.5882352941E-01  0.5882352941E-01  0.1628332994E-02     485
    35  0.1176470588      0.5882352941E-01  0.5882352941E-01  0.4884998982E-02     485
    36  0.1764705882      0.5882352941E-01  0.5882352941E-01  0.4884998982E-02     484
    37  0.2352941176      0.5882352941E-01  0.5882352941E-01  0.4884998982E-02     486
    38  0.2941176471      0.5882352941E-01  0.5882352941E-01  0.4884998982E-02     484
    39  0.3529411765      0.5882352941E-01  0.5882352941E-01  0.4884998982E-02     486
    40  0.4117647059      0.5882352941E-01  0.5882352941E-01  0.4884998982E-02     486
    41  0.9411764706      0.5882352941E-01  0.5882352941E-01  0.1221249746E-02     487
    42  0.1176470588      0.1176470588      0.5882352941E-01  0.4884998982E-02     479
    43  0.1764705882      0.1176470588      0.5882352941E-01  0.9769997965E-02     484
    44  0.2352941176      0.1176470588      0.5882352941E-01  0.9769997965E-02     485
    45  0.2941176471      0.1176470588      0.5882352941E-01  0.9769997965E-02     487
    46  0.3529411765      0.1176470588      0.5882352941E-01  0.9769997965E-02     486
    47  0.4117647059      0.1176470588      0.5882352941E-01  0.4884998982E-02     486
    48  0.8823529412      0.1176470588      0.5882352941E-01  0.4884998982E-02     486
    49  0.1764705882      0.1764705882      0.5882352941E-01  0.4884998982E-02     483
    50  0.2352941176      0.1764705882      0.5882352941E-01  0.9769997965E-02     490
    51  0.2941176471      0.1764705882      0.5882352941E-01  0.9769997965E-02     489
    52  0.3529411765      0.1764705882      0.5882352941E-01  0.9769997965E-02     490
    53  0.8235294118      0.1764705882      0.5882352941E-01  0.4884998982E-02     487
    54  0.8823529412      0.1764705882      0.5882352941E-01  0.4884998982E-02     481
    55  0.2352941176      0.2352941176      0.5882352941E-01  0.4884998982E-02     488
    56  0.2941176471      0.2352941176      0.5882352941E-01  0.9769997965E-02     488
    57  0.3529411765      0.2352941176      0.5882352941E-01  0.4884998982E-02     488
    58  0.7647058824      0.2352941176      0.5882352941E-01  0.4884998982E-02     483
    59  0.8235294118      0.2352941176      0.5882352941E-01  0.9769997965E-02     484
    60  0.2941176471      0.2941176471      0.5882352941E-01  0.4884998982E-02     485
    61  0.7058823529      0.2941176471      0.5882352941E-01  0.4884998982E-02     486
    62  0.7647058824      0.2941176471      0.5882352941E-01  0.9769997965E-02     485
    63  0.8235294118      0.2941176471      0.5882352941E-01  0.4884998982E-02     486
    64  0.6470588235      0.3529411765      0.5882352941E-01  0.4884998982E-02     487
    65  0.7058823529      0.3529411765      0.5882352941E-01  0.9769997965E-02     489
    66  0.7647058824      0.3529411765      0.5882352941E-01  0.9769997965E-02     490
    67  0.5882352941      0.4117647059      0.5882352941E-01  0.4884998982E-02     493
    68  0.6470588235      0.4117647059      0.5882352941E-01  0.9769997965E-02     491
    69  0.7058823529      0.4117647059      0.5882352941E-01  0.9769997965E-02     493
    70  0.7647058824      0.4117647059      0.5882352941E-01  0.4884998982E-02     494
    71  0.5294117647      0.4705882353      0.5882352941E-01  0.4884998982E-02     493
    72  0.5882352941      0.4705882353      0.5882352941E-01  0.9769997965E-02     492
    73  0.6470588235      0.4705882353      0.5882352941E-01  0.9769997965E-02     493
    74  0.7058823529      0.4705882353      0.5882352941E-01  0.9769997965E-02     492
    75  0.5294117647      0.5294117647      0.5882352941E-01  0.4884998982E-02     491
    76  0.5882352941      0.5294117647      0.5882352941E-01  0.9769997965E-02     492
    77  0.6470588235      0.5294117647      0.5882352941E-01  0.9769997965E-02     492
    78  0.7058823529      0.5294117647      0.5882352941E-01  0.4884998982E-02     488
    79  0.5882352941      0.5882352941      0.5882352941E-01  0.4884998982E-02     490
    80  0.6470588235      0.5882352941      0.5882352941E-01  0.9769997965E-02     492
    81  0.6470588235      0.6470588235      0.5882352941E-01  0.1628332994E-02     488
    82  0.1176470588      0.1176470588      0.1176470588      0.1628332994E-02     476
    83  0.1764705882      0.1176470588      0.1176470588      0.4884998982E-02     482
    84  0.2352941176      0.1176470588      0.1176470588      0.4884998982E-02     486
    85  0.2941176471      0.1176470588      0.1176470588      0.4884998982E-02     488
    86  0.3529411765      0.1176470588      0.1176470588      0.4884998982E-02     484
    87  0.8823529412      0.1176470588      0.1176470588      0.1221249746E-02     479
    88  0.1764705882      0.1764705882      0.1176470588      0.4884998982E-02     482
    89  0.2352941176      0.1764705882      0.1176470588      0.9769997965E-02     487
    90  0.2941176471      0.1764705882      0.1176470588      0.9769997965E-02     486
    91  0.3529411765      0.1764705882      0.1176470588      0.4884998982E-02     485
    92  0.8235294118      0.1764705882      0.1176470588      0.4884998982E-02     488
    93  0.2352941176      0.2352941176      0.1176470588      0.4884998982E-02     486
    94  0.2941176471      0.2352941176      0.1176470588      0.9769997965E-02     483
    95  0.7647058824      0.2352941176      0.1176470588      0.4884998982E-02     491
    96  0.8235294118      0.2352941176      0.1176470588      0.4884998982E-02     489
    97  0.2941176471      0.2941176471      0.1176470588      0.1628332994E-02     491
    98  0.7058823529      0.2941176471      0.1176470588      0.4884998982E-02     489
    99  0.7647058824      0.2941176471      0.1176470588      0.9769997965E-02     489
   100  0.6470588235      0.3529411765      0.1176470588      0.4884998982E-02     491
   101  0.7058823529      0.3529411765      0.1176470588      0.9769997965E-02     490
   102  0.7647058824      0.3529411765      0.1176470588      0.4884998982E-02     491
   103  0.5882352941      0.4117647059      0.1176470588      0.4884998982E-02     494
   104  0.6470588235      0.4117647059      0.1176470588      0.9769997965E-02     494
   105  0.7058823529      0.4117647059      0.1176470588      0.9769997965E-02     497
   106  0.5294117647      0.4705882353      0.1176470588      0.4884998982E-02     491
   107  0.5882352941      0.4705882353      0.1176470588      0.9769997965E-02     490
   108  0.6470588235      0.4705882353      0.1176470588      0.9769997965E-02     491
   109  0.7058823529      0.4705882353      0.1176470588      0.4884998982E-02     493
   110  0.5294117647      0.5294117647      0.1176470588      0.4884998982E-02     492
   111  0.5882352941      0.5294117647      0.1176470588      0.9769997965E-02     494
   112  0.6470588235      0.5294117647      0.1176470588      0.9769997965E-02     495
   113  0.5882352941      0.5882352941      0.1176470588      0.4884998982E-02     493
   114  0.6470588235      0.5882352941      0.1176470588      0.4884998982E-02     495
   115  0.1764705882      0.1764705882      0.1764705882      0.1628332994E-02     488
   116  0.2352941176      0.1764705882      0.1764705882      0.4884998982E-02     487
   117  0.2941176471      0.1764705882      0.1764705882      0.4884998982E-02     486
   118  0.8235294118      0.1764705882      0.1764705882      0.1221249746E-02     496
   119  0.2352941176      0.2352941176      0.1764705882      0.4884998982E-02     485
   120  0.2941176471      0.2352941176      0.1764705882      0.4884998982E-02     480
   121  0.7647058824      0.2352941176      0.1764705882      0.4884998982E-02     491
   122  0.7058823529      0.2941176471      0.1764705882      0.4884998982E-02     491
   123  0.7647058824      0.2941176471      0.1764705882      0.4884998982E-02     493
   124  0.6470588235      0.3529411765      0.1764705882      0.4884998982E-02     491
   125  0.7058823529      0.3529411765      0.1764705882      0.9769997965E-02     492
   126  0.5882352941      0.4117647059      0.1764705882      0.4884998982E-02     490
   127  0.6470588235      0.4117647059      0.1764705882      0.9769997965E-02     495
   128  0.7058823529      0.4117647059      0.1764705882      0.4884998982E-02     495
   129  0.5294117647      0.4705882353      0.1764705882      0.4884998982E-02     490
   130  0.5882352941      0.4705882353      0.1764705882      0.9769997965E-02     493
   131  0.6470588235      0.4705882353      0.1764705882      0.9769997965E-02     496
   132  0.5294117647      0.5294117647      0.1764705882      0.4884998982E-02     494
   133  0.5882352941      0.5294117647      0.1764705882      0.9769997965E-02     495
   134  0.6470588235      0.5294117647      0.1764705882      0.4884998982E-02     498
   135  0.5882352941      0.5882352941      0.1764705882      0.4884998982E-02     493
   136  0.2352941176      0.2352941176      0.2352941176      0.1628332994E-02     470
   137  0.7647058824      0.2352941176      0.2352941176      0.1221249746E-02     488
   138  0.7058823529      0.2941176471      0.2352941176      0.4884998982E-02     498
   139  0.6470588235      0.3529411765      0.2352941176      0.4884998982E-02     499
   140  0.7058823529      0.3529411765      0.2352941176      0.4884998982E-02     497
   141  0.5882352941      0.4117647059      0.2352941176      0.4884998982E-02     496
   142  0.6470588235      0.4117647059      0.2352941176      0.9769997965E-02     496
   143  0.5294117647      0.4705882353      0.2352941176      0.4884998982E-02     494
   144  0.5882352941      0.4705882353      0.2352941176      0.9769997965E-02     492
   145  0.6470588235      0.4705882353      0.2352941176      0.4884998982E-02     498
   146  0.5294117647      0.5294117647      0.2352941176      0.4884998982E-02     496
   147  0.5882352941      0.5294117647      0.2352941176      0.9769997965E-02     493
   148  0.5882352941      0.5882352941      0.2352941176      0.1628332994E-02     495
   149  0.7058823529      0.2941176471      0.2941176471      0.1221249746E-02     496
   150  0.6470588235      0.3529411765      0.2941176471      0.4884998982E-02     500
   151  0.5882352941      0.4117647059      0.2941176471      0.4884998982E-02     497
   152  0.6470588235      0.4117647059      0.2941176471      0.4884998982E-02     499
   153  0.5294117647      0.4705882353      0.2941176471      0.4884998982E-02     499
   154  0.5882352941      0.4705882353      0.2941176471      0.9769997965E-02     497
   155  0.5294117647      0.5294117647      0.2941176471      0.4884998982E-02     495
   156  0.5882352941      0.5294117647      0.2941176471      0.4884998982E-02     493
   157  0.6470588235      0.3529411765      0.3529411765      0.1221249746E-02     500
   158  0.5882352941      0.4117647059      0.3529411765      0.4884998982E-02     496
   159  0.5294117647      0.4705882353      0.3529411765      0.4884998982E-02     496
   160  0.5882352941      0.4705882353      0.3529411765      0.4884998982E-02     495
   161  0.5294117647      0.5294117647      0.3529411765      0.4884998982E-02     491
   162  0.5882352941      0.4117647059      0.4117647059      0.1221249746E-02     492
   163  0.5294117647      0.4705882353      0.4117647059      0.4884998982E-02     488
   164  0.5294117647      0.5294117647      0.4117647059      0.1628332994E-02     486
   165  0.5294117647      0.4705882353      0.4705882353      0.1221249746E-02     480
