    0.114920009631E-02
    0.115954116953E-02
    0.169460567730E-02
    0.162550838205E-02
    0.150615209887E-02
    0.146950480865E-02
    0.145711225856E-02
    0.145394801161E-02
    0.145187297234E-02
    0.145182693934E-02
    0.145178150253E-02
    0.145175130959E-02
    0.145171827335E-02
    0.145171791373E-02
    0.145171827237E-02
    0.145171822324E-02
    0.145171826779E-02
    0.145171830922E-02
    0.145171831471E-02
    0.145171831481E-02
    0.145171832448E-02
