   165 : nkpt; k-point, vkl, wkpt, nmat below
     1   0.000000000       0.000000000       0.000000000      0.2035416243E-03     222
     2  0.5882352941E-01   0.000000000       0.000000000      0.1628332994E-02     222
     3  0.1176470588       0.000000000       0.000000000      0.1628332994E-02     222
     4  0.1764705882       0.000000000       0.000000000      0.1628332994E-02     219
     5  0.2352941176       0.000000000       0.000000000      0.1628332994E-02     216
     6  0.2941176471       0.000000000       0.000000000      0.1628332994E-02     213
     7  0.3529411765       0.000000000       0.000000000      0.1628332994E-02     214
     8  0.4117647059       0.000000000       0.000000000      0.1628332994E-02     214
     9  0.4705882353       0.000000000       0.000000000      0.1628332994E-02     217
    10  0.5882352941E-01  0.5882352941E-01   0.000000000      0.1221249746E-02     222
    11  0.1176470588      0.5882352941E-01   0.000000000      0.4884998982E-02     220
    12  0.1764705882      0.5882352941E-01   0.000000000      0.4884998982E-02     219
    13  0.2352941176      0.5882352941E-01   0.000000000      0.4884998982E-02     214
    14  0.2941176471      0.5882352941E-01   0.000000000      0.4884998982E-02     214
    15  0.3529411765      0.5882352941E-01   0.000000000      0.4884998982E-02     216
    16  0.4117647059      0.5882352941E-01   0.000000000      0.4884998982E-02     215
    17  0.4705882353      0.5882352941E-01   0.000000000      0.4884998982E-02     215
    18  0.5294117647      0.5882352941E-01   0.000000000      0.4884998982E-02     217
    19  0.5882352941      0.5882352941E-01   0.000000000      0.4884998982E-02     216
    20  0.6470588235      0.5882352941E-01   0.000000000      0.4884998982E-02     214
    21  0.7058823529      0.5882352941E-01   0.000000000      0.4884998982E-02     211
    22  0.7647058824      0.5882352941E-01   0.000000000      0.4884998982E-02     215
    23  0.8235294118      0.5882352941E-01   0.000000000      0.4884998982E-02     215
    24  0.8823529412      0.5882352941E-01   0.000000000      0.4884998982E-02     218
    25  0.9411764706      0.5882352941E-01   0.000000000      0.2442499491E-02     222
    26  0.1176470588      0.1176470588       0.000000000      0.1221249746E-02     218
    27  0.1764705882      0.1176470588       0.000000000      0.4884998982E-02     217
    28  0.2352941176      0.1176470588       0.000000000      0.4884998982E-02     217
    29  0.2941176471      0.1176470588       0.000000000      0.4884998982E-02     214
    30  0.3529411765      0.1176470588       0.000000000      0.4884998982E-02     216
    31  0.4117647059      0.1176470588       0.000000000      0.4884998982E-02     217
    32  0.4705882353      0.1176470588       0.000000000      0.4884998982E-02     213
    33  0.5294117647      0.1176470588       0.000000000      0.4884998982E-02     216
    34  0.5882352941      0.1176470588       0.000000000      0.4884998982E-02     214
    35  0.6470588235      0.1176470588       0.000000000      0.4884998982E-02     212
    36  0.7058823529      0.1176470588       0.000000000      0.4884998982E-02     212
    37  0.7647058824      0.1176470588       0.000000000      0.4884998982E-02     213
    38  0.8235294118      0.1176470588       0.000000000      0.4884998982E-02     215
    39  0.8823529412      0.1176470588       0.000000000      0.2442499491E-02     218
    40  0.1764705882      0.1764705882       0.000000000      0.1221249746E-02     222
    41  0.2352941176      0.1764705882       0.000000000      0.4884998982E-02     216
    42  0.2941176471      0.1764705882       0.000000000      0.4884998982E-02     216
    43  0.3529411765      0.1764705882       0.000000000      0.4884998982E-02     216
    44  0.4117647059      0.1764705882       0.000000000      0.4884998982E-02     218
    45  0.4705882353      0.1764705882       0.000000000      0.4884998982E-02     214
    46  0.5294117647      0.1764705882       0.000000000      0.4884998982E-02     214
    47  0.5882352941      0.1764705882       0.000000000      0.4884998982E-02     216
    48  0.6470588235      0.1764705882       0.000000000      0.4884998982E-02     214
    49  0.7058823529      0.1764705882       0.000000000      0.4884998982E-02     212
    50  0.7647058824      0.1764705882       0.000000000      0.4884998982E-02     212
    51  0.8235294118      0.1764705882       0.000000000      0.2442499491E-02     210
    52  0.2352941176      0.2352941176       0.000000000      0.1221249746E-02     210
    53  0.2941176471      0.2352941176       0.000000000      0.4884998982E-02     212
    54  0.3529411765      0.2352941176       0.000000000      0.4884998982E-02     214
    55  0.4117647059      0.2352941176       0.000000000      0.4884998982E-02     214
    56  0.4705882353      0.2352941176       0.000000000      0.4884998982E-02     217
    57  0.5294117647      0.2352941176       0.000000000      0.4884998982E-02     214
    58  0.5882352941      0.2352941176       0.000000000      0.4884998982E-02     214
    59  0.6470588235      0.2352941176       0.000000000      0.4884998982E-02     214
    60  0.7058823529      0.2352941176       0.000000000      0.4884998982E-02     214
    61  0.7647058824      0.2352941176       0.000000000      0.2442499491E-02     210
    62  0.2941176471      0.2941176471       0.000000000      0.1221249746E-02     214
    63  0.3529411765      0.2941176471       0.000000000      0.4884998982E-02     218
    64  0.4117647059      0.2941176471       0.000000000      0.4884998982E-02     214
    65  0.4705882353      0.2941176471       0.000000000      0.4884998982E-02     215
    66  0.5294117647      0.2941176471       0.000000000      0.4884998982E-02     213
    67  0.5882352941      0.2941176471       0.000000000      0.4884998982E-02     210
    68  0.6470588235      0.2941176471       0.000000000      0.4884998982E-02     210
    69  0.7058823529      0.2941176471       0.000000000      0.2442499491E-02     212
    70  0.3529411765      0.3529411765       0.000000000      0.1221249746E-02     213
    71  0.4117647059      0.3529411765       0.000000000      0.4884998982E-02     216
    72  0.4705882353      0.3529411765       0.000000000      0.4884998982E-02     215
    73  0.5294117647      0.3529411765       0.000000000      0.4884998982E-02     215
    74  0.5882352941      0.3529411765       0.000000000      0.4884998982E-02     211
    75  0.6470588235      0.3529411765       0.000000000      0.2442499491E-02     210
    76  0.4117647059      0.4117647059       0.000000000      0.1221249746E-02     221
    77  0.4705882353      0.4117647059       0.000000000      0.4884998982E-02     218
    78  0.5294117647      0.4117647059       0.000000000      0.4884998982E-02     215
    79  0.5882352941      0.4117647059       0.000000000      0.2442499491E-02     211
    80  0.4705882353      0.4705882353       0.000000000      0.1221249746E-02     217
    81  0.5294117647      0.4705882353       0.000000000      0.2442499491E-02     215
    82  0.1764705882      0.1176470588      0.5882352941E-01  0.4884998982E-02     218
    83  0.2352941176      0.1176470588      0.5882352941E-01  0.9769997965E-02     216
    84  0.2941176471      0.1176470588      0.5882352941E-01  0.9769997965E-02     215
    85  0.3529411765      0.1176470588      0.5882352941E-01  0.9769997965E-02     214
    86  0.4117647059      0.1176470588      0.5882352941E-01  0.9769997965E-02     215
    87  0.4705882353      0.1176470588      0.5882352941E-01  0.9769997965E-02     213
    88  0.5294117647      0.1176470588      0.5882352941E-01  0.9769997965E-02     215
    89  0.2352941176      0.1764705882      0.5882352941E-01  0.4884998982E-02     217
    90  0.2941176471      0.1764705882      0.5882352941E-01  0.9769997965E-02     216
    91  0.3529411765      0.1764705882      0.5882352941E-01  0.9769997965E-02     213
    92  0.4117647059      0.1764705882      0.5882352941E-01  0.9769997965E-02     215
    93  0.4705882353      0.1764705882      0.5882352941E-01  0.9769997965E-02     215
    94  0.5294117647      0.1764705882      0.5882352941E-01  0.9769997965E-02     214
    95  0.5882352941      0.1764705882      0.5882352941E-01  0.9769997965E-02     213
    96  0.6470588235      0.1764705882      0.5882352941E-01  0.9769997965E-02     214
    97  0.7058823529      0.1764705882      0.5882352941E-01  0.9769997965E-02     212
    98  0.7647058824      0.1764705882      0.5882352941E-01  0.9769997965E-02     212
    99  0.8235294118      0.1764705882      0.5882352941E-01  0.9769997965E-02     213
   100  0.8823529412      0.1764705882      0.5882352941E-01  0.4884998982E-02     215
   101  0.2941176471      0.2352941176      0.5882352941E-01  0.4884998982E-02     215
   102  0.3529411765      0.2352941176      0.5882352941E-01  0.9769997965E-02     215
   103  0.4117647059      0.2352941176      0.5882352941E-01  0.9769997965E-02     213
   104  0.4705882353      0.2352941176      0.5882352941E-01  0.9769997965E-02     214
   105  0.5294117647      0.2352941176      0.5882352941E-01  0.9769997965E-02     214
   106  0.5882352941      0.2352941176      0.5882352941E-01  0.9769997965E-02     216
   107  0.6470588235      0.2352941176      0.5882352941E-01  0.9769997965E-02     214
   108  0.7058823529      0.2352941176      0.5882352941E-01  0.9769997965E-02     214
   109  0.7647058824      0.2352941176      0.5882352941E-01  0.9769997965E-02     215
   110  0.8235294118      0.2352941176      0.5882352941E-01  0.4884998982E-02     211
   111  0.3529411765      0.2941176471      0.5882352941E-01  0.4884998982E-02     216
   112  0.4117647059      0.2941176471      0.5882352941E-01  0.9769997965E-02     217
   113  0.4705882353      0.2941176471      0.5882352941E-01  0.9769997965E-02     213
   114  0.5294117647      0.2941176471      0.5882352941E-01  0.9769997965E-02     214
   115  0.5882352941      0.2941176471      0.5882352941E-01  0.9769997965E-02     213
   116  0.6470588235      0.2941176471      0.5882352941E-01  0.9769997965E-02     213
   117  0.7058823529      0.2941176471      0.5882352941E-01  0.9769997965E-02     213
   118  0.7647058824      0.2941176471      0.5882352941E-01  0.4884998982E-02     212
   119  0.4117647059      0.3529411765      0.5882352941E-01  0.4884998982E-02     217
   120  0.4705882353      0.3529411765      0.5882352941E-01  0.9769997965E-02     213
   121  0.5294117647      0.3529411765      0.5882352941E-01  0.9769997965E-02     214
   122  0.5882352941      0.3529411765      0.5882352941E-01  0.9769997965E-02     214
   123  0.6470588235      0.3529411765      0.5882352941E-01  0.9769997965E-02     212
   124  0.7058823529      0.3529411765      0.5882352941E-01  0.4884998982E-02     213
   125  0.4705882353      0.4117647059      0.5882352941E-01  0.4884998982E-02     213
   126  0.5294117647      0.4117647059      0.5882352941E-01  0.9769997965E-02     214
   127  0.5882352941      0.4117647059      0.5882352941E-01  0.9769997965E-02     215
   128  0.6470588235      0.4117647059      0.5882352941E-01  0.4884998982E-02     215
   129  0.5294117647      0.4705882353      0.5882352941E-01  0.4884998982E-02     217
   130  0.5882352941      0.4705882353      0.5882352941E-01  0.4884998982E-02     215
   131  0.3529411765      0.2352941176      0.1176470588      0.4884998982E-02     217
   132  0.4117647059      0.2352941176      0.1176470588      0.9769997965E-02     215
   133  0.4705882353      0.2352941176      0.1176470588      0.9769997965E-02     214
   134  0.5294117647      0.2352941176      0.1176470588      0.9769997965E-02     213
   135  0.5882352941      0.2352941176      0.1176470588      0.9769997965E-02     211
   136  0.4117647059      0.2941176471      0.1176470588      0.4884998982E-02     215
   137  0.4705882353      0.2941176471      0.1176470588      0.9769997965E-02     214
   138  0.5294117647      0.2941176471      0.1176470588      0.9769997965E-02     215
   139  0.5882352941      0.2941176471      0.1176470588      0.9769997965E-02     214
   140  0.6470588235      0.2941176471      0.1176470588      0.9769997965E-02     215
   141  0.7058823529      0.2941176471      0.1176470588      0.9769997965E-02     214
   142  0.7647058824      0.2941176471      0.1176470588      0.9769997965E-02     214
   143  0.8235294118      0.2941176471      0.1176470588      0.4884998982E-02     213
   144  0.4705882353      0.3529411765      0.1176470588      0.4884998982E-02     214
   145  0.5294117647      0.3529411765      0.1176470588      0.9769997965E-02     214
   146  0.5882352941      0.3529411765      0.1176470588      0.9769997965E-02     215
   147  0.6470588235      0.3529411765      0.1176470588      0.9769997965E-02     214
   148  0.7058823529      0.3529411765      0.1176470588      0.9769997965E-02     216
   149  0.7647058824      0.3529411765      0.1176470588      0.4884998982E-02     217
   150  0.5294117647      0.4117647059      0.1176470588      0.4884998982E-02     213
   151  0.5882352941      0.4117647059      0.1176470588      0.9769997965E-02     214
   152  0.6470588235      0.4117647059      0.1176470588      0.9769997965E-02     214
   153  0.7058823529      0.4117647059      0.1176470588      0.4884998982E-02     214
   154  0.5882352941      0.4705882353      0.1176470588      0.4884998982E-02     213
   155  0.6470588235      0.4705882353      0.1176470588      0.4884998982E-02     213
   156  0.5294117647      0.3529411765      0.1764705882      0.4884998982E-02     214
   157  0.5882352941      0.3529411765      0.1764705882      0.9769997965E-02     214
   158  0.6470588235      0.3529411765      0.1764705882      0.9769997965E-02     214
   159  0.5882352941      0.4117647059      0.1764705882      0.4884998982E-02     214
   160  0.6470588235      0.4117647059      0.1764705882      0.9769997965E-02     214
   161  0.7058823529      0.4117647059      0.1764705882      0.9769997965E-02     214
   162  0.7647058824      0.4117647059      0.1764705882      0.4884998982E-02     216
   163  0.6470588235      0.4705882353      0.1764705882      0.4884998982E-02     213
   164  0.7058823529      0.4705882353      0.1764705882      0.4884998982E-02     213
   165  0.7058823529      0.4705882353      0.2352941176      0.4884998982E-02     216
