   60.95039575    
   56.54258097    
   53.18697926    
   65.42161199    
   47.09885053    
   45.46243245    
   46.88315508    
   46.88635674    
   46.97354591    
   47.01634105    
   47.04166560    
   47.04441382    
   47.04396119    
   47.04331055    
   47.04297031    
   47.04299829    
   47.04279888    
   47.04267714    
   47.04261077    
   47.04260822    
   47.04260830    
   47.04261120    
   47.04261884    
   47.04261940    
   47.04261698    
   47.04261839    
   47.04261561    
   47.04261521    
   47.04261588    
   47.04261701    
   47.04261702    
   47.04261697    
   47.04261691    
   47.04261760    
   47.04261733    
   47.04261728    
   47.04261731    
   47.04261734    
   47.04261653    
   47.04261731    
   47.04261743    
   47.04261732    
   47.04261720    
   47.04261708    
   47.04261702    
   47.04261740    
   47.04261723    
   47.04261697    
   47.04261699    
   47.04261686    
   47.04261683    
   47.04261705    
   47.04261680    
   47.04261695    
   47.04261682    
   47.04261685    
   47.04261688    
   47.04261681    
   47.04261684    
   47.04261704    
   47.04261686    
   47.04261686    
   47.04261700    
   47.04261691    
   47.04261708    
   47.04261702    
   47.04261700    
   47.04261699    
   47.04261701    
   47.04261702    
   47.04261700    
   47.04261707    
   47.04261696    
   47.04261701    
   47.04261698    
   47.04261705    
   47.04261707    
   47.04261711    
   47.04261712    
   47.04261709    
   47.04261707    
   47.04261706    
   47.04261707    
   47.04261711    
   47.04261703    
   47.04261693    
   47.04261694    
   47.04261701    
   47.04261705    
   47.04261701    
   47.04261691    
   47.04261676    
   47.04261681    
   47.04261686    
   47.04261684    
   47.04261685    
   47.04261704    
   47.04261690    
   47.04261717    
   47.04261680    
   47.04261700    
   47.04261720    
   47.04261713    
   47.04261706    
   47.04261724    
   47.04261708    
   47.04261707    
   47.04261705    
   47.04261722    
   47.04261682    
   47.04261673    
   47.04261679    
   47.04261690    
   47.04261688    
   47.04261678    
   47.04261682    
   47.04261683    
   47.04261695    
   47.04261688    
   47.04261702    
   47.04261698    
   47.04261701    
   47.04261708    
   47.04261704    
   47.04261694    
   47.04261701    
   47.04261694    
   47.04261675    
   47.04261690    
   47.04261689    
   47.04261690    
   47.04261678    
   47.04261683    
   47.04261679    
   47.04261694    
   47.04261708    
   47.04261693    
   47.04261699    
   47.04261700    
   47.04261699    
   47.04261696    
   47.04261710    
   47.04261709    
   47.04261708    
   47.04261719    
   47.04261712    
   47.04261705    
   47.04261690    
   47.04261712    
   47.04261724    
   47.04261703    
   47.04261697    
   47.04261699    
   47.04261697    
   47.04261699    
   47.04261694    
   47.04261693    
   47.04261688    
   47.04261687    
   47.04261701    
   47.04261698    
   47.04261693    
   47.04261694    
   47.04261692    
   47.04261705    
   47.04261695    
   47.04261699    
   47.04261696    
   47.04261688    
   47.04261692    
   47.04261702    
   47.04261699    
   47.04261709    
   47.04261696    
   47.04261697    
   47.04261680    
   47.04261707    
   47.04261722    
   47.04261710    
   47.04261692    
   47.04261689    
