    -8575.81557490    
    -8575.81872089    
    -8575.85577526    
    -8575.93334103    
    -8575.95941651    
    -8575.96622111    
    -8575.96730102    
    -8575.96269980    
    -8575.96128038    
    -8575.96162090    
    -8575.96147040    
    -8575.96148790    
    -8575.96150176    
    -8575.96153355    
    -8575.96153455    
    -8575.96151935    
    -8575.96149925    
    -8575.96151803    
    -8575.96151403    
    -8575.96151907    
    -8575.96152047    
    -8575.96152345    
    -8575.96152505    
    -8575.96152495    
    -8575.96152584    
    -8575.96152577    
    -8575.96152587    
    -8575.96152353    
    -8575.96152320    
    -8575.96152268    
    -8575.96152236    
    -8575.96152220    
    -8575.96152218    
    -8575.96152223    
    -8575.96152211    
    -8575.96152222    
    -8575.96152215    
    -8575.96152209    
    -8575.96152215    
    -8575.96152216    
    -8575.96152219    
    -8575.96152218    
    -8575.96152208    
