    0.453980246225E-03
    0.599764601282E-03
    0.448828860955E-03
    0.484149670590E-03
    0.384168974461E-03
    0.575119662702E-03
    0.396898306555E-03
    0.358224801295E-03
    0.358966898321E-03
    0.362824094122E-03
    0.365919732477E-03
    0.365689888596E-03
    0.365614164029E-03
    0.365530599717E-03
    0.365493028806E-03
    0.365485461915E-03
    0.365499932350E-03
    0.365534638027E-03
    0.365554074864E-03
    0.365559765714E-03
    0.365521639143E-03
    0.365536392240E-03
    0.365538497965E-03
    0.365526631569E-03
    0.365530143663E-03
    0.365537712846E-03
    0.365513501758E-03
    0.365485990073E-03
    0.365478686005E-03
    0.365477097507E-03
    0.365477486710E-03
    0.365479411007E-03
    0.365488036058E-03
    0.365487512485E-03
    0.365490490322E-03
    0.365491358388E-03
    0.365491840388E-03
    0.365492647759E-03
    0.365493076137E-03
    0.365493666336E-03
    0.365494171428E-03
    0.365494439792E-03
    0.365494626422E-03
    0.365495038226E-03
    0.365495633421E-03
    0.365496164133E-03
    0.365496159512E-03
    0.365496194169E-03
    0.365496211789E-03
    0.365496164892E-03
    0.365496195334E-03
