   165 : nkpt; k-point, vkl, wkpt, nmat below
     1   0.000000000       0.000000000       0.000000000      0.2035416243E-03     239
     2  0.5882352941E-01   0.000000000       0.000000000      0.1628332994E-02     248
     3  0.1176470588       0.000000000       0.000000000      0.1628332994E-02     248
     4  0.1764705882       0.000000000       0.000000000      0.1628332994E-02     248
     5  0.2352941176       0.000000000       0.000000000      0.1628332994E-02     249
     6  0.2941176471       0.000000000       0.000000000      0.1628332994E-02     246
     7  0.3529411765       0.000000000       0.000000000      0.1628332994E-02     243
     8  0.4117647059       0.000000000       0.000000000      0.1628332994E-02     249
     9  0.4705882353       0.000000000       0.000000000      0.1628332994E-02     246
    10  0.5882352941E-01  0.5882352941E-01   0.000000000      0.1221249746E-02     251
    11  0.1176470588      0.5882352941E-01   0.000000000      0.4884998982E-02     249
    12  0.1764705882      0.5882352941E-01   0.000000000      0.4884998982E-02     251
    13  0.2352941176      0.5882352941E-01   0.000000000      0.4884998982E-02     253
    14  0.2941176471      0.5882352941E-01   0.000000000      0.4884998982E-02     249
    15  0.3529411765      0.5882352941E-01   0.000000000      0.4884998982E-02     247
    16  0.4117647059      0.5882352941E-01   0.000000000      0.4884998982E-02     244
    17  0.4705882353      0.5882352941E-01   0.000000000      0.4884998982E-02     246
    18  0.5294117647      0.5882352941E-01   0.000000000      0.4884998982E-02     246
    19  0.5882352941      0.5882352941E-01   0.000000000      0.4884998982E-02     247
    20  0.6470588235      0.5882352941E-01   0.000000000      0.4884998982E-02     247
    21  0.7058823529      0.5882352941E-01   0.000000000      0.4884998982E-02     250
    22  0.7647058824      0.5882352941E-01   0.000000000      0.4884998982E-02     250
    23  0.8235294118      0.5882352941E-01   0.000000000      0.4884998982E-02     252
    24  0.8823529412      0.5882352941E-01   0.000000000      0.4884998982E-02     251
    25  0.9411764706      0.5882352941E-01   0.000000000      0.2442499491E-02     249
    26  0.1176470588      0.1176470588       0.000000000      0.1221249746E-02     251
    27  0.1764705882      0.1176470588       0.000000000      0.4884998982E-02     251
    28  0.2352941176      0.1176470588       0.000000000      0.4884998982E-02     253
    29  0.2941176471      0.1176470588       0.000000000      0.4884998982E-02     251
    30  0.3529411765      0.1176470588       0.000000000      0.4884998982E-02     252
    31  0.4117647059      0.1176470588       0.000000000      0.4884998982E-02     247
    32  0.4705882353      0.1176470588       0.000000000      0.4884998982E-02     247
    33  0.5294117647      0.1176470588       0.000000000      0.4884998982E-02     245
    34  0.5882352941      0.1176470588       0.000000000      0.4884998982E-02     246
    35  0.6470588235      0.1176470588       0.000000000      0.4884998982E-02     250
    36  0.7058823529      0.1176470588       0.000000000      0.4884998982E-02     249
    37  0.7647058824      0.1176470588       0.000000000      0.4884998982E-02     253
    38  0.8235294118      0.1176470588       0.000000000      0.4884998982E-02     250
    39  0.8823529412      0.1176470588       0.000000000      0.2442499491E-02     249
    40  0.1764705882      0.1764705882       0.000000000      0.1221249746E-02     255
    41  0.2352941176      0.1764705882       0.000000000      0.4884998982E-02     253
    42  0.2941176471      0.1764705882       0.000000000      0.4884998982E-02     252
    43  0.3529411765      0.1764705882       0.000000000      0.4884998982E-02     246
    44  0.4117647059      0.1764705882       0.000000000      0.4884998982E-02     246
    45  0.4705882353      0.1764705882       0.000000000      0.4884998982E-02     245
    46  0.5294117647      0.1764705882       0.000000000      0.4884998982E-02     249
    47  0.5882352941      0.1764705882       0.000000000      0.4884998982E-02     251
    48  0.6470588235      0.1764705882       0.000000000      0.4884998982E-02     247
    49  0.7058823529      0.1764705882       0.000000000      0.4884998982E-02     249
    50  0.7647058824      0.1764705882       0.000000000      0.4884998982E-02     249
    51  0.8235294118      0.1764705882       0.000000000      0.2442499491E-02     253
    52  0.2352941176      0.2352941176       0.000000000      0.1221249746E-02     251
    53  0.2941176471      0.2352941176       0.000000000      0.4884998982E-02     252
    54  0.3529411765      0.2352941176       0.000000000      0.4884998982E-02     250
    55  0.4117647059      0.2352941176       0.000000000      0.4884998982E-02     246
    56  0.4705882353      0.2352941176       0.000000000      0.4884998982E-02     247
    57  0.5294117647      0.2352941176       0.000000000      0.4884998982E-02     245
    58  0.5882352941      0.2352941176       0.000000000      0.4884998982E-02     249
    59  0.6470588235      0.2352941176       0.000000000      0.4884998982E-02     246
    60  0.7058823529      0.2352941176       0.000000000      0.4884998982E-02     249
    61  0.7647058824      0.2352941176       0.000000000      0.2442499491E-02     251
    62  0.2941176471      0.2941176471       0.000000000      0.1221249746E-02     251
    63  0.3529411765      0.2941176471       0.000000000      0.4884998982E-02     252
    64  0.4117647059      0.2941176471       0.000000000      0.4884998982E-02     248
    65  0.4705882353      0.2941176471       0.000000000      0.4884998982E-02     246
    66  0.5294117647      0.2941176471       0.000000000      0.4884998982E-02     245
    67  0.5882352941      0.2941176471       0.000000000      0.4884998982E-02     244
    68  0.6470588235      0.2941176471       0.000000000      0.4884998982E-02     246
    69  0.7058823529      0.2941176471       0.000000000      0.2442499491E-02     248
    70  0.3529411765      0.3529411765       0.000000000      0.1221249746E-02     247
    71  0.4117647059      0.3529411765       0.000000000      0.4884998982E-02     244
    72  0.4705882353      0.3529411765       0.000000000      0.4884998982E-02     244
    73  0.5294117647      0.3529411765       0.000000000      0.4884998982E-02     242
    74  0.5882352941      0.3529411765       0.000000000      0.4884998982E-02     242
    75  0.6470588235      0.3529411765       0.000000000      0.2442499491E-02     242
    76  0.4117647059      0.4117647059       0.000000000      0.1221249746E-02     243
    77  0.4705882353      0.4117647059       0.000000000      0.4884998982E-02     242
    78  0.5294117647      0.4117647059       0.000000000      0.4884998982E-02     242
    79  0.5882352941      0.4117647059       0.000000000      0.2442499491E-02     244
    80  0.4705882353      0.4705882353       0.000000000      0.1221249746E-02     242
    81  0.5294117647      0.4705882353       0.000000000      0.2442499491E-02     242
    82  0.1764705882      0.1176470588      0.5882352941E-01  0.4884998982E-02     249
    83  0.2352941176      0.1176470588      0.5882352941E-01  0.9769997965E-02     249
    84  0.2941176471      0.1176470588      0.5882352941E-01  0.9769997965E-02     251
    85  0.3529411765      0.1176470588      0.5882352941E-01  0.9769997965E-02     251
    86  0.4117647059      0.1176470588      0.5882352941E-01  0.9769997965E-02     248
    87  0.4705882353      0.1176470588      0.5882352941E-01  0.9769997965E-02     249
    88  0.5294117647      0.1176470588      0.5882352941E-01  0.9769997965E-02     248
    89  0.2352941176      0.1764705882      0.5882352941E-01  0.4884998982E-02     253
    90  0.2941176471      0.1764705882      0.5882352941E-01  0.9769997965E-02     251
    91  0.3529411765      0.1764705882      0.5882352941E-01  0.9769997965E-02     249
    92  0.4117647059      0.1764705882      0.5882352941E-01  0.9769997965E-02     248
    93  0.4705882353      0.1764705882      0.5882352941E-01  0.9769997965E-02     246
    94  0.5294117647      0.1764705882      0.5882352941E-01  0.9769997965E-02     246
    95  0.5882352941      0.1764705882      0.5882352941E-01  0.9769997965E-02     247
    96  0.6470588235      0.1764705882      0.5882352941E-01  0.9769997965E-02     249
    97  0.7058823529      0.1764705882      0.5882352941E-01  0.9769997965E-02     248
    98  0.7647058824      0.1764705882      0.5882352941E-01  0.9769997965E-02     252
    99  0.8235294118      0.1764705882      0.5882352941E-01  0.9769997965E-02     253
   100  0.8823529412      0.1764705882      0.5882352941E-01  0.4884998982E-02     250
   101  0.2941176471      0.2352941176      0.5882352941E-01  0.4884998982E-02     252
   102  0.3529411765      0.2352941176      0.5882352941E-01  0.9769997965E-02     251
   103  0.4117647059      0.2352941176      0.5882352941E-01  0.9769997965E-02     247
   104  0.4705882353      0.2352941176      0.5882352941E-01  0.9769997965E-02     247
   105  0.5294117647      0.2352941176      0.5882352941E-01  0.9769997965E-02     244
   106  0.5882352941      0.2352941176      0.5882352941E-01  0.9769997965E-02     246
   107  0.6470588235      0.2352941176      0.5882352941E-01  0.9769997965E-02     247
   108  0.7058823529      0.2352941176      0.5882352941E-01  0.9769997965E-02     247
   109  0.7647058824      0.2352941176      0.5882352941E-01  0.9769997965E-02     250
   110  0.8235294118      0.2352941176      0.5882352941E-01  0.4884998982E-02     251
   111  0.3529411765      0.2941176471      0.5882352941E-01  0.4884998982E-02     253
   112  0.4117647059      0.2941176471      0.5882352941E-01  0.9769997965E-02     249
   113  0.4705882353      0.2941176471      0.5882352941E-01  0.9769997965E-02     247
   114  0.5294117647      0.2941176471      0.5882352941E-01  0.9769997965E-02     244
   115  0.5882352941      0.2941176471      0.5882352941E-01  0.9769997965E-02     246
   116  0.6470588235      0.2941176471      0.5882352941E-01  0.9769997965E-02     246
   117  0.7058823529      0.2941176471      0.5882352941E-01  0.9769997965E-02     245
   118  0.7647058824      0.2941176471      0.5882352941E-01  0.4884998982E-02     247
   119  0.4117647059      0.3529411765      0.5882352941E-01  0.4884998982E-02     248
   120  0.4705882353      0.3529411765      0.5882352941E-01  0.9769997965E-02     246
   121  0.5294117647      0.3529411765      0.5882352941E-01  0.9769997965E-02     247
   122  0.5882352941      0.3529411765      0.5882352941E-01  0.9769997965E-02     244
   123  0.6470588235      0.3529411765      0.5882352941E-01  0.9769997965E-02     245
   124  0.7058823529      0.3529411765      0.5882352941E-01  0.4884998982E-02     247
   125  0.4705882353      0.4117647059      0.5882352941E-01  0.4884998982E-02     244
   126  0.5294117647      0.4117647059      0.5882352941E-01  0.9769997965E-02     242
   127  0.5882352941      0.4117647059      0.5882352941E-01  0.9769997965E-02     243
   128  0.6470588235      0.4117647059      0.5882352941E-01  0.4884998982E-02     240
   129  0.5294117647      0.4705882353      0.5882352941E-01  0.4884998982E-02     242
   130  0.5882352941      0.4705882353      0.5882352941E-01  0.4884998982E-02     244
   131  0.3529411765      0.2352941176      0.1176470588      0.4884998982E-02     251
   132  0.4117647059      0.2352941176      0.1176470588      0.9769997965E-02     250
   133  0.4705882353      0.2352941176      0.1176470588      0.9769997965E-02     247
   134  0.5294117647      0.2352941176      0.1176470588      0.9769997965E-02     245
   135  0.5882352941      0.2352941176      0.1176470588      0.9769997965E-02     246
   136  0.4117647059      0.2941176471      0.1176470588      0.4884998982E-02     248
   137  0.4705882353      0.2941176471      0.1176470588      0.9769997965E-02     249
   138  0.5294117647      0.2941176471      0.1176470588      0.9769997965E-02     243
   139  0.5882352941      0.2941176471      0.1176470588      0.9769997965E-02     244
   140  0.6470588235      0.2941176471      0.1176470588      0.9769997965E-02     244
   141  0.7058823529      0.2941176471      0.1176470588      0.9769997965E-02     244
   142  0.7647058824      0.2941176471      0.1176470588      0.9769997965E-02     246
   143  0.8235294118      0.2941176471      0.1176470588      0.4884998982E-02     248
   144  0.4705882353      0.3529411765      0.1176470588      0.4884998982E-02     248
   145  0.5294117647      0.3529411765      0.1176470588      0.9769997965E-02     246
   146  0.5882352941      0.3529411765      0.1176470588      0.9769997965E-02     244
   147  0.6470588235      0.3529411765      0.1176470588      0.9769997965E-02     243
   148  0.7058823529      0.3529411765      0.1176470588      0.9769997965E-02     243
   149  0.7647058824      0.3529411765      0.1176470588      0.4884998982E-02     243
   150  0.5294117647      0.4117647059      0.1176470588      0.4884998982E-02     244
   151  0.5882352941      0.4117647059      0.1176470588      0.9769997965E-02     244
   152  0.6470588235      0.4117647059      0.1176470588      0.9769997965E-02     242
   153  0.7058823529      0.4117647059      0.1176470588      0.4884998982E-02     241
   154  0.5882352941      0.4705882353      0.1176470588      0.4884998982E-02     242
   155  0.6470588235      0.4705882353      0.1176470588      0.4884998982E-02     244
   156  0.5294117647      0.3529411765      0.1764705882      0.4884998982E-02     248
   157  0.5882352941      0.3529411765      0.1764705882      0.9769997965E-02     243
   158  0.6470588235      0.3529411765      0.1764705882      0.9769997965E-02     242
   159  0.5882352941      0.4117647059      0.1764705882      0.4884998982E-02     245
   160  0.6470588235      0.4117647059      0.1764705882      0.9769997965E-02     240
   161  0.7058823529      0.4117647059      0.1764705882      0.9769997965E-02     239
   162  0.7647058824      0.4117647059      0.1764705882      0.4884998982E-02     241
   163  0.6470588235      0.4705882353      0.1764705882      0.4884998982E-02     240
   164  0.7058823529      0.4705882353      0.1764705882      0.4884998982E-02     240
   165  0.7058823529      0.4705882353      0.2352941176      0.4884998982E-02     240
