  0.2006177025E-35
  0.1428796070E-34
  0.1253860641E-35
  0.1758268529E-34
  0.1525387305E-35
  0.5114767900E-35
  0.1504632769E-34
  0.5127431531E-35
  0.8060139606E-35
  0.5139299302E-35
  0.2006216208E-34
  0.8540990921E-35
  0.1204750646E-34
  0.7181020918E-35
  0.2758493410E-35
  0.3091726437E-35
  0.3172044395E-35
