   98.79445949    
   98.29676950    
   93.72482282    
   124.6272917    
   126.8225453    
   120.3151727    
   117.2621036    
   116.9727827    
   116.5989078    
   116.5957792    
   116.6375194    
   116.6393515    
   116.6385402    
   116.6386186    
   116.6385461    
   116.6382398    
   116.6378465    
   116.6374909    
   116.6371118    
   116.6371251    
   116.6370821    
   116.6370130    
   116.6369364    
   116.6368920    
   116.6368627    
   116.6368399    
   116.6368516    
   116.6368249    
   116.6367449    
   116.6367899    
   116.6367925    
   116.6367836    
   116.6367920    
   116.6367944    
   116.6367983    
   116.6367987    
   116.6368005    
   116.6367996    
   116.6367993    
