 
+----------------------------+
| Real-space lattice vectors |
+----------------------------+
 
vector a1 :    5.802165584      -3.349881862       0.000000000    
vector a2 :    0.000000000       6.699763723       0.000000000    
vector a3 :    0.000000000       0.000000000       10.32176253    
 
Stored column-wise as a matrix :
   5.802165584       0.000000000       0.000000000    
  -3.349881862       6.699763723       0.000000000    
   0.000000000       0.000000000       10.32176253    
 
Inverse of matrix :
  0.1723494419       0.000000000       0.000000000    
  0.8617472093E-01  0.1492589950       0.000000000    
   0.000000000       0.000000000      0.9688267842E-01
 
Unit cell volume :    401.2393044    
 
 
+----------------------------------+
| Reciprocal-space lattice vectors |
+----------------------------------+
 
vector b1 :    1.082903481       0.000000000       0.000000000    
vector b2 :   0.5414517404      0.9378219243       0.000000000    
vector b3 :    0.000000000       0.000000000      0.6087318216    
 
Stored column-wise as a matrix :
   1.082903481      0.5414517404       0.000000000    
   0.000000000      0.9378219243       0.000000000    
   0.000000000       0.000000000      0.6087318216    
 
Inverse of matrix :
  0.9234433333     -0.5331502571       0.000000000    
   0.000000000       1.066300514       0.000000000    
   0.000000000       0.000000000       1.642759528    
 
Brillouin zone volume :   0.6182101572    
