   1.038551243    
  0.8585259613    
  0.4268613939    
  0.1647539012    
  0.4956394725E-01
  0.2870797058E-02
  0.1498672414E-02
  0.3992509860E-03
  0.2707018681E-03
  0.3189678580E-03
  0.1179697376E-03
  0.3179666291E-04
  0.2393280238E-04
  0.1809914803E-03
  0.4923395017E-03
  0.5758333711E-04
  0.1647942597E-03
  0.2911896246E-03
  0.5475105875E-04
  0.9275609880E-04
  0.9061403965E-04
  0.8458924571E-04
  0.7535328568E-04
  0.6516925788E-04
  0.7142402572E-03
  0.6983639737E-04
  0.9021176350E-04
  0.2857714603E-03
  0.5553267543E-04
  0.3160725601E-04
  0.3801272637E-03
  0.4759097383E-04
  0.3808079150E-03
  0.2206357892E-03
  0.3223205590E-03
  0.1568902669E-03
  0.2713085830E-03
  0.1200538422E-03
  0.2095198350E-03
  0.8361581111E-04
  0.1752628184E-03
  0.5127265756E-04
  0.1018805554E-03
  0.2829228643E-03
  0.7998873762E-03
  0.4299052893E-04
  0.4498027002E-04
  0.2595120796E-03
  0.9888379434E-03
  0.6301643276E-04
  0.5730616891E-04
  0.4235527378E-04
  0.9540934691E-04
  0.1337600849E-03
  0.7179373819E-04
  0.5593807671E-04
