 
+----------------------------+
| Real-space lattice vectors |
+----------------------------+
 
vector a1 :    5.465857427      -3.155714256       0.000000000    
vector a2 :    0.000000000       6.311428514       0.000000000    
vector a3 :    0.000000000       0.000000000       9.856358540    
 
Stored column-wise as a matrix :
   5.465857427       0.000000000       0.000000000    
  -3.155714256       6.311428514       0.000000000    
   0.000000000       0.000000000       9.856358540    
 
Inverse of matrix :
  0.1829539122       0.000000000       0.000000000    
  0.9147695611E-01  0.1584427357       0.000000000    
   0.000000000       0.000000000      0.1014573482    
 
Unit cell volume :    340.0184318    
 
 
+----------------------------------+
| Reciprocal-space lattice vectors |
+----------------------------------+
 
vector b1 :    1.149533333       0.000000000       0.000000000    
vector b2 :   0.5747666665      0.9955250691       0.000000000    
vector b3 :    0.000000000       0.000000000      0.6374753193    
 
Stored column-wise as a matrix :
   1.149533333      0.5747666665       0.000000000    
   0.000000000      0.9955250691       0.000000000    
   0.000000000       0.000000000      0.6374753193    
 
Inverse of matrix :
  0.8699182277     -0.5022475229       0.000000000    
   0.000000000       1.004495046       0.000000000    
   0.000000000       0.000000000       1.568688182    
 
Brillouin zone volume :   0.7295199032    
