  0.5814175179    
  0.4902048980    
  0.2165742441    
  0.8196352900E-01
  0.2756034845E-01
  0.3900145404E-02
  0.1047460193E-02
  0.2174560995E-03
  0.9034294291E-04
  0.3838355897E-04
  0.1686259937E-03
  0.2595983892E-04
  0.7591147364E-04
  0.7684394337E-04
  0.9484884358E-04
  0.2242090902E-04
  0.7503057797E-05
  0.1210560051E-04
  0.8212810656E-05
  0.1273766903E-03
  0.2330417774E-04
  0.1530272429E-04
  0.4644913175E-04
  0.2176551964E-03
  0.1773582045E-04
  0.1433049971E-03
  0.1647389637E-03
  0.7677617505E-04
  0.1016245205E-04
  0.1667592820E-04
  0.1191132512E-03
  0.3211866263E-04
  0.1085335940E-03
  0.2751359946E-04
  0.1346368693E-03
  0.2965789346E-04
  0.1073367639E-03
  0.5725909108E-04
  0.8669949128E-04
  0.1351636978E-04
