    0.126512055188E-03
    0.134094243020E-03
    0.219864277546E-03
    0.292786973238E-04
    0.153196090887E-03
    0.204670267457E-03
    0.359041113839E-03
    0.359824159635E-03
    0.360290686084E-03
    0.360281641682E-03
    0.359732383954E-03
    0.359678324491E-03
    0.359755187032E-03
    0.359791369867E-03
    0.359803308380E-03
    0.359819255313E-03
    0.359818356666E-03
    0.359819034035E-03
    0.359818574070E-03
    0.359822777797E-03
    0.359820336616E-03
    0.359823707716E-03
    0.359824993549E-03
    0.359823719912E-03
    0.359824950677E-03
    0.359825690373E-03
    0.359825925396E-03
    0.359826581024E-03
    0.359827243334E-03
    0.359827398750E-03
    0.359827384085E-03
    0.359827384033E-03
    0.359827389113E-03
    0.359827591788E-03
    0.359827514284E-03
    0.359827536625E-03
    0.359827547958E-03
    0.359827488720E-03
    0.359827480407E-03
    0.359827547955E-03
    0.359827577017E-03
    0.359827560702E-03
    0.359827580759E-03
    0.359827588744E-03
    0.359827578642E-03
    0.359827573982E-03
    0.359827579204E-03
    0.359827567600E-03
    0.359827585664E-03
    0.359827596130E-03
    0.359827598400E-03
    0.359827604117E-03
    0.359827609160E-03
    0.359827606770E-03
