  0.9695988802    
   11.56688921    
   25.26610731    
   24.04423607    
   13.73267331    
   6.419425860    
   1.564926766    
  0.3781140726    
  0.9981303115E-01
  0.2853806275E-01
  0.6597225574E-02
  0.1476559510E-02
  0.2652315488E-03
  0.4669972623E-04
  0.3749299776E-04
  0.3895500231E-04
  0.1756270649E-06
  0.2094736647E-04
  0.1301740667E-05
  0.2362886335E-05
  0.3091538929E-05
  0.6216805559E-06
  0.1764401532E-05
  0.8904435163E-06
  0.2467150807E-05
  0.9609502740E-06
  0.1508940841E-05
  0.6646223483E-06
  0.2344440873E-06
  0.3944705895E-06
  0.3011991794E-06
  0.2191263775E-06
  0.1229020199E-05
  0.2683409548E-06
  0.2197884896E-07
  0.1402953785E-05
  0.4780640666E-06
  0.1712933226E-06
  0.1031967258E-06
  0.1353372681E-05
  0.3052364264E-06
  0.1111284291E-06
  0.1934222382E-07
  0.1272041118E-05
  0.3485210982E-06
  0.1052776497E-06
  0.6031496014E-07
  0.8344613889E-08
