 
Distance between is =    1 (Y), ia =    1 and
 is =    1 (Y), ia =    1 :    0.000000000    
 is =    1 (Y), ia =    2 :    6.707955683    
 
Distance between is =    1 (Y), ia =    2 and
 is =    1 (Y), ia =    1 :    6.707955683    
 is =    1 (Y), ia =    2 :    0.000000000    
