 
Species :    1 (Y), atom :    1
 APW functions :
  l =  0, energy derivative =  0 :   0.1675442499    
  l =  1, energy derivative =  0 :   0.1675442499    
  l =  2, energy derivative =  0 :   0.1675442499    
  l =  3, energy derivative =  0 :   0.1675442499    
  l =  4, energy derivative =  0 :   0.1675442499    
  l =  5, energy derivative =  0 :   0.1675442499    
  l =  6, energy derivative =  0 :   0.1675442499    
  l =  7, energy derivative =  0 :   0.1675442499    
  l =  8, energy derivative =  0 :   0.1675442499    
  l =  9, energy derivative =  0 :   0.1675442499    
  l = 10, energy derivative =  0 :   0.1675442499    
 local-orbital functions :
  l.o. =  1, l =  0, energy derivative =  0 :   0.1675442499    
  l.o. =  1, l =  0, energy derivative =  1 :   0.1675442499    
  l.o. =  2, l =  1, energy derivative =  0 :   0.1675442499    
  l.o. =  2, l =  1, energy derivative =  1 :   0.1675442499    
  l.o. =  3, l =  2, energy derivative =  0 :   0.1675442499    
  l.o. =  3, l =  2, energy derivative =  1 :   0.1675442499    
  l.o. =  4, l =  0, energy derivative =  0 :   0.1675442499    
  l.o. =  4, l =  0, energy derivative =  0 :   -1.310230345    
  l.o. =  5, l =  1, energy derivative =  0 :   0.1675442499    
  l.o. =  5, l =  1, energy derivative =  0 :  -0.5564439555    
  l.o. =  6, l =  3, energy derivative =  0 :   0.1675442499    
  l.o. =  6, l =  3, energy derivative =  1 :   0.1675442499    
  l.o. =  7, l =  4, energy derivative =  0 :   0.1675442499    
  l.o. =  7, l =  4, energy derivative =  1 :   0.1675442499    
  l.o. =  8, l =  5, energy derivative =  0 :   0.1675442499    
  l.o. =  8, l =  5, energy derivative =  1 :   0.1675442499    
  l.o. =  9, l =  0, energy derivative =  0 :    1.466042067    
  l.o. =  9, l =  0, energy derivative =  1 :    1.466042067    
  l.o. =  9, l =  0, energy derivative =  2 :    1.466042067    
  l.o. = 10, l =  1, energy derivative =  0 :    2.028366751    
  l.o. = 10, l =  1, energy derivative =  1 :    2.028366751    
  l.o. = 10, l =  1, energy derivative =  2 :    2.028366751    
  l.o. = 11, l =  2, energy derivative =  0 :   0.5590952874    
  l.o. = 11, l =  2, energy derivative =  1 :   0.5590952874    
  l.o. = 11, l =  2, energy derivative =  2 :   0.5590952874    
  l.o. = 12, l =  3, energy derivative =  0 :    1.647290354    
  l.o. = 12, l =  3, energy derivative =  1 :    1.647290354    
  l.o. = 12, l =  3, energy derivative =  2 :    1.647290354    
  l.o. = 13, l =  4, energy derivative =  0 :    3.067014108    
  l.o. = 13, l =  4, energy derivative =  1 :    3.067014108    
  l.o. = 13, l =  4, energy derivative =  2 :    3.067014108    
  l.o. = 14, l =  5, energy derivative =  0 :    4.489845199    
  l.o. = 14, l =  5, energy derivative =  1 :    4.489845199    
  l.o. = 14, l =  5, energy derivative =  2 :    4.489845199    
  l.o. = 15, l =  6, energy derivative =  0 :    6.030440593    
  l.o. = 15, l =  6, energy derivative =  1 :    6.030440593    
  l.o. = 15, l =  6, energy derivative =  2 :    6.030440593    
  l.o. = 16, l =  7, energy derivative =  0 :    7.713845347    
  l.o. = 16, l =  7, energy derivative =  1 :    7.713845347    
  l.o. = 16, l =  7, energy derivative =  2 :    7.713845347    
  l.o. = 17, l =  8, energy derivative =  0 :    9.549144256    
  l.o. = 17, l =  8, energy derivative =  1 :    9.549144256    
  l.o. = 17, l =  8, energy derivative =  2 :    9.549144256    
 
Species :    1 (Y), atom :    2
 APW functions :
  l =  0, energy derivative =  0 :   0.1675442499    
  l =  1, energy derivative =  0 :   0.1675442499    
  l =  2, energy derivative =  0 :   0.1675442499    
  l =  3, energy derivative =  0 :   0.1675442499    
  l =  4, energy derivative =  0 :   0.1675442499    
  l =  5, energy derivative =  0 :   0.1675442499    
  l =  6, energy derivative =  0 :   0.1675442499    
  l =  7, energy derivative =  0 :   0.1675442499    
  l =  8, energy derivative =  0 :   0.1675442499    
  l =  9, energy derivative =  0 :   0.1675442499    
  l = 10, energy derivative =  0 :   0.1675442499    
 local-orbital functions :
  l.o. =  1, l =  0, energy derivative =  0 :   0.1675442499    
  l.o. =  1, l =  0, energy derivative =  1 :   0.1675442499    
  l.o. =  2, l =  1, energy derivative =  0 :   0.1675442499    
  l.o. =  2, l =  1, energy derivative =  1 :   0.1675442499    
  l.o. =  3, l =  2, energy derivative =  0 :   0.1675442499    
  l.o. =  3, l =  2, energy derivative =  1 :   0.1675442499    
  l.o. =  4, l =  0, energy derivative =  0 :   0.1675442499    
  l.o. =  4, l =  0, energy derivative =  0 :   -1.310230345    
  l.o. =  5, l =  1, energy derivative =  0 :   0.1675442499    
  l.o. =  5, l =  1, energy derivative =  0 :  -0.5564439555    
  l.o. =  6, l =  3, energy derivative =  0 :   0.1675442499    
  l.o. =  6, l =  3, energy derivative =  1 :   0.1675442499    
  l.o. =  7, l =  4, energy derivative =  0 :   0.1675442499    
  l.o. =  7, l =  4, energy derivative =  1 :   0.1675442499    
  l.o. =  8, l =  5, energy derivative =  0 :   0.1675442499    
  l.o. =  8, l =  5, energy derivative =  1 :   0.1675442499    
  l.o. =  9, l =  0, energy derivative =  0 :    1.466042067    
  l.o. =  9, l =  0, energy derivative =  1 :    1.466042067    
  l.o. =  9, l =  0, energy derivative =  2 :    1.466042067    
  l.o. = 10, l =  1, energy derivative =  0 :    2.028366751    
  l.o. = 10, l =  1, energy derivative =  1 :    2.028366751    
  l.o. = 10, l =  1, energy derivative =  2 :    2.028366751    
  l.o. = 11, l =  2, energy derivative =  0 :   0.5590952874    
  l.o. = 11, l =  2, energy derivative =  1 :   0.5590952874    
  l.o. = 11, l =  2, energy derivative =  2 :   0.5590952874    
  l.o. = 12, l =  3, energy derivative =  0 :    1.647290354    
  l.o. = 12, l =  3, energy derivative =  1 :    1.647290354    
  l.o. = 12, l =  3, energy derivative =  2 :    1.647290354    
  l.o. = 13, l =  4, energy derivative =  0 :    3.067014108    
  l.o. = 13, l =  4, energy derivative =  1 :    3.067014108    
  l.o. = 13, l =  4, energy derivative =  2 :    3.067014108    
  l.o. = 14, l =  5, energy derivative =  0 :    4.489845199    
  l.o. = 14, l =  5, energy derivative =  1 :    4.489845199    
  l.o. = 14, l =  5, energy derivative =  2 :    4.489845199    
  l.o. = 15, l =  6, energy derivative =  0 :    6.030440593    
  l.o. = 15, l =  6, energy derivative =  1 :    6.030440593    
  l.o. = 15, l =  6, energy derivative =  2 :    6.030440593    
  l.o. = 16, l =  7, energy derivative =  0 :    7.713845347    
  l.o. = 16, l =  7, energy derivative =  1 :    7.713845347    
  l.o. = 16, l =  7, energy derivative =  2 :    7.713845347    
  l.o. = 17, l =  8, energy derivative =  0 :    9.549144256    
  l.o. = 17, l =  8, energy derivative =  1 :    9.549144256    
  l.o. = 17, l =  8, energy derivative =  2 :    9.549144256    
