 
Species :    1 (Ca), atom :    1
 APW functions :
  l =  0, energy derivative =  0 :   0.2469192694E-01
  l =  1, energy derivative =  0 :   0.2469192694E-01
  l =  2, energy derivative =  0 :   0.2469192694E-01
  l =  3, energy derivative =  0 :   0.2469192694E-01
  l =  4, energy derivative =  0 :   0.2469192694E-01
  l =  5, energy derivative =  0 :   0.2469192694E-01
  l =  6, energy derivative =  0 :   0.2469192694E-01
  l =  7, energy derivative =  0 :   0.2469192694E-01
  l =  8, energy derivative =  0 :   0.2469192694E-01
  l =  9, energy derivative =  0 :   0.2469192694E-01
  l = 10, energy derivative =  0 :   0.2469192694E-01
 local-orbital functions :
  l.o. =  1, l =  0, energy derivative =  0 :   0.2469192694E-01
  l.o. =  1, l =  0, energy derivative =  1 :   0.2469192694E-01
  l.o. =  2, l =  1, energy derivative =  0 :   0.2469192694E-01
  l.o. =  2, l =  1, energy derivative =  1 :   0.2469192694E-01
  l.o. =  3, l =  0, energy derivative =  0 :   0.2469192694E-01
  l.o. =  3, l =  0, energy derivative =  0 :   -1.430132278    
  l.o. =  4, l =  1, energy derivative =  0 :   0.2469192694E-01
  l.o. =  4, l =  1, energy derivative =  0 :  -0.7136742347    
  l.o. =  5, l =  2, energy derivative =  0 :   0.2469192694E-01
  l.o. =  5, l =  2, energy derivative =  1 :   0.2469192694E-01
  l.o. =  6, l =  3, energy derivative =  0 :   0.2469192694E-01
  l.o. =  6, l =  3, energy derivative =  1 :   0.2469192694E-01
  l.o. =  7, l =  4, energy derivative =  0 :   0.2469192694E-01
  l.o. =  7, l =  4, energy derivative =  1 :   0.2469192694E-01
  l.o. =  8, l =  0, energy derivative =  0 :    1.549409125    
  l.o. =  8, l =  0, energy derivative =  1 :    1.549409125    
  l.o. =  8, l =  0, energy derivative =  2 :    1.549409125    
  l.o. =  9, l =  1, energy derivative =  0 :    1.995215928    
  l.o. =  9, l =  1, energy derivative =  1 :    1.995215928    
  l.o. =  9, l =  1, energy derivative =  2 :    1.995215928    
  l.o. = 10, l =  2, energy derivative =  0 :   0.3663456016    
  l.o. = 10, l =  2, energy derivative =  1 :   0.3663456016    
  l.o. = 10, l =  2, energy derivative =  2 :   0.3663456016    
  l.o. = 11, l =  3, energy derivative =  0 :    2.151284973    
  l.o. = 11, l =  3, energy derivative =  1 :    2.151284973    
  l.o. = 11, l =  3, energy derivative =  2 :    2.151284973    
  l.o. = 12, l =  4, energy derivative =  0 :    3.666781098    
  l.o. = 12, l =  4, energy derivative =  1 :    3.666781098    
  l.o. = 12, l =  4, energy derivative =  2 :    3.666781098    
  l.o. = 13, l =  5, energy derivative =  0 :    5.290702885    
  l.o. = 13, l =  5, energy derivative =  1 :    5.290702885    
  l.o. = 13, l =  5, energy derivative =  2 :    5.290702885    
  l.o. = 14, l =  6, energy derivative =  0 :    7.075474487    
  l.o. = 14, l =  6, energy derivative =  1 :    7.075474487    
  l.o. = 14, l =  6, energy derivative =  2 :    7.075474487    
  l.o. = 15, l =  7, energy derivative =  0 :    9.036952935    
  l.o. = 15, l =  7, energy derivative =  1 :    9.036952935    
  l.o. = 15, l =  7, energy derivative =  2 :    9.036952935    
  l.o. = 16, l =  8, energy derivative =  0 :    11.18134293    
  l.o. = 16, l =  8, energy derivative =  1 :    11.18134293    
  l.o. = 16, l =  8, energy derivative =  2 :    11.18134293    
