  0.6726141492    
   4.442540520    
   22.06743758    
   16.30498222    
   8.318310537    
   3.752667815    
  0.8995995509    
  0.2099658516    
  0.4773909807E-01
  0.1322445002E-01
  0.3501638994E-02
  0.1419163095E-02
  0.2136327512E-03
  0.1729790893E-03
  0.8860787057E-04
  0.3653468957E-04
  0.3963946074E-04
  0.6377610589E-05
  0.4526261364E-05
  0.7122327588E-05
  0.4298976819E-05
  0.4358293154E-05
  0.3165969247E-05
  0.9580244296E-06
  0.3724544513E-06
  0.1176283149E-05
  0.2479928298E-06
  0.1169564712E-06
  0.3113200364E-08
