 
+----------------------------+
| Real-space lattice vectors |
+----------------------------+
 
vector a1 :    3.674287168       3.674287168       0.000000000    
vector a2 :    3.674287168       0.000000000       3.674287168    
vector a3 :    0.000000000       3.674287168       3.674287168    
 
Stored column-wise as a matrix :
   3.674287168       3.674287168       0.000000000    
   3.674287168       0.000000000       3.674287168    
   0.000000000       3.674287168       3.674287168    
 
Inverse of matrix :
  0.1360808171      0.1360808171     -0.1360808171    
  0.1360808171     -0.1360808171      0.1360808171    
 -0.1360808171      0.1360808171      0.1360808171    
 
Unit cell volume :    99.20859154    
 
 
+----------------------------------+
| Reciprocal-space lattice vectors |
+----------------------------------+
 
vector b1 :   0.8550209904      0.8550209904     -0.8550209904    
vector b2 :   0.8550209904     -0.8550209904      0.8550209904    
vector b3 :  -0.8550209904      0.8550209904      0.8550209904    
 
Stored column-wise as a matrix :
  0.8550209904      0.8550209904     -0.8550209904    
  0.8550209904     -0.8550209904      0.8550209904    
 -0.8550209904      0.8550209904      0.8550209904    
 
Inverse of matrix :
  0.5847809652      0.5847809652       0.000000000    
  0.5847809652       0.000000000      0.5847809652    
   0.000000000      0.5847809652      0.5847809652    
 
Brillouin zone volume :    2.500289638    
