 
Species :    1 (Cu), atom :    1
 APW functions :
  l =  0, energy derivative =  0 :   0.2002566142    
  l =  1, energy derivative =  0 :   0.2002566142    
  l =  2, energy derivative =  0 :   0.2002566142    
  l =  3, energy derivative =  0 :   0.2002566142    
  l =  4, energy derivative =  0 :   0.2002566142    
  l =  5, energy derivative =  0 :   0.2002566142    
  l =  6, energy derivative =  0 :   0.2002566142    
  l =  7, energy derivative =  0 :   0.2002566142    
  l =  8, energy derivative =  0 :   0.2002566142    
  l =  9, energy derivative =  0 :   0.2002566142    
  l = 10, energy derivative =  0 :   0.2002566142    
 local-orbital functions :
  l.o. =  1, l =  0, energy derivative =  0 :   0.2002566142    
  l.o. =  1, l =  0, energy derivative =  1 :   0.2002566142    
  l.o. =  2, l =  1, energy derivative =  0 :   0.2002566142    
  l.o. =  2, l =  1, energy derivative =  1 :   0.2002566142    
  l.o. =  3, l =  2, energy derivative =  0 :   0.2002566142    
  l.o. =  3, l =  2, energy derivative =  1 :   0.2002566142    
  l.o. =  4, l =  1, energy derivative =  0 :   0.2002566142    
  l.o. =  4, l =  1, energy derivative =  0 :   -2.281999622    
  l.o. =  5, l =  2, energy derivative =  0 :   0.2002566142    
  l.o. =  5, l =  2, energy derivative =  0 :   0.2199563836    
  l.o. =  6, l =  3, energy derivative =  0 :   0.2002566142    
  l.o. =  6, l =  3, energy derivative =  1 :   0.2002566142    
  l.o. =  7, l =  4, energy derivative =  0 :   0.2002566142    
  l.o. =  7, l =  4, energy derivative =  1 :   0.2002566142    
  l.o. =  8, l =  5, energy derivative =  0 :   0.2002566142    
  l.o. =  8, l =  5, energy derivative =  1 :   0.2002566142    
  l.o. =  9, l =  0, energy derivative =  0 :   0.9301755215    
  l.o. =  9, l =  0, energy derivative =  1 :   0.9301755215    
  l.o. =  9, l =  0, energy derivative =  2 :   0.9301755215    
  l.o. = 10, l =  1, energy derivative =  0 :    1.457674409    
  l.o. = 10, l =  1, energy derivative =  1 :    1.457674409    
  l.o. = 10, l =  1, energy derivative =  2 :    1.457674409    
  l.o. = 11, l =  2, energy derivative =  0 :   0.2199563836    
  l.o. = 11, l =  2, energy derivative =  1 :   0.2199563836    
  l.o. = 11, l =  2, energy derivative =  2 :   0.2199563836    
  l.o. = 12, l =  3, energy derivative =  0 :    2.890200664    
  l.o. = 12, l =  3, energy derivative =  1 :    2.890200664    
  l.o. = 12, l =  3, energy derivative =  2 :    2.890200664    
  l.o. = 13, l =  4, energy derivative =  0 :    4.579107524    
  l.o. = 13, l =  4, energy derivative =  1 :    4.579107524    
  l.o. = 13, l =  4, energy derivative =  2 :    4.579107524    
  l.o. = 14, l =  5, energy derivative =  0 :    6.394136330    
  l.o. = 14, l =  5, energy derivative =  1 :    6.394136330    
  l.o. = 14, l =  5, energy derivative =  2 :    6.394136330    
  l.o. = 15, l =  6, energy derivative =  0 :    8.399324067    
  l.o. = 15, l =  6, energy derivative =  1 :    8.399324067    
  l.o. = 15, l =  6, energy derivative =  2 :    8.399324067    
  l.o. = 16, l =  7, energy derivative =  0 :    10.61084643    
  l.o. = 16, l =  7, energy derivative =  1 :    10.61084643    
  l.o. = 16, l =  7, energy derivative =  2 :    10.61084643    
  l.o. = 17, l =  8, energy derivative =  0 :    13.03433048    
  l.o. = 17, l =  8, energy derivative =  1 :    13.03433048    
  l.o. = 17, l =  8, energy derivative =  2 :    13.03433048    
