 
Species :    1 (Re), atom :    1
 APW functions :
  l =  0, energy derivative =  0 :   0.4912328938    
  l =  1, energy derivative =  0 :   0.4912328938    
  l =  2, energy derivative =  0 :   0.4912328938    
  l =  3, energy derivative =  0 :   0.4912328938    
  l =  4, energy derivative =  0 :   0.4912328938    
  l =  5, energy derivative =  0 :   0.4912328938    
  l =  6, energy derivative =  0 :   0.4912328938    
  l =  7, energy derivative =  0 :   0.4912328938    
  l =  8, energy derivative =  0 :   0.4912328938    
  l =  9, energy derivative =  0 :   0.4912328938    
  l = 10, energy derivative =  0 :   0.4912328938    
 local-orbital functions :
  l.o. =  1, l =  0, energy derivative =  0 :   0.4912328938    
  l.o. =  1, l =  0, energy derivative =  1 :   0.4912328938    
  l.o. =  2, l =  1, energy derivative =  0 :   0.4912328938    
  l.o. =  2, l =  1, energy derivative =  1 :   0.4912328938    
  l.o. =  3, l =  2, energy derivative =  0 :   0.4912328938    
  l.o. =  3, l =  2, energy derivative =  1 :   0.4912328938    
  l.o. =  4, l =  3, energy derivative =  0 :   0.4912328938    
  l.o. =  4, l =  3, energy derivative =  1 :   0.4912328938    
  l.o. =  5, l =  3, energy derivative =  0 :   0.4912328938    
  l.o. =  5, l =  3, energy derivative =  0 :  -0.7621205072    
  l.o. =  6, l =  0, energy derivative =  0 :   0.4912328938    
  l.o. =  6, l =  0, energy derivative =  0 :   -2.349463411    
  l.o. =  7, l =  1, energy derivative =  0 :   0.4912328938    
  l.o. =  7, l =  1, energy derivative =  0 :  -0.9412494076    
  l.o. =  8, l =  2, energy derivative =  0 :   0.4912328938    
  l.o. =  8, l =  2, energy derivative =  0 :   0.7176195251    
  l.o. =  9, l =  4, energy derivative =  0 :   0.4912328938    
  l.o. =  9, l =  4, energy derivative =  1 :   0.4912328938    
  l.o. = 10, l =  5, energy derivative =  0 :   0.4912328938    
  l.o. = 10, l =  5, energy derivative =  1 :   0.4912328938    
  l.o. = 11, l =  6, energy derivative =  0 :   0.4912328938    
  l.o. = 11, l =  6, energy derivative =  1 :   0.4912328938    
  l.o. = 12, l =  0, energy derivative =  0 :    1.449696966    
  l.o. = 12, l =  0, energy derivative =  1 :    1.449696966    
  l.o. = 12, l =  0, energy derivative =  2 :    1.449696966    
  l.o. = 13, l =  1, energy derivative =  0 :    2.264259009    
  l.o. = 13, l =  1, energy derivative =  1 :    2.264259009    
  l.o. = 13, l =  1, energy derivative =  2 :    2.264259009    
  l.o. = 14, l =  2, energy derivative =  0 :   0.7176195251    
  l.o. = 14, l =  2, energy derivative =  1 :   0.7176195251    
  l.o. = 14, l =  2, energy derivative =  2 :   0.7176195251    
  l.o. = 15, l =  3, energy derivative =  0 :    2.350855152    
  l.o. = 15, l =  3, energy derivative =  1 :    2.350855152    
  l.o. = 15, l =  3, energy derivative =  2 :    2.350855152    
  l.o. = 16, l =  4, energy derivative =  0 :    3.664402152    
  l.o. = 16, l =  4, energy derivative =  1 :    3.664402152    
  l.o. = 16, l =  4, energy derivative =  2 :    3.664402152    
  l.o. = 17, l =  5, energy derivative =  0 :    5.367776444    
  l.o. = 17, l =  5, energy derivative =  1 :    5.367776444    
  l.o. = 17, l =  5, energy derivative =  2 :    5.367776444    
  l.o. = 18, l =  6, energy derivative =  0 :    7.165429881    
  l.o. = 18, l =  6, energy derivative =  1 :    7.165429881    
  l.o. = 18, l =  6, energy derivative =  2 :    7.165429881    
  l.o. = 19, l =  7, energy derivative =  0 :    9.117314642    
  l.o. = 19, l =  7, energy derivative =  1 :    9.117314642    
  l.o. = 19, l =  7, energy derivative =  2 :    9.117314642    
  l.o. = 20, l =  8, energy derivative =  0 :    11.24039199    
  l.o. = 20, l =  8, energy derivative =  1 :    11.24039199    
  l.o. = 20, l =  8, energy derivative =  2 :    11.24039199    
 
Species :    1 (Re), atom :    2
 APW functions :
  l =  0, energy derivative =  0 :   0.4912328938    
  l =  1, energy derivative =  0 :   0.4912328938    
  l =  2, energy derivative =  0 :   0.4912328938    
  l =  3, energy derivative =  0 :   0.4912328938    
  l =  4, energy derivative =  0 :   0.4912328938    
  l =  5, energy derivative =  0 :   0.4912328938    
  l =  6, energy derivative =  0 :   0.4912328938    
  l =  7, energy derivative =  0 :   0.4912328938    
  l =  8, energy derivative =  0 :   0.4912328938    
  l =  9, energy derivative =  0 :   0.4912328938    
  l = 10, energy derivative =  0 :   0.4912328938    
 local-orbital functions :
  l.o. =  1, l =  0, energy derivative =  0 :   0.4912328938    
  l.o. =  1, l =  0, energy derivative =  1 :   0.4912328938    
  l.o. =  2, l =  1, energy derivative =  0 :   0.4912328938    
  l.o. =  2, l =  1, energy derivative =  1 :   0.4912328938    
  l.o. =  3, l =  2, energy derivative =  0 :   0.4912328938    
  l.o. =  3, l =  2, energy derivative =  1 :   0.4912328938    
  l.o. =  4, l =  3, energy derivative =  0 :   0.4912328938    
  l.o. =  4, l =  3, energy derivative =  1 :   0.4912328938    
  l.o. =  5, l =  3, energy derivative =  0 :   0.4912328938    
  l.o. =  5, l =  3, energy derivative =  0 :  -0.7621205072    
  l.o. =  6, l =  0, energy derivative =  0 :   0.4912328938    
  l.o. =  6, l =  0, energy derivative =  0 :   -2.349463411    
  l.o. =  7, l =  1, energy derivative =  0 :   0.4912328938    
  l.o. =  7, l =  1, energy derivative =  0 :  -0.9412494076    
  l.o. =  8, l =  2, energy derivative =  0 :   0.4912328938    
  l.o. =  8, l =  2, energy derivative =  0 :   0.7176195251    
  l.o. =  9, l =  4, energy derivative =  0 :   0.4912328938    
  l.o. =  9, l =  4, energy derivative =  1 :   0.4912328938    
  l.o. = 10, l =  5, energy derivative =  0 :   0.4912328938    
  l.o. = 10, l =  5, energy derivative =  1 :   0.4912328938    
  l.o. = 11, l =  6, energy derivative =  0 :   0.4912328938    
  l.o. = 11, l =  6, energy derivative =  1 :   0.4912328938    
  l.o. = 12, l =  0, energy derivative =  0 :    1.449696966    
  l.o. = 12, l =  0, energy derivative =  1 :    1.449696966    
  l.o. = 12, l =  0, energy derivative =  2 :    1.449696966    
  l.o. = 13, l =  1, energy derivative =  0 :    2.264259009    
  l.o. = 13, l =  1, energy derivative =  1 :    2.264259009    
  l.o. = 13, l =  1, energy derivative =  2 :    2.264259009    
  l.o. = 14, l =  2, energy derivative =  0 :   0.7176195251    
  l.o. = 14, l =  2, energy derivative =  1 :   0.7176195251    
  l.o. = 14, l =  2, energy derivative =  2 :   0.7176195251    
  l.o. = 15, l =  3, energy derivative =  0 :    2.350855152    
  l.o. = 15, l =  3, energy derivative =  1 :    2.350855152    
  l.o. = 15, l =  3, energy derivative =  2 :    2.350855152    
  l.o. = 16, l =  4, energy derivative =  0 :    3.664402152    
  l.o. = 16, l =  4, energy derivative =  1 :    3.664402152    
  l.o. = 16, l =  4, energy derivative =  2 :    3.664402152    
  l.o. = 17, l =  5, energy derivative =  0 :    5.367776444    
  l.o. = 17, l =  5, energy derivative =  1 :    5.367776444    
  l.o. = 17, l =  5, energy derivative =  2 :    5.367776444    
  l.o. = 18, l =  6, energy derivative =  0 :    7.165429881    
  l.o. = 18, l =  6, energy derivative =  1 :    7.165429881    
  l.o. = 18, l =  6, energy derivative =  2 :    7.165429881    
  l.o. = 19, l =  7, energy derivative =  0 :    9.117314642    
  l.o. = 19, l =  7, energy derivative =  1 :    9.117314642    
  l.o. = 19, l =  7, energy derivative =  2 :    9.117314642    
  l.o. = 20, l =  8, energy derivative =  0 :    11.24039199    
  l.o. = 20, l =  8, energy derivative =  1 :    11.24039199    
  l.o. = 20, l =  8, energy derivative =  2 :    11.24039199    
