  0.3393539025    
   2.951101877    
   10.74851457    
   7.540129242    
   3.820830040    
   1.876204752    
  0.4637446239    
  0.9990007345E-01
  0.2710590749E-01
  0.8779675621E-02
  0.2173406858E-02
  0.4705141123E-03
  0.5697145525E-05
  0.5833337809E-05
  0.3504133565E-04
  0.2571268328E-04
  0.2081998696E-04
  0.2115138386E-05
  0.1145321403E-04
  0.3758095772E-05
  0.1434714432E-04
  0.5585307690E-05
  0.5772486475E-05
  0.3627774731E-05
  0.2638003934E-05
  0.4859377896E-06
  0.1028049383E-05
  0.5193769539E-06
  0.4169671683E-06
  0.4536989309E-06
  0.3577695225E-06
  0.5481592780E-07
  0.2729393600E-08
