 
Distance between is =    1 (Ti), ia =    1 and
 is =    1 (Ti), ia =    1 :    0.000000000    
 is =    1 (Ti), ia =    2 :    5.508014975    
 
Distance between is =    1 (Ti), ia =    2 and
 is =    1 (Ti), ia =    1 :    5.508014975    
 is =    1 (Ti), ia =    2 :    0.000000000    
