  0.9637853452    
  0.8464671067    
  0.3973276432    
  0.1468815036    
  0.4302539583E-01
  0.1842029331E-02
  0.7786057665E-03
  0.4764488018E-03
  0.3711670808E-03
  0.3896500444E-03
  0.7344520478E-04
  0.1740129844E-03
  0.7113372223E-04
  0.2706646441E-03
  0.2926332275E-03
  0.1445252418E-03
  0.1082213386E-03
  0.2906744751E-03
  0.8390701673E-03
  0.6509919870E-03
  0.2983114239E-03
  0.1875044328E-03
  0.2273326275E-03
  0.2190898036E-03
  0.8444039090E-03
  0.4329505375E-04
  0.2856714935E-03
  0.4536741351E-03
  0.2121909727E-03
  0.2885390551E-03
  0.1693799047E-03
  0.1062730104E-03
  0.2674325105E-03
  0.2918511710E-03
  0.1803240828E-03
  0.4368354289E-04
  0.2332053120E-03
  0.6155400668E-03
  0.9637758008E-04
  0.1451318569E-03
  0.2210523854E-04
  0.3002241608E-03
  0.4306875316E-03
  0.3065999110E-03
  0.6930298371E-04
  0.3773775772E-03
  0.2103919357E-03
  0.2536574273E-03
  0.4272327892E-03
  0.1424253290E-03
  0.7691542149E-03
