   297 : nkpt; k-point, vkl, wkpt, nmat below
     1   0.000000000       0.000000000       0.000000000      0.2035416243E-03     779
     2  0.5882352941E-01   0.000000000       0.000000000      0.1221249746E-02     783
     3  0.1176470588       0.000000000       0.000000000      0.1221249746E-02     784
     4  0.1764705882       0.000000000       0.000000000      0.1221249746E-02     778
     5  0.2352941176       0.000000000       0.000000000      0.1221249746E-02     778
     6  0.2941176471       0.000000000       0.000000000      0.1221249746E-02     778
     7  0.3529411765       0.000000000       0.000000000      0.1221249746E-02     772
     8  0.4117647059       0.000000000       0.000000000      0.1221249746E-02     772
     9  0.4705882353       0.000000000       0.000000000      0.1221249746E-02     760
    10  0.5882352941E-01  0.5882352941E-01   0.000000000      0.1221249746E-02     787
    11  0.1176470588      0.5882352941E-01   0.000000000      0.2442499491E-02     787
    12  0.1764705882      0.5882352941E-01   0.000000000      0.2442499491E-02     779
    13  0.2352941176      0.5882352941E-01   0.000000000      0.2442499491E-02     779
    14  0.2941176471      0.5882352941E-01   0.000000000      0.2442499491E-02     777
    15  0.3529411765      0.5882352941E-01   0.000000000      0.2442499491E-02     769
    16  0.4117647059      0.5882352941E-01   0.000000000      0.2442499491E-02     767
    17  0.4705882353      0.5882352941E-01   0.000000000      0.1221249746E-02     766
    18  0.1176470588      0.1176470588       0.000000000      0.1221249746E-02     779
    19  0.1764705882      0.1176470588       0.000000000      0.2442499491E-02     781
    20  0.2352941176      0.1176470588       0.000000000      0.2442499491E-02     770
    21  0.2941176471      0.1176470588       0.000000000      0.2442499491E-02     768
    22  0.3529411765      0.1176470588       0.000000000      0.2442499491E-02     767
    23  0.4117647059      0.1176470588       0.000000000      0.2442499491E-02     765
    24  0.1764705882      0.1764705882       0.000000000      0.1221249746E-02     775
    25  0.2352941176      0.1764705882       0.000000000      0.2442499491E-02     767
    26  0.2941176471      0.1764705882       0.000000000      0.2442499491E-02     770
    27  0.3529411765      0.1764705882       0.000000000      0.2442499491E-02     764
    28  0.4117647059      0.1764705882       0.000000000      0.1221249746E-02     770
    29  0.2352941176      0.2352941176       0.000000000      0.1221249746E-02     773
    30  0.2941176471      0.2352941176       0.000000000      0.2442499491E-02     766
    31  0.3529411765      0.2352941176       0.000000000      0.2442499491E-02     772
    32  0.2941176471      0.2941176471       0.000000000      0.1221249746E-02     768
    33  0.3529411765      0.2941176471       0.000000000      0.1221249746E-02     780
    34   0.000000000       0.000000000      0.5882352941E-01  0.4070832485E-03     779
    35  0.5882352941E-01   0.000000000      0.5882352941E-01  0.2442499491E-02     786
    36  0.1176470588       0.000000000      0.5882352941E-01  0.2442499491E-02     788
    37  0.1764705882       0.000000000      0.5882352941E-01  0.2442499491E-02     783
    38  0.2352941176       0.000000000      0.5882352941E-01  0.2442499491E-02     779
    39  0.2941176471       0.000000000      0.5882352941E-01  0.2442499491E-02     782
    40  0.3529411765       0.000000000      0.5882352941E-01  0.2442499491E-02     776
    41  0.4117647059       0.000000000      0.5882352941E-01  0.2442499491E-02     774
    42  0.4705882353       0.000000000      0.5882352941E-01  0.2442499491E-02     768
    43  0.5882352941E-01  0.5882352941E-01  0.5882352941E-01  0.2442499491E-02     790
    44  0.1176470588      0.5882352941E-01  0.5882352941E-01  0.4884998982E-02     787
    45  0.1764705882      0.5882352941E-01  0.5882352941E-01  0.4884998982E-02     783
    46  0.2352941176      0.5882352941E-01  0.5882352941E-01  0.4884998982E-02     782
    47  0.2941176471      0.5882352941E-01  0.5882352941E-01  0.4884998982E-02     773
    48  0.3529411765      0.5882352941E-01  0.5882352941E-01  0.4884998982E-02     771
    49  0.4117647059      0.5882352941E-01  0.5882352941E-01  0.4884998982E-02     767
    50  0.4705882353      0.5882352941E-01  0.5882352941E-01  0.2442499491E-02     766
    51  0.1176470588      0.1176470588      0.5882352941E-01  0.2442499491E-02     780
    52  0.1764705882      0.1176470588      0.5882352941E-01  0.4884998982E-02     777
    53  0.2352941176      0.1176470588      0.5882352941E-01  0.4884998982E-02     771
    54  0.2941176471      0.1176470588      0.5882352941E-01  0.4884998982E-02     767
    55  0.3529411765      0.1176470588      0.5882352941E-01  0.4884998982E-02     766
    56  0.4117647059      0.1176470588      0.5882352941E-01  0.4884998982E-02     765
    57  0.1764705882      0.1764705882      0.5882352941E-01  0.2442499491E-02     773
    58  0.2352941176      0.1764705882      0.5882352941E-01  0.4884998982E-02     769
    59  0.2941176471      0.1764705882      0.5882352941E-01  0.4884998982E-02     764
    60  0.3529411765      0.1764705882      0.5882352941E-01  0.4884998982E-02     765
    61  0.4117647059      0.1764705882      0.5882352941E-01  0.2442499491E-02     769
    62  0.2352941176      0.2352941176      0.5882352941E-01  0.2442499491E-02     769
    63  0.2941176471      0.2352941176      0.5882352941E-01  0.4884998982E-02     766
    64  0.3529411765      0.2352941176      0.5882352941E-01  0.4884998982E-02     770
    65  0.2941176471      0.2941176471      0.5882352941E-01  0.2442499491E-02     774
    66  0.3529411765      0.2941176471      0.5882352941E-01  0.2442499491E-02     772
    67   0.000000000       0.000000000      0.1176470588      0.4070832485E-03     785
    68  0.5882352941E-01   0.000000000      0.1176470588      0.2442499491E-02     788
    69  0.1176470588       0.000000000      0.1176470588      0.2442499491E-02     789
    70  0.1764705882       0.000000000      0.1176470588      0.2442499491E-02     783
    71  0.2352941176       0.000000000      0.1176470588      0.2442499491E-02     781
    72  0.2941176471       0.000000000      0.1176470588      0.2442499491E-02     779
    73  0.3529411765       0.000000000      0.1176470588      0.2442499491E-02     781
    74  0.4117647059       0.000000000      0.1176470588      0.2442499491E-02     767
    75  0.4705882353       0.000000000      0.1176470588      0.2442499491E-02     766
    76  0.5882352941E-01  0.5882352941E-01  0.1176470588      0.2442499491E-02     790
    77  0.1176470588      0.5882352941E-01  0.1176470588      0.4884998982E-02     788
    78  0.1764705882      0.5882352941E-01  0.1176470588      0.4884998982E-02     784
    79  0.2352941176      0.5882352941E-01  0.1176470588      0.4884998982E-02     780
    80  0.2941176471      0.5882352941E-01  0.1176470588      0.4884998982E-02     773
    81  0.3529411765      0.5882352941E-01  0.1176470588      0.4884998982E-02     765
    82  0.4117647059      0.5882352941E-01  0.1176470588      0.4884998982E-02     770
    83  0.4705882353      0.5882352941E-01  0.1176470588      0.2442499491E-02     768
    84  0.1176470588      0.1176470588      0.1176470588      0.2442499491E-02     786
    85  0.1764705882      0.1176470588      0.1176470588      0.4884998982E-02     781
    86  0.2352941176      0.1176470588      0.1176470588      0.4884998982E-02     771
    87  0.2941176471      0.1176470588      0.1176470588      0.4884998982E-02     765
    88  0.3529411765      0.1176470588      0.1176470588      0.4884998982E-02     766
    89  0.4117647059      0.1176470588      0.1176470588      0.4884998982E-02     767
    90  0.1764705882      0.1764705882      0.1176470588      0.2442499491E-02     776
    91  0.2352941176      0.1764705882      0.1176470588      0.4884998982E-02     769
    92  0.2941176471      0.1764705882      0.1176470588      0.4884998982E-02     765
    93  0.3529411765      0.1764705882      0.1176470588      0.4884998982E-02     763
    94  0.4117647059      0.1764705882      0.1176470588      0.2442499491E-02     765
    95  0.2352941176      0.2352941176      0.1176470588      0.2442499491E-02     767
    96  0.2941176471      0.2352941176      0.1176470588      0.4884998982E-02     768
    97  0.3529411765      0.2352941176      0.1176470588      0.4884998982E-02     766
    98  0.2941176471      0.2941176471      0.1176470588      0.2442499491E-02     770
    99  0.3529411765      0.2941176471      0.1176470588      0.2442499491E-02     766
   100   0.000000000       0.000000000      0.1764705882      0.4070832485E-03     779
   101  0.5882352941E-01   0.000000000      0.1764705882      0.2442499491E-02     785
   102  0.1176470588       0.000000000      0.1764705882      0.2442499491E-02     786
   103  0.1764705882       0.000000000      0.1764705882      0.2442499491E-02     783
   104  0.2352941176       0.000000000      0.1764705882      0.2442499491E-02     788
   105  0.2941176471       0.000000000      0.1764705882      0.2442499491E-02     779
   106  0.3529411765       0.000000000      0.1764705882      0.2442499491E-02     772
   107  0.4117647059       0.000000000      0.1764705882      0.2442499491E-02     767
   108  0.4705882353       0.000000000      0.1764705882      0.2442499491E-02     769
   109  0.5882352941E-01  0.5882352941E-01  0.1764705882      0.2442499491E-02     783
   110  0.1176470588      0.5882352941E-01  0.1764705882      0.4884998982E-02     785
   111  0.1764705882      0.5882352941E-01  0.1764705882      0.4884998982E-02     783
   112  0.2352941176      0.5882352941E-01  0.1764705882      0.4884998982E-02     780
   113  0.2941176471      0.5882352941E-01  0.1764705882      0.4884998982E-02     772
   114  0.3529411765      0.5882352941E-01  0.1764705882      0.4884998982E-02     771
   115  0.4117647059      0.5882352941E-01  0.1764705882      0.4884998982E-02     767
   116  0.4705882353      0.5882352941E-01  0.1764705882      0.2442499491E-02     768
   117  0.1176470588      0.1176470588      0.1764705882      0.2442499491E-02     783
   118  0.1764705882      0.1176470588      0.1764705882      0.4884998982E-02     778
   119  0.2352941176      0.1176470588      0.1764705882      0.4884998982E-02     774
   120  0.2941176471      0.1176470588      0.1764705882      0.4884998982E-02     768
   121  0.3529411765      0.1176470588      0.1764705882      0.4884998982E-02     770
   122  0.4117647059      0.1176470588      0.1764705882      0.4884998982E-02     771
   123  0.1764705882      0.1764705882      0.1764705882      0.2442499491E-02     770
   124  0.2352941176      0.1764705882      0.1764705882      0.4884998982E-02     767
   125  0.2941176471      0.1764705882      0.1764705882      0.4884998982E-02     766
   126  0.3529411765      0.1764705882      0.1764705882      0.4884998982E-02     762
   127  0.4117647059      0.1764705882      0.1764705882      0.2442499491E-02     767
   128  0.2352941176      0.2352941176      0.1764705882      0.2442499491E-02     766
   129  0.2941176471      0.2352941176      0.1764705882      0.4884998982E-02     766
   130  0.3529411765      0.2352941176      0.1764705882      0.4884998982E-02     767
   131  0.2941176471      0.2941176471      0.1764705882      0.2442499491E-02     768
   132  0.3529411765      0.2941176471      0.1764705882      0.2442499491E-02     765
   133   0.000000000       0.000000000      0.2352941176      0.4070832485E-03     790
   134  0.5882352941E-01   0.000000000      0.2352941176      0.2442499491E-02     778
   135  0.1176470588       0.000000000      0.2352941176      0.2442499491E-02     782
   136  0.1764705882       0.000000000      0.2352941176      0.2442499491E-02     784
   137  0.2352941176       0.000000000      0.2352941176      0.2442499491E-02     785
   138  0.2941176471       0.000000000      0.2352941176      0.2442499491E-02     780
   139  0.3529411765       0.000000000      0.2352941176      0.2442499491E-02     774
   140  0.4117647059       0.000000000      0.2352941176      0.2442499491E-02     769
   141  0.4705882353       0.000000000      0.2352941176      0.2442499491E-02     771
   142  0.5882352941E-01  0.5882352941E-01  0.2352941176      0.2442499491E-02     779
   143  0.1176470588      0.5882352941E-01  0.2352941176      0.4884998982E-02     785
   144  0.1764705882      0.5882352941E-01  0.2352941176      0.4884998982E-02     782
   145  0.2352941176      0.5882352941E-01  0.2352941176      0.4884998982E-02     780
   146  0.2941176471      0.5882352941E-01  0.2352941176      0.4884998982E-02     775
   147  0.3529411765      0.5882352941E-01  0.2352941176      0.4884998982E-02     772
   148  0.4117647059      0.5882352941E-01  0.2352941176      0.4884998982E-02     770
   149  0.4705882353      0.5882352941E-01  0.2352941176      0.2442499491E-02     770
   150  0.1176470588      0.1176470588      0.2352941176      0.2442499491E-02     781
   151  0.1764705882      0.1176470588      0.2352941176      0.4884998982E-02     779
   152  0.2352941176      0.1176470588      0.2352941176      0.4884998982E-02     776
   153  0.2941176471      0.1176470588      0.2352941176      0.4884998982E-02     768
   154  0.3529411765      0.1176470588      0.2352941176      0.4884998982E-02     771
   155  0.4117647059      0.1176470588      0.2352941176      0.4884998982E-02     768
   156  0.1764705882      0.1764705882      0.2352941176      0.2442499491E-02     776
   157  0.2352941176      0.1764705882      0.2352941176      0.4884998982E-02     772
   158  0.2941176471      0.1764705882      0.2352941176      0.4884998982E-02     764
   159  0.3529411765      0.1764705882      0.2352941176      0.4884998982E-02     766
   160  0.4117647059      0.1764705882      0.2352941176      0.2442499491E-02     763
   161  0.2352941176      0.2352941176      0.2352941176      0.2442499491E-02     764
   162  0.2941176471      0.2352941176      0.2352941176      0.4884998982E-02     765
   163  0.3529411765      0.2352941176      0.2352941176      0.4884998982E-02     771
   164  0.2941176471      0.2941176471      0.2352941176      0.2442499491E-02     769
   165  0.3529411765      0.2941176471      0.2352941176      0.2442499491E-02     767
   166   0.000000000       0.000000000      0.2941176471      0.4070832485E-03     778
   167  0.5882352941E-01   0.000000000      0.2941176471      0.2442499491E-02     779
   168  0.1176470588       0.000000000      0.2941176471      0.2442499491E-02     779
   169  0.1764705882       0.000000000      0.2941176471      0.2442499491E-02     780
   170  0.2352941176       0.000000000      0.2941176471      0.2442499491E-02     783
   171  0.2941176471       0.000000000      0.2941176471      0.2442499491E-02     782
   172  0.3529411765       0.000000000      0.2941176471      0.2442499491E-02     771
   173  0.4117647059       0.000000000      0.2941176471      0.2442499491E-02     773
   174  0.4705882353       0.000000000      0.2941176471      0.2442499491E-02     771
   175  0.5882352941E-01  0.5882352941E-01  0.2941176471      0.2442499491E-02     777
   176  0.1176470588      0.5882352941E-01  0.2941176471      0.4884998982E-02     782
   177  0.1764705882      0.5882352941E-01  0.2941176471      0.4884998982E-02     780
   178  0.2352941176      0.5882352941E-01  0.2941176471      0.4884998982E-02     776
   179  0.2941176471      0.5882352941E-01  0.2941176471      0.4884998982E-02     776
   180  0.3529411765      0.5882352941E-01  0.2941176471      0.4884998982E-02     774
   181  0.4117647059      0.5882352941E-01  0.2941176471      0.4884998982E-02     773
   182  0.4705882353      0.5882352941E-01  0.2941176471      0.2442499491E-02     769
   183  0.1176470588      0.1176470588      0.2941176471      0.2442499491E-02     780
   184  0.1764705882      0.1176470588      0.2941176471      0.4884998982E-02     779
   185  0.2352941176      0.1176470588      0.2941176471      0.4884998982E-02     778
   186  0.2941176471      0.1176470588      0.2941176471      0.4884998982E-02     775
   187  0.3529411765      0.1176470588      0.2941176471      0.4884998982E-02     770
   188  0.4117647059      0.1176470588      0.2941176471      0.4884998982E-02     769
   189  0.1764705882      0.1764705882      0.2941176471      0.2442499491E-02     777
   190  0.2352941176      0.1764705882      0.2941176471      0.4884998982E-02     773
   191  0.2941176471      0.1764705882      0.2941176471      0.4884998982E-02     771
   192  0.3529411765      0.1764705882      0.2941176471      0.4884998982E-02     769
   193  0.4117647059      0.1764705882      0.2941176471      0.2442499491E-02     765
   194  0.2352941176      0.2352941176      0.2941176471      0.2442499491E-02     769
   195  0.2941176471      0.2352941176      0.2941176471      0.4884998982E-02     765
   196  0.3529411765      0.2352941176      0.2941176471      0.4884998982E-02     768
   197  0.2941176471      0.2941176471      0.2941176471      0.2442499491E-02     768
   198  0.3529411765      0.2941176471      0.2941176471      0.2442499491E-02     768
   199   0.000000000       0.000000000      0.3529411765      0.4070832485E-03     772
   200  0.5882352941E-01   0.000000000      0.3529411765      0.2442499491E-02     777
   201  0.1176470588       0.000000000      0.3529411765      0.2442499491E-02     774
   202  0.1764705882       0.000000000      0.3529411765      0.2442499491E-02     775
   203  0.2352941176       0.000000000      0.3529411765      0.2442499491E-02     777
   204  0.2941176471       0.000000000      0.3529411765      0.2442499491E-02     775
   205  0.3529411765       0.000000000      0.3529411765      0.2442499491E-02     778
   206  0.4117647059       0.000000000      0.3529411765      0.2442499491E-02     773
   207  0.4705882353       0.000000000      0.3529411765      0.2442499491E-02     771
   208  0.5882352941E-01  0.5882352941E-01  0.3529411765      0.2442499491E-02     775
   209  0.1176470588      0.5882352941E-01  0.3529411765      0.4884998982E-02     777
   210  0.1764705882      0.5882352941E-01  0.3529411765      0.4884998982E-02     779
   211  0.2352941176      0.5882352941E-01  0.3529411765      0.4884998982E-02     776
   212  0.2941176471      0.5882352941E-01  0.3529411765      0.4884998982E-02     779
   213  0.3529411765      0.5882352941E-01  0.3529411765      0.4884998982E-02     774
   214  0.4117647059      0.5882352941E-01  0.3529411765      0.4884998982E-02     772
   215  0.4705882353      0.5882352941E-01  0.3529411765      0.2442499491E-02     767
   216  0.1176470588      0.1176470588      0.3529411765      0.2442499491E-02     778
   217  0.1764705882      0.1176470588      0.3529411765      0.4884998982E-02     783
   218  0.2352941176      0.1176470588      0.3529411765      0.4884998982E-02     780
   219  0.2941176471      0.1176470588      0.3529411765      0.4884998982E-02     774
   220  0.3529411765      0.1176470588      0.3529411765      0.4884998982E-02     772
   221  0.4117647059      0.1176470588      0.3529411765      0.4884998982E-02     769
   222  0.1764705882      0.1764705882      0.3529411765      0.2442499491E-02     780
   223  0.2352941176      0.1764705882      0.3529411765      0.4884998982E-02     775
   224  0.2941176471      0.1764705882      0.3529411765      0.4884998982E-02     774
   225  0.3529411765      0.1764705882      0.3529411765      0.4884998982E-02     770
   226  0.4117647059      0.1764705882      0.3529411765      0.2442499491E-02     769
   227  0.2352941176      0.2352941176      0.3529411765      0.2442499491E-02     771
   228  0.2941176471      0.2352941176      0.3529411765      0.4884998982E-02     769
   229  0.3529411765      0.2352941176      0.3529411765      0.4884998982E-02     768
   230  0.2941176471      0.2941176471      0.3529411765      0.2442499491E-02     768
   231  0.3529411765      0.2941176471      0.3529411765      0.2442499491E-02     770
   232   0.000000000       0.000000000      0.4117647059      0.4070832485E-03     778
   233  0.5882352941E-01   0.000000000      0.4117647059      0.2442499491E-02     773
   234  0.1176470588       0.000000000      0.4117647059      0.2442499491E-02     774
   235  0.1764705882       0.000000000      0.4117647059      0.2442499491E-02     773
   236  0.2352941176       0.000000000      0.4117647059      0.2442499491E-02     780
   237  0.2941176471       0.000000000      0.4117647059      0.2442499491E-02     779
   238  0.3529411765       0.000000000      0.4117647059      0.2442499491E-02     775
   239  0.4117647059       0.000000000      0.4117647059      0.2442499491E-02     770
   240  0.4705882353       0.000000000      0.4117647059      0.2442499491E-02     764
   241  0.5882352941E-01  0.5882352941E-01  0.4117647059      0.2442499491E-02     771
   242  0.1176470588      0.5882352941E-01  0.4117647059      0.4884998982E-02     773
   243  0.1764705882      0.5882352941E-01  0.4117647059      0.4884998982E-02     779
   244  0.2352941176      0.5882352941E-01  0.4117647059      0.4884998982E-02     780
   245  0.2941176471      0.5882352941E-01  0.4117647059      0.4884998982E-02     779
   246  0.3529411765      0.5882352941E-01  0.4117647059      0.4884998982E-02     774
   247  0.4117647059      0.5882352941E-01  0.4117647059      0.4884998982E-02     771
   248  0.4705882353      0.5882352941E-01  0.4117647059      0.2442499491E-02     765
   249  0.1176470588      0.1176470588      0.4117647059      0.2442499491E-02     781
   250  0.1764705882      0.1176470588      0.4117647059      0.4884998982E-02     781
   251  0.2352941176      0.1176470588      0.4117647059      0.4884998982E-02     781
   252  0.2941176471      0.1176470588      0.4117647059      0.4884998982E-02     776
   253  0.3529411765      0.1176470588      0.4117647059      0.4884998982E-02     774
   254  0.4117647059      0.1176470588      0.4117647059      0.4884998982E-02     771
   255  0.1764705882      0.1764705882      0.4117647059      0.2442499491E-02     780
   256  0.2352941176      0.1764705882      0.4117647059      0.4884998982E-02     778
   257  0.2941176471      0.1764705882      0.4117647059      0.4884998982E-02     776
   258  0.3529411765      0.1764705882      0.4117647059      0.4884998982E-02     774
   259  0.4117647059      0.1764705882      0.4117647059      0.2442499491E-02     770
   260  0.2352941176      0.2352941176      0.4117647059      0.2442499491E-02     771
   261  0.2941176471      0.2352941176      0.4117647059      0.4884998982E-02     770
   262  0.3529411765      0.2352941176      0.4117647059      0.4884998982E-02     769
   263  0.2941176471      0.2941176471      0.4117647059      0.2442499491E-02     770
   264  0.3529411765      0.2941176471      0.4117647059      0.2442499491E-02     774
   265   0.000000000       0.000000000      0.4705882353      0.4070832485E-03     772
   266  0.5882352941E-01   0.000000000      0.4705882353      0.2442499491E-02     773
   267  0.1176470588       0.000000000      0.4705882353      0.2442499491E-02     768
   268  0.1764705882       0.000000000      0.4705882353      0.2442499491E-02     776
   269  0.2352941176       0.000000000      0.4705882353      0.2442499491E-02     776
   270  0.2941176471       0.000000000      0.4705882353      0.2442499491E-02     776
   271  0.3529411765       0.000000000      0.4705882353      0.2442499491E-02     773
   272  0.4117647059       0.000000000      0.4705882353      0.2442499491E-02     773
   273  0.4705882353       0.000000000      0.4705882353      0.2442499491E-02     765
   274  0.5882352941E-01  0.5882352941E-01  0.4705882353      0.2442499491E-02     767
   275  0.1176470588      0.5882352941E-01  0.4705882353      0.4884998982E-02     776
   276  0.1764705882      0.5882352941E-01  0.4705882353      0.4884998982E-02     780
   277  0.2352941176      0.5882352941E-01  0.4705882353      0.4884998982E-02     778
   278  0.2941176471      0.5882352941E-01  0.4705882353      0.4884998982E-02     775
   279  0.3529411765      0.5882352941E-01  0.4705882353      0.4884998982E-02     774
   280  0.4117647059      0.5882352941E-01  0.4705882353      0.4884998982E-02     766
   281  0.4705882353      0.5882352941E-01  0.4705882353      0.2442499491E-02     764
   282  0.1176470588      0.1176470588      0.4705882353      0.2442499491E-02     783
   283  0.1764705882      0.1176470588      0.4705882353      0.4884998982E-02     783
   284  0.2352941176      0.1176470588      0.4705882353      0.4884998982E-02     777
   285  0.2941176471      0.1176470588      0.4705882353      0.4884998982E-02     778
   286  0.3529411765      0.1176470588      0.4705882353      0.4884998982E-02     773
   287  0.4117647059      0.1176470588      0.4705882353      0.4884998982E-02     769
   288  0.1764705882      0.1764705882      0.4705882353      0.2442499491E-02     782
   289  0.2352941176      0.1764705882      0.4705882353      0.4884998982E-02     777
   290  0.2941176471      0.1764705882      0.4705882353      0.4884998982E-02     774
   291  0.3529411765      0.1764705882      0.4705882353      0.4884998982E-02     775
   292  0.4117647059      0.1764705882      0.4705882353      0.2442499491E-02     772
   293  0.2352941176      0.2352941176      0.4705882353      0.2442499491E-02     773
   294  0.2941176471      0.2352941176      0.4705882353      0.4884998982E-02     771
   295  0.3529411765      0.2352941176      0.4705882353      0.4884998982E-02     772
   296  0.2941176471      0.2941176471      0.4705882353      0.2442499491E-02     772
   297  0.3529411765      0.2941176471      0.4705882353      0.2442499491E-02     774
