   97.51131991    
   113.5132826    
   109.0573883    
   127.6273843    
   119.0714460    
   106.1980653    
   103.4988809    
   104.2516923    
   104.7972845    
   104.9632013    
   104.9731087    
   104.9502170    
   104.9306606    
   104.9214658    
   104.9166455    
   104.9165871    
   104.9141714    
   104.9162170    
   104.9154761    
   104.9153793    
   104.9153637    
   104.9153626    
   104.9153689    
   104.9153657    
   104.9153703    
   104.9153674    
