   165 : nkpt; k-point, vkl, wkpt, nmat below
     1   0.000000000       0.000000000       0.000000000      0.2035416243E-03     258
     2  0.5882352941E-01   0.000000000       0.000000000      0.1628332994E-02     267
     3  0.1176470588       0.000000000       0.000000000      0.1628332994E-02     267
     4  0.1764705882       0.000000000       0.000000000      0.1628332994E-02     267
     5  0.2352941176       0.000000000       0.000000000      0.1628332994E-02     268
     6  0.2941176471       0.000000000       0.000000000      0.1628332994E-02     265
     7  0.3529411765       0.000000000       0.000000000      0.1628332994E-02     262
     8  0.4117647059       0.000000000       0.000000000      0.1628332994E-02     265
     9  0.4705882353       0.000000000       0.000000000      0.1628332994E-02     265
    10  0.5882352941E-01  0.5882352941E-01   0.000000000      0.1221249746E-02     270
    11  0.1176470588      0.5882352941E-01   0.000000000      0.4884998982E-02     266
    12  0.1764705882      0.5882352941E-01   0.000000000      0.4884998982E-02     266
    13  0.2352941176      0.5882352941E-01   0.000000000      0.4884998982E-02     270
    14  0.2941176471      0.5882352941E-01   0.000000000      0.4884998982E-02     268
    15  0.3529411765      0.5882352941E-01   0.000000000      0.4884998982E-02     265
    16  0.4117647059      0.5882352941E-01   0.000000000      0.4884998982E-02     263
    17  0.4705882353      0.5882352941E-01   0.000000000      0.4884998982E-02     264
    18  0.5294117647      0.5882352941E-01   0.000000000      0.4884998982E-02     263
    19  0.5882352941      0.5882352941E-01   0.000000000      0.4884998982E-02     263
    20  0.6470588235      0.5882352941E-01   0.000000000      0.4884998982E-02     266
    21  0.7058823529      0.5882352941E-01   0.000000000      0.4884998982E-02     267
    22  0.7647058824      0.5882352941E-01   0.000000000      0.4884998982E-02     269
    23  0.8235294118      0.5882352941E-01   0.000000000      0.4884998982E-02     268
    24  0.8823529412      0.5882352941E-01   0.000000000      0.4884998982E-02     266
    25  0.9411764706      0.5882352941E-01   0.000000000      0.2442499491E-02     264
    26  0.1176470588      0.1176470588       0.000000000      0.1221249746E-02     270
    27  0.1764705882      0.1176470588       0.000000000      0.4884998982E-02     268
    28  0.2352941176      0.1176470588       0.000000000      0.4884998982E-02     269
    29  0.2941176471      0.1176470588       0.000000000      0.4884998982E-02     270
    30  0.3529411765      0.1176470588       0.000000000      0.4884998982E-02     268
    31  0.4117647059      0.1176470588       0.000000000      0.4884998982E-02     266
    32  0.4705882353      0.1176470588       0.000000000      0.4884998982E-02     262
    33  0.5294117647      0.1176470588       0.000000000      0.4884998982E-02     264
    34  0.5882352941      0.1176470588       0.000000000      0.4884998982E-02     265
    35  0.6470588235      0.1176470588       0.000000000      0.4884998982E-02     267
    36  0.7058823529      0.1176470588       0.000000000      0.4884998982E-02     268
    37  0.7647058824      0.1176470588       0.000000000      0.4884998982E-02     270
    38  0.8235294118      0.1176470588       0.000000000      0.4884998982E-02     269
    39  0.8823529412      0.1176470588       0.000000000      0.2442499491E-02     268
    40  0.1764705882      0.1764705882       0.000000000      0.1221249746E-02     270
    41  0.2352941176      0.1764705882       0.000000000      0.4884998982E-02     272
    42  0.2941176471      0.1764705882       0.000000000      0.4884998982E-02     271
    43  0.3529411765      0.1764705882       0.000000000      0.4884998982E-02     265
    44  0.4117647059      0.1764705882       0.000000000      0.4884998982E-02     265
    45  0.4705882353      0.1764705882       0.000000000      0.4884998982E-02     262
    46  0.5294117647      0.1764705882       0.000000000      0.4884998982E-02     268
    47  0.5882352941      0.1764705882       0.000000000      0.4884998982E-02     270
    48  0.6470588235      0.1764705882       0.000000000      0.4884998982E-02     266
    49  0.7058823529      0.1764705882       0.000000000      0.4884998982E-02     268
    50  0.7647058824      0.1764705882       0.000000000      0.4884998982E-02     268
    51  0.8235294118      0.1764705882       0.000000000      0.2442499491E-02     272
    52  0.2352941176      0.2352941176       0.000000000      0.1221249746E-02     270
    53  0.2941176471      0.2352941176       0.000000000      0.4884998982E-02     271
    54  0.3529411765      0.2352941176       0.000000000      0.4884998982E-02     267
    55  0.4117647059      0.2352941176       0.000000000      0.4884998982E-02     263
    56  0.4705882353      0.2352941176       0.000000000      0.4884998982E-02     266
    57  0.5294117647      0.2352941176       0.000000000      0.4884998982E-02     264
    58  0.5882352941      0.2352941176       0.000000000      0.4884998982E-02     268
    59  0.6470588235      0.2352941176       0.000000000      0.4884998982E-02     265
    60  0.7058823529      0.2352941176       0.000000000      0.4884998982E-02     268
    61  0.7647058824      0.2352941176       0.000000000      0.2442499491E-02     266
    62  0.2941176471      0.2941176471       0.000000000      0.1221249746E-02     270
    63  0.3529411765      0.2941176471       0.000000000      0.4884998982E-02     271
    64  0.4117647059      0.2941176471       0.000000000      0.4884998982E-02     267
    65  0.4705882353      0.2941176471       0.000000000      0.4884998982E-02     265
    66  0.5294117647      0.2941176471       0.000000000      0.4884998982E-02     262
    67  0.5882352941      0.2941176471       0.000000000      0.4884998982E-02     263
    68  0.6470588235      0.2941176471       0.000000000      0.4884998982E-02     265
    69  0.7058823529      0.2941176471       0.000000000      0.2442499491E-02     267
    70  0.3529411765      0.3529411765       0.000000000      0.1221249746E-02     266
    71  0.4117647059      0.3529411765       0.000000000      0.4884998982E-02     263
    72  0.4705882353      0.3529411765       0.000000000      0.4884998982E-02     263
    73  0.5294117647      0.3529411765       0.000000000      0.4884998982E-02     261
    74  0.5882352941      0.3529411765       0.000000000      0.4884998982E-02     259
    75  0.6470588235      0.3529411765       0.000000000      0.2442499491E-02     261
    76  0.4117647059      0.4117647059       0.000000000      0.1221249746E-02     262
    77  0.4705882353      0.4117647059       0.000000000      0.4884998982E-02     261
    78  0.5294117647      0.4117647059       0.000000000      0.4884998982E-02     260
    79  0.5882352941      0.4117647059       0.000000000      0.2442499491E-02     259
    80  0.4705882353      0.4705882353       0.000000000      0.1221249746E-02     261
    81  0.5294117647      0.4705882353       0.000000000      0.2442499491E-02     261
    82  0.1764705882      0.1176470588      0.5882352941E-01  0.4884998982E-02     266
    83  0.2352941176      0.1176470588      0.5882352941E-01  0.9769997965E-02     267
    84  0.2941176471      0.1176470588      0.5882352941E-01  0.9769997965E-02     270
    85  0.3529411765      0.1176470588      0.5882352941E-01  0.9769997965E-02     270
    86  0.4117647059      0.1176470588      0.5882352941E-01  0.9769997965E-02     266
    87  0.4705882353      0.1176470588      0.5882352941E-01  0.9769997965E-02     264
    88  0.5294117647      0.1176470588      0.5882352941E-01  0.9769997965E-02     267
    89  0.2352941176      0.1764705882      0.5882352941E-01  0.4884998982E-02     270
    90  0.2941176471      0.1764705882      0.5882352941E-01  0.9769997965E-02     269
    91  0.3529411765      0.1764705882      0.5882352941E-01  0.9769997965E-02     267
    92  0.4117647059      0.1764705882      0.5882352941E-01  0.9769997965E-02     267
    93  0.4705882353      0.1764705882      0.5882352941E-01  0.9769997965E-02     264
    94  0.5294117647      0.1764705882      0.5882352941E-01  0.9769997965E-02     265
    95  0.5882352941      0.1764705882      0.5882352941E-01  0.9769997965E-02     266
    96  0.6470588235      0.1764705882      0.5882352941E-01  0.9769997965E-02     266
    97  0.7058823529      0.1764705882      0.5882352941E-01  0.9769997965E-02     267
    98  0.7647058824      0.1764705882      0.5882352941E-01  0.9769997965E-02     267
    99  0.8235294118      0.1764705882      0.5882352941E-01  0.9769997965E-02     269
   100  0.8823529412      0.1764705882      0.5882352941E-01  0.4884998982E-02     267
   101  0.2941176471      0.2352941176      0.5882352941E-01  0.4884998982E-02     271
   102  0.3529411765      0.2352941176      0.5882352941E-01  0.9769997965E-02     269
   103  0.4117647059      0.2352941176      0.5882352941E-01  0.9769997965E-02     265
   104  0.4705882353      0.2352941176      0.5882352941E-01  0.9769997965E-02     262
   105  0.5294117647      0.2352941176      0.5882352941E-01  0.9769997965E-02     263
   106  0.5882352941      0.2352941176      0.5882352941E-01  0.9769997965E-02     265
   107  0.6470588235      0.2352941176      0.5882352941E-01  0.9769997965E-02     263
   108  0.7058823529      0.2352941176      0.5882352941E-01  0.9769997965E-02     265
   109  0.7647058824      0.2352941176      0.5882352941E-01  0.9769997965E-02     269
   110  0.8235294118      0.2352941176      0.5882352941E-01  0.4884998982E-02     270
   111  0.3529411765      0.2941176471      0.5882352941E-01  0.4884998982E-02     269
   112  0.4117647059      0.2941176471      0.5882352941E-01  0.9769997965E-02     268
   113  0.4705882353      0.2941176471      0.5882352941E-01  0.9769997965E-02     263
   114  0.5294117647      0.2941176471      0.5882352941E-01  0.9769997965E-02     262
   115  0.5882352941      0.2941176471      0.5882352941E-01  0.9769997965E-02     264
   116  0.6470588235      0.2941176471      0.5882352941E-01  0.9769997965E-02     263
   117  0.7058823529      0.2941176471      0.5882352941E-01  0.9769997965E-02     263
   118  0.7647058824      0.2941176471      0.5882352941E-01  0.4884998982E-02     264
   119  0.4117647059      0.3529411765      0.5882352941E-01  0.4884998982E-02     267
   120  0.4705882353      0.3529411765      0.5882352941E-01  0.9769997965E-02     265
   121  0.5294117647      0.3529411765      0.5882352941E-01  0.9769997965E-02     266
   122  0.5882352941      0.3529411765      0.5882352941E-01  0.9769997965E-02     263
   123  0.6470588235      0.3529411765      0.5882352941E-01  0.9769997965E-02     262
   124  0.7058823529      0.3529411765      0.5882352941E-01  0.4884998982E-02     264
   125  0.4705882353      0.4117647059      0.5882352941E-01  0.4884998982E-02     263
   126  0.5294117647      0.4117647059      0.5882352941E-01  0.9769997965E-02     261
   127  0.5882352941      0.4117647059      0.5882352941E-01  0.9769997965E-02     262
   128  0.6470588235      0.4117647059      0.5882352941E-01  0.4884998982E-02     259
   129  0.5294117647      0.4705882353      0.5882352941E-01  0.4884998982E-02     261
   130  0.5882352941      0.4705882353      0.5882352941E-01  0.4884998982E-02     261
   131  0.3529411765      0.2352941176      0.1176470588      0.4884998982E-02     270
   132  0.4117647059      0.2352941176      0.1176470588      0.9769997965E-02     269
   133  0.4705882353      0.2352941176      0.1176470588      0.9769997965E-02     266
   134  0.5294117647      0.2352941176      0.1176470588      0.9769997965E-02     263
   135  0.5882352941      0.2352941176      0.1176470588      0.9769997965E-02     264
   136  0.4117647059      0.2941176471      0.1176470588      0.4884998982E-02     267
   137  0.4705882353      0.2941176471      0.1176470588      0.9769997965E-02     265
   138  0.5294117647      0.2941176471      0.1176470588      0.9769997965E-02     262
   139  0.5882352941      0.2941176471      0.1176470588      0.9769997965E-02     262
   140  0.6470588235      0.2941176471      0.1176470588      0.9769997965E-02     263
   141  0.7058823529      0.2941176471      0.1176470588      0.9769997965E-02     262
   142  0.7647058824      0.2941176471      0.1176470588      0.9769997965E-02     262
   143  0.8235294118      0.2941176471      0.1176470588      0.4884998982E-02     267
   144  0.4705882353      0.3529411765      0.1176470588      0.4884998982E-02     265
   145  0.5294117647      0.3529411765      0.1176470588      0.9769997965E-02     265
   146  0.5882352941      0.3529411765      0.1176470588      0.9769997965E-02     263
   147  0.6470588235      0.3529411765      0.1176470588      0.9769997965E-02     260
   148  0.7058823529      0.3529411765      0.1176470588      0.9769997965E-02     262
   149  0.7647058824      0.3529411765      0.1176470588      0.4884998982E-02     262
   150  0.5294117647      0.4117647059      0.1176470588      0.4884998982E-02     263
   151  0.5882352941      0.4117647059      0.1176470588      0.9769997965E-02     263
   152  0.6470588235      0.4117647059      0.1176470588      0.9769997965E-02     259
   153  0.7058823529      0.4117647059      0.1176470588      0.4884998982E-02     257
   154  0.5882352941      0.4705882353      0.1176470588      0.4884998982E-02     261
   155  0.6470588235      0.4705882353      0.1176470588      0.4884998982E-02     261
   156  0.5294117647      0.3529411765      0.1764705882      0.4884998982E-02     267
   157  0.5882352941      0.3529411765      0.1764705882      0.9769997965E-02     262
   158  0.6470588235      0.3529411765      0.1764705882      0.9769997965E-02     260
   159  0.5882352941      0.4117647059      0.1764705882      0.4884998982E-02     260
   160  0.6470588235      0.4117647059      0.1764705882      0.9769997965E-02     259
   161  0.7058823529      0.4117647059      0.1764705882      0.9769997965E-02     257
   162  0.7647058824      0.4117647059      0.1764705882      0.4884998982E-02     260
   163  0.6470588235      0.4705882353      0.1764705882      0.4884998982E-02     259
   164  0.7058823529      0.4705882353      0.1764705882      0.4884998982E-02     257
   165  0.7058823529      0.4705882353      0.2352941176      0.4884998982E-02     259
