   90.78514484    
   90.46707326    
   91.29023174    
   50.67122290    
   52.53153444    
   50.72789022    
   52.39823871    
   53.02977895    
   52.94154319    
   52.94965141    
   52.94161427    
   52.93850407    
   52.93851311    
   52.93820935    
   52.93834239    
   52.93832479    
   52.93825663    
   52.93829325    
   52.93829477    
   52.93829987    
   52.93827317    
   52.93822705    
   52.93820064    
   52.93818277    
   52.93817162    
   52.93816647    
   52.93816920    
   52.93816001    
   52.93815976    
   52.93814825    
   52.93814706    
   52.93814556    
   52.93814645    
   52.93814542    
   52.93814555    
   52.93814267    
