  0.5774686077    
  0.4949569985    
  0.2191062717    
  0.8407789967E-01
  0.2902313702E-01
  0.4254791880E-02
  0.1055487767E-02
  0.2802735458E-03
  0.1118686347E-03
  0.5327759058E-04
  0.3034755109E-04
  0.1223427596E-03
  0.1335589893E-03
  0.1750931811E-03
  0.4591719797E-04
  0.1436634759E-04
  0.7546812294E-04
  0.3026897732E-04
  0.1507933785E-03
  0.1037312050E-03
  0.7047171024E-04
  0.8095559343E-04
  0.6250988558E-05
  0.4764864843E-04
  0.1059913011E-03
  0.4053493058E-05
  0.4747581938E-04
  0.8322061474E-04
  0.2754127571E-04
  0.8079082914E-05
  0.4492211159E-04
  0.2882265195E-04
  0.3730972728E-04
  0.3890734999E-04
