  0.3536305717    
   2.331027128    
   10.86351967    
   7.650827992    
   3.904245079    
   1.926988036    
  0.4890207305    
  0.1073642473    
  0.3005348587E-01
  0.8826758020E-02
  0.3612471766E-02
  0.8490824841E-03
  0.2376943630E-03
  0.4995797531E-04
  0.2541999788E-04
  0.1328012113E-03
  0.4094307383E-04
  0.3346746871E-04
  0.4910047096E-04
  0.5536448271E-05
  0.9610617781E-05
  0.5418185538E-05
  0.3147208645E-05
  0.1057360350E-05
  0.1595962203E-05
  0.9407358448E-06
  0.1767560207E-05
  0.1691432999E-05
  0.2768075092E-05
  0.9306575066E-06
  0.4677108336E-06
  0.5452920959E-07
  0.1005514605E-07
  0.4851065114E-06
  0.3701784408E-06
  0.4436017207E-06
  0.1104513103E-06
  0.3921099960E-06
  0.8947995411E-07
  0.4295998224E-07
  0.1081193659E-06
  0.4060620995E-06
  0.2686485914E-06
  0.6010009201E-07
  0.4934236131E-08
