    0.219906562788E-03
    0.197571702108E-03
    0.209623508315E-03
    0.554747508231E-03
    0.557109113551E-03
    0.554776205332E-03
    0.550016381876E-03
    0.545477205936E-03
    0.546759235853E-03
    0.546622606196E-03
    0.546807623367E-03
    0.546839268583E-03
    0.546764317731E-03
    0.546770550734E-03
    0.546775025354E-03
    0.546781811885E-03
    0.546775853776E-03
    0.546783850176E-03
    0.546778369308E-03
    0.546773600637E-03
    0.546771270029E-03
    0.546770152656E-03
    0.546767823441E-03
    0.546774013904E-03
    0.546770080955E-03
    0.546769640958E-03
    0.546768755463E-03
    0.546766556688E-03
    0.546765967604E-03
    0.546766160420E-03
    0.546766335416E-03
    0.546766315411E-03
    0.546766245808E-03
    0.546766196732E-03
    0.546766118291E-03
    0.546766049860E-03
    0.546765987600E-03
    0.546765970215E-03
    0.546765960403E-03
    0.546765895070E-03
    0.546765901328E-03
    0.546765880455E-03
    0.546765898067E-03
    0.546765889976E-03
    0.546765893061E-03
    0.546765898349E-03
    0.546765902079E-03
    0.546765905286E-03
    0.546765905679E-03
    0.546765906440E-03
    0.546765907126E-03
    0.546765908056E-03
    0.546765906607E-03
    0.546765905762E-03
    0.546765905639E-03
    0.546765906194E-03
    0.546765907213E-03
    0.546765904368E-03
    0.546765906375E-03
    0.546765903634E-03
    0.546765904861E-03
    0.546765902726E-03
    0.546765908065E-03
    0.546765910663E-03
    0.546765912155E-03
    0.546765910917E-03
    0.546765910266E-03
    0.546765909446E-03
    0.546765906783E-03
    0.546765910478E-03
    0.546765908899E-03
    0.546765909198E-03
    0.546765908981E-03
    0.546765909278E-03
    0.546765909551E-03
    0.546765909685E-03
    0.546765910021E-03
    0.546765909871E-03
    0.546765910353E-03
    0.546765911001E-03
    0.546765909700E-03
    0.546765908096E-03
    0.546765905927E-03
    0.546765904325E-03
    0.546765903227E-03
    0.546765907795E-03
    0.546765908841E-03
    0.546765908135E-03
    0.546765908952E-03
    0.546765906268E-03
    0.546765907789E-03
    0.546765907943E-03
    0.546765907982E-03
    0.546765906779E-03
    0.546765909277E-03
    0.546765908255E-03
    0.546765909814E-03
    0.546765911394E-03
    0.546765910947E-03
    0.546765911496E-03
    0.546765909761E-03
    0.546765910713E-03
    0.546765911138E-03
    0.546765908141E-03
    0.546765905925E-03
    0.546765905411E-03
    0.546765906373E-03
    0.546765902396E-03
    0.546765904073E-03
    0.546765904927E-03
    0.546765906884E-03
    0.546765907688E-03
    0.546765906630E-03
    0.546765906156E-03
    0.546765906130E-03
    0.546765910745E-03
    0.546765909821E-03
    0.546765907392E-03
    0.546765906891E-03
    0.546765911049E-03
    0.546765907529E-03
    0.546765905953E-03
    0.546765905877E-03
    0.546765905987E-03
    0.546765905566E-03
    0.546765906847E-03
    0.546765906585E-03
    0.546765906742E-03
    0.546765906732E-03
    0.546765907776E-03
    0.546765908237E-03
    0.546765907882E-03
    0.546765908166E-03
    0.546765905659E-03
    0.546765905132E-03
    0.546765906401E-03
    0.546765906135E-03
    0.546765909793E-03
    0.546765910088E-03
    0.546765908397E-03
    0.546765907369E-03
    0.546765903416E-03
    0.546765903381E-03
    0.546765903171E-03
    0.546765905583E-03
    0.546765910010E-03
    0.546765909462E-03
    0.546765908251E-03
    0.546765908450E-03
    0.546765906456E-03
    0.546765909256E-03
    0.546765906286E-03
    0.546765908791E-03
    0.546765906104E-03
    0.546765905111E-03
    0.546765905586E-03
    0.546765907962E-03
    0.546765905324E-03
    0.546765908048E-03
    0.546765905747E-03
    0.546765905685E-03
    0.546765904086E-03
    0.546765906265E-03
    0.546765906395E-03
    0.546765902199E-03
    0.546765903975E-03
    0.546765913962E-03
    0.546765905855E-03
    0.546765906413E-03
    0.546765906116E-03
    0.546765905814E-03
    0.546765907823E-03
    0.546765904679E-03
    0.546765905543E-03
    0.546765905001E-03
    0.546765905486E-03
    0.546765903538E-03
    0.546765901926E-03
    0.546765907359E-03
    0.546765908337E-03
    0.546765907244E-03
    0.546765906930E-03
    0.546765906342E-03
    0.546765907599E-03
    0.546765904811E-03
    0.546765898952E-03
    0.546765900290E-03
    0.546765900616E-03
    0.546765898970E-03
    0.546765896801E-03
    0.546765901032E-03
    0.546765902886E-03
    0.546765903641E-03
    0.546765904521E-03
    0.546765905514E-03
    0.546765905280E-03
    0.546765906658E-03
