 
Species :    1 (Os), atom :    1
 APW functions :
  l =  0, energy derivative =  0 :   0.6346003470    
  l =  1, energy derivative =  0 :   0.6346003470    
  l =  2, energy derivative =  0 :   0.6346003470    
  l =  3, energy derivative =  0 :   0.6346003470    
  l =  4, energy derivative =  0 :   0.6346003470    
  l =  5, energy derivative =  0 :   0.6346003470    
  l =  6, energy derivative =  0 :   0.6346003470    
  l =  7, energy derivative =  0 :   0.6346003470    
  l =  8, energy derivative =  0 :   0.6346003470    
  l =  9, energy derivative =  0 :   0.6346003470    
  l = 10, energy derivative =  0 :   0.6346003470    
 local-orbital functions :
  l.o. =  1, l =  0, energy derivative =  0 :   0.6346003470    
  l.o. =  1, l =  0, energy derivative =  1 :   0.6346003470    
  l.o. =  2, l =  1, energy derivative =  0 :   0.6346003470    
  l.o. =  2, l =  1, energy derivative =  1 :   0.6346003470    
  l.o. =  3, l =  2, energy derivative =  0 :   0.6346003470    
  l.o. =  3, l =  2, energy derivative =  1 :   0.6346003470    
  l.o. =  4, l =  3, energy derivative =  0 :   0.6346003470    
  l.o. =  4, l =  3, energy derivative =  1 :   0.6346003470    
  l.o. =  5, l =  3, energy derivative =  0 :   0.6346003470    
  l.o. =  5, l =  3, energy derivative =  0 :  -0.9888120797    
  l.o. =  6, l =  0, energy derivative =  0 :   0.6346003470    
  l.o. =  6, l =  0, energy derivative =  0 :   -2.456325350    
  l.o. =  7, l =  1, energy derivative =  0 :   0.6346003470    
  l.o. =  7, l =  1, energy derivative =  0 :  -0.9605943215    
  l.o. =  8, l =  2, energy derivative =  0 :   0.6346003470    
  l.o. =  8, l =  2, energy derivative =  0 :   0.7899813753    
  l.o. =  9, l =  4, energy derivative =  0 :   0.6346003470    
  l.o. =  9, l =  4, energy derivative =  1 :   0.6346003470    
  l.o. = 10, l =  5, energy derivative =  0 :   0.6346003470    
  l.o. = 10, l =  5, energy derivative =  1 :   0.6346003470    
  l.o. = 11, l =  6, energy derivative =  0 :   0.6346003470    
  l.o. = 11, l =  6, energy derivative =  1 :   0.6346003470    
  l.o. = 12, l =  0, energy derivative =  0 :    1.559859884    
  l.o. = 12, l =  0, energy derivative =  1 :    1.559859884    
  l.o. = 12, l =  0, energy derivative =  2 :    1.559859884    
  l.o. = 13, l =  1, energy derivative =  0 :    2.405576729    
  l.o. = 13, l =  1, energy derivative =  1 :    2.405576729    
  l.o. = 13, l =  1, energy derivative =  2 :    2.405576729    
  l.o. = 14, l =  2, energy derivative =  0 :   0.7899813753    
  l.o. = 14, l =  2, energy derivative =  1 :   0.7899813753    
  l.o. = 14, l =  2, energy derivative =  2 :   0.7899813753    
  l.o. = 15, l =  3, energy derivative =  0 :    2.494516668    
  l.o. = 15, l =  3, energy derivative =  1 :    2.494516668    
  l.o. = 15, l =  3, energy derivative =  2 :    2.494516668    
  l.o. = 16, l =  4, energy derivative =  0 :    3.885566592    
  l.o. = 16, l =  4, energy derivative =  1 :    3.885566592    
  l.o. = 16, l =  4, energy derivative =  2 :    3.885566592    
  l.o. = 17, l =  5, energy derivative =  0 :    5.667409545    
  l.o. = 17, l =  5, energy derivative =  1 :    5.667409545    
  l.o. = 17, l =  5, energy derivative =  2 :    5.667409545    
  l.o. = 18, l =  6, energy derivative =  0 :    7.543373171    
  l.o. = 18, l =  6, energy derivative =  1 :    7.543373171    
  l.o. = 18, l =  6, energy derivative =  2 :    7.543373171    
  l.o. = 19, l =  7, energy derivative =  0 :    9.579140147    
  l.o. = 19, l =  7, energy derivative =  1 :    9.579140147    
  l.o. = 19, l =  7, energy derivative =  2 :    9.579140147    
  l.o. = 20, l =  8, energy derivative =  0 :    11.79300281    
  l.o. = 20, l =  8, energy derivative =  1 :    11.79300281    
  l.o. = 20, l =  8, energy derivative =  2 :    11.79300281    
 
Species :    1 (Os), atom :    2
 APW functions :
  l =  0, energy derivative =  0 :   0.6346003470    
  l =  1, energy derivative =  0 :   0.6346003470    
  l =  2, energy derivative =  0 :   0.6346003470    
  l =  3, energy derivative =  0 :   0.6346003470    
  l =  4, energy derivative =  0 :   0.6346003470    
  l =  5, energy derivative =  0 :   0.6346003470    
  l =  6, energy derivative =  0 :   0.6346003470    
  l =  7, energy derivative =  0 :   0.6346003470    
  l =  8, energy derivative =  0 :   0.6346003470    
  l =  9, energy derivative =  0 :   0.6346003470    
  l = 10, energy derivative =  0 :   0.6346003470    
 local-orbital functions :
  l.o. =  1, l =  0, energy derivative =  0 :   0.6346003470    
  l.o. =  1, l =  0, energy derivative =  1 :   0.6346003470    
  l.o. =  2, l =  1, energy derivative =  0 :   0.6346003470    
  l.o. =  2, l =  1, energy derivative =  1 :   0.6346003470    
  l.o. =  3, l =  2, energy derivative =  0 :   0.6346003470    
  l.o. =  3, l =  2, energy derivative =  1 :   0.6346003470    
  l.o. =  4, l =  3, energy derivative =  0 :   0.6346003470    
  l.o. =  4, l =  3, energy derivative =  1 :   0.6346003470    
  l.o. =  5, l =  3, energy derivative =  0 :   0.6346003470    
  l.o. =  5, l =  3, energy derivative =  0 :  -0.9888120797    
  l.o. =  6, l =  0, energy derivative =  0 :   0.6346003470    
  l.o. =  6, l =  0, energy derivative =  0 :   -2.456325350    
  l.o. =  7, l =  1, energy derivative =  0 :   0.6346003470    
  l.o. =  7, l =  1, energy derivative =  0 :  -0.9605943215    
  l.o. =  8, l =  2, energy derivative =  0 :   0.6346003470    
  l.o. =  8, l =  2, energy derivative =  0 :   0.7899813753    
  l.o. =  9, l =  4, energy derivative =  0 :   0.6346003470    
  l.o. =  9, l =  4, energy derivative =  1 :   0.6346003470    
  l.o. = 10, l =  5, energy derivative =  0 :   0.6346003470    
  l.o. = 10, l =  5, energy derivative =  1 :   0.6346003470    
  l.o. = 11, l =  6, energy derivative =  0 :   0.6346003470    
  l.o. = 11, l =  6, energy derivative =  1 :   0.6346003470    
  l.o. = 12, l =  0, energy derivative =  0 :    1.559859884    
  l.o. = 12, l =  0, energy derivative =  1 :    1.559859884    
  l.o. = 12, l =  0, energy derivative =  2 :    1.559859884    
  l.o. = 13, l =  1, energy derivative =  0 :    2.405576729    
  l.o. = 13, l =  1, energy derivative =  1 :    2.405576729    
  l.o. = 13, l =  1, energy derivative =  2 :    2.405576729    
  l.o. = 14, l =  2, energy derivative =  0 :   0.7899813753    
  l.o. = 14, l =  2, energy derivative =  1 :   0.7899813753    
  l.o. = 14, l =  2, energy derivative =  2 :   0.7899813753    
  l.o. = 15, l =  3, energy derivative =  0 :    2.494516668    
  l.o. = 15, l =  3, energy derivative =  1 :    2.494516668    
  l.o. = 15, l =  3, energy derivative =  2 :    2.494516668    
  l.o. = 16, l =  4, energy derivative =  0 :    3.885566592    
  l.o. = 16, l =  4, energy derivative =  1 :    3.885566592    
  l.o. = 16, l =  4, energy derivative =  2 :    3.885566592    
  l.o. = 17, l =  5, energy derivative =  0 :    5.667409545    
  l.o. = 17, l =  5, energy derivative =  1 :    5.667409545    
  l.o. = 17, l =  5, energy derivative =  2 :    5.667409545    
  l.o. = 18, l =  6, energy derivative =  0 :    7.543373171    
  l.o. = 18, l =  6, energy derivative =  1 :    7.543373171    
  l.o. = 18, l =  6, energy derivative =  2 :    7.543373171    
  l.o. = 19, l =  7, energy derivative =  0 :    9.579140147    
  l.o. = 19, l =  7, energy derivative =  1 :    9.579140147    
  l.o. = 19, l =  7, energy derivative =  2 :    9.579140147    
  l.o. = 20, l =  8, energy derivative =  0 :    11.79300281    
  l.o. = 20, l =  8, energy derivative =  1 :    11.79300281    
  l.o. = 20, l =  8, energy derivative =  2 :    11.79300281    
