 
+----------------------------+
| Real-space lattice vectors |
+----------------------------+
 
vector a1 :    4.499102716      -2.597558164       0.000000000    
vector a2 :    0.000000000       5.195116328       0.000000000    
vector a3 :    0.000000000       0.000000000       7.931342589    
 
Stored column-wise as a matrix :
   4.499102716       0.000000000       0.000000000    
  -2.597558164       5.195116328       0.000000000    
   0.000000000       0.000000000       7.931342589    
 
Inverse of matrix :
  0.2222665414       0.000000000       0.000000000    
  0.1111332707      0.1924884713       0.000000000    
   0.000000000       0.000000000      0.1260820585    
 
Unit cell volume :    185.3821413    
 
 
+----------------------------------+
| Reciprocal-space lattice vectors |
+----------------------------------+
 
vector b1 :    1.396541867       0.000000000       0.000000000    
vector b2 :   0.6982709335       1.209440734       0.000000000    
vector b3 :    0.000000000       0.000000000      0.7921969373    
 
Stored column-wise as a matrix :
   1.396541867      0.6982709335       0.000000000    
   0.000000000       1.209440734       0.000000000    
   0.000000000       0.000000000      0.7921969373    
 
Inverse of matrix :
  0.7160544367     -0.4134142218       0.000000000    
   0.000000000      0.8268284435       0.000000000    
   0.000000000       0.000000000       1.262312378    
 
Brillouin zone volume :    1.338048054    
