 
Species :    1 (Na), atom :    1
 APW functions :
  l =  0, energy derivative =  0 :  -0.8469025804E-01
  l =  1, energy derivative =  0 :  -0.8469025804E-01
  l =  2, energy derivative =  0 :  -0.8469025804E-01
  l =  3, energy derivative =  0 :  -0.8469025804E-01
  l =  4, energy derivative =  0 :  -0.8469025804E-01
  l =  5, energy derivative =  0 :  -0.8469025804E-01
  l =  6, energy derivative =  0 :  -0.8469025804E-01
  l =  7, energy derivative =  0 :  -0.8469025804E-01
  l =  8, energy derivative =  0 :  -0.8469025804E-01
  l =  9, energy derivative =  0 :  -0.8469025804E-01
  l = 10, energy derivative =  0 :  -0.8469025804E-01
 local-orbital functions :
  l.o. =  1, l =  0, energy derivative =  0 :  -0.8469025804E-01
  l.o. =  1, l =  0, energy derivative =  1 :  -0.8469025804E-01
  l.o. =  2, l =  1, energy derivative =  0 :  -0.8469025804E-01
  l.o. =  2, l =  1, energy derivative =  1 :  -0.8469025804E-01
  l.o. =  3, l =  0, energy derivative =  0 :  -0.8469025804E-01
  l.o. =  3, l =  0, energy derivative =  0 :   -1.943007454    
  l.o. =  4, l =  1, energy derivative =  0 :  -0.8469025804E-01
  l.o. =  4, l =  1, energy derivative =  0 :  -0.8968278182    
  l.o. =  5, l =  2, energy derivative =  0 :  -0.8469025804E-01
  l.o. =  5, l =  2, energy derivative =  1 :  -0.8469025804E-01
  l.o. =  6, l =  3, energy derivative =  0 :  -0.8469025804E-01
  l.o. =  6, l =  3, energy derivative =  1 :  -0.8469025804E-01
  l.o. =  7, l =  4, energy derivative =  0 :  -0.8469025804E-01
  l.o. =  7, l =  4, energy derivative =  1 :  -0.8469025804E-01
  l.o. =  8, l =  0, energy derivative =  0 :    1.274794318    
  l.o. =  8, l =  0, energy derivative =  1 :    1.274794318    
  l.o. =  8, l =  0, energy derivative =  2 :    1.274794318    
  l.o. =  9, l =  1, energy derivative =  0 :    1.616965696    
  l.o. =  9, l =  1, energy derivative =  1 :    1.616965696    
  l.o. =  9, l =  1, energy derivative =  2 :    1.616965696    
  l.o. = 10, l =  2, energy derivative =  0 :    1.655401384    
  l.o. = 10, l =  2, energy derivative =  1 :    1.655401384    
  l.o. = 10, l =  2, energy derivative =  2 :    1.655401384    
  l.o. = 11, l =  3, energy derivative =  0 :    3.186376078    
  l.o. = 11, l =  3, energy derivative =  1 :    3.186376078    
  l.o. = 11, l =  3, energy derivative =  2 :    3.186376078    
  l.o. = 12, l =  4, energy derivative =  0 :    4.843527117    
  l.o. = 12, l =  4, energy derivative =  1 :    4.843527117    
  l.o. = 12, l =  4, energy derivative =  2 :    4.843527117    
  l.o. = 13, l =  5, energy derivative =  0 :    6.700735358    
  l.o. = 13, l =  5, energy derivative =  1 :    6.700735358    
  l.o. = 13, l =  5, energy derivative =  2 :    6.700735358    
  l.o. = 14, l =  6, energy derivative =  0 :    8.775517708    
  l.o. = 14, l =  6, energy derivative =  1 :    8.775517708    
  l.o. = 14, l =  6, energy derivative =  2 :    8.775517708    
  l.o. = 15, l =  7, energy derivative =  0 :    11.07369007    
  l.o. = 15, l =  7, energy derivative =  1 :    11.07369007    
  l.o. = 15, l =  7, energy derivative =  2 :    11.07369007    
  l.o. = 16, l =  8, energy derivative =  0 :    13.59731801    
  l.o. = 16, l =  8, energy derivative =  1 :    13.59731801    
  l.o. = 16, l =  8, energy derivative =  2 :    13.59731801    
