    -1729.18028277    
    -1728.83604554    
    -1726.22598807    
    -1716.14096259    
    -1711.24583362    
    -1709.28209825    
    -1708.34835930    
    -1708.35869489    
    -1708.37387182    
    -1708.37109626    
    -1708.36860357    
    -1708.36867514    
    -1708.36870229    
    -1708.36869461    
    -1708.36872258    
    -1708.36870950    
    -1708.36886380    
    -1708.36884384    
    -1708.36883896    
    -1708.36882980    
    -1708.36882971    
    -1708.36882786    
    -1708.36883011    
    -1708.36883675    
    -1708.36884052    
    -1708.36883952    
    -1708.36883866    
    -1708.36883881    
    -1708.36883766    
    -1708.36883751    
    -1708.36883721    
    -1708.36883759    
    -1708.36883748    
    -1708.36883737    
    -1708.36883734    
    -1708.36883722    
    -1708.36883682    
    -1708.36883679    
    -1708.36883683    
    -1708.36883689    
