   28.33086246    
   39.47633978    
   37.92599036    
   28.74296689    
   18.12246408    
   10.38882320    
   5.914120173    
   3.404743071    
   1.893558743    
  0.9830951142    
  0.4639396008    
  0.1929953359    
  0.6875382949E-01
  0.1969902103E-01
  0.4131227623E-02
  0.7741593072E-04
  0.1652915089E-03
  0.2516901077E-03
  0.4694531890E-04
  0.3469907824E-05
  0.6558839232E-06
  0.7145645213E-06
  0.4939429346E-06
  0.1165244612E-06
  0.2281485649E-06
  0.1725529728E-06
  0.1256012183E-06
  0.1472908480E-06
  0.1138687367E-06
  0.9318318916E-07
