+----------------------------+
| Elk version 8.3.15 started |
+----------------------------+
 
Date (YYYY-MM-DD) : 2022-02-20
Time (hh:mm:ss)   : 12:24:53
 
All units are atomic (Hartree, Bohr, etc.)
 
+------------------------------------------+
| Ground-state run resuming from STATE.OUT |
+------------------------------------------+
 
Lattice vectors :
   5.256463753      -3.034820763       0.000000000    
   0.000000000       6.069641526       0.000000000    
   0.000000000       0.000000000       10.06500205    
 
Reciprocal lattice vectors :
   1.195325527       0.000000000       0.000000000    
  0.5976627635       1.035182272       0.000000000    
   0.000000000       0.000000000      0.6242607083    
 
Unit cell volume      :    321.1223874    
Brillouin zone volume :   0.7724475875    
 
Muffin-tin inner radius fraction :   0.1000000000E-01
 
Species :    1 (Zr)
 parameters loaded from : Zr.in
 name : zirconium
 nuclear charge    :   -40.00000000    
 electronic charge :    40.00000000    
 atomic mass :    166291.1791    
 muffin-tin radius :    2.500000000    
 number of radial points in muffin-tin :   1200
 number on inner part of muffin-tin    :    866
 atomic positions (lattice), magnetic fields (Cartesian) :
   1 :   0.33333333  0.16666667  0.25000000    0.00000000  0.00000000  0.00000000
   2 :  -0.33333333 -0.16666667 -0.25000000    0.00000000  0.00000000  0.00000000
 
Total number of atoms per unit cell :    2
 
Spin treatment :
 spin-unpolarised
 
Number of Bravais lattice symmetries :   24
Number of crystal symmetries         :   24
Crystal has inversion symmetry
Real symmetric eigensolver will be used
 
k-point grid :     17    17    17
k-point offset :    0.000000000       0.000000000       0.000000000    
k-point set is reduced with full crystal symmetry group
Total number of k-points :      297
 
Muffin-tin radius times maximum |G+k| :    8.000000000    
 using gkmax = rgkmax / 2
Maximum |G+k| for APW functions       :    4.000000000    
Maximum (1/2)|G+k|²                   :    8.000000000    
Maximum |G| for potential and density :    32.00000000    
Constant for pseudocharge density :   20
Radial integration step length :    1
 
G-vector grid sizes :     64    64   108
Number of G-vectors :   177757
 
Maximum angular momentum used for
 APW functions                      :   10
 outer part of muffin-tin           :    8
 inner part of muffin-tin           :    1
 
Total nuclear charge    :   -80.00000000    
Total core charge       :    56.00000000    
Total valence charge    :    24.00000000    
Total excess charge     :    0.000000000    
Total electronic charge :    80.00000000    
 
Effective Wigner radius, rₛ :   0.9858949965    
 
Number of empty states         :   40
Total number of valence states :   53
Total number of core states    :   56
 
Conduction state local-orbitals added automatically
Total number of local-orbitals :  242
 
Using Libxc version 05.01.05
Exchange-correlation functional :    100   493   494
 exchange: mgga_x_rscan; correlation: mgga_c_rscan
 
Smearing type :    1
 Methfessel-Paxton order 1, Phys. Rev. B 40, 3616 (1989)
Smearing width :   0.1000000000E-02
Effective electronic temperature (K) :    315.7750248    
 
Mixing type :    3
 Broyden mixing, J. Phys. A: Math. Gen. 17, L317 (1984)
 
Potential read in from STATE.OUT
 
+------------------------------+
| Self-consistent loop started |
+------------------------------+
 
+--------------------+
| Loop number :    1 |
+--------------------+
 
Energies :
 Fermi                       :     0.395275042967    
 sum of eigenvalues          :     -4262.89682204    
 electron kinetic            :      7449.82359443    
 core electron kinetic       :      7311.70003522    
 Coulomb                     :     -14419.3215207    
 Coulomb potential           :     -11405.9386845    
 nuclear-nuclear             :     -713.335150963    
 electron-nuclear            :     -16006.0340549    
 Hartree                     :      2300.04768523    
 Madelung                    :     -8716.35217844    
 xc potential                :     -306.781731983    
 exchange                    :     -227.063514348    
 correlation                 :     -4.11380150904    
 total energy                :     -7200.67524211    
 
Density of states at Fermi energy :    70.64790077    
 (states/Hartree/unit cell)
 
Estimated indirect band gap :   0.1350344580E-03
 from k-point    110 to k-point    289
Estimated direct band gap   :   0.3491565285E-02
 at k-point    288
 
Charges :
 core                        :    56.00000000    
 valence                     :    24.00000000    
 interstitial                :    4.641101683    
 muffin-tins (core leakage)
  species :    1 (Zr)
   atom    1                 :    37.67944916     (  0.5948046816E-05)
   atom    2                 :    37.67944916     (  0.5948046816E-05)
 total in muffin-tins        :    75.35889832    
 total calculated charge     :    79.99994624    
 total charge                :    80.00000000    
 error                       :   0.5376458202E-04
 
Time (CPU seconds) :        68.77
 
+--------------------+
| Loop number :    2 |
+--------------------+
 
Energies :
 Fermi                       :     0.395276876929    
 sum of eigenvalues          :     -4262.89738563    
 electron kinetic            :      7449.82288423    
 core electron kinetic       :      7311.69973609    
 Coulomb                     :     -14419.3220533    
 Coulomb potential           :     -11405.9385014    
 nuclear-nuclear             :     -713.335150963    
 electron-nuclear            :     -16006.0353032    
 Hartree                     :      2300.04840093    
 Madelung                    :     -8716.35280258    
 xc potential                :     -306.781768489    
 exchange                    :     -227.063537945    
 correlation                 :     -4.11380383552    
 total energy                :     -7200.67651082    
 
Density of states at Fermi energy :    70.54105282    
 (states/Hartree/unit cell)
 
Estimated indirect band gap :   0.9326953364E-04
 from k-point    110 to k-point    109
Estimated direct band gap   :   0.3496040355E-02
 at k-point    288
 
Charges :
 core                        :    56.00000000    
 valence                     :    24.00000000    
 interstitial                :    4.641081256    
 muffin-tins (core leakage)
  species :    1 (Zr)
   atom    1                 :    37.67945937     (  0.5947997590E-05)
   atom    2                 :    37.67945937     (  0.5947997590E-05)
 total in muffin-tins        :    75.35891874    
 total calculated charge     :    79.99994627    
 total charge                :    80.00000000    
 error                       :   0.5372688027E-04
 
Wrote STATE.OUT
 
RMS change in Kohn-Sham potential (target) :   0.2326371261E-01 (   10.00000000    )
Absolute change in total energy (target)   :   0.1268706516E-02 (  0.1000000000E-07)
 
Time (CPU seconds) :       134.68
 
+--------------------+
| Loop number :    3 |
+--------------------+
 
Energies :
 Fermi                       :     0.395277517339    
 sum of eigenvalues          :     -4262.89748457    
 electron kinetic            :      7449.82274036    
 core electron kinetic       :      7311.70336972    
 Coulomb                     :     -14419.3221562    
 Coulomb potential           :     -11405.9384490    
 nuclear-nuclear             :     -713.335150963    
 electron-nuclear            :     -16006.0355615    
 Hartree                     :      2300.04855625    
 Madelung                    :     -8716.35293171    
 xc potential                :     -306.781775925    
 exchange                    :     -227.063542501    
 correlation                 :     -4.11380446152    
 total energy                :     -7200.67676282    
 
Density of states at Fermi energy :    70.50956173    
 (states/Hartree/unit cell)
 
Estimated indirect band gap :   0.7897397792E-04
 from k-point    110 to k-point    109
Estimated direct band gap   :   0.3497047815E-02
 at k-point    288
 
Charges :
 core                        :    56.00000000    
 valence                     :    24.00000000    
 interstitial                :    4.641076683    
 muffin-tins (core leakage)
  species :    1 (Zr)
   atom    1                 :    37.67946166     (  0.5947935158E-05)
   atom    2                 :    37.67946166     (  0.5947935158E-05)
 total in muffin-tins        :    75.35892332    
 total calculated charge     :    79.99994628    
 total charge                :    80.00000000    
 error                       :   0.5371648876E-04
 
RMS change in Kohn-Sham potential (target) :   0.2319191217E-01 (   10.00000000    )
Absolute change in total energy (target)   :   0.5691762617E-03 (  0.1000000000E-07)
 
Time (CPU seconds) :       201.51
 
+--------------------+
| Loop number :    4 |
+--------------------+
 
Energies :
 Fermi                       :     0.395311108463    
 sum of eigenvalues          :     -4262.90165621    
 electron kinetic            :      7449.81617260    
 core electron kinetic       :      7311.70725773    
 Coulomb                     :     -14419.3265789    
 Coulomb potential           :     -11405.9357075    
 nuclear-nuclear             :     -713.335150963    
 electron-nuclear            :     -16006.0471485    
 Hartree                     :      2300.05572050    
 Madelung                    :     -8716.35872520    
 xc potential                :     -306.782121337    
 exchange                    :     -227.063754578    
 correlation                 :     -4.11383353657    
 total energy                :     -7200.68799445    
 
Density of states at Fermi energy :    67.48175031    
 (states/Hartree/unit cell)
 
Estimated indirect band gap :   0.2964227307E-03
 from k-point    293 to k-point    195
Estimated direct band gap   :   0.3541061936E-02
 at k-point    288
 
Charges :
 core                        :    56.00000000    
 valence                     :    24.00000000    
 interstitial                :    4.640829236    
 muffin-tins (core leakage)
  species :    1 (Zr)
   atom    1                 :    37.67958538     (  0.5947517259E-05)
   atom    2                 :    37.67958538     (  0.5947517259E-05)
 total in muffin-tins        :    75.35917076    
 total calculated charge     :    79.99994678    
 total charge                :    80.00000000    
 error                       :   0.5322149458E-04
 
Wrote STATE.OUT
 
RMS change in Kohn-Sham potential (target) :   0.1973456950E-01 (   10.00000000    )
Absolute change in total energy (target)   :   0.1137392550E-01 (  0.1000000000E-07)
 
Time (CPU seconds) :       267.69
 
+--------------------+
| Loop number :    5 |
+--------------------+
 
Energies :
 Fermi                       :     0.395409372023    
 sum of eigenvalues          :     -4262.91072569    
 electron kinetic            :      7449.79936821    
 core electron kinetic       :      7311.70069702    
 Coulomb                     :     -14419.3364597    
 Coulomb potential           :     -11405.9270275    
 nuclear-nuclear             :     -713.335150963    
 electron-nuclear            :     -16006.0755900    
 Hartree                     :      2300.07428125    
 Madelung                    :     -8716.37294594    
 xc potential                :     -306.783066448    
 exchange                    :     -227.064363948    
 correlation                 :     -4.11389644949    
 total energy                :     -7200.71535186    
 
Density of states at Fermi energy :    63.65899007    
 (states/Hartree/unit cell)
 
Estimated indirect band gap :   0.2170853414E-03
 from k-point    293 to k-point    233
Estimated direct band gap   :   0.3632880469E-02
 at k-point    288
 
Charges :
 core                        :    56.00000000    
 valence                     :    24.00000000    
 interstitial                :    4.639928286    
 muffin-tins (core leakage)
  species :    1 (Zr)
   atom    1                 :    37.68003586     (  0.5946576895E-05)
   atom    2                 :    37.68003586     (  0.5946576895E-05)
 total in muffin-tins        :    75.36007171    
 total calculated charge     :    79.99994801    
 total charge                :    80.00000000    
 error                       :   0.5198850390E-04
 
RMS change in Kohn-Sham potential (target) :   0.1307854145E-01 (   10.00000000    )
Absolute change in total energy (target)   :   0.3020088973E-01 (  0.1000000000E-07)
 
Time (CPU seconds) :       335.32
 
+--------------------+
| Loop number :    6 |
+--------------------+
 
Energies :
 Fermi                       :     0.395453815720    
 sum of eigenvalues          :     -4262.91356715    
 electron kinetic            :      7449.79425735    
 core electron kinetic       :      7311.70292495    
 Coulomb                     :     -14419.3400006    
 Coulomb potential           :     -11405.9244297    
 nuclear-nuclear             :     -713.335150963    
 electron-nuclear            :     -16006.0852695    
 Hartree                     :      2300.08041992    
 Madelung                    :     -8716.37778573    
 xc potential                :     -306.783394807    
 exchange                    :     -227.064586050    
 correlation                 :     -4.11391889277    
 total energy                :     -7200.72424817    
 
Density of states at Fermi energy :    63.74999505    
 (states/Hartree/unit cell)
 
Estimated indirect band gap :   0.3196478418E-03
 from k-point    293 to k-point    198
Estimated direct band gap   :   0.3668110223E-02
 at k-point    288
 
Charges :
 core                        :    56.00000000    
 valence                     :    24.00000000    
 interstitial                :    4.639694004    
 muffin-tins (core leakage)
  species :    1 (Zr)
   atom    1                 :    37.68015300     (  0.5946123355E-05)
   atom    2                 :    37.68015300     (  0.5946123355E-05)
 total in muffin-tins        :    75.36030600    
 total calculated charge     :    79.99994858    
 total charge                :    80.00000000    
 error                       :   0.5141982906E-04
 
Wrote STATE.OUT
 
RMS change in Kohn-Sham potential (target) :   0.1026699994E-01 (   10.00000000    )
Absolute change in total energy (target)   :   0.1644653607E-01 (  0.1000000000E-07)
 
Time (CPU seconds) :       403.00
 
+--------------------+
| Loop number :    7 |
+--------------------+
 
Energies :
 Fermi                       :     0.395534979969    
 sum of eigenvalues          :     -4262.91955304    
 electron kinetic            :      7449.78519770    
 core electron kinetic       :      7311.69705684    
 Coulomb                     :     -14419.3467379    
 Coulomb potential           :     -11405.9207592    
 nuclear-nuclear             :     -713.335150963    
 electron-nuclear            :     -16006.1024146    
 Hartree                     :      2300.09082770    
 Madelung                    :     -8716.38635826    
 xc potential                :     -306.783991557    
 exchange                    :     -227.065022703    
 correlation                 :     -4.11394714008    
 total energy                :     -7200.74051000    
 
Density of states at Fermi energy :    65.23551698    
 (states/Hartree/unit cell)
 
Estimated indirect band gap :   0.1349244788E-03
 from k-point    295 to k-point    293
Estimated direct band gap   :   0.2628839998E-02
 at k-point    293
 
Charges :
 core                        :    56.00000000    
 valence                     :    24.00000000    
 interstitial                :    4.639418331    
 muffin-tins (core leakage)
  species :    1 (Zr)
   atom    1                 :    37.68029083     (  0.5945722762E-05)
   atom    2                 :    37.68029083     (  0.5945722762E-05)
 total in muffin-tins        :    75.36058167    
 total calculated charge     :    79.99994950    
 total charge                :    80.00000000    
 error                       :   0.5049816086E-04
 
RMS change in Kohn-Sham potential (target) :   0.7936549826E-02 (   10.00000000    )
Absolute change in total energy (target)   :   0.2037346067E-01 (  0.1000000000E-07)
 
Time (CPU seconds) :       469.68
 
+--------------------+
| Loop number :    8 |
+--------------------+
 
Energies :
 Fermi                       :     0.395543179204    
 sum of eigenvalues          :     -4262.91900645    
 electron kinetic            :      7449.78598421    
 core electron kinetic       :      7311.69790361    
 Coulomb                     :     -14419.3470971    
 Coulomb potential           :     -11405.9209747    
 nuclear-nuclear             :     -713.335150963    
 electron-nuclear            :     -16006.1029177    
 Hartree                     :      2300.09097150    
 Madelung                    :     -8716.38660980    
 xc potential                :     -306.784015979    
 exchange                    :     -227.065043504    
 correlation                 :     -4.11394554665    
 total energy                :     -7200.74010198    
 
Density of states at Fermi energy :    64.63204754    
 (states/Hartree/unit cell)
 
Estimated indirect band gap :   0.1595701198E-03
 from k-point    295 to k-point    293
Estimated direct band gap   :   0.2622901351E-02
 at k-point    293
 
Charges :
 core                        :    56.00000000    
 valence                     :    24.00000000    
 interstitial                :    4.639389256    
 muffin-tins (core leakage)
  species :    1 (Zr)
   atom    1                 :    37.68030537     (  0.5945508043E-05)
   atom    2                 :    37.68030537     (  0.5945508043E-05)
 total in muffin-tins        :    75.36061074    
 total calculated charge     :    79.99994944    
 total charge                :    80.00000000    
 error                       :   0.5055526886E-04
 
Wrote STATE.OUT
 
RMS change in Kohn-Sham potential (target) :   0.2752495243E-02 (   10.00000000    )
Absolute change in total energy (target)   :   0.4685351752E-02 (  0.1000000000E-07)
 
Time (CPU seconds) :       536.78
 
+--------------------+
| Loop number :    9 |
+--------------------+
 
Energies :
 Fermi                       :     0.395541784401    
 sum of eigenvalues          :     -4262.91889670    
 electron kinetic            :      7449.78589278    
 core electron kinetic       :      7311.69767461    
 Coulomb                     :     -14419.3468520    
 Coulomb potential           :     -11405.9207777    
 nuclear-nuclear             :     -713.335150963    
 electron-nuclear            :     -16006.1026244    
 Hartree                     :      2300.09092338    
 Madelung                    :     -8716.38646318    
 xc potential                :     -306.784011801    
 exchange                    :     -227.065040833    
 correlation                 :     -4.11394526185    
 total energy                :     -7200.73994534    
 
Density of states at Fermi energy :    64.58400644    
 (states/Hartree/unit cell)
 
Estimated indirect band gap :   0.1607228414E-03
 from k-point    295 to k-point    293
Estimated direct band gap   :   0.2622348277E-02
 at k-point    293
 
Charges :
 core                        :    56.00000000    
 valence                     :    24.00000000    
 interstitial                :    4.639373729    
 muffin-tins (core leakage)
  species :    1 (Zr)
   atom    1                 :    37.68031314     (  0.5945584572E-05)
   atom    2                 :    37.68031314     (  0.5945584572E-05)
 total in muffin-tins        :    75.36062627    
 total calculated charge     :    79.99994945    
 total charge                :    80.00000000    
 error                       :   0.5055351087E-04
 
RMS change in Kohn-Sham potential (target) :   0.7091439664E-03 (   10.00000000    )
Absolute change in total energy (target)   :   0.1014693759E-02 (  0.1000000000E-07)
 
Time (CPU seconds) :       602.98
 
+--------------------+
| Loop number :   10 |
+--------------------+
 
Energies :
 Fermi                       :     0.395538605392    
 sum of eigenvalues          :     -4262.91884672    
 electron kinetic            :      7449.78582092    
 core electron kinetic       :      7311.69744742    
 Coulomb                     :     -14419.3464864    
 Coulomb potential           :     -11405.9206760    
 nuclear-nuclear             :     -713.335150963    
 electron-nuclear            :     -16006.1019949    
 Hartree                     :      2300.09065946    
 Madelung                    :     -8716.38614842    
 xc potential                :     -306.783991647    
 exchange                    :     -227.065025285    
 correlation                 :     -4.11394556732    
 total energy                :     -7200.73963635    
 
Density of states at Fermi energy :    64.71220476    
 (states/Hartree/unit cell)
 
Estimated indirect band gap :   0.1559851926E-03
 from k-point    295 to k-point    293
Estimated direct band gap   :   0.2623905488E-02
 at k-point    293
 
Charges :
 core                        :    56.00000000    
 valence                     :    24.00000000    
 interstitial                :    4.639380677    
 muffin-tins (core leakage)
  species :    1 (Zr)
   atom    1                 :    37.68030966     (  0.5945629074E-05)
   atom    2                 :    37.68030966     (  0.5945629074E-05)
 total in muffin-tins        :    75.36061932    
 total calculated charge     :    79.99994946    
 total charge                :    80.00000000    
 error                       :   0.5053516264E-04
 
Wrote STATE.OUT
 
RMS change in Kohn-Sham potential (target) :   0.6200681823E-03 (   10.00000000    )
Absolute change in total energy (target)   :   0.5531848001E-04 (  0.1000000000E-07)
 
Time (CPU seconds) :       669.64
 
+--------------------+
| Loop number :   11 |
+--------------------+
 
Energies :
 Fermi                       :     0.395537825334    
 sum of eigenvalues          :     -4262.91889096    
 electron kinetic            :      7449.78578272    
 core electron kinetic       :      7311.69746897    
 Coulomb                     :     -14419.3464880    
 Coulomb potential           :     -11405.9206819    
 nuclear-nuclear             :     -713.335150963    
 electron-nuclear            :     -16006.1019922    
 Hartree                     :      2300.09065514    
 Madelung                    :     -8716.38614708    
 xc potential                :     -306.783991743    
 exchange                    :     -227.065025304    
 correlation                 :     -4.11394559906    
 total energy                :     -7200.73967622    
 
Density of states at Fermi energy :    64.70341929    
 (states/Hartree/unit cell)
 
Estimated indirect band gap :   0.1565973354E-03
 from k-point    295 to k-point    293
Estimated direct band gap   :   0.2623939022E-02
 at k-point    293
 
Charges :
 core                        :    56.00000000    
 valence                     :    24.00000000    
 interstitial                :    4.639380473    
 muffin-tins (core leakage)
  species :    1 (Zr)
   atom    1                 :    37.68030976     (  0.5945495701E-05)
   atom    2                 :    37.68030976     (  0.5945495701E-05)
 total in muffin-tins        :    75.36061953    
 total calculated charge     :    79.99994947    
 total charge                :    80.00000000    
 error                       :   0.5053359186E-04
 
RMS change in Kohn-Sham potential (target) :   0.4202534546E-03 (   10.00000000    )
Absolute change in total energy (target)   :   0.2604763813E-04 (  0.1000000000E-07)
 
Time (CPU seconds) :       736.02
 
+--------------------+
| Loop number :   12 |
+--------------------+
 
Energies :
 Fermi                       :     0.395537966051    
 sum of eigenvalues          :     -4262.91893033    
 electron kinetic            :      7449.78576627    
 core electron kinetic       :      7311.69747095    
 Coulomb                     :     -14419.3465363    
 Coulomb potential           :     -11405.9207031    
 nuclear-nuclear             :     -713.335150963    
 electron-nuclear            :     -16006.1020676    
 Hartree                     :      2300.09068224    
 Madelung                    :     -8716.38618474    
 xc potential                :     -306.783993516    
 exchange                    :     -227.065026545    
 correlation                 :     -4.11394567024    
 total energy                :     -7200.73974223    
 
Density of states at Fermi energy :    64.70948990    
 (states/Hartree/unit cell)
 
Estimated indirect band gap :   0.1566212381E-03
 from k-point    295 to k-point    293
Estimated direct band gap   :   0.2624108677E-02
 at k-point    293
 
Charges :
 core                        :    56.00000000    
 valence                     :    24.00000000    
 interstitial                :    4.639382286    
 muffin-tins (core leakage)
  species :    1 (Zr)
   atom    1                 :    37.68030886     (  0.5945579723E-05)
   atom    2                 :    37.68030886     (  0.5945579723E-05)
 total in muffin-tins        :    75.36061771    
 total calculated charge     :    79.99994947    
 total charge                :    80.00000000    
 error                       :   0.5053358707E-04
 
Wrote STATE.OUT
 
RMS change in Kohn-Sham potential (target) :   0.3981722726E-04 (   10.00000000    )
Absolute change in total energy (target)   :   0.7251302850E-04 (  0.1000000000E-07)
 
Time (CPU seconds) :       802.07
 
+--------------------+
| Loop number :   13 |
+--------------------+
 
Energies :
 Fermi                       :     0.395538102737    
 sum of eigenvalues          :     -4262.91893301    
 electron kinetic            :      7449.78577514    
 core electron kinetic       :      7311.69748431    
 Coulomb                     :     -14419.3465538    
 Coulomb potential           :     -11405.9207139    
 nuclear-nuclear             :     -713.335150963    
 electron-nuclear            :     -16006.1020918    
 Hartree                     :      2300.09068892    
 Madelung                    :     -8716.38619685    
 xc potential                :     -306.783994228    
 exchange                    :     -227.065027069    
 correlation                 :     -4.11394566878    
 total energy                :     -7200.73975140    
 
Density of states at Fermi energy :    64.70198481    
 (states/Hartree/unit cell)
 
Estimated indirect band gap :   0.1569847815E-03
 from k-point    295 to k-point    293
Estimated direct band gap   :   0.2624042907E-02
 at k-point    293
 
Charges :
 core                        :    56.00000000    
 valence                     :    24.00000000    
 interstitial                :    4.639382542    
 muffin-tins (core leakage)
  species :    1 (Zr)
   atom    1                 :    37.68030873     (  0.5945445238E-05)
   atom    2                 :    37.68030873     (  0.5945445238E-05)
 total in muffin-tins        :    75.36061746    
 total calculated charge     :    79.99994947    
 total charge                :    80.00000000    
 error                       :   0.5053441038E-04
 
RMS change in Kohn-Sham potential (target) :   0.9548279623E-04 (   10.00000000    )
Absolute change in total energy (target)   :   0.2730727101E-04 (  0.1000000000E-07)
 
Time (CPU seconds) :       870.67
 
+--------------------+
| Loop number :   14 |
+--------------------+
 
Energies :
 Fermi                       :     0.395538102957    
 sum of eigenvalues          :     -4262.91893209    
 electron kinetic            :      7449.78577799    
 core electron kinetic       :      7311.69749023    
 Coulomb                     :     -14419.3465561    
 Coulomb potential           :     -11405.9207158    
 nuclear-nuclear             :     -713.335150963    
 electron-nuclear            :     -16006.1020945    
 Hartree                     :      2300.09068931    
 Madelung                    :     -8716.38619819    
 xc potential                :     -306.783994251    
 exchange                    :     -227.065027087    
 correlation                 :     -4.11394566741    
 total energy                :     -7200.73975087    
 
Density of states at Fermi energy :    64.69927495    
 (states/Hartree/unit cell)
 
Estimated indirect band gap :   0.1571071007E-03
 from k-point    295 to k-point    293
Estimated direct band gap   :   0.2624025260E-02
 at k-point    293
 
Charges :
 core                        :    56.00000000    
 valence                     :    24.00000000    
 interstitial                :    4.639382512    
 muffin-tins (core leakage)
  species :    1 (Zr)
   atom    1                 :    37.68030874     (  0.5945505116E-05)
   atom    2                 :    37.68030874     (  0.5945505116E-05)
 total in muffin-tins        :    75.36061749    
 total calculated charge     :    79.99994947    
 total charge                :    80.00000000    
 error                       :   0.5053474432E-04
 
Wrote STATE.OUT
 
RMS change in Kohn-Sham potential (target) :   0.3684872383E-03 (   10.00000000    )
Absolute change in total energy (target)   :   0.6289950761E-05 (  0.1000000000E-07)
 
Time (CPU seconds) :       936.63
 
+--------------------+
| Loop number :   15 |
+--------------------+
 
Energies :
 Fermi                       :     0.395538254182    
 sum of eigenvalues          :     -4262.91893109    
 electron kinetic            :      7449.78578450    
 core electron kinetic       :      7311.69749213    
 Coulomb                     :     -14419.3465641    
 Coulomb potential           :     -11405.9207210    
 nuclear-nuclear             :     -713.335150963    
 electron-nuclear            :     -16006.1021052    
 Hartree                     :      2300.09069210    
 Madelung                    :     -8716.38620357    
 xc potential                :     -306.783994568    
 exchange                    :     -227.065027373    
 correlation                 :     -4.11394565717    
 total energy                :     -7200.73975261    
 
Density of states at Fermi energy :    64.69842423    
 (states/Hartree/unit cell)
 
Estimated indirect band gap :   0.1571855265E-03
 from k-point    295 to k-point    293
Estimated direct band gap   :   0.2624032941E-02
 at k-point    293
 
Charges :
 core                        :    56.00000000    
 valence                     :    24.00000000    
 interstitial                :    4.639382902    
 muffin-tins (core leakage)
  species :    1 (Zr)
   atom    1                 :    37.68030855     (  0.5945524240E-05)
   atom    2                 :    37.68030855     (  0.5945524240E-05)
 total in muffin-tins        :    75.36061710    
 total calculated charge     :    79.99994946    
 total charge                :    80.00000000    
 error                       :   0.5053525331E-04
 
RMS change in Kohn-Sham potential (target) :   0.5326781396E-04 (   10.00000000    )
Absolute change in total energy (target)   :   0.3315539288E-05 (  0.1000000000E-07)
 
Time (CPU seconds) :      1003.41
 
+--------------------+
| Loop number :   16 |
+--------------------+
 
Energies :
 Fermi                       :     0.395538252631    
 sum of eigenvalues          :     -4262.91892678    
 electron kinetic            :      7449.78578802    
 core electron kinetic       :      7311.69749497    
 Coulomb                     :     -14419.3465624    
 Coulomb potential           :     -11405.9207204    
 nuclear-nuclear             :     -713.335150963    
 electron-nuclear            :     -16006.1021025    
 Hartree                     :      2300.09069108    
 Madelung                    :     -8716.38620223    
 xc potential                :     -306.783994445    
 exchange                    :     -227.065027220    
 correlation                 :     -4.11394567141    
 total energy                :     -7200.73974727    
 
Density of states at Fermi energy :    64.69668149    
 (states/Hartree/unit cell)
 
Estimated indirect band gap :   0.1572321748E-03
 from k-point    295 to k-point    293
Estimated direct band gap   :   0.2624011996E-02
 at k-point    293
 
Charges :
 core                        :    56.00000000    
 valence                     :    24.00000000    
 interstitial                :    4.639382713    
 muffin-tins (core leakage)
  species :    1 (Zr)
   atom    1                 :    37.68030864     (  0.5945489992E-05)
   atom    2                 :    37.68030864     (  0.5945489992E-05)
 total in muffin-tins        :    75.36061729    
 total calculated charge     :    79.99994946    
 total charge                :    80.00000000    
 error                       :   0.5053521986E-04
 
Wrote STATE.OUT
 
RMS change in Kohn-Sham potential (target) :   0.8624707747E-04 (   10.00000000    )
Absolute change in total energy (target)   :   0.4506833648E-05 (  0.1000000000E-07)
 
Time (CPU seconds) :      1070.16
 
+--------------------+
| Loop number :   17 |
+--------------------+
 
Energies :
 Fermi                       :     0.395538229228    
 sum of eigenvalues          :     -4262.91892726    
 electron kinetic            :      7449.78578705    
 core electron kinetic       :      7311.69749473    
 Coulomb                     :     -14419.3465595    
 Coulomb potential           :     -11405.9207199    
 nuclear-nuclear             :     -713.335150963    
 electron-nuclear            :     -16006.1020971    
 Hartree                     :      2300.09068862    
 Madelung                    :     -8716.38619954    
 xc potential                :     -306.783994406    
 exchange                    :     -227.065027193    
 correlation                 :     -4.11394567144    
 total energy                :     -7200.73974530    
 
Density of states at Fermi energy :    64.69697853    
 (states/Hartree/unit cell)
 
Estimated indirect band gap :   0.1572150180E-03
 from k-point    295 to k-point    293
Estimated direct band gap   :   0.2624016372E-02
 at k-point    293
 
Charges :
 core                        :    56.00000000    
 valence                     :    24.00000000    
 interstitial                :    4.639382662    
 muffin-tins (core leakage)
  species :    1 (Zr)
   atom    1                 :    37.68030867     (  0.5945490521E-05)
   atom    2                 :    37.68030867     (  0.5945490521E-05)
 total in muffin-tins        :    75.36061734    
 total calculated charge     :    79.99994946    
 total charge                :    80.00000000    
 error                       :   0.5053511073E-04
 
RMS change in Kohn-Sham potential (target) :   0.1387459441E-03 (   10.00000000    )
Absolute change in total energy (target)   :   0.3099057722E-05 (  0.1000000000E-07)
 
Time (CPU seconds) :      1136.77
 
+--------------------+
| Loop number :   18 |
+--------------------+
 
Energies :
 Fermi                       :     0.395538260801    
 sum of eigenvalues          :     -4262.91892721    
 electron kinetic            :      7449.78578947    
 core electron kinetic       :      7311.69749747    
 Coulomb                     :     -14419.3465633    
 Coulomb potential           :     -11405.9207222    
 nuclear-nuclear             :     -713.335150963    
 electron-nuclear            :     -16006.1021025    
 Hartree                     :      2300.09069018    
 Madelung                    :     -8716.38620223    
 xc potential                :     -306.783994507    
 exchange                    :     -227.065027265    
 correlation                 :     -4.11394567389    
 total energy                :     -7200.73974678    
 
Density of states at Fermi energy :    64.69565051    
 (states/Hartree/unit cell)
 
Estimated indirect band gap :   0.1572844986E-03
 from k-point    295 to k-point    293
Estimated direct band gap   :   0.2624012632E-02
 at k-point    293
 
Charges :
 core                        :    56.00000000    
 valence                     :    24.00000000    
 interstitial                :    4.639382739    
 muffin-tins (core leakage)
  species :    1 (Zr)
   atom    1                 :    37.68030863     (  0.5945546874E-05)
   atom    2                 :    37.68030863     (  0.5945546874E-05)
 total in muffin-tins        :    75.36061726    
 total calculated charge     :    79.99994946    
 total charge                :    80.00000000    
 error                       :   0.5053541106E-04
 
Wrote STATE.OUT
 
RMS change in Kohn-Sham potential (target) :   0.7499283165E-03 (   10.00000000    )
Absolute change in total energy (target)   :   0.7041317076E-06 (  0.1000000000E-07)
 
Time (CPU seconds) :      1205.22
 
+--------------------+
| Loop number :   19 |
+--------------------+
 
Energies :
 Fermi                       :     0.395538291707    
 sum of eigenvalues          :     -4262.91892630    
 electron kinetic            :      7449.78578966    
 core electron kinetic       :      7311.69749725    
 Coulomb                     :     -14419.3465630    
 Coulomb potential           :     -11405.9207215    
 nuclear-nuclear             :     -713.335150963    
 electron-nuclear            :     -16006.1021025    
 Hartree                     :      2300.09069053    
 Madelung                    :     -8716.38620223    
 xc potential                :     -306.783994502    
 exchange                    :     -227.065027255    
 correlation                 :     -4.11394567701    
 total energy                :     -7200.73974623    
 
Density of states at Fermi energy :    64.69681001    
 (states/Hartree/unit cell)
 
Estimated indirect band gap :   0.1572418865E-03
 from k-point    295 to k-point    293
Estimated direct band gap   :   0.2624025300E-02
 at k-point    293
 
Charges :
 core                        :    56.00000000    
 valence                     :    24.00000000    
 interstitial                :    4.639382809    
 muffin-tins (core leakage)
  species :    1 (Zr)
   atom    1                 :    37.68030860     (  0.5945605881E-05)
   atom    2                 :    37.68030860     (  0.5945605881E-05)
 total in muffin-tins        :    75.36061719    
 total calculated charge     :    79.99994946    
 total charge                :    80.00000000    
 error                       :   0.5053545888E-04
 
RMS change in Kohn-Sham potential (target) :   0.3115365147E-03 (   10.00000000    )
Absolute change in total energy (target)   :   0.3787754395E-06 (  0.1000000000E-07)
 
Time (CPU seconds) :      1273.38
 
+--------------------+
| Loop number :   20 |
+--------------------+
 
Energies :
 Fermi                       :     0.395538246227    
 sum of eigenvalues          :     -4262.91892814    
 electron kinetic            :      7449.78578698    
 core electron kinetic       :      7311.69749486    
 Coulomb                     :     -14419.3465626    
 Coulomb potential           :     -11405.9207207    
 nuclear-nuclear             :     -713.335150963    
 electron-nuclear            :     -16006.1021025    
 Hartree                     :      2300.09069093    
 Madelung                    :     -8716.38620223    
 xc potential                :     -306.783994464    
 exchange                    :     -227.065027228    
 correlation                 :     -4.11394567685    
 total energy                :     -7200.73974848    
 
Density of states at Fermi energy :    64.69710513    
 (states/Hartree/unit cell)
 
Estimated indirect band gap :   0.1572281417E-03
 from k-point    295 to k-point    293
Estimated direct band gap   :   0.2624028059E-02
 at k-point    293
 
Charges :
 core                        :    56.00000000    
 valence                     :    24.00000000    
 interstitial                :    4.639382752    
 muffin-tins (core leakage)
  species :    1 (Zr)
   atom    1                 :    37.68030862     (  0.5945549137E-05)
   atom    2                 :    37.68030862     (  0.5945549137E-05)
 total in muffin-tins        :    75.36061725    
 total calculated charge     :    79.99994946    
 total charge                :    80.00000000    
 error                       :   0.5053523878E-04
 
Wrote STATE.OUT
 
RMS change in Kohn-Sham potential (target) :   0.3364627540E-03 (   10.00000000    )
Absolute change in total energy (target)   :   0.2160420081E-05 (  0.1000000000E-07)
 
Time (CPU seconds) :      1339.81
 
+--------------------+
| Loop number :   21 |
+--------------------+
 
Energies :
 Fermi                       :     0.395538259668    
 sum of eigenvalues          :     -4262.91892754    
 electron kinetic            :      7449.78578795    
 core electron kinetic       :      7311.69749596    
 Coulomb                     :     -14419.3465627    
 Coulomb potential           :     -11405.9207210    
 nuclear-nuclear             :     -713.335150963    
 electron-nuclear            :     -16006.1021025    
 Hartree                     :      2300.09069075    
 Madelung                    :     -8716.38620223    
 xc potential                :     -306.783994477    
 exchange                    :     -227.065027235    
 correlation                 :     -4.11394567774    
 total energy                :     -7200.73974770    
 
Density of states at Fermi energy :    64.69688474    
 (states/Hartree/unit cell)
 
Estimated indirect band gap :   0.1572387654E-03
 from k-point    295 to k-point    293
Estimated direct band gap   :   0.2624027996E-02
 at k-point    293
 
Charges :
 core                        :    56.00000000    
 valence                     :    24.00000000    
 interstitial                :    4.639382765    
 muffin-tins (core leakage)
  species :    1 (Zr)
   atom    1                 :    37.68030862     (  0.5945495875E-05)
   atom    2                 :    37.68030862     (  0.5945495875E-05)
 total in muffin-tins        :    75.36061723    
 total calculated charge     :    79.99994946    
 total charge                :    80.00000000    
 error                       :   0.5053514664E-04
 
RMS change in Kohn-Sham potential (target) :   0.1317338321E-03 (   10.00000000    )
Absolute change in total energy (target)   :   0.2464230420E-06 (  0.1000000000E-07)
 
Time (CPU seconds) :      1407.13
 
+--------------------+
| Loop number :   22 |
+--------------------+
 
Energies :
 Fermi                       :     0.395538237178    
 sum of eigenvalues          :     -4262.91892835    
 electron kinetic            :      7449.78578691    
 core electron kinetic       :      7311.69749587    
 Coulomb                     :     -14419.3465626    
 Coulomb potential           :     -11405.9207208    
 nuclear-nuclear             :     -713.335150963    
 electron-nuclear            :     -16006.1021025    
 Hartree                     :      2300.09069086    
 Madelung                    :     -8716.38620223    
 xc potential                :     -306.783994460    
 exchange                    :     -227.065027226    
 correlation                 :     -4.11394567709    
 total energy                :     -7200.73974862    
 
Density of states at Fermi energy :    64.69681766    
 (states/Hartree/unit cell)
 
Estimated indirect band gap :   0.1572393409E-03
 from k-point    295 to k-point    293
Estimated direct band gap   :   0.2624027465E-02
 at k-point    293
 
Charges :
 core                        :    56.00000000    
 valence                     :    24.00000000    
 interstitial                :    4.639382729    
 muffin-tins (core leakage)
  species :    1 (Zr)
   atom    1                 :    37.68030864     (  0.5945378188E-05)
   atom    2                 :    37.68030864     (  0.5945378188E-05)
 total in muffin-tins        :    75.36061727    
 total calculated charge     :    79.99994947    
 total charge                :    80.00000000    
 error                       :   0.5053488213E-04
 
Wrote STATE.OUT
 
RMS change in Kohn-Sham potential (target) :   0.6187498345E-04 (   10.00000000    )
Absolute change in total energy (target)   :   0.8606320989E-06 (  0.1000000000E-07)
 
Time (CPU seconds) :      1472.92
 
+--------------------+
| Loop number :   23 |
+--------------------+
 
Energies :
 Fermi                       :     0.395538214402    
 sum of eigenvalues          :     -4262.91892943    
 electron kinetic            :      7449.78578566    
 core electron kinetic       :      7311.69749520    
 Coulomb                     :     -14419.3465612    
 Coulomb potential           :     -11405.9207206    
 nuclear-nuclear             :     -713.335150963    
 electron-nuclear            :     -16006.1020998    
 Hartree                     :      2300.09068960    
 Madelung                    :     -8716.38620088    
 xc potential                :     -306.783994449    
 exchange                    :     -227.065027218    
 correlation                 :     -4.11394567652    
 total energy                :     -7200.73974844    
 
Density of states at Fermi energy :    64.69683787    
 (states/Hartree/unit cell)
 
Estimated indirect band gap :   0.1572372784E-03
 from k-point    295 to k-point    293
Estimated direct band gap   :   0.2624026943E-02
 at k-point    293
 
Charges :
 core                        :    56.00000000    
 valence                     :    24.00000000    
 interstitial                :    4.639382706    
 muffin-tins (core leakage)
  species :    1 (Zr)
   atom    1                 :    37.68030865     (  0.5945553283E-05)
   atom    2                 :    37.68030865     (  0.5945553283E-05)
 total in muffin-tins        :    75.36061729    
 total calculated charge     :    79.99994946    
 total charge                :    80.00000000    
 error                       :   0.5053517467E-04
 
RMS change in Kohn-Sham potential (target) :   0.1408513908E-03 (   10.00000000    )
Absolute change in total energy (target)   :   0.3270815796E-07 (  0.1000000000E-07)
 
Time (CPU seconds) :      1539.42
 
+--------------------+
| Loop number :   24 |
+--------------------+
 
Energies :
 Fermi                       :     0.395538208923    
 sum of eigenvalues          :     -4262.91892973    
 electron kinetic            :      7449.78578546    
 core electron kinetic       :      7311.69749526    
 Coulomb                     :     -14419.3465613    
 Coulomb potential           :     -11405.9207207    
 nuclear-nuclear             :     -713.335150963    
 electron-nuclear            :     -16006.1020998    
 Hartree                     :      2300.09068954    
 Madelung                    :     -8716.38620088    
 xc potential                :     -306.783994450    
 exchange                    :     -227.065027220    
 correlation                 :     -4.11394567632    
 total energy                :     -7200.73974869    
 
Density of states at Fermi energy :    64.69673785    
 (states/Hartree/unit cell)
 
Estimated indirect band gap :   0.1572407259E-03
 from k-point    295 to k-point    293
Estimated direct band gap   :   0.2624026100E-02
 at k-point    293
 
Charges :
 core                        :    56.00000000    
 valence                     :    24.00000000    
 interstitial                :    4.639382701    
 muffin-tins (core leakage)
  species :    1 (Zr)
   atom    1                 :    37.68030865     (  0.5945519280E-05)
   atom    2                 :    37.68030865     (  0.5945519280E-05)
 total in muffin-tins        :    75.36061730    
 total calculated charge     :    79.99994946    
 total charge                :    80.00000000    
 error                       :   0.5053510330E-04
 
Wrote STATE.OUT
 
RMS change in Kohn-Sham potential (target) :   0.1800413489E-04 (   10.00000000    )
Absolute change in total energy (target)   :   0.2608303475E-06 (  0.1000000000E-07)
 
Time (CPU seconds) :      1607.18
 
+--------------------+
| Loop number :   25 |
+--------------------+
 
Energies :
 Fermi                       :     0.395538208187    
 sum of eigenvalues          :     -4262.91892983    
 electron kinetic            :      7449.78578527    
 core electron kinetic       :      7311.69749524    
 Coulomb                     :     -14419.3465612    
 Coulomb potential           :     -11405.9207206    
 nuclear-nuclear             :     -713.335150963    
 electron-nuclear            :     -16006.1020998    
 Hartree                     :      2300.09068959    
 Madelung                    :     -8716.38620088    
 xc potential                :     -306.783994449    
 exchange                    :     -227.065027220    
 correlation                 :     -4.11394567609    
 total energy                :     -7200.73974883    
 
Density of states at Fermi energy :    64.69673819    
 (states/Hartree/unit cell)
 
Estimated indirect band gap :   0.1572405565E-03
 from k-point    295 to k-point    293
Estimated direct band gap   :   0.2624026013E-02
 at k-point    293
 
Charges :
 core                        :    56.00000000    
 valence                     :    24.00000000    
 interstitial                :    4.639382703    
 muffin-tins (core leakage)
  species :    1 (Zr)
   atom    1                 :    37.68030865     (  0.5945511006E-05)
   atom    2                 :    37.68030865     (  0.5945511006E-05)
 total in muffin-tins        :    75.36061730    
 total calculated charge     :    79.99994946    
 total charge                :    80.00000000    
 error                       :   0.5053511293E-04
 
RMS change in Kohn-Sham potential (target) :   0.7214498196E-03 (   10.00000000    )
Absolute change in total energy (target)   :   0.2112101356E-06 (  0.1000000000E-07)
 
Time (CPU seconds) :      1673.78
 
+--------------------+
| Loop number :   26 |
+--------------------+
 
Energies :
 Fermi                       :     0.395538203921    
 sum of eigenvalues          :     -4262.91893008    
 electron kinetic            :      7449.78578526    
 core electron kinetic       :      7311.69749516    
 Coulomb                     :     -14419.3465613    
 Coulomb potential           :     -11405.9207209    
 nuclear-nuclear             :     -713.335150963    
 electron-nuclear            :     -16006.1020998    
 Hartree                     :      2300.09068947    
 Madelung                    :     -8716.38620088    
 xc potential                :     -306.783994454    
 exchange                    :     -227.065027221    
 correlation                 :     -4.11394567661    
 total energy                :     -7200.73974896    
 
Density of states at Fermi energy :    64.69655020    
 (states/Hartree/unit cell)
 
Estimated indirect band gap :   0.1572471250E-03
 from k-point    295 to k-point    293
Estimated direct band gap   :   0.2624025098E-02
 at k-point    293
 
Charges :
 core                        :    56.00000000    
 valence                     :    24.00000000    
 interstitial                :    4.639382696    
 muffin-tins (core leakage)
  species :    1 (Zr)
   atom    1                 :    37.68030865     (  0.5945437803E-05)
   atom    2                 :    37.68030865     (  0.5945437803E-05)
 total in muffin-tins        :    75.36061730    
 total calculated charge     :    79.99994947    
 total charge                :    80.00000000    
 error                       :   0.5053493051E-04
 
Wrote STATE.OUT
 
RMS change in Kohn-Sham potential (target) :   0.5449289640E-04 (   10.00000000    )
Absolute change in total energy (target)   :   0.1813150448E-06 (  0.1000000000E-07)
 
Time (CPU seconds) :      1739.74
 
+--------------------+
| Loop number :   27 |
+--------------------+
 
Energies :
 Fermi                       :     0.395538215593    
 sum of eigenvalues          :     -4262.91892953    
 electron kinetic            :      7449.78578579    
 core electron kinetic       :      7311.69749524    
 Coulomb                     :     -14419.3465613    
 Coulomb potential           :     -11405.9207209    
 nuclear-nuclear             :     -713.335150963    
 electron-nuclear            :     -16006.1020998    
 Hartree                     :      2300.09068949    
 Madelung                    :     -8716.38620088    
 xc potential                :     -306.783994455    
 exchange                    :     -227.065027224    
 correlation                 :     -4.11394567622    
 total energy                :     -7200.73974842    
 
Density of states at Fermi energy :    64.69662982    
 (states/Hartree/unit cell)
 
Estimated indirect band gap :   0.1572445458E-03
 from k-point    295 to k-point    293
Estimated direct band gap   :   0.2624025681E-02
 at k-point    293
 
Charges :
 core                        :    56.00000000    
 valence                     :    24.00000000    
 interstitial                :    4.639382709    
 muffin-tins (core leakage)
  species :    1 (Zr)
   atom    1                 :    37.68030865     (  0.5945560016E-05)
   atom    2                 :    37.68030865     (  0.5945560016E-05)
 total in muffin-tins        :    75.36061729    
 total calculated charge     :    79.99994946    
 total charge                :    80.00000000    
 error                       :   0.5053518930E-04
 
RMS change in Kohn-Sham potential (target) :   0.1440904186E-02 (   10.00000000    )
Absolute change in total energy (target)   :   0.4921103027E-06 (  0.1000000000E-07)
 
Time (CPU seconds) :      1807.50
 
+--------------------+
| Loop number :   28 |
+--------------------+
 
Energies :
 Fermi                       :     0.395538223252    
 sum of eigenvalues          :     -4262.91892920    
 electron kinetic            :      7449.78578625    
 core electron kinetic       :      7311.69749555    
 Coulomb                     :     -14419.3465614    
 Coulomb potential           :     -11405.9207210    
 nuclear-nuclear             :     -713.335150963    
 electron-nuclear            :     -16006.1020998    
 Hartree                     :      2300.09068942    
 Madelung                    :     -8716.38620088    
 xc potential                :     -306.783994458    
 exchange                    :     -227.065027224    
 correlation                 :     -4.11394567685    
 total energy                :     -7200.73974802    
 
Density of states at Fermi energy :    64.69651641    
 (states/Hartree/unit cell)
 
Estimated indirect band gap :   0.1572488388E-03
 from k-point    295 to k-point    293
Estimated direct band gap   :   0.2624025458E-02
 at k-point    293
 
Charges :
 core                        :    56.00000000    
 valence                     :    24.00000000    
 interstitial                :    4.639382715    
 muffin-tins (core leakage)
  species :    1 (Zr)
   atom    1                 :    37.68030864     (  0.5945608358E-05)
   atom    2                 :    37.68030864     (  0.5945608358E-05)
 total in muffin-tins        :    75.36061729    
 total calculated charge     :    79.99994946    
 total charge                :    80.00000000    
 error                       :   0.5053528805E-04
 
Wrote STATE.OUT
 
RMS change in Kohn-Sham potential (target) :   0.5176824285E-04 (   10.00000000    )
Absolute change in total energy (target)   :   0.5229403541E-06 (  0.1000000000E-07)
 
Time (CPU seconds) :      1874.36
 
+--------------------+
| Loop number :   29 |
+--------------------+
 
Energies :
 Fermi                       :     0.395538224223    
 sum of eigenvalues          :     -4262.91892913    
 electron kinetic            :      7449.78578636    
 core electron kinetic       :      7311.69749560    
 Coulomb                     :     -14419.3465614    
 Coulomb potential           :     -11405.9207210    
 nuclear-nuclear             :     -713.335150963    
 electron-nuclear            :     -16006.1020998    
 Hartree                     :      2300.09068940    
 Madelung                    :     -8716.38620088    
 xc potential                :     -306.783994462    
 exchange                    :     -227.065027231    
 correlation                 :     -4.11394567563    
 total energy                :     -7200.73974794    
 
Density of states at Fermi energy :    64.69662282    
 (states/Hartree/unit cell)
 
Estimated indirect band gap :   0.1572448498E-03
 from k-point    295 to k-point    293
Estimated direct band gap   :   0.2624025937E-02
 at k-point    293
 
Charges :
 core                        :    56.00000000    
 valence                     :    24.00000000    
 interstitial                :    4.639382716    
 muffin-tins (core leakage)
  species :    1 (Zr)
   atom    1                 :    37.68030864     (  0.5945526155E-05)
   atom    2                 :    37.68030864     (  0.5945526155E-05)
 total in muffin-tins        :    75.36061728    
 total calculated charge     :    79.99994946    
 total charge                :    80.00000000    
 error                       :   0.5053517674E-04
 
RMS change in Kohn-Sham potential (target) :   0.1380522590E-03 (   10.00000000    )
Absolute change in total energy (target)   :   0.2148035492E-06 (  0.1000000000E-07)
 
Time (CPU seconds) :      1942.36
 
+--------------------+
| Loop number :   30 |
+--------------------+
 
Energies :
 Fermi                       :     0.395538224642    
 sum of eigenvalues          :     -4262.91892908    
 electron kinetic            :      7449.78578627    
 core electron kinetic       :      7311.69749542    
 Coulomb                     :     -14419.3465627    
 Coulomb potential           :     -11405.9207209    
 nuclear-nuclear             :     -713.335150963    
 electron-nuclear            :     -16006.1021025    
 Hartree                     :      2300.09069082    
 Madelung                    :     -8716.38620223    
 xc potential                :     -306.783994458    
 exchange                    :     -227.065027225    
 correlation                 :     -4.11394567664    
 total energy                :     -7200.73974930    
 
Density of states at Fermi energy :    64.69665776    
 (states/Hartree/unit cell)
 
Estimated indirect band gap :   0.1572435752E-03
 from k-point    295 to k-point    293
Estimated direct band gap   :   0.2624025998E-02
 at k-point    293
 
Charges :
 core                        :    56.00000000    
 valence                     :    24.00000000    
 interstitial                :    4.639382716    
 muffin-tins (core leakage)
  species :    1 (Zr)
   atom    1                 :    37.68030864     (  0.5945570575E-05)
   atom    2                 :    37.68030864     (  0.5945570575E-05)
 total in muffin-tins        :    75.36061728    
 total calculated charge     :    79.99994946    
 total charge                :    80.00000000    
 error                       :   0.5053527771E-04
 
Wrote STATE.OUT
 
RMS change in Kohn-Sham potential (target) :   0.1900368770E-04 (   10.00000000    )
Absolute change in total energy (target)   :   0.1305930709E-05 (  0.1000000000E-07)
 
Time (CPU seconds) :      2008.69
 
+--------------------+
| Loop number :   31 |
+--------------------+
 
Energies :
 Fermi                       :     0.395538225304    
 sum of eigenvalues          :     -4262.91892903    
 electron kinetic            :      7449.78578636    
 core electron kinetic       :      7311.69749547    
 Coulomb                     :     -14419.3465627    
 Coulomb potential           :     -11405.9207209    
 nuclear-nuclear             :     -713.335150963    
 electron-nuclear            :     -16006.1021025    
 Hartree                     :      2300.09069080    
 Madelung                    :     -8716.38620223    
 xc potential                :     -306.783994459    
 exchange                    :     -227.065027227    
 correlation                 :     -4.11394567622    
 total energy                :     -7200.73974923    
 
Density of states at Fermi energy :    64.69668881    
 (states/Hartree/unit cell)
 
Estimated indirect band gap :   0.1572424809E-03
 from k-point    295 to k-point    293
Estimated direct band gap   :   0.2624026025E-02
 at k-point    293
 
Charges :
 core                        :    56.00000000    
 valence                     :    24.00000000    
 interstitial                :    4.639382717    
 muffin-tins (core leakage)
  species :    1 (Zr)
   atom    1                 :    37.68030864     (  0.5945538813E-05)
   atom    2                 :    37.68030864     (  0.5945538813E-05)
 total in muffin-tins        :    75.36061728    
 total calculated charge     :    79.99994946    
 total charge                :    80.00000000    
 error                       :   0.5053513647E-04
 
RMS change in Kohn-Sham potential (target) :   0.9921799180E-04 (   10.00000000    )
Absolute change in total energy (target)   :   0.2569013304E-06 (  0.1000000000E-07)
 
Time (CPU seconds) :      2075.22
 
+--------------------+
| Loop number :   32 |
+--------------------+
 
Energies :
 Fermi                       :     0.395538225521    
 sum of eigenvalues          :     -4262.91892901    
 electron kinetic            :      7449.78578625    
 core electron kinetic       :      7311.69749533    
 Coulomb                     :     -14419.3465626    
 Coulomb potential           :     -11405.9207208    
 nuclear-nuclear             :     -713.335150963    
 electron-nuclear            :     -16006.1021025    
 Hartree                     :      2300.09069086    
 Madelung                    :     -8716.38620223    
 xc potential                :     -306.783994457    
 exchange                    :     -227.065027224    
 correlation                 :     -4.11394567659    
 total energy                :     -7200.73974928    
 
Density of states at Fermi energy :    64.69669508    
 (states/Hartree/unit cell)
 
Estimated indirect band gap :   0.1572422714E-03
 from k-point    295 to k-point    293
Estimated direct band gap   :   0.2624026001E-02
 at k-point    293
 
Charges :
 core                        :    56.00000000    
 valence                     :    24.00000000    
 interstitial                :    4.639382717    
 muffin-tins (core leakage)
  species :    1 (Zr)
   atom    1                 :    37.68030864     (  0.5945567981E-05)
   atom    2                 :    37.68030864     (  0.5945567981E-05)
 total in muffin-tins        :    75.36061728    
 total calculated charge     :    79.99994946    
 total charge                :    80.00000000    
 error                       :   0.5053522058E-04
 
Wrote STATE.OUT
 
RMS change in Kohn-Sham potential (target) :   0.3264072685E-04 (   10.00000000    )
Absolute change in total energy (target)   :   0.1134467311E-06 (  0.1000000000E-07)
 
Time (CPU seconds) :      2143.97
 
+--------------------+
| Loop number :   33 |
+--------------------+
 
Energies :
 Fermi                       :     0.395538225897    
 sum of eigenvalues          :     -4262.91892899    
 electron kinetic            :      7449.78578617    
 core electron kinetic       :      7311.69749522    
 Coulomb                     :     -14419.3465626    
 Coulomb potential           :     -11405.9207207    
 nuclear-nuclear             :     -713.335150963    
 electron-nuclear            :     -16006.1021025    
 Hartree                     :      2300.09069091    
 Madelung                    :     -8716.38620223    
 xc potential                :     -306.783994455    
 exchange                    :     -227.065027221    
 correlation                 :     -4.11394567690    
 total energy                :     -7200.73974931    
 
Density of states at Fermi energy :    64.69670467    
 (states/Hartree/unit cell)
 
Estimated indirect band gap :   0.1572419410E-03
 from k-point    295 to k-point    293
Estimated direct band gap   :   0.2624026004E-02
 at k-point    293
 
Charges :
 core                        :    56.00000000    
 valence                     :    24.00000000    
 interstitial                :    4.639382718    
 muffin-tins (core leakage)
  species :    1 (Zr)
   atom    1                 :    37.68030864     (  0.5945541830E-05)
   atom    2                 :    37.68030864     (  0.5945541830E-05)
 total in muffin-tins        :    75.36061728    
 total calculated charge     :    79.99994946    
 total charge                :    80.00000000    
 error                       :   0.5053516905E-04
 
RMS change in Kohn-Sham potential (target) :   0.1373048177E-03 (   10.00000000    )
Absolute change in total energy (target)   :   0.5326455721E-07 (  0.1000000000E-07)
 
Time (CPU seconds) :      2211.47
 
+--------------------+
| Loop number :   34 |
+--------------------+
 
Energies :
 Fermi                       :     0.395538226268    
 sum of eigenvalues          :     -4262.91892896    
 electron kinetic            :      7449.78578634    
 core electron kinetic       :      7311.69749535    
 Coulomb                     :     -14419.3465626    
 Coulomb potential           :     -11405.9207208    
 nuclear-nuclear             :     -713.335150963    
 electron-nuclear            :     -16006.1021025    
 Hartree                     :      2300.09069084    
 Madelung                    :     -8716.38620223    
 xc potential                :     -306.783994457    
 exchange                    :     -227.065027224    
 correlation                 :     -4.11394567658    
 total energy                :     -7200.73974921    
 
Density of states at Fermi energy :    64.69671709    
 (states/Hartree/unit cell)
 
Estimated indirect band gap :   0.1572415132E-03
 from k-point    295 to k-point    293
Estimated direct band gap   :   0.2624026007E-02
 at k-point    293
 
Charges :
 core                        :    56.00000000    
 valence                     :    24.00000000    
 interstitial                :    4.639382718    
 muffin-tins (core leakage)
  species :    1 (Zr)
   atom    1                 :    37.68030864     (  0.5945540476E-05)
   atom    2                 :    37.68030864     (  0.5945540476E-05)
 total in muffin-tins        :    75.36061728    
 total calculated charge     :    79.99994946    
 total charge                :    80.00000000    
 error                       :   0.5053520779E-04
 
Wrote STATE.OUT
 
RMS change in Kohn-Sham potential (target) :   0.4046988097E-03 (   10.00000000    )
Absolute change in total energy (target)   :   0.8331608115E-07 (  0.1000000000E-07)
 
Time (CPU seconds) :      2278.01
 
+--------------------+
| Loop number :   35 |
+--------------------+
 
Energies :
 Fermi                       :     0.395538226772    
 sum of eigenvalues          :     -4262.91892893    
 electron kinetic            :      7449.78578625    
 core electron kinetic       :      7311.69749524    
 Coulomb                     :     -14419.3465626    
 Coulomb potential           :     -11405.9207207    
 nuclear-nuclear             :     -713.335150963    
 electron-nuclear            :     -16006.1021025    
 Hartree                     :      2300.09069090    
 Madelung                    :     -8716.38620223    
 xc potential                :     -306.783994456    
 exchange                    :     -227.065027223    
 correlation                 :     -4.11394567654    
 total energy                :     -7200.73974924    
 
Density of states at Fermi energy :    64.69673204    
 (states/Hartree/unit cell)
 
Estimated indirect band gap :   0.1572409991E-03
 from k-point    295 to k-point    293
Estimated direct band gap   :   0.2624025986E-02
 at k-point    293
 
Charges :
 core                        :    56.00000000    
 valence                     :    24.00000000    
 interstitial                :    4.639382719    
 muffin-tins (core leakage)
  species :    1 (Zr)
   atom    1                 :    37.68030864     (  0.5945599195E-05)
   atom    2                 :    37.68030864     (  0.5945599195E-05)
 total in muffin-tins        :    75.36061728    
 total calculated charge     :    79.99994946    
 total charge                :    80.00000000    
 error                       :   0.5053527575E-04
 
RMS change in Kohn-Sham potential (target) :   0.2820808792E-03 (   10.00000000    )
Absolute change in total energy (target)   :   0.1000535121E-07 (  0.1000000000E-07)
 
Time (CPU seconds) :      2344.54
 
+--------------------+
| Loop number :   36 |
+--------------------+
 
Energies :
 Fermi                       :     0.395538226901    
 sum of eigenvalues          :     -4262.91892893    
 electron kinetic            :      7449.78578626    
 core electron kinetic       :      7311.69749525    
 Coulomb                     :     -14419.3465626    
 Coulomb potential           :     -11405.9207207    
 nuclear-nuclear             :     -713.335150963    
 electron-nuclear            :     -16006.1021025    
 Hartree                     :      2300.09069090    
 Madelung                    :     -8716.38620223    
 xc potential                :     -306.783994456    
 exchange                    :     -227.065027221    
 correlation                 :     -4.11394567723    
 total energy                :     -7200.73974923    
 
Density of states at Fermi energy :    64.69672685    
 (states/Hartree/unit cell)
 
Estimated indirect band gap :   0.1572411970E-03
 from k-point    295 to k-point    293
Estimated direct band gap   :   0.2624025969E-02
 at k-point    293
 
Charges :
 core                        :    56.00000000    
 valence                     :    24.00000000    
 interstitial                :    4.639382719    
 muffin-tins (core leakage)
  species :    1 (Zr)
   atom    1                 :    37.68030864     (  0.5945532887E-05)
   atom    2                 :    37.68030864     (  0.5945532887E-05)
 total in muffin-tins        :    75.36061728    
 total calculated charge     :    79.99994946    
 total charge                :    80.00000000    
 error                       :   0.5053520684E-04
 
Wrote STATE.OUT
 
RMS change in Kohn-Sham potential (target) :   0.1662680416E-03 (   10.00000000    )
Absolute change in total energy (target)   :   0.7279595593E-08 (  0.1000000000E-07)
 
Convergence targets achieved
 
Time (CPU seconds) :      2411.15
 
+--------------------+
| Loop number :   37 |
+--------------------+
 
Energies :
 Fermi                       :     0.395538226761    
 sum of eigenvalues          :     -4262.91892892    
 electron kinetic            :      7449.78578641    
 core electron kinetic       :      7311.69749539    
 Coulomb                     :     -14419.3465627    
 Coulomb potential           :     -11405.9207209    
 nuclear-nuclear             :     -713.335150963    
 electron-nuclear            :     -16006.1021025    
 Hartree                     :      2300.09069083    
 Madelung                    :     -8716.38620223    
 xc potential                :     -306.783994457    
 exchange                    :     -227.065027223    
 correlation                 :     -4.11394567704    
 total energy                :     -7200.73974916    
 
Density of states at Fermi energy :    64.69672456    
 (states/Hartree/unit cell)
 
Estimated indirect band gap :   0.1572412768E-03
 from k-point    295 to k-point    293
Estimated direct band gap   :   0.2624025976E-02
 at k-point    293
 
Charges :
 core                        :    56.00000000    
 valence                     :    24.00000000    
 interstitial                :    4.639382719    
 muffin-tins (core leakage)
  species :    1 (Zr)
   atom    1                 :    37.68030864     (  0.5945586324E-05)
   atom    2                 :    37.68030864     (  0.5945586324E-05)
 total in muffin-tins        :    75.36061728    
 total calculated charge     :    79.99994946    
 total charge                :    80.00000000    
 error                       :   0.5053529755E-04
 
+------------------------------+
| Self-consistent loop stopped |
+------------------------------+
 
Wrote STATE.OUT
 
Timings (CPU seconds) :
 initialisation                        :         1.12
 Hamiltonian and overlap matrix set up :       753.09
 first-variational eigenvalue equation :       932.85
 charge density calculation            :       234.41
 potential calculation                 :       554.25
 total                                 :      2475.73
 
+----------------------------+
| Elk version 8.3.15 stopped |
+----------------------------+
