 
+----------------------------+
| Real-space lattice vectors |
+----------------------------+
 
vector a1 :    5.256463753      -3.034820763       0.000000000    
vector a2 :    0.000000000       6.069641526       0.000000000    
vector a3 :    0.000000000       0.000000000       10.06500205    
 
Stored column-wise as a matrix :
   5.256463753       0.000000000       0.000000000    
  -3.034820763       6.069641526       0.000000000    
   0.000000000       0.000000000       10.06500205    
 
Inverse of matrix :
  0.1902419663       0.000000000       0.000000000    
  0.9512098311E-01  0.1647543756       0.000000000    
   0.000000000       0.000000000      0.9935417751E-01
 
Unit cell volume :    321.1223874    
 
 
+----------------------------------+
| Reciprocal-space lattice vectors |
+----------------------------------+
 
vector b1 :    1.195325527       0.000000000       0.000000000    
vector b2 :   0.5976627635       1.035182272       0.000000000    
vector b3 :    0.000000000       0.000000000      0.6242607083    
 
Stored column-wise as a matrix :
   1.195325527      0.5976627635       0.000000000    
   0.000000000       1.035182272       0.000000000    
   0.000000000       0.000000000      0.6242607083    
 
Inverse of matrix :
  0.8365921895     -0.4830067258       0.000000000    
   0.000000000      0.9660134517       0.000000000    
   0.000000000       0.000000000       1.601894828    
 
Brillouin zone volume :   0.7724475875    
