   297 : nkpt; k-point, vkl, wkpt, nmat below
     1   0.000000000       0.000000000       0.000000000      0.2035416243E-03     555
     2  0.5882352941E-01   0.000000000       0.000000000      0.1221249746E-02     555
     3  0.1176470588       0.000000000       0.000000000      0.1221249746E-02     553
     4  0.1764705882       0.000000000       0.000000000      0.1221249746E-02     547
     5  0.2352941176       0.000000000       0.000000000      0.1221249746E-02     543
     6  0.2941176471       0.000000000       0.000000000      0.1221249746E-02     548
     7  0.3529411765       0.000000000       0.000000000      0.1221249746E-02     556
     8  0.4117647059       0.000000000       0.000000000      0.1221249746E-02     558
     9  0.4705882353       0.000000000       0.000000000      0.1221249746E-02     556
    10  0.5882352941E-01  0.5882352941E-01   0.000000000      0.1221249746E-02     551
    11  0.1176470588      0.5882352941E-01   0.000000000      0.2442499491E-02     549
    12  0.1764705882      0.5882352941E-01   0.000000000      0.2442499491E-02     543
    13  0.2352941176      0.5882352941E-01   0.000000000      0.2442499491E-02     549
    14  0.2941176471      0.5882352941E-01   0.000000000      0.2442499491E-02     550
    15  0.3529411765      0.5882352941E-01   0.000000000      0.2442499491E-02     554
    16  0.4117647059      0.5882352941E-01   0.000000000      0.2442499491E-02     557
    17  0.4705882353      0.5882352941E-01   0.000000000      0.1221249746E-02     554
    18  0.1176470588      0.1176470588       0.000000000      0.1221249746E-02     549
    19  0.1764705882      0.1176470588       0.000000000      0.2442499491E-02     550
    20  0.2352941176      0.1176470588       0.000000000      0.2442499491E-02     548
    21  0.2941176471      0.1176470588       0.000000000      0.2442499491E-02     546
    22  0.3529411765      0.1176470588       0.000000000      0.2442499491E-02     553
    23  0.4117647059      0.1176470588       0.000000000      0.2442499491E-02     552
    24  0.1764705882      0.1764705882       0.000000000      0.1221249746E-02     546
    25  0.2352941176      0.1764705882       0.000000000      0.2442499491E-02     548
    26  0.2941176471      0.1764705882       0.000000000      0.2442499491E-02     549
    27  0.3529411765      0.1764705882       0.000000000      0.2442499491E-02     550
    28  0.4117647059      0.1764705882       0.000000000      0.1221249746E-02     556
    29  0.2352941176      0.2352941176       0.000000000      0.1221249746E-02     554
    30  0.2941176471      0.2352941176       0.000000000      0.2442499491E-02     551
    31  0.3529411765      0.2352941176       0.000000000      0.2442499491E-02     554
    32  0.2941176471      0.2941176471       0.000000000      0.1221249746E-02     548
    33  0.3529411765      0.2941176471       0.000000000      0.1221249746E-02     546
    34   0.000000000       0.000000000      0.5882352941E-01  0.4070832485E-03     555
    35  0.5882352941E-01   0.000000000      0.5882352941E-01  0.2442499491E-02     554
    36  0.1176470588       0.000000000      0.5882352941E-01  0.2442499491E-02     550
    37  0.1764705882       0.000000000      0.5882352941E-01  0.2442499491E-02     547
    38  0.2352941176       0.000000000      0.5882352941E-01  0.2442499491E-02     545
    39  0.2941176471       0.000000000      0.5882352941E-01  0.2442499491E-02     549
    40  0.3529411765       0.000000000      0.5882352941E-01  0.2442499491E-02     555
    41  0.4117647059       0.000000000      0.5882352941E-01  0.2442499491E-02     554
    42  0.4705882353       0.000000000      0.5882352941E-01  0.2442499491E-02     555
    43  0.5882352941E-01  0.5882352941E-01  0.5882352941E-01  0.2442499491E-02     550
    44  0.1176470588      0.5882352941E-01  0.5882352941E-01  0.4884998982E-02     551
    45  0.1764705882      0.5882352941E-01  0.5882352941E-01  0.4884998982E-02     549
    46  0.2352941176      0.5882352941E-01  0.5882352941E-01  0.4884998982E-02     548
    47  0.2941176471      0.5882352941E-01  0.5882352941E-01  0.4884998982E-02     549
    48  0.3529411765      0.5882352941E-01  0.5882352941E-01  0.4884998982E-02     554
    49  0.4117647059      0.5882352941E-01  0.5882352941E-01  0.4884998982E-02     552
    50  0.4705882353      0.5882352941E-01  0.5882352941E-01  0.2442499491E-02     554
    51  0.1176470588      0.1176470588      0.5882352941E-01  0.2442499491E-02     549
    52  0.1764705882      0.1176470588      0.5882352941E-01  0.4884998982E-02     551
    53  0.2352941176      0.1176470588      0.5882352941E-01  0.4884998982E-02     548
    54  0.2941176471      0.1176470588      0.5882352941E-01  0.4884998982E-02     549
    55  0.3529411765      0.1176470588      0.5882352941E-01  0.4884998982E-02     553
    56  0.4117647059      0.1176470588      0.5882352941E-01  0.4884998982E-02     552
    57  0.1764705882      0.1764705882      0.5882352941E-01  0.2442499491E-02     548
    58  0.2352941176      0.1764705882      0.5882352941E-01  0.4884998982E-02     547
    59  0.2941176471      0.1764705882      0.5882352941E-01  0.4884998982E-02     550
    60  0.3529411765      0.1764705882      0.5882352941E-01  0.4884998982E-02     553
    61  0.4117647059      0.1764705882      0.5882352941E-01  0.2442499491E-02     554
    62  0.2352941176      0.2352941176      0.5882352941E-01  0.2442499491E-02     552
    63  0.2941176471      0.2352941176      0.5882352941E-01  0.4884998982E-02     551
    64  0.3529411765      0.2352941176      0.5882352941E-01  0.4884998982E-02     553
    65  0.2941176471      0.2941176471      0.5882352941E-01  0.2442499491E-02     551
    66  0.3529411765      0.2941176471      0.5882352941E-01  0.2442499491E-02     545
    67   0.000000000       0.000000000      0.1176470588      0.4070832485E-03     554
    68  0.5882352941E-01   0.000000000      0.1176470588      0.2442499491E-02     551
    69  0.1176470588       0.000000000      0.1176470588      0.2442499491E-02     549
    70  0.1764705882       0.000000000      0.1176470588      0.2442499491E-02     551
    71  0.2352941176       0.000000000      0.1176470588      0.2442499491E-02     548
    72  0.2941176471       0.000000000      0.1176470588      0.2442499491E-02     548
    73  0.3529411765       0.000000000      0.1176470588      0.2442499491E-02     550
    74  0.4117647059       0.000000000      0.1176470588      0.2442499491E-02     551
    75  0.4705882353       0.000000000      0.1176470588      0.2442499491E-02     551
    76  0.5882352941E-01  0.5882352941E-01  0.1176470588      0.2442499491E-02     549
    77  0.1176470588      0.5882352941E-01  0.1176470588      0.4884998982E-02     549
    78  0.1764705882      0.5882352941E-01  0.1176470588      0.4884998982E-02     548
    79  0.2352941176      0.5882352941E-01  0.1176470588      0.4884998982E-02     548
    80  0.2941176471      0.5882352941E-01  0.1176470588      0.4884998982E-02     550
    81  0.3529411765      0.5882352941E-01  0.1176470588      0.4884998982E-02     552
    82  0.4117647059      0.5882352941E-01  0.1176470588      0.4884998982E-02     555
    83  0.4705882353      0.5882352941E-01  0.1176470588      0.2442499491E-02     555
    84  0.1176470588      0.1176470588      0.1176470588      0.2442499491E-02     553
    85  0.1764705882      0.1176470588      0.1176470588      0.4884998982E-02     546
    86  0.2352941176      0.1176470588      0.1176470588      0.4884998982E-02     547
    87  0.2941176471      0.1176470588      0.1176470588      0.4884998982E-02     550
    88  0.3529411765      0.1176470588      0.1176470588      0.4884998982E-02     556
    89  0.4117647059      0.1176470588      0.1176470588      0.4884998982E-02     557
    90  0.1764705882      0.1764705882      0.1176470588      0.2442499491E-02     553
    91  0.2352941176      0.1764705882      0.1176470588      0.4884998982E-02     548
    92  0.2941176471      0.1764705882      0.1176470588      0.4884998982E-02     552
    93  0.3529411765      0.1764705882      0.1176470588      0.4884998982E-02     554
    94  0.4117647059      0.1764705882      0.1176470588      0.2442499491E-02     552
    95  0.2352941176      0.2352941176      0.1176470588      0.2442499491E-02     548
    96  0.2941176471      0.2352941176      0.1176470588      0.4884998982E-02     550
    97  0.3529411765      0.2352941176      0.1176470588      0.4884998982E-02     551
    98  0.2941176471      0.2941176471      0.1176470588      0.2442499491E-02     551
    99  0.3529411765      0.2941176471      0.1176470588      0.2442499491E-02     552
   100   0.000000000       0.000000000      0.1764705882      0.4070832485E-03     548
   101  0.5882352941E-01   0.000000000      0.1764705882      0.2442499491E-02     551
   102  0.1176470588       0.000000000      0.1764705882      0.2442499491E-02     552
   103  0.1764705882       0.000000000      0.1764705882      0.2442499491E-02     553
   104  0.2352941176       0.000000000      0.1764705882      0.2442499491E-02     550
   105  0.2941176471       0.000000000      0.1764705882      0.2442499491E-02     548
   106  0.3529411765       0.000000000      0.1764705882      0.2442499491E-02     552
   107  0.4117647059       0.000000000      0.1764705882      0.2442499491E-02     553
   108  0.4705882353       0.000000000      0.1764705882      0.2442499491E-02     551
   109  0.5882352941E-01  0.5882352941E-01  0.1764705882      0.2442499491E-02     553
   110  0.1176470588      0.5882352941E-01  0.1764705882      0.4884998982E-02     551
   111  0.1764705882      0.5882352941E-01  0.1764705882      0.4884998982E-02     551
   112  0.2352941176      0.5882352941E-01  0.1764705882      0.4884998982E-02     548
   113  0.2941176471      0.5882352941E-01  0.1764705882      0.4884998982E-02     548
   114  0.3529411765      0.5882352941E-01  0.1764705882      0.4884998982E-02     550
   115  0.4117647059      0.5882352941E-01  0.1764705882      0.4884998982E-02     554
   116  0.4705882353      0.5882352941E-01  0.1764705882      0.2442499491E-02     556
   117  0.1176470588      0.1176470588      0.1764705882      0.2442499491E-02     553
   118  0.1764705882      0.1176470588      0.1764705882      0.4884998982E-02     547
   119  0.2352941176      0.1176470588      0.1764705882      0.4884998982E-02     550
   120  0.2941176471      0.1176470588      0.1764705882      0.4884998982E-02     552
   121  0.3529411765      0.1176470588      0.1764705882      0.4884998982E-02     553
   122  0.4117647059      0.1176470588      0.1764705882      0.4884998982E-02     554
   123  0.1764705882      0.1764705882      0.1764705882      0.2442499491E-02     551
   124  0.2352941176      0.1764705882      0.1764705882      0.4884998982E-02     550
   125  0.2941176471      0.1764705882      0.1764705882      0.4884998982E-02     552
   126  0.3529411765      0.1764705882      0.1764705882      0.4884998982E-02     555
   127  0.4117647059      0.1764705882      0.1764705882      0.2442499491E-02     558
   128  0.2352941176      0.2352941176      0.1764705882      0.2442499491E-02     546
   129  0.2941176471      0.2352941176      0.1764705882      0.4884998982E-02     552
   130  0.3529411765      0.2352941176      0.1764705882      0.4884998982E-02     550
   131  0.2941176471      0.2941176471      0.1764705882      0.2442499491E-02     549
   132  0.3529411765      0.2941176471      0.1764705882      0.2442499491E-02     554
   133   0.000000000       0.000000000      0.2352941176      0.4070832485E-03     560
   134  0.5882352941E-01   0.000000000      0.2352941176      0.2442499491E-02     553
   135  0.1176470588       0.000000000      0.2352941176      0.2442499491E-02     553
   136  0.1764705882       0.000000000      0.2352941176      0.2442499491E-02     552
   137  0.2352941176       0.000000000      0.2352941176      0.2442499491E-02     549
   138  0.2941176471       0.000000000      0.2352941176      0.2442499491E-02     553
   139  0.3529411765       0.000000000      0.2352941176      0.2442499491E-02     551
   140  0.4117647059       0.000000000      0.2352941176      0.2442499491E-02     549
   141  0.4705882353       0.000000000      0.2352941176      0.2442499491E-02     552
   142  0.5882352941E-01  0.5882352941E-01  0.2352941176      0.2442499491E-02     557
   143  0.1176470588      0.5882352941E-01  0.2352941176      0.4884998982E-02     554
   144  0.1764705882      0.5882352941E-01  0.2352941176      0.4884998982E-02     552
   145  0.2352941176      0.5882352941E-01  0.2352941176      0.4884998982E-02     550
   146  0.2941176471      0.5882352941E-01  0.2352941176      0.4884998982E-02     548
   147  0.3529411765      0.5882352941E-01  0.2352941176      0.4884998982E-02     549
   148  0.4117647059      0.5882352941E-01  0.2352941176      0.4884998982E-02     553
   149  0.4705882353      0.5882352941E-01  0.2352941176      0.2442499491E-02     555
   150  0.1176470588      0.1176470588      0.2352941176      0.2442499491E-02     555
   151  0.1764705882      0.1176470588      0.2352941176      0.4884998982E-02     551
   152  0.2352941176      0.1176470588      0.2352941176      0.4884998982E-02     548
   153  0.2941176471      0.1176470588      0.2352941176      0.4884998982E-02     549
   154  0.3529411765      0.1176470588      0.2352941176      0.4884998982E-02     553
   155  0.4117647059      0.1176470588      0.2352941176      0.4884998982E-02     554
   156  0.1764705882      0.1764705882      0.2352941176      0.2442499491E-02     547
   157  0.2352941176      0.1764705882      0.2352941176      0.4884998982E-02     550
   158  0.2941176471      0.1764705882      0.2352941176      0.4884998982E-02     551
   159  0.3529411765      0.1764705882      0.2352941176      0.4884998982E-02     552
   160  0.4117647059      0.1764705882      0.2352941176      0.2442499491E-02     558
   161  0.2352941176      0.2352941176      0.2352941176      0.2442499491E-02     548
   162  0.2941176471      0.2352941176      0.2352941176      0.4884998982E-02     551
   163  0.3529411765      0.2352941176      0.2352941176      0.4884998982E-02     556
   164  0.2941176471      0.2941176471      0.2352941176      0.2442499491E-02     549
   165  0.3529411765      0.2941176471      0.2352941176      0.2442499491E-02     553
   166   0.000000000       0.000000000      0.2941176471      0.4070832485E-03     560
   167  0.5882352941E-01   0.000000000      0.2941176471      0.2442499491E-02     557
   168  0.1176470588       0.000000000      0.2941176471      0.2442499491E-02     554
   169  0.1764705882       0.000000000      0.2941176471      0.2442499491E-02     554
   170  0.2352941176       0.000000000      0.2941176471      0.2442499491E-02     553
   171  0.2941176471       0.000000000      0.2941176471      0.2442499491E-02     553
   172  0.3529411765       0.000000000      0.2941176471      0.2442499491E-02     548
   173  0.4117647059       0.000000000      0.2941176471      0.2442499491E-02     549
   174  0.4705882353       0.000000000      0.2941176471      0.2442499491E-02     550
   175  0.5882352941E-01  0.5882352941E-01  0.2941176471      0.2442499491E-02     556
   176  0.1176470588      0.5882352941E-01  0.2941176471      0.4884998982E-02     555
   177  0.1764705882      0.5882352941E-01  0.2941176471      0.4884998982E-02     553
   178  0.2352941176      0.5882352941E-01  0.2941176471      0.4884998982E-02     551
   179  0.2941176471      0.5882352941E-01  0.2941176471      0.4884998982E-02     551
   180  0.3529411765      0.5882352941E-01  0.2941176471      0.4884998982E-02     548
   181  0.4117647059      0.5882352941E-01  0.2941176471      0.4884998982E-02     554
   182  0.4705882353      0.5882352941E-01  0.2941176471      0.2442499491E-02     551
   183  0.1176470588      0.1176470588      0.2941176471      0.2442499491E-02     551
   184  0.1764705882      0.1176470588      0.2941176471      0.4884998982E-02     553
   185  0.2352941176      0.1176470588      0.2941176471      0.4884998982E-02     550
   186  0.2941176471      0.1176470588      0.2941176471      0.4884998982E-02     548
   187  0.3529411765      0.1176470588      0.2941176471      0.4884998982E-02     550
   188  0.4117647059      0.1176470588      0.2941176471      0.4884998982E-02     555
   189  0.1764705882      0.1764705882      0.2941176471      0.2442499491E-02     550
   190  0.2352941176      0.1764705882      0.2941176471      0.4884998982E-02     548
   191  0.2941176471      0.1764705882      0.2941176471      0.4884998982E-02     551
   192  0.3529411765      0.1764705882      0.2941176471      0.4884998982E-02     551
   193  0.4117647059      0.1764705882      0.2941176471      0.2442499491E-02     554
   194  0.2352941176      0.2352941176      0.2941176471      0.2442499491E-02     552
   195  0.2941176471      0.2352941176      0.2941176471      0.4884998982E-02     554
   196  0.3529411765      0.2352941176      0.2941176471      0.4884998982E-02     556
   197  0.2941176471      0.2941176471      0.2941176471      0.2442499491E-02     553
   198  0.3529411765      0.2941176471      0.2941176471      0.2442499491E-02     556
   199   0.000000000       0.000000000      0.3529411765      0.4070832485E-03     554
   200  0.5882352941E-01   0.000000000      0.3529411765      0.2442499491E-02     559
   201  0.1176470588       0.000000000      0.3529411765      0.2442499491E-02     557
   202  0.1764705882       0.000000000      0.3529411765      0.2442499491E-02     557
   203  0.2352941176       0.000000000      0.3529411765      0.2442499491E-02     552
   204  0.2941176471       0.000000000      0.3529411765      0.2442499491E-02     552
   205  0.3529411765       0.000000000      0.3529411765      0.2442499491E-02     548
   206  0.4117647059       0.000000000      0.3529411765      0.2442499491E-02     551
   207  0.4705882353       0.000000000      0.3529411765      0.2442499491E-02     548
   208  0.5882352941E-01  0.5882352941E-01  0.3529411765      0.2442499491E-02     558
   209  0.1176470588      0.5882352941E-01  0.3529411765      0.4884998982E-02     556
   210  0.1764705882      0.5882352941E-01  0.3529411765      0.4884998982E-02     555
   211  0.2352941176      0.5882352941E-01  0.3529411765      0.4884998982E-02     553
   212  0.2941176471      0.5882352941E-01  0.3529411765      0.4884998982E-02     551
   213  0.3529411765      0.5882352941E-01  0.3529411765      0.4884998982E-02     549
   214  0.4117647059      0.5882352941E-01  0.3529411765      0.4884998982E-02     550
   215  0.4705882353      0.5882352941E-01  0.3529411765      0.2442499491E-02     551
   216  0.1176470588      0.1176470588      0.3529411765      0.2442499491E-02     553
   217  0.1764705882      0.1176470588      0.3529411765      0.4884998982E-02     552
   218  0.2352941176      0.1176470588      0.3529411765      0.4884998982E-02     548
   219  0.2941176471      0.1176470588      0.3529411765      0.4884998982E-02     549
   220  0.3529411765      0.1176470588      0.3529411765      0.4884998982E-02     550
   221  0.4117647059      0.1176470588      0.3529411765      0.4884998982E-02     555
   222  0.1764705882      0.1764705882      0.3529411765      0.2442499491E-02     546
   223  0.2352941176      0.1764705882      0.3529411765      0.4884998982E-02     546
   224  0.2941176471      0.1764705882      0.3529411765      0.4884998982E-02     551
   225  0.3529411765      0.1764705882      0.3529411765      0.4884998982E-02     554
   226  0.4117647059      0.1764705882      0.3529411765      0.2442499491E-02     554
   227  0.2352941176      0.2352941176      0.3529411765      0.2442499491E-02     550
   228  0.2941176471      0.2352941176      0.3529411765      0.4884998982E-02     554
   229  0.3529411765      0.2352941176      0.3529411765      0.4884998982E-02     558
   230  0.2941176471      0.2941176471      0.3529411765      0.2442499491E-02     555
   231  0.3529411765      0.2941176471      0.3529411765      0.2442499491E-02     558
   232   0.000000000       0.000000000      0.4117647059      0.4070832485E-03     554
   233  0.5882352941E-01   0.000000000      0.4117647059      0.2442499491E-02     557
   234  0.1176470588       0.000000000      0.4117647059      0.2442499491E-02     558
   235  0.1764705882       0.000000000      0.4117647059      0.2442499491E-02     559
   236  0.2352941176       0.000000000      0.4117647059      0.2442499491E-02     555
   237  0.2941176471       0.000000000      0.4117647059      0.2442499491E-02     554
   238  0.3529411765       0.000000000      0.4117647059      0.2442499491E-02     550
   239  0.4117647059       0.000000000      0.4117647059      0.2442499491E-02     555
   240  0.4705882353       0.000000000      0.4117647059      0.2442499491E-02     549
   241  0.5882352941E-01  0.5882352941E-01  0.4117647059      0.2442499491E-02     560
   242  0.1176470588      0.5882352941E-01  0.4117647059      0.4884998982E-02     557
   243  0.1764705882      0.5882352941E-01  0.4117647059      0.4884998982E-02     554
   244  0.2352941176      0.5882352941E-01  0.4117647059      0.4884998982E-02     554
   245  0.2941176471      0.5882352941E-01  0.4117647059      0.4884998982E-02     552
   246  0.3529411765      0.5882352941E-01  0.4117647059      0.4884998982E-02     550
   247  0.4117647059      0.5882352941E-01  0.4117647059      0.4884998982E-02     551
   248  0.4705882353      0.5882352941E-01  0.4117647059      0.2442499491E-02     549
   249  0.1176470588      0.1176470588      0.4117647059      0.2442499491E-02     552
   250  0.1764705882      0.1176470588      0.4117647059      0.4884998982E-02     552
   251  0.2352941176      0.1176470588      0.4117647059      0.4884998982E-02     547
   252  0.2941176471      0.1176470588      0.4117647059      0.4884998982E-02     549
   253  0.3529411765      0.1176470588      0.4117647059      0.4884998982E-02     549
   254  0.4117647059      0.1176470588      0.4117647059      0.4884998982E-02     557
   255  0.1764705882      0.1764705882      0.4117647059      0.2442499491E-02     547
   256  0.2352941176      0.1764705882      0.4117647059      0.4884998982E-02     546
   257  0.2941176471      0.1764705882      0.4117647059      0.4884998982E-02     549
   258  0.3529411765      0.1764705882      0.4117647059      0.4884998982E-02     557
   259  0.4117647059      0.1764705882      0.4117647059      0.2442499491E-02     554
   260  0.2352941176      0.2352941176      0.4117647059      0.2442499491E-02     550
   261  0.2941176471      0.2352941176      0.4117647059      0.4884998982E-02     552
   262  0.3529411765      0.2352941176      0.4117647059      0.4884998982E-02     557
   263  0.2941176471      0.2941176471      0.4117647059      0.2442499491E-02     553
   264  0.3529411765      0.2941176471      0.4117647059      0.2442499491E-02     556
   265   0.000000000       0.000000000      0.4705882353      0.4070832485E-03     554
   266  0.5882352941E-01   0.000000000      0.4705882353      0.2442499491E-02     558
   267  0.1176470588       0.000000000      0.4705882353      0.2442499491E-02     560
   268  0.1764705882       0.000000000      0.4705882353      0.2442499491E-02     557
   269  0.2352941176       0.000000000      0.4705882353      0.2442499491E-02     554
   270  0.2941176471       0.000000000      0.4705882353      0.2442499491E-02     554
   271  0.3529411765       0.000000000      0.4705882353      0.2442499491E-02     549
   272  0.4117647059       0.000000000      0.4705882353      0.2442499491E-02     553
   273  0.4705882353       0.000000000      0.4705882353      0.2442499491E-02     550
   274  0.5882352941E-01  0.5882352941E-01  0.4705882353      0.2442499491E-02     558
   275  0.1176470588      0.5882352941E-01  0.4705882353      0.4884998982E-02     556
   276  0.1764705882      0.5882352941E-01  0.4705882353      0.4884998982E-02     553
   277  0.2352941176      0.5882352941E-01  0.4705882353      0.4884998982E-02     553
   278  0.2941176471      0.5882352941E-01  0.4705882353      0.4884998982E-02     551
   279  0.3529411765      0.5882352941E-01  0.4705882353      0.4884998982E-02     548
   280  0.4117647059      0.5882352941E-01  0.4705882353      0.4884998982E-02     550
   281  0.4705882353      0.5882352941E-01  0.4705882353      0.2442499491E-02     553
   282  0.1176470588      0.1176470588      0.4705882353      0.2442499491E-02     552
   283  0.1764705882      0.1176470588      0.4705882353      0.4884998982E-02     550
   284  0.2352941176      0.1176470588      0.4705882353      0.4884998982E-02     549
   285  0.2941176471      0.1176470588      0.4705882353      0.4884998982E-02     551
   286  0.3529411765      0.1176470588      0.4705882353      0.4884998982E-02     551
   287  0.4117647059      0.1176470588      0.4705882353      0.4884998982E-02     555
   288  0.1764705882      0.1764705882      0.4705882353      0.2442499491E-02     549
   289  0.2352941176      0.1764705882      0.4705882353      0.4884998982E-02     547
   290  0.2941176471      0.1764705882      0.4705882353      0.4884998982E-02     551
   291  0.3529411765      0.1764705882      0.4705882353      0.4884998982E-02     556
   292  0.4117647059      0.1764705882      0.4705882353      0.2442499491E-02     558
   293  0.2352941176      0.2352941176      0.4705882353      0.2442499491E-02     552
   294  0.2941176471      0.2352941176      0.4705882353      0.4884998982E-02     552
   295  0.3529411765      0.2352941176      0.4705882353      0.4884998982E-02     555
   296  0.2941176471      0.2941176471      0.4705882353      0.2442499491E-02     551
   297  0.3529411765      0.2941176471      0.4705882353      0.2442499491E-02     556
