   165 : nkpt; k-point, vkl, wkpt, nmat below
     1   0.000000000       0.000000000       0.000000000      0.2035416243E-03     308
     2  0.5882352941E-01   0.000000000       0.000000000      0.2442499491E-02     302
     3  0.1176470588       0.000000000       0.000000000      0.2442499491E-02     296
     4  0.1764705882       0.000000000       0.000000000      0.2442499491E-02     302
     5  0.2352941176       0.000000000       0.000000000      0.2442499491E-02     297
     6  0.2941176471       0.000000000       0.000000000      0.2442499491E-02     297
     7  0.3529411765       0.000000000       0.000000000      0.2442499491E-02     293
     8  0.4117647059       0.000000000       0.000000000      0.2442499491E-02     293
     9  0.4705882353       0.000000000       0.000000000      0.2442499491E-02     295
    10  0.5882352941E-01  0.5882352941E-01   0.000000000      0.4884998982E-02     300
    11  0.1176470588      0.5882352941E-01   0.000000000      0.9769997965E-02     302
    12  0.1764705882      0.5882352941E-01   0.000000000      0.9769997965E-02     298
    13  0.2352941176      0.5882352941E-01   0.000000000      0.9769997965E-02     297
    14  0.2941176471      0.5882352941E-01   0.000000000      0.9769997965E-02     295
    15  0.3529411765      0.5882352941E-01   0.000000000      0.9769997965E-02     295
    16  0.4117647059      0.5882352941E-01   0.000000000      0.9769997965E-02     295
    17  0.4705882353      0.5882352941E-01   0.000000000      0.4884998982E-02     297
    18  0.1176470588      0.1176470588       0.000000000      0.4884998982E-02     300
    19  0.1764705882      0.1176470588       0.000000000      0.9769997965E-02     294
    20  0.2352941176      0.1176470588       0.000000000      0.9769997965E-02     298
    21  0.2941176471      0.1176470588       0.000000000      0.9769997965E-02     296
    22  0.3529411765      0.1176470588       0.000000000      0.9769997965E-02     297
    23  0.4117647059      0.1176470588       0.000000000      0.9769997965E-02     298
    24  0.1764705882      0.1764705882       0.000000000      0.4884998982E-02     297
    25  0.2352941176      0.1764705882       0.000000000      0.9769997965E-02     296
    26  0.2941176471      0.1764705882       0.000000000      0.9769997965E-02     297
    27  0.3529411765      0.1764705882       0.000000000      0.9769997965E-02     296
    28  0.4117647059      0.1764705882       0.000000000      0.4884998982E-02     302
    29  0.2352941176      0.2352941176       0.000000000      0.4884998982E-02     293
    30  0.2941176471      0.2352941176       0.000000000      0.9769997965E-02     298
    31  0.3529411765      0.2352941176       0.000000000      0.9769997965E-02     302
    32  0.2941176471      0.2941176471       0.000000000      0.4884998982E-02     302
    33  0.3529411765      0.2941176471       0.000000000      0.4884998982E-02     296
    34  0.5882352941E-01  0.5882352941E-01  0.5882352941E-01  0.1628332994E-02     299
    35  0.1176470588      0.5882352941E-01  0.5882352941E-01  0.4884998982E-02     301
    36  0.1764705882      0.5882352941E-01  0.5882352941E-01  0.4884998982E-02     299
    37  0.2352941176      0.5882352941E-01  0.5882352941E-01  0.4884998982E-02     297
    38  0.2941176471      0.5882352941E-01  0.5882352941E-01  0.4884998982E-02     294
    39  0.3529411765      0.5882352941E-01  0.5882352941E-01  0.4884998982E-02     295
    40  0.4117647059      0.5882352941E-01  0.5882352941E-01  0.4884998982E-02     297
    41  0.9411764706      0.5882352941E-01  0.5882352941E-01  0.1221249746E-02     300
    42  0.1176470588      0.1176470588      0.5882352941E-01  0.4884998982E-02     294
    43  0.1764705882      0.1176470588      0.5882352941E-01  0.9769997965E-02     294
    44  0.2352941176      0.1176470588      0.5882352941E-01  0.9769997965E-02     298
    45  0.2941176471      0.1176470588      0.5882352941E-01  0.9769997965E-02     294
    46  0.3529411765      0.1176470588      0.5882352941E-01  0.9769997965E-02     298
    47  0.4117647059      0.1176470588      0.5882352941E-01  0.4884998982E-02     300
    48  0.8823529412      0.1176470588      0.5882352941E-01  0.4884998982E-02     299
    49  0.1764705882      0.1764705882      0.5882352941E-01  0.4884998982E-02     294
    50  0.2352941176      0.1764705882      0.5882352941E-01  0.9769997965E-02     295
    51  0.2941176471      0.1764705882      0.5882352941E-01  0.9769997965E-02     296
    52  0.3529411765      0.1764705882      0.5882352941E-01  0.9769997965E-02     299
    53  0.8235294118      0.1764705882      0.5882352941E-01  0.4884998982E-02     301
    54  0.8823529412      0.1764705882      0.5882352941E-01  0.4884998982E-02     300
    55  0.2352941176      0.2352941176      0.5882352941E-01  0.4884998982E-02     295
    56  0.2941176471      0.2352941176      0.5882352941E-01  0.9769997965E-02     298
    57  0.3529411765      0.2352941176      0.5882352941E-01  0.4884998982E-02     298
    58  0.7647058824      0.2352941176      0.5882352941E-01  0.4884998982E-02     299
    59  0.8235294118      0.2352941176      0.5882352941E-01  0.9769997965E-02     298
    60  0.2941176471      0.2941176471      0.5882352941E-01  0.4884998982E-02     302
    61  0.7058823529      0.2941176471      0.5882352941E-01  0.4884998982E-02     295
    62  0.7647058824      0.2941176471      0.5882352941E-01  0.9769997965E-02     296
    63  0.8235294118      0.2941176471      0.5882352941E-01  0.4884998982E-02     297
    64  0.6470588235      0.3529411765      0.5882352941E-01  0.4884998982E-02     297
    65  0.7058823529      0.3529411765      0.5882352941E-01  0.9769997965E-02     295
    66  0.7647058824      0.3529411765      0.5882352941E-01  0.9769997965E-02     296
    67  0.5882352941      0.4117647059      0.5882352941E-01  0.4884998982E-02     295
    68  0.6470588235      0.4117647059      0.5882352941E-01  0.9769997965E-02     297
    69  0.7058823529      0.4117647059      0.5882352941E-01  0.9769997965E-02     297
    70  0.7647058824      0.4117647059      0.5882352941E-01  0.4884998982E-02     297
    71  0.5294117647      0.4705882353      0.5882352941E-01  0.4884998982E-02     294
    72  0.5882352941      0.4705882353      0.5882352941E-01  0.9769997965E-02     298
    73  0.6470588235      0.4705882353      0.5882352941E-01  0.9769997965E-02     296
    74  0.7058823529      0.4705882353      0.5882352941E-01  0.9769997965E-02     295
    75  0.5294117647      0.5294117647      0.5882352941E-01  0.4884998982E-02     298
    76  0.5882352941      0.5294117647      0.5882352941E-01  0.9769997965E-02     299
    77  0.6470588235      0.5294117647      0.5882352941E-01  0.9769997965E-02     300
    78  0.7058823529      0.5294117647      0.5882352941E-01  0.4884998982E-02     300
    79  0.5882352941      0.5882352941      0.5882352941E-01  0.4884998982E-02     300
    80  0.6470588235      0.5882352941      0.5882352941E-01  0.9769997965E-02     301
    81  0.6470588235      0.6470588235      0.5882352941E-01  0.1628332994E-02     304
    82  0.1176470588      0.1176470588      0.1176470588      0.1628332994E-02     296
    83  0.1764705882      0.1176470588      0.1176470588      0.4884998982E-02     295
    84  0.2352941176      0.1176470588      0.1176470588      0.4884998982E-02     297
    85  0.2941176471      0.1176470588      0.1176470588      0.4884998982E-02     297
    86  0.3529411765      0.1176470588      0.1176470588      0.4884998982E-02     295
    87  0.8823529412      0.1176470588      0.1176470588      0.1221249746E-02     300
    88  0.1764705882      0.1764705882      0.1176470588      0.4884998982E-02     293
    89  0.2352941176      0.1764705882      0.1176470588      0.9769997965E-02     293
    90  0.2941176471      0.1764705882      0.1176470588      0.9769997965E-02     298
    91  0.3529411765      0.1764705882      0.1176470588      0.4884998982E-02     299
    92  0.8235294118      0.1764705882      0.1176470588      0.4884998982E-02     296
    93  0.2352941176      0.2352941176      0.1176470588      0.4884998982E-02     296
    94  0.2941176471      0.2352941176      0.1176470588      0.9769997965E-02     300
    95  0.7647058824      0.2352941176      0.1176470588      0.4884998982E-02     297
    96  0.8235294118      0.2352941176      0.1176470588      0.4884998982E-02     297
    97  0.2941176471      0.2941176471      0.1176470588      0.1628332994E-02     299
    98  0.7058823529      0.2941176471      0.1176470588      0.4884998982E-02     295
    99  0.7647058824      0.2941176471      0.1176470588      0.9769997965E-02     300
   100  0.6470588235      0.3529411765      0.1176470588      0.4884998982E-02     296
   101  0.7058823529      0.3529411765      0.1176470588      0.9769997965E-02     297
   102  0.7647058824      0.3529411765      0.1176470588      0.4884998982E-02     294
   103  0.5882352941      0.4117647059      0.1176470588      0.4884998982E-02     296
   104  0.6470588235      0.4117647059      0.1176470588      0.9769997965E-02     295
   105  0.7058823529      0.4117647059      0.1176470588      0.9769997965E-02     294
   106  0.5294117647      0.4705882353      0.1176470588      0.4884998982E-02     297
   107  0.5882352941      0.4705882353      0.1176470588      0.9769997965E-02     297
   108  0.6470588235      0.4705882353      0.1176470588      0.9769997965E-02     298
   109  0.7058823529      0.4705882353      0.1176470588      0.4884998982E-02     300
   110  0.5294117647      0.5294117647      0.1176470588      0.4884998982E-02     304
   111  0.5882352941      0.5294117647      0.1176470588      0.9769997965E-02     304
   112  0.6470588235      0.5294117647      0.1176470588      0.9769997965E-02     301
   113  0.5882352941      0.5882352941      0.1176470588      0.4884998982E-02     302
   114  0.6470588235      0.5882352941      0.1176470588      0.4884998982E-02     306
   115  0.1764705882      0.1764705882      0.1764705882      0.1628332994E-02     293
   116  0.2352941176      0.1764705882      0.1764705882      0.4884998982E-02     297
   117  0.2941176471      0.1764705882      0.1764705882      0.4884998982E-02     297
   118  0.8235294118      0.1764705882      0.1764705882      0.1221249746E-02     304
   119  0.2352941176      0.2352941176      0.1764705882      0.4884998982E-02     297
   120  0.2941176471      0.2352941176      0.1764705882      0.4884998982E-02     295
   121  0.7647058824      0.2352941176      0.1764705882      0.4884998982E-02     299
   122  0.7058823529      0.2941176471      0.1764705882      0.4884998982E-02     300
   123  0.7647058824      0.2941176471      0.1764705882      0.4884998982E-02     298
   124  0.6470588235      0.3529411765      0.1764705882      0.4884998982E-02     297
   125  0.7058823529      0.3529411765      0.1764705882      0.9769997965E-02     300
   126  0.5882352941      0.4117647059      0.1764705882      0.4884998982E-02     302
   127  0.6470588235      0.4117647059      0.1764705882      0.9769997965E-02     298
   128  0.7058823529      0.4117647059      0.1764705882      0.4884998982E-02     301
   129  0.5294117647      0.4705882353      0.1764705882      0.4884998982E-02     302
   130  0.5882352941      0.4705882353      0.1764705882      0.9769997965E-02     304
   131  0.6470588235      0.4705882353      0.1764705882      0.9769997965E-02     304
   132  0.5294117647      0.5294117647      0.1764705882      0.4884998982E-02     307
   133  0.5882352941      0.5294117647      0.1764705882      0.9769997965E-02     304
   134  0.6470588235      0.5294117647      0.1764705882      0.4884998982E-02     306
   135  0.5882352941      0.5882352941      0.1764705882      0.4884998982E-02     307
   136  0.2352941176      0.2352941176      0.2352941176      0.1628332994E-02     293
   137  0.7647058824      0.2352941176      0.2352941176      0.1221249746E-02     300
   138  0.7058823529      0.2941176471      0.2352941176      0.4884998982E-02     301
   139  0.6470588235      0.3529411765      0.2352941176      0.4884998982E-02     300
   140  0.7058823529      0.3529411765      0.2352941176      0.4884998982E-02     302
   141  0.5882352941      0.4117647059      0.2352941176      0.4884998982E-02     304
   142  0.6470588235      0.4117647059      0.2352941176      0.9769997965E-02     302
   143  0.5294117647      0.4705882353      0.2352941176      0.4884998982E-02     305
   144  0.5882352941      0.4705882353      0.2352941176      0.9769997965E-02     306
   145  0.6470588235      0.4705882353      0.2352941176      0.4884998982E-02     306
   146  0.5294117647      0.5294117647      0.2352941176      0.4884998982E-02     309
   147  0.5882352941      0.5294117647      0.2352941176      0.9769997965E-02     306
   148  0.5882352941      0.5882352941      0.2352941176      0.1628332994E-02     307
   149  0.7058823529      0.2941176471      0.2941176471      0.1221249746E-02     299
   150  0.6470588235      0.3529411765      0.2941176471      0.4884998982E-02     307
   151  0.5882352941      0.4117647059      0.2941176471      0.4884998982E-02     305
   152  0.6470588235      0.4117647059      0.2941176471      0.4884998982E-02     304
   153  0.5294117647      0.4705882353      0.2941176471      0.4884998982E-02     307
   154  0.5882352941      0.4705882353      0.2941176471      0.9769997965E-02     304
   155  0.5294117647      0.5294117647      0.2941176471      0.4884998982E-02     309
   156  0.5882352941      0.5294117647      0.2941176471      0.4884998982E-02     306
   157  0.6470588235      0.3529411765      0.3529411765      0.1221249746E-02     303
   158  0.5882352941      0.4117647059      0.3529411765      0.4884998982E-02     305
   159  0.5294117647      0.4705882353      0.3529411765      0.4884998982E-02     307
   160  0.5882352941      0.4705882353      0.3529411765      0.4884998982E-02     305
   161  0.5294117647      0.5294117647      0.3529411765      0.4884998982E-02     303
   162  0.5882352941      0.4117647059      0.4117647059      0.1221249746E-02     303
   163  0.5294117647      0.4705882353      0.4117647059      0.4884998982E-02     307
   164  0.5294117647      0.5294117647      0.4117647059      0.1628332994E-02     301
   165  0.5294117647      0.4705882353      0.4705882353      0.1221249746E-02     295
