 
Species :    1 (Ag), atom :    1
 n =  1, l =  0, k =  1 :   -931.7473070    
 n =  2, l =  0, k =  1 :   -136.6485329    
 n =  2, l =  1, k =  1 :   -126.9673614    
 n =  2, l =  1, k =  2 :   -120.4944502    
 n =  3, l =  0, k =  1 :   -24.71763621    
 n =  3, l =  1, k =  1 :   -20.86760264    
 n =  3, l =  1, k =  2 :   -19.72383019    
 n =  3, l =  2, k =  2 :   -12.88808507    
 n =  3, l =  2, k =  3 :   -12.65891527    
