 
scale
 1.0
 
scale1
 1.0
 
scale2
 1.0
 
scale3
 1.0
 
avec
   4.536114635      -2.618927005       0.000000000    
   0.000000000       5.237854011       0.000000000    
   0.000000000       0.000000000       8.757888902    
 
atoms
   1                                    : nspecies
'Os.in'                                 : spfname
   2                                    : natoms; atpos, bfcmt below
    0.33333333    0.16666667    0.25000000    0.00000000  0.00000000  0.00000000
   -0.33333333   -0.16666667   -0.25000000    0.00000000  0.00000000  0.00000000
