 
Distance between is =    1 (Ru), ia =    1 and
 is =    1 (Ru), ia =    1 :    0.000000000    
 is =    1 (Ru), ia =    2 :    5.150890996    
 
Distance between is =    1 (Ru), ia =    2 and
 is =    1 (Ru), ia =    1 :    5.150890996    
 is =    1 (Ru), ia =    2 :    0.000000000    
