   5.461454082    
   2.751030928    
  0.9362825730    
  0.2448489115    
  0.5361134330E-01
  0.8194585287E-02
  0.3210352117E-02
  0.1193307684E-03
  0.4733042971E-04
  0.6253024578E-05
  0.3304021766E-05
  0.7252489008E-07
  0.4478731848E-07
  0.7126442775E-07
  0.7994895595E-07
  0.1012184569E-06
  0.9765305168E-08
  0.5514907265E-07
  0.3712651907E-07
