+----------------------------+
| Elk version 8.3.15 started |
+----------------------------+
 
Date (YYYY-MM-DD) : 2022-02-18
Time (hh:mm:ss)   : 23:16:48
 
All units are atomic (Hartree, Bohr, etc.)
 
+-------------------------------------------------+
| Ground-state run starting from atomic densities |
+-------------------------------------------------+
 
Lattice vectors :
   4.707119819      -2.717656895       0.000000000    
   0.000000000       5.435313789       0.000000000    
   0.000000000       0.000000000       8.338283238    
 
Reciprocal lattice vectors :
   1.334825870       0.000000000       0.000000000    
  0.6674129351       1.155993113       0.000000000    
   0.000000000       0.000000000      0.7535346459    
 
Unit cell volume      :    213.3322522    
Brillouin zone volume :    1.162741268    
 
Muffin-tin inner radius fraction :   0.1000000000E-01
 
Species :    1 (Ti)
 parameters loaded from : Ti.in
 name : titanium
 nuclear charge    :   -22.00000000    
 electronic charge :    22.00000000    
 atomic mass :    87256.20310    
 muffin-tin radius :    2.400000000    
 number of radial points in muffin-tin :   1000
 number on inner part of muffin-tin    :    716
 atomic positions (lattice), magnetic fields (Cartesian) :
   1 :   0.33333333  0.16666667  0.25000000    0.00000000  0.00000000  0.00000000
   2 :  -0.33333333 -0.16666667 -0.25000000    0.00000000  0.00000000  0.00000000
 
Total number of atoms per unit cell :    2
 
Spin treatment :
 spin-unpolarised
 
Number of Bravais lattice symmetries :   24
Number of crystal symmetries         :   24
Crystal has inversion symmetry
Real symmetric eigensolver will be used
 
k-point grid :     17    17    17
k-point offset :    0.000000000       0.000000000       0.000000000    
k-point set is reduced with full crystal symmetry group
Total number of k-points :      297
 
Muffin-tin radius times maximum |G+k| :    8.500000000    
 using gkmax = rgkmax / 2
Maximum |G+k| for APW functions       :    4.250000000    
Maximum (1/2)|G+k|²                   :    9.031250000    
Maximum |G| for potential and density :    34.00000000    
Constant for pseudocharge density :   20
Radial integration step length :    1
 
G-vector grid sizes :     60    60    96
Number of G-vectors :   141481
 
Maximum angular momentum used for
 APW functions                      :   10
 outer part of muffin-tin           :    8
 inner part of muffin-tin           :    1
 
Total nuclear charge    :   -44.00000000    
Total core charge       :    20.00000000    
Total valence charge    :    24.00000000    
Total excess charge     :    0.000000000    
Total electronic charge :    44.00000000    
 
Effective Wigner radius, rₛ :    1.049957558    
 
Number of empty states         :   40
Total number of valence states :   53
Total number of core states    :   20
 
Conduction state local-orbitals added automatically
Total number of local-orbitals :  242
 
Using Libxc version 05.01.05
Exchange-correlation functional :    100   493   494
 exchange: mgga_x_rscan; correlation: mgga_c_rscan
 
Smearing type :    1
 Methfessel-Paxton order 1, Phys. Rev. B 40, 3616 (1989)
Smearing width :   0.1000000000E-02
Effective electronic temperature (K) :    315.7750248    
 
Mixing type :    3
 Broyden mixing, J. Phys. A: Math. Gen. 17, L317 (1984)
 
Kohn-Sham potential initialised from atomic data
 
+------------------------------+
| Self-consistent loop started |
+------------------------------+
 
+--------------------+
| Loop number :    1 |
+--------------------+
 
Energies :
 Fermi                       :     0.185793736738    
 sum of eigenvalues          :     -1009.17314237    
 electron kinetic            :      1714.16991209    
 core electron kinetic       :      1592.40908597    
 Coulomb                     :     -3357.96845870    
 Coulomb potential           :     -2610.19059693    
 nuclear-nuclear             :     -237.164034529    
 electron-nuclear            :     -3631.41825141    
 Hartree                     :      510.613827241    
 Madelung                    :     -2052.87316023    
 xc potential                :     -113.152457541    
 exchange                    :     -83.8002775506    
 correlation                 :     -1.93711873091    
 total energy                :     -1729.53594288    
 
Density of states at Fermi energy :    39.54071015    
 (states/Hartree/unit cell)
 
Estimated indirect band gap :   0.8036346473E-03
 from k-point    266 to k-point    195
Estimated direct band gap   :   0.1522132780E-02
 at k-point    198
 
Charges :
 core                        :    20.00000000    
 valence                     :    24.00000000    
 interstitial                :    2.784438743    
 muffin-tins (core leakage)
  species :    1 (Ti)
   atom    1                 :    20.60778063     (  0.4451763402E-09)
   atom    2                 :    20.60778063     (  0.4451763402E-09)
 total in muffin-tins        :    41.21556126    
 total calculated charge     :    43.99996838    
 total charge                :    44.00000000    
 error                       :   0.3162213223E-04
 
Time (CPU seconds) :        71.24
 
+--------------------+
| Loop number :    2 |
+--------------------+
 
Energies :
 Fermi                       :     0.187919186529    
 sum of eigenvalues          :     -1008.98649438    
 electron kinetic            :      1714.35700008    
 core electron kinetic       :      1590.93125820    
 Coulomb                     :     -3357.83194438    
 Coulomb potential           :     -2610.20553480    
 nuclear-nuclear             :     -237.164034529    
 electron-nuclear            :     -3631.13028491    
 Hartree                     :      510.462375055    
 Madelung                    :     -2052.72917698    
 xc potential                :     -113.137959654    
 exchange                    :     -83.7899515770    
 correlation                 :     -1.93707051666    
 total energy                :     -1729.20196640    
 
Density of states at Fermi energy :    36.63702881    
 (states/Hartree/unit cell)
 
Estimated indirect band gap :   0.2233560402E-03
 from k-point    263 to k-point    266
Estimated direct band gap   :   0.1503139448E-02
 at k-point    198
 
Charges :
 core                        :    20.00000000    
 valence                     :    24.00000000    
 interstitial                :    2.790054801    
 muffin-tins (core leakage)
  species :    1 (Ti)
   atom    1                 :    20.60497260     (  0.4783569096E-09)
   atom    2                 :    20.60497260     (  0.4783569096E-09)
 total in muffin-tins        :    41.20994520    
 total calculated charge     :    43.99996821    
 total charge                :    44.00000000    
 error                       :   0.3179211447E-04
 
Wrote STATE.OUT
 
RMS change in Kohn-Sham potential (target) :   0.6062485368     (   10.00000000    )
Absolute change in total energy (target)   :   0.3339764850     (  0.1000000000E-07)
 
Time (CPU seconds) :       139.26
 
+--------------------+
| Loop number :    3 |
+--------------------+
 
Energies :
 Fermi                       :     0.220149943554    
 sum of eigenvalues          :     -1006.63749556    
 electron kinetic            :      1716.57212549    
 core electron kinetic       :      1587.40445682    
 Coulomb                     :     -3357.02518173    
 Coulomb potential           :     -2610.14163763    
 nuclear-nuclear             :     -237.164034529    
 electron-nuclear            :     -3629.58065676    
 Hartree                     :      509.719509564    
 Madelung                    :     -2051.95436291    
 xc potential                :     -113.067983419    
 exchange                    :     -83.7403467101    
 correlation                 :     -1.93687890238    
 total energy                :     -1726.13028185    
 
Density of states at Fermi energy :    26.09565744    
 (states/Hartree/unit cell)
 
Estimated indirect band gap :   0.3656939645E-04
 from k-point    192 to k-point    266
Estimated direct band gap   :   0.1414264564E-02
 at k-point    198
 
Charges :
 core                        :    20.00000000    
 valence                     :    24.00000000    
 interstitial                :    2.814369955    
 muffin-tins (core leakage)
  species :    1 (Ti)
   atom    1                 :    20.59281502     (  0.7878302455E-09)
   atom    2                 :    20.59281502     (  0.7878302455E-09)
 total in muffin-tins        :    41.18563005    
 total calculated charge     :    43.99996782    
 total charge                :    44.00000000    
 error                       :   0.3217953603E-04
 
RMS change in Kohn-Sham potential (target) :   0.5044575270     (   10.00000000    )
Absolute change in total energy (target)   :    3.155178670     (  0.1000000000E-07)
 
Time (CPU seconds) :       206.74
 
+--------------------+
| Loop number :    4 |
+--------------------+
 
Energies :
 Fermi                       :     0.314649414189    
 sum of eigenvalues          :     -999.574596758    
 electron kinetic            :      1723.46474517    
 core electron kinetic       :      1588.82859737    
 Coulomb                     :     -3354.20664959    
 Coulomb potential           :     -2610.24639171    
 nuclear-nuclear             :     -237.164034529    
 electron-nuclear            :     -3623.83883841    
 Hartree                     :      506.796223349    
 Madelung                    :     -2049.08345373    
 xc potential                :     -112.792950219    
 exchange                    :     -83.5432690019    
 correlation                 :     -1.93606201692    
 total energy                :     -1716.22123544    
 
Density of states at Fermi energy :    43.19368620    
 (states/Hartree/unit cell)
 
Estimated indirect band gap :   0.8392131884E-04
 from k-point    266 to k-point    176
Estimated direct band gap   :   0.9968503599E-03
 at k-point    198
 
Charges :
 core                        :    20.00000000    
 valence                     :    24.00000000    
 interstitial                :    2.930569354    
 muffin-tins (core leakage)
  species :    1 (Ti)
   atom    1                 :    20.53471532     (  0.1549246065E-08)
   atom    2                 :    20.53471532     (  0.1549246065E-08)
 total in muffin-tins        :    41.06943065    
 total calculated charge     :    43.99996585    
 total charge                :    44.00000000    
 error                       :   0.3414663079E-04
 
Wrote STATE.OUT
 
RMS change in Kohn-Sham potential (target) :   0.2242438872     (   10.00000000    )
Absolute change in total energy (target)   :    10.69784108     (  0.1000000000E-07)
 
Time (CPU seconds) :       275.31
 
+--------------------+
| Loop number :    5 |
+--------------------+
 
Energies :
 Fermi                       :     0.360551312796    
 sum of eigenvalues          :     -996.116065016    
 electron kinetic            :      1726.92303842    
 core electron kinetic       :      1589.81477027    
 Coulomb                     :     -3352.83655569    
 Coulomb potential           :     -2610.38711105    
 nuclear-nuclear             :     -237.164034529    
 electron-nuclear            :     -3620.95793127    
 Hartree                     :      505.285410107    
 Madelung                    :     -2047.64300016    
 xc potential                :     -112.651992381    
 exchange                    :     -83.4425266797    
 correlation                 :     -1.93555064788    
 total energy                :     -1711.29159460    
 
Density of states at Fermi energy :    59.61017476    
 (states/Hartree/unit cell)
 
Estimated indirect band gap :   0.1888006921E-03
 from k-point    291 to k-point    143
Estimated direct band gap   :   0.7635820486E-03
 at k-point    198
 
Charges :
 core                        :    20.00000000    
 valence                     :    24.00000000    
 interstitial                :    2.995937510    
 muffin-tins (core leakage)
  species :    1 (Ti)
   atom    1                 :    20.50203124     (  0.2589503723E-08)
   atom    2                 :    20.50203124     (  0.2589503723E-08)
 total in muffin-tins        :    41.00406249    
 total calculated charge     :    43.99996457    
 total charge                :    44.00000000    
 error                       :   0.3543354232E-04
 
RMS change in Kohn-Sham potential (target) :   0.8705756624E-01 (   10.00000000    )
Absolute change in total energy (target)   :    7.604101106     (  0.1000000000E-07)
 
Time (CPU seconds) :       344.18
 
+--------------------+
| Loop number :    6 |
+--------------------+
 
Energies :
 Fermi                       :     0.378976605477    
 sum of eigenvalues          :     -994.741907710    
 electron kinetic            :      1728.33370823    
 core electron kinetic       :      1590.16792905    
 Coulomb                     :     -3352.31959625    
 Coulomb potential           :     -2610.47984721    
 nuclear-nuclear             :     -237.164034529    
 electron-nuclear            :     -3619.83127622    
 Hartree                     :      504.675714505    
 Madelung                    :     -2047.07967264    
 xc potential                :     -112.595768730    
 exchange                    :     -83.4024772060    
 correlation                 :     -1.93532591919    
 total energy                :     -1709.32369114    
 
Density of states at Fermi energy :    47.88013123    
 (states/Hartree/unit cell)
 
Estimated indirect band gap :   0.2538878378E-03
 from k-point    198 to k-point    290
Estimated direct band gap   :   0.6620856049E-03
 at k-point    198
 
Charges :
 core                        :    20.00000000    
 valence                     :    24.00000000    
 interstitial                :    3.023434158    
 muffin-tins (core leakage)
  species :    1 (Ti)
   atom    1                 :    20.48828292     (  0.3121973791E-08)
   atom    2                 :    20.48828292     (  0.3121973791E-08)
 total in muffin-tins        :    40.97656584    
 total calculated charge     :    43.99996394    
 total charge                :    44.00000000    
 error                       :   0.3606448036E-04
 
Wrote STATE.OUT
 
RMS change in Kohn-Sham potential (target) :   0.3060556658E-01 (   10.00000000    )
Absolute change in total energy (target)   :    3.868928738     (  0.1000000000E-07)
 
Time (CPU seconds) :       410.74
 
+--------------------+
| Loop number :    7 |
+--------------------+
 
Energies :
 Fermi                       :     0.388091103367    
 sum of eigenvalues          :     -994.068216794    
 electron kinetic            :      1729.04330427    
 core electron kinetic       :      1590.59776259    
 Coulomb                     :     -3352.07667517    
 Coulomb potential           :     -2610.54380160    
 nuclear-nuclear             :     -237.164034529    
 electron-nuclear            :     -3619.28147969    
 Hartree                     :      504.368839049    
 Madelung                    :     -2046.80477438    
 xc potential                :     -112.567719469    
 exchange                    :     -83.3825445824    
 correlation                 :     -1.93521135551    
 total energy                :     -1708.35112684    
 
Density of states at Fermi energy :    46.17295996    
 (states/Hartree/unit cell)
 
Estimated indirect band gap :   0.2081940204E-03
 from k-point    198 to k-point    290
Estimated direct band gap   :   0.6072381242E-03
 at k-point    198
 
Charges :
 core                        :    20.00000000    
 valence                     :    24.00000000    
 interstitial                :    3.037696266    
 muffin-tins (core leakage)
  species :    1 (Ti)
   atom    1                 :    20.48115187     (  0.3454518449E-08)
   atom    2                 :    20.48115187     (  0.3454518449E-08)
 total in muffin-tins        :    40.96230373    
 total calculated charge     :    43.99996359    
 total charge                :    44.00000000    
 error                       :   0.3641060549E-04
 
RMS change in Kohn-Sham potential (target) :   0.4488375102E-02 (   10.00000000    )
Absolute change in total energy (target)   :    1.939796481     (  0.1000000000E-07)
 
Time (CPU seconds) :       479.12
 
+--------------------+
| Loop number :    8 |
+--------------------+
 
Energies :
 Fermi                       :     0.387849742445    
 sum of eigenvalues          :     -994.087531221    
 electron kinetic            :      1729.04802589    
 core electron kinetic       :      1590.62015247    
 Coulomb                     :     -3352.08540914    
 Coulomb potential           :     -2610.56912941    
 nuclear-nuclear             :     -237.164034529    
 electron-nuclear            :     -3619.27361981    
 Hartree                     :      504.352245202    
 Madelung                    :     -2046.80084444    
 xc potential                :     -112.566427700    
 exchange                    :     -83.3816452989    
 correlation                 :     -1.93520626771    
 total energy                :     -1708.35423482    
 
Density of states at Fermi energy :    46.40378976    
 (states/Hartree/unit cell)
 
Estimated indirect band gap :   0.2308940138E-03
 from k-point    198 to k-point    290
Estimated direct band gap   :   0.6007779949E-03
 at k-point    198
 
Charges :
 core                        :    20.00000000    
 valence                     :    24.00000000    
 interstitial                :    3.039153887    
 muffin-tins (core leakage)
  species :    1 (Ti)
   atom    1                 :    20.48042306     (  0.3366700696E-08)
   atom    2                 :    20.48042306     (  0.3366700696E-08)
 total in muffin-tins        :    40.96084611    
 total calculated charge     :    43.99996354    
 total charge                :    44.00000000    
 error                       :   0.3645587095E-04
 
Wrote STATE.OUT
 
RMS change in Kohn-Sham potential (target) :   0.1044944160E-02 (   10.00000000    )
Absolute change in total energy (target)   :   0.4818411440     (  0.1000000000E-07)
 
Time (CPU seconds) :       546.41
 
+--------------------+
| Loop number :    9 |
+--------------------+
 
Energies :
 Fermi                       :     0.387702820957    
 sum of eigenvalues          :     -994.097999608    
 electron kinetic            :      1729.03890089    
 core electron kinetic       :      1590.61653403    
 Coulomb                     :     -3352.09080076    
 Coulomb potential           :     -2610.57006783    
 nuclear-nuclear             :     -237.164034529    
 electron-nuclear            :     -3619.28346464    
 Hartree                     :      504.356698405    
 Madelung                    :     -2046.80576685    
 xc potential                :     -112.566832665    
 exchange                    :     -83.3819422710    
 correlation                 :     -1.93521006644    
 total energy                :     -1708.36905221    
 
Density of states at Fermi energy :    46.40550938    
 (states/Hartree/unit cell)
 
Estimated indirect band gap :   0.2336288339E-03
 from k-point    198 to k-point    290
Estimated direct band gap   :   0.6009479054E-03
 at k-point    198
 
Charges :
 core                        :    20.00000000    
 valence                     :    24.00000000    
 interstitial                :    3.038989522    
 muffin-tins (core leakage)
  species :    1 (Ti)
   atom    1                 :    20.48050524     (  0.3348398891E-08)
   atom    2                 :    20.48050524     (  0.3348398891E-08)
 total in muffin-tins        :    40.96101048    
 total calculated charge     :    43.99996355    
 total charge                :    44.00000000    
 error                       :   0.3644764729E-04
 
RMS change in Kohn-Sham potential (target) :   0.2257798456E-03 (   10.00000000    )
Absolute change in total energy (target)   :   0.1056428897     (  0.1000000000E-07)
 
Time (CPU seconds) :       615.67
 
+--------------------+
| Loop number :   10 |
+--------------------+
 
Energies :
 Fermi                       :     0.387684609964    
 sum of eigenvalues          :     -994.096782420    
 electron kinetic            :      1729.03723697    
 core electron kinetic       :      1590.61399498    
 Coulomb                     :     -3352.08762468    
 Coulomb potential           :     -2610.56729640    
 nuclear-nuclear             :     -237.164034529    
 electron-nuclear            :     -3619.27988390    
 Hartree                     :      504.356293747    
 Madelung                    :     -2046.80397648    
 xc potential                :     -112.566722993    
 exchange                    :     -83.3818514224    
 correlation                 :     -1.93521143240    
 total energy                :     -1708.36745056    
 
Density of states at Fermi energy :    46.37511313    
 (states/Hartree/unit cell)
 
Estimated indirect band gap :   0.2302903968E-03
 from k-point    198 to k-point    290
Estimated direct band gap   :   0.6009122872E-03
 at k-point    198
 
Charges :
 core                        :    20.00000000    
 valence                     :    24.00000000    
 interstitial                :    3.038950378    
 muffin-tins (core leakage)
  species :    1 (Ti)
   atom    1                 :    20.48052481     (  0.3413115124E-08)
   atom    2                 :    20.48052481     (  0.3413115124E-08)
 total in muffin-tins        :    40.96104962    
 total calculated charge     :    43.99996356    
 total charge                :    44.00000000    
 error                       :   0.3644353522E-04
 
Wrote STATE.OUT
 
RMS change in Kohn-Sham potential (target) :   0.2113883418E-03 (   10.00000000    )
Absolute change in total energy (target)   :   0.2801237876E-01 (  0.1000000000E-07)
 
Time (CPU seconds) :       684.09
 
+--------------------+
| Loop number :   11 |
+--------------------+
 
Energies :
 Fermi                       :     0.387693923244    
 sum of eigenvalues          :     -994.095834216    
 electron kinetic            :      1729.03760214    
 core electron kinetic       :      1590.61312372    
 Coulomb                     :     -3352.08688113    
 Coulomb potential           :     -2610.56674221    
 nuclear-nuclear             :     -237.164034529    
 electron-nuclear            :     -3619.27895098    
 Hartree                     :      504.356104383    
 Madelung                    :     -2046.80351002    
 xc potential                :     -112.566694142    
 exchange                    :     -83.3818286149    
 correlation                 :     -1.93521151143    
 total energy                :     -1708.36631911    
 
Density of states at Fermi energy :    46.36993826    
 (states/Hartree/unit cell)
 
Estimated indirect band gap :   0.2296330203E-03
 from k-point    198 to k-point    290
Estimated direct band gap   :   0.6009238205E-03
 at k-point    198
 
Charges :
 core                        :    20.00000000    
 valence                     :    24.00000000    
 interstitial                :    3.038945438    
 muffin-tins (core leakage)
  species :    1 (Ti)
   atom    1                 :    20.48052728     (  0.3393367365E-08)
   atom    2                 :    20.48052728     (  0.3393367365E-08)
 total in muffin-tins        :    40.96105456    
 total calculated charge     :    43.99996356    
 total charge                :    44.00000000    
 error                       :   0.3644333188E-04
 
RMS change in Kohn-Sham potential (target) :   0.2499359204E-03 (   10.00000000    )
Absolute change in total energy (target)   :   0.8134540740E-02 (  0.1000000000E-07)
 
Time (CPU seconds) :       751.87
 
+--------------------+
| Loop number :   12 |
+--------------------+
 
Energies :
 Fermi                       :     0.387692076457    
 sum of eigenvalues          :     -994.095099408    
 electron kinetic            :      1729.03718494    
 core electron kinetic       :      1590.61263320    
 Coulomb                     :     -3352.08564141    
 Coulomb potential           :     -2610.56563183    
 nuclear-nuclear             :     -237.164034529    
 electron-nuclear            :     -3619.27758194    
 Hartree                     :      504.355975054    
 Madelung                    :     -2046.80282550    
 xc potential                :     -112.566652520    
 exchange                    :     -83.3817939355    
 correlation                 :     -1.93521215021    
 total energy                :     -1708.36546256    
 
Density of states at Fermi energy :    46.35860266    
 (states/Hartree/unit cell)
 
Estimated indirect band gap :   0.2284267500E-03
 from k-point    198 to k-point    290
Estimated direct band gap   :   0.6009027849E-03
 at k-point    198
 
Charges :
 core                        :    20.00000000    
 valence                     :    24.00000000    
 interstitial                :    3.038927929    
 muffin-tins (core leakage)
  species :    1 (Ti)
   atom    1                 :    20.48053604     (  0.3362110590E-08)
   atom    2                 :    20.48053604     (  0.3362110590E-08)
 total in muffin-tins        :    40.96107207    
 total calculated charge     :    43.99996356    
 total charge                :    44.00000000    
 error                       :   0.3644215465E-04
 
Wrote STATE.OUT
 
RMS change in Kohn-Sham potential (target) :   0.3455102168E-04 (   10.00000000    )
Absolute change in total energy (target)   :   0.2890190283E-02 (  0.1000000000E-07)
 
Time (CPU seconds) :       818.63
 
+--------------------+
| Loop number :   13 |
+--------------------+
 
Energies :
 Fermi                       :     0.387692014019    
 sum of eigenvalues          :     -994.095191293    
 electron kinetic            :      1729.03711801    
 core electron kinetic       :      1590.61264739    
 Coulomb                     :     -3352.08571104    
 Coulomb potential           :     -2610.56565309    
 nuclear-nuclear             :     -237.164034529    
 electron-nuclear            :     -3619.27769994    
 Hartree                     :      504.356023426    
 Madelung                    :     -2046.80288450    
 xc potential                :     -112.566656219    
 exchange                    :     -83.3817963395    
 correlation                 :     -1.93521223565    
 total energy                :     -1708.36560160    
 
Density of states at Fermi energy :    46.35919907    
 (states/Hartree/unit cell)
 
Estimated indirect band gap :   0.2285366038E-03
 from k-point    198 to k-point    290
Estimated direct band gap   :   0.6008958908E-03
 at k-point    198
 
Charges :
 core                        :    20.00000000    
 valence                     :    24.00000000    
 interstitial                :    3.038926965    
 muffin-tins (core leakage)
  species :    1 (Ti)
   atom    1                 :    20.48053652     (  0.3396012360E-08)
   atom    2                 :    20.48053652     (  0.3396012360E-08)
 total in muffin-tins        :    40.96107304    
 total calculated charge     :    43.99996356    
 total charge                :    44.00000000    
 error                       :   0.3644251984E-04
 
RMS change in Kohn-Sham potential (target) :   0.7164008821E-04 (   10.00000000    )
Absolute change in total energy (target)   :   0.5835009749E-03 (  0.1000000000E-07)
 
Time (CPU seconds) :       887.42
 
+--------------------+
| Loop number :   14 |
+--------------------+
 
Energies :
 Fermi                       :     0.387692346996    
 sum of eigenvalues          :     -994.095231696    
 electron kinetic            :      1729.03710889    
 core electron kinetic       :      1590.61267572    
 Coulomb                     :     -3352.08576830    
 Coulomb potential           :     -2610.56568179    
 nuclear-nuclear             :     -237.164034529    
 electron-nuclear            :     -3619.27778576    
 Hartree                     :      504.356051986    
 Madelung                    :     -2046.80292741    
 xc potential                :     -112.566658805    
 exchange                    :     -83.3817981439    
 correlation                 :     -1.93521227931    
 total energy                :     -1708.36566983    
 
Density of states at Fermi energy :    46.35965646    
 (states/Hartree/unit cell)
 
Estimated indirect band gap :   0.2286129223E-03
 from k-point    198 to k-point    290
Estimated direct band gap   :   0.6008918111E-03
 at k-point    198
 
Charges :
 core                        :    20.00000000    
 valence                     :    24.00000000    
 interstitial                :    3.038926565    
 muffin-tins (core leakage)
  species :    1 (Ti)
   atom    1                 :    20.48053672     (  0.3404249327E-08)
   atom    2                 :    20.48053672     (  0.3404249327E-08)
 total in muffin-tins        :    40.96107344    
 total calculated charge     :    43.99996356    
 total charge                :    44.00000000    
 error                       :   0.3644273723E-04
 
Wrote STATE.OUT
 
RMS change in Kohn-Sham potential (target) :   0.1089515763E-03 (   10.00000000    )
Absolute change in total energy (target)   :   0.7764949146E-04 (  0.1000000000E-07)
 
Time (CPU seconds) :       955.78
 
+--------------------+
| Loop number :   15 |
+--------------------+
 
Energies :
 Fermi                       :     0.387692067988    
 sum of eigenvalues          :     -994.095260519    
 electron kinetic            :      1729.03709738    
 core electron kinetic       :      1590.61266868    
 Coulomb                     :     -3352.08579489    
 Coulomb potential           :     -2610.56569797    
 nuclear-nuclear             :     -237.164034529    
 electron-nuclear            :     -3619.27782275    
 Hartree                     :      504.356062390    
 Madelung                    :     -2046.80294590    
 xc potential                :     -112.566659929    
 exchange                    :     -83.3817990108    
 correlation                 :     -1.93521229254    
 total energy                :     -1708.36570881    
 
Density of states at Fermi energy :    46.35980774    
 (states/Hartree/unit cell)
 
Estimated indirect band gap :   0.2286378460E-03
 from k-point    198 to k-point    290
Estimated direct band gap   :   0.6008897865E-03
 at k-point    198
 
Charges :
 core                        :    20.00000000    
 valence                     :    24.00000000    
 interstitial                :    3.038926507    
 muffin-tins (core leakage)
  species :    1 (Ti)
   atom    1                 :    20.48053675     (  0.3420540295E-08)
   atom    2                 :    20.48053675     (  0.3420540295E-08)
 total in muffin-tins        :    40.96107349    
 total calculated charge     :    43.99996356    
 total charge                :    44.00000000    
 error                       :   0.3644271342E-04
 
RMS change in Kohn-Sham potential (target) :   0.2522166892E-03 (   10.00000000    )
Absolute change in total energy (target)   :   0.1957013455E-04 (  0.1000000000E-07)
 
Time (CPU seconds) :      1023.91
 
+--------------------+
| Loop number :   16 |
+--------------------+
 
Energies :
 Fermi                       :     0.387691319626    
 sum of eigenvalues          :     -994.095259029    
 electron kinetic            :      1729.03706112    
 core electron kinetic       :      1590.61267676    
 Coulomb                     :     -3352.08574800    
 Coulomb potential           :     -2610.56566191    
 nuclear-nuclear             :     -237.164034529    
 electron-nuclear            :     -3619.27776504    
 Hartree                     :      504.356051568    
 Madelung                    :     -2046.80291705    
 xc potential                :     -112.566658238    
 exchange                    :     -83.3817977053    
 correlation                 :     -1.93521229095    
 total energy                :     -1708.36569688    
 
Density of states at Fermi energy :    46.35936200    
 (states/Hartree/unit cell)
 
Estimated indirect band gap :   0.2285816675E-03
 from k-point    198 to k-point    290
Estimated direct band gap   :   0.6008909291E-03
 at k-point    198
 
Charges :
 core                        :    20.00000000    
 valence                     :    24.00000000    
 interstitial                :    3.038926203    
 muffin-tins (core leakage)
  species :    1 (Ti)
   atom    1                 :    20.48053690     (  0.3405601134E-08)
   atom    2                 :    20.48053690     (  0.3405601134E-08)
 total in muffin-tins        :    40.96107380    
 total calculated charge     :    43.99996356    
 total charge                :    44.00000000    
 error                       :   0.3644255217E-04
 
Wrote STATE.OUT
 
RMS change in Kohn-Sham potential (target) :   0.7906426954E-04 (   10.00000000    )
Absolute change in total energy (target)   :   0.7034497003E-05 (  0.1000000000E-07)
 
Time (CPU seconds) :      1091.52
 
+--------------------+
| Loop number :   17 |
+--------------------+
 
Energies :
 Fermi                       :     0.387691648022    
 sum of eigenvalues          :     -994.095287961    
 electron kinetic            :      1729.03706321    
 core electron kinetic       :      1590.61267602    
 Coulomb                     :     -3352.08579259    
 Coulomb potential           :     -2610.56569115    
 nuclear-nuclear             :     -237.164034529    
 electron-nuclear            :     -3619.27782497    
 Hartree                     :      504.356066910    
 Madelung                    :     -2046.80294701    
 xc potential                :     -112.566660024    
 exchange                    :     -83.3817989848    
 correlation                 :     -1.93521230339    
 total energy                :     -1708.36574066    
 
Density of states at Fermi energy :    46.35976796    
 (states/Hartree/unit cell)
 
Estimated indirect band gap :   0.2286390754E-03
 from k-point    198 to k-point    290
Estimated direct band gap   :   0.6008895780E-03
 at k-point    198
 
Charges :
 core                        :    20.00000000    
 valence                     :    24.00000000    
 interstitial                :    3.038926274    
 muffin-tins (core leakage)
  species :    1 (Ti)
   atom    1                 :    20.48053686     (  0.3429470041E-08)
   atom    2                 :    20.48053686     (  0.3429470041E-08)
 total in muffin-tins        :    40.96107373    
 total calculated charge     :    43.99996356    
 total charge                :    44.00000000    
 error                       :   0.3644277668E-04
 
RMS change in Kohn-Sham potential (target) :   0.1566716241E-03 (   10.00000000    )
Absolute change in total energy (target)   :   0.4202093623E-04 (  0.1000000000E-07)
 
Time (CPU seconds) :      1158.52
 
+--------------------+
| Loop number :   18 |
+--------------------+
 
Energies :
 Fermi                       :     0.387691639846    
 sum of eigenvalues          :     -994.095283038    
 electron kinetic            :      1729.03707223    
 core electron kinetic       :      1590.61272307    
 Coulomb                     :     -3352.08579105    
 Coulomb potential           :     -2610.56569547    
 nuclear-nuclear             :     -237.164034529    
 electron-nuclear            :     -3619.27781757    
 Hartree                     :      504.356061051    
 Madelung                    :     -2046.80294331    
 xc potential                :     -112.566659799    
 exchange                    :     -83.3817988836    
 correlation                 :     -1.93521228466    
 total energy                :     -1708.36572999    
 
Density of states at Fermi energy :    46.35977695    
 (states/Hartree/unit cell)
 
Estimated indirect band gap :   0.2286329955E-03
 from k-point    198 to k-point    290
Estimated direct band gap   :   0.6008911208E-03
 at k-point    198
 
Charges :
 core                        :    20.00000000    
 valence                     :    24.00000000    
 interstitial                :    3.038926550    
 muffin-tins (core leakage)
  species :    1 (Ti)
   atom    1                 :    20.48053673     (  0.3362396583E-08)
   atom    2                 :    20.48053673     (  0.3362396583E-08)
 total in muffin-tins        :    40.96107345    
 total calculated charge     :    43.99996356    
 total charge                :    44.00000000    
 error                       :   0.3644261332E-04
 
Wrote STATE.OUT
 
RMS change in Kohn-Sham potential (target) :   0.4976843548E-04 (   10.00000000    )
Absolute change in total energy (target)   :   0.1727257768E-06 (  0.1000000000E-07)
 
Time (CPU seconds) :      1226.79
 
+--------------------+
| Loop number :   19 |
+--------------------+
 
Energies :
 Fermi                       :     0.387692123813    
 sum of eigenvalues          :     -994.095313585    
 electron kinetic            :      1729.03707404    
 core electron kinetic       :      1590.61273662    
 Coulomb                     :     -3352.08584637    
 Coulomb potential           :     -2610.56572547    
 nuclear-nuclear             :     -237.164034529    
 electron-nuclear            :     -3619.27789821    
 Hartree                     :      504.356086370    
 Madelung                    :     -2046.80298363    
 xc potential                :     -112.566662157    
 exchange                    :     -83.3818005310    
 correlation                 :     -1.93521232556    
 total energy                :     -1708.36578518    
 
Density of states at Fermi energy :    46.36018589    
 (states/Hartree/unit cell)
 
Estimated indirect band gap :   0.2287024407E-03
 from k-point    198 to k-point    290
Estimated direct band gap   :   0.6008873552E-03
 at k-point    198
 
Charges :
 core                        :    20.00000000    
 valence                     :    24.00000000    
 interstitial                :    3.038926201    
 muffin-tins (core leakage)
  species :    1 (Ti)
   atom    1                 :    20.48053690     (  0.3353505917E-08)
   atom    2                 :    20.48053690     (  0.3353505917E-08)
 total in muffin-tins        :    40.96107380    
 total calculated charge     :    43.99996356    
 total charge                :    44.00000000    
 error                       :   0.3644273309E-04
 
RMS change in Kohn-Sham potential (target) :   0.6246786064E-04 (   10.00000000    )
Absolute change in total energy (target)   :   0.5515313819E-04 (  0.1000000000E-07)
 
Time (CPU seconds) :      1293.38
 
+--------------------+
| Loop number :   20 |
+--------------------+
 
Energies :
 Fermi                       :     0.387692229377    
 sum of eigenvalues          :     -994.095311376    
 electron kinetic            :      1729.03707743    
 core electron kinetic       :      1590.61274027    
 Coulomb                     :     -3352.08584840    
 Coulomb potential           :     -2610.56572657    
 nuclear-nuclear             :     -237.164034529    
 electron-nuclear            :     -3619.27790117    
 Hartree                     :      504.356087299    
 Madelung                    :     -2046.80298511    
 xc potential                :     -112.566662235    
 exchange                    :     -83.3818005730    
 correlation                 :     -1.93521232779    
 total energy                :     -1708.36578387    
 
Density of states at Fermi energy :    46.36018695    
 (states/Hartree/unit cell)
 
Estimated indirect band gap :   0.2287042408E-03
 from k-point    198 to k-point    290
Estimated direct band gap   :   0.6008874057E-03
 at k-point    198
 
Charges :
 core                        :    20.00000000    
 valence                     :    24.00000000    
 interstitial                :    3.038926139    
 muffin-tins (core leakage)
  species :    1 (Ti)
   atom    1                 :    20.48053693     (  0.3399398096E-08)
   atom    2                 :    20.48053693     (  0.3399398096E-08)
 total in muffin-tins        :    40.96107386    
 total calculated charge     :    43.99996356    
 total charge                :    44.00000000    
 error                       :   0.3644281909E-04
 
Wrote STATE.OUT
 
RMS change in Kohn-Sham potential (target) :   0.4177837976E-04 (   10.00000000    )
Absolute change in total energy (target)   :   0.1247546356E-04 (  0.1000000000E-07)
 
Time (CPU seconds) :      1361.08
 
+--------------------+
| Loop number :   21 |
+--------------------+
 
Energies :
 Fermi                       :     0.387692362236    
 sum of eigenvalues          :     -994.095310537    
 electron kinetic            :      1729.03708108    
 core electron kinetic       :      1590.61274016    
 Coulomb                     :     -3352.08585376    
 Coulomb potential           :     -2610.56572915    
 nuclear-nuclear             :     -237.164034529    
 electron-nuclear            :     -3619.27790931    
 Hartree                     :      504.356090080    
 Madelung                    :     -2046.80298918    
 xc potential                :     -112.566662467    
 exchange                    :     -83.3818007241    
 correlation                 :     -1.93521233469    
 total energy                :     -1708.36578574    
 
Density of states at Fermi energy :    46.36020670    
 (states/Hartree/unit cell)
 
Estimated indirect band gap :   0.2287102184E-03
 from k-point    198 to k-point    290
Estimated direct band gap   :   0.6008870401E-03
 at k-point    198
 
Charges :
 core                        :    20.00000000    
 valence                     :    24.00000000    
 interstitial                :    3.038926024    
 muffin-tins (core leakage)
  species :    1 (Ti)
   atom    1                 :    20.48053699     (  0.3417458316E-08)
   atom    2                 :    20.48053699     (  0.3417458316E-08)
 total in muffin-tins        :    40.96107398    
 total calculated charge     :    43.99996356    
 total charge                :    44.00000000    
 error                       :   0.3644289662E-04
 
RMS change in Kohn-Sham potential (target) :   0.8966661694E-04 (   10.00000000    )
Absolute change in total energy (target)   :   0.4987028206E-05 (  0.1000000000E-07)
 
Time (CPU seconds) :      1428.37
 
+--------------------+
| Loop number :   22 |
+--------------------+
 
Energies :
 Fermi                       :     0.387692367476    
 sum of eigenvalues          :     -994.095307202    
 electron kinetic            :      1729.03708341    
 core electron kinetic       :      1590.61274534    
 Coulomb                     :     -3352.08585146    
 Coulomb potential           :     -2610.56572825    
 nuclear-nuclear             :     -237.164034529    
 electron-nuclear            :     -3619.27790561    
 Hartree                     :      504.356088678    
 Madelung                    :     -2046.80298733    
 xc potential                :     -112.566662359    
 exchange                    :     -83.3818006535    
 correlation                 :     -1.93521233232    
 total energy                :     -1708.36578104    
 
Density of states at Fermi energy :    46.36018733    
 (states/Hartree/unit cell)
 
Estimated indirect band gap :   0.2287067460E-03
 from k-point    198 to k-point    290
Estimated direct band gap   :   0.6008872027E-03
 at k-point    198
 
Charges :
 core                        :    20.00000000    
 valence                     :    24.00000000    
 interstitial                :    3.038926046    
 muffin-tins (core leakage)
  species :    1 (Ti)
   atom    1                 :    20.48053698     (  0.3349441613E-08)
   atom    2                 :    20.48053698     (  0.3349441613E-08)
 total in muffin-tins        :    40.96107395    
 total calculated charge     :    43.99996356    
 total charge                :    44.00000000    
 error                       :   0.3644271182E-04
 
Wrote STATE.OUT
 
RMS change in Kohn-Sham potential (target) :   0.8604648259E-04 (   10.00000000    )
Absolute change in total energy (target)   :   0.3454227681E-05 (  0.1000000000E-07)
 
Time (CPU seconds) :      1497.98
 
+--------------------+
| Loop number :   23 |
+--------------------+
 
Energies :
 Fermi                       :     0.387692400134    
 sum of eigenvalues          :     -994.095310083    
 electron kinetic            :      1729.03708357    
 core electron kinetic       :      1590.61274559    
 Coulomb                     :     -3352.08585549    
 Coulomb potential           :     -2610.56573113    
 nuclear-nuclear             :     -237.164034529    
 electron-nuclear            :     -3619.27791079    
 Hartree                     :      504.356089827    
 Madelung                    :     -2046.80298992    
 xc potential                :     -112.566662515    
 exchange                    :     -83.3818007674    
 correlation                 :     -1.93521233282    
 total energy                :     -1708.36578502    
 
Density of states at Fermi energy :    46.36022534    
 (states/Hartree/unit cell)
 
Estimated indirect band gap :   0.2287119962E-03
 from k-point    198 to k-point    290
Estimated direct band gap   :   0.6008871946E-03
 at k-point    198
 
Charges :
 core                        :    20.00000000    
 valence                     :    24.00000000    
 interstitial                :    3.038926058    
 muffin-tins (core leakage)
  species :    1 (Ti)
   atom    1                 :    20.48053697     (  0.3420952410E-08)
   atom    2                 :    20.48053697     (  0.3420952410E-08)
 total in muffin-tins        :    40.96107394    
 total calculated charge     :    43.99996356    
 total charge                :    44.00000000    
 error                       :   0.3644290020E-04
 
RMS change in Kohn-Sham potential (target) :   0.4545972690E-04 (   10.00000000    )
Absolute change in total energy (target)   :   0.3123740726E-05 (  0.1000000000E-07)
 
Time (CPU seconds) :      1565.80
 
+--------------------+
| Loop number :   24 |
+--------------------+
 
Energies :
 Fermi                       :     0.387692499120    
 sum of eigenvalues          :     -994.095307894    
 electron kinetic            :      1729.03708697    
 core electron kinetic       :      1590.61275076    
 Coulomb                     :     -3352.08585790    
 Coulomb potential           :     -2610.56573226    
 nuclear-nuclear             :     -237.164034529    
 electron-nuclear            :     -3619.27791449    
 Hartree                     :      504.356091114    
 Madelung                    :     -2046.80299177    
 xc potential                :     -112.566662609    
 exchange                    :     -83.3818008220    
 correlation                 :     -1.93521233616    
 total energy                :     -1708.36578409    
 
Density of states at Fermi energy :    46.36023177    
 (states/Hartree/unit cell)
 
Estimated indirect band gap :   0.2287144847E-03
 from k-point    198 to k-point    290
Estimated direct band gap   :   0.6008871151E-03
 at k-point    198
 
Charges :
 core                        :    20.00000000    
 valence                     :    24.00000000    
 interstitial                :    3.038925997    
 muffin-tins (core leakage)
  species :    1 (Ti)
   atom    1                 :    20.48053700     (  0.3360568712E-08)
   atom    2                 :    20.48053700     (  0.3360568712E-08)
 total in muffin-tins        :    40.96107400    
 total calculated charge     :    43.99996356    
 total charge                :    44.00000000    
 error                       :   0.3644275754E-04
 
Wrote STATE.OUT
 
RMS change in Kohn-Sham potential (target) :   0.8204766292E-04 (   10.00000000    )
Absolute change in total energy (target)   :   0.1569219421E-06 (  0.1000000000E-07)
 
Time (CPU seconds) :      1632.83
 
+--------------------+
| Loop number :   25 |
+--------------------+
 
Energies :
 Fermi                       :     0.387692631012    
 sum of eigenvalues          :     -994.095307794    
 electron kinetic            :      1729.03709008    
 core electron kinetic       :      1590.61275335    
 Coulomb                     :     -3352.08586335    
 Coulomb potential           :     -2610.56573503    
 nuclear-nuclear             :     -237.164034529    
 electron-nuclear            :     -3619.27792263    
 Hartree                     :      504.356093800    
 Madelung                    :     -2046.80299584    
 xc potential                :     -112.566662844    
 exchange                    :     -83.3818009762    
 correlation                 :     -1.93521234212    
 total energy                :     -1708.36578660    
 
Density of states at Fermi energy :    46.36026145    
 (states/Hartree/unit cell)
 
Estimated indirect band gap :   0.2287212856E-03
 from k-point    198 to k-point    290
Estimated direct band gap   :   0.6008867963E-03
 at k-point    198
 
Charges :
 core                        :    20.00000000    
 valence                     :    24.00000000    
 interstitial                :    3.038925903    
 muffin-tins (core leakage)
  species :    1 (Ti)
   atom    1                 :    20.48053705     (  0.3348798572E-08)
   atom    2                 :    20.48053705     (  0.3348798572E-08)
 total in muffin-tins        :    40.96107410    
 total calculated charge     :    43.99996356    
 total charge                :    44.00000000    
 error                       :   0.3644276791E-04
 
RMS change in Kohn-Sham potential (target) :   0.3824382655E-03 (   10.00000000    )
Absolute change in total energy (target)   :   0.2470968866E-05 (  0.1000000000E-07)
 
Time (CPU seconds) :      1701.32
 
+--------------------+
| Loop number :   26 |
+--------------------+
 
Energies :
 Fermi                       :     0.387692331337    
 sum of eigenvalues          :     -994.095315823    
 electron kinetic            :      1729.03707995    
 core electron kinetic       :      1590.61274967    
 Coulomb                     :     -3352.08585852    
 Coulomb potential           :     -2610.56573312    
 nuclear-nuclear             :     -237.164034529    
 electron-nuclear            :     -3619.27791486    
 Hartree                     :      504.356090867    
 Madelung                    :     -2046.80299196    
 xc potential                :     -112.566662653    
 exchange                    :     -83.3818008781    
 correlation                 :     -1.93521233223    
 total energy                :     -1708.36579178    
 
Density of states at Fermi energy :    46.36026148    
 (states/Hartree/unit cell)
 
Estimated indirect band gap :   0.2287160464E-03
 from k-point    198 to k-point    290
Estimated direct band gap   :   0.6008869466E-03
 at k-point    198
 
Charges :
 core                        :    20.00000000    
 valence                     :    24.00000000    
 interstitial                :    3.038926108    
 muffin-tins (core leakage)
  species :    1 (Ti)
   atom    1                 :    20.48053695     (  0.3385999037E-08)
   atom    2                 :    20.48053695     (  0.3385999037E-08)
 total in muffin-tins        :    40.96107389    
 total calculated charge     :    43.99996356    
 total charge                :    44.00000000    
 error                       :   0.3644277563E-04
 
Wrote STATE.OUT
 
RMS change in Kohn-Sham potential (target) :   0.1147543854E-03 (   10.00000000    )
Absolute change in total energy (target)   :   0.5796974392E-05 (  0.1000000000E-07)
 
Time (CPU seconds) :      1770.56
 
+--------------------+
| Loop number :   27 |
+--------------------+
 
Energies :
 Fermi                       :     0.387692361388    
 sum of eigenvalues          :     -994.095316251    
 electron kinetic            :      1729.03708055    
 core electron kinetic       :      1590.61275126    
 Coulomb                     :     -3352.08586064    
 Coulomb potential           :     -2610.56573404    
 nuclear-nuclear             :     -237.164034529    
 electron-nuclear            :     -3619.27791819    
 Hartree                     :      504.356092071    
 Madelung                    :     -2046.80299362    
 xc potential                :     -112.566662755    
 exchange                    :     -83.3818009461    
 correlation                 :     -1.93521233568    
 total energy                :     -1708.36579338    
 
Density of states at Fermi energy :    46.36027239    
 (states/Hartree/unit cell)
 
Estimated indirect band gap :   0.2287185929E-03
 from k-point    198 to k-point    290
Estimated direct band gap   :   0.6008866372E-03
 at k-point    198
 
Charges :
 core                        :    20.00000000    
 valence                     :    24.00000000    
 interstitial                :    3.038926076    
 muffin-tins (core leakage)
  species :    1 (Ti)
   atom    1                 :    20.48053696     (  0.3435111751E-08)
   atom    2                 :    20.48053696     (  0.3435111751E-08)
 total in muffin-tins        :    40.96107392    
 total calculated charge     :    43.99996356    
 total charge                :    44.00000000    
 error                       :   0.3644291773E-04
 
RMS change in Kohn-Sham potential (target) :   0.1345481726E-03 (   10.00000000    )
Absolute change in total energy (target)   :   0.3051398835E-05 (  0.1000000000E-07)
 
Time (CPU seconds) :      1839.38
 
+--------------------+
| Loop number :   28 |
+--------------------+
 
Energies :
 Fermi                       :     0.387692365633    
 sum of eigenvalues          :     -994.095316272    
 electron kinetic            :      1729.03708059    
 core electron kinetic       :      1590.61275095    
 Coulomb                     :     -3352.08586068    
 Coulomb potential           :     -2610.56573411    
 nuclear-nuclear             :     -237.164034529    
 electron-nuclear            :     -3619.27791819    
 Hartree                     :      504.356092036    
 Madelung                    :     -2046.80299362    
 xc potential                :     -112.566662751    
 exchange                    :     -83.3818009428    
 correlation                 :     -1.93521233565    
 total energy                :     -1708.36579336    
 
Density of states at Fermi energy :    46.36027346    
 (states/Hartree/unit cell)
 
Estimated indirect band gap :   0.2287187040E-03
 from k-point    198 to k-point    290
Estimated direct band gap   :   0.6008867068E-03
 at k-point    198
 
Charges :
 core                        :    20.00000000    
 valence                     :    24.00000000    
 interstitial                :    3.038926076    
 muffin-tins (core leakage)
  species :    1 (Ti)
   atom    1                 :    20.48053696     (  0.3434761808E-08)
   atom    2                 :    20.48053696     (  0.3434761808E-08)
 total in muffin-tins        :    40.96107392    
 total calculated charge     :    43.99996356    
 total charge                :    44.00000000    
 error                       :   0.3644294161E-04
 
Wrote STATE.OUT
 
RMS change in Kohn-Sham potential (target) :   0.2483788147E-03 (   10.00000000    )
Absolute change in total energy (target)   :   0.7488163192E-06 (  0.1000000000E-07)
 
Time (CPU seconds) :      1906.81
 
+--------------------+
| Loop number :   29 |
+--------------------+
 
Energies :
 Fermi                       :     0.387692337160    
 sum of eigenvalues          :     -994.095316967    
 electron kinetic            :      1729.03707970    
 core electron kinetic       :      1590.61275083    
 Coulomb                     :     -3352.08586022    
 Coulomb potential           :     -2610.56573393    
 nuclear-nuclear             :     -237.164034529    
 electron-nuclear            :     -3619.27791745    
 Hartree                     :      504.356091757    
 Madelung                    :     -2046.80299325    
 xc potential                :     -112.566662734    
 exchange                    :     -83.3818009313    
 correlation                 :     -1.93521233440    
 total energy                :     -1708.36579378    
 
Density of states at Fermi energy :    46.36027237    
 (states/Hartree/unit cell)
 
Estimated indirect band gap :   0.2287180287E-03
 from k-point    198 to k-point    290
Estimated direct band gap   :   0.6008867572E-03
 at k-point    198
 
Charges :
 core                        :    20.00000000    
 valence                     :    24.00000000    
 interstitial                :    3.038926096    
 muffin-tins (core leakage)
  species :    1 (Ti)
   atom    1                 :    20.48053695     (  0.3372065294E-08)
   atom    2                 :    20.48053695     (  0.3372065294E-08)
 total in muffin-tins        :    40.96107390    
 total calculated charge     :    43.99996356    
 total charge                :    44.00000000    
 error                       :   0.3644273959E-04
 
RMS change in Kohn-Sham potential (target) :   0.1034337894E-04 (   10.00000000    )
Absolute change in total energy (target)   :   0.6073651093E-06 (  0.1000000000E-07)
 
Time (CPU seconds) :      1975.36
 
+--------------------+
| Loop number :   30 |
+--------------------+
 
Energies :
 Fermi                       :     0.387692450470    
 sum of eigenvalues          :     -994.095314509    
 electron kinetic            :      1729.03708336    
 core electron kinetic       :      1590.61275311    
 Coulomb                     :     -3352.08586336    
 Coulomb potential           :     -2610.56573503    
 nuclear-nuclear             :     -237.164034529    
 electron-nuclear            :     -3619.27792263    
 Hartree                     :      504.356093799    
 Madelung                    :     -2046.80299584    
 xc potential                :     -112.566662842    
 exchange                    :     -83.3818009997    
 correlation                 :     -1.93521233905    
 total energy                :     -1708.36579333    
 
Density of states at Fermi energy :    46.36027911    
 (states/Hartree/unit cell)
 
Estimated indirect band gap :   0.2287211794E-03
 from k-point    198 to k-point    290
Estimated direct band gap   :   0.6008865063E-03
 at k-point    198
 
Charges :
 core                        :    20.00000000    
 valence                     :    24.00000000    
 interstitial                :    3.038926014    
 muffin-tins (core leakage)
  species :    1 (Ti)
   atom    1                 :    20.48053699     (  0.3414463379E-08)
   atom    2                 :    20.48053699     (  0.3414463379E-08)
 total in muffin-tins        :    40.96107399    
 total calculated charge     :    43.99996356    
 total charge                :    44.00000000    
 error                       :   0.3644283426E-04
 
Wrote STATE.OUT
 
RMS change in Kohn-Sham potential (target) :   0.5739412866E-04 (   10.00000000    )
Absolute change in total energy (target)   :   0.2993394901E-06 (  0.1000000000E-07)
 
Time (CPU seconds) :      2043.27
 
+--------------------+
| Loop number :   31 |
+--------------------+
 
Energies :
 Fermi                       :     0.387692502529    
 sum of eigenvalues          :     -994.095313065    
 electron kinetic            :      1729.03708506    
 core electron kinetic       :      1590.61275406    
 Coulomb                     :     -3352.08586420    
 Coulomb potential           :     -2610.56573524    
 nuclear-nuclear             :     -237.164034529    
 electron-nuclear            :     -3619.27792410    
 Hartree                     :      504.356094432    
 Madelung                    :     -2046.80299658    
 xc potential                :     -112.566662885    
 exchange                    :     -83.3818010211    
 correlation                 :     -1.93521234146    
 total energy                :     -1708.36579250    
 
Density of states at Fermi energy :    46.36027935    
 (states/Hartree/unit cell)
 
Estimated indirect band gap :   0.2287222231E-03
 from k-point    198 to k-point    290
Estimated direct band gap   :   0.6008864078E-03
 at k-point    198
 
Charges :
 core                        :    20.00000000    
 valence                     :    24.00000000    
 interstitial                :    3.038925974    
 muffin-tins (core leakage)
  species :    1 (Ti)
   atom    1                 :    20.48053701     (  0.3382814029E-08)
   atom    2                 :    20.48053701     (  0.3382814029E-08)
 total in muffin-tins        :    40.96107403    
 total calculated charge     :    43.99996356    
 total charge                :    44.00000000    
 error                       :   0.3644283878E-04
 
RMS change in Kohn-Sham potential (target) :   0.7319788311E-04 (   10.00000000    )
Absolute change in total energy (target)   :   0.9042769307E-06 (  0.1000000000E-07)
 
Time (CPU seconds) :      2110.23
 
+--------------------+
| Loop number :   32 |
+--------------------+
 
Energies :
 Fermi                       :     0.387692511506    
 sum of eigenvalues          :     -994.095312763    
 electron kinetic            :      1729.03708539    
 core electron kinetic       :      1590.61275409    
 Coulomb                     :     -3352.08586421    
 Coulomb potential           :     -2610.56573526    
 nuclear-nuclear             :     -237.164034529    
 electron-nuclear            :     -3619.27792410    
 Hartree                     :      504.356094423    
 Madelung                    :     -2046.80299658    
 xc potential                :     -112.566662889    
 exchange                    :     -83.3818010220    
 correlation                 :     -1.93521234168    
 total energy                :     -1708.36579219    
 
Density of states at Fermi energy :    46.36027891    
 (states/Hartree/unit cell)
 
Estimated indirect band gap :   0.2287223144E-03
 from k-point    198 to k-point    290
Estimated direct band gap   :   0.6008864053E-03
 at k-point    198
 
Charges :
 core                        :    20.00000000    
 valence                     :    24.00000000    
 interstitial                :    3.038925968    
 muffin-tins (core leakage)
  species :    1 (Ti)
   atom    1                 :    20.48053702     (  0.3394863057E-08)
   atom    2                 :    20.48053702     (  0.3394863057E-08)
 total in muffin-tins        :    40.96107403    
 total calculated charge     :    43.99996356    
 total charge                :    44.00000000    
 error                       :   0.3644286856E-04
 
Wrote STATE.OUT
 
RMS change in Kohn-Sham potential (target) :   0.6009888141E-04 (   10.00000000    )
Absolute change in total energy (target)   :   0.5409854111E-06 (  0.1000000000E-07)
 
Time (CPU seconds) :      2177.44
 
+--------------------+
| Loop number :   33 |
+--------------------+
 
Energies :
 Fermi                       :     0.387692551152    
 sum of eigenvalues          :     -994.095311666    
 electron kinetic            :      1729.03708674    
 core electron kinetic       :      1590.61275526    
 Coulomb                     :     -3352.08586506    
 Coulomb potential           :     -2610.56573548    
 nuclear-nuclear             :     -237.164034529    
 electron-nuclear            :     -3619.27792558    
 Hartree                     :      504.356095052    
 Madelung                    :     -2046.80299732    
 xc potential                :     -112.566662923    
 exchange                    :     -83.3818010434    
 correlation                 :     -1.93521234330    
 total energy                :     -1708.36579171    
 
Density of states at Fermi energy :    46.36027931    
 (states/Hartree/unit cell)
 
Estimated indirect band gap :   0.2287232030E-03
 from k-point    198 to k-point    290
Estimated direct band gap   :   0.6008862732E-03
 at k-point    198
 
Charges :
 core                        :    20.00000000    
 valence                     :    24.00000000    
 interstitial                :    3.038925937    
 muffin-tins (core leakage)
  species :    1 (Ti)
   atom    1                 :    20.48053703     (  0.3380188573E-08)
   atom    2                 :    20.48053703     (  0.3380188573E-08)
 total in muffin-tins        :    40.96107406    
 total calculated charge     :    43.99996356    
 total charge                :    44.00000000    
 error                       :   0.3644284420E-04
 
RMS change in Kohn-Sham potential (target) :   0.7212529842E-04 (   10.00000000    )
Absolute change in total energy (target)   :   0.6124037100E-06 (  0.1000000000E-07)
 
Time (CPU seconds) :      2244.79
 
+--------------------+
| Loop number :   34 |
+--------------------+
 
Energies :
 Fermi                       :     0.387692527872    
 sum of eigenvalues          :     -994.095312409    
 electron kinetic            :      1729.03708594    
 core electron kinetic       :      1590.61275465    
 Coulomb                     :     -3352.08586467    
 Coulomb potential           :     -2610.56573544    
 nuclear-nuclear             :     -237.164034529    
 electron-nuclear            :     -3619.27792484    
 Hartree                     :      504.356094701    
 Madelung                    :     -2046.80299695    
 xc potential                :     -112.566662907    
 exchange                    :     -83.3818010353    
 correlation                 :     -1.93521234237    
 total energy                :     -1708.36579211    
 
Density of states at Fermi energy :    46.36027993    
 (states/Hartree/unit cell)
 
Estimated indirect band gap :   0.2287228239E-03
 from k-point    198 to k-point    290
Estimated direct band gap   :   0.6008863364E-03
 at k-point    198
 
Charges :
 core                        :    20.00000000    
 valence                     :    24.00000000    
 interstitial                :    3.038925955    
 muffin-tins (core leakage)
  species :    1 (Ti)
   atom    1                 :    20.48053702     (  0.3342753629E-08)
   atom    2                 :    20.48053702     (  0.3342753629E-08)
 total in muffin-tins        :    40.96107404    
 total calculated charge     :    43.99996356    
 total charge                :    44.00000000    
 error                       :   0.3644275330E-04
 
Wrote STATE.OUT
 
RMS change in Kohn-Sham potential (target) :   0.2793099619E-04 (   10.00000000    )
Absolute change in total energy (target)   :   0.2447966381E-06 (  0.1000000000E-07)
 
Time (CPU seconds) :      2313.64
 
+--------------------+
| Loop number :   35 |
+--------------------+
 
Energies :
 Fermi                       :     0.387692561672    
 sum of eigenvalues          :     -994.095311469    
 electron kinetic            :      1729.03708703    
 core electron kinetic       :      1590.61275539    
 Coulomb                     :     -3352.08586510    
 Coulomb potential           :     -2610.56573557    
 nuclear-nuclear             :     -237.164034529    
 electron-nuclear            :     -3619.27792558    
 Hartree                     :      504.356095009    
 Madelung                    :     -2046.80299732    
 xc potential                :     -112.566662933    
 exchange                    :     -83.3818010489    
 correlation                 :     -1.93521234386    
 total energy                :     -1708.36579147    
 
Density of states at Fermi energy :    46.36028000    
 (states/Hartree/unit cell)
 
Estimated indirect band gap :   0.2287235077E-03
 from k-point    198 to k-point    290
Estimated direct band gap   :   0.6008862698E-03
 at k-point    198
 
Charges :
 core                        :    20.00000000    
 valence                     :    24.00000000    
 interstitial                :    3.038925929    
 muffin-tins (core leakage)
  species :    1 (Ti)
   atom    1                 :    20.48053704     (  0.3411814831E-08)
   atom    2                 :    20.48053704     (  0.3411814831E-08)
 total in muffin-tins        :    40.96107407    
 total calculated charge     :    43.99996356    
 total charge                :    44.00000000    
 error                       :   0.3644286025E-04
 
RMS change in Kohn-Sham potential (target) :   0.6521369428E-04 (   10.00000000    )
Absolute change in total energy (target)   :   0.5813233201E-06 (  0.1000000000E-07)
 
Time (CPU seconds) :      2380.51
 
+--------------------+
| Loop number :   36 |
+--------------------+
 
Energies :
 Fermi                       :     0.387692557770    
 sum of eigenvalues          :     -994.095311649    
 electron kinetic            :      1729.03708690    
 core electron kinetic       :      1590.61275500    
 Coulomb                     :     -3352.08586513    
 Coulomb potential           :     -2610.56573562    
 nuclear-nuclear             :     -237.164034529    
 electron-nuclear            :     -3619.27792558    
 Hartree                     :      504.356094982    
 Madelung                    :     -2046.80299732    
 xc potential                :     -112.566662933    
 exchange                    :     -83.3818010495    
 correlation                 :     -1.93521234366    
 total energy                :     -1708.36579162    
 
Density of states at Fermi energy :    46.36028054    
 (states/Hartree/unit cell)
 
Estimated indirect band gap :   0.2287234960E-03
 from k-point    198 to k-point    290
Estimated direct band gap   :   0.6008862929E-03
 at k-point    198
 
Charges :
 core                        :    20.00000000    
 valence                     :    24.00000000    
 interstitial                :    3.038925932    
 muffin-tins (core leakage)
  species :    1 (Ti)
   atom    1                 :    20.48053703     (  0.3357570222E-08)
   atom    2                 :    20.48053703     (  0.3357570222E-08)
 total in muffin-tins        :    40.96107407    
 total calculated charge     :    43.99996356    
 total charge                :    44.00000000    
 error                       :   0.3644279996E-04
 
Wrote STATE.OUT
 
RMS change in Kohn-Sham potential (target) :   0.3468769011E-04 (   10.00000000    )
Absolute change in total energy (target)   :   0.8746155800E-08 (  0.1000000000E-07)
 
Convergence targets achieved
 
Time (CPU seconds) :      2449.02
 
+--------------------+
| Loop number :   37 |
+--------------------+
 
Energies :
 Fermi                       :     0.387692599720    
 sum of eigenvalues          :     -994.095310310    
 electron kinetic            :      1729.03708832    
 core electron kinetic       :      1590.61275596    
 Coulomb                     :     -3352.08586553    
 Coulomb potential           :     -2610.56573567    
 nuclear-nuclear             :     -237.164034529    
 electron-nuclear            :     -3619.27792632    
 Hartree                     :      504.356095325    
 Madelung                    :     -2046.80299769    
 xc potential                :     -112.566662960    
 exchange                    :     -83.3818010620    
 correlation                 :     -1.93521234541    
 total energy                :     -1708.36579061    
 
Density of states at Fermi energy :    46.36027933    
 (states/Hartree/unit cell)
 
Estimated indirect band gap :   0.2287241551E-03
 from k-point    198 to k-point    290
Estimated direct band gap   :   0.6008861978E-03
 at k-point    198
 
Charges :
 core                        :    20.00000000    
 valence                     :    24.00000000    
 interstitial                :    3.038925899    
 muffin-tins (core leakage)
  species :    1 (Ti)
   atom    1                 :    20.48053705     (  0.3399650339E-08)
   atom    2                 :    20.48053705     (  0.3399650339E-08)
 total in muffin-tins        :    40.96107410    
 total calculated charge     :    43.99996356    
 total charge                :    44.00000000    
 error                       :   0.3644281959E-04
 
+------------------------------+
| Self-consistent loop stopped |
+------------------------------+
 
Wrote STATE.OUT
 
Timings (CPU seconds) :
 initialisation                        :         1.09
 Hamiltonian and overlap matrix set up :       704.40
 first-variational eigenvalue equation :       924.82
 charge density calculation            :       280.66
 potential calculation                 :       606.09
 total                                 :      2517.06
 
+----------------------------+
| Elk version 8.3.15 stopped |
+----------------------------+
