   56.64491344    
   57.52247367    
   62.85074343    
   71.67111668    
   71.06099449    
   65.80347909    
   63.06978382    
   63.04379964    
   63.03602129    
   63.03565066    
   63.03590459    
   63.03617122    
   63.03617128    
   63.03622653    
   63.03614510    
   63.03623630    
   63.03621306    
   63.03621478    
   63.03620284    
   63.03620066    
   63.03615061    
   63.03617063    
   63.03617114    
   63.03617353    
   63.03617832    
   63.03618189    
   63.03618065    
   63.03618291    
   63.03618391    
   63.03618398    
   63.03618173    
   63.03618359    
   63.03618411    
   63.03618473    
   63.03618509    
   63.03618560    
   63.03618587    
   63.03618549    
   63.03618523    
   63.03618514    
   63.03618480    
   63.03618492    
   63.03618509    
   63.03618526    
   63.03618529    
   63.03618529    
   63.03618538    
   63.03618540    
   63.03618545    
   63.03618545    
   63.03618547    
   63.03618547    
   63.03618547    
