  0.7899173301    
  0.6838919657    
  0.3886428393    
  0.1480114579    
  0.4195553247E-01
  0.2399807171E-02
  0.1315232387E-02
  0.4860569716E-03
  0.9710232451E-03
  0.2448452791E-03
  0.3397737674E-03
  0.5246682139E-04
  0.6117976488E-03
  0.3621882547E-03
  0.1827815545E-03
  0.4242148328E-04
  0.9002516094E-04
  0.1749958943E-04
  0.8189077077E-03
  0.7828586214E-04
  0.1484457341E-03
  0.6694627061E-04
  0.6741261971E-04
  0.1134040937E-03
  0.1064535938E-03
  0.7516045039E-04
  0.4747269821E-04
  0.1338858818E-03
  0.5698671920E-03
  0.1748579981E-03
  0.1737827001E-03
  0.1534758894E-03
  0.2863881497E-03
  0.2952769510E-04
  0.5160887053E-04
  0.8028061840E-04
  0.2979144754E-03
  0.1597559230E-04
  0.3929157249E-03
  0.1929185129E-04
  0.7714386477E-04
  0.7738946874E-04
  0.2928791832E-04
  0.3276500197E-04
  0.2930127901E-04
  0.4015763503E-03
  0.4717837680E-03
  0.1309124807E-03
  0.2192137082E-03
  0.8181566979E-04
  0.7686057772E-04
