 
Species :    1 (Sc), atom :    1
 n =  1, l =  0, k =  1 :   -161.5065117    
 n =  2, l =  0, k =  1 :   -16.98439013    
 n =  2, l =  1, k =  1 :   -13.92343251    
 n =  2, l =  1, k =  2 :   -13.75197298    
 
Species :    1 (Sc), atom :    2
 n =  1, l =  0, k =  1 :   -161.5065117    
 n =  2, l =  0, k =  1 :   -16.98439013    
 n =  2, l =  1, k =  1 :   -13.92343251    
 n =  2, l =  1, k =  2 :   -13.75197298    
