 
Species :    1 (Ti), atom :    1
 APW functions :
  l =  0, energy derivative =  0 :   0.2286912153    
  l =  1, energy derivative =  0 :   0.2286912153    
  l =  2, energy derivative =  0 :   0.2286912153    
  l =  3, energy derivative =  0 :   0.2286912153    
  l =  4, energy derivative =  0 :   0.2286912153    
  l =  5, energy derivative =  0 :   0.2286912153    
  l =  6, energy derivative =  0 :   0.2286912153    
  l =  7, energy derivative =  0 :   0.2286912153    
  l =  8, energy derivative =  0 :   0.2286912153    
  l =  9, energy derivative =  0 :   0.2286912153    
  l = 10, energy derivative =  0 :   0.2286912153    
 local-orbital functions :
  l.o. =  1, l =  0, energy derivative =  0 :   0.2286912153    
  l.o. =  1, l =  0, energy derivative =  1 :   0.2286912153    
  l.o. =  2, l =  1, energy derivative =  0 :   0.2286912153    
  l.o. =  2, l =  1, energy derivative =  1 :   0.2286912153    
  l.o. =  3, l =  2, energy derivative =  0 :   0.2286912153    
  l.o. =  3, l =  2, energy derivative =  1 :   0.2286912153    
  l.o. =  4, l =  0, energy derivative =  0 :   0.2286912153    
  l.o. =  4, l =  0, energy derivative =  0 :   -1.770896492    
  l.o. =  5, l =  1, energy derivative =  0 :   0.2286912153    
  l.o. =  5, l =  1, energy derivative =  0 :  -0.8894705841    
  l.o. =  6, l =  3, energy derivative =  0 :   0.2286912153    
  l.o. =  6, l =  3, energy derivative =  1 :   0.2286912153    
  l.o. =  7, l =  4, energy derivative =  0 :   0.2286912153    
  l.o. =  7, l =  4, energy derivative =  1 :   0.2286912153    
  l.o. =  8, l =  5, energy derivative =  0 :   0.2286912153    
  l.o. =  8, l =  5, energy derivative =  1 :   0.2286912153    
  l.o. =  9, l =  0, energy derivative =  0 :    1.395075840    
  l.o. =  9, l =  0, energy derivative =  1 :    1.395075840    
  l.o. =  9, l =  0, energy derivative =  2 :    1.395075840    
  l.o. = 10, l =  1, energy derivative =  0 :    1.844613133    
  l.o. = 10, l =  1, energy derivative =  1 :    1.844613133    
  l.o. = 10, l =  1, energy derivative =  2 :    1.844613133    
  l.o. = 11, l =  2, energy derivative =  0 :   0.4440818687    
  l.o. = 11, l =  2, energy derivative =  1 :   0.4440818687    
  l.o. = 11, l =  2, energy derivative =  2 :   0.4440818687    
  l.o. = 12, l =  3, energy derivative =  0 :    2.401622569    
  l.o. = 12, l =  3, energy derivative =  1 :    2.401622569    
  l.o. = 12, l =  3, energy derivative =  2 :    2.401622569    
  l.o. = 13, l =  4, energy derivative =  0 :    3.918913517    
  l.o. = 13, l =  4, energy derivative =  1 :    3.918913517    
  l.o. = 13, l =  4, energy derivative =  2 :    3.918913517    
  l.o. = 14, l =  5, energy derivative =  0 :    5.535277907    
  l.o. = 14, l =  5, energy derivative =  1 :    5.535277907    
  l.o. = 14, l =  5, energy derivative =  2 :    5.535277907    
  l.o. = 15, l =  6, energy derivative =  0 :    7.311356329    
  l.o. = 15, l =  6, energy derivative =  1 :    7.311356329    
  l.o. = 15, l =  6, energy derivative =  2 :    7.311356329    
  l.o. = 16, l =  7, energy derivative =  0 :    9.264505754    
  l.o. = 16, l =  7, energy derivative =  1 :    9.264505754    
  l.o. = 16, l =  7, energy derivative =  2 :    9.264505754    
  l.o. = 17, l =  8, energy derivative =  0 :    11.40132950    
  l.o. = 17, l =  8, energy derivative =  1 :    11.40132950    
  l.o. = 17, l =  8, energy derivative =  2 :    11.40132950    
 
Species :    1 (Ti), atom :    2
 APW functions :
  l =  0, energy derivative =  0 :   0.2286912153    
  l =  1, energy derivative =  0 :   0.2286912153    
  l =  2, energy derivative =  0 :   0.2286912153    
  l =  3, energy derivative =  0 :   0.2286912153    
  l =  4, energy derivative =  0 :   0.2286912153    
  l =  5, energy derivative =  0 :   0.2286912153    
  l =  6, energy derivative =  0 :   0.2286912153    
  l =  7, energy derivative =  0 :   0.2286912153    
  l =  8, energy derivative =  0 :   0.2286912153    
  l =  9, energy derivative =  0 :   0.2286912153    
  l = 10, energy derivative =  0 :   0.2286912153    
 local-orbital functions :
  l.o. =  1, l =  0, energy derivative =  0 :   0.2286912153    
  l.o. =  1, l =  0, energy derivative =  1 :   0.2286912153    
  l.o. =  2, l =  1, energy derivative =  0 :   0.2286912153    
  l.o. =  2, l =  1, energy derivative =  1 :   0.2286912153    
  l.o. =  3, l =  2, energy derivative =  0 :   0.2286912153    
  l.o. =  3, l =  2, energy derivative =  1 :   0.2286912153    
  l.o. =  4, l =  0, energy derivative =  0 :   0.2286912153    
  l.o. =  4, l =  0, energy derivative =  0 :   -1.770896492    
  l.o. =  5, l =  1, energy derivative =  0 :   0.2286912153    
  l.o. =  5, l =  1, energy derivative =  0 :  -0.8894705841    
  l.o. =  6, l =  3, energy derivative =  0 :   0.2286912153    
  l.o. =  6, l =  3, energy derivative =  1 :   0.2286912153    
  l.o. =  7, l =  4, energy derivative =  0 :   0.2286912153    
  l.o. =  7, l =  4, energy derivative =  1 :   0.2286912153    
  l.o. =  8, l =  5, energy derivative =  0 :   0.2286912153    
  l.o. =  8, l =  5, energy derivative =  1 :   0.2286912153    
  l.o. =  9, l =  0, energy derivative =  0 :    1.395075840    
  l.o. =  9, l =  0, energy derivative =  1 :    1.395075840    
  l.o. =  9, l =  0, energy derivative =  2 :    1.395075840    
  l.o. = 10, l =  1, energy derivative =  0 :    1.844613133    
  l.o. = 10, l =  1, energy derivative =  1 :    1.844613133    
  l.o. = 10, l =  1, energy derivative =  2 :    1.844613133    
  l.o. = 11, l =  2, energy derivative =  0 :   0.4440818687    
  l.o. = 11, l =  2, energy derivative =  1 :   0.4440818687    
  l.o. = 11, l =  2, energy derivative =  2 :   0.4440818687    
  l.o. = 12, l =  3, energy derivative =  0 :    2.401622569    
  l.o. = 12, l =  3, energy derivative =  1 :    2.401622569    
  l.o. = 12, l =  3, energy derivative =  2 :    2.401622569    
  l.o. = 13, l =  4, energy derivative =  0 :    3.918913517    
  l.o. = 13, l =  4, energy derivative =  1 :    3.918913517    
  l.o. = 13, l =  4, energy derivative =  2 :    3.918913517    
  l.o. = 14, l =  5, energy derivative =  0 :    5.535277907    
  l.o. = 14, l =  5, energy derivative =  1 :    5.535277907    
  l.o. = 14, l =  5, energy derivative =  2 :    5.535277907    
  l.o. = 15, l =  6, energy derivative =  0 :    7.311356329    
  l.o. = 15, l =  6, energy derivative =  1 :    7.311356329    
  l.o. = 15, l =  6, energy derivative =  2 :    7.311356329    
  l.o. = 16, l =  7, energy derivative =  0 :    9.264505754    
  l.o. = 16, l =  7, energy derivative =  1 :    9.264505754    
  l.o. = 16, l =  7, energy derivative =  2 :    9.264505754    
  l.o. = 17, l =  8, energy derivative =  0 :    11.40132950    
  l.o. = 17, l =  8, energy derivative =  1 :    11.40132950    
  l.o. = 17, l =  8, energy derivative =  2 :    11.40132950    
