 
+----------------------------+
| Real-space lattice vectors |
+----------------------------+
 
vector a1 :    4.648689187      -2.683921953       0.000000000    
vector a2 :    0.000000000       5.367843907       0.000000000    
vector a3 :    0.000000000       0.000000000       7.959813100    
 
Stored column-wise as a matrix :
   4.648689187       0.000000000       0.000000000    
  -2.683921953       5.367843907       0.000000000    
   0.000000000       0.000000000       7.959813100    
 
Inverse of matrix :
  0.2151144032       0.000000000       0.000000000    
  0.1075572016      0.1862945379       0.000000000    
   0.000000000       0.000000000      0.1256310905    
 
Unit cell volume :    198.6247021    
 
 
+----------------------------------+
| Reciprocal-space lattice vectors |
+----------------------------------+
 
vector b1 :    1.351603657       0.000000000       0.000000000    
vector b2 :   0.6758018286       1.170523103       0.000000000    
vector b3 :    0.000000000       0.000000000      0.7893634220    
 
Stored column-wise as a matrix :
   1.351603657      0.6758018286       0.000000000    
   0.000000000       1.170523103       0.000000000    
   0.000000000       0.000000000      0.7893634220    
 
Inverse of matrix :
  0.7398618631     -0.4271594458       0.000000000    
   0.000000000      0.8543188915       0.000000000    
   0.000000000       0.000000000       1.266843601    
 
Brillouin zone volume :    1.248838693    
