  0.2839175776E-01
  0.2265955726E-01
  0.8578748158E-02
  0.2747652503E-02
  0.1196791794E-02
  0.5850410841E-03
  0.2322580062E-04
  0.2936763330E-04
  0.1688364029E-04
  0.2916557965E-04
  0.1071329621E-04
  0.2136833056E-05
  0.1595142686E-04
  0.1754912499E-04
  0.3320266208E-05
  0.1713209386E-05
  0.6232320824E-04
  0.6025435286E-05
  0.3911181655E-04
  0.9964196442E-05
  0.5050345994E-05
  0.7878219506E-05
  0.6539435312E-05
  0.6831956247E-05
  0.3094039225E-04
  0.4736579065E-04
  0.2252443277E-04
  0.1244173356E-04
  0.5804362471E-05
  0.4090093452E-04
  0.5024381532E-05
  0.7779110838E-05
  0.2934395301E-04
  0.3604081299E-04
  0.4540441125E-04
  0.9262872058E-04
  0.3400192301E-04
  0.3197298667E-05
  0.3212352990E-04
  0.7266287769E-05
  0.3822591824E-04
  0.3444280430E-04
  0.1416246677E-04
  0.4127859537E-04
  0.3811426328E-04
  0.1876228276E-04
  0.5222634996E-05
  0.1374045585E-04
  0.1051143277E-04
  0.6490835773E-05
  0.2177064867E-05
  0.3040654669E-04
  0.8926233644E-05
  0.2927403634E-04
  0.1565524237E-04
  0.2149985868E-04
  0.9117019419E-05
  0.6384391218E-04
  0.3159506495E-04
  0.9862767793E-05
  0.1671367342E-04
  0.8506018428E-05
  0.1168331948E-04
  0.3008016212E-04
  0.2180508136E-04
  0.2252480316E-05
  0.3144769847E-04
  0.2976784341E-05
  0.9197821591E-05
  0.3021393177E-04
  0.2039115745E-04
  0.3441464974E-05
  0.6001662703E-05
  0.3419258150E-04
  0.5357145710E-05
  0.7614428135E-04
  0.3671251361E-04
  0.5430146684E-05
  0.5410052945E-05
  0.4254495769E-04
  0.7125008672E-05
  0.5065353982E-04
  0.1992110227E-05
