    -1529.12419890    
    -1529.12519230    
    -1529.12678693    
    -1529.14293091    
    -1529.15115556    
    -1529.15455887    
    -1529.15668391    
    -1529.15727256    
    -1529.15674486    
    -1529.15664038    
    -1529.15665085    
    -1529.15666377    
    -1529.15667615    
    -1529.15667848    
    -1529.15668284    
    -1529.15668695    
    -1529.15668881    
    -1529.15668851    
    -1529.15668702    
    -1529.15668626    
    -1529.15668713    
    -1529.15668714    
    -1529.15668728    
    -1529.15668710    
    -1529.15668717    
    -1529.15668702    
    -1529.15668703    
    -1529.15668706    
    -1529.15668712    
    -1529.15668716    
    -1529.15668715    
    -1529.15668718    
