  0.5384642413E-02
  0.4214836450E-01
  0.1073525683    
  0.7207054322E-01
  0.5138140031E-01
  0.4478217027E-01
  0.4447238978E-02
  0.1257085845E-02
  0.3828376575E-03
  0.9317853255E-05
  0.1272910595E-04
  0.1212461939E-04
  0.8285722288E-04
  0.1053277811E-04
  0.6111527910E-05
  0.1601969416E-04
  0.1709791832E-05
  0.4244124284E-05
  0.4110770533E-06
  0.1062457159E-05
  0.1261672878E-05
  0.2157619747E-05
  0.2229950042E-05
  0.4284884199E-06
  0.1688400516E-05
  0.5290348781E-06
  0.1338703441E-06
  0.1569424057E-06
  0.5958063412E-06
  0.6526388461E-06
  0.6005138857E-06
  0.4463581718E-06
  0.5806577974E-06
  0.3779568942E-06
  0.3905879566E-06
  0.2946253517E-06
  0.1183871063E-06
  0.1946245902E-06
  0.2629603841E-06
  0.2299275366E-06
  0.7479684427E-08
