+----------------------------+
| Elk version 8.3.15 started |
+----------------------------+
 
Date (YYYY-MM-DD) : 2022-02-28
Time (hh:mm:ss)   : 08:45:16
 
All units are atomic (Hartree, Bohr, etc.)
 
+------------------------------------------+
| Ground-state run resuming from STATE.OUT |
+------------------------------------------+
 
Lattice vectors :
   4.647226580      -2.683077517       0.000000000    
   0.000000000       5.366155034       0.000000000    
   0.000000000       0.000000000       8.192466014    
 
Reciprocal lattice vectors :
   1.352029043       0.000000000       0.000000000    
  0.6760145216       1.170891498       0.000000000    
   0.000000000       0.000000000      0.7669467650    
 
Unit cell volume      :    204.3015736    
Brillouin zone volume :    1.214137557    
 
Muffin-tin inner radius fraction :   0.1000000000E-01
 
Species :    1 (Os)
 parameters loaded from : Os.in
 name : osmium
 nuclear charge    :   -76.00000000    
 electronic charge :    76.00000000    
 atomic mass :    346768.0765    
 muffin-tin radius :    2.370000000    
 number of radial points in muffin-tin :   1400
 number on inner part of muffin-tin    :   1017
 atomic positions (lattice), magnetic fields (Cartesian) :
   1 :   0.33333333  0.16666667  0.25000000    0.00000000  0.00000000  0.00000000
   2 :  -0.33333333 -0.16666667 -0.25000000    0.00000000  0.00000000  0.00000000
 
Total number of atoms per unit cell :    2
 
Spin treatment :
 spin-unpolarised
 
Number of Bravais lattice symmetries :   24
Number of crystal symmetries         :   24
Crystal has inversion symmetry
Real symmetric eigensolver will be used
 
k-point grid :     17    17    17
k-point offset :    0.000000000       0.000000000       0.000000000    
k-point set is reduced with full crystal symmetry group
Total number of k-points :      297
 
Muffin-tin radius times maximum |G+k| :    8.500000000    
 using gkmax = rgkmax / 2
Maximum |G+k| for APW functions       :    4.250000000    
Maximum (1/2)|G+k|²                   :    9.031250000    
Maximum |G| for potential and density :    34.00000000    
Constant for pseudocharge density :   20
Radial integration step length :    1
 
G-vector grid sizes :     60    60    90
Number of G-vectors :   135407
 
Maximum angular momentum used for
 APW functions                      :   10
 outer part of muffin-tin           :    8
 inner part of muffin-tin           :    1
 
Total nuclear charge    :   -152.0000000    
Total core charge       :    92.00000000    
Total valence charge    :    60.00000000    
Total excess charge     :    0.000000000    
Total electronic charge :    152.0000000    
 
Effective Wigner radius, rₛ :   0.6846151489    
 
Number of empty states         :   40
Total number of valence states :   71
Total number of core states    :   92
 
Conduction state local-orbitals added automatically
Total number of local-orbitals :  292
 
Using Libxc version 05.01.05
Exchange-correlation functional :    100   493   494
 exchange: mgga_x_rscan; correlation: mgga_c_rscan
 
Smearing type :    1
 Methfessel-Paxton order 1, Phys. Rev. B 40, 3616 (1989)
Smearing width :   0.1000000000E-02
Effective electronic temperature (K) :    315.7750248    
 
Mixing type :    3
 Broyden mixing, J. Phys. A: Math. Gen. 17, L317 (1984)
 
Potential read in from STATE.OUT
 
+------------------------------+
| Self-consistent loop started |
+------------------------------+
 
+--------------------+
| Loop number :    1 |
+--------------------+
 
Energies :
 Fermi                       :     0.641712857196    
 sum of eigenvalues          :     -21182.2394983    
 electron kinetic            :      39270.9874641    
 core electron kinetic       :      37772.8617461    
 Coulomb                     :     -73152.0958615    
 Coulomb potential           :     -59534.0428527    
 nuclear-nuclear             :     -2868.54174396    
 electron-nuclear            :     -81033.0653824    
 Hartree                     :      10749.5112649    
 Madelung                    :     -43385.0744352    
 xc potential                :     -919.184109657    
 exchange                    :     -684.782951735    
 correlation                 :     -9.38306265704    
 total energy                :     -34575.2744119    
 
Density of states at Fermi energy :    47.99286264    
 (states/Hartree/unit cell)
 
Estimated indirect band gap :   0.4666769067E-03
 from k-point    214 to k-point    183
Estimated direct band gap   :   0.3989302712E-02
 at k-point     72
 
Charges :
 core                        :    92.00000000    
 valence                     :    60.00000000    
 interstitial                :    4.459756862    
 muffin-tins (core leakage)
  species :    1 (Os)
   atom    1                 :    73.77012157     (  0.9344717284E-06)
   atom    2                 :    73.77012157     (  0.9344717284E-06)
 total in muffin-tins        :    147.5402431    
 total calculated charge     :    151.9997020    
 total charge                :    152.0000000    
 error                       :   0.2980411116E-03
 
Time (CPU seconds) :        97.53
 
+--------------------+
| Loop number :    2 |
+--------------------+
 
Energies :
 Fermi                       :     0.641702256768    
 sum of eigenvalues          :     -21182.2416449    
 electron kinetic            :      39270.9824673    
 core electron kinetic       :      37772.8662452    
 Coulomb                     :     -73152.0962102    
 Coulomb potential           :     -59534.0399515    
 nuclear-nuclear             :     -2868.54174396    
 electron-nuclear            :     -81033.0689809    
 Hartree                     :      10749.5145147    
 Madelung                    :     -43385.0762344    
 xc potential                :     -919.184160695    
 exchange                    :     -684.782992054    
 correlation                 :     -9.38306158694    
 total energy                :     -34575.2797965    
 
Density of states at Fermi energy :    47.80238785    
 (states/Hartree/unit cell)
 
Estimated indirect band gap :   0.4606318636E-03
 from k-point    214 to k-point    183
Estimated direct band gap   :   0.3981226366E-02
 at k-point     72
 
Charges :
 core                        :    92.00000000    
 valence                     :    60.00000000    
 interstitial                :    4.459670232    
 muffin-tins (core leakage)
  species :    1 (Os)
   atom    1                 :    73.77016488     (  0.9344493392E-06)
   atom    2                 :    73.77016488     (  0.9344493392E-06)
 total in muffin-tins        :    147.5403298    
 total calculated charge     :    151.9997020    
 total charge                :    152.0000000    
 error                       :   0.2980392134E-03
 
Wrote STATE.OUT
 
RMS change in Kohn-Sham potential (target) :   0.3358162721E-01 (   10.00000000    )
Absolute change in total energy (target)   :   0.5384642413E-02 (  0.1000000000E-07)
 
Time (CPU seconds) :       192.30
 
+--------------------+
| Loop number :    3 |
+--------------------+
 
Energies :
 Fermi                       :     0.641623668114    
 sum of eigenvalues          :     -21182.2525329    
 electron kinetic            :      39270.9404679    
 core electron kinetic       :      37772.8668659    
 Coulomb                     :     -73152.0948589    
 Coulomb potential           :     -59534.0086449    
 nuclear-nuclear             :     -2868.54174396    
 electron-nuclear            :     -81033.0975849    
 Hartree                     :      10749.5444700    
 Madelung                    :     -43385.0905364    
 xc potential                :     -919.184355972    
 exchange                    :     -684.783156701    
 correlation                 :     -9.38305108938    
 total energy                :     -34575.3205987    
 
Density of states at Fermi energy :    45.03960361    
 (states/Hartree/unit cell)
 
Estimated indirect band gap :   0.1806038760E-03
 from k-point    183 to k-point    197
Estimated direct band gap   :   0.3965930322E-02
 at k-point     72
 
Charges :
 core                        :    92.00000000    
 valence                     :    60.00000000    
 interstitial                :    4.458866812    
 muffin-tins (core leakage)
  species :    1 (Os)
   atom    1                 :    73.77056659     (  0.9347271046E-06)
   atom    2                 :    73.77056659     (  0.9347271046E-06)
 total in muffin-tins        :    147.5411332    
 total calculated charge     :    151.9997021    
 total charge                :    152.0000000    
 error                       :   0.2979396651E-03
 
RMS change in Kohn-Sham potential (target) :   0.2983015118E-01 (   10.00000000    )
Absolute change in total energy (target)   :   0.4214836450E-01 (  0.1000000000E-07)
 
Time (CPU seconds) :       288.38
 
+--------------------+
| Loop number :    4 |
+--------------------+
 
Energies :
 Fermi                       :     0.641462996065    
 sum of eigenvalues          :     -21182.2674997    
 electron kinetic            :      39270.8434491    
 core electron kinetic       :      37772.8550988    
 Coulomb                     :     -73152.0942303    
 Coulomb potential           :     -59533.9260535    
 nuclear-nuclear             :     -2868.54174396    
 electron-nuclear            :     -81033.1789192    
 Hartree                     :      10749.6264328    
 Madelung                    :     -43385.1312035    
 xc potential                :     -919.184895265    
 exchange                    :     -684.783610676    
 correlation                 :     -9.38302228783    
 total energy                :     -34575.4174142    
 
Density of states at Fermi energy :    35.75668595    
 (states/Hartree/unit cell)
 
Estimated indirect band gap :   0.5597828079E-03
 from k-point    197 to k-point     85
Estimated direct band gap   :   0.4008260675E-02
 at k-point     72
 
Charges :
 core                        :    92.00000000    
 valence                     :    60.00000000    
 interstitial                :    4.456891262    
 muffin-tins (core leakage)
  species :    1 (Os)
   atom    1                 :    73.77155437     (  0.9348059962E-06)
   atom    2                 :    73.77155437     (  0.9348059962E-06)
 total in muffin-tins        :    147.5431087    
 total calculated charge     :    151.9997024    
 total charge                :    152.0000000    
 error                       :   0.2975645163E-03
 
Wrote STATE.OUT
 
RMS change in Kohn-Sham potential (target) :   0.1935874479E-01 (   10.00000000    )
Absolute change in total energy (target)   :   0.1073525683     (  0.1000000000E-07)
 
Time (CPU seconds) :       389.52
 
+--------------------+
| Loop number :    5 |
+--------------------+
 
Energies :
 Fermi                       :     0.641445617860    
 sum of eigenvalues          :     -21182.2629455    
 electron kinetic            :      39270.8006078    
 core electron kinetic       :      37772.8483066    
 Coulomb                     :     -73152.0963102    
 Coulomb potential           :     -59533.8782600    
 nuclear-nuclear             :     -2868.54174396    
 electron-nuclear            :     -81033.2308725    
 Hartree                     :      10749.6763062    
 Madelung                    :     -43385.1571802    
 xc potential                :     -919.185293286    
 exchange                    :     -684.783938996    
 correlation                 :     -9.38300517379    
 total energy                :     -34575.4626466    
 
Density of states at Fermi energy :    31.34518099    
 (states/Hartree/unit cell)
 
Estimated indirect band gap :   0.7972771124E-03
 from k-point    197 to k-point     85
Estimated direct band gap   :   0.4069402796E-02
 at k-point     72
 
Charges :
 core                        :    92.00000000    
 valence                     :    60.00000000    
 interstitial                :    4.455834201    
 muffin-tins (core leakage)
  species :    1 (Os)
   atom    1                 :    73.77208290     (  0.9348404859E-06)
   atom    2                 :    73.77208290     (  0.9348404859E-06)
 total in muffin-tins        :    147.5441658    
 total calculated charge     :    151.9997027    
 total charge                :    152.0000000    
 error                       :   0.2972724155E-03
 
RMS change in Kohn-Sham potential (target) :   0.1304425489E-01 (   10.00000000    )
Absolute change in total energy (target)   :   0.7207054322E-01 (  0.1000000000E-07)
 
Time (CPU seconds) :       484.96
 
+--------------------+
| Loop number :    6 |
+--------------------+
 
Energies :
 Fermi                       :     0.641500205457    
 sum of eigenvalues          :     -21182.2465910    
 electron kinetic            :      39270.7693402    
 core electron kinetic       :      37772.8475057    
 Coulomb                     :     -73152.0980886    
 Coulomb potential           :     -59533.8302315    
 nuclear-nuclear             :     -2868.54174396    
 electron-nuclear            :     -81033.2824578    
 Hartree                     :      10749.7261131    
 Madelung                    :     -43385.1829729    
 xc potential                :     -919.185699712    
 exchange                    :     -684.784274679    
 correlation                 :     -9.38298721680    
 total energy                :     -34575.4960103    
 
Density of states at Fermi energy :    28.38778553    
 (states/Hartree/unit cell)
 
Estimated indirect band gap :   0.1922086516E-03
 from k-point    197 to k-point     72
Estimated direct band gap   :   0.8091630871E-02
 at k-point    201
 
Charges :
 core                        :    92.00000000    
 valence                     :    60.00000000    
 interstitial                :    4.454805205    
 muffin-tins (core leakage)
  species :    1 (Os)
   atom    1                 :    73.77259740     (  0.9347865841E-06)
   atom    2                 :    73.77259740     (  0.9347865841E-06)
 total in muffin-tins        :    147.5451948    
 total calculated charge     :    151.9997031    
 total charge                :    152.0000000    
 error                       :   0.2969448365E-03
 
Wrote STATE.OUT
 
RMS change in Kohn-Sham potential (target) :   0.6543298659E-02 (   10.00000000    )
Absolute change in total energy (target)   :   0.5138140031E-01 (  0.1000000000E-07)
 
Time (CPU seconds) :       581.64
 
+--------------------+
| Loop number :    7 |
+--------------------+
 
Energies :
 Fermi                       :     0.641551278474    
 sum of eigenvalues          :     -21182.2295895    
 electron kinetic            :      39270.7385470    
 core electron kinetic       :      37772.8535226    
 Coulomb                     :     -73152.0989387    
 Coulomb potential           :     -59533.7820639    
 nuclear-nuclear             :     -2868.54174396    
 electron-nuclear            :     -81033.3323256    
 Hartree                     :      10749.7751309    
 Madelung                    :     -43385.2079068    
 xc potential                :     -919.186072646    
 exchange                    :     -684.784587754    
 correlation                 :     -9.38296770889    
 total energy                :     -34575.5279472    
 
Density of states at Fermi energy :    26.82415751    
 (states/Hartree/unit cell)
 
Estimated indirect band gap :   0.3991493505E-03
 from k-point    197 to k-point     72
Estimated direct band gap   :   0.8029356644E-02
 at k-point    201
 
Charges :
 core                        :    92.00000000    
 valence                     :    60.00000000    
 interstitial                :    4.453771578    
 muffin-tins (core leakage)
  species :    1 (Os)
   atom    1                 :    73.77311421     (  0.9348398962E-06)
   atom    2                 :    73.77311421     (  0.9348398962E-06)
 total in muffin-tins        :    147.5462284    
 total calculated charge     :    151.9997034    
 total charge                :    152.0000000    
 error                       :   0.2965960838E-03
 
RMS change in Kohn-Sham potential (target) :   0.4202404672E-03 (   10.00000000    )
Absolute change in total energy (target)   :   0.4478217027E-01 (  0.1000000000E-07)
 
Time (CPU seconds) :       682.97
 
+--------------------+
| Loop number :    8 |
+--------------------+
 
Energies :
 Fermi                       :     0.641601599722    
 sum of eigenvalues          :     -21182.2226309    
 electron kinetic            :      39270.7458142    
 core electron kinetic       :      37772.8566242    
 Coulomb                     :     -73152.0994368    
 Coulomb potential           :     -59533.7823443    
 nuclear-nuclear             :     -2868.54174396    
 electron-nuclear            :     -81033.3330413    
 Hartree                     :      10749.7753485    
 Madelung                    :     -43385.2082646    
 xc potential                :     -919.186100733    
 exchange                    :     -684.784608260    
 correlation                 :     -9.38296803036    
 total energy                :     -34575.5211989    
 
Density of states at Fermi energy :    26.85916638    
 (states/Hartree/unit cell)
 
Estimated indirect band gap :   0.3951202945E-03
 from k-point    197 to k-point     72
Estimated direct band gap   :   0.8030516429E-02
 at k-point    201
 
Charges :
 core                        :    92.00000000    
 valence                     :    60.00000000    
 interstitial                :    4.453778734    
 muffin-tins (core leakage)
  species :    1 (Os)
   atom    1                 :    73.77311063     (  0.9346812888E-06)
   atom    2                 :    73.77311063     (  0.9346812888E-06)
 total in muffin-tins        :    147.5462213    
 total calculated charge     :    151.9997034    
 total charge                :    152.0000000    
 error                       :   0.2965971042E-03
 
Wrote STATE.OUT
 
RMS change in Kohn-Sham potential (target) :   0.1274671658E-03 (   10.00000000    )
Absolute change in total energy (target)   :   0.4447238978E-02 (  0.1000000000E-07)
 
Time (CPU seconds) :       782.14
 
+--------------------+
| Loop number :    9 |
+--------------------+
 
Energies :
 Fermi                       :     0.641612182406    
 sum of eigenvalues          :     -21182.2209132    
 electron kinetic            :      39270.7479071    
 core electron kinetic       :      37772.8580123    
 Coulomb                     :     -73152.0991710    
 Coulomb potential           :     -59533.7827328    
 nuclear-nuclear             :     -2868.54174396    
 electron-nuclear            :     -81033.3321212    
 Hartree                     :      10749.7746942    
 Madelung                    :     -43385.2078046    
 xc potential                :     -919.186087510    
 exchange                    :     -684.784598032    
 correlation                 :     -9.38296806521    
 total energy                :     -34575.5188300    
 
Density of states at Fermi energy :    26.87014690    
 (states/Hartree/unit cell)
 
Estimated indirect band gap :   0.3976983208E-03
 from k-point    197 to k-point     72
Estimated direct band gap   :   0.8029803025E-02
 at k-point    201
 
Charges :
 core                        :    92.00000000    
 valence                     :    60.00000000    
 interstitial                :    4.453780923    
 muffin-tins (core leakage)
  species :    1 (Os)
   atom    1                 :    73.77310954     (  0.9349730519E-06)
   atom    2                 :    73.77310954     (  0.9349730519E-06)
 total in muffin-tins        :    147.5462191    
 total calculated charge     :    151.9997034    
 total charge                :    152.0000000    
 error                       :   0.2966007781E-03
 
RMS change in Kohn-Sham potential (target) :   0.3259129320E-04 (   10.00000000    )
Absolute change in total energy (target)   :   0.1257085845E-02 (  0.1000000000E-07)
 
Time (CPU seconds) :       880.80
 
+--------------------+
| Loop number :   10 |
+--------------------+
 
Energies :
 Fermi                       :     0.641607592096    
 sum of eigenvalues          :     -21182.2215381    
 electron kinetic            :      39270.7472606    
 core electron kinetic       :      37772.8576576    
 Coulomb                     :     -73152.0992214    
 Coulomb potential           :     -59533.7827111    
 nuclear-nuclear             :     -2868.54174396    
 electron-nuclear            :     -81033.3322439    
 Hartree                     :      10749.7747664    
 Madelung                    :     -43385.2078659    
 xc potential                :     -919.186087656    
 exchange                    :     -684.784598280    
 correlation                 :     -9.38296798936    
 total energy                :     -34575.5195271    
 
Density of states at Fermi energy :    26.86482470    
 (states/Hartree/unit cell)
 
Estimated indirect band gap :   0.3996407428E-03
 from k-point    197 to k-point     72
Estimated direct band gap   :   0.8029239208E-02
 at k-point    201
 
Charges :
 core                        :    92.00000000    
 valence                     :    60.00000000    
 interstitial                :    4.453777268    
 muffin-tins (core leakage)
  species :    1 (Os)
   atom    1                 :    73.77311137     (  0.9349104388E-06)
   atom    2                 :    73.77311137     (  0.9349104388E-06)
 total in muffin-tins        :    147.5462227    
 total calculated charge     :    151.9997034    
 total charge                :    152.0000000    
 error                       :   0.2966006302E-03
 
Wrote STATE.OUT
 
RMS change in Kohn-Sham potential (target) :   0.3000344247E-04 (   10.00000000    )
Absolute change in total energy (target)   :   0.3828376575E-03 (  0.1000000000E-07)
 
Time (CPU seconds) :       979.46
 
+--------------------+
| Loop number :   11 |
+--------------------+
 
Energies :
 Fermi                       :     0.641607992419    
 sum of eigenvalues          :     -21182.2214513    
 electron kinetic            :      39270.7473841    
 core electron kinetic       :      37772.8577464    
 Coulomb                     :     -73152.0992395    
 Coulomb potential           :     -59533.7827473    
 nuclear-nuclear             :     -2868.54174396    
 electron-nuclear            :     -81033.3322439    
 Hartree                     :      10749.7747483    
 Madelung                    :     -43385.2078659    
 xc potential                :     -919.186088094    
 exchange                    :     -684.784598661    
 correlation                 :     -9.38296796209    
 total energy                :     -34575.5194220    
 
Density of states at Fermi energy :    26.86366753    
 (states/Hartree/unit cell)
 
Estimated indirect band gap :   0.4004978336E-03
 from k-point    197 to k-point     72
Estimated direct band gap   :   0.8028987484E-02
 at k-point    201
 
Charges :
 core                        :    92.00000000    
 valence                     :    60.00000000    
 interstitial                :    4.453775855    
 muffin-tins (core leakage)
  species :    1 (Os)
   atom    1                 :    73.77311207     (  0.9348265735E-06)
   atom    2                 :    73.77311207     (  0.9348265735E-06)
 total in muffin-tins        :    147.5462241    
 total calculated charge     :    151.9997034    
 total charge                :    152.0000000    
 error                       :   0.2966006717E-03
 
RMS change in Kohn-Sham potential (target) :   0.1100940164E-04 (   10.00000000    )
Absolute change in total energy (target)   :   0.9317853255E-05 (  0.1000000000E-07)
 
Time (CPU seconds) :      1081.98
 
+--------------------+
| Loop number :   12 |
+--------------------+
 
Energies :
 Fermi                       :     0.641607971180    
 sum of eigenvalues          :     -21182.2214415    
 electron kinetic            :      39270.7473950    
 core electron kinetic       :      37772.8577626    
 Coulomb                     :     -73152.0992403    
 Coulomb potential           :     -59533.7827488    
 nuclear-nuclear             :     -2868.54174396    
 electron-nuclear            :     -81033.3322439    
 Hartree                     :      10749.7747475    
 Madelung                    :     -43385.2078659    
 xc potential                :     -919.186087689    
 exchange                    :     -684.784598374    
 correlation                 :     -9.38296795736    
 total energy                :     -34575.5194116    
 
Density of states at Fermi energy :    26.86293082    
 (states/Hartree/unit cell)
 
Estimated indirect band gap :   0.4002793320E-03
 from k-point    197 to k-point     72
Estimated direct band gap   :   0.8029046157E-02
 at k-point    201
 
Charges :
 core                        :    92.00000000    
 valence                     :    60.00000000    
 interstitial                :    4.453775937    
 muffin-tins (core leakage)
  species :    1 (Os)
   atom    1                 :    73.77311203     (  0.9347635412E-06)
   atom    2                 :    73.77311203     (  0.9347635412E-06)
 total in muffin-tins        :    147.5462241    
 total calculated charge     :    151.9997034    
 total charge                :    152.0000000    
 error                       :   0.2966004895E-03
 
Wrote STATE.OUT
 
RMS change in Kohn-Sham potential (target) :   0.5148131762E-04 (   10.00000000    )
Absolute change in total energy (target)   :   0.1272910595E-04 (  0.1000000000E-07)
 
Time (CPU seconds) :      1178.55
 
+--------------------+
| Loop number :   13 |
+--------------------+
 
Energies :
 Fermi                       :     0.641607895261    
 sum of eigenvalues          :     -21182.2214529    
 electron kinetic            :      39270.7473758    
 core electron kinetic       :      37772.8577084    
 Coulomb                     :     -73152.0992363    
 Coulomb potential           :     -59533.7827409    
 nuclear-nuclear             :     -2868.54174396    
 electron-nuclear            :     -81033.3322439    
 Hartree                     :      10749.7747515    
 Madelung                    :     -43385.2078659    
 xc potential                :     -919.186087736    
 exchange                    :     -684.784598402    
 correlation                 :     -9.38296795688    
 total energy                :     -34575.5194269    
 
Density of states at Fermi energy :    26.86280116    
 (states/Hartree/unit cell)
 
Estimated indirect band gap :   0.4002652075E-03
 from k-point    197 to k-point     72
Estimated direct band gap   :   0.8029050034E-02
 at k-point    201
 
Charges :
 core                        :    92.00000000    
 valence                     :    60.00000000    
 interstitial                :    4.453775875    
 muffin-tins (core leakage)
  species :    1 (Os)
   atom    1                 :    73.77311206     (  0.9349517427E-06)
   atom    2                 :    73.77311206     (  0.9349517427E-06)
 total in muffin-tins        :    147.5462241    
 total calculated charge     :    151.9997034    
 total charge                :    152.0000000    
 error                       :   0.2966007906E-03
 
RMS change in Kohn-Sham potential (target) :   0.7806035711E-04 (   10.00000000    )
Absolute change in total energy (target)   :   0.1212461939E-04 (  0.1000000000E-07)
 
Time (CPU seconds) :      1275.82
 
+--------------------+
| Loop number :   14 |
+--------------------+
 
Energies :
 Fermi                       :     0.641608376333    
 sum of eigenvalues          :     -21182.2213749    
 electron kinetic            :      39270.7474696    
 core electron kinetic       :      37772.8577775    
 Coulomb                     :     -73152.0992442    
 Coulomb potential           :     -59533.7827566    
 nuclear-nuclear             :     -2868.54174396    
 electron-nuclear            :     -81033.3322439    
 Hartree                     :      10749.7747436    
 Madelung                    :     -43385.2078659    
 xc potential                :     -919.186087869    
 exchange                    :     -684.784598493    
 correlation                 :     -9.38296795582    
 total energy                :     -34575.5193411    
 
Density of states at Fermi energy :    26.86266206    
 (states/Hartree/unit cell)
 
Estimated indirect band gap :   0.4002250901E-03
 from k-point    197 to k-point     72
Estimated direct band gap   :   0.8029058807E-02
 at k-point    201
 
Charges :
 core                        :    92.00000000    
 valence                     :    60.00000000    
 interstitial                :    4.453775805    
 muffin-tins (core leakage)
  species :    1 (Os)
   atom    1                 :    73.77311210     (  0.9347465593E-06)
   atom    2                 :    73.77311210     (  0.9347465593E-06)
 total in muffin-tins        :    147.5462242    
 total calculated charge     :    151.9997034    
 total charge                :    152.0000000    
 error                       :   0.2966005264E-03
 
Wrote STATE.OUT
 
RMS change in Kohn-Sham potential (target) :   0.1285673119E-04 (   10.00000000    )
Absolute change in total energy (target)   :   0.8285722288E-04 (  0.1000000000E-07)
 
Time (CPU seconds) :      1375.73
 
+--------------------+
| Loop number :   15 |
+--------------------+
 
Energies :
 Fermi                       :     0.641608214630    
 sum of eigenvalues          :     -21182.2214019    
 electron kinetic            :      39270.7474341    
 core electron kinetic       :      37772.8577558    
 Coulomb                     :     -73152.0992400    
 Coulomb potential           :     -59533.7827481    
 nuclear-nuclear             :     -2868.54174396    
 electron-nuclear            :     -81033.3322439    
 Hartree                     :      10749.7747479    
 Madelung                    :     -43385.2078659    
 xc potential                :     -919.186087791    
 exchange                    :     -684.784598439    
 correlation                 :     -9.38296795832    
 total energy                :     -34575.5193723    
 
Density of states at Fermi energy :    26.86275124    
 (states/Hartree/unit cell)
 
Estimated indirect band gap :   0.4001306298E-03
 from k-point    197 to k-point     72
Estimated direct band gap   :   0.8029086795E-02
 at k-point    201
 
Charges :
 core                        :    92.00000000    
 valence                     :    60.00000000    
 interstitial                :    4.453775937    
 muffin-tins (core leakage)
  species :    1 (Os)
   atom    1                 :    73.77311203     (  0.9348957306E-06)
   atom    2                 :    73.77311203     (  0.9348957306E-06)
 total in muffin-tins        :    147.5462241    
 total calculated charge     :    151.9997034    
 total charge                :    152.0000000    
 error                       :   0.2966007868E-03
 
RMS change in Kohn-Sham potential (target) :   0.3746128215E-05 (   10.00000000    )
Absolute change in total energy (target)   :   0.1053277811E-04 (  0.1000000000E-07)
 
Time (CPU seconds) :      1470.84
 
+--------------------+
| Loop number :   16 |
+--------------------+
 
Energies :
 Fermi                       :     0.641608202910    
 sum of eigenvalues          :     -21182.2214044    
 electron kinetic            :      39270.7474296    
 core electron kinetic       :      37772.8577609    
 Coulomb                     :     -73152.0992390    
 Coulomb potential           :     -59533.7827462    
 nuclear-nuclear             :     -2868.54174396    
 electron-nuclear            :     -81033.3322439    
 Hartree                     :      10749.7747488    
 Madelung                    :     -43385.2078659    
 xc potential                :     -919.186087782    
 exchange                    :     -684.784598430    
 correlation                 :     -9.38296795904    
 total energy                :     -34575.5193758    
 
Density of states at Fermi energy :    26.86279561    
 (states/Hartree/unit cell)
 
Estimated indirect band gap :   0.4001160657E-03
 from k-point    197 to k-point     72
Estimated direct band gap   :   0.8029091188E-02
 at k-point    201
 
Charges :
 core                        :    92.00000000    
 valence                     :    60.00000000    
 interstitial                :    4.453775965    
 muffin-tins (core leakage)
  species :    1 (Os)
   atom    1                 :    73.77311202     (  0.9349137073E-06)
   atom    2                 :    73.77311202     (  0.9349137073E-06)
 total in muffin-tins        :    147.5462240    
 total calculated charge     :    151.9997034    
 total charge                :    152.0000000    
 error                       :   0.2966008327E-03
 
Wrote STATE.OUT
 
RMS change in Kohn-Sham potential (target) :   0.9856299542E-04 (   10.00000000    )
Absolute change in total energy (target)   :   0.6111527910E-05 (  0.1000000000E-07)
 
Time (CPU seconds) :      1564.55
 
+--------------------+
| Loop number :   17 |
+--------------------+
 
Energies :
 Fermi                       :     0.641608131248    
 sum of eigenvalues          :     -21182.2214185    
 electron kinetic            :      39270.7474147    
 core electron kinetic       :      37772.8577492    
 Coulomb                     :     -73152.0992387    
 Coulomb potential           :     -59533.7827455    
 nuclear-nuclear             :     -2868.54174396    
 electron-nuclear            :     -81033.3322439    
 Hartree                     :      10749.7747492    
 Madelung                    :     -43385.2078659    
 xc potential                :     -919.186087744    
 exchange                    :     -684.784598401    
 correlation                 :     -9.38296796030    
 total energy                :     -34575.5193903    
 
Density of states at Fermi energy :    26.86302689    
 (states/Hartree/unit cell)
 
Estimated indirect band gap :   0.4001615831E-03
 from k-point    197 to k-point     72
Estimated direct band gap   :   0.8029079571E-02
 at k-point    201
 
Charges :
 core                        :    92.00000000    
 valence                     :    60.00000000    
 interstitial                :    4.453776023    
 muffin-tins (core leakage)
  species :    1 (Os)
   atom    1                 :    73.77311199     (  0.9349905739E-06)
   atom    2                 :    73.77311199     (  0.9349905739E-06)
 total in muffin-tins        :    147.5462240    
 total calculated charge     :    151.9997034    
 total charge                :    152.0000000    
 error                       :   0.2966009766E-03
 
RMS change in Kohn-Sham potential (target) :   0.1554727631E-04 (   10.00000000    )
Absolute change in total energy (target)   :   0.1601969416E-04 (  0.1000000000E-07)
 
Time (CPU seconds) :      1663.19
 
+--------------------+
| Loop number :   18 |
+--------------------+
 
Energies :
 Fermi                       :     0.641608141649    
 sum of eigenvalues          :     -21182.2214161    
 electron kinetic            :      39270.7474169    
 core electron kinetic       :      37772.8577529    
 Coulomb                     :     -73152.0992385    
 Coulomb potential           :     -59533.7827452    
 nuclear-nuclear             :     -2868.54174396    
 electron-nuclear            :     -81033.3322439    
 Hartree                     :      10749.7747493    
 Madelung                    :     -43385.2078659    
 xc potential                :     -919.186087776    
 exchange                    :     -684.784598426    
 correlation                 :     -9.38296795996    
 total energy                :     -34575.5193880    
 
Density of states at Fermi energy :    26.86292892    
 (states/Hartree/unit cell)
 
Estimated indirect band gap :   0.4001230350E-03
 from k-point    197 to k-point     72
Estimated direct band gap   :   0.8029089992E-02
 at k-point    201
 
Charges :
 core                        :    92.00000000    
 valence                     :    60.00000000    
 interstitial                :    4.453776021    
 muffin-tins (core leakage)
  species :    1 (Os)
   atom    1                 :    73.77311199     (  0.9348098828E-06)
   atom    2                 :    73.77311199     (  0.9348098828E-06)
 total in muffin-tins        :    147.5462240    
 total calculated charge     :    151.9997034    
 total charge                :    152.0000000    
 error                       :   0.2966006181E-03
 
Wrote STATE.OUT
 
RMS change in Kohn-Sham potential (target) :   0.5789426519E-05 (   10.00000000    )
Absolute change in total energy (target)   :   0.1709791832E-05 (  0.1000000000E-07)
 
Time (CPU seconds) :      1757.53
 
+--------------------+
| Loop number :   19 |
+--------------------+
 
Energies :
 Fermi                       :     0.641608119573    
 sum of eigenvalues          :     -21182.2214192    
 electron kinetic            :      39270.7474124    
 core electron kinetic       :      37772.8577499    
 Coulomb                     :     -73152.0992378    
 Coulomb potential           :     -59533.7827438    
 nuclear-nuclear             :     -2868.54174396    
 electron-nuclear            :     -81033.3322439    
 Hartree                     :      10749.7747500    
 Madelung                    :     -43385.2078659    
 xc potential                :     -919.186087772    
 exchange                    :     -684.784598419    
 correlation                 :     -9.38296796024    
 total energy                :     -34575.5193918    
 
Density of states at Fermi energy :    26.86289894    
 (states/Hartree/unit cell)
 
Estimated indirect band gap :   0.4001067058E-03
 from k-point    197 to k-point     72
Estimated direct band gap   :   0.8029094581E-02
 at k-point    201
 
Charges :
 core                        :    92.00000000    
 valence                     :    60.00000000    
 interstitial                :    4.453776023    
 muffin-tins (core leakage)
  species :    1 (Os)
   atom    1                 :    73.77311199     (  0.9349595302E-06)
   atom    2                 :    73.77311199     (  0.9349595302E-06)
 total in muffin-tins        :    147.5462240    
 total calculated charge     :    151.9997034    
 total charge                :    152.0000000    
 error                       :   0.2966009079E-03
 
RMS change in Kohn-Sham potential (target) :   0.2645969592E-05 (   10.00000000    )
Absolute change in total energy (target)   :   0.4244124284E-05 (  0.1000000000E-07)
 
Time (CPU seconds) :      1856.73
 
+--------------------+
| Loop number :   20 |
+--------------------+
 
Energies :
 Fermi                       :     0.641608124420    
 sum of eigenvalues          :     -21182.2214183    
 electron kinetic            :      39270.7474128    
 core electron kinetic       :      37772.8577504    
 Coulomb                     :     -73152.0992376    
 Coulomb potential           :     -59533.7827434    
 nuclear-nuclear             :     -2868.54174396    
 electron-nuclear            :     -81033.3322439    
 Hartree                     :      10749.7747502    
 Madelung                    :     -43385.2078659    
 xc potential                :     -919.186087768    
 exchange                    :     -684.784598425    
 correlation                 :     -9.38296795888    
 total energy                :     -34575.5193911    
 
Density of states at Fermi energy :    26.86289320    
 (states/Hartree/unit cell)
 
Estimated indirect band gap :   0.4001069574E-03
 from k-point    197 to k-point     72
Estimated direct band gap   :   0.8029094459E-02
 at k-point    201
 
Charges :
 core                        :    92.00000000    
 valence                     :    60.00000000    
 interstitial                :    4.453776020    
 muffin-tins (core leakage)
  species :    1 (Os)
   atom    1                 :    73.77311199     (  0.9349966703E-06)
   atom    2                 :    73.77311199     (  0.9349966703E-06)
 total in muffin-tins        :    147.5462240    
 total calculated charge     :    151.9997034    
 total charge                :    152.0000000    
 error                       :   0.2966009876E-03
 
Wrote STATE.OUT
 
RMS change in Kohn-Sham potential (target) :   0.3787560532E-04 (   10.00000000    )
Absolute change in total energy (target)   :   0.4110770533E-06 (  0.1000000000E-07)
 
Time (CPU seconds) :      1961.96
 
+--------------------+
| Loop number :   21 |
+--------------------+
 
Energies :
 Fermi                       :     0.641608118579    
 sum of eigenvalues          :     -21182.2214190    
 electron kinetic            :      39270.7474115    
 core electron kinetic       :      37772.8577494    
 Coulomb                     :     -73152.0992373    
 Coulomb potential           :     -59533.7827427    
 nuclear-nuclear             :     -2868.54174396    
 electron-nuclear            :     -81033.3322439    
 Hartree                     :      10749.7747506    
 Madelung                    :     -43385.2078659    
 xc potential                :     -919.186087763    
 exchange                    :     -684.784598425    
 correlation                 :     -9.38296795910    
 total energy                :     -34575.5193921    
 
Density of states at Fermi energy :    26.86287040    
 (states/Hartree/unit cell)
 
Estimated indirect band gap :   0.4001050301E-03
 from k-point    197 to k-point     72
Estimated direct band gap   :   0.8029094903E-02
 at k-point    201
 
Charges :
 core                        :    92.00000000    
 valence                     :    60.00000000    
 interstitial                :    4.453776011    
 muffin-tins (core leakage)
  species :    1 (Os)
   atom    1                 :    73.77311199     (  0.9349388748E-06)
   atom    2                 :    73.77311199     (  0.9349388748E-06)
 total in muffin-tins        :    147.5462240    
 total calculated charge     :    151.9997034    
 total charge                :    152.0000000    
 error                       :   0.2966008487E-03
 
RMS change in Kohn-Sham potential (target) :   0.1841743469E-04 (   10.00000000    )
Absolute change in total energy (target)   :   0.1062457159E-05 (  0.1000000000E-07)
 
Time (CPU seconds) :      2059.42
 
+--------------------+
| Loop number :   22 |
+--------------------+
 
Energies :
 Fermi                       :     0.641608126884    
 sum of eigenvalues          :     -21182.2214178    
 electron kinetic            :      39270.7474134    
 core electron kinetic       :      37772.8577497    
 Coulomb                     :     -73152.0992376    
 Coulomb potential           :     -59533.7827434    
 nuclear-nuclear             :     -2868.54174396    
 electron-nuclear            :     -81033.3322439    
 Hartree                     :      10749.7747502    
 Madelung                    :     -43385.2078659    
 xc potential                :     -919.186087768    
 exchange                    :     -684.784598431    
 correlation                 :     -9.38296795856    
 total energy                :     -34575.5193906    
 
Density of states at Fermi energy :    26.86288090    
 (states/Hartree/unit cell)
 
Estimated indirect band gap :   0.4001109710E-03
 from k-point    197 to k-point     72
Estimated direct band gap   :   0.8029093218E-02
 at k-point    201
 
Charges :
 core                        :    92.00000000    
 valence                     :    60.00000000    
 interstitial                :    4.453776009    
 muffin-tins (core leakage)
  species :    1 (Os)
   atom    1                 :    73.77311200     (  0.9350049268E-06)
   atom    2                 :    73.77311200     (  0.9350049268E-06)
 total in muffin-tins        :    147.5462240    
 total calculated charge     :    151.9997034    
 total charge                :    152.0000000    
 error                       :   0.2966009888E-03
 
Wrote STATE.OUT
 
RMS change in Kohn-Sham potential (target) :   0.9734597525E-05 (   10.00000000    )
Absolute change in total energy (target)   :   0.1261672878E-05 (  0.1000000000E-07)
 
Time (CPU seconds) :      2154.85
 
+--------------------+
| Loop number :   23 |
+--------------------+
 
Energies :
 Fermi                       :     0.641608135724    
 sum of eigenvalues          :     -21182.2214163    
 electron kinetic            :      39270.7474156    
 core electron kinetic       :      37772.8577500    
 Coulomb                     :     -73152.0992379    
 Coulomb potential           :     -59533.7827441    
 nuclear-nuclear             :     -2868.54174396    
 electron-nuclear            :     -81033.3322439    
 Hartree                     :      10749.7747499    
 Madelung                    :     -43385.2078659    
 xc potential                :     -919.186087768    
 exchange                    :     -684.784598437    
 correlation                 :     -9.38296795732    
 total energy                :     -34575.5193887    
 
Density of states at Fermi energy :    26.86287570    
 (states/Hartree/unit cell)
 
Estimated indirect band gap :   0.4001115947E-03
 from k-point    197 to k-point     72
Estimated direct band gap   :   0.8029092981E-02
 at k-point    201
 
Charges :
 core                        :    92.00000000    
 valence                     :    60.00000000    
 interstitial                :    4.453776005    
 muffin-tins (core leakage)
  species :    1 (Os)
   atom    1                 :    73.77311200     (  0.9348818111E-06)
   atom    2                 :    73.77311200     (  0.9348818111E-06)
 total in muffin-tins        :    147.5462240    
 total calculated charge     :    151.9997034    
 total charge                :    152.0000000    
 error                       :   0.2966007490E-03
 
RMS change in Kohn-Sham potential (target) :   0.3208740644E-05 (   10.00000000    )
Absolute change in total energy (target)   :   0.2157619747E-05 (  0.1000000000E-07)
 
Time (CPU seconds) :      2257.37
 
+--------------------+
| Loop number :   24 |
+--------------------+
 
Energies :
 Fermi                       :     0.641608145244    
 sum of eigenvalues          :     -21182.2214146    
 electron kinetic            :      39270.7474173    
 core electron kinetic       :      37772.8577511    
 Coulomb                     :     -73152.0992380    
 Coulomb potential           :     -59533.7827441    
 nuclear-nuclear             :     -2868.54174396    
 electron-nuclear            :     -81033.3322439    
 Hartree                     :      10749.7747499    
 Madelung                    :     -43385.2078659    
 xc potential                :     -919.186087764    
 exchange                    :     -684.784598426    
 correlation                 :     -9.38296795940    
 total energy                :     -34575.5193870    
 
Density of states at Fermi energy :    26.86286686    
 (states/Hartree/unit cell)
 
Estimated indirect band gap :   0.4001106799E-03
 from k-point    197 to k-point     72
Estimated direct band gap   :   0.8029093159E-02
 at k-point    201
 
Charges :
 core                        :    92.00000000    
 valence                     :    60.00000000    
 interstitial                :    4.453776001    
 muffin-tins (core leakage)
  species :    1 (Os)
   atom    1                 :    73.77311200     (  0.9349332970E-06)
   atom    2                 :    73.77311200     (  0.9349332970E-06)
 total in muffin-tins        :    147.5462240    
 total calculated charge     :    151.9997034    
 total charge                :    152.0000000    
 error                       :   0.2966008477E-03
 
Wrote STATE.OUT
 
RMS change in Kohn-Sham potential (target) :   0.9401503114E-04 (   10.00000000    )
Absolute change in total energy (target)   :   0.2229950042E-05 (  0.1000000000E-07)
 
Time (CPU seconds) :      2352.88
 
+--------------------+
| Loop number :   25 |
+--------------------+
 
Energies :
 Fermi                       :     0.641608140919    
 sum of eigenvalues          :     -21182.2214151    
 electron kinetic            :      39270.7474158    
 core electron kinetic       :      37772.8577494    
 Coulomb                     :     -73152.0992375    
 Coulomb potential           :     -59533.7827431    
 nuclear-nuclear             :     -2868.54174396    
 electron-nuclear            :     -81033.3322439    
 Hartree                     :      10749.7747504    
 Madelung                    :     -43385.2078659    
 xc potential                :     -919.186087763    
 exchange                    :     -684.784598423    
 correlation                 :     -9.38296795932    
 total energy                :     -34575.5193880    
 
Density of states at Fermi energy :    26.86285246    
 (states/Hartree/unit cell)
 
Estimated indirect band gap :   0.4001058143E-03
 from k-point    197 to k-point     72
Estimated direct band gap   :   0.8029094490E-02
 at k-point    201
 
Charges :
 core                        :    92.00000000    
 valence                     :    60.00000000    
 interstitial                :    4.453775998    
 muffin-tins (core leakage)
  species :    1 (Os)
   atom    1                 :    73.77311200     (  0.9348597416E-06)
   atom    2                 :    73.77311200     (  0.9348597416E-06)
 total in muffin-tins        :    147.5462240    
 total calculated charge     :    151.9997034    
 total charge                :    152.0000000    
 error                       :   0.2966007002E-03
 
RMS change in Kohn-Sham potential (target) :   0.7993763557E-05 (   10.00000000    )
Absolute change in total energy (target)   :   0.4284884199E-06 (  0.1000000000E-07)
 
Time (CPU seconds) :      2446.12
 
+--------------------+
| Loop number :   26 |
+--------------------+
 
Energies :
 Fermi                       :     0.641608147582    
 sum of eigenvalues          :     -21182.2214139    
 electron kinetic            :      39270.7474182    
 core electron kinetic       :      37772.8577510    
 Coulomb                     :     -73152.0992380    
 Coulomb potential           :     -59533.7827443    
 nuclear-nuclear             :     -2868.54174396    
 electron-nuclear            :     -81033.3322439    
 Hartree                     :      10749.7747498    
 Madelung                    :     -43385.2078659    
 xc potential                :     -919.186087777    
 exchange                    :     -684.784598424    
 correlation                 :     -9.38296795990    
 total energy                :     -34575.5193862    
 
Density of states at Fermi energy :    26.86284710    
 (states/Hartree/unit cell)
 
Estimated indirect band gap :   0.4001055814E-03
 from k-point    197 to k-point     72
Estimated direct band gap   :   0.8029094498E-02
 at k-point    201
 
Charges :
 core                        :    92.00000000    
 valence                     :    60.00000000    
 interstitial                :    4.453775994    
 muffin-tins (core leakage)
  species :    1 (Os)
   atom    1                 :    73.77311200     (  0.9348471153E-06)
   atom    2                 :    73.77311200     (  0.9348471153E-06)
 total in muffin-tins        :    147.5462240    
 total calculated charge     :    151.9997034    
 total charge                :    152.0000000    
 error                       :   0.2966006891E-03
 
Wrote STATE.OUT
 
RMS change in Kohn-Sham potential (target) :   0.5173158766E-05 (   10.00000000    )
Absolute change in total energy (target)   :   0.1688400516E-05 (  0.1000000000E-07)
 
Time (CPU seconds) :      2540.44
 
+--------------------+
| Loop number :   27 |
+--------------------+
 
Energies :
 Fermi                       :     0.641608148717    
 sum of eigenvalues          :     -21182.2214136    
 electron kinetic            :      39270.7474181    
 core electron kinetic       :      37772.8577507    
 Coulomb                     :     -73152.0992378    
 Coulomb potential           :     -59533.7827439    
 nuclear-nuclear             :     -2868.54174396    
 electron-nuclear            :     -81033.3322439    
 Hartree                     :      10749.7747500    
 Madelung                    :     -43385.2078659    
 xc potential                :     -919.186087768    
 exchange                    :     -684.784598425    
 correlation                 :     -9.38296795920    
 total energy                :     -34575.5193861    
 
Density of states at Fermi energy :    26.86284040    
 (states/Hartree/unit cell)
 
Estimated indirect band gap :   0.4001047290E-03
 from k-point    197 to k-point     72
Estimated direct band gap   :   0.8029094691E-02
 at k-point    201
 
Charges :
 core                        :    92.00000000    
 valence                     :    60.00000000    
 interstitial                :    4.453775993    
 muffin-tins (core leakage)
  species :    1 (Os)
   atom    1                 :    73.77311200     (  0.9347841896E-06)
   atom    2                 :    73.77311200     (  0.9347841896E-06)
 total in muffin-tins        :    147.5462240    
 total calculated charge     :    151.9997034    
 total charge                :    152.0000000    
 error                       :   0.2966005628E-03
 
RMS change in Kohn-Sham potential (target) :   0.3636031075E-05 (   10.00000000    )
Absolute change in total energy (target)   :   0.5290348781E-06 (  0.1000000000E-07)
 
Time (CPU seconds) :      2634.66
 
+--------------------+
| Loop number :   28 |
+--------------------+
 
Energies :
 Fermi                       :     0.641608150278    
 sum of eigenvalues          :     -21182.2214133    
 electron kinetic            :      39270.7474178    
 core electron kinetic       :      37772.8577505    
 Coulomb                     :     -73152.0992376    
 Coulomb potential           :     -59533.7827434    
 nuclear-nuclear             :     -2868.54174396    
 electron-nuclear            :     -81033.3322439    
 Hartree                     :      10749.7747503    
 Madelung                    :     -43385.2078659    
 xc potential                :     -919.186087768    
 exchange                    :     -684.784598414    
 correlation                 :     -9.38296795972    
 total energy                :     -34575.5193861    
 
Density of states at Fermi energy :    26.86283959    
 (states/Hartree/unit cell)
 
Estimated indirect band gap :   0.4001048885E-03
 from k-point    197 to k-point     72
Estimated direct band gap   :   0.8029094632E-02
 at k-point    201
 
Charges :
 core                        :    92.00000000    
 valence                     :    60.00000000    
 interstitial                :    4.453775992    
 muffin-tins (core leakage)
  species :    1 (Os)
   atom    1                 :    73.77311200     (  0.9348107568E-06)
   atom    2                 :    73.77311200     (  0.9348107568E-06)
 total in muffin-tins        :    147.5462240    
 total calculated charge     :    151.9997034    
 total charge                :    152.0000000    
 error                       :   0.2966006145E-03
 
Wrote STATE.OUT
 
RMS change in Kohn-Sham potential (target) :   0.1349583792E-04 (   10.00000000    )
Absolute change in total energy (target)   :   0.1338703441E-06 (  0.1000000000E-07)
 
Time (CPU seconds) :      2731.91
 
+--------------------+
| Loop number :   29 |
+--------------------+
 
Energies :
 Fermi                       :     0.641608148488    
 sum of eigenvalues          :     -21182.2214136    
 electron kinetic            :      39270.7474184    
 core electron kinetic       :      37772.8577513    
 Coulomb                     :     -73152.0992380    
 Coulomb potential           :     -59533.7827442    
 nuclear-nuclear             :     -2868.54174396    
 electron-nuclear            :     -81033.3322439    
 Hartree                     :      10749.7747498    
 Madelung                    :     -43385.2078659    
 xc potential                :     -919.186087771    
 exchange                    :     -684.784598435    
 correlation                 :     -9.38296795826    
 total energy                :     -34575.5193860    
 
Density of states at Fermi energy :    26.86284000    
 (states/Hartree/unit cell)
 
Estimated indirect band gap :   0.4001047448E-03
 from k-point    197 to k-point     72
Estimated direct band gap   :   0.8029094676E-02
 at k-point    201
 
Charges :
 core                        :    92.00000000    
 valence                     :    60.00000000    
 interstitial                :    4.453775993    
 muffin-tins (core leakage)
  species :    1 (Os)
   atom    1                 :    73.77311200     (  0.9348968320E-06)
   atom    2                 :    73.77311200     (  0.9348968320E-06)
 total in muffin-tins        :    147.5462240    
 total calculated charge     :    151.9997034    
 total charge                :    152.0000000    
 error                       :   0.2966007721E-03
 
RMS change in Kohn-Sham potential (target) :   0.1648045801E-04 (   10.00000000    )
Absolute change in total energy (target)   :   0.1569424057E-06 (  0.1000000000E-07)
 
Time (CPU seconds) :      2837.37
 
+--------------------+
| Loop number :   30 |
+--------------------+
 
Energies :
 Fermi                       :     0.641608147861    
 sum of eigenvalues          :     -21182.2214137    
 electron kinetic            :      39270.7474172    
 core electron kinetic       :      37772.8577499    
 Coulomb                     :     -73152.0992374    
 Coulomb potential           :     -59533.7827431    
 nuclear-nuclear             :     -2868.54174396    
 electron-nuclear            :     -81033.3322439    
 Hartree                     :      10749.7747504    
 Madelung                    :     -43385.2078659    
 xc potential                :     -919.186087760    
 exchange                    :     -684.784598413    
 correlation                 :     -9.38296795994    
 total energy                :     -34575.5193866    
 
Density of states at Fermi energy :    26.86283814    
 (states/Hartree/unit cell)
 
Estimated indirect band gap :   0.4001042886E-03
 from k-point    197 to k-point     72
Estimated direct band gap   :   0.8029094788E-02
 at k-point    201
 
Charges :
 core                        :    92.00000000    
 valence                     :    60.00000000    
 interstitial                :    4.453775991    
 muffin-tins (core leakage)
  species :    1 (Os)
   atom    1                 :    73.77311200     (  0.9349293535E-06)
   atom    2                 :    73.77311200     (  0.9349293535E-06)
 total in muffin-tins        :    147.5462240    
 total calculated charge     :    151.9997034    
 total charge                :    152.0000000    
 error                       :   0.2966008419E-03
 
Wrote STATE.OUT
 
RMS change in Kohn-Sham potential (target) :   0.1686647601E-04 (   10.00000000    )
Absolute change in total energy (target)   :   0.5958063412E-06 (  0.1000000000E-07)
 
Time (CPU seconds) :      2946.40
 
+--------------------+
| Loop number :   31 |
+--------------------+
 
Energies :
 Fermi                       :     0.641608149499    
 sum of eigenvalues          :     -21182.2214134    
 electron kinetic            :      39270.7474185    
 core electron kinetic       :      37772.8577515    
 Coulomb                     :     -73152.0992379    
 Coulomb potential           :     -59533.7827441    
 nuclear-nuclear             :     -2868.54174396    
 electron-nuclear            :     -81033.3322439    
 Hartree                     :      10749.7747499    
 Madelung                    :     -43385.2078659    
 xc potential                :     -919.186087775    
 exchange                    :     -684.784598428    
 correlation                 :     -9.38296795924    
 total energy                :     -34575.5193858    
 
Density of states at Fermi energy :    26.86283726    
 (states/Hartree/unit cell)
 
Estimated indirect band gap :   0.4001042900E-03
 from k-point    197 to k-point     72
Estimated direct band gap   :   0.8029094770E-02
 at k-point    201
 
Charges :
 core                        :    92.00000000    
 valence                     :    60.00000000    
 interstitial                :    4.453775991    
 muffin-tins (core leakage)
  species :    1 (Os)
   atom    1                 :    73.77311200     (  0.9348549099E-06)
   atom    2                 :    73.77311200     (  0.9348549099E-06)
 total in muffin-tins        :    147.5462240    
 total calculated charge     :    151.9997034    
 total charge                :    152.0000000    
 error                       :   0.2966006868E-03
 
RMS change in Kohn-Sham potential (target) :   0.4717168537E-04 (   10.00000000    )
Absolute change in total energy (target)   :   0.6526388461E-06 (  0.1000000000E-07)
 
Time (CPU seconds) :      3049.03
 
+--------------------+
| Loop number :   32 |
+--------------------+
 
Energies :
 Fermi                       :     0.641608147269    
 sum of eigenvalues          :     -21182.2214138    
 electron kinetic            :      39270.7474174    
 core electron kinetic       :      37772.8577505    
 Coulomb                     :     -73152.0992376    
 Coulomb potential           :     -59533.7827434    
 nuclear-nuclear             :     -2868.54174396    
 electron-nuclear            :     -81033.3322439    
 Hartree                     :      10749.7747502    
 Madelung                    :     -43385.2078659    
 xc potential                :     -919.186087767    
 exchange                    :     -684.784598425    
 correlation                 :     -9.38296795878    
 total energy                :     -34575.5193866    
 
Density of states at Fermi energy :    26.86283986    
 (states/Hartree/unit cell)
 
Estimated indirect band gap :   0.4001044237E-03
 from k-point    197 to k-point     72
Estimated direct band gap   :   0.8029094757E-02
 at k-point    201
 
Charges :
 core                        :    92.00000000    
 valence                     :    60.00000000    
 interstitial                :    4.453775991    
 muffin-tins (core leakage)
  species :    1 (Os)
   atom    1                 :    73.77311200     (  0.9349445165E-06)
   atom    2                 :    73.77311200     (  0.9349445165E-06)
 total in muffin-tins        :    147.5462240    
 total calculated charge     :    151.9997034    
 total charge                :    152.0000000    
 error                       :   0.2966008593E-03
 
Wrote STATE.OUT
 
RMS change in Kohn-Sham potential (target) :   0.1304508008E-04 (   10.00000000    )
Absolute change in total energy (target)   :   0.6005138857E-06 (  0.1000000000E-07)
 
Time (CPU seconds) :      3142.46
 
+--------------------+
| Loop number :   33 |
+--------------------+
 
Energies :
 Fermi                       :     0.641608147547    
 sum of eigenvalues          :     -21182.2214138    
 electron kinetic            :      39270.7474167    
 core electron kinetic       :      37772.8577499    
 Coulomb                     :     -73152.0992373    
 Coulomb potential           :     -59533.7827427    
 nuclear-nuclear             :     -2868.54174396    
 electron-nuclear            :     -81033.3322439    
 Hartree                     :      10749.7747506    
 Madelung                    :     -43385.2078659    
 xc potential                :     -919.186087757    
 exchange                    :     -684.784598421    
 correlation                 :     -9.38296795880    
 total energy                :     -34575.5193869    
 
Density of states at Fermi energy :    26.86283892    
 (states/Hartree/unit cell)
 
Estimated indirect band gap :   0.4001043166E-03
 from k-point    197 to k-point     72
Estimated direct band gap   :   0.8029094775E-02
 at k-point    201
 
Charges :
 core                        :    92.00000000    
 valence                     :    60.00000000    
 interstitial                :    4.453775991    
 muffin-tins (core leakage)
  species :    1 (Os)
   atom    1                 :    73.77311200     (  0.9348383045E-06)
   atom    2                 :    73.77311200     (  0.9348383045E-06)
 total in muffin-tins        :    147.5462240    
 total calculated charge     :    151.9997034    
 total charge                :    152.0000000    
 error                       :   0.2966006620E-03
 
RMS change in Kohn-Sham potential (target) :   0.5260488913E-05 (   10.00000000    )
Absolute change in total energy (target)   :   0.4463581718E-06 (  0.1000000000E-07)
 
Time (CPU seconds) :      3239.49
 
+--------------------+
| Loop number :   34 |
+--------------------+
 
Energies :
 Fermi                       :     0.641608148090    
 sum of eigenvalues          :     -21182.2214136    
 electron kinetic            :      39270.7474180    
 core electron kinetic       :      37772.8577511    
 Coulomb                     :     -73152.0992378    
 Coulomb potential           :     -59533.7827439    
 nuclear-nuclear             :     -2868.54174396    
 electron-nuclear            :     -81033.3322439    
 Hartree                     :      10749.7747500    
 Madelung                    :     -43385.2078659    
 xc potential                :     -919.186087770    
 exchange                    :     -684.784598441    
 correlation                 :     -9.38296795629    
 total energy                :     -34575.5193862    
 
Density of states at Fermi energy :    26.86283846    
 (states/Hartree/unit cell)
 
Estimated indirect band gap :   0.4001042259E-03
 from k-point    197 to k-point     72
Estimated direct band gap   :   0.8029094790E-02
 at k-point    201
 
Charges :
 core                        :    92.00000000    
 valence                     :    60.00000000    
 interstitial                :    4.453775989    
 muffin-tins (core leakage)
  species :    1 (Os)
   atom    1                 :    73.77311201     (  0.9349506627E-06)
   atom    2                 :    73.77311201     (  0.9349506627E-06)
 total in muffin-tins        :    147.5462240    
 total calculated charge     :    151.9997034    
 total charge                :    152.0000000    
 error                       :   0.2966008721E-03
 
Wrote STATE.OUT
 
RMS change in Kohn-Sham potential (target) :   0.1230196366E-05 (   10.00000000    )
Absolute change in total energy (target)   :   0.5806577974E-06 (  0.1000000000E-07)
 
Time (CPU seconds) :      3334.73
 
+--------------------+
| Loop number :   35 |
+--------------------+
 
Energies :
 Fermi                       :     0.641608148294    
 sum of eigenvalues          :     -21182.2214136    
 electron kinetic            :      39270.7474169    
 core electron kinetic       :      37772.8577499    
 Coulomb                     :     -73152.0992373    
 Coulomb potential           :     -59533.7827428    
 nuclear-nuclear             :     -2868.54174396    
 electron-nuclear            :     -81033.3322439    
 Hartree                     :      10749.7747505    
 Madelung                    :     -43385.2078659    
 xc potential                :     -919.186087761    
 exchange                    :     -684.784598414    
 correlation                 :     -9.38296795970    
 total energy                :     -34575.5193867    
 
Density of states at Fermi energy :    26.86283821    
 (states/Hartree/unit cell)
 
Estimated indirect band gap :   0.4001041961E-03
 from k-point    197 to k-point     72
Estimated direct band gap   :   0.8029094794E-02
 at k-point    201
 
Charges :
 core                        :    92.00000000    
 valence                     :    60.00000000    
 interstitial                :    4.453775990    
 muffin-tins (core leakage)
  species :    1 (Os)
   atom    1                 :    73.77311201     (  0.9349812657E-06)
   atom    2                 :    73.77311201     (  0.9349812657E-06)
 total in muffin-tins        :    147.5462240    
 total calculated charge     :    151.9997034    
 total charge                :    152.0000000    
 error                       :   0.2966009622E-03
 
RMS change in Kohn-Sham potential (target) :   0.4544691526E-04 (   10.00000000    )
Absolute change in total energy (target)   :   0.3779568942E-06 (  0.1000000000E-07)
 
Time (CPU seconds) :      3432.72
 
+--------------------+
| Loop number :   36 |
+--------------------+
 
Energies :
 Fermi                       :     0.641608148242    
 sum of eigenvalues          :     -21182.2214136    
 electron kinetic            :      39270.7474179    
 core electron kinetic       :      37772.8577509    
 Coulomb                     :     -73152.0992378    
 Coulomb potential           :     -59533.7827437    
 nuclear-nuclear             :     -2868.54174396    
 electron-nuclear            :     -81033.3322439    
 Hartree                     :      10749.7747501    
 Madelung                    :     -43385.2078659    
 xc potential                :     -919.186087769    
 exchange                    :     -684.784598418    
 correlation                 :     -9.38296796010    
 total energy                :     -34575.5193862    
 
Density of states at Fermi energy :    26.86283812    
 (states/Hartree/unit cell)
 
Estimated indirect band gap :   0.4001042627E-03
 from k-point    197 to k-point     72
Estimated direct band gap   :   0.8029094781E-02
 at k-point    201
 
Charges :
 core                        :    92.00000000    
 valence                     :    60.00000000    
 interstitial                :    4.453775991    
 muffin-tins (core leakage)
  species :    1 (Os)
   atom    1                 :    73.77311200     (  0.9348867280E-06)
   atom    2                 :    73.77311200     (  0.9348867280E-06)
 total in muffin-tins        :    147.5462240    
 total calculated charge     :    151.9997034    
 total charge                :    152.0000000    
 error                       :   0.2966007615E-03
 
Wrote STATE.OUT
 
RMS change in Kohn-Sham potential (target) :   0.5073907151E-05 (   10.00000000    )
Absolute change in total energy (target)   :   0.3905879566E-06 (  0.1000000000E-07)
 
Time (CPU seconds) :      3529.36
 
+--------------------+
| Loop number :   37 |
+--------------------+
 
Energies :
 Fermi                       :     0.641608148628    
 sum of eigenvalues          :     -21182.2214136    
 electron kinetic            :      39270.7474171    
 core electron kinetic       :      37772.8577501    
 Coulomb                     :     -73152.0992373    
 Coulomb potential           :     -59533.7827429    
 nuclear-nuclear             :     -2868.54174396    
 electron-nuclear            :     -81033.3322439    
 Hartree                     :      10749.7747505    
 Madelung                    :     -43385.2078659    
 xc potential                :     -919.186087763    
 exchange                    :     -684.784598422    
 correlation                 :     -9.38296795913    
 total energy                :     -34575.5193866    
 
Density of states at Fermi energy :    26.86283768    
 (states/Hartree/unit cell)
 
Estimated indirect band gap :   0.4001041660E-03
 from k-point    197 to k-point     72
Estimated direct band gap   :   0.8029094796E-02
 at k-point    201
 
Charges :
 core                        :    92.00000000    
 valence                     :    60.00000000    
 interstitial                :    4.453775990    
 muffin-tins (core leakage)
  species :    1 (Os)
   atom    1                 :    73.77311200     (  0.9348542207E-06)
   atom    2                 :    73.77311200     (  0.9348542207E-06)
 total in muffin-tins        :    147.5462240    
 total calculated charge     :    151.9997034    
 total charge                :    152.0000000    
 error                       :   0.2966006791E-03
 
RMS change in Kohn-Sham potential (target) :   0.8244775377E-05 (   10.00000000    )
Absolute change in total energy (target)   :   0.2946253517E-06 (  0.1000000000E-07)
 
Time (CPU seconds) :      3625.75
 
+--------------------+
| Loop number :   38 |
+--------------------+
 
Energies :
 Fermi                       :     0.641608148553    
 sum of eigenvalues          :     -21182.2214136    
 electron kinetic            :      39270.7474175    
 core electron kinetic       :      37772.8577504    
 Coulomb                     :     -73152.0992375    
 Coulomb potential           :     -59533.7827433    
 nuclear-nuclear             :     -2868.54174396    
 electron-nuclear            :     -81033.3322439    
 Hartree                     :      10749.7747503    
 Madelung                    :     -43385.2078659    
 xc potential                :     -919.186087762    
 exchange                    :     -684.784598420    
 correlation                 :     -9.38296795959    
 total energy                :     -34575.5193864    
 
Density of states at Fermi energy :    26.86283775    
 (states/Hartree/unit cell)
 
Estimated indirect band gap :   0.4001041698E-03
 from k-point    197 to k-point     72
Estimated direct band gap   :   0.8029094796E-02
 at k-point    201
 
Charges :
 core                        :    92.00000000    
 valence                     :    60.00000000    
 interstitial                :    4.453775991    
 muffin-tins (core leakage)
  species :    1 (Os)
   atom    1                 :    73.77311200     (  0.9348826353E-06)
   atom    2                 :    73.77311200     (  0.9348826353E-06)
 total in muffin-tins        :    147.5462240    
 total calculated charge     :    151.9997034    
 total charge                :    152.0000000    
 error                       :   0.2966007355E-03
 
Wrote STATE.OUT
 
RMS change in Kohn-Sham potential (target) :   0.3798894418E-05 (   10.00000000    )
Absolute change in total energy (target)   :   0.1183871063E-06 (  0.1000000000E-07)
 
Time (CPU seconds) :      3717.63
 
+--------------------+
| Loop number :   39 |
+--------------------+
 
Energies :
 Fermi                       :     0.641608148477    
 sum of eigenvalues          :     -21182.2214136    
 electron kinetic            :      39270.7474170    
 core electron kinetic       :      37772.8577501    
 Coulomb                     :     -73152.0992373    
 Coulomb potential           :     -59533.7827429    
 nuclear-nuclear             :     -2868.54174396    
 electron-nuclear            :     -81033.3322439    
 Hartree                     :      10749.7747505    
 Madelung                    :     -43385.2078659    
 xc potential                :     -919.186087757    
 exchange                    :     -684.784598419    
 correlation                 :     -9.38296795951    
 total energy                :     -34575.5193867    
 
Density of states at Fermi energy :    26.86283795    
 (states/Hartree/unit cell)
 
Estimated indirect band gap :   0.4001041838E-03
 from k-point    197 to k-point     72
Estimated direct band gap   :   0.8029094794E-02
 at k-point    201
 
Charges :
 core                        :    92.00000000    
 valence                     :    60.00000000    
 interstitial                :    4.453775990    
 muffin-tins (core leakage)
  species :    1 (Os)
   atom    1                 :    73.77311200     (  0.9349215944E-06)
   atom    2                 :    73.77311200     (  0.9349215944E-06)
 total in muffin-tins        :    147.5462240    
 total calculated charge     :    151.9997034    
 total charge                :    152.0000000    
 error                       :   0.2966008452E-03
 
RMS change in Kohn-Sham potential (target) :   0.7749105715E-05 (   10.00000000    )
Absolute change in total energy (target)   :   0.1946245902E-06 (  0.1000000000E-07)
 
Time (CPU seconds) :      3817.07
 
+--------------------+
| Loop number :   40 |
+--------------------+
 
Energies :
 Fermi                       :     0.641608148566    
 sum of eigenvalues          :     -21182.2214136    
 electron kinetic            :      39270.7474176    
 core electron kinetic       :      37772.8577506    
 Coulomb                     :     -73152.0992376    
 Coulomb potential           :     -59533.7827435    
 nuclear-nuclear             :     -2868.54174396    
 electron-nuclear            :     -81033.3322439    
 Hartree                     :      10749.7747502    
 Madelung                    :     -43385.2078659    
 xc potential                :     -919.186087766    
 exchange                    :     -684.784598421    
 correlation                 :     -9.38296795964    
 total energy                :     -34575.5193864    
 
Density of states at Fermi energy :    26.86283805    
 (states/Hartree/unit cell)
 
Estimated indirect band gap :   0.4001041772E-03
 from k-point    197 to k-point     72
Estimated direct band gap   :   0.8029094795E-02
 at k-point    201
 
Charges :
 core                        :    92.00000000    
 valence                     :    60.00000000    
 interstitial                :    4.453775989    
 muffin-tins (core leakage)
  species :    1 (Os)
   atom    1                 :    73.77311201     (  0.9350093180E-06)
   atom    2                 :    73.77311201     (  0.9350093180E-06)
 total in muffin-tins        :    147.5462240    
 total calculated charge     :    151.9997034    
 total charge                :    152.0000000    
 error                       :   0.2966009955E-03
 
Wrote STATE.OUT
 
RMS change in Kohn-Sham potential (target) :   0.3913303136E-05 (   10.00000000    )
Absolute change in total energy (target)   :   0.2629603841E-06 (  0.1000000000E-07)
 
Time (CPU seconds) :      3913.44
 
+--------------------+
| Loop number :   41 |
+--------------------+
 
Energies :
 Fermi                       :     0.641608148561    
 sum of eigenvalues          :     -21182.2214136    
 electron kinetic            :      39270.7474171    
 core electron kinetic       :      37772.8577501    
 Coulomb                     :     -73152.0992373    
 Coulomb potential           :     -59533.7827429    
 nuclear-nuclear             :     -2868.54174396    
 electron-nuclear            :     -81033.3322439    
 Hartree                     :      10749.7747505    
 Madelung                    :     -43385.2078659    
 xc potential                :     -919.186087763    
 exchange                    :     -684.784598417    
 correlation                 :     -9.38296795961    
 total energy                :     -34575.5193867    
 
Density of states at Fermi energy :    26.86283798    
 (states/Hartree/unit cell)
 
Estimated indirect band gap :   0.4001041701E-03
 from k-point    197 to k-point     72
Estimated direct band gap   :   0.8029094796E-02
 at k-point    201
 
Charges :
 core                        :    92.00000000    
 valence                     :    60.00000000    
 interstitial                :    4.453775990    
 muffin-tins (core leakage)
  species :    1 (Os)
   atom    1                 :    73.77311201     (  0.9348753878E-06)
   atom    2                 :    73.77311201     (  0.9348753878E-06)
 total in muffin-tins        :    147.5462240    
 total calculated charge     :    151.9997034    
 total charge                :    152.0000000    
 error                       :   0.2966007295E-03
 
RMS change in Kohn-Sham potential (target) :   0.9544924462E-04 (   10.00000000    )
Absolute change in total energy (target)   :   0.2299275366E-06 (  0.1000000000E-07)
 
Time (CPU seconds) :      4005.32
 
+--------------------+
| Loop number :   42 |
+--------------------+
 
Energies :
 Fermi                       :     0.641608147620    
 sum of eigenvalues          :     -21182.2214137    
 electron kinetic            :      39270.7474173    
 core electron kinetic       :      37772.8577503    
 Coulomb                     :     -73152.0992375    
 Coulomb potential           :     -59533.7827432    
 nuclear-nuclear             :     -2868.54174396    
 electron-nuclear            :     -81033.3322439    
 Hartree                     :      10749.7747503    
 Madelung                    :     -43385.2078659    
 xc potential                :     -919.186087758    
 exchange                    :     -684.784598418    
 correlation                 :     -9.38296795872    
 total energy                :     -34575.5193866    
 
Density of states at Fermi energy :    26.86283729    
 (states/Hartree/unit cell)
 
Estimated indirect band gap :   0.4001042563E-03
 from k-point    197 to k-point     72
Estimated direct band gap   :   0.8029094783E-02
 at k-point    201
 
Charges :
 core                        :    92.00000000    
 valence                     :    60.00000000    
 interstitial                :    4.453775997    
 muffin-tins (core leakage)
  species :    1 (Os)
   atom    1                 :    73.77311200     (  0.9348519896E-06)
   atom    2                 :    73.77311200     (  0.9348519896E-06)
 total in muffin-tins        :    147.5462240    
 total calculated charge     :    151.9997034    
 total charge                :    152.0000000    
 error                       :   0.2966006913E-03
 
Wrote STATE.OUT
 
RMS change in Kohn-Sham potential (target) :   0.8684845023E-04 (   10.00000000    )
Absolute change in total energy (target)   :   0.7479684427E-08 (  0.1000000000E-07)
 
Convergence targets achieved
 
Time (CPU seconds) :      4101.01
 
+--------------------+
| Loop number :   43 |
+--------------------+
 
Energies :
 Fermi                       :     0.641608148189    
 sum of eigenvalues          :     -21182.2214137    
 electron kinetic            :      39270.7474171    
 core electron kinetic       :      37772.8577501    
 Coulomb                     :     -73152.0992374    
 Coulomb potential           :     -59533.7827430    
 nuclear-nuclear             :     -2868.54174396    
 electron-nuclear            :     -81033.3322439    
 Hartree                     :      10749.7747504    
 Madelung                    :     -43385.2078659    
 xc potential                :     -919.186087758    
 exchange                    :     -684.784598428    
 correlation                 :     -9.38296795714    
 total energy                :     -34575.5193867    
 
Density of states at Fermi energy :    26.86283785    
 (states/Hartree/unit cell)
 
Estimated indirect band gap :   0.4001041967E-03
 from k-point    197 to k-point     72
Estimated direct band gap   :   0.8029094793E-02
 at k-point    201
 
Charges :
 core                        :    92.00000000    
 valence                     :    60.00000000    
 interstitial                :    4.453775991    
 muffin-tins (core leakage)
  species :    1 (Os)
   atom    1                 :    73.77311200     (  0.9349762635E-06)
   atom    2                 :    73.77311200     (  0.9349762635E-06)
 total in muffin-tins        :    147.5462240    
 total calculated charge     :    151.9997034    
 total charge                :    152.0000000    
 error                       :   0.2966009307E-03
 
+------------------------------+
| Self-consistent loop stopped |
+------------------------------+
 
Wrote STATE.OUT
 
Timings (CPU seconds) :
 initialisation                        :         1.16
 Hamiltonian and overlap matrix set up :       690.14
 first-variational eigenvalue equation :      1179.10
 charge density calculation            :      1357.55
 potential calculation                 :       966.25
 total                                 :      4194.19
 
+----------------------------+
| Elk version 8.3.15 stopped |
+----------------------------+
