    -1529.12908893    
    -1529.13014715    
    -1529.13100579    
    -1529.14347562    
    -1529.15113739    
    -1529.15505516    
    -1529.15726582    
    -1529.15787353    
    -1529.15785018    
    -1529.15778562    
    -1529.15773174    
    -1529.15769092    
    -1529.15768810    
    -1529.15768689    
    -1529.15768944    
    -1529.15768625    
    -1529.15768020    
    -1529.15768595    
    -1529.15768963    
    -1529.15768770    
    -1529.15768884    
    -1529.15768723    
    -1529.15768800    
    -1529.15768785    
    -1529.15768810    
    -1529.15768868    
    -1529.15768817    
    -1529.15768792    
    -1529.15768767    
    -1529.15768760    
    -1529.15768754    
    -1529.15768754    
    -1529.15768752    
    -1529.15768750    
    -1529.15768749    
    -1529.15768750    
    -1529.15768750    
