    -246.322349727    
    -246.278666367    
    -244.383235302    
    -243.351120315    
    -243.047250390    
    -242.995528726    
    -242.992324752    
    -243.002412613    
    -243.004214347    
    -243.002498419    
    -243.001695960    
    -243.001700217    
    -243.001716106    
    -243.001716426    
    -243.001716549    
    -243.001716543    
    -243.001716533    
    -243.001716532    
    -243.001716530    
    -243.001716530    
    -243.001716526    
