   297 : nkpt; k-point, vkl, wkpt, nmat below
     1   0.000000000       0.000000000       0.000000000      0.2035416243E-03     555
     2  0.5882352941E-01   0.000000000       0.000000000      0.1221249746E-02     553
     3  0.1176470588       0.000000000       0.000000000      0.1221249746E-02     554
     4  0.1764705882       0.000000000       0.000000000      0.1221249746E-02     554
     5  0.2352941176       0.000000000       0.000000000      0.1221249746E-02     548
     6  0.2941176471       0.000000000       0.000000000      0.1221249746E-02     548
     7  0.3529411765       0.000000000       0.000000000      0.1221249746E-02     544
     8  0.4117647059       0.000000000       0.000000000      0.1221249746E-02     536
     9  0.4705882353       0.000000000       0.000000000      0.1221249746E-02     534
    10  0.5882352941E-01  0.5882352941E-01   0.000000000      0.1221249746E-02     555
    11  0.1176470588      0.5882352941E-01   0.000000000      0.2442499491E-02     557
    12  0.1764705882      0.5882352941E-01   0.000000000      0.2442499491E-02     557
    13  0.2352941176      0.5882352941E-01   0.000000000      0.2442499491E-02     546
    14  0.2941176471      0.5882352941E-01   0.000000000      0.2442499491E-02     544
    15  0.3529411765      0.5882352941E-01   0.000000000      0.2442499491E-02     542
    16  0.4117647059      0.5882352941E-01   0.000000000      0.2442499491E-02     537
    17  0.4705882353      0.5882352941E-01   0.000000000      0.1221249746E-02     536
    18  0.1176470588      0.1176470588       0.000000000      0.1221249746E-02     557
    19  0.1764705882      0.1176470588       0.000000000      0.2442499491E-02     551
    20  0.2352941176      0.1176470588       0.000000000      0.2442499491E-02     547
    21  0.2941176471      0.1176470588       0.000000000      0.2442499491E-02     544
    22  0.3529411765      0.1176470588       0.000000000      0.2442499491E-02     539
    23  0.4117647059      0.1176470588       0.000000000      0.2442499491E-02     534
    24  0.1764705882      0.1764705882       0.000000000      0.1221249746E-02     553
    25  0.2352941176      0.1764705882       0.000000000      0.2442499491E-02     547
    26  0.2941176471      0.1764705882       0.000000000      0.2442499491E-02     540
    27  0.3529411765      0.1764705882       0.000000000      0.2442499491E-02     538
    28  0.4117647059      0.1764705882       0.000000000      0.1221249746E-02     532
    29  0.2352941176      0.2352941176       0.000000000      0.1221249746E-02     544
    30  0.2941176471      0.2352941176       0.000000000      0.2442499491E-02     542
    31  0.3529411765      0.2352941176       0.000000000      0.2442499491E-02     537
    32  0.2941176471      0.2941176471       0.000000000      0.1221249746E-02     546
    33  0.3529411765      0.2941176471       0.000000000      0.1221249746E-02     546
    34   0.000000000       0.000000000      0.5882352941E-01  0.4070832485E-03     555
    35  0.5882352941E-01   0.000000000      0.5882352941E-01  0.2442499491E-02     555
    36  0.1176470588       0.000000000      0.5882352941E-01  0.2442499491E-02     552
    37  0.1764705882       0.000000000      0.5882352941E-01  0.2442499491E-02     551
    38  0.2352941176       0.000000000      0.5882352941E-01  0.2442499491E-02     549
    39  0.2941176471       0.000000000      0.5882352941E-01  0.2442499491E-02     543
    40  0.3529411765       0.000000000      0.5882352941E-01  0.2442499491E-02     542
    41  0.4117647059       0.000000000      0.5882352941E-01  0.2442499491E-02     541
    42  0.4705882353       0.000000000      0.5882352941E-01  0.2442499491E-02     538
    43  0.5882352941E-01  0.5882352941E-01  0.5882352941E-01  0.2442499491E-02     555
    44  0.1176470588      0.5882352941E-01  0.5882352941E-01  0.4884998982E-02     555
    45  0.1764705882      0.5882352941E-01  0.5882352941E-01  0.4884998982E-02     553
    46  0.2352941176      0.5882352941E-01  0.5882352941E-01  0.4884998982E-02     548
    47  0.2941176471      0.5882352941E-01  0.5882352941E-01  0.4884998982E-02     543
    48  0.3529411765      0.5882352941E-01  0.5882352941E-01  0.4884998982E-02     542
    49  0.4117647059      0.5882352941E-01  0.5882352941E-01  0.4884998982E-02     538
    50  0.4705882353      0.5882352941E-01  0.5882352941E-01  0.2442499491E-02     538
    51  0.1176470588      0.1176470588      0.5882352941E-01  0.2442499491E-02     557
    52  0.1764705882      0.1176470588      0.5882352941E-01  0.4884998982E-02     552
    53  0.2352941176      0.1176470588      0.5882352941E-01  0.4884998982E-02     548
    54  0.2941176471      0.1176470588      0.5882352941E-01  0.4884998982E-02     544
    55  0.3529411765      0.1176470588      0.5882352941E-01  0.4884998982E-02     539
    56  0.4117647059      0.1176470588      0.5882352941E-01  0.4884998982E-02     536
    57  0.1764705882      0.1764705882      0.5882352941E-01  0.2442499491E-02     553
    58  0.2352941176      0.1764705882      0.5882352941E-01  0.4884998982E-02     546
    59  0.2941176471      0.1764705882      0.5882352941E-01  0.4884998982E-02     541
    60  0.3529411765      0.1764705882      0.5882352941E-01  0.4884998982E-02     536
    61  0.4117647059      0.1764705882      0.5882352941E-01  0.2442499491E-02     536
    62  0.2352941176      0.2352941176      0.5882352941E-01  0.2442499491E-02     544
    63  0.2941176471      0.2352941176      0.5882352941E-01  0.4884998982E-02     542
    64  0.3529411765      0.2352941176      0.5882352941E-01  0.4884998982E-02     537
    65  0.2941176471      0.2941176471      0.5882352941E-01  0.2442499491E-02     543
    66  0.3529411765      0.2941176471      0.5882352941E-01  0.2442499491E-02     544
    67   0.000000000       0.000000000      0.1176470588      0.4070832485E-03     555
    68  0.5882352941E-01   0.000000000      0.1176470588      0.2442499491E-02     551
    69  0.1176470588       0.000000000      0.1176470588      0.2442499491E-02     547
    70  0.1764705882       0.000000000      0.1176470588      0.2442499491E-02     551
    71  0.2352941176       0.000000000      0.1176470588      0.2442499491E-02     551
    72  0.2941176471       0.000000000      0.1176470588      0.2442499491E-02     547
    73  0.3529411765       0.000000000      0.1176470588      0.2442499491E-02     543
    74  0.4117647059       0.000000000      0.1176470588      0.2442499491E-02     541
    75  0.4705882353       0.000000000      0.1176470588      0.2442499491E-02     542
    76  0.5882352941E-01  0.5882352941E-01  0.1176470588      0.2442499491E-02     553
    77  0.1176470588      0.5882352941E-01  0.1176470588      0.4884998982E-02     553
    78  0.1764705882      0.5882352941E-01  0.1176470588      0.4884998982E-02     551
    79  0.2352941176      0.5882352941E-01  0.1176470588      0.4884998982E-02     547
    80  0.2941176471      0.5882352941E-01  0.1176470588      0.4884998982E-02     544
    81  0.3529411765      0.5882352941E-01  0.1176470588      0.4884998982E-02     541
    82  0.4117647059      0.5882352941E-01  0.1176470588      0.4884998982E-02     539
    83  0.4705882353      0.5882352941E-01  0.1176470588      0.2442499491E-02     541
    84  0.1176470588      0.1176470588      0.1176470588      0.2442499491E-02     557
    85  0.1764705882      0.1176470588      0.1176470588      0.4884998982E-02     551
    86  0.2352941176      0.1176470588      0.1176470588      0.4884998982E-02     548
    87  0.2941176471      0.1176470588      0.1176470588      0.4884998982E-02     544
    88  0.3529411765      0.1176470588      0.1176470588      0.4884998982E-02     540
    89  0.4117647059      0.1176470588      0.1176470588      0.4884998982E-02     537
    90  0.1764705882      0.1764705882      0.1176470588      0.2442499491E-02     550
    91  0.2352941176      0.1764705882      0.1176470588      0.4884998982E-02     546
    92  0.2941176471      0.1764705882      0.1176470588      0.4884998982E-02     544
    93  0.3529411765      0.1764705882      0.1176470588      0.4884998982E-02     537
    94  0.4117647059      0.1764705882      0.1176470588      0.2442499491E-02     536
    95  0.2352941176      0.2352941176      0.1176470588      0.2442499491E-02     542
    96  0.2941176471      0.2352941176      0.1176470588      0.4884998982E-02     539
    97  0.3529411765      0.2352941176      0.1176470588      0.4884998982E-02     538
    98  0.2941176471      0.2941176471      0.1176470588      0.2442499491E-02     539
    99  0.3529411765      0.2941176471      0.1176470588      0.2442499491E-02     538
   100   0.000000000       0.000000000      0.1764705882      0.4070832485E-03     543
   101  0.5882352941E-01   0.000000000      0.1764705882      0.2442499491E-02     549
   102  0.1176470588       0.000000000      0.1764705882      0.2442499491E-02     549
   103  0.1764705882       0.000000000      0.1764705882      0.2442499491E-02     550
   104  0.2352941176       0.000000000      0.1764705882      0.2442499491E-02     551
   105  0.2941176471       0.000000000      0.1764705882      0.2442499491E-02     545
   106  0.3529411765       0.000000000      0.1764705882      0.2442499491E-02     543
   107  0.4117647059       0.000000000      0.1764705882      0.2442499491E-02     544
   108  0.4705882353       0.000000000      0.1764705882      0.2442499491E-02     541
   109  0.5882352941E-01  0.5882352941E-01  0.1764705882      0.2442499491E-02     551
   110  0.1176470588      0.5882352941E-01  0.1764705882      0.4884998982E-02     551
   111  0.1764705882      0.5882352941E-01  0.1764705882      0.4884998982E-02     548
   112  0.2352941176      0.5882352941E-01  0.1764705882      0.4884998982E-02     547
   113  0.2941176471      0.5882352941E-01  0.1764705882      0.4884998982E-02     544
   114  0.3529411765      0.5882352941E-01  0.1764705882      0.4884998982E-02     543
   115  0.4117647059      0.5882352941E-01  0.1764705882      0.4884998982E-02     540
   116  0.4705882353      0.5882352941E-01  0.1764705882      0.2442499491E-02     543
   117  0.1176470588      0.1176470588      0.1764705882      0.2442499491E-02     551
   118  0.1764705882      0.1176470588      0.1764705882      0.4884998982E-02     548
   119  0.2352941176      0.1176470588      0.1764705882      0.4884998982E-02     548
   120  0.2941176471      0.1176470588      0.1764705882      0.4884998982E-02     544
   121  0.3529411765      0.1176470588      0.1764705882      0.4884998982E-02     542
   122  0.4117647059      0.1176470588      0.1764705882      0.4884998982E-02     540
   123  0.1764705882      0.1764705882      0.1764705882      0.2442499491E-02     547
   124  0.2352941176      0.1764705882      0.1764705882      0.4884998982E-02     546
   125  0.2941176471      0.1764705882      0.1764705882      0.4884998982E-02     543
   126  0.3529411765      0.1764705882      0.1764705882      0.4884998982E-02     541
   127  0.4117647059      0.1764705882      0.1764705882      0.2442499491E-02     541
   128  0.2352941176      0.2352941176      0.1764705882      0.2442499491E-02     542
   129  0.2941176471      0.2352941176      0.1764705882      0.4884998982E-02     542
   130  0.3529411765      0.2352941176      0.1764705882      0.4884998982E-02     537
   131  0.2941176471      0.2941176471      0.1764705882      0.2442499491E-02     537
   132  0.3529411765      0.2941176471      0.1764705882      0.2442499491E-02     536
   133   0.000000000       0.000000000      0.2352941176      0.4070832485E-03     555
   134  0.5882352941E-01   0.000000000      0.2352941176      0.2442499491E-02     549
   135  0.1176470588       0.000000000      0.2352941176      0.2442499491E-02     544
   136  0.1764705882       0.000000000      0.2352941176      0.2442499491E-02     549
   137  0.2352941176       0.000000000      0.2352941176      0.2442499491E-02     547
   138  0.2941176471       0.000000000      0.2352941176      0.2442499491E-02     545
   139  0.3529411765       0.000000000      0.2352941176      0.2442499491E-02     546
   140  0.4117647059       0.000000000      0.2352941176      0.2442499491E-02     542
   141  0.4705882353       0.000000000      0.2352941176      0.2442499491E-02     540
   142  0.5882352941E-01  0.5882352941E-01  0.2352941176      0.2442499491E-02     547
   143  0.1176470588      0.5882352941E-01  0.2352941176      0.4884998982E-02     546
   144  0.1764705882      0.5882352941E-01  0.2352941176      0.4884998982E-02     547
   145  0.2352941176      0.5882352941E-01  0.2352941176      0.4884998982E-02     547
   146  0.2941176471      0.5882352941E-01  0.2352941176      0.4884998982E-02     546
   147  0.3529411765      0.5882352941E-01  0.2352941176      0.4884998982E-02     545
   148  0.4117647059      0.5882352941E-01  0.2352941176      0.4884998982E-02     543
   149  0.4705882353      0.5882352941E-01  0.2352941176      0.2442499491E-02     537
   150  0.1176470588      0.1176470588      0.2352941176      0.2442499491E-02     549
   151  0.1764705882      0.1176470588      0.2352941176      0.4884998982E-02     549
   152  0.2352941176      0.1176470588      0.2352941176      0.4884998982E-02     544
   153  0.2941176471      0.1176470588      0.2352941176      0.4884998982E-02     541
   154  0.3529411765      0.1176470588      0.2352941176      0.4884998982E-02     544
   155  0.4117647059      0.1176470588      0.2352941176      0.4884998982E-02     540
   156  0.1764705882      0.1764705882      0.2352941176      0.2442499491E-02     545
   157  0.2352941176      0.1764705882      0.2352941176      0.4884998982E-02     545
   158  0.2941176471      0.1764705882      0.2352941176      0.4884998982E-02     544
   159  0.3529411765      0.1764705882      0.2352941176      0.4884998982E-02     543
   160  0.4117647059      0.1764705882      0.2352941176      0.2442499491E-02     537
   161  0.2352941176      0.2352941176      0.2352941176      0.2442499491E-02     543
   162  0.2941176471      0.2352941176      0.2352941176      0.4884998982E-02     541
   163  0.3529411765      0.2352941176      0.2352941176      0.4884998982E-02     540
   164  0.2941176471      0.2941176471      0.2352941176      0.2442499491E-02     539
   165  0.3529411765      0.2941176471      0.2352941176      0.2442499491E-02     534
   166   0.000000000       0.000000000      0.2941176471      0.4070832485E-03     555
   167  0.5882352941E-01   0.000000000      0.2941176471      0.2442499491E-02     548
   168  0.1176470588       0.000000000      0.2941176471      0.2442499491E-02     548
   169  0.1764705882       0.000000000      0.2941176471      0.2442499491E-02     542
   170  0.2352941176       0.000000000      0.2941176471      0.2442499491E-02     545
   171  0.2941176471       0.000000000      0.2941176471      0.2442499491E-02     547
   172  0.3529411765       0.000000000      0.2941176471      0.2442499491E-02     546
   173  0.4117647059       0.000000000      0.2941176471      0.2442499491E-02     544
   174  0.4705882353       0.000000000      0.2941176471      0.2442499491E-02     540
   175  0.5882352941E-01  0.5882352941E-01  0.2941176471      0.2442499491E-02     547
   176  0.1176470588      0.5882352941E-01  0.2941176471      0.4884998982E-02     547
   177  0.1764705882      0.5882352941E-01  0.2941176471      0.4884998982E-02     546
   178  0.2352941176      0.5882352941E-01  0.2941176471      0.4884998982E-02     545
   179  0.2941176471      0.5882352941E-01  0.2941176471      0.4884998982E-02     546
   180  0.3529411765      0.5882352941E-01  0.2941176471      0.4884998982E-02     545
   181  0.4117647059      0.5882352941E-01  0.2941176471      0.4884998982E-02     543
   182  0.4705882353      0.5882352941E-01  0.2941176471      0.2442499491E-02     540
   183  0.1176470588      0.1176470588      0.2941176471      0.2442499491E-02     545
   184  0.1764705882      0.1176470588      0.2941176471      0.4884998982E-02     547
   185  0.2352941176      0.1176470588      0.2941176471      0.4884998982E-02     543
   186  0.2941176471      0.1176470588      0.2941176471      0.4884998982E-02     541
   187  0.3529411765      0.1176470588      0.2941176471      0.4884998982E-02     542
   188  0.4117647059      0.1176470588      0.2941176471      0.4884998982E-02     540
   189  0.1764705882      0.1764705882      0.2941176471      0.2442499491E-02     541
   190  0.2352941176      0.1764705882      0.2941176471      0.4884998982E-02     544
   191  0.2941176471      0.1764705882      0.2941176471      0.4884998982E-02     545
   192  0.3529411765      0.1764705882      0.2941176471      0.4884998982E-02     542
   193  0.4117647059      0.1764705882      0.2941176471      0.2442499491E-02     543
   194  0.2352941176      0.2352941176      0.2941176471      0.2442499491E-02     545
   195  0.2941176471      0.2352941176      0.2941176471      0.4884998982E-02     540
   196  0.3529411765      0.2352941176      0.2941176471      0.4884998982E-02     540
   197  0.2941176471      0.2941176471      0.2941176471      0.2442499491E-02     540
   198  0.3529411765      0.2941176471      0.2941176471      0.2442499491E-02     540
   199   0.000000000       0.000000000      0.3529411765      0.4070832485E-03     549
   200  0.5882352941E-01   0.000000000      0.3529411765      0.2442499491E-02     551
   201  0.1176470588       0.000000000      0.3529411765      0.2442499491E-02     549
   202  0.1764705882       0.000000000      0.3529411765      0.2442499491E-02     544
   203  0.2352941176       0.000000000      0.3529411765      0.2442499491E-02     545
   204  0.2941176471       0.000000000      0.3529411765      0.2442499491E-02     545
   205  0.3529411765       0.000000000      0.3529411765      0.2442499491E-02     545
   206  0.4117647059       0.000000000      0.3529411765      0.2442499491E-02     544
   207  0.4705882353       0.000000000      0.3529411765      0.2442499491E-02     542
   208  0.5882352941E-01  0.5882352941E-01  0.3529411765      0.2442499491E-02     545
   209  0.1176470588      0.5882352941E-01  0.3529411765      0.4884998982E-02     544
   210  0.1764705882      0.5882352941E-01  0.3529411765      0.4884998982E-02     544
   211  0.2352941176      0.5882352941E-01  0.3529411765      0.4884998982E-02     546
   212  0.2941176471      0.5882352941E-01  0.3529411765      0.4884998982E-02     545
   213  0.3529411765      0.5882352941E-01  0.3529411765      0.4884998982E-02     543
   214  0.4117647059      0.5882352941E-01  0.3529411765      0.4884998982E-02     544
   215  0.4705882353      0.5882352941E-01  0.3529411765      0.2442499491E-02     540
   216  0.1176470588      0.1176470588      0.3529411765      0.2442499491E-02     543
   217  0.1764705882      0.1176470588      0.3529411765      0.4884998982E-02     545
   218  0.2352941176      0.1176470588      0.3529411765      0.4884998982E-02     543
   219  0.2941176471      0.1176470588      0.3529411765      0.4884998982E-02     541
   220  0.3529411765      0.1176470588      0.3529411765      0.4884998982E-02     543
   221  0.4117647059      0.1176470588      0.3529411765      0.4884998982E-02     542
   222  0.1764705882      0.1764705882      0.3529411765      0.2442499491E-02     543
   223  0.2352941176      0.1764705882      0.3529411765      0.4884998982E-02     543
   224  0.2941176471      0.1764705882      0.3529411765      0.4884998982E-02     542
   225  0.3529411765      0.1764705882      0.3529411765      0.4884998982E-02     537
   226  0.4117647059      0.1764705882      0.3529411765      0.2442499491E-02     541
   227  0.2352941176      0.2352941176      0.3529411765      0.2442499491E-02     545
   228  0.2941176471      0.2352941176      0.3529411765      0.4884998982E-02     540
   229  0.3529411765      0.2352941176      0.3529411765      0.4884998982E-02     540
   230  0.2941176471      0.2941176471      0.3529411765      0.2442499491E-02     538
   231  0.3529411765      0.2941176471      0.3529411765      0.2442499491E-02     543
   232   0.000000000       0.000000000      0.4117647059      0.4070832485E-03     549
   233  0.5882352941E-01   0.000000000      0.4117647059      0.2442499491E-02     553
   234  0.1176470588       0.000000000      0.4117647059      0.2442499491E-02     549
   235  0.1764705882       0.000000000      0.4117647059      0.2442499491E-02     541
   236  0.2352941176       0.000000000      0.4117647059      0.2442499491E-02     543
   237  0.2941176471       0.000000000      0.4117647059      0.2442499491E-02     546
   238  0.3529411765       0.000000000      0.4117647059      0.2442499491E-02     545
   239  0.4117647059       0.000000000      0.4117647059      0.2442499491E-02     540
   240  0.4705882353       0.000000000      0.4117647059      0.2442499491E-02     540
   241  0.5882352941E-01  0.5882352941E-01  0.4117647059      0.2442499491E-02     547
   242  0.1176470588      0.5882352941E-01  0.4117647059      0.4884998982E-02     543
   243  0.1764705882      0.5882352941E-01  0.4117647059      0.4884998982E-02     543
   244  0.2352941176      0.5882352941E-01  0.4117647059      0.4884998982E-02     543
   245  0.2941176471      0.5882352941E-01  0.4117647059      0.4884998982E-02     546
   246  0.3529411765      0.5882352941E-01  0.4117647059      0.4884998982E-02     542
   247  0.4117647059      0.5882352941E-01  0.4117647059      0.4884998982E-02     542
   248  0.4705882353      0.5882352941E-01  0.4117647059      0.2442499491E-02     538
   249  0.1176470588      0.1176470588      0.4117647059      0.2442499491E-02     541
   250  0.1764705882      0.1176470588      0.4117647059      0.4884998982E-02     546
   251  0.2352941176      0.1176470588      0.4117647059      0.4884998982E-02     545
   252  0.2941176471      0.1176470588      0.4117647059      0.4884998982E-02     544
   253  0.3529411765      0.1176470588      0.4117647059      0.4884998982E-02     543
   254  0.4117647059      0.1176470588      0.4117647059      0.4884998982E-02     540
   255  0.1764705882      0.1764705882      0.4117647059      0.2442499491E-02     545
   256  0.2352941176      0.1764705882      0.4117647059      0.4884998982E-02     543
   257  0.2941176471      0.1764705882      0.4117647059      0.4884998982E-02     543
   258  0.3529411765      0.1764705882      0.4117647059      0.4884998982E-02     539
   259  0.4117647059      0.1764705882      0.4117647059      0.2442499491E-02     539
   260  0.2352941176      0.2352941176      0.4117647059      0.2442499491E-02     546
   261  0.2941176471      0.2352941176      0.4117647059      0.4884998982E-02     539
   262  0.3529411765      0.2352941176      0.4117647059      0.4884998982E-02     539
   263  0.2941176471      0.2941176471      0.4117647059      0.2442499491E-02     538
   264  0.3529411765      0.2941176471      0.4117647059      0.2442499491E-02     541
   265   0.000000000       0.000000000      0.4705882353      0.4070832485E-03     548
   266  0.5882352941E-01   0.000000000      0.4705882353      0.2442499491E-02     552
   267  0.1176470588       0.000000000      0.4705882353      0.2442499491E-02     548
   268  0.1764705882       0.000000000      0.4705882353      0.2442499491E-02     540
   269  0.2352941176       0.000000000      0.4705882353      0.2442499491E-02     541
   270  0.2941176471       0.000000000      0.4705882353      0.2442499491E-02     546
   271  0.3529411765       0.000000000      0.4705882353      0.2442499491E-02     542
   272  0.4117647059       0.000000000      0.4705882353      0.2442499491E-02     540
   273  0.4705882353       0.000000000      0.4705882353      0.2442499491E-02     536
   274  0.5882352941E-01  0.5882352941E-01  0.4705882353      0.2442499491E-02     546
   275  0.1176470588      0.5882352941E-01  0.4705882353      0.4884998982E-02     543
   276  0.1764705882      0.5882352941E-01  0.4705882353      0.4884998982E-02     541
   277  0.2352941176      0.5882352941E-01  0.4705882353      0.4884998982E-02     542
   278  0.2941176471      0.5882352941E-01  0.4705882353      0.4884998982E-02     545
   279  0.3529411765      0.5882352941E-01  0.4705882353      0.4884998982E-02     540
   280  0.4117647059      0.5882352941E-01  0.4705882353      0.4884998982E-02     540
   281  0.4705882353      0.5882352941E-01  0.4705882353      0.2442499491E-02     542
   282  0.1176470588      0.1176470588      0.4705882353      0.2442499491E-02     540
   283  0.1764705882      0.1176470588      0.4705882353      0.4884998982E-02     538
   284  0.2352941176      0.1176470588      0.4705882353      0.4884998982E-02     547
   285  0.2941176471      0.1176470588      0.4705882353      0.4884998982E-02     544
   286  0.3529411765      0.1176470588      0.4705882353      0.4884998982E-02     545
   287  0.4117647059      0.1176470588      0.4705882353      0.4884998982E-02     543
   288  0.1764705882      0.1764705882      0.4705882353      0.2442499491E-02     544
   289  0.2352941176      0.1764705882      0.4705882353      0.4884998982E-02     543
   290  0.2941176471      0.1764705882      0.4705882353      0.4884998982E-02     545
   291  0.3529411765      0.1764705882      0.4705882353      0.4884998982E-02     540
   292  0.4117647059      0.1764705882      0.4705882353      0.2442499491E-02     539
   293  0.2352941176      0.2352941176      0.4705882353      0.2442499491E-02     544
   294  0.2941176471      0.2352941176      0.4705882353      0.4884998982E-02     538
   295  0.3529411765      0.2352941176      0.4705882353      0.4884998982E-02     538
   296  0.2941176471      0.2941176471      0.4705882353      0.2442499491E-02     540
   297  0.3529411765      0.2941176471      0.4705882353      0.2442499491E-02     540
