    -8576.00172005    
    -8576.00140000    
    -8576.00125643    
    -8575.99674891    
    -8575.97894788    
    -8575.97005370    
    -8575.96559395    
    -8575.96701679    
    -8575.96506280    
    -8575.96481789    
    -8575.96559346    
    -8575.96591359    
    -8575.96596453    
    -8575.96596407    
    -8575.96596568    
    -8575.96598548    
    -8575.96599174    
    -8575.96598783    
    -8575.96600052    
    -8575.96600384    
    -8575.96600532    
    -8575.96600001    
    -8575.96600043    
    -8575.96600054    
    -8575.96599973    
    -8575.96600051    
    -8575.96600045    
    -8575.96600093    
    -8575.96600203    
    -8575.96600246    
    -8575.96600273    
    -8575.96600292    
    -8575.96600299    
    -8575.96600282    
    -8575.96600289    
    -8575.96600296    
    -8575.96600299    
    -8575.96600285    
    -8575.96600292    
    -8575.96600298    
    -8575.96600298    
    -8575.96600297    
    -8575.96600299    
