    0.217582903207E-03
    0.307098877700E-03
    0.255431016407E-03
    0.319615984187E-04
    0.186107676813E-03
    0.246818159260E-03
    0.144740145542E-03
    0.139286090320E-03
    0.130988363806E-03
    0.128102982562E-03
    0.127617163984E-03
    0.127389783484E-03
    0.127269086501E-03
    0.127237834375E-03
    0.127242776478E-03
    0.127242365277E-03
    0.127257501138E-03
    0.127260458771E-03
    0.127261665899E-03
    0.127263947851E-03
    0.127265440768E-03
    0.127256093364E-03
    0.127261537874E-03
    0.127262388780E-03
    0.127263508481E-03
    0.127262525063E-03
    0.127262460273E-03
    0.127263328763E-03
    0.127263934647E-03
    0.127264267090E-03
    0.127264613142E-03
    0.127264693274E-03
    0.127264465500E-03
    0.127264878463E-03
    0.127264951950E-03
    0.127264927156E-03
    0.127264955742E-03
    0.127264970817E-03
