  0.8563828311    
  0.7297752196    
  0.5821836438    
  0.4304643074    
  0.2936327611    
  0.1850810137    
  0.1073488134    
  0.5673133061E-01
  0.2718462599E-01
  0.1167753441E-01
  0.4512242957E-02
  0.1591009364E-02
  0.5703386442E-03
  0.2313518489E-03
  0.1134539480E-03
  0.2766732004E-03
  0.2359778762E-03
  0.2941799104E-04
  0.2656664053E-03
  0.2638459045E-03
  0.1724483649E-03
  0.1535762774E-04
  0.3866840094E-04
  0.5550725883E-03
  0.3763976824E-03
  0.9779397842E-04
  0.6626771540E-03
  0.1230397504E-03
