 
+----------------------------+
| Real-space lattice vectors |
+----------------------------+
 
vector a1 :    3.287753422       3.287753422      -3.287753422    
vector a2 :    3.287753422      -3.287753422       3.287753422    
vector a3 :   -3.287753422       3.287753422       3.287753422    
 
Stored column-wise as a matrix :
   3.287753422       3.287753422      -3.287753422    
   3.287753422      -3.287753422       3.287753422    
  -3.287753422       3.287753422       3.287753422    
 
Inverse of matrix :
  0.1520795315      0.1520795315       0.000000000    
  0.1520795315       0.000000000      0.1520795315    
   0.000000000      0.1520795315      0.1520795315    
 
Unit cell volume :    142.1535490    
 
 
+----------------------------------+
| Reciprocal-space lattice vectors |
+----------------------------------+
 
vector b1 :   0.9555438777      0.9555438777       0.000000000    
vector b2 :   0.9555438777       0.000000000      0.9555438777    
vector b3 :    0.000000000      0.9555438777      0.9555438777    
 
Stored column-wise as a matrix :
  0.9555438777      0.9555438777       0.000000000    
  0.9555438777       0.000000000      0.9555438777    
   0.000000000      0.9555438777      0.9555438777    
 
Inverse of matrix :
  0.5232622087      0.5232622087     -0.5232622087    
  0.5232622087     -0.5232622087      0.5232622087    
 -0.5232622087      0.5232622087      0.5232622087    
 
Brillouin zone volume :    1.744945626    
