 
Species :    1 (Os), atom :    1
 n =  1, l =  0, k =  1 :   -2713.620852    
 n =  2, l =  0, k =  1 :   -471.1658469    
 n =  2, l =  1, k =  1 :   -451.4556444    
 n =  2, l =  1, k =  2 :   -394.9037263    
 n =  3, l =  0, k =  1 :   -108.9891672    
 n =  3, l =  1, k =  1 :   -100.0946057    
 n =  3, l =  1, k =  2 :   -87.75940723    
 n =  3, l =  2, k =  2 :   -72.64117631    
 n =  3, l =  2, k =  3 :   -69.98031637    
 n =  4, l =  0, k =  1 :   -22.37376425    
 n =  4, l =  1, k =  1 :   -18.62021149    
 n =  4, l =  1, k =  2 :   -15.72081594    
 n =  4, l =  2, k =  2 :   -9.512225184    
 n =  4, l =  2, k =  3 :   -8.977649662    
 
Species :    1 (Os), atom :    2
 n =  1, l =  0, k =  1 :   -2713.620852    
 n =  2, l =  0, k =  1 :   -471.1658469    
 n =  2, l =  1, k =  1 :   -451.4556444    
 n =  2, l =  1, k =  2 :   -394.9037263    
 n =  3, l =  0, k =  1 :   -108.9891672    
 n =  3, l =  1, k =  1 :   -100.0946057    
 n =  3, l =  1, k =  2 :   -87.75940723    
 n =  3, l =  2, k =  2 :   -72.64117631    
 n =  3, l =  2, k =  3 :   -69.98031637    
 n =  4, l =  0, k =  1 :   -22.37376425    
 n =  4, l =  1, k =  1 :   -18.62021149    
 n =  4, l =  1, k =  2 :   -15.72081594    
 n =  4, l =  2, k =  2 :   -9.512225184    
 n =  4, l =  2, k =  3 :   -8.977649662    
