 
+----------------------------+
| Real-space lattice vectors |
+----------------------------+
 
vector a1 :    4.508474691      -2.602969076       0.000000000    
vector a2 :    0.000000000       5.205938153       0.000000000    
vector a3 :    0.000000000       0.000000000       8.704524387    
 
Stored column-wise as a matrix :
   4.508474691       0.000000000       0.000000000    
  -2.602969076       5.205938153       0.000000000    
   0.000000000       0.000000000       8.704524387    
 
Inverse of matrix :
  0.2218045056       0.000000000       0.000000000    
  0.1109022528      0.1920883366       0.000000000    
   0.000000000       0.000000000      0.1148827846    
 
Unit cell volume :    204.3025027    
 
 
+----------------------------------+
| Reciprocal-space lattice vectors |
+----------------------------------+
 
vector b1 :    1.393638811       0.000000000       0.000000000    
vector b2 :   0.6968194054       1.206926614       0.000000000    
vector b3 :    0.000000000       0.000000000      0.7218298241    
 
Stored column-wise as a matrix :
   1.393638811      0.6968194054       0.000000000    
   0.000000000       1.206926614       0.000000000    
   0.000000000       0.000000000      0.7218298241    
 
Inverse of matrix :
  0.7175460329     -0.4142753952       0.000000000    
   0.000000000      0.8285507905       0.000000000    
   0.000000000       0.000000000       1.385368084    
 
Brillouin zone volume :    1.214132035    
