    -1529.17532827    
    -1529.17509978    
    -1529.17335909    
    -1529.16070220    
    -1529.15377036    
    -1529.15783154    
    -1529.15843207    
    -1529.15811683    
    -1529.15781682    
    -1529.15797854    
    -1529.15807759    
    -1529.15808287    
    -1529.15806905    
    -1529.15810032    
    -1529.15810943    
    -1529.15811167    
    -1529.15810028    
    -1529.15809755    
    -1529.15812112    
    -1529.15810876    
    -1529.15811107    
    -1529.15811088    
    -1529.15810670    
    -1529.15810736    
    -1529.15810548    
    -1529.15810625    
    -1529.15810477    
    -1529.15809830    
    -1529.15810143    
    -1529.15810306    
    -1529.15810347    
    -1529.15810374    
    -1529.15810543    
    -1529.15810571    
    -1529.15810484    
    -1529.15810455    
    -1529.15810440    
    -1529.15810356    
    -1529.15810363    
    -1529.15810386    
    -1529.15810391    
    -1529.15810387    
    -1529.15810385    
    -1529.15810397    
    -1529.15810403    
    -1529.15810397    
    -1529.15810396    
    -1529.15810397    
    -1529.15810374    
