    -7199.82547640    
    -7199.83867656    
    -7199.88198926    
    -7200.34394774    
    -7200.49082067    
    -7200.52599076    
    -7200.88854370    
    -7200.83515470    
    -7200.82289884    
    -7200.72597132    
    -7200.73971637    
    -7200.73945902    
    -7200.74028423    
    -7200.74025889    
    -7200.74030334    
    -7200.74036013    
    -7200.74041544    
    -7200.74043658    
    -7200.74040402    
    -7200.74038253    
    -7200.74037522    
    -7200.74037644    
    -7200.74040895    
    -7200.74040020    
    -7200.74039505    
    -7200.74039730    
    -7200.74040352    
    -7200.74039742    
    -7200.74039787    
    -7200.74039531    
    -7200.74039445    
    -7200.74039513    
    -7200.74039575    
    -7200.74039600    
    -7200.74039621    
    -7200.74039589    
    -7200.74039589    
    -7200.74039573    
    -7200.74039573    
    -7200.74039566    
    -7200.74039560    
    -7200.74039570    
    -7200.74039444    
    -7200.74039445    
    -7200.74039582    
    -7200.74039451    
    -7200.74039586    
    -7200.74039456    
    -7200.74039590    
    -7200.74039457    
    -7200.74039458    
    -7200.74039582    
    -7200.74039587    
    -7200.74039589    
    -7200.74039457    
    -7200.74039582    
    -7200.74039588    
    -7200.74039587    
    -7200.74039582    
    -7200.74039451    
    -7200.74039585    
    -7200.74039457    
    -7200.74039591    
    -7200.74039584    
    -7200.74039455    
    -7200.74039456    
    -7200.74039580    
    -7200.74039455    
    -7200.74039454    
    -7200.74039455    
    -7200.74039458    
    -7200.74039590    
    -7200.74039591    
    -7200.74039579    
    -7200.74039456    
    -7200.74039456    
    -7200.74039456    
    -7200.74039582    
    -7200.74039586    
    -7200.74039589    
    -7200.74039455    
    -7200.74039456    
    -7200.74039456    
    -7200.74039458    
    -7200.74039459    
