   111.0737617    
   110.8901286    
   110.7400648    
   105.5749070    
   102.4979711    
   104.2951260    
   106.0203183    
   105.7001704    
   105.3691569    
   105.4993513    
   105.6109859    
   105.6309797    
   105.6282274    
   105.6290704    
   105.6192599    
   105.6285507    
   105.6286891    
   105.6280041    
   105.6284295    
   105.6278660    
   105.6290723    
   105.6283913    
   105.6278945    
   105.6278703    
   105.6275564    
   105.6267422    
   105.6273568    
   105.6268493    
   105.6274641    
   105.6276455    
   105.6276803    
   105.6275397    
   105.6275909    
   105.6275726    
   105.6276204    
