+----------------------------+
| Elk version 8.3.15 started |
+----------------------------+
 
Date (YYYY-MM-DD) : 2022-02-20
Time (hh:mm:ss)   : 16:10:53
 
All units are atomic (Hartree, Bohr, etc.)
 
+-------------------------------------------------+
| Ground-state run starting from atomic densities |
+-------------------------------------------------+
 
Lattice vectors :
   5.236353955      -3.023210365       0.000000000    
   0.000000000       6.046420731       0.000000000    
   0.000000000       0.000000000       10.34145862    
 
Reciprocal lattice vectors :
   1.199916079       0.000000000       0.000000000    
  0.5999580395       1.039157807       0.000000000    
   0.000000000       0.000000000      0.6075724457    
 
Unit cell volume      :    327.4229805    
Brillouin zone volume :   0.7575833958    
 
Muffin-tin inner radius fraction :   0.1000000000E-01
 
Species :    1 (Zr)
 parameters loaded from : Zr.in
 name : zirconium
 nuclear charge    :   -40.00000000    
 electronic charge :    40.00000000    
 atomic mass :    166291.1791    
 muffin-tin radius :    2.500000000    
 number of radial points in muffin-tin :   1200
 number on inner part of muffin-tin    :    866
 atomic positions (lattice), magnetic fields (Cartesian) :
   1 :   0.33333333  0.16666667  0.25000000    0.00000000  0.00000000  0.00000000
   2 :  -0.33333333 -0.16666667 -0.25000000    0.00000000  0.00000000  0.00000000
 
Total number of atoms per unit cell :    2
 
Spin treatment :
 spin-unpolarised
 
Number of Bravais lattice symmetries :   24
Number of crystal symmetries         :   24
Crystal has inversion symmetry
Real symmetric eigensolver will be used
 
k-point grid :     17    17    17
k-point offset :    0.000000000       0.000000000       0.000000000    
k-point set is reduced with full crystal symmetry group
Total number of k-points :      297
 
Muffin-tin radius times maximum |G+k| :    8.000000000    
 using gkmax = rgkmax / 2
Maximum |G+k| for APW functions       :    4.000000000    
Maximum (1/2)|G+k|²                   :    8.000000000    
Maximum |G| for potential and density :    32.00000000    
Constant for pseudocharge density :   20
Radial integration step length :    1
 
G-vector grid sizes :     64    64   108
Number of G-vectors :   180879
 
Maximum angular momentum used for
 APW functions                      :   10
 outer part of muffin-tin           :    8
 inner part of muffin-tin           :    1
 
Total nuclear charge    :   -80.00000000    
Total core charge       :    56.00000000    
Total valence charge    :    24.00000000    
Total excess charge     :    0.000000000    
Total electronic charge :    80.00000000    
 
Effective Wigner radius, rₛ :   0.9923012088    
 
Number of empty states         :   40
Total number of valence states :   53
Total number of core states    :   56
 
Conduction state local-orbitals added automatically
Total number of local-orbitals :  242
 
Using Libxc version 05.01.05
Exchange-correlation functional :    100   493   494
 exchange: mgga_x_rscan; correlation: mgga_c_rscan
 
Smearing type :    1
 Methfessel-Paxton order 1, Phys. Rev. B 40, 3616 (1989)
Smearing width :   0.1000000000E-02
Effective electronic temperature (K) :    315.7750248    
 
Mixing type :    3
 Broyden mixing, J. Phys. A: Math. Gen. 17, L317 (1984)
 
Kohn-Sham potential initialised from atomic data
 
+------------------------------+
| Self-consistent loop started |
+------------------------------+
 
+--------------------+
| Loop number :    1 |
+--------------------+
 
Energies :
 Fermi                       :     0.177493522795    
 sum of eigenvalues          :     -4306.15410326    
 electron kinetic            :      7414.35543078    
 core electron kinetic       :      7336.19336014    
 Coulomb                     :     -14448.2481258    
 Coulomb potential           :     -11412.1743126    
 nuclear-nuclear             :     -710.252305692    
 electron-nuclear            :     -16063.8173277    
 Hartree                     :      2325.82150753    
 Madelung                    :     -8742.16096953    
 xc potential                :     -308.335221425    
 exchange                    :     -228.211818996    
 correlation                 :     -4.11761023205    
 total energy                :     -7266.22212429    
 
Density of states at Fermi energy :    60.67521116    
 (states/Hartree/unit cell)
 
Estimated indirect band gap :   0.2917527752E-03
 from k-point    163 to k-point    110
Estimated direct band gap   :   0.2178738073E-02
 at k-point    231
 
Charges :
 core                        :    56.00000000    
 valence                     :    24.00000000    
 interstitial                :    4.415502243    
 muffin-tins (core leakage)
  species :    1 (Zr)
   atom    1                 :    37.79224888     (  0.4047614372E-05)
   atom    2                 :    37.79224888     (  0.4047614372E-05)
 total in muffin-tins        :    75.58449776    
 total calculated charge     :    79.99994734    
 total charge                :    80.00000000    
 error                       :   0.5266339892E-04
 
Time (CPU seconds) :        71.51
 
+--------------------+
| Loop number :    2 |
+--------------------+
 
Energies :
 Fermi                       :     0.179539154501    
 sum of eigenvalues          :     -4305.57685267    
 electron kinetic            :      7414.81819903    
 core electron kinetic       :      7332.64929162    
 Coulomb                     :     -14447.7462271    
 Coulomb potential           :     -11412.0875593    
 nuclear-nuclear             :     -710.252305692    
 electron-nuclear            :     -16062.9002834    
 Hartree                     :      2325.40636205    
 Madelung                    :     -8741.70244739    
 xc potential                :     -308.307492386    
 exchange                    :     -228.191247658    
 correlation                 :     -4.11752566001    
 total energy                :     -7265.23680134    
 
Density of states at Fermi energy :    61.93065159    
 (states/Hartree/unit cell)
 
Estimated indirect band gap :   0.3262312408E-03
 from k-point    163 to k-point    110
Estimated direct band gap   :   0.2162335613E-02
 at k-point    231
 
Charges :
 core                        :    56.00000000    
 valence                     :    24.00000000    
 interstitial                :    4.420548369    
 muffin-tins (core leakage)
  species :    1 (Zr)
   atom    1                 :    37.78972582     (  0.4072396340E-05)
   atom    2                 :    37.78972582     (  0.4072396340E-05)
 total in muffin-tins        :    75.57945163    
 total calculated charge     :    79.99994717    
 total charge                :    80.00000000    
 error                       :   0.5283417211E-04
 
Wrote STATE.OUT
 
RMS change in Kohn-Sham potential (target) :   0.7852844741     (   10.00000000    )
Absolute change in total energy (target)   :   0.9853229522     (  0.1000000000E-07)
 
Time (CPU seconds) :       140.01
 
+--------------------+
| Loop number :    3 |
+--------------------+
 
Energies :
 Fermi                       :     0.198234505225    
 sum of eigenvalues          :     -4301.43988921    
 electron kinetic            :      7418.14279250    
 core electron kinetic       :      7320.89856909    
 Coulomb                     :     -14444.6732678    
 Coulomb potential           :     -11411.4388972    
 nuclear-nuclear             :     -710.252305692    
 electron-nuclear            :     -16057.4030270    
 Hartree                     :      2322.98206493    
 Madelung                    :     -8738.95381920    
 xc potential                :     -308.143784556    
 exchange                    :     -228.070012712    
 correlation                 :     -4.11696023885    
 total energy                :     -7258.71744822    
 
Density of states at Fermi energy :    65.35363385    
 (states/Hartree/unit cell)
 
Estimated indirect band gap :   0.1717194235E-03
 from k-point    163 to k-point    225
Estimated direct band gap   :   0.2075657287E-02
 at k-point    231
 
Charges :
 core                        :    56.00000000    
 valence                     :    24.00000000    
 interstitial                :    4.445208116    
 muffin-tins (core leakage)
  species :    1 (Zr)
   atom    1                 :    37.77739594     (  0.4231927704E-05)
   atom    2                 :    37.77739594     (  0.4231927704E-05)
 total in muffin-tins        :    75.55479188    
 total calculated charge     :    79.99994721    
 total charge                :    80.00000000    
 error                       :   0.5278723810E-04
 
RMS change in Kohn-Sham potential (target) :   0.7139697962     (   10.00000000    )
Absolute change in total energy (target)   :    6.765683852     (  0.1000000000E-07)
 
Time (CPU seconds) :       207.80
 
+--------------------+
| Loop number :    4 |
+--------------------+
 
Energies :
 Fermi                       :     0.268013304356    
 sum of eigenvalues          :     -4286.93914926    
 electron kinetic            :      7430.04515563    
 core electron kinetic       :      7314.71195083    
 Coulomb                     :     -14434.4820997    
 Coulomb potential           :     -11409.3876110    
 nuclear-nuclear             :     -710.252305692    
 electron-nuclear            :     -16039.0719770    
 Hartree                     :      2314.84218303    
 Madelung                    :     -8729.78829422    
 xc potential                :     -307.596693892    
 exchange                    :     -227.665733267    
 correlation                 :     -4.11502350621    
 total energy                :     -7236.21770086    
 
Density of states at Fermi energy :    80.90895181    
 (states/Hartree/unit cell)
 
Estimated indirect band gap :   0.3334590463E-03
 from k-point    260 to k-point    231
Estimated direct band gap   :   0.1785720532E-02
 at k-point    231
 
Charges :
 core                        :    56.00000000    
 valence                     :    24.00000000    
 interstitial                :    4.529905203    
 muffin-tins (core leakage)
  species :    1 (Zr)
   atom    1                 :    37.73504740     (  0.4825390402E-05)
   atom    2                 :    37.73504740     (  0.4825390402E-05)
 total in muffin-tins        :    75.47009480    
 total calculated charge     :    79.99994740    
 total charge                :    80.00000000    
 error                       :   0.5260403269E-04
 
Wrote STATE.OUT
 
RMS change in Kohn-Sham potential (target) :   0.4475036535     (   10.00000000    )
Absolute change in total energy (target)   :    24.19116833     (  0.1000000000E-07)
 
Time (CPU seconds) :       275.68
 
+--------------------+
| Loop number :    5 |
+--------------------+
 
Energies :
 Fermi                       :     0.325408088670    
 sum of eigenvalues          :     -4275.47786388    
 electron kinetic            :      7439.65106844    
 core electron kinetic       :      7311.86234736    
 Coulomb                     :     -14426.7769039    
 Coulomb potential           :     -11407.9509242    
 nuclear-nuclear             :     -710.252305692    
 electron-nuclear            :     -16025.0982722    
 Hartree                     :      2308.57367399    
 Madelung                    :     -8722.80144180    
 xc potential                :     -307.178008076    
 exchange                    :     -227.356802146    
 correlation                 :     -4.11349965581    
 total energy                :     -7218.59613729    
 
Density of states at Fermi energy :    80.31891944    
 (states/Hartree/unit cell)
 
Estimated indirect band gap :   0.4767297317E-04
 from k-point    198 to k-point     36
Estimated direct band gap   :   0.1557302941E-02
 at k-point    231
 
Charges :
 core                        :    56.00000000    
 valence                     :    24.00000000    
 interstitial                :    4.598343687    
 muffin-tins (core leakage)
  species :    1 (Zr)
   atom    1                 :    37.70082816     (  0.5352210895E-05)
   atom    2                 :    37.70082816     (  0.5352210895E-05)
 total in muffin-tins        :    75.40165631    
 total calculated charge     :    79.99994746    
 total charge                :    80.00000000    
 error                       :   0.5253683570E-04
 
RMS change in Kohn-Sham potential (target) :   0.2295792751     (   10.00000000    )
Absolute change in total energy (target)   :    23.66935566     (  0.1000000000E-07)
 
Time (CPU seconds) :       342.20
 
+--------------------+
| Loop number :    6 |
+--------------------+
 
Energies :
 Fermi                       :     0.361792025879    
 sum of eigenvalues          :     -4268.36201939    
 electron kinetic            :      7445.72932851    
 core electron kinetic       :      7310.06433924    
 Coulomb                     :     -14422.1451471    
 Coulomb potential           :     -11407.1687122    
 nuclear-nuclear             :     -710.252305692    
 electron-nuclear            :     -16016.6169706    
 Hartree                     :      2304.72412917    
 Madelung                    :     -8718.56079097    
 xc potential                :     -306.922635677    
 exchange                    :     -227.168612214    
 correlation                 :     -4.11253756008    
 total energy                :     -7207.69696835    
 
Density of states at Fermi energy :    70.20981574    
 (states/Hartree/unit cell)
 
Estimated indirect band gap :   0.1143837654E-03
 from k-point    198 to k-point     44
Estimated direct band gap   :   0.1462226947E-02
 at k-point    198
 
Charges :
 core                        :    56.00000000    
 valence                     :    24.00000000    
 interstitial                :    4.643687721    
 muffin-tins (core leakage)
  species :    1 (Zr)
   atom    1                 :    37.67815614     (  0.5711791694E-05)
   atom    2                 :    37.67815614     (  0.5711791694E-05)
 total in muffin-tins        :    75.35631228    
 total calculated charge     :    79.99994749    
 total charge                :    80.00000000    
 error                       :   0.5250833405E-04
 
Wrote STATE.OUT
 
RMS change in Kohn-Sham potential (target) :   0.9213699601E-01 (   10.00000000    )
Absolute change in total energy (target)   :    16.81650785     (  0.1000000000E-07)
 
Time (CPU seconds) :       410.02
 
+--------------------+
| Loop number :    7 |
+--------------------+
 
Energies :
 Fermi                       :     0.385498148049    
 sum of eigenvalues          :     -4263.72422348    
 electron kinetic            :      7449.70360179    
 core electron kinetic       :      7311.62350520    
 Coulomb                     :     -14419.1428454    
 Coulomb potential           :     -11406.6711202    
 nuclear-nuclear             :     -710.252305692    
 electron-nuclear            :     -16011.1099593    
 Hartree                     :      2302.21941955    
 Madelung                    :     -8715.80728532    
 xc potential                :     -306.756705104    
 exchange                    :     -227.046311654    
 correlation                 :     -4.11190966038    
 total energy                :     -7200.59746493    
 
Density of states at Fermi energy :    73.19659944    
 (states/Hartree/unit cell)
 
Estimated indirect band gap :   0.6260950800E-04
 from k-point    208 to k-point     11
Estimated direct band gap   :   0.1357843708E-02
 at k-point    198
 
Charges :
 core                        :    56.00000000    
 valence                     :    24.00000000    
 interstitial                :    4.673139427    
 muffin-tins (core leakage)
  species :    1 (Zr)
   atom    1                 :    37.66343029     (  0.5939922211E-05)
   atom    2                 :    37.66343029     (  0.5939922211E-05)
 total in muffin-tins        :    75.32686057    
 total calculated charge     :    79.99994755    
 total charge                :    80.00000000    
 error                       :   0.5245038869E-04
 
RMS change in Kohn-Sham potential (target) :   0.1098558250E-01 (   10.00000000    )
Absolute change in total energy (target)   :    11.30363038     (  0.1000000000E-07)
 
Time (CPU seconds) :       475.87
 
+--------------------+
| Loop number :    8 |
+--------------------+
 
Energies :
 Fermi                       :     0.385780236052    
 sum of eigenvalues          :     -4263.80245521    
 electron kinetic            :      7449.72596653    
 core electron kinetic       :      7311.73613783    
 Coulomb                     :     -14419.3202628    
 Coulomb potential           :     -11406.7647758    
 nuclear-nuclear             :     -710.252305692    
 electron-nuclear            :     -16011.3711383    
 Hartree                     :      2302.30318125    
 Madelung                    :     -8715.93787485    
 xc potential                :     -306.763645925    
 exchange                    :     -227.051647824    
 correlation                 :     -4.11192127015    
 total energy                :     -7200.75786532    
 
Density of states at Fermi energy :    73.68347664    
 (states/Hartree/unit cell)
 
Estimated indirect band gap :   0.7825128376E-04
 from k-point    208 to k-point     11
Estimated direct band gap   :   0.1352687104E-02
 at k-point    198
 
Charges :
 core                        :    56.00000000    
 valence                     :    24.00000000    
 interstitial                :    4.674163894    
 muffin-tins (core leakage)
  species :    1 (Zr)
   atom    1                 :    37.66291805     (  0.5933129085E-05)
   atom    2                 :    37.66291805     (  0.5933129085E-05)
 total in muffin-tins        :    75.32583611    
 total calculated charge     :    79.99994756    
 total charge                :    80.00000000    
 error                       :   0.5243601564E-04
 
Wrote STATE.OUT
 
RMS change in Kohn-Sham potential (target) :   0.3916360031E-02 (   10.00000000    )
Absolute change in total energy (target)   :    2.665507206     (  0.1000000000E-07)
 
Time (CPU seconds) :       542.90
 
+--------------------+
| Loop number :    9 |
+--------------------+
 
Energies :
 Fermi                       :     0.385782348252    
 sum of eigenvalues          :     -4263.80879158    
 electron kinetic            :      7449.73588907    
 core electron kinetic       :      7311.73814439    
 Coulomb                     :     -14419.3417575    
 Coulomb potential           :     -11406.7803837    
 nuclear-nuclear             :     -710.252305692    
 electron-nuclear            :     -16011.3985198    
 Hartree                     :      2302.30906805    
 Madelung                    :     -8715.95156561    
 xc potential                :     -306.764296929    
 exchange                    :     -227.052161702    
 correlation                 :     -4.11192232040    
 total energy                :     -7200.76995242    
 
Density of states at Fermi energy :    73.77327578    
 (states/Hartree/unit cell)
 
Estimated indirect band gap :   0.8433393420E-04
 from k-point    208 to k-point     11
Estimated direct band gap   :   0.1351360768E-02
 at k-point    198
 
Charges :
 core                        :    56.00000000    
 valence                     :    24.00000000    
 interstitial                :    4.674470076    
 muffin-tins (core leakage)
  species :    1 (Zr)
   atom    1                 :    37.66276496     (  0.5933578674E-05)
   atom    2                 :    37.66276496     (  0.5933578674E-05)
 total in muffin-tins        :    75.32552992    
 total calculated charge     :    79.99994757    
 total charge                :    80.00000000    
 error                       :   0.5242779845E-04
 
RMS change in Kohn-Sham potential (target) :   0.5748116510E-03 (   10.00000000    )
Absolute change in total energy (target)   :   0.6542897001     (  0.1000000000E-07)
 
Time (CPU seconds) :       610.36
 
+--------------------+
| Loop number :   10 |
+--------------------+
 
Energies :
 Fermi                       :     0.385720876558    
 sum of eigenvalues          :     -4263.79406247    
 electron kinetic            :      7449.73158360    
 core electron kinetic       :      7311.71807178    
 Coulomb                     :     -14419.3088412    
 Coulomb potential           :     -11406.7626101    
 nuclear-nuclear             :     -710.252305692    
 electron-nuclear            :     -16011.3504609    
 Hartree                     :      2302.29392541    
 Madelung                    :     -8715.92753616    
 xc potential                :     -306.763035943    
 exchange                    :     -227.051195288    
 correlation                 :     -4.11192120909    
 total energy                :     -7200.74037412    
 
Density of states at Fermi energy :    73.64833419    
 (states/Hartree/unit cell)
 
Estimated indirect band gap :   0.8273660268E-04
 from k-point    208 to k-point     11
Estimated direct band gap   :   0.1352418680E-02
 at k-point    198
 
Charges :
 core                        :    56.00000000    
 valence                     :    24.00000000    
 interstitial                :    4.674222631    
 muffin-tins (core leakage)
  species :    1 (Zr)
   atom    1                 :    37.66288868     (  0.5935091110E-05)
   atom    2                 :    37.66288868     (  0.5935091110E-05)
 total in muffin-tins        :    75.32577737    
 total calculated charge     :    79.99994757    
 total charge                :    80.00000000    
 error                       :   0.5243146057E-04
 
Wrote STATE.OUT
 
RMS change in Kohn-Sham potential (target) :   0.8258241035E-03 (   10.00000000    )
Absolute change in total energy (target)   :   0.1931507292     (  0.1000000000E-07)
 
Time (CPU seconds) :       677.82
 
+--------------------+
| Loop number :   11 |
+--------------------+
 
Energies :
 Fermi                       :     0.385708221245    
 sum of eigenvalues          :     -4263.79401770    
 electron kinetic            :      7449.73086588    
 core electron kinetic       :      7311.71532140    
 Coulomb                     :     -14419.3079028    
 Coulomb potential           :     -11406.7618686    
 nuclear-nuclear             :     -710.252305692    
 electron-nuclear            :     -16011.3493256    
 Hartree                     :      2302.29372850    
 Madelung                    :     -8715.92696851    
 xc potential                :     -306.763014932    
 exchange                    :     -227.051179724    
 correlation                 :     -4.11192179936    
 total energy                :     -7200.74013848    
 
Density of states at Fermi energy :    73.63145116    
 (states/Hartree/unit cell)
 
Estimated indirect band gap :   0.8316150079E-04
 from k-point    208 to k-point     11
Estimated direct band gap   :   0.1352461519E-02
 at k-point    198
 
Charges :
 core                        :    56.00000000    
 valence                     :    24.00000000    
 interstitial                :    4.674196203    
 muffin-tins (core leakage)
  species :    1 (Zr)
   atom    1                 :    37.66290190     (  0.5935288467E-05)
   atom    2                 :    37.66290190     (  0.5935288467E-05)
 total in muffin-tins        :    75.32580380    
 total calculated charge     :    79.99994757    
 total charge                :    80.00000000    
 error                       :   0.5243041221E-04
 
RMS change in Kohn-Sham potential (target) :   0.8743678920E-03 (   10.00000000    )
Absolute change in total energy (target)   :   0.4852331946E-01 (  0.1000000000E-07)
 
Time (CPU seconds) :       745.76
 
+--------------------+
| Loop number :   12 |
+--------------------+
 
Energies :
 Fermi                       :     0.385701513203    
 sum of eigenvalues          :     -4263.79248070    
 electron kinetic            :      7449.72886743    
 core electron kinetic       :      7311.71164291    
 Coulomb                     :     -14419.3029947    
 Coulomb potential           :     -11406.7584875    
 nuclear-nuclear             :     -710.252305692    
 electron-nuclear            :     -16011.3428905    
 Hartree                     :      2302.29220150    
 Madelung                    :     -8715.92375095    
 xc potential                :     -306.762860605    
 exchange                    :     -227.051059265    
 correlation                 :     -4.11192183285    
 total energy                :     -7200.73710839    
 
Density of states at Fermi energy :    73.60658656    
 (states/Hartree/unit cell)
 
Estimated indirect band gap :   0.8235828173E-04
 from k-point    208 to k-point     11
Estimated direct band gap   :   0.1352720092E-02
 at k-point    198
 
Charges :
 core                        :    56.00000000    
 valence                     :    24.00000000    
 interstitial                :    4.674130286    
 muffin-tins (core leakage)
  species :    1 (Zr)
   atom    1                 :    37.66293486     (  0.5935236810E-05)
   atom    2                 :    37.66293486     (  0.5935236810E-05)
 total in muffin-tins        :    75.32586971    
 total calculated charge     :    79.99994757    
 total charge                :    80.00000000    
 error                       :   0.5243115646E-04
 
Wrote STATE.OUT
 
RMS change in Kohn-Sham potential (target) :   0.7102674138E-04 (   10.00000000    )
Absolute change in total energy (target)   :   0.1516092238E-01 (  0.1000000000E-07)
 
Time (CPU seconds) :       813.92
 
+--------------------+
| Loop number :   13 |
+--------------------+
 
Energies :
 Fermi                       :     0.385701515043    
 sum of eigenvalues          :     -4263.79279549    
 electron kinetic            :      7449.72878086    
 core electron kinetic       :      7311.71198451    
 Coulomb                     :     -14419.3035343    
 Coulomb potential           :     -11406.7586897    
 nuclear-nuclear             :     -710.252305692    
 electron-nuclear            :     -16011.3437676    
 Hartree                     :      2302.29253891    
 Madelung                    :     -8715.92418947    
 xc potential                :     -306.762886620    
 exchange                    :     -227.051079252    
 correlation                 :     -4.11192197963    
 total energy                :     -7200.73775470    
 
Density of states at Fermi energy :    73.60702955    
 (states/Hartree/unit cell)
 
Estimated indirect band gap :   0.8240120697E-04
 from k-point    208 to k-point     11
Estimated direct band gap   :   0.1352699572E-02
 at k-point    198
 
Charges :
 core                        :    56.00000000    
 valence                     :    24.00000000    
 interstitial                :    4.674131096    
 muffin-tins (core leakage)
  species :    1 (Zr)
   atom    1                 :    37.66293445     (  0.5935234050E-05)
   atom    2                 :    37.66293445     (  0.5935234050E-05)
 total in muffin-tins        :    75.32586890    
 total calculated charge     :    79.99994757    
 total charge                :    80.00000000    
 error                       :   0.5243096253E-04
 
RMS change in Kohn-Sham potential (target) :   0.7013039827E-04 (   10.00000000    )
Absolute change in total energy (target)   :   0.3143915886E-02 (  0.1000000000E-07)
 
Time (CPU seconds) :       882.20
 
+--------------------+
| Loop number :   14 |
+--------------------+
 
Energies :
 Fermi                       :     0.385701382113    
 sum of eigenvalues          :     -4263.79292518    
 electron kinetic            :      7449.72881006    
 core electron kinetic       :      7311.71229479    
 Coulomb                     :     -14419.3038315    
 Coulomb potential           :     -11406.7588349    
 nuclear-nuclear             :     -710.252305692    
 electron-nuclear            :     -16011.3442168    
 Hartree                     :      2302.29269098    
 Madelung                    :     -8715.92441410    
 xc potential                :     -306.762900362    
 exchange                    :     -227.051089884    
 correlation                 :     -4.11192216423    
 total energy                :     -7200.73803353    
 
Density of states at Fermi energy :    73.60856164    
 (states/Hartree/unit cell)
 
Estimated indirect band gap :   0.8242385407E-04
 from k-point    208 to k-point     11
Estimated direct band gap   :   0.1352664738E-02
 at k-point    198
 
Charges :
 core                        :    56.00000000    
 valence                     :    24.00000000    
 interstitial                :    4.674135278    
 muffin-tins (core leakage)
  species :    1 (Zr)
   atom    1                 :    37.66293236     (  0.5935397592E-05)
   atom    2                 :    37.66293236     (  0.5935397592E-05)
 total in muffin-tins        :    75.32586472    
 total calculated charge     :    79.99994757    
 total charge                :    80.00000000    
 error                       :   0.5243098512E-04
 
Wrote STATE.OUT
 
RMS change in Kohn-Sham potential (target) :   0.6627865020E-03 (   10.00000000    )
Absolute change in total energy (target)   :   0.5071544028E-03 (  0.1000000000E-07)
 
Time (CPU seconds) :       948.37
 
+--------------------+
| Loop number :   15 |
+--------------------+
 
Energies :
 Fermi                       :     0.385702850752    
 sum of eigenvalues          :     -4263.79299784    
 electron kinetic            :      7449.72916754    
 core electron kinetic       :      7311.71273546    
 Coulomb                     :     -14419.3043420    
 Coulomb potential           :     -11406.7592533    
 nuclear-nuclear             :     -710.252305692    
 electron-nuclear            :     -16011.3448194    
 Hartree                     :      2302.29278309    
 Madelung                    :     -8715.92471541    
 xc potential                :     -306.762912121    
 exchange                    :     -227.051099193    
 correlation                 :     -4.11192203591    
 total energy                :     -7200.73819573    
 
Density of states at Fermi energy :    73.61150280    
 (states/Hartree/unit cell)
 
Estimated indirect band gap :   0.8252247754E-04
 from k-point    208 to k-point     11
Estimated direct band gap   :   0.1352647366E-02
 at k-point    198
 
Charges :
 core                        :    56.00000000    
 valence                     :    24.00000000    
 interstitial                :    4.674142937    
 muffin-tins (core leakage)
  species :    1 (Zr)
   atom    1                 :    37.66292853     (  0.5935121386E-05)
   atom    2                 :    37.66292853     (  0.5935121386E-05)
 total in muffin-tins        :    75.32585706    
 total calculated charge     :    79.99994757    
 total charge                :    80.00000000    
 error                       :   0.5243052016E-04
 
RMS change in Kohn-Sham potential (target) :   0.3894078389E-03 (   10.00000000    )
Absolute change in total energy (target)   :   0.3541657134E-04 (  0.1000000000E-07)
 
Time (CPU seconds) :      1013.84
 
+--------------------+
| Loop number :   16 |
+--------------------+
 
Energies :
 Fermi                       :     0.385702394151    
 sum of eigenvalues          :     -4263.79294132    
 electron kinetic            :      7449.72898121    
 core electron kinetic       :      7311.71241346    
 Coulomb                     :     -14419.3040737    
 Coulomb potential           :     -11406.7590151    
 nuclear-nuclear             :     -710.252305692    
 electron-nuclear            :     -16011.3445208    
 Hartree                     :      2302.29275285    
 Madelung                    :     -8715.92456610    
 xc potential                :     -306.762907393    
 exchange                    :     -227.051095515    
 correlation                 :     -4.11192213709    
 total energy                :     -7200.73811011    
 
Density of states at Fermi energy :    73.61029072    
 (states/Hartree/unit cell)
 
Estimated indirect band gap :   0.8244640978E-04
 from k-point    208 to k-point     11
Estimated direct band gap   :   0.1352647712E-02
 at k-point    198
 
Charges :
 core                        :    56.00000000    
 valence                     :    24.00000000    
 interstitial                :    4.674139480    
 muffin-tins (core leakage)
  species :    1 (Zr)
   atom    1                 :    37.66293026     (  0.5935303545E-05)
   atom    2                 :    37.66293026     (  0.5935303545E-05)
 total in muffin-tins        :    75.32586052    
 total calculated charge     :    79.99994757    
 total charge                :    80.00000000    
 error                       :   0.5243081814E-04
 
Wrote STATE.OUT
 
RMS change in Kohn-Sham potential (target) :   0.1434693950E-03 (   10.00000000    )
Absolute change in total energy (target)   :   0.7676589576E-04 (  0.1000000000E-07)
 
Time (CPU seconds) :      1081.78
 
+--------------------+
| Loop number :   17 |
+--------------------+
 
Energies :
 Fermi                       :     0.385701983416    
 sum of eigenvalues          :     -4263.79289598    
 electron kinetic            :      7449.72893098    
 core electron kinetic       :      7311.71228427    
 Coulomb                     :     -14419.3039249    
 Coulomb potential           :     -11406.7589247    
 nuclear-nuclear             :     -710.252305692    
 electron-nuclear            :     -16011.3443137    
 Hartree                     :      2302.29269449    
 Madelung                    :     -8715.92446253    
 xc potential                :     -306.762902257    
 exchange                    :     -227.051091470    
 correlation                 :     -4.11192216860    
 total energy                :     -7200.73800754    
 
Density of states at Fermi energy :    73.60969623    
 (states/Hartree/unit cell)
 
Estimated indirect band gap :   0.8242950503E-04
 from k-point    208 to k-point     11
Estimated direct band gap   :   0.1352651675E-02
 at k-point    198
 
Charges :
 core                        :    56.00000000    
 valence                     :    24.00000000    
 interstitial                :    4.674138323    
 muffin-tins (core leakage)
  species :    1 (Zr)
   atom    1                 :    37.66293084     (  0.5935192060E-05)
   atom    2                 :    37.66293084     (  0.5935192060E-05)
 total in muffin-tins        :    75.32586168    
 total calculated charge     :    79.99994757    
 total charge                :    80.00000000    
 error                       :   0.5243054476E-04
 
RMS change in Kohn-Sham potential (target) :   0.1778224404E-03 (   10.00000000    )
Absolute change in total energy (target)   :   0.1217632207E-03 (  0.1000000000E-07)
 
Time (CPU seconds) :      1147.61
 
+--------------------+
| Loop number :   18 |
+--------------------+
 
Energies :
 Fermi                       :     0.385701911046    
 sum of eigenvalues          :     -4263.79287897    
 electron kinetic            :      7449.72892795    
 core electron kinetic       :      7311.71228324    
 Coulomb                     :     -14419.3038796    
 Coulomb potential           :     -11406.7589068    
 nuclear-nuclear             :     -710.252305692    
 electron-nuclear            :     -16011.3442410    
 Hartree                     :      2302.29266714    
 Madelung                    :     -8715.92442621    
 xc potential                :     -306.762900166    
 exchange                    :     -227.051089929    
 correlation                 :     -4.11192213413    
 total energy                :     -7200.73796370    
 
Density of states at Fermi energy :    73.60960748    
 (states/Hartree/unit cell)
 
Estimated indirect band gap :   0.8242523581E-04
 from k-point    208 to k-point     11
Estimated direct band gap   :   0.1352653650E-02
 at k-point    198
 
Charges :
 core                        :    56.00000000    
 valence                     :    24.00000000    
 interstitial                :    4.674138258    
 muffin-tins (core leakage)
  species :    1 (Zr)
   atom    1                 :    37.66293087     (  0.5935213167E-05)
   atom    2                 :    37.66293087     (  0.5935213167E-05)
 total in muffin-tins        :    75.32586174    
 total calculated charge     :    79.99994757    
 total charge                :    80.00000000    
 error                       :   0.5243066811E-04
 
Wrote STATE.OUT
 
RMS change in Kohn-Sham potential (target) :   0.3666574483E-03 (   10.00000000    )
Absolute change in total energy (target)   :   0.7428087702E-04 (  0.1000000000E-07)
 
Time (CPU seconds) :      1216.55
 
+--------------------+
| Loop number :   19 |
+--------------------+
 
Energies :
 Fermi                       :     0.385702086377    
 sum of eigenvalues          :     -4263.79289814    
 electron kinetic            :      7449.72896643    
 core electron kinetic       :      7311.71235839    
 Coulomb                     :     -14419.3039532    
 Coulomb potential           :     -11406.7589626    
 nuclear-nuclear             :     -710.252305692    
 electron-nuclear            :     -16011.3443325    
 Hartree                     :      2302.29268496    
 Madelung                    :     -8715.92447195    
 xc potential                :     -306.762901972    
 exchange                    :     -227.051091255    
 correlation                 :     -4.11192212669    
 total energy                :     -7200.73800020    
 
Density of states at Fermi energy :    73.60975031    
 (states/Hartree/unit cell)
 
Estimated indirect band gap :   0.8244450200E-04
 from k-point    208 to k-point     11
Estimated direct band gap   :   0.1352655309E-02
 at k-point    198
 
Charges :
 core                        :    56.00000000    
 valence                     :    24.00000000    
 interstitial                :    4.674138651    
 muffin-tins (core leakage)
  species :    1 (Zr)
   atom    1                 :    37.66293067     (  0.5935247458E-05)
   atom    2                 :    37.66293067     (  0.5935247458E-05)
 total in muffin-tins        :    75.32586135    
 total calculated charge     :    79.99994757    
 total charge                :    80.00000000    
 error                       :   0.5243069533E-04
 
RMS change in Kohn-Sham potential (target) :   0.1174309670E-03 (   10.00000000    )
Absolute change in total energy (target)   :   0.1792720377E-04 (  0.1000000000E-07)
 
Time (CPU seconds) :      1283.33
 
+--------------------+
| Loop number :   20 |
+--------------------+
 
Energies :
 Fermi                       :     0.385702228167    
 sum of eigenvalues          :     -4263.79290613    
 electron kinetic            :      7449.72899703    
 core electron kinetic       :      7311.71237622    
 Coulomb                     :     -14419.3040068    
 Coulomb potential           :     -11406.7589997    
 nuclear-nuclear             :     -710.252305692    
 electron-nuclear            :     -16011.3444025    
 Hartree                     :      2302.29270139    
 Madelung                    :     -8715.92450692    
 xc potential                :     -306.762903498    
 exchange                    :     -227.051092462    
 correlation                 :     -4.11192211986    
 total energy                :     -7200.73802430    
 
Density of states at Fermi energy :    73.60998241    
 (states/Hartree/unit cell)
 
Estimated indirect band gap :   0.8245501602E-04
 from k-point    208 to k-point     11
Estimated direct band gap   :   0.1352653359E-02
 at k-point    198
 
Charges :
 core                        :    56.00000000    
 valence                     :    24.00000000    
 interstitial                :    4.674139208    
 muffin-tins (core leakage)
  species :    1 (Zr)
   atom    1                 :    37.66293040     (  0.5935316757E-05)
   atom    2                 :    37.66293040     (  0.5935316757E-05)
 total in muffin-tins        :    75.32586079    
 total calculated charge     :    79.99994757    
 total charge                :    80.00000000    
 error                       :   0.5243087553E-04
 
Wrote STATE.OUT
 
RMS change in Kohn-Sham potential (target) :   0.6355732274E-03 (   10.00000000    )
Absolute change in total energy (target)   :   0.2858216521E-04 (  0.1000000000E-07)
 
Time (CPU seconds) :      1351.29
 
+--------------------+
| Loop number :   21 |
+--------------------+
 
Energies :
 Fermi                       :     0.385701874906    
 sum of eigenvalues          :     -4263.79288577    
 electron kinetic            :      7449.72891417    
 core electron kinetic       :      7311.71226747    
 Coulomb                     :     -14419.3038812    
 Coulomb potential           :     -11406.7588992    
 nuclear-nuclear             :     -710.252305692    
 electron-nuclear            :     -16011.3442518    
 Hartree                     :      2302.29267630    
 Madelung                    :     -8715.92443159    
 xc potential                :     -306.762900745    
 exchange                    :     -227.051090366    
 correlation                 :     -4.11192215231    
 total energy                :     -7200.73797953    
 
Density of states at Fermi energy :    73.60954553    
 (states/Hartree/unit cell)
 
Estimated indirect band gap :   0.8242218347E-04
 from k-point    208 to k-point     11
Estimated direct band gap   :   0.1352652135E-02
 at k-point    198
 
Charges :
 core                        :    56.00000000    
 valence                     :    24.00000000    
 interstitial                :    4.674138210    
 muffin-tins (core leakage)
  species :    1 (Zr)
   atom    1                 :    37.66293090     (  0.5935237844E-05)
   atom    2                 :    37.66293090     (  0.5935237844E-05)
 total in muffin-tins        :    75.32586179    
 total calculated charge     :    79.99994757    
 total charge                :    80.00000000    
 error                       :   0.5243066641E-04
 
RMS change in Kohn-Sham potential (target) :   0.8183737595E-04 (   10.00000000    )
Absolute change in total energy (target)   :   0.3761969674E-04 (  0.1000000000E-07)
 
Time (CPU seconds) :      1419.78
 
+--------------------+
| Loop number :   22 |
+--------------------+
 
Energies :
 Fermi                       :     0.385701873581    
 sum of eigenvalues          :     -4263.79289673    
 electron kinetic            :      7449.72893525    
 core electron kinetic       :      7311.71230431    
 Coulomb                     :     -14419.3039170    
 Coulomb potential           :     -11406.7589306    
 nuclear-nuclear             :     -710.252305692    
 electron-nuclear            :     -16011.3442922    
 Hartree                     :      2302.29268080    
 Madelung                    :     -8715.92445177    
 xc potential                :     -306.762901424    
 exchange                    :     -227.051090837    
 correlation                 :     -4.11192215843    
 total energy                :     -7200.73799479    
 
Density of states at Fermi energy :    73.60964507    
 (states/Hartree/unit cell)
 
Estimated indirect band gap :   0.8243411514E-04
 from k-point    208 to k-point     11
Estimated direct band gap   :   0.1352652107E-02
 at k-point    198
 
Charges :
 core                        :    56.00000000    
 valence                     :    24.00000000    
 interstitial                :    4.674138624    
 muffin-tins (core leakage)
  species :    1 (Zr)
   atom    1                 :    37.66293069     (  0.5935262603E-05)
   atom    2                 :    37.66293069     (  0.5935262603E-05)
 total in muffin-tins        :    75.32586138    
 total calculated charge     :    79.99994757    
 total charge                :    80.00000000    
 error                       :   0.5243071917E-04
 
Wrote STATE.OUT
 
RMS change in Kohn-Sham potential (target) :   0.1018413959E-03 (   10.00000000    )
Absolute change in total energy (target)   :   0.5853273251E-05 (  0.1000000000E-07)
 
Time (CPU seconds) :      1486.07
 
+--------------------+
| Loop number :   23 |
+--------------------+
 
Energies :
 Fermi                       :     0.385701900556    
 sum of eigenvalues          :     -4263.79289991    
 electron kinetic            :      7449.72894451    
 core electron kinetic       :      7311.71232004    
 Coulomb                     :     -14419.3039312    
 Coulomb potential           :     -11406.7589426    
 nuclear-nuclear             :     -710.252305692    
 electron-nuclear            :     -16011.3443083    
 Hartree                     :      2302.29268283    
 Madelung                    :     -8715.92445984    
 xc potential                :     -306.762901781    
 exchange                    :     -227.051091114    
 correlation                 :     -4.11192215415    
 total energy                :     -7200.73799992    
 
Density of states at Fermi energy :    73.60968671    
 (states/Hartree/unit cell)
 
Estimated indirect band gap :   0.8243851878E-04
 from k-point    208 to k-point     11
Estimated direct band gap   :   0.1352652118E-02
 at k-point    198
 
Charges :
 core                        :    56.00000000    
 valence                     :    24.00000000    
 interstitial                :    4.674138748    
 muffin-tins (core leakage)
  species :    1 (Zr)
   atom    1                 :    37.66293063     (  0.5935182557E-05)
   atom    2                 :    37.66293063     (  0.5935182557E-05)
 total in muffin-tins        :    75.32586125    
 total calculated charge     :    79.99994757    
 total charge                :    80.00000000    
 error                       :   0.5243062873E-04
 
RMS change in Kohn-Sham potential (target) :   0.6905002979E-03 (   10.00000000    )
Absolute change in total energy (target)   :   0.6590690646E-05 (  0.1000000000E-07)
 
Time (CPU seconds) :      1553.59
 
+--------------------+
| Loop number :   24 |
+--------------------+
 
Energies :
 Fermi                       :     0.385702014116    
 sum of eigenvalues          :     -4263.79289861    
 electron kinetic            :      7449.72896076    
 core electron kinetic       :      7311.71234301    
 Coulomb                     :     -14419.3039505    
 Coulomb potential           :     -11406.7589571    
 nuclear-nuclear             :     -710.252305692    
 electron-nuclear            :     -16011.3443325    
 Hartree                     :      2302.29268768    
 Madelung                    :     -8715.92447195    
 xc potential                :     -306.762902229    
 exchange                    :     -227.051091465    
 correlation                 :     -4.11192214626    
 total energy                :     -7200.73800337    
 
Density of states at Fermi energy :    73.60975798    
 (states/Hartree/unit cell)
 
Estimated indirect band gap :   0.8244311261E-04
 from k-point    208 to k-point     11
Estimated direct band gap   :   0.1352652505E-02
 at k-point    198
 
Charges :
 core                        :    56.00000000    
 valence                     :    24.00000000    
 interstitial                :    4.674138827    
 muffin-tins (core leakage)
  species :    1 (Zr)
   atom    1                 :    37.66293059     (  0.5935300873E-05)
   atom    2                 :    37.66293059     (  0.5935300873E-05)
 total in muffin-tins        :    75.32586117    
 total calculated charge     :    79.99994757    
 total charge                :    80.00000000    
 error                       :   0.5243083207E-04
 
Wrote STATE.OUT
 
RMS change in Kohn-Sham potential (target) :   0.9997690344E-04 (   10.00000000    )
Absolute change in total energy (target)   :   0.5096449968E-05 (  0.1000000000E-07)
 
Time (CPU seconds) :      1621.97
 
+--------------------+
| Loop number :   25 |
+--------------------+
 
Energies :
 Fermi                       :     0.385701969765    
 sum of eigenvalues          :     -4263.79290161    
 electron kinetic            :      7449.72896261    
 core electron kinetic       :      7311.71234523    
 Coulomb                     :     -14419.3039556    
 Coulomb potential           :     -11406.7589620    
 nuclear-nuclear             :     -710.252305692    
 electron-nuclear            :     -16011.3443379    
 Hartree                     :      2302.29268796    
 Madelung                    :     -8715.92447464    
 xc potential                :     -306.762902254    
 exchange                    :     -227.051091490    
 correlation                 :     -4.11192214296    
 total energy                :     -7200.73800664    
 
Density of states at Fermi energy :    73.60974457    
 (states/Hartree/unit cell)
 
Estimated indirect band gap :   0.8244617965E-04
 from k-point    208 to k-point     11
Estimated direct band gap   :   0.1352652586E-02
 at k-point    198
 
Charges :
 core                        :    56.00000000    
 valence                     :    24.00000000    
 interstitial                :    4.674138878    
 muffin-tins (core leakage)
  species :    1 (Zr)
   atom    1                 :    37.66293056     (  0.5935204747E-05)
   atom    2                 :    37.66293056     (  0.5935204747E-05)
 total in muffin-tins        :    75.32586112    
 total calculated charge     :    79.99994757    
 total charge                :    80.00000000    
 error                       :   0.5243057724E-04
 
RMS change in Kohn-Sham potential (target) :   0.2779272794E-03 (   10.00000000    )
Absolute change in total energy (target)   :   0.4546432137E-05 (  0.1000000000E-07)
 
Time (CPU seconds) :      1688.61
 
+--------------------+
| Loop number :   26 |
+--------------------+
 
Energies :
 Fermi                       :     0.385701976790    
 sum of eigenvalues          :     -4263.79290027    
 electron kinetic            :      7449.72896176    
 core electron kinetic       :      7311.71234332    
 Coulomb                     :     -14419.3039519    
 Coulomb potential           :     -11406.7589598    
 nuclear-nuclear             :     -710.252305692    
 electron-nuclear            :     -16011.3443325    
 Hartree                     :      2302.29268634    
 Madelung                    :     -8715.92447195    
 xc potential                :     -306.762902195    
 exchange                    :     -227.051091437    
 correlation                 :     -4.11192214510    
 total energy                :     -7200.73800368    
 
Density of states at Fermi energy :    73.60974053    
 (states/Hartree/unit cell)
 
Estimated indirect band gap :   0.8244546866E-04
 from k-point    208 to k-point     11
Estimated direct band gap   :   0.1352652694E-02
 at k-point    198
 
Charges :
 core                        :    56.00000000    
 valence                     :    24.00000000    
 interstitial                :    4.674138836    
 muffin-tins (core leakage)
  species :    1 (Zr)
   atom    1                 :    37.66293058     (  0.5935180699E-05)
   atom    2                 :    37.66293058     (  0.5935180699E-05)
 total in muffin-tins        :    75.32586116    
 total calculated charge     :    79.99994757    
 total charge                :    80.00000000    
 error                       :   0.5243052316E-04
 
Wrote STATE.OUT
 
RMS change in Kohn-Sham potential (target) :   0.1521251012E-03 (   10.00000000    )
Absolute change in total energy (target)   :   0.1820081707E-05 (  0.1000000000E-07)
 
Time (CPU seconds) :      1756.05
 
+--------------------+
| Loop number :   27 |
+--------------------+
 
Energies :
 Fermi                       :     0.385701957848    
 sum of eigenvalues          :     -4263.79290070    
 electron kinetic            :      7449.72895999    
 core electron kinetic       :      7311.71234114    
 Coulomb                     :     -14419.3039512    
 Coulomb potential           :     -11406.7589585    
 nuclear-nuclear             :     -710.252305692    
 electron-nuclear            :     -16011.3443325    
 Hartree                     :      2302.29268699    
 Madelung                    :     -8715.92447195    
 xc potential                :     -306.762902147    
 exchange                    :     -227.051091405    
 correlation                 :     -4.11192214429    
 total energy                :     -7200.73800478    
 
Density of states at Fermi energy :    73.60972962    
 (states/Hartree/unit cell)
 
Estimated indirect band gap :   0.8244515328E-04
 from k-point    208 to k-point     11
Estimated direct band gap   :   0.1352652662E-02
 at k-point    198
 
Charges :
 core                        :    56.00000000    
 valence                     :    24.00000000    
 interstitial                :    4.674138824    
 muffin-tins (core leakage)
  species :    1 (Zr)
   atom    1                 :    37.66293059     (  0.5935193190E-05)
   atom    2                 :    37.66293059     (  0.5935193190E-05)
 total in muffin-tins        :    75.32586118    
 total calculated charge     :    79.99994757    
 total charge                :    80.00000000    
 error                       :   0.5243060342E-04
 
RMS change in Kohn-Sham potential (target) :   0.2505580810E-03 (   10.00000000    )
Absolute change in total energy (target)   :   0.6359914551E-06 (  0.1000000000E-07)
 
Time (CPU seconds) :      1822.87
 
+--------------------+
| Loop number :   28 |
+--------------------+
 
Energies :
 Fermi                       :     0.385701954046    
 sum of eigenvalues          :     -4263.79290078    
 electron kinetic            :      7449.72895936    
 core electron kinetic       :      7311.71234176    
 Coulomb                     :     -14419.3039496    
 Coulomb potential           :     -11406.7589580    
 nuclear-nuclear             :     -710.252305692    
 electron-nuclear            :     -16011.3443298    
 Hartree                     :      2302.29268591    
 Madelung                    :     -8715.92447060    
 xc potential                :     -306.762902134    
 exchange                    :     -227.051091393    
 correlation                 :     -4.11192214503    
 total energy                :     -7200.73800378    
 
Density of states at Fermi energy :    73.60972798    
 (states/Hartree/unit cell)
 
Estimated indirect band gap :   0.8244503375E-04
 from k-point    208 to k-point     11
Estimated direct band gap   :   0.1352652657E-02
 at k-point    198
 
Charges :
 core                        :    56.00000000    
 valence                     :    24.00000000    
 interstitial                :    4.674138820    
 muffin-tins (core leakage)
  species :    1 (Zr)
   atom    1                 :    37.66293059     (  0.5935106071E-05)
   atom    2                 :    37.66293059     (  0.5935106071E-05)
 total in muffin-tins        :    75.32586118    
 total calculated charge     :    79.99994757    
 total charge                :    80.00000000    
 error                       :   0.5243047990E-04
 
Wrote STATE.OUT
 
RMS change in Kohn-Sham potential (target) :   0.3780753039E-03 (   10.00000000    )
Absolute change in total energy (target)   :   0.8334955055E-06 (  0.1000000000E-07)
 
Time (CPU seconds) :      1889.61
 
+--------------------+
| Loop number :   29 |
+--------------------+
 
Energies :
 Fermi                       :     0.385701920601    
 sum of eigenvalues          :     -4263.79290288    
 electron kinetic            :      7449.72895753    
 core electron kinetic       :      7311.71234071    
 Coulomb                     :     -14419.3039497    
 Coulomb potential           :     -11406.7589583    
 nuclear-nuclear             :     -710.252305692    
 electron-nuclear            :     -16011.3443298    
 Hartree                     :      2302.29268577    
 Madelung                    :     -8715.92447060    
 xc potential                :     -306.762902127    
 exchange                    :     -227.051091388    
 correlation                 :     -4.11192214537    
 total energy                :     -7200.73800574    
 
Density of states at Fermi energy :    73.60971283    
 (states/Hartree/unit cell)
 
Estimated indirect band gap :   0.8244563124E-04
 from k-point    208 to k-point     11
Estimated direct band gap   :   0.1352652587E-02
 at k-point    198
 
Charges :
 core                        :    56.00000000    
 valence                     :    24.00000000    
 interstitial                :    4.674138836    
 muffin-tins (core leakage)
  species :    1 (Zr)
   atom    1                 :    37.66293058     (  0.5935116114E-05)
   atom    2                 :    37.66293058     (  0.5935116114E-05)
 total in muffin-tins        :    75.32586116    
 total calculated charge     :    79.99994757    
 total charge                :    80.00000000    
 error                       :   0.5243044194E-04
 
RMS change in Kohn-Sham potential (target) :   0.2322973369E-04 (   10.00000000    )
Absolute change in total energy (target)   :   0.1753713150E-05 (  0.1000000000E-07)
 
Time (CPU seconds) :      1956.25
 
+--------------------+
| Loop number :   30 |
+--------------------+
 
Energies :
 Fermi                       :     0.385701913017    
 sum of eigenvalues          :     -4263.79290328    
 electron kinetic            :      7449.72895695    
 core electron kinetic       :      7311.71234023    
 Coulomb                     :     -14419.3039497    
 Coulomb potential           :     -11406.7589581    
 nuclear-nuclear             :     -710.252305692    
 electron-nuclear            :     -16011.3443298    
 Hartree                     :      2302.29268585    
 Madelung                    :     -8715.92447060    
 xc potential                :     -306.762902123    
 exchange                    :     -227.051091386    
 correlation                 :     -4.11192214564    
 total energy                :     -7200.73800623    
 
Density of states at Fermi energy :    73.60970905    
 (states/Hartree/unit cell)
 
Estimated indirect band gap :   0.8244562515E-04
 from k-point    208 to k-point     11
Estimated direct band gap   :   0.1352652572E-02
 at k-point    198
 
Charges :
 core                        :    56.00000000    
 valence                     :    24.00000000    
 interstitial                :    4.674138834    
 muffin-tins (core leakage)
  species :    1 (Zr)
   atom    1                 :    37.66293058     (  0.5935140933E-05)
   atom    2                 :    37.66293058     (  0.5935140933E-05)
 total in muffin-tins        :    75.32586117    
 total calculated charge     :    79.99994757    
 total charge                :    80.00000000    
 error                       :   0.5243049900E-04
 
Wrote STATE.OUT
 
RMS change in Kohn-Sham potential (target) :   0.1529788878E-03 (   10.00000000    )
Absolute change in total energy (target)   :   0.9285395208E-06 (  0.1000000000E-07)
 
Time (CPU seconds) :      2023.20
 
+--------------------+
| Loop number :   31 |
+--------------------+
 
Energies :
 Fermi                       :     0.385701909881    
 sum of eigenvalues          :     -4263.79290340    
 electron kinetic            :      7449.72895665    
 core electron kinetic       :      7311.71233950    
 Coulomb                     :     -14419.3039496    
 Coulomb potential           :     -11406.7589579    
 nuclear-nuclear             :     -710.252305692    
 electron-nuclear            :     -16011.3443298    
 Hartree                     :      2302.29268594    
 Madelung                    :     -8715.92447060    
 xc potential                :     -306.762902117    
 exchange                    :     -227.051091381    
 correlation                 :     -4.11192214556    
 total energy                :     -7200.73800645    
 
Density of states at Fermi energy :    73.60970752    
 (states/Hartree/unit cell)
 
Estimated indirect band gap :   0.8244557328E-04
 from k-point    208 to k-point     11
Estimated direct band gap   :   0.1352652564E-02
 at k-point    198
 
Charges :
 core                        :    56.00000000    
 valence                     :    24.00000000    
 interstitial                :    4.674138832    
 muffin-tins (core leakage)
  species :    1 (Zr)
   atom    1                 :    37.66293058     (  0.5935263484E-05)
   atom    2                 :    37.66293058     (  0.5935263484E-05)
 total in muffin-tins        :    75.32586117    
 total calculated charge     :    79.99994757    
 total charge                :    80.00000000    
 error                       :   0.5243076953E-04
 
RMS change in Kohn-Sham potential (target) :   0.4775337936E-03 (   10.00000000    )
Absolute change in total energy (target)   :   0.4423573046E-06 (  0.1000000000E-07)
 
Time (CPU seconds) :      2090.22
 
+--------------------+
| Loop number :   32 |
+--------------------+
 
Energies :
 Fermi                       :     0.385701922828    
 sum of eigenvalues          :     -4263.79290273    
 electron kinetic            :      7449.72895762    
 core electron kinetic       :      7311.71234172    
 Coulomb                     :     -14419.3039497    
 Coulomb potential           :     -11406.7589582    
 nuclear-nuclear             :     -710.252305692    
 electron-nuclear            :     -16011.3443298    
 Hartree                     :      2302.29268580    
 Madelung                    :     -8715.92447060    
 xc potential                :     -306.762902131    
 exchange                    :     -227.051091394    
 correlation                 :     -4.11192214473    
 total energy                :     -7200.73800563    
 
Density of states at Fermi energy :    73.60971443    
 (states/Hartree/unit cell)
 
Estimated indirect band gap :   0.8244549450E-04
 from k-point    208 to k-point     11
Estimated direct band gap   :   0.1352652590E-02
 at k-point    198
 
Charges :
 core                        :    56.00000000    
 valence                     :    24.00000000    
 interstitial                :    4.674138831    
 muffin-tins (core leakage)
  species :    1 (Zr)
   atom    1                 :    37.66293058     (  0.5935180798E-05)
   atom    2                 :    37.66293058     (  0.5935180798E-05)
 total in muffin-tins        :    75.32586117    
 total calculated charge     :    79.99994757    
 total charge                :    80.00000000    
 error                       :   0.5243054706E-04
 
Wrote STATE.OUT
 
RMS change in Kohn-Sham potential (target) :   0.1265826397E-02 (   10.00000000    )
Absolute change in total energy (target)   :   0.7057014955E-06 (  0.1000000000E-07)
 
Time (CPU seconds) :      2158.13
 
+--------------------+
| Loop number :   33 |
+--------------------+
 
Energies :
 Fermi                       :     0.385701892916    
 sum of eigenvalues          :     -4263.79290469    
 electron kinetic            :      7449.72895575    
 core electron kinetic       :      7311.71234003    
 Coulomb                     :     -14419.3039498    
 Coulomb potential           :     -11406.7589583    
 nuclear-nuclear             :     -710.252305692    
 electron-nuclear            :     -16011.3443298    
 Hartree                     :      2302.29268575    
 Madelung                    :     -8715.92447060    
 xc potential                :     -306.762902128    
 exchange                    :     -227.051091390    
 correlation                 :     -4.11192214567    
 total energy                :     -7200.73800754    
 
Density of states at Fermi energy :    73.60969929    
 (states/Hartree/unit cell)
 
Estimated indirect band gap :   0.8244603607E-04
 from k-point    208 to k-point     11
Estimated direct band gap   :   0.1352652530E-02
 at k-point    198
 
Charges :
 core                        :    56.00000000    
 valence                     :    24.00000000    
 interstitial                :    4.674138842    
 muffin-tins (core leakage)
  species :    1 (Zr)
   atom    1                 :    37.66293058     (  0.5935169099E-05)
   atom    2                 :    37.66293058     (  0.5935169099E-05)
 total in muffin-tins        :    75.32586116    
 total calculated charge     :    79.99994757    
 total charge                :    80.00000000    
 error                       :   0.5243054922E-04
 
RMS change in Kohn-Sham potential (target) :   0.5829059275E-04 (   10.00000000    )
Absolute change in total energy (target)   :   0.1733785211E-05 (  0.1000000000E-07)
 
Time (CPU seconds) :      2225.03
 
+--------------------+
| Loop number :   34 |
+--------------------+
 
Energies :
 Fermi                       :     0.385701902213    
 sum of eigenvalues          :     -4263.79290410    
 electron kinetic            :      7449.72895622    
 core electron kinetic       :      7311.71234028    
 Coulomb                     :     -14419.3039497    
 Coulomb potential           :     -11406.7589582    
 nuclear-nuclear             :     -710.252305692    
 electron-nuclear            :     -16011.3443298    
 Hartree                     :      2302.29268581    
 Madelung                    :     -8715.92447060    
 xc potential                :     -306.762902129    
 exchange                    :     -227.051091386    
 correlation                 :     -4.11192214645    
 total energy                :     -7200.73800701    
 
Density of states at Fermi energy :    73.60970355    
 (states/Hartree/unit cell)
 
Estimated indirect band gap :   0.8244589137E-04
 from k-point    208 to k-point     11
Estimated direct band gap   :   0.1352652548E-02
 at k-point    198
 
Charges :
 core                        :    56.00000000    
 valence                     :    24.00000000    
 interstitial                :    4.674138838    
 muffin-tins (core leakage)
  species :    1 (Zr)
   atom    1                 :    37.66293058     (  0.5935208733E-05)
   atom    2                 :    37.66293058     (  0.5935208733E-05)
 total in muffin-tins        :    75.32586116    
 total calculated charge     :    79.99994757    
 total charge                :    80.00000000    
 error                       :   0.5243065216E-04
 
Wrote STATE.OUT
 
RMS change in Kohn-Sham potential (target) :   0.1632808416E-03 (   10.00000000    )
Absolute change in total energy (target)   :   0.9785526345E-07 (  0.1000000000E-07)
 
Time (CPU seconds) :      2292.75
 
+--------------------+
| Loop number :   35 |
+--------------------+
 
Energies :
 Fermi                       :     0.385701903437    
 sum of eigenvalues          :     -4263.79290401    
 electron kinetic            :      7449.72895642    
 core electron kinetic       :      7311.71234047    
 Coulomb                     :     -14419.3039498    
 Coulomb potential           :     -11406.7589583    
 nuclear-nuclear             :     -710.252305692    
 electron-nuclear            :     -16011.3443298    
 Hartree                     :      2302.29268576    
 Madelung                    :     -8715.92447060    
 xc potential                :     -306.762902131    
 exchange                    :     -227.051091392    
 correlation                 :     -4.11192214562    
 total energy                :     -7200.73800687    
 
Density of states at Fermi energy :    73.60970413    
 (states/Hartree/unit cell)
 
Estimated indirect band gap :   0.8244586771E-04
 from k-point    208 to k-point     11
Estimated direct band gap   :   0.1352652550E-02
 at k-point    198
 
Charges :
 core                        :    56.00000000    
 valence                     :    24.00000000    
 interstitial                :    4.674138838    
 muffin-tins (core leakage)
  species :    1 (Zr)
   atom    1                 :    37.66293058     (  0.5935090048E-05)
   atom    2                 :    37.66293058     (  0.5935090048E-05)
 total in muffin-tins        :    75.32586116    
 total calculated charge     :    79.99994757    
 total charge                :    80.00000000    
 error                       :   0.5243042233E-04
 
RMS change in Kohn-Sham potential (target) :   0.1078852889E-03 (   10.00000000    )
Absolute change in total energy (target)   :   0.1645103112E-06 (  0.1000000000E-07)
 
Time (CPU seconds) :      2359.66
 
+--------------------+
| Loop number :   36 |
+--------------------+
 
Energies :
 Fermi                       :     0.385701903961    
 sum of eigenvalues          :     -4263.79290398    
 electron kinetic            :      7449.72895628    
 core electron kinetic       :      7311.71234013    
 Coulomb                     :     -14419.3039497    
 Coulomb potential           :     -11406.7589581    
 nuclear-nuclear             :     -710.252305692    
 electron-nuclear            :     -16011.3443298    
 Hartree                     :      2302.29268584    
 Madelung                    :     -8715.92447060    
 xc potential                :     -306.762902128    
 exchange                    :     -227.051091383    
 correlation                 :     -4.11192214716    
 total energy                :     -7200.73800692    
 
Density of states at Fermi energy :    73.60970443    
 (states/Hartree/unit cell)
 
Estimated indirect band gap :   0.8244585540E-04
 from k-point    208 to k-point     11
Estimated direct band gap   :   0.1352652551E-02
 at k-point    198
 
Charges :
 core                        :    56.00000000    
 valence                     :    24.00000000    
 interstitial                :    4.674138837    
 muffin-tins (core leakage)
  species :    1 (Zr)
   atom    1                 :    37.66293058     (  0.5935136961E-05)
   atom    2                 :    37.66293058     (  0.5935136961E-05)
 total in muffin-tins        :    75.32586116    
 total calculated charge     :    79.99994757    
 total charge                :    80.00000000    
 error                       :   0.5243047126E-04
 
Wrote STATE.OUT
 
RMS change in Kohn-Sham potential (target) :   0.1235900908E-03 (   10.00000000    )
Absolute change in total energy (target)   :   0.7008566172E-08 (  0.1000000000E-07)
 
Convergence targets achieved
 
Time (CPU seconds) :      2427.42
 
+--------------------+
| Loop number :   37 |
+--------------------+
 
Energies :
 Fermi                       :     0.385701907248    
 sum of eigenvalues          :     -4263.79290377    
 electron kinetic            :      7449.72895656    
 core electron kinetic       :      7311.71234055    
 Coulomb                     :     -14419.3039497    
 Coulomb potential           :     -11406.7589582    
 nuclear-nuclear             :     -710.252305692    
 electron-nuclear            :     -16011.3443298    
 Hartree                     :      2302.29268581    
 Madelung                    :     -8715.92447060    
 xc potential                :     -306.762902130    
 exchange                    :     -227.051091390    
 correlation                 :     -4.11192214583    
 total energy                :     -7200.73800668    
 
Density of states at Fermi energy :    73.60970615    
 (states/Hartree/unit cell)
 
Estimated indirect band gap :   0.8244580684E-04
 from k-point    208 to k-point     11
Estimated direct band gap   :   0.1352652557E-02
 at k-point    198
 
Charges :
 core                        :    56.00000000    
 valence                     :    24.00000000    
 interstitial                :    4.674138836    
 muffin-tins (core leakage)
  species :    1 (Zr)
   atom    1                 :    37.66293058     (  0.5935175622E-05)
   atom    2                 :    37.66293058     (  0.5935175622E-05)
 total in muffin-tins        :    75.32586116    
 total calculated charge     :    79.99994757    
 total charge                :    80.00000000    
 error                       :   0.5243059655E-04
 
+------------------------------+
| Self-consistent loop stopped |
+------------------------------+
 
Wrote STATE.OUT
 
Timings (CPU seconds) :
 initialisation                        :         1.18
 Hamiltonian and overlap matrix set up :       756.57
 first-variational eigenvalue equation :       948.02
 charge density calculation            :       235.17
 potential calculation                 :       554.35
 total                                 :      2495.30
 
+----------------------------+
| Elk version 8.3.15 stopped |
+----------------------------+
