    -165.503675314    
    -165.456784222    
    -163.747972144    
    -162.890714731    
    -162.636674959    
    -162.582301062    
    -162.570287361    
    -162.572956110    
    -162.572296669    
    -162.571822375    
    -162.571611699    
    -162.571717657    
    -162.571736745    
    -162.571736912    
    -162.571736620    
    -162.571736712    
    -162.571736729    
    -162.571736737    
    -162.571736737    
    -162.571736736    
