    0.258576027118E-03
    0.175728459672E-03
    0.393926860284E-03
    0.911518890567E-04
    0.128309554503E-03
    0.274919590388E-03
    0.347297868408E-03
    0.375422763534E-03
    0.381261721802E-03
    0.380652035168E-03
    0.379901286985E-03
    0.379503800701E-03
    0.379572580088E-03
    0.379609151663E-03
    0.379649418452E-03
    0.379671883420E-03
    0.379679165859E-03
    0.379704676572E-03
    0.379697714607E-03
    0.379696697794E-03
    0.379693212447E-03
    0.379691807345E-03
    0.379690084578E-03
    0.379689317773E-03
    0.379686293887E-03
    0.379685673433E-03
    0.379685762313E-03
    0.379685683312E-03
    0.379685049734E-03
    0.379685439797E-03
    0.379685453575E-03
    0.379685504970E-03
    0.379685451675E-03
    0.379685621352E-03
    0.379685500479E-03
    0.379685477241E-03
    0.379685483342E-03
    0.379685434228E-03
    0.379685414421E-03
    0.379685380357E-03
    0.379685432999E-03
    0.379685441128E-03
    0.379685417693E-03
