  0.1824743264E-02
  0.2134466644E-01
  0.4174776430E-01
  0.2401311260E-01
  0.1071123698E-01
  0.4854272056E-02
  0.2183313427E-04
  0.4790094681E-04
  0.3533395738E-04
  0.8596610405E-04
  0.2390782083E-04
  0.4960698789E-05
  0.5482206052E-04
  0.8840788723E-06
  0.3067269881E-04
  0.4802029252E-05
  0.1192567652E-05
  0.1960295776E-04
  0.4182414159E-05
  0.4722611266E-05
  0.1474771125E-04
  0.7132982319E-05
  0.1111052643E-04
  0.7078369890E-06
  0.9866344044E-06
  0.1588416126E-05
  0.7193057172E-06
  0.2469489118E-05
  0.3146687959E-06
  0.8795368558E-06
  0.3943569027E-06
  0.3502009349E-06
  0.7658309187E-07
  0.9399900591E-07
  0.2684282663E-07
  0.4157573130E-07
  0.2191882231E-07
  0.5485344445E-07
  0.3360037226E-07
  0.6562913768E-08
