 
Species :    1 (Re), atom :    1
 APW functions :
  l =  0, energy derivative =  0 :   0.4927572872    
  l =  1, energy derivative =  0 :   0.4927572872    
  l =  2, energy derivative =  0 :   0.4927572872    
  l =  3, energy derivative =  0 :   0.4927572872    
  l =  4, energy derivative =  0 :   0.4927572872    
  l =  5, energy derivative =  0 :   0.4927572872    
  l =  6, energy derivative =  0 :   0.4927572872    
  l =  7, energy derivative =  0 :   0.4927572872    
  l =  8, energy derivative =  0 :   0.4927572872    
  l =  9, energy derivative =  0 :   0.4927572872    
  l = 10, energy derivative =  0 :   0.4927572872    
 local-orbital functions :
  l.o. =  1, l =  0, energy derivative =  0 :   0.4927572872    
  l.o. =  1, l =  0, energy derivative =  1 :   0.4927572872    
  l.o. =  2, l =  1, energy derivative =  0 :   0.4927572872    
  l.o. =  2, l =  1, energy derivative =  1 :   0.4927572872    
  l.o. =  3, l =  2, energy derivative =  0 :   0.4927572872    
  l.o. =  3, l =  2, energy derivative =  1 :   0.4927572872    
  l.o. =  4, l =  3, energy derivative =  0 :   0.4927572872    
  l.o. =  4, l =  3, energy derivative =  1 :   0.4927572872    
  l.o. =  5, l =  3, energy derivative =  0 :   0.4927572872    
  l.o. =  5, l =  3, energy derivative =  0 :  -0.7623510438    
  l.o. =  6, l =  0, energy derivative =  0 :   0.4927572872    
  l.o. =  6, l =  0, energy derivative =  0 :   -2.349661376    
  l.o. =  7, l =  1, energy derivative =  0 :   0.4927572872    
  l.o. =  7, l =  1, energy derivative =  0 :  -0.9413954730    
  l.o. =  8, l =  2, energy derivative =  0 :   0.4927572872    
  l.o. =  8, l =  2, energy derivative =  0 :   0.7175919831    
  l.o. =  9, l =  4, energy derivative =  0 :   0.4927572872    
  l.o. =  9, l =  4, energy derivative =  1 :   0.4927572872    
  l.o. = 10, l =  5, energy derivative =  0 :   0.4927572872    
  l.o. = 10, l =  5, energy derivative =  1 :   0.4927572872    
  l.o. = 11, l =  6, energy derivative =  0 :   0.4927572872    
  l.o. = 11, l =  6, energy derivative =  1 :   0.4927572872    
  l.o. = 12, l =  0, energy derivative =  0 :    1.449806586    
  l.o. = 12, l =  0, energy derivative =  1 :    1.449806586    
  l.o. = 12, l =  0, energy derivative =  2 :    1.449806586    
  l.o. = 13, l =  1, energy derivative =  0 :    2.264356062    
  l.o. = 13, l =  1, energy derivative =  1 :    2.264356062    
  l.o. = 13, l =  1, energy derivative =  2 :    2.264356062    
  l.o. = 14, l =  2, energy derivative =  0 :   0.7175919831    
  l.o. = 14, l =  2, energy derivative =  1 :   0.7175919831    
  l.o. = 14, l =  2, energy derivative =  2 :   0.7175919831    
  l.o. = 15, l =  3, energy derivative =  0 :    2.350937549    
  l.o. = 15, l =  3, energy derivative =  1 :    2.350937549    
  l.o. = 15, l =  3, energy derivative =  2 :    2.350937549    
  l.o. = 16, l =  4, energy derivative =  0 :    3.664527113    
  l.o. = 16, l =  4, energy derivative =  1 :    3.664527113    
  l.o. = 16, l =  4, energy derivative =  2 :    3.664527113    
  l.o. = 17, l =  5, energy derivative =  0 :    5.367956716    
  l.o. = 17, l =  5, energy derivative =  1 :    5.367956716    
  l.o. = 17, l =  5, energy derivative =  2 :    5.367956716    
  l.o. = 18, l =  6, energy derivative =  0 :    7.165643239    
  l.o. = 18, l =  6, energy derivative =  1 :    7.165643239    
  l.o. = 18, l =  6, energy derivative =  2 :    7.165643239    
  l.o. = 19, l =  7, energy derivative =  0 :    9.117551828    
  l.o. = 19, l =  7, energy derivative =  1 :    9.117551828    
  l.o. = 19, l =  7, energy derivative =  2 :    9.117551828    
  l.o. = 20, l =  8, energy derivative =  0 :    11.24064777    
  l.o. = 20, l =  8, energy derivative =  1 :    11.24064777    
  l.o. = 20, l =  8, energy derivative =  2 :    11.24064777    
 
Species :    1 (Re), atom :    2
 APW functions :
  l =  0, energy derivative =  0 :   0.4927572872    
  l =  1, energy derivative =  0 :   0.4927572872    
  l =  2, energy derivative =  0 :   0.4927572872    
  l =  3, energy derivative =  0 :   0.4927572872    
  l =  4, energy derivative =  0 :   0.4927572872    
  l =  5, energy derivative =  0 :   0.4927572872    
  l =  6, energy derivative =  0 :   0.4927572872    
  l =  7, energy derivative =  0 :   0.4927572872    
  l =  8, energy derivative =  0 :   0.4927572872    
  l =  9, energy derivative =  0 :   0.4927572872    
  l = 10, energy derivative =  0 :   0.4927572872    
 local-orbital functions :
  l.o. =  1, l =  0, energy derivative =  0 :   0.4927572872    
  l.o. =  1, l =  0, energy derivative =  1 :   0.4927572872    
  l.o. =  2, l =  1, energy derivative =  0 :   0.4927572872    
  l.o. =  2, l =  1, energy derivative =  1 :   0.4927572872    
  l.o. =  3, l =  2, energy derivative =  0 :   0.4927572872    
  l.o. =  3, l =  2, energy derivative =  1 :   0.4927572872    
  l.o. =  4, l =  3, energy derivative =  0 :   0.4927572872    
  l.o. =  4, l =  3, energy derivative =  1 :   0.4927572872    
  l.o. =  5, l =  3, energy derivative =  0 :   0.4927572872    
  l.o. =  5, l =  3, energy derivative =  0 :  -0.7623510438    
  l.o. =  6, l =  0, energy derivative =  0 :   0.4927572872    
  l.o. =  6, l =  0, energy derivative =  0 :   -2.349661376    
  l.o. =  7, l =  1, energy derivative =  0 :   0.4927572872    
  l.o. =  7, l =  1, energy derivative =  0 :  -0.9413954730    
  l.o. =  8, l =  2, energy derivative =  0 :   0.4927572872    
  l.o. =  8, l =  2, energy derivative =  0 :   0.7175919831    
  l.o. =  9, l =  4, energy derivative =  0 :   0.4927572872    
  l.o. =  9, l =  4, energy derivative =  1 :   0.4927572872    
  l.o. = 10, l =  5, energy derivative =  0 :   0.4927572872    
  l.o. = 10, l =  5, energy derivative =  1 :   0.4927572872    
  l.o. = 11, l =  6, energy derivative =  0 :   0.4927572872    
  l.o. = 11, l =  6, energy derivative =  1 :   0.4927572872    
  l.o. = 12, l =  0, energy derivative =  0 :    1.449806586    
  l.o. = 12, l =  0, energy derivative =  1 :    1.449806586    
  l.o. = 12, l =  0, energy derivative =  2 :    1.449806586    
  l.o. = 13, l =  1, energy derivative =  0 :    2.264356062    
  l.o. = 13, l =  1, energy derivative =  1 :    2.264356062    
  l.o. = 13, l =  1, energy derivative =  2 :    2.264356062    
  l.o. = 14, l =  2, energy derivative =  0 :   0.7175919831    
  l.o. = 14, l =  2, energy derivative =  1 :   0.7175919831    
  l.o. = 14, l =  2, energy derivative =  2 :   0.7175919831    
  l.o. = 15, l =  3, energy derivative =  0 :    2.350937549    
  l.o. = 15, l =  3, energy derivative =  1 :    2.350937549    
  l.o. = 15, l =  3, energy derivative =  2 :    2.350937549    
  l.o. = 16, l =  4, energy derivative =  0 :    3.664527113    
  l.o. = 16, l =  4, energy derivative =  1 :    3.664527113    
  l.o. = 16, l =  4, energy derivative =  2 :    3.664527113    
  l.o. = 17, l =  5, energy derivative =  0 :    5.367956716    
  l.o. = 17, l =  5, energy derivative =  1 :    5.367956716    
  l.o. = 17, l =  5, energy derivative =  2 :    5.367956716    
  l.o. = 18, l =  6, energy derivative =  0 :    7.165643239    
  l.o. = 18, l =  6, energy derivative =  1 :    7.165643239    
  l.o. = 18, l =  6, energy derivative =  2 :    7.165643239    
  l.o. = 19, l =  7, energy derivative =  0 :    9.117551828    
  l.o. = 19, l =  7, energy derivative =  1 :    9.117551828    
  l.o. = 19, l =  7, energy derivative =  2 :    9.117551828    
  l.o. = 20, l =  8, energy derivative =  0 :    11.24064777    
  l.o. = 20, l =  8, energy derivative =  1 :    11.24064777    
  l.o. = 20, l =  8, energy derivative =  2 :    11.24064777    
