 
+----------------------------+
| Real-space lattice vectors |
+----------------------------+
 
vector a1 :    5.149097863      -2.972833038       0.000000000    
vector a2 :    0.000000000       5.945666074       0.000000000    
vector a3 :    0.000000000       0.000000000       9.806299623    
 
Stored column-wise as a matrix :
   5.149097863       0.000000000       0.000000000    
  -2.972833038       5.945666074       0.000000000    
   0.000000000       0.000000000       9.806299623    
 
Inverse of matrix :
  0.1942087773       0.000000000       0.000000000    
  0.9710438866E-01  0.1681897348       0.000000000    
   0.000000000       0.000000000      0.1019752647    
 
Unit cell volume :    300.2180632    
 
 
+----------------------------------+
| Reciprocal-space lattice vectors |
+----------------------------------+
 
vector b1 :    1.220249736       0.000000000       0.000000000    
vector b2 :   0.6101248681       1.056767270       0.000000000    
vector b3 :    0.000000000       0.000000000      0.6407294850    
 
Stored column-wise as a matrix :
   1.220249736      0.6101248681       0.000000000    
   0.000000000       1.056767270       0.000000000    
   0.000000000       0.000000000      0.6407294850    
 
Inverse of matrix :
  0.8195043773     -0.4731410729       0.000000000    
   0.000000000      0.9462821457       0.000000000    
   0.000000000       0.000000000       1.560721058    
 
Brillouin zone volume :   0.8262334743    
