 
Species :    1 (Sc), atom :    1
 APW functions :
  l =  0, energy derivative =  0 :   0.1831778100    
  l =  1, energy derivative =  0 :   0.1831778100    
  l =  2, energy derivative =  0 :   0.1831778100    
  l =  3, energy derivative =  0 :   0.1831778100    
  l =  4, energy derivative =  0 :   0.1831778100    
  l =  5, energy derivative =  0 :   0.1831778100    
  l =  6, energy derivative =  0 :   0.1831778100    
  l =  7, energy derivative =  0 :   0.1831778100    
  l =  8, energy derivative =  0 :   0.1831778100    
  l =  9, energy derivative =  0 :   0.1831778100    
  l = 10, energy derivative =  0 :   0.1831778100    
 local-orbital functions :
  l.o. =  1, l =  0, energy derivative =  0 :   0.1831778100    
  l.o. =  1, l =  0, energy derivative =  1 :   0.1831778100    
  l.o. =  2, l =  1, energy derivative =  0 :   0.1831778100    
  l.o. =  2, l =  1, energy derivative =  1 :   0.1831778100    
  l.o. =  3, l =  2, energy derivative =  0 :   0.1831778100    
  l.o. =  3, l =  2, energy derivative =  1 :   0.1831778100    
  l.o. =  4, l =  0, energy derivative =  0 :   0.1831778100    
  l.o. =  4, l =  0, energy derivative =  0 :   -1.531365173    
  l.o. =  5, l =  1, energy derivative =  0 :   0.1831778100    
  l.o. =  5, l =  1, energy derivative =  0 :  -0.7349351556    
  l.o. =  6, l =  3, energy derivative =  0 :   0.1831778100    
  l.o. =  6, l =  3, energy derivative =  1 :   0.1831778100    
  l.o. =  7, l =  4, energy derivative =  0 :   0.1831778100    
  l.o. =  7, l =  4, energy derivative =  1 :   0.1831778100    
  l.o. =  8, l =  5, energy derivative =  0 :   0.1831778100    
  l.o. =  8, l =  5, energy derivative =  1 :   0.1831778100    
  l.o. =  9, l =  0, energy derivative =  0 :    1.518591798    
  l.o. =  9, l =  0, energy derivative =  1 :    1.518591798    
  l.o. =  9, l =  0, energy derivative =  2 :    1.518591798    
  l.o. = 10, l =  1, energy derivative =  0 :    1.966544832    
  l.o. = 10, l =  1, energy derivative =  1 :    1.966544832    
  l.o. = 10, l =  1, energy derivative =  2 :    1.966544832    
  l.o. = 11, l =  2, energy derivative =  0 :   0.4657306884    
  l.o. = 11, l =  2, energy derivative =  1 :   0.4657306884    
  l.o. = 11, l =  2, energy derivative =  2 :   0.4657306884    
  l.o. = 12, l =  3, energy derivative =  0 :    2.335950376    
  l.o. = 12, l =  3, energy derivative =  1 :    2.335950376    
  l.o. = 12, l =  3, energy derivative =  2 :    2.335950376    
  l.o. = 13, l =  4, energy derivative =  0 :    3.852927117    
  l.o. = 13, l =  4, energy derivative =  1 :    3.852927117    
  l.o. = 13, l =  4, energy derivative =  2 :    3.852927117    
  l.o. = 14, l =  5, energy derivative =  0 :    5.472302560    
  l.o. = 14, l =  5, energy derivative =  1 :    5.472302560    
  l.o. = 14, l =  5, energy derivative =  2 :    5.472302560    
  l.o. = 15, l =  6, energy derivative =  0 :    7.251329408    
  l.o. = 15, l =  6, energy derivative =  1 :    7.251329408    
  l.o. = 15, l =  6, energy derivative =  2 :    7.251329408    
  l.o. = 16, l =  7, energy derivative =  0 :    9.206930983    
  l.o. = 16, l =  7, energy derivative =  1 :    9.206930983    
  l.o. = 16, l =  7, energy derivative =  2 :    9.206930983    
  l.o. = 17, l =  8, energy derivative =  0 :    11.34568658    
  l.o. = 17, l =  8, energy derivative =  1 :    11.34568658    
  l.o. = 17, l =  8, energy derivative =  2 :    11.34568658    
 
Species :    1 (Sc), atom :    2
 APW functions :
  l =  0, energy derivative =  0 :   0.1831778100    
  l =  1, energy derivative =  0 :   0.1831778100    
  l =  2, energy derivative =  0 :   0.1831778100    
  l =  3, energy derivative =  0 :   0.1831778100    
  l =  4, energy derivative =  0 :   0.1831778100    
  l =  5, energy derivative =  0 :   0.1831778100    
  l =  6, energy derivative =  0 :   0.1831778100    
  l =  7, energy derivative =  0 :   0.1831778100    
  l =  8, energy derivative =  0 :   0.1831778100    
  l =  9, energy derivative =  0 :   0.1831778100    
  l = 10, energy derivative =  0 :   0.1831778100    
 local-orbital functions :
  l.o. =  1, l =  0, energy derivative =  0 :   0.1831778100    
  l.o. =  1, l =  0, energy derivative =  1 :   0.1831778100    
  l.o. =  2, l =  1, energy derivative =  0 :   0.1831778100    
  l.o. =  2, l =  1, energy derivative =  1 :   0.1831778100    
  l.o. =  3, l =  2, energy derivative =  0 :   0.1831778100    
  l.o. =  3, l =  2, energy derivative =  1 :   0.1831778100    
  l.o. =  4, l =  0, energy derivative =  0 :   0.1831778100    
  l.o. =  4, l =  0, energy derivative =  0 :   -1.531365173    
  l.o. =  5, l =  1, energy derivative =  0 :   0.1831778100    
  l.o. =  5, l =  1, energy derivative =  0 :  -0.7349351556    
  l.o. =  6, l =  3, energy derivative =  0 :   0.1831778100    
  l.o. =  6, l =  3, energy derivative =  1 :   0.1831778100    
  l.o. =  7, l =  4, energy derivative =  0 :   0.1831778100    
  l.o. =  7, l =  4, energy derivative =  1 :   0.1831778100    
  l.o. =  8, l =  5, energy derivative =  0 :   0.1831778100    
  l.o. =  8, l =  5, energy derivative =  1 :   0.1831778100    
  l.o. =  9, l =  0, energy derivative =  0 :    1.518591798    
  l.o. =  9, l =  0, energy derivative =  1 :    1.518591798    
  l.o. =  9, l =  0, energy derivative =  2 :    1.518591798    
  l.o. = 10, l =  1, energy derivative =  0 :    1.966544832    
  l.o. = 10, l =  1, energy derivative =  1 :    1.966544832    
  l.o. = 10, l =  1, energy derivative =  2 :    1.966544832    
  l.o. = 11, l =  2, energy derivative =  0 :   0.4657306884    
  l.o. = 11, l =  2, energy derivative =  1 :   0.4657306884    
  l.o. = 11, l =  2, energy derivative =  2 :   0.4657306884    
  l.o. = 12, l =  3, energy derivative =  0 :    2.335950376    
  l.o. = 12, l =  3, energy derivative =  1 :    2.335950376    
  l.o. = 12, l =  3, energy derivative =  2 :    2.335950376    
  l.o. = 13, l =  4, energy derivative =  0 :    3.852927117    
  l.o. = 13, l =  4, energy derivative =  1 :    3.852927117    
  l.o. = 13, l =  4, energy derivative =  2 :    3.852927117    
  l.o. = 14, l =  5, energy derivative =  0 :    5.472302560    
  l.o. = 14, l =  5, energy derivative =  1 :    5.472302560    
  l.o. = 14, l =  5, energy derivative =  2 :    5.472302560    
  l.o. = 15, l =  6, energy derivative =  0 :    7.251329408    
  l.o. = 15, l =  6, energy derivative =  1 :    7.251329408    
  l.o. = 15, l =  6, energy derivative =  2 :    7.251329408    
  l.o. = 16, l =  7, energy derivative =  0 :    9.206930983    
  l.o. = 16, l =  7, energy derivative =  1 :    9.206930983    
  l.o. = 16, l =  7, energy derivative =  2 :    9.206930983    
  l.o. = 17, l =  8, energy derivative =  0 :    11.34568658    
  l.o. = 17, l =  8, energy derivative =  1 :    11.34568658    
  l.o. = 17, l =  8, energy derivative =  2 :    11.34568658    
