  0.4117485528E-01
  0.4096914258E-01
  0.3097810152E-01
  0.2219221267E-01
  0.1881797079E-01
  0.1336172629E-01
  0.3461833166E-02
  0.7728427614E-03
  0.2680779175E-03
  0.7726621887E-03
  0.3329442873E-03
  0.4837154986E-03
  0.4448980330E-03
  0.6519279229E-03
  0.1827937344E-03
  0.1170984029E-03
  0.3534360820E-03
  0.5291734198E-03
  0.5378291293E-03
  0.7607709061E-03
  0.1054294104E-03
  0.1320571117E-03
  0.1067692876E-02
  0.1026438241E-02
  0.1335851710E-03
  0.2194893226E-03
  0.1442414205E-03
  0.1513488821E-03
  0.2792727867E-03
  0.2974561555E-03
  0.3012927798E-03
  0.8247421210E-04
  0.1606062895E-03
  0.4739999621E-03
  0.1435757788E-03
  0.5553607908E-03
  0.6313937167E-04
  0.3460841228E-03
  0.1821427809E-03
  0.2468464353E-03
  0.5026715389E-03
  0.3310112284E-04
