    0.221095970700E-03
    0.111536643081E-03
    0.250024663853E-03
    0.577651223610E-03
    0.558962259269E-03
    0.164460237701E-03
    0.242969882658E-03
    0.242227536387E-03
    0.241921242159E-03
    0.241531439671E-03
    0.241349178917E-03
    0.241316487863E-03
    0.241320787440E-03
    0.241312730365E-03
    0.241310436610E-03
    0.241309666105E-03
    0.241302217355E-03
    0.241301225147E-03
    0.241300219061E-03
    0.241300341032E-03
    0.241301362571E-03
    0.241300863190E-03
    0.241300463165E-03
    0.241300301978E-03
    0.241300216349E-03
    0.241300262306E-03
    0.241300197719E-03
    0.241300144736E-03
    0.241300258081E-03
