+----------------------------+
| Elk version 8.3.15 started |
+----------------------------+
 
Date (YYYY-MM-DD) : 2022-02-27
Time (hh:mm:ss)   : 21:10:56
 
All units are atomic (Hartree, Bohr, etc.)
 
+-------------------------------------------------+
| Ground-state run starting from atomic densities |
+-------------------------------------------------+
 
Lattice vectors :
   4.437770925      -2.562148238       0.000000000    
   0.000000000       5.124296475       0.000000000    
   0.000000000       0.000000000       8.568016432    
 
Reciprocal lattice vectors :
   1.415842641       0.000000000       0.000000000    
  0.7079213206       1.226155695       0.000000000    
   0.000000000       0.000000000      0.7333302121    
 
Unit cell volume      :    194.8405827    
Brillouin zone volume :    1.273093161    
 
Muffin-tin inner radius fraction :   0.1000000000E-01
 
Species :    1 (Os)
 parameters loaded from : Os.in
 name : osmium
 nuclear charge    :   -76.00000000    
 electronic charge :    76.00000000    
 atomic mass :    346768.0765    
 muffin-tin radius :    2.370000000    
 number of radial points in muffin-tin :   1400
 number on inner part of muffin-tin    :   1017
 atomic positions (lattice), magnetic fields (Cartesian) :
   1 :   0.33333333  0.16666667  0.25000000    0.00000000  0.00000000  0.00000000
   2 :  -0.33333333 -0.16666667 -0.25000000    0.00000000  0.00000000  0.00000000
 
Total number of atoms per unit cell :    2
 
Spin treatment :
 spin-unpolarised
 
Number of Bravais lattice symmetries :   24
Number of crystal symmetries         :   24
Crystal has inversion symmetry
Real symmetric eigensolver will be used
 
k-point grid :     17    17    17
k-point offset :    0.000000000       0.000000000       0.000000000    
k-point set is reduced with full crystal symmetry group
Total number of k-points :      297
 
Muffin-tin radius times maximum |G+k| :    8.500000000    
 using gkmax = rgkmax / 2
Maximum |G+k| for APW functions       :    4.250000000    
Maximum (1/2)|G+k|²                   :    9.031250000    
Maximum |G| for potential and density :    34.00000000    
Constant for pseudocharge density :   20
Radial integration step length :    1
 
G-vector grid sizes :     60    60    96
Number of G-vectors :   129411
 
Maximum angular momentum used for
 APW functions                      :   10
 outer part of muffin-tin           :    8
 inner part of muffin-tin           :    1
 
Total nuclear charge    :   -152.0000000    
Total core charge       :    92.00000000    
Total valence charge    :    60.00000000    
Total excess charge     :    0.000000000    
Total electronic charge :    152.0000000    
 
Effective Wigner radius, rₛ :   0.6738797522    
 
Number of empty states         :   40
Total number of valence states :   71
Total number of core states    :   92
 
Conduction state local-orbitals added automatically
Total number of local-orbitals :  292
 
Using Libxc version 05.01.05
Exchange-correlation functional :    100   493   494
 exchange: mgga_x_rscan; correlation: mgga_c_rscan
 
Smearing type :    1
 Methfessel-Paxton order 1, Phys. Rev. B 40, 3616 (1989)
Smearing width :   0.1000000000E-02
Effective electronic temperature (K) :    315.7750248    
 
Mixing type :    3
 Broyden mixing, J. Phys. A: Math. Gen. 17, L317 (1984)
 
Kohn-Sham potential initialised from atomic data
 
+------------------------------+
| Self-consistent loop started |
+------------------------------+
 
+--------------------+
| Loop number :    1 |
+--------------------+
 
Energies :
 Fermi                       :     0.290753374915    
 sum of eigenvalues          :     -21315.6038824    
 electron kinetic            :      39146.0756738    
 core electron kinetic       :      37838.3719115    
 Coulomb                     :     -73275.2999261    
 Coulomb potential           :     -59537.6961417    
 nuclear-nuclear             :     -2893.45034099    
 electron-nuclear            :     -81226.0030286    
 Hartree                     :      10844.1534435    
 Madelung                    :     -43506.4518553    
 xc potential                :     -923.983414505    
 exchange                    :     -688.377738432    
 correlation                 :     -9.40240979836    
 total energy                :     -34827.0044005    
 
Density of states at Fermi energy :    41.07477147    
 (states/Hartree/unit cell)
 
Estimated indirect band gap :   0.2210959707E-03
 from k-point    145 to k-point    208
Estimated direct band gap   :   0.2912212146E-02
 at k-point    145
 
Charges :
 core                        :    92.00000000    
 valence                     :    60.00000000    
 interstitial                :    4.000439713    
 muffin-tins (core leakage)
  species :    1 (Os)
   atom    1                 :    73.99978014     (  0.6303743803E-06)
   atom    2                 :    73.99978014     (  0.6303743803E-06)
 total in muffin-tins        :    147.9995603    
 total calculated charge     :    151.9996099    
 total charge                :    152.0000000    
 error                       :   0.3900599875E-03
 
Time (CPU seconds) :        94.10
 
+--------------------+
| Loop number :    2 |
+--------------------+
 
Energies :
 Fermi                       :     0.294820628561    
 sum of eigenvalues          :     -21313.3831639    
 electron kinetic            :      39148.2584318    
 core electron kinetic       :      37833.1257586    
 Coulomb                     :     -73272.7610855    
 Coulomb potential           :     -59537.7643757    
 nuclear-nuclear             :     -2893.45034099    
 electron-nuclear            :     -81220.8571134    
 Hartree                     :      10841.5463689    
 Madelung                    :     -43503.8788977    
 xc potential                :     -923.877220040    
 exchange                    :     -688.297515389    
 correlation                 :     -9.40221606097    
 total energy                :     -34822.2023852    
 
Density of states at Fermi energy :    38.58525361    
 (states/Hartree/unit cell)
 
Estimated indirect band gap :   0.1115366431E-03
 from k-point    145 to k-point    281
Estimated direct band gap   :   0.2958457400E-02
 at k-point    145
 
Charges :
 core                        :    92.00000000    
 valence                     :    60.00000000    
 interstitial                :    4.008597818    
 muffin-tins (core leakage)
  species :    1 (Os)
   atom    1                 :    73.99570109     (  0.6348251276E-06)
   atom    2                 :    73.99570109     (  0.6348251276E-06)
 total in muffin-tins        :    147.9914022    
 total calculated charge     :    151.9996081    
 total charge                :    152.0000000    
 error                       :   0.3919477665E-03
 
Wrote STATE.OUT
 
RMS change in Kohn-Sham potential (target) :    1.186476955     (   10.00000000    )
Absolute change in total energy (target)   :    4.802015360     (  0.1000000000E-07)
 
Time (CPU seconds) :       182.26
 
+--------------------+
| Loop number :    3 |
+--------------------+
 
Energies :
 Fermi                       :     0.313869745139    
 sum of eigenvalues          :     -21306.0477248    
 electron kinetic            :      39154.5332734    
 core electron kinetic       :      37788.5432845    
 Coulomb                     :     -73265.9317143    
 Coulomb potential           :     -59536.9571827    
 nuclear-nuclear             :     -2893.45034099    
 electron-nuclear            :     -81208.0055640    
 Hartree                     :      10835.5241907    
 Madelung                    :     -43497.4531230    
 xc potential                :     -923.623815468    
 exchange                    :     -688.107384834    
 correlation                 :     -9.40160278827    
 total energy                :     -34808.9074286    
 
Density of states at Fermi energy :    37.01332686    
 (states/Hartree/unit cell)
 
Estimated indirect band gap :   0.2500246639E-03
 from k-point    145 to k-point    208
Estimated direct band gap   :   0.3016370613E-02
 at k-point    145
 
Charges :
 core                        :    92.00000000    
 valence                     :    60.00000000    
 interstitial                :    4.018558328    
 muffin-tins (core leakage)
  species :    1 (Os)
   atom    1                 :    73.99072084     (  0.6463537403E-06)
   atom    2                 :    73.99072084     (  0.6463537403E-06)
 total in muffin-tins        :    147.9814417    
 total calculated charge     :    151.9996075    
 total charge                :    152.0000000    
 error                       :   0.3925371018E-03
 
RMS change in Kohn-Sham potential (target) :    1.123862694     (   10.00000000    )
Absolute change in total energy (target)   :    14.49546042     (  0.1000000000E-07)
 
Time (CPU seconds) :       272.82
 
+--------------------+
| Loop number :    4 |
+--------------------+
 
Energies :
 Fermi                       :     0.477218856802    
 sum of eigenvalues          :     -21246.3987682    
 electron kinetic            :      39207.1950713    
 core electron kinetic       :      37771.3642913    
 Coulomb                     :     -73212.7040525    
 Coulomb potential           :     -59531.9854464    
 nuclear-nuclear             :     -2893.45034099    
 electron-nuclear            :     -81106.5219767    
 Hartree                     :      10787.2682652    
 Madelung                    :     -43446.7113293    
 xc potential                :     -921.608393164    
 exchange                    :     -686.594767979    
 correlation                 :     -9.39729886150    
 total energy                :     -34701.5010480    
 
Density of states at Fermi energy :    46.66505012    
 (states/Hartree/unit cell)
 
Estimated indirect band gap :   0.5776512236E-03
 from k-point    205 to k-point     72
Estimated direct band gap   :   0.4275306508E-02
 at k-point    201
 
Charges :
 core                        :    92.00000000    
 valence                     :    60.00000000    
 interstitial                :    4.126765940    
 muffin-tins (core leakage)
  species :    1 (Os)
   atom    1                 :    73.93661703     (  0.7639619071E-06)
   atom    2                 :    73.93661703     (  0.7639619071E-06)
 total in muffin-tins        :    147.8732341    
 total calculated charge     :    151.9996033    
 total charge                :    152.0000000    
 error                       :   0.3966564921E-03
 
Wrote STATE.OUT
 
RMS change in Kohn-Sham potential (target) :   0.6131438761     (   10.00000000    )
Absolute change in total energy (target)   :    111.0302456     (  0.1000000000E-07)
 
Time (CPU seconds) :       362.91
 
+--------------------+
| Loop number :    5 |
+--------------------+
 
Energies :
 Fermi                       :     0.601720182243    
 sum of eigenvalues          :     -21202.4581439    
 electron kinetic            :      39246.8356981    
 core electron kinetic       :      37770.0461269    
 Coulomb                     :     -73174.4783544    
 Coulomb potential           :     -59529.1549690    
 nuclear-nuclear             :     -2893.45034099    
 electron-nuclear            :     -81032.9010578    
 Hartree                     :      10751.8730444    
 Madelung                    :     -43409.9008699    
 xc potential                :     -920.138873089    
 exchange                    :     -685.491812638    
 correlation                 :     -9.39433524497    
 total energy                :     -34622.5288041    
 
Density of states at Fermi energy :    51.51095040    
 (states/Hartree/unit cell)
 
Estimated indirect band gap :   0.5589622593E-03
 from k-point    182 to k-point    145
Estimated direct band gap   :   0.4126738095E-02
 at k-point    201
 
Charges :
 core                        :    92.00000000    
 valence                     :    60.00000000    
 interstitial                :    4.217796341    
 muffin-tins (core leakage)
  species :    1 (Os)
   atom    1                 :    73.89110183     (  0.8900430544E-06)
   atom    2                 :    73.89110183     (  0.8900430544E-06)
 total in muffin-tins        :    147.7822037    
 total calculated charge     :    151.9995994    
 total charge                :    152.0000000    
 error                       :   0.4006237277E-03
 
RMS change in Kohn-Sham potential (target) :   0.2330930206     (   10.00000000    )
Absolute change in total energy (target)   :    106.7298053     (  0.1000000000E-07)
 
Time (CPU seconds) :       453.48
 
+--------------------+
| Loop number :    6 |
+--------------------+
 
Energies :
 Fermi                       :     0.657012802887    
 sum of eigenvalues          :     -21183.6193560    
 electron kinetic            :      39264.0507841    
 core electron kinetic       :      37770.1364411    
 Coulomb                     :     -73158.5214697    
 Coulomb potential           :     -59528.1496091    
 nuclear-nuclear             :     -2893.45034099    
 electron-nuclear            :     -81001.9926482    
 Hartree                     :      10736.9215195    
 Madelung                    :     -43394.4466651    
 xc potential                :     -919.520530968    
 exchange                    :     -685.027937309    
 correlation                 :     -9.39306973888    
 total energy                :     -34588.8916926    
 
Density of states at Fermi energy :    52.77466915    
 (states/Hartree/unit cell)
 
Estimated indirect band gap :   0.1644602377E-03
 from k-point      6 to k-point    254
Estimated direct band gap   :   0.7032545381E-02
 at k-point    209
 
Charges :
 core                        :    92.00000000    
 valence                     :    60.00000000    
 interstitial                :    4.257299829    
 muffin-tins (core leakage)
  species :    1 (Os)
   atom    1                 :    73.87135009     (  0.9147253337E-06)
   atom    2                 :    73.87135009     (  0.9147253337E-06)
 total in muffin-tins        :    147.7427002    
 total calculated charge     :    151.9995977    
 total charge                :    152.0000000    
 error                       :   0.4022507671E-03
 
Wrote STATE.OUT
 
RMS change in Kohn-Sham potential (target) :   0.6732947623E-01 (   10.00000000    )
Absolute change in total energy (target)   :    60.31956287     (  0.1000000000E-07)
 
Time (CPU seconds) :       543.95
 
+--------------------+
| Loop number :    7 |
+--------------------+
 
Energies :
 Fermi                       :     0.679556986856    
 sum of eigenvalues          :     -21176.0127951    
 electron kinetic            :      39271.0619303    
 core electron kinetic       :      37772.6827191    
 Coulomb                     :     -73152.1073290    
 Coulomb potential           :     -59527.8045216    
 nuclear-nuclear             :     -2893.45034099    
 electron-nuclear            :     -80989.5094544    
 Hartree                     :      10730.8524664    
 Madelung                    :     -43388.2050682    
 xc potential                :     -919.270203745    
 exchange                    :     -684.840168535    
 correlation                 :     -9.39254744013    
 total energy                :     -34575.2781146    
 
Density of states at Fermi energy :    52.46469064    
 (states/Hartree/unit cell)
 
Estimated indirect band gap :   0.2429698827E-03
 from k-point      6 to k-point    201
Estimated direct band gap   :   0.7025726201E-02
 at k-point    209
 
Charges :
 core                        :    92.00000000    
 valence                     :    60.00000000    
 interstitial                :    4.273314631    
 muffin-tins (core leakage)
  species :    1 (Os)
   atom    1                 :    73.86334268     (  0.9394949316E-06)
   atom    2                 :    73.86334268     (  0.9394949316E-06)
 total in muffin-tins        :    147.7266854    
 total calculated charge     :    151.9995971    
 total charge                :    152.0000000    
 error                       :   0.4028870694E-03
 
RMS change in Kohn-Sham potential (target) :   0.2334299078E-02 (   10.00000000    )
Absolute change in total energy (target)   :    28.69346866     (  0.1000000000E-07)
 
Time (CPU seconds) :       635.59
 
+--------------------+
| Loop number :    8 |
+--------------------+
 
Energies :
 Fermi                       :     0.679779479828    
 sum of eigenvalues          :     -21176.1137610    
 electron kinetic            :      39271.0528231    
 core electron kinetic       :      37772.7546041    
 Coulomb                     :     -73152.3188912    
 Coulomb potential           :     -59527.8902663    
 nuclear-nuclear             :     -2893.45034099    
 electron-nuclear            :     -80989.8468341    
 Hartree                     :      10730.9782839    
 Madelung                    :     -43388.3737580    
 xc potential                :     -919.276317759    
 exchange                    :     -684.844821012    
 correlation                 :     -9.39256943879    
 total energy                :     -34575.5034586    
 
Density of states at Fermi energy :    52.33748874    
 (states/Hartree/unit cell)
 
Estimated indirect band gap :   0.2422275364E-03
 from k-point      6 to k-point    201
Estimated direct band gap   :   0.7024582318E-02
 at k-point    209
 
Charges :
 core                        :    92.00000000    
 valence                     :    60.00000000    
 interstitial                :    4.273682212    
 muffin-tins (core leakage)
  species :    1 (Os)
   atom    1                 :    73.86315889     (  0.9391264015E-06)
   atom    2                 :    73.86315889     (  0.9391264015E-06)
 total in muffin-tins        :    147.7263178    
 total calculated charge     :    151.9995970    
 total charge                :    152.0000000    
 error                       :   0.4029756256E-03
 
Wrote STATE.OUT
 
RMS change in Kohn-Sham potential (target) :   0.7099837182E-03 (   10.00000000    )
Absolute change in total energy (target)   :    6.948023237     (  0.1000000000E-07)
 
Time (CPU seconds) :       729.47
 
+--------------------+
| Loop number :    9 |
+--------------------+
 
Energies :
 Fermi                       :     0.679916774345    
 sum of eigenvalues          :     -21176.1208875    
 electron kinetic            :      39271.0909444    
 core electron kinetic       :      37772.8045773    
 Coulomb                     :     -73152.3570753    
 Coulomb potential           :     -59527.9353316    
 nuclear-nuclear             :     -2893.45034099    
 electron-nuclear            :     -80989.8781370    
 Hartree                     :      10730.9714027    
 Madelung                    :     -43388.3894095    
 xc potential                :     -919.276500230    
 exchange                    :     -684.844986009    
 correlation                 :     -9.39257179626    
 total energy                :     -34575.5036887    
 
Density of states at Fermi energy :    52.25692374    
 (states/Hartree/unit cell)
 
Estimated indirect band gap :   0.2419212422E-03
 from k-point      6 to k-point    201
Estimated direct band gap   :   0.7024075355E-02
 at k-point    209
 
Charges :
 core                        :    92.00000000    
 valence                     :    60.00000000    
 interstitial                :    4.273945184    
 muffin-tins (core leakage)
  species :    1 (Os)
   atom    1                 :    73.86302741     (  0.9393105458E-06)
   atom    2                 :    73.86302741     (  0.9393105458E-06)
 total in muffin-tins        :    147.7260548    
 total calculated charge     :    151.9995971    
 total charge                :    152.0000000    
 error                       :   0.4029468195E-03
 
RMS change in Kohn-Sham potential (target) :   0.2060277858E-03 (   10.00000000    )
Absolute change in total energy (target)   :    1.736775687     (  0.1000000000E-07)
 
Time (CPU seconds) :       824.29
 
+--------------------+
| Loop number :   10 |
+--------------------+
 
Energies :
 Fermi                       :     0.679911889298    
 sum of eigenvalues          :     -21176.1373237    
 electron kinetic            :      39271.0914618    
 core electron kinetic       :      37772.8126128    
 Coulomb                     :     -73152.3759750    
 Coulomb potential           :     -59527.9520103    
 nuclear-nuclear             :     -2893.45034099    
 electron-nuclear            :     -80989.8992577    
 Hartree                     :      10730.9736237    
 Madelung                    :     -43388.3999698    
 xc potential                :     -919.276775177    
 exchange                    :     -684.845208882    
 correlation                 :     -9.39257154943    
 total energy                :     -34575.5222936    
 
Density of states at Fermi energy :    52.22861492    
 (states/Hartree/unit cell)
 
Estimated indirect band gap :   0.2415314397E-03
 from k-point      6 to k-point    201
Estimated direct band gap   :   0.7023963202E-02
 at k-point    209
 
Charges :
 core                        :    92.00000000    
 valence                     :    60.00000000    
 interstitial                :    4.273969359    
 muffin-tins (core leakage)
  species :    1 (Os)
   atom    1                 :    73.86301532     (  0.9394111302E-06)
   atom    2                 :    73.86301532     (  0.9394111302E-06)
 total in muffin-tins        :    147.7260306    
 total calculated charge     :    151.9995971    
 total charge                :    152.0000000    
 error                       :   0.4029312393E-03
 
Wrote STATE.OUT
 
RMS change in Kohn-Sham potential (target) :   0.6477722316E-04 (   10.00000000    )
Absolute change in total energy (target)   :   0.4155889848     (  0.1000000000E-07)
 
Time (CPU seconds) :       917.18
 
+--------------------+
| Loop number :   11 |
+--------------------+
 
Energies :
 Fermi                       :     0.679900871839    
 sum of eigenvalues          :     -21176.1400524    
 electron kinetic            :      39271.0887663    
 core electron kinetic       :      37772.8110718    
 Coulomb                     :     -73152.3761257    
 Coulomb potential           :     -59527.9520255    
 nuclear-nuclear             :     -2893.45034099    
 electron-nuclear            :     -80989.8995440    
 Hartree                     :      10730.9737592    
 Madelung                    :     -43388.4001130    
 xc potential                :     -919.276793169    
 exchange                    :     -684.845227307    
 correlation                 :     -9.39257129265    
 total energy                :     -34575.5251580    
 
Density of states at Fermi energy :    52.22638750    
 (states/Hartree/unit cell)
 
Estimated indirect band gap :   0.2413491789E-03
 from k-point      6 to k-point    201
Estimated direct band gap   :   0.7023995946E-02
 at k-point    209
 
Charges :
 core                        :    92.00000000    
 valence                     :    60.00000000    
 interstitial                :    4.273961993    
 muffin-tins (core leakage)
  species :    1 (Os)
   atom    1                 :    73.86301900     (  0.9394462239E-06)
   atom    2                 :    73.86301900     (  0.9394462239E-06)
 total in muffin-tins        :    147.7260380    
 total calculated charge     :    151.9995971    
 total charge                :    152.0000000    
 error                       :   0.4029271996E-03
 
RMS change in Kohn-Sham potential (target) :   0.3376118482E-04 (   10.00000000    )
Absolute change in total energy (target)   :   0.1010328413     (  0.1000000000E-07)
 
Time (CPU seconds) :      1008.90
 
+--------------------+
| Loop number :   12 |
+--------------------+
 
Energies :
 Fermi                       :     0.679901131572    
 sum of eigenvalues          :     -21176.1398050    
 electron kinetic            :      39271.0887752    
 core electron kinetic       :      37772.8096435    
 Coulomb                     :     -73152.3757734    
 Coulomb potential           :     -59527.9517912    
 nuclear-nuclear             :     -2893.45034099    
 electron-nuclear            :     -80989.8990737    
 Hartree                     :      10730.9736412    
 Madelung                    :     -43388.3998778    
 xc potential                :     -919.276788941    
 exchange                    :     -684.845224935    
 correlation                 :     -9.39257139769    
 total energy                :     -34575.5247946    
 
Density of states at Fermi energy :    52.22586386    
 (states/Hartree/unit cell)
 
Estimated indirect band gap :   0.2413164879E-03
 from k-point      6 to k-point    201
Estimated direct band gap   :   0.7024003478E-02
 at k-point    209
 
Charges :
 core                        :    92.00000000    
 valence                     :    60.00000000    
 interstitial                :    4.273967596    
 muffin-tins (core leakage)
  species :    1 (Os)
   atom    1                 :    73.86301620     (  0.9393271156E-06)
   atom    2                 :    73.86301620     (  0.9393271156E-06)
 total in muffin-tins        :    147.7260324    
 total calculated charge     :    151.9995971    
 total charge                :    152.0000000    
 error                       :   0.4029261607E-03
 
Wrote STATE.OUT
 
RMS change in Kohn-Sham potential (target) :   0.4639065174E-04 (   10.00000000    )
Absolute change in total energy (target)   :   0.2562166881E-01 (  0.1000000000E-07)
 
Time (CPU seconds) :      1101.87
 
+--------------------+
| Loop number :   13 |
+--------------------+
 
Energies :
 Fermi                       :     0.679902486239    
 sum of eigenvalues          :     -21176.1383298    
 electron kinetic            :      39271.0889911    
 core electron kinetic       :      37772.8088286    
 Coulomb                     :     -73152.3742558    
 Coulomb potential           :     -59527.9505552    
 nuclear-nuclear             :     -2893.45034099    
 electron-nuclear            :     -80989.8972744    
 Hartree                     :      10730.9733596    
 Madelung                    :     -43388.3989782    
 xc potential                :     -919.276765757    
 exchange                    :     -684.845206875    
 correlation                 :     -9.39257153650    
 total energy                :     -34575.5230431    
 
Density of states at Fermi energy :    52.22726693    
 (states/Hartree/unit cell)
 
Estimated indirect band gap :   0.2413207874E-03
 from k-point      6 to k-point    201
Estimated direct band gap   :   0.7024015052E-02
 at k-point    209
 
Charges :
 core                        :    92.00000000    
 valence                     :    60.00000000    
 interstitial                :    4.273972791    
 muffin-tins (core leakage)
  species :    1 (Os)
   atom    1                 :    73.86301360     (  0.9393594169E-06)
   atom    2                 :    73.86301360     (  0.9393594169E-06)
 total in muffin-tins        :    147.7260272    
 total calculated charge     :    151.9995971    
 total charge                :    152.0000000    
 error                       :   0.4029269137E-03
 
RMS change in Kohn-Sham potential (target) :   0.1279251621E-04 (   10.00000000    )
Absolute change in total energy (target)   :   0.8156905060E-02 (  0.1000000000E-07)
 
Time (CPU seconds) :      1192.83
 
+--------------------+
| Loop number :   14 |
+--------------------+
 
Energies :
 Fermi                       :     0.679904011280    
 sum of eigenvalues          :     -21176.1377306    
 electron kinetic            :      39271.0893012    
 core electron kinetic       :      37772.8088306    
 Coulomb                     :     -73152.3738992    
 Coulomb potential           :     -59527.9502713    
 nuclear-nuclear             :     -2893.45034099    
 electron-nuclear            :     -80989.8968451    
 Hartree                     :      10730.9732869    
 Madelung                    :     -43388.3987635    
 xc potential                :     -919.276760478    
 exchange                    :     -684.845202835    
 correlation                 :     -9.39257161447    
 total energy                :     -34575.5223725    
 
Density of states at Fermi energy :    52.22750671    
 (states/Hartree/unit cell)
 
Estimated indirect band gap :   0.2413127304E-03
 from k-point      6 to k-point    201
Estimated direct band gap   :   0.7024018071E-02
 at k-point    209
 
Charges :
 core                        :    92.00000000    
 valence                     :    60.00000000    
 interstitial                :    4.273976399    
 muffin-tins (core leakage)
  species :    1 (Os)
   atom    1                 :    73.86301180     (  0.9394496558E-06)
   atom    2                 :    73.86301180     (  0.9394496558E-06)
 total in muffin-tins        :    147.7260236    
 total calculated charge     :    151.9995971    
 total charge                :    152.0000000    
 error                       :   0.4029272604E-03
 
Wrote STATE.OUT
 
RMS change in Kohn-Sham potential (target) :   0.7927380994E-05 (   10.00000000    )
Absolute change in total energy (target)   :   0.2709855107E-02 (  0.1000000000E-07)
 
Time (CPU seconds) :      1283.89
 
+--------------------+
| Loop number :   15 |
+--------------------+
 
Energies :
 Fermi                       :     0.679904168721    
 sum of eigenvalues          :     -21176.1376312    
 electron kinetic            :      39271.0893469    
 core electron kinetic       :      37772.8088027    
 Coulomb                     :     -73152.3738422    
 Coulomb potential           :     -59527.9502187    
 nuclear-nuclear             :     -2893.45034099    
 electron-nuclear            :     -80989.8967837    
 Hartree                     :      10730.9732825    
 Madelung                    :     -43388.3987329    
 xc potential                :     -919.276759356    
 exchange                    :     -684.845201921    
 correlation                 :     -9.39257162027    
 total energy                :     -34575.5222689    
 
Density of states at Fermi energy :    52.22763810    
 (states/Hartree/unit cell)
 
Estimated indirect band gap :   0.2413104366E-03
 from k-point      6 to k-point    201
Estimated direct band gap   :   0.7024019025E-02
 at k-point    209
 
Charges :
 core                        :    92.00000000    
 valence                     :    60.00000000    
 interstitial                :    4.273976625    
 muffin-tins (core leakage)
  species :    1 (Os)
   atom    1                 :    73.86301169     (  0.9394306204E-06)
   atom    2                 :    73.86301169     (  0.9394306204E-06)
 total in muffin-tins        :    147.7260234    
 total calculated charge     :    151.9995971    
 total charge                :    152.0000000    
 error                       :   0.4029273118E-03
 
RMS change in Kohn-Sham potential (target) :   0.2265170625E-04 (   10.00000000    )
Absolute change in total energy (target)   :   0.7810598181E-03 (  0.1000000000E-07)
 
Time (CPU seconds) :      1373.15
 
+--------------------+
| Loop number :   16 |
+--------------------+
 
Energies :
 Fermi                       :     0.679904200240    
 sum of eigenvalues          :     -21176.1375924    
 electron kinetic            :      39271.0893536    
 core electron kinetic       :      37772.8087512    
 Coulomb                     :     -73152.3737958    
 Coulomb potential           :     -59527.9501871    
 nuclear-nuclear             :     -2893.45034099    
 electron-nuclear            :     -80989.8967224    
 Hartree                     :      10730.9732676    
 Madelung                    :     -43388.3987022    
 xc potential                :     -919.276758846    
 exchange                    :     -684.845201515    
 correlation                 :     -9.39257161668    
 total energy                :     -34575.5222153    
 
Density of states at Fermi energy :    52.22772201    
 (states/Hartree/unit cell)
 
Estimated indirect band gap :   0.2413096661E-03
 from k-point      6 to k-point    201
Estimated direct band gap   :   0.7024019453E-02
 at k-point    209
 
Charges :
 core                        :    92.00000000    
 valence                     :    60.00000000    
 interstitial                :    4.273976479    
 muffin-tins (core leakage)
  species :    1 (Os)
   atom    1                 :    73.86301176     (  0.9393206568E-06)
   atom    2                 :    73.86301176     (  0.9393206568E-06)
 total in muffin-tins        :    147.7260235    
 total calculated charge     :    151.9995971    
 total charge                :    152.0000000    
 error                       :   0.4029271469E-03
 
Wrote STATE.OUT
 
RMS change in Kohn-Sham potential (target) :   0.1702528430E-04 (   10.00000000    )
Absolute change in total energy (target)   :   0.2488752070E-03 (  0.1000000000E-07)
 
Time (CPU seconds) :      1463.92
 
+--------------------+
| Loop number :   17 |
+--------------------+
 
Energies :
 Fermi                       :     0.679904501091    
 sum of eigenvalues          :     -21176.1375284    
 electron kinetic            :      39271.0894228    
 core electron kinetic       :      37772.8087360    
 Coulomb                     :     -73152.3737882    
 Coulomb potential           :     -59527.9501924    
 nuclear-nuclear             :     -2893.45034099    
 electron-nuclear            :     -80989.8967020    
 Hartree                     :      10730.9732548    
 Madelung                    :     -43388.3986920    
 xc potential                :     -919.276758787    
 exchange                    :     -684.845201549    
 correlation                 :     -9.39257162435    
 total energy                :     -34575.5221385    
 
Density of states at Fermi energy :    52.22770038    
 (states/Hartree/unit cell)
 
Estimated indirect band gap :   0.2413022174E-03
 from k-point      6 to k-point    201
Estimated direct band gap   :   0.7024020615E-02
 at k-point    209
 
Charges :
 core                        :    92.00000000    
 valence                     :    60.00000000    
 interstitial                :    4.273977027    
 muffin-tins (core leakage)
  species :    1 (Os)
   atom    1                 :    73.86301149     (  0.9393337166E-06)
   atom    2                 :    73.86301149     (  0.9393337166E-06)
 total in muffin-tins        :    147.7260230    
 total calculated charge     :    151.9995971    
 total charge                :    152.0000000    
 error                       :   0.4029271595E-03
 
RMS change in Kohn-Sham potential (target) :   0.3791523217E-05 (   10.00000000    )
Absolute change in total energy (target)   :   0.1389626414E-03 (  0.1000000000E-07)
 
Time (CPU seconds) :      1557.20
 
+--------------------+
| Loop number :   18 |
+--------------------+
 
Energies :
 Fermi                       :     0.679904620674    
 sum of eigenvalues          :     -21176.1374562    
 electron kinetic            :      39271.0894461    
 core electron kinetic       :      37772.8087258    
 Coulomb                     :     -73152.3737437    
 Coulomb potential           :     -59527.9501443    
 nuclear-nuclear             :     -2893.45034099    
 electron-nuclear            :     -80989.8966611    
 Hartree                     :      10730.9732584    
 Madelung                    :     -43388.3986715    
 xc potential                :     -919.276757988    
 exchange                    :     -684.845200925    
 correlation                 :     -9.39257161943    
 total energy                :     -34575.5220701    
 
Density of states at Fermi energy :    52.22782148    
 (states/Hartree/unit cell)
 
Estimated indirect band gap :   0.2413012251E-03
 from k-point      6 to k-point    201
Estimated direct band gap   :   0.7024021276E-02
 at k-point    209
 
Charges :
 core                        :    92.00000000    
 valence                     :    60.00000000    
 interstitial                :    4.273976855    
 muffin-tins (core leakage)
  species :    1 (Os)
   atom    1                 :    73.86301157     (  0.9393611506E-06)
   atom    2                 :    73.86301157     (  0.9393611506E-06)
 total in muffin-tins        :    147.7260231    
 total calculated charge     :    151.9995971    
 total charge                :    152.0000000    
 error                       :   0.4029272679E-03
 
Wrote STATE.OUT
 
RMS change in Kohn-Sham potential (target) :   0.9418541487E-05 (   10.00000000    )
Absolute change in total energy (target)   :   0.1031448337E-03 (  0.1000000000E-07)
 
Time (CPU seconds) :      1649.86
 
+--------------------+
| Loop number :   19 |
+--------------------+
 
Energies :
 Fermi                       :     0.679904645998    
 sum of eigenvalues          :     -21176.1374452    
 electron kinetic            :      39271.0894512    
 core electron kinetic       :      37772.8087170    
 Coulomb                     :     -73152.3737306    
 Coulomb potential           :     -59527.9501386    
 nuclear-nuclear             :     -2893.45034099    
 electron-nuclear            :     -80989.8966406    
 Hartree                     :      10730.9732510    
 Madelung                    :     -43388.3986613    
 xc potential                :     -919.276757880    
 exchange                    :     -684.845200822    
 correlation                 :     -9.39257161997    
 total energy                :     -34575.5220518    
 
Density of states at Fermi energy :    52.22784559    
 (states/Hartree/unit cell)
 
Estimated indirect band gap :   0.2413002191E-03
 from k-point      6 to k-point    201
Estimated direct band gap   :   0.7024021590E-02
 at k-point    209
 
Charges :
 core                        :    92.00000000    
 valence                     :    60.00000000    
 interstitial                :    4.273976793    
 muffin-tins (core leakage)
  species :    1 (Os)
   atom    1                 :    73.86301160     (  0.9394775020E-06)
   atom    2                 :    73.86301160     (  0.9394775020E-06)
 total in muffin-tins        :    147.7260232    
 total calculated charge     :    151.9995971    
 total charge                :    152.0000000    
 error                       :   0.4029274966E-03
 
RMS change in Kohn-Sham potential (target) :   0.9600662335E-05 (   10.00000000    )
Absolute change in total energy (target)   :   0.4410614201E-04 (  0.1000000000E-07)
 
Time (CPU seconds) :      1739.25
 
+--------------------+
| Loop number :   20 |
+--------------------+
 
Energies :
 Fermi                       :     0.679904654401    
 sum of eigenvalues          :     -21176.1374336    
 electron kinetic            :      39271.0894544    
 core electron kinetic       :      37772.8087059    
 Coulomb                     :     -73152.3737265    
 Coulomb potential           :     -59527.9501303    
 nuclear-nuclear             :     -2893.45034099    
 electron-nuclear            :     -80989.8966406    
 Hartree                     :      10730.9732551    
 Madelung                    :     -43388.3986613    
 xc potential                :     -919.276757714    
 exchange                    :     -684.845200704    
 correlation                 :     -9.39257161338    
 total energy                :     -34575.5220443    
 
Density of states at Fermi energy :    52.22788829    
 (states/Hartree/unit cell)
 
Estimated indirect band gap :   0.2413003410E-03
 from k-point      6 to k-point    201
Estimated direct band gap   :   0.7024021769E-02
 at k-point    209
 
Charges :
 core                        :    92.00000000    
 valence                     :    60.00000000    
 interstitial                :    4.273976623    
 muffin-tins (core leakage)
  species :    1 (Os)
   atom    1                 :    73.86301169     (  0.9394820708E-06)
   atom    2                 :    73.86301169     (  0.9394820708E-06)
 total in muffin-tins        :    147.7260234    
 total calculated charge     :    151.9995971    
 total charge                :    152.0000000    
 error                       :   0.4029275310E-03
 
Wrote STATE.OUT
 
RMS change in Kohn-Sham potential (target) :   0.4216797466E-04 (   10.00000000    )
Absolute change in total energy (target)   :   0.1846646774E-04 (  0.1000000000E-07)
 
Time (CPU seconds) :      1826.82
 
+--------------------+
| Loop number :   21 |
+--------------------+
 
Energies :
 Fermi                       :     0.679904645146    
 sum of eigenvalues          :     -21176.1374232    
 electron kinetic            :      39271.0894513    
 core electron kinetic       :      37772.8086898    
 Coulomb                     :     -73152.3737198    
 Coulomb potential           :     -59527.9501170    
 nuclear-nuclear             :     -2893.45034099    
 electron-nuclear            :     -80989.8966406    
 Hartree                     :      10730.9732618    
 Madelung                    :     -43388.3986613    
 xc potential                :     -919.276757506    
 exchange                    :     -684.845200502    
 correlation                 :     -9.39257161360    
 total energy                :     -34575.5220406    
 
Density of states at Fermi energy :    52.22792914    
 (states/Hartree/unit cell)
 
Estimated indirect band gap :   0.2413013626E-03
 from k-point      6 to k-point    201
Estimated direct band gap   :   0.7024021732E-02
 at k-point    209
 
Charges :
 core                        :    92.00000000    
 valence                     :    60.00000000    
 interstitial                :    4.273976467    
 muffin-tins (core leakage)
  species :    1 (Os)
   atom    1                 :    73.86301177     (  0.9393263625E-06)
   atom    2                 :    73.86301177     (  0.9393263625E-06)
 total in muffin-tins        :    147.7260235    
 total calculated charge     :    151.9995971    
 total charge                :    152.0000000    
 error                       :   0.4029272827E-03
 
RMS change in Kohn-Sham potential (target) :   0.2129166397E-05 (   10.00000000    )
Absolute change in total energy (target)   :   0.8379836800E-05 (  0.1000000000E-07)
 
Time (CPU seconds) :      1918.16
 
+--------------------+
| Loop number :   22 |
+--------------------+
 
Energies :
 Fermi                       :     0.679904684262    
 sum of eigenvalues          :     -21176.1374113    
 electron kinetic            :      39271.0894583    
 core electron kinetic       :      37772.8086940    
 Coulomb                     :     -73152.3736970    
 Coulomb potential           :     -59527.9501123    
 nuclear-nuclear             :     -2893.45034099    
 electron-nuclear            :     -80989.8965997    
 Hartree                     :      10730.9732437    
 Madelung                    :     -43388.3986409    
 xc potential                :     -919.276757404    
 exchange                    :     -684.845200403    
 correlation                 :     -9.39257161489    
 total energy                :     -34575.5220107    
 
Density of states at Fermi energy :    52.22794833    
 (states/Hartree/unit cell)
 
Estimated indirect band gap :   0.2413008632E-03
 from k-point      6 to k-point    201
Estimated direct band gap   :   0.7024021919E-02
 at k-point    209
 
Charges :
 core                        :    92.00000000    
 valence                     :    60.00000000    
 interstitial                :    4.273976429    
 muffin-tins (core leakage)
  species :    1 (Os)
   atom    1                 :    73.86301179     (  0.9398463590E-06)
   atom    2                 :    73.86301179     (  0.9398463590E-06)
 total in muffin-tins        :    147.7260236    
 total calculated charge     :    151.9995971    
 total charge                :    152.0000000    
 error                       :   0.4029282963E-03
 
Wrote STATE.OUT
 
RMS change in Kohn-Sham potential (target) :   0.3087372770E-05 (   10.00000000    )
Absolute change in total energy (target)   :   0.3201262007E-04 (  0.1000000000E-07)
 
Time (CPU seconds) :      2008.32
 
+--------------------+
| Loop number :   23 |
+--------------------+
 
Energies :
 Fermi                       :     0.679904696591    
 sum of eigenvalues          :     -21176.1374122    
 electron kinetic            :      39271.0894622    
 core electron kinetic       :      37772.8087005    
 Coulomb                     :     -73152.3737095    
 Coulomb potential           :     -59527.9501169    
 nuclear-nuclear             :     -2893.45034099    
 electron-nuclear            :     -80989.8966202    
 Hartree                     :      10730.9732516    
 Madelung                    :     -43388.3986511    
 xc potential                :     -919.276757479    
 exchange                    :     -684.845200513    
 correlation                 :     -9.39257160911    
 total energy                :     -34575.5220195    
 
Density of states at Fermi energy :    52.22794249    
 (states/Hartree/unit cell)
 
Estimated indirect band gap :   0.2413004632E-03
 from k-point      6 to k-point    201
Estimated direct band gap   :   0.7024021984E-02
 at k-point    209
 
Charges :
 core                        :    92.00000000    
 valence                     :    60.00000000    
 interstitial                :    4.273976454    
 muffin-tins (core leakage)
  species :    1 (Os)
   atom    1                 :    73.86301177     (  0.9393902971E-06)
   atom    2                 :    73.86301177     (  0.9393902971E-06)
 total in muffin-tins        :    147.7260235    
 total calculated charge     :    151.9995971    
 total charge                :    152.0000000    
 error                       :   0.4029274086E-03
 
RMS change in Kohn-Sham potential (target) :   0.6911671419E-05 (   10.00000000    )
Absolute change in total energy (target)   :   0.7888156688E-06 (  0.1000000000E-07)
 
Time (CPU seconds) :      2098.38
 
+--------------------+
| Loop number :   24 |
+--------------------+
 
Energies :
 Fermi                       :     0.679904698161    
 sum of eigenvalues          :     -21176.1374143    
 electron kinetic            :      39271.0894632    
 core electron kinetic       :      37772.8087036    
 Coulomb                     :     -73152.3737111    
 Coulomb potential           :     -59527.9501200    
 nuclear-nuclear             :     -2893.45034099    
 electron-nuclear            :     -80989.8966202    
 Hartree                     :      10730.9732501    
 Madelung                    :     -43388.3986511    
 xc potential                :     -919.276757523    
 exchange                    :     -684.845200536    
 correlation                 :     -9.39257161176    
 total energy                :     -34575.5220200    
 
Density of states at Fermi energy :    52.22793796    
 (states/Hartree/unit cell)
 
Estimated indirect band gap :   0.2413003020E-03
 from k-point      6 to k-point    201
Estimated direct band gap   :   0.7024022008E-02
 at k-point    209
 
Charges :
 core                        :    92.00000000    
 valence                     :    60.00000000    
 interstitial                :    4.273976468    
 muffin-tins (core leakage)
  species :    1 (Os)
   atom    1                 :    73.86301177     (  0.9393619749E-06)
   atom    2                 :    73.86301177     (  0.9393619749E-06)
 total in muffin-tins        :    147.7260235    
 total calculated charge     :    151.9995971    
 total charge                :    152.0000000    
 error                       :   0.4029273665E-03
 
Wrote STATE.OUT
 
RMS change in Kohn-Sham potential (target) :   0.1230144513E-04 (   10.00000000    )
Absolute change in total energy (target)   :   0.7170601748E-06 (  0.1000000000E-07)
 
Time (CPU seconds) :      2188.63
 
+--------------------+
| Loop number :   25 |
+--------------------+
 
Energies :
 Fermi                       :     0.679904698393    
 sum of eigenvalues          :     -21176.1374155    
 electron kinetic            :      39271.0894625    
 core electron kinetic       :      37772.8087052    
 Coulomb                     :     -73152.3737113    
 Coulomb potential           :     -59527.9501205    
 nuclear-nuclear             :     -2893.45034099    
 electron-nuclear            :     -80989.8966202    
 Hartree                     :      10730.9732498    
 Madelung                    :     -43388.3986511    
 xc potential                :     -919.276757531    
 exchange                    :     -684.845200545    
 correlation                 :     -9.39257161252    
 total energy                :     -34575.5220210    
 
Density of states at Fermi energy :    52.22793473    
 (states/Hartree/unit cell)
 
Estimated indirect band gap :   0.2413002163E-03
 from k-point      6 to k-point    201
Estimated direct band gap   :   0.7024022017E-02
 at k-point    209
 
Charges :
 core                        :    92.00000000    
 valence                     :    60.00000000    
 interstitial                :    4.273976479    
 muffin-tins (core leakage)
  species :    1 (Os)
   atom    1                 :    73.86301176     (  0.9392665348E-06)
   atom    2                 :    73.86301176     (  0.9392665348E-06)
 total in muffin-tins        :    147.7260235    
 total calculated charge     :    151.9995971    
 total charge                :    152.0000000    
 error                       :   0.4029271666E-03
 
RMS change in Kohn-Sham potential (target) :   0.2530558126E-04 (   10.00000000    )
Absolute change in total energy (target)   :   0.1172564225E-05 (  0.1000000000E-07)
 
Time (CPU seconds) :      2279.40
 
+--------------------+
| Loop number :   26 |
+--------------------+
 
Energies :
 Fermi                       :     0.679904690541    
 sum of eigenvalues          :     -21176.1374181    
 electron kinetic            :      39271.0894618    
 core electron kinetic       :      37772.8087036    
 Coulomb                     :     -73152.3737224    
 Coulomb potential           :     -59527.9501223    
 nuclear-nuclear             :     -2893.45034099    
 electron-nuclear            :     -80989.8966406    
 Hartree                     :      10730.9732592    
 Madelung                    :     -43388.3986613    
 xc potential                :     -919.276757563    
 exchange                    :     -684.845200566    
 correlation                 :     -9.39257161283    
 total energy                :     -34575.5220329    
 
Density of states at Fermi energy :    52.22792895    
 (states/Hartree/unit cell)
 
Estimated indirect band gap :   0.2413002623E-03
 from k-point      6 to k-point    201
Estimated direct band gap   :   0.7024021978E-02
 at k-point    209
 
Charges :
 core                        :    92.00000000    
 valence                     :    60.00000000    
 interstitial                :    4.273976496    
 muffin-tins (core leakage)
  species :    1 (Os)
   atom    1                 :    73.86301175     (  0.9393725549E-06)
   atom    2                 :    73.86301175     (  0.9393725549E-06)
 total in muffin-tins        :    147.7260235    
 total calculated charge     :    151.9995971    
 total charge                :    152.0000000    
 error                       :   0.4029273713E-03
 
Wrote STATE.OUT
 
RMS change in Kohn-Sham potential (target) :   0.1518164215E-04 (   10.00000000    )
Absolute change in total energy (target)   :   0.1218574471E-04 (  0.1000000000E-07)
 
Time (CPU seconds) :      2370.82
 
+--------------------+
| Loop number :   27 |
+--------------------+
 
Energies :
 Fermi                       :     0.679904698206    
 sum of eigenvalues          :     -21176.1374157    
 electron kinetic            :      39271.0894635    
 core electron kinetic       :      37772.8087045    
 Coulomb                     :     -73152.3737221    
 Coulomb potential           :     -59527.9501217    
 nuclear-nuclear             :     -2893.45034099    
 electron-nuclear            :     -80989.8966406    
 Hartree                     :      10730.9732595    
 Madelung                    :     -43388.3986613    
 xc potential                :     -919.276757542    
 exchange                    :     -684.845200556    
 correlation                 :     -9.39257161269    
 total energy                :     -34575.5220308    
 
Density of states at Fermi energy :    52.22793299    
 (states/Hartree/unit cell)
 
Estimated indirect band gap :   0.2413001977E-03
 from k-point      6 to k-point    201
Estimated direct band gap   :   0.7024022010E-02
 at k-point    209
 
Charges :
 core                        :    92.00000000    
 valence                     :    60.00000000    
 interstitial                :    4.273976488    
 muffin-tins (core leakage)
  species :    1 (Os)
   atom    1                 :    73.86301176     (  0.9393036891E-06)
   atom    2                 :    73.86301176     (  0.9393036891E-06)
 total in muffin-tins        :    147.7260235    
 total calculated charge     :    151.9995971    
 total charge                :    152.0000000    
 error                       :   0.4029272324E-03
 
RMS change in Kohn-Sham potential (target) :   0.7520881306E-05 (   10.00000000    )
Absolute change in total energy (target)   :   0.9397626854E-06 (  0.1000000000E-07)
 
Time (CPU seconds) :      2458.00
 
+--------------------+
| Loop number :   28 |
+--------------------+
 
Energies :
 Fermi                       :     0.679904699872    
 sum of eigenvalues          :     -21176.1374155    
 electron kinetic            :      39271.0894639    
 core electron kinetic       :      37772.8087034    
 Coulomb                     :     -73152.3737222    
 Coulomb potential           :     -59527.9501219    
 nuclear-nuclear             :     -2893.45034099    
 electron-nuclear            :     -80989.8966406    
 Hartree                     :      10730.9732594    
 Madelung                    :     -43388.3986613    
 xc potential                :     -919.276757543    
 exchange                    :     -684.845200559    
 correlation                 :     -9.39257161252    
 total energy                :     -34575.5220305    
 
Density of states at Fermi energy :    52.22793324    
 (states/Hartree/unit cell)
 
Estimated indirect band gap :   0.2413001447E-03
 from k-point      6 to k-point    201
Estimated direct band gap   :   0.7024022023E-02
 at k-point    209
 
Charges :
 core                        :    92.00000000    
 valence                     :    60.00000000    
 interstitial                :    4.273976487    
 muffin-tins (core leakage)
  species :    1 (Os)
   atom    1                 :    73.86301176     (  0.9393523897E-06)
   atom    2                 :    73.86301176     (  0.9393523897E-06)
 total in muffin-tins        :    147.7260235    
 total calculated charge     :    151.9995971    
 total charge                :    152.0000000    
 error                       :   0.4029273005E-03
 
Wrote STATE.OUT
 
RMS change in Kohn-Sham potential (target) :   0.5693715126E-04 (   10.00000000    )
Absolute change in total energy (target)   :   0.2131855581E-08 (  0.1000000000E-07)
 
Convergence targets achieved
 
Time (CPU seconds) :      2549.34
 
+--------------------+
| Loop number :   29 |
+--------------------+
 
Energies :
 Fermi                       :     0.679904699367    
 sum of eigenvalues          :     -21176.1374141    
 electron kinetic            :      39271.0894631    
 core electron kinetic       :      37772.8087040    
 Coulomb                     :     -73152.3737212    
 Coulomb potential           :     -59527.9501198    
 nuclear-nuclear             :     -2893.45034099    
 electron-nuclear            :     -80989.8966406    
 Hartree                     :      10730.9732604    
 Madelung                    :     -43388.3986613    
 xc potential                :     -919.276757515    
 exchange                    :     -684.845200531    
 correlation                 :     -9.39257161277    
 total energy                :     -34575.5220302    
 
Density of states at Fermi energy :    52.22793547    
 (states/Hartree/unit cell)
 
Estimated indirect band gap :   0.2413002581E-03
 from k-point      6 to k-point    201
Estimated direct band gap   :   0.7024022001E-02
 at k-point    209
 
Charges :
 core                        :    92.00000000    
 valence                     :    60.00000000    
 interstitial                :    4.273976481    
 muffin-tins (core leakage)
  species :    1 (Os)
   atom    1                 :    73.86301176     (  0.9394224065E-06)
   atom    2                 :    73.86301176     (  0.9394224065E-06)
 total in muffin-tins        :    147.7260235    
 total calculated charge     :    151.9995971    
 total charge                :    152.0000000    
 error                       :   0.4029274464E-03
 
+------------------------------+
| Self-consistent loop stopped |
+------------------------------+
 
Wrote STATE.OUT
 
Timings (CPU seconds) :
 initialisation                        :         1.19
 Hamiltonian and overlap matrix set up :       466.27
 first-variational eigenvalue equation :       761.35
 charge density calculation            :       851.50
 potential calculation                 :       561.42
 total                                 :      2641.73
 
+----------------------------+
| Elk version 8.3.15 stopped |
+----------------------------+
