   4.846813322    
   15.06014815    
   108.9075476    
   107.1923110    
   60.81835831    
   28.85717663    
   6.946137705    
   1.750058293    
  0.4141562026    
  0.1015002717    
  0.2732195143E-01
  0.6773393186E-02
  0.2460606265E-02
  0.7976121487E-03
  0.2649354719E-03
  0.6408184709E-04
  0.3523844498E-04
  0.8884404087E-04
  0.2421467798E-04
  0.1062278170E-03
  0.2868122829E-04
  0.1254967356E-04
  0.1224406878E-04
  0.5867448635E-05
  0.2273030987E-05
  0.4624234862E-06
  0.1490193245E-04
  0.2101696737E-05
  0.3184359230E-05
  0.2297965693E-06
  0.8561619325E-07
  0.2424851118E-05
  0.9501600289E-06
  0.1240769052E-06
  0.1062799129E-06
  0.5276815500E-06
  0.4307148629E-06
  0.4899775377E-06
  0.2635206329E-06
  0.6819172995E-06
  0.3578097676E-06
  0.1809239620E-06
  0.4089088179E-06
  0.9036011761E-07
  0.1333828550E-06
  0.5134643288E-07
  0.2163433237E-06
  0.2339656930E-06
  0.3451350494E-06
  0.6534537533E-07
  0.2553861123E-08
