+----------------------------+
| Elk version 8.3.15 started |
+----------------------------+
 
Date (YYYY-MM-DD) : 2022-01-27
Time (hh:mm:ss)   : 20:09:00
 
All units are atomic (Hartree, Bohr, etc.)
 
+-------------------------------------------------+
| Ground-state run starting from atomic densities |
+-------------------------------------------------+
 
Lattice vectors :
   3.255005833       3.255005833       0.000000000    
   3.255005833       0.000000000       3.255005833    
   0.000000000       3.255005833       3.255005833    
 
Reciprocal lattice vectors :
  0.9651573039      0.9651573039     -0.9651573039    
  0.9651573039     -0.9651573039      0.9651573039    
 -0.9651573039      0.9651573039      0.9651573039    
 
Unit cell volume      :    68.97398353    
Brillouin zone volume :    3.596286611    
 
Muffin-tin inner radius fraction :   0.1000000000E-01
 
Species :    1 (Cu)
 parameters loaded from : Cu.in
 name : copper
 nuclear charge    :   -29.00000000    
 electronic charge :    29.00000000    
 atomic mass :    115837.2717    
 muffin-tin radius :    2.250000000    
 number of radial points in muffin-tin :   1000
 number on inner part of muffin-tin    :    717
 atomic positions (lattice), magnetic fields (Cartesian) :
   1 :   0.00000000  0.00000000  0.00000000    0.00000000  0.00000000  0.00000000
 
Total number of atoms per unit cell :    1
 
Spin treatment :
 spin-unpolarised
 
Number of Bravais lattice symmetries :   48
Number of crystal symmetries         :   48
Crystal has inversion symmetry
Real symmetric eigensolver will be used
 
k-point grid :     17    17    17
k-point offset :    0.000000000       0.000000000       0.000000000    
k-point set is reduced with full crystal symmetry group
Total number of k-points :      165
 
Muffin-tin radius times maximum |G+k| :    8.500000000    
 using gkmax = rgkmax / 2
Maximum |G+k| for APW functions       :    4.250000000    
Maximum (1/2)|G+k|²                   :    9.031250000    
Maximum |G| for potential and density :    34.00000000    
Constant for pseudocharge density :   19
Radial integration step length :    1
 
G-vector grid sizes :     50    50    50
Number of G-vectors :    45767
 
Maximum angular momentum used for
 APW functions                      :   10
 outer part of muffin-tin           :    8
 inner part of muffin-tin           :    1
 
Total nuclear charge    :   -29.00000000    
Total core charge       :    12.00000000    
Total valence charge    :    17.00000000    
Total excess charge     :    0.000000000    
Total electronic charge :    29.00000000    
 
Effective Wigner radius, rₛ :   0.8280684422    
 
Number of empty states         :   20
Total number of valence states :   29
Total number of core states    :   12
 
Conduction state local-orbitals added automatically
Total number of local-orbitals :  125
 
Using Libxc version 05.01.05
Exchange-correlation functional :    100   493   494
 exchange: mgga_x_rscan; correlation: mgga_c_rscan
 
Smearing type :    1
 Methfessel-Paxton order 1, Phys. Rev. B 40, 3616 (1989)
Smearing width :   0.1000000000E-02
Effective electronic temperature (K) :    315.7750248    
 
Mixing type :    1
 Adaptive linear mixing
 
Kohn-Sham potential initialised from atomic data
 
+------------------------------+
| Self-consistent loop started |
+------------------------------+
 
+--------------------+
| Loop number :    1 |
+--------------------+
 
Energies :
 Fermi                       :     0.136366872644    
 sum of eigenvalues          :     -957.270925116    
 electron kinetic            :      1674.74141687    
 core electron kinetic       :      1501.82832401    
 Coulomb                     :     -3283.30617126    
 Coulomb potential           :     -2540.76900231    
 nuclear-nuclear             :     -228.221914431    
 electron-nuclear            :     -3569.39951134    
 Hartree                     :      514.315254515    
 Madelung                    :     -2012.92167010    
 xc potential                :     -91.2433396770    
 exchange                    :     -67.5545745490    
 correlation                 :     -1.42139790533    
 total energy                :     -1677.54072684    
 
Density of states at Fermi energy :    22.11112917    
 (states/Hartree/unit cell)
 
Estimated indirect band gap :   0.6538404792E-04
 from k-point     60 to k-point     48
Estimated direct band gap   :   0.9816663439E-01
 at k-point     56
 
Charges :
 core                        :    12.00000000    
 valence                     :    17.00000000    
 interstitial                :   0.7412751129    
 muffin-tins (core leakage)
  species :    1 (Cu)
   atom    1                 :    28.25872489     (  0.3486585398E-03)
 total in muffin-tins        :    28.25872489    
 total calculated charge     :    28.99985146    
 total charge                :    29.00000000    
 error                       :   0.1485440192E-03
 
Time (CPU seconds) :         8.25
 
+--------------------+
| Loop number :    2 |
+--------------------+
 
Energies :
 Fermi                       :     0.175560682855    
 sum of eigenvalues          :     -955.070791195    
 electron kinetic            :      1677.66157566    
 core electron kinetic       :      1501.34260087    
 Coulomb                     :     -3279.96042450    
 Coulomb potential           :     -2541.84331281    
 nuclear-nuclear             :     -228.221914431    
 electron-nuclear            :     -3561.63370733    
 Hartree                     :      509.895197260    
 Madelung                    :     -2009.03876810    
 xc potential                :     -90.8890540439    
 exchange                    :     -67.2820134271    
 correlation                 :     -1.42112916368    
 total energy                :     -1671.00199143    
 
Density of states at Fermi energy :    7.680644144    
 (states/Hartree/unit cell)
 
Estimated indirect band gap :   0.1601163699E-02
 from k-point     48 to k-point     96
Estimated direct band gap   :   0.8312067073E-01
 at k-point     56
 
Charges :
 core                        :    12.00000000    
 valence                     :    17.00000000    
 interstitial                :   0.7900642137    
 muffin-tins (core leakage)
  species :    1 (Cu)
   atom    1                 :    28.20993579     (  0.3617173478E-03)
 total in muffin-tins        :    28.20993579    
 total calculated charge     :    28.99984754    
 total charge                :    29.00000000    
 error                       :   0.1524617419E-03
 
Wrote STATE.OUT
 
RMS change in Kohn-Sham potential (target) :   0.5326546358     (   10.00000000    )
Absolute change in total energy (target)   :    6.538735407     (  0.1000000000E-07)
 
Time (CPU seconds) :        14.75
 
+--------------------+
| Loop number :    3 |
+--------------------+
 
Energies :
 Fermi                       :     0.219245426854    
 sum of eigenvalues          :     -952.757844577    
 electron kinetic            :      1680.51493131    
 core electron kinetic       :      1501.21804629    
 Coulomb                     :     -3276.95416220    
 Coulomb potential           :     -2542.69233781    
 nuclear-nuclear             :     -228.221914431    
 electron-nuclear            :     -3554.77215774    
 Hartree                     :      506.039909964    
 Madelung                    :     -2005.60799330    
 xc potential                :     -90.5804380769    
 exchange                    :     -67.0452710450    
 correlation                 :     -1.42108459877    
 total energy                :     -1664.90558654    
 
Density of states at Fermi energy :    16.69036000    
 (states/Hartree/unit cell)
 
Estimated indirect band gap :   0.9296463611E-03
 from k-point    125 to k-point     48
Estimated direct band gap   :   0.7253554849E-01
 at k-point     56
 
Charges :
 core                        :    12.00000000    
 valence                     :    17.00000000    
 interstitial                :   0.8334771855    
 muffin-tins (core leakage)
  species :    1 (Cu)
   atom    1                 :    28.16652281     (  0.3719986180E-03)
 total in muffin-tins        :    28.16652281    
 total calculated charge     :    28.99984471    
 total charge                :    29.00000000    
 error                       :   0.1552861947E-03
 
RMS change in Kohn-Sham potential (target) :   0.4503315107     (   10.00000000    )
Absolute change in total energy (target)   :    7.731088746     (  0.1000000000E-07)
 
Time (CPU seconds) :        21.73
 
+--------------------+
| Loop number :    4 |
+--------------------+
 
Energies :
 Fermi                       :     0.257114711862    
 sum of eigenvalues          :     -950.895654222    
 electron kinetic            :      1682.45337958    
 core electron kinetic       :      1501.21411113    
 Coulomb                     :     -3275.41071045    
 Coulomb potential           :     -2542.90891737    
 nuclear-nuclear             :     -228.221914431    
 electron-nuclear            :     -3551.46867467    
 Hartree                     :      504.279878652    
 Madelung                    :     -2003.95625177    
 xc potential                :     -90.4401164358    
 exchange                    :     -66.9391024285    
 correlation                 :     -1.42100494351    
 total energy                :     -1661.31743824    
 
Density of states at Fermi energy :    4.738197561    
 (states/Hartree/unit cell)
 
Estimated indirect band gap :   0.3081391938E-02
 from k-point    125 to k-point     96
Estimated direct band gap   :   0.6903230654E-01
 at k-point     56
 
Charges :
 core                        :    12.00000000    
 valence                     :    17.00000000    
 interstitial                :   0.8507694300    
 muffin-tins (core leakage)
  species :    1 (Cu)
   atom    1                 :    28.14923057     (  0.3744578386E-03)
 total in muffin-tins        :    28.14923057    
 total calculated charge     :    28.99984553    
 total charge                :    29.00000000    
 error                       :   0.1544709527E-03
 
Wrote STATE.OUT
 
RMS change in Kohn-Sham potential (target) :   0.3595043747     (   10.00000000    )
Absolute change in total energy (target)   :    5.520920483     (  0.1000000000E-07)
 
Time (CPU seconds) :        29.08
 
+--------------------+
| Loop number :    5 |
+--------------------+
 
Energies :
 Fermi                       :     0.290848932186    
 sum of eigenvalues          :     -949.465825004    
 electron kinetic            :      1683.69654335    
 core electron kinetic       :      1501.21191930    
 Coulomb                     :     -3274.91638106    
 Coulomb potential           :     -2542.74793277    
 nuclear-nuclear             :     -228.221914431    
 electron-nuclear            :     -3550.64100048    
 Hartree                     :      503.946533851    
 Madelung                    :     -2003.54241467    
 xc potential                :     -90.4144355814    
 exchange                    :     -66.9215859184    
 correlation                 :     -1.42084602178    
 total energy                :     -1659.56226965    
 
Density of states at Fermi energy :    4.644836826    
 (states/Hartree/unit cell)
 
Estimated indirect band gap :   0.2973078186E-02
 from k-point    125 to k-point     96
Estimated direct band gap   :   0.6945431192E-01
 at k-point     56
 
Charges :
 core                        :    12.00000000    
 valence                     :    17.00000000    
 interstitial                :   0.8502782329    
 muffin-tins (core leakage)
  species :    1 (Cu)
   atom    1                 :    28.14972177     (  0.3718275168E-03)
 total in muffin-tins        :    28.14972177    
 total calculated charge     :    28.99984863    
 total charge                :    29.00000000    
 error                       :   0.1513696093E-03
 
RMS change in Kohn-Sham potential (target) :   0.2654795924     (   10.00000000    )
Absolute change in total energy (target)   :    3.135398717     (  0.1000000000E-07)
 
Time (CPU seconds) :        35.93
 
+--------------------+
| Loop number :    6 |
+--------------------+
 
Energies :
 Fermi                       :     0.320470297677    
 sum of eigenvalues          :     -948.277251637    
 electron kinetic            :      1684.72363930    
 core electron kinetic       :      1501.28123970    
 Coulomb                     :     -3274.66042581    
 Coulomb potential           :     -2542.59320974    
 nuclear-nuclear             :     -228.221914431    
 electron-nuclear            :     -3550.28381301    
 Hartree                     :      503.845301634    
 Madelung                    :     -2003.36382093    
 xc potential                :     -90.4076811976    
 exchange                    :     -66.9183394735    
 correlation                 :     -1.42071830967    
 total energy                :     -1658.27584429    
 
Density of states at Fermi energy :    4.002342135    
 (states/Hartree/unit cell)
 
Estimated indirect band gap :   0.2653737681E-02
 from k-point    125 to k-point     96
Estimated direct band gap   :   0.7022081205E-01
 at k-point     56
 
Charges :
 core                        :    12.00000000    
 valence                     :    17.00000000    
 interstitial                :   0.8479894366    
 muffin-tins (core leakage)
  species :    1 (Cu)
   atom    1                 :    28.15201056     (  0.3688117444E-03)
 total in muffin-tins        :    28.15201056    
 total calculated charge     :    28.99985169    
 total charge                :    29.00000000    
 error                       :   0.1483111903E-03
 
Wrote STATE.OUT
 
RMS change in Kohn-Sham potential (target) :   0.1819646932     (   10.00000000    )
Absolute change in total energy (target)   :    2.070275038     (  0.1000000000E-07)
 
Time (CPU seconds) :        42.62
 
+--------------------+
| Loop number :    7 |
+--------------------+
 
Energies :
 Fermi                       :     0.344497568575    
 sum of eigenvalues          :     -947.340866872    
 electron kinetic            :      1685.57972071    
 core electron kinetic       :      1501.41677700    
 Coulomb                     :     -3274.47908539    
 Coulomb potential           :     -2542.52004383    
 nuclear-nuclear             :     -228.221914431    
 electron-nuclear            :     -3549.99429809    
 Hartree                     :      503.737127133    
 Madelung                    :     -2003.21906348    
 xc potential                :     -90.4005437500    
 exchange                    :     -66.9142913302    
 correlation                 :     -1.42064557459    
 total energy                :     -1657.23430159    
 
Density of states at Fermi energy :    3.347941027    
 (states/Hartree/unit cell)
 
Estimated indirect band gap :   0.2501600242E-02
 from k-point    125 to k-point     96
Estimated direct band gap   :   0.7060785588E-01
 at k-point     56
 
Charges :
 core                        :    12.00000000    
 valence                     :    17.00000000    
 interstitial                :   0.8471433030    
 muffin-tins (core leakage)
  species :    1 (Cu)
   atom    1                 :    28.15285670     (  0.3664946663E-03)
 total in muffin-tins        :    28.15285670    
 total calculated charge     :    28.99985411    
 total charge                :    29.00000000    
 error                       :   0.1458865584E-03
 
RMS change in Kohn-Sham potential (target) :   0.1157976813     (   10.00000000    )
Absolute change in total energy (target)   :    1.559111455     (  0.1000000000E-07)
 
Time (CPU seconds) :        49.57
 
+--------------------+
| Loop number :    8 |
+--------------------+
 
Energies :
 Fermi                       :     0.362055742937    
 sum of eigenvalues          :     -946.686696500    
 electron kinetic            :      1686.20526146    
 core electron kinetic       :      1501.56035346    
 Coulomb                     :     -3274.39805322    
 Coulomb potential           :     -2542.49437881    
 nuclear-nuclear             :     -228.221914431    
 electron-nuclear            :     -3549.85789877    
 Hartree                     :      503.681759978    
 Madelung                    :     -2003.15086382    
 xc potential                :     -90.3975791486    
 exchange                    :     -66.9129844398    
 correlation                 :     -1.42061261938    
 total energy                :     -1656.52638882    
 
Density of states at Fermi energy :    2.775535274    
 (states/Hartree/unit cell)
 
Estimated indirect band gap :   0.2407602706E-02
 from k-point    125 to k-point     96
Estimated direct band gap   :   0.7083269593E-01
 at k-point     56
 
Charges :
 core                        :    12.00000000    
 valence                     :    17.00000000    
 interstitial                :   0.8467367722    
 muffin-tins (core leakage)
  species :    1 (Cu)
   atom    1                 :    28.15326323     (  0.3647219211E-03)
 total in muffin-tins        :    28.15326323    
 total calculated charge     :    28.99985594    
 total charge                :    29.00000000    
 error                       :   0.1440633401E-03
 
Wrote STATE.OUT
 
RMS change in Kohn-Sham potential (target) :   0.6792033516E-01 (   10.00000000    )
Absolute change in total energy (target)   :    1.097690635     (  0.1000000000E-07)
 
Time (CPU seconds) :        56.36
 
+--------------------+
| Loop number :    9 |
+--------------------+
 
Energies :
 Fermi                       :     0.373706953992    
 sum of eigenvalues          :     -946.269128434    
 electron kinetic            :      1686.63060509    
 core electron kinetic       :      1501.68855466    
 Coulomb                     :     -3274.36475879    
 Coulomb potential           :     -2542.50438382    
 nuclear-nuclear             :     -228.221914431    
 electron-nuclear            :     -3549.78130489    
 Hartree                     :      503.638460537    
 Madelung                    :     -2003.11256688    
 xc potential                :     -90.3953497027    
 exchange                    :     -66.9118497680    
 correlation                 :     -1.42060660295    
 total energy                :     -1656.06661007    
 
Density of states at Fermi energy :    2.683187748    
 (states/Hartree/unit cell)
 
Estimated indirect band gap :   0.2393556763E-02
 from k-point    125 to k-point     96
Estimated direct band gap   :   0.7087186312E-01
 at k-point     56
 
Charges :
 core                        :    12.00000000    
 valence                     :    17.00000000    
 interstitial                :   0.8469189675    
 muffin-tins (core leakage)
  species :    1 (Cu)
   atom    1                 :    28.15308103     (  0.3635682340E-03)
 total in muffin-tins        :    28.15308103    
 total calculated charge     :    28.99985715    
 total charge                :    29.00000000    
 error                       :   0.1428465850E-03
 
RMS change in Kohn-Sham potential (target) :   0.3669953726E-01 (   10.00000000    )
Absolute change in total energy (target)   :   0.7342014086     (  0.1000000000E-07)
 
Time (CPU seconds) :        62.85
 
+--------------------+
| Loop number :   10 |
+--------------------+
 
Energies :
 Fermi                       :     0.380630987632    
 sum of eigenvalues          :     -946.035343884    
 electron kinetic            :      1686.88202260    
 core electron kinetic       :      1501.77787038    
 Coulomb                     :     -3274.37116882    
 Coulomb potential           :     -2542.52199710    
 nuclear-nuclear             :     -228.221914431    
 electron-nuclear            :     -3549.77651168    
 Hartree                     :      503.627257289    
 Madelung                    :     -2003.11017027    
 xc potential                :     -90.3953693842    
 exchange                    :     -66.9121831969    
 correlation                 :     -1.42061086006    
 total energy                :     -1655.82194028    
 
Density of states at Fermi energy :    2.635108698    
 (states/Hartree/unit cell)
 
Estimated indirect band gap :   0.2386040623E-02
 from k-point    125 to k-point     96
Estimated direct band gap   :   0.7088429342E-01
 at k-point     56
 
Charges :
 core                        :    12.00000000    
 valence                     :    17.00000000    
 interstitial                :   0.8470548700    
 muffin-tins (core leakage)
  species :    1 (Cu)
   atom    1                 :    28.15294513     (  0.3628185054E-03)
 total in muffin-tins        :    28.15294513    
 total calculated charge     :    28.99985792    
 total charge                :    29.00000000    
 error                       :   0.1420773475E-03
 
Wrote STATE.OUT
 
RMS change in Kohn-Sham potential (target) :   0.1813093358E-01 (   10.00000000    )
Absolute change in total energy (target)   :   0.4282201451     (  0.1000000000E-07)
 
Time (CPU seconds) :        69.53
 
+--------------------+
| Loop number :   11 |
+--------------------+
 
Energies :
 Fermi                       :     0.384350274162    
 sum of eigenvalues          :     -945.913569321    
 electron kinetic            :      1687.02528944    
 core electron kinetic       :      1501.83938049    
 Coulomb                     :     -3274.37506544    
 Coulomb potential           :     -2542.54436794    
 nuclear-nuclear             :     -228.221914431    
 electron-nuclear            :     -3549.76193407    
 Hartree                     :      503.608783063    
 Madelung                    :     -2003.10288147    
 xc potential                :     -90.3944908177    
 exchange                    :     -66.9116554811    
 correlation                 :     -1.42061870860    
 total energy                :     -1655.68205019    
 
Density of states at Fermi energy :    2.829817861    
 (states/Hartree/unit cell)
 
Estimated indirect band gap :   0.2413564933E-02
 from k-point    125 to k-point     96
Estimated direct band gap   :   0.7082632597E-01
 at k-point     56
 
Charges :
 core                        :    12.00000000    
 valence                     :    17.00000000    
 interstitial                :   0.8474039093    
 muffin-tins (core leakage)
  species :    1 (Cu)
   atom    1                 :    28.15259609     (  0.3624531064E-03)
 total in muffin-tins        :    28.15259609    
 total calculated charge     :    28.99985833    
 total charge                :    29.00000000    
 error                       :   0.1416685481E-03
 
RMS change in Kohn-Sham potential (target) :   0.8244678182E-02 (   10.00000000    )
Absolute change in total energy (target)   :   0.2469451267     (  0.1000000000E-07)
 
Time (CPU seconds) :        75.97
 
+--------------------+
| Loop number :   12 |
+--------------------+
 
Energies :
 Fermi                       :     0.386062706943    
 sum of eigenvalues          :     -945.865341949    
 electron kinetic            :      1687.08365089    
 core electron kinetic       :      1501.86386873    
 Coulomb                     :     -3274.39650019    
 Coulomb potential           :     -2542.55314566    
 nuclear-nuclear             :     -228.221914431    
 electron-nuclear            :     -3549.79602586    
 Hartree                     :      503.621440100    
 Madelung                    :     -2003.11992736    
 xc potential                :     -90.3958471790    
 exchange                    :     -66.9127729457    
 correlation                 :     -1.42062257406    
 total energy                :     -1655.64624482    
 
Density of states at Fermi energy :    2.734248558    
 (states/Hartree/unit cell)
 
Estimated indirect band gap :   0.2399340449E-02
 from k-point    125 to k-point     96
Estimated direct band gap   :   0.7085036355E-01
 at k-point     56
 
Charges :
 core                        :    12.00000000    
 valence                     :    17.00000000    
 interstitial                :   0.8473368789    
 muffin-tins (core leakage)
  species :    1 (Cu)
   atom    1                 :    28.15266312     (  0.3621963614E-03)
 total in muffin-tins        :    28.15266312    
 total calculated charge     :    28.99985857    
 total charge                :    29.00000000    
 error                       :   0.1414305330E-03
 
Wrote STATE.OUT
 
RMS change in Kohn-Sham potential (target) :   0.3464514412E-02 (   10.00000000    )
Absolute change in total energy (target)   :   0.9754164779E-01 (  0.1000000000E-07)
 
Time (CPU seconds) :        82.80
 
+--------------------+
| Loop number :   13 |
+--------------------+
 
Energies :
 Fermi                       :     0.386839893328    
 sum of eigenvalues          :     -945.837296987    
 electron kinetic            :      1687.12601346    
 core electron kinetic       :      1501.88917017    
 Coulomb                     :     -3274.38311460    
 Coulomb potential           :     -2542.56968210    
 nuclear-nuclear             :     -228.221914431    
 electron-nuclear            :     -3549.75271823    
 Hartree                     :      503.591518063    
 Madelung                    :     -2003.09827355    
 xc potential                :     -90.3936283405    
 exchange                    :     -66.9110793497    
 correlation                 :     -1.42062772590    
 total energy                :     -1655.58880822    
 
Density of states at Fermi energy :    3.064380690    
 (states/Hartree/unit cell)
 
Estimated indirect band gap :   0.2449682869E-02
 from k-point    125 to k-point     96
Estimated direct band gap   :   0.7075217559E-01
 at k-point     56
 
Charges :
 core                        :    12.00000000    
 valence                     :    17.00000000    
 interstitial                :   0.8477886910    
 muffin-tins (core leakage)
  species :    1 (Cu)
   atom    1                 :    28.15221131     (  0.3622108386E-03)
 total in muffin-tins        :    28.15221131    
 total calculated charge     :    28.99985862    
 total charge                :    29.00000000    
 error                       :   0.1413788252E-03
 
RMS change in Kohn-Sham potential (target) :   0.1434304605E-02 (   10.00000000    )
Absolute change in total energy (target)   :   0.8182201630E-01 (  0.1000000000E-07)
 
Time (CPU seconds) :        89.21
 
+--------------------+
| Loop number :   14 |
+--------------------+
 
Energies :
 Fermi                       :     0.387006903936    
 sum of eigenvalues          :     -945.842841512    
 electron kinetic            :      1687.11420983    
 core electron kinetic       :      1501.88500799    
 Coulomb                     :     -3274.41481925    
 Coulomb potential           :     -2542.56004343    
 nuclear-nuclear             :     -228.221914431    
 electron-nuclear            :     -3549.82576620    
 Hartree                     :      503.632861388    
 Madelung                    :     -2003.13479753    
 xc potential                :     -90.3970079078    
 exchange                    :     -66.9137096459    
 correlation                 :     -1.42062368259    
 total energy                :     -1655.63494275    
 
Density of states at Fermi energy :    2.633660898    
 (states/Hartree/unit cell)
 
Estimated indirect band gap :   0.2385057722E-02
 from k-point    125 to k-point     96
Estimated direct band gap   :   0.7087893817E-01
 at k-point     56
 
Charges :
 core                        :    12.00000000    
 valence                     :    17.00000000    
 interstitial                :   0.8472363791    
 muffin-tins (core leakage)
  species :    1 (Cu)
   atom    1                 :    28.15276362     (  0.3620344641E-03)
 total in muffin-tins        :    28.15276362    
 total calculated charge     :    28.99985872    
 total charge                :    29.00000000    
 error                       :   0.1412832980E-03
 
Wrote STATE.OUT
 
RMS change in Kohn-Sham potential (target) :   0.9024574883E-03 (   10.00000000    )
Absolute change in total energy (target)   :   0.2567903071E-01 (  0.1000000000E-07)
 
Time (CPU seconds) :        95.82
 
+--------------------+
| Loop number :   15 |
+--------------------+
 
Energies :
 Fermi                       :     0.387108551550    
 sum of eigenvalues          :     -945.834453038    
 electron kinetic            :      1687.12737346    
 core electron kinetic       :      1501.88839861    
 Coulomb                     :     -3274.40375519    
 Coulomb potential           :     -2542.56619868    
 nuclear-nuclear             :     -228.221914431    
 electron-nuclear            :     -3549.79748284    
 Hartree                     :      503.615642081    
 Madelung                    :     -2003.12065585    
 xc potential                :     -90.3956278224    
 exchange                    :     -66.9126360433    
 correlation                 :     -1.42063019267    
 total energy                :     -1655.60964796    
 
Density of states at Fermi energy :    2.875547724    
 (states/Hartree/unit cell)
 
Estimated indirect band gap :   0.2419771266E-02
 from k-point    125 to k-point     96
Estimated direct band gap   :   0.7080350534E-01
 at k-point     56
 
Charges :
 core                        :    12.00000000    
 valence                     :    17.00000000    
 interstitial                :   0.8475680249    
 muffin-tins (core leakage)
  species :    1 (Cu)
   atom    1                 :    28.15243198     (  0.3620766719E-03)
 total in muffin-tins        :    28.15243198    
 total calculated charge     :    28.99985870    
 total charge                :    29.00000000    
 error                       :   0.1412955106E-03
 
RMS change in Kohn-Sham potential (target) :   0.1763381350E-03 (   10.00000000    )
Absolute change in total energy (target)   :   0.1887503000E-01 (  0.1000000000E-07)
 
Time (CPU seconds) :       102.47
 
+--------------------+
| Loop number :   16 |
+--------------------+
 
Energies :
 Fermi                       :     0.387135188692    
 sum of eigenvalues          :     -945.833357287    
 electron kinetic            :      1687.13037854    
 core electron kinetic       :      1501.89004635    
 Coulomb                     :     -3274.40050738    
 Coulomb potential           :     -2542.56853370    
 nuclear-nuclear             :     -228.221914431    
 electron-nuclear            :     -3549.78865221    
 Hartree                     :      503.610059257    
 Madelung                    :     -2003.11624054    
 xc potential                :     -90.3952021304    
 exchange                    :     -66.9123089555    
 correlation                 :     -1.42062958633    
 total energy                :     -1655.60306739    
 
Density of states at Fermi energy :    2.916969012    
 (states/Hartree/unit cell)
 
Estimated indirect band gap :   0.2426132117E-02
 from k-point    125 to k-point     96
Estimated direct band gap   :   0.7079271586E-01
 at k-point     56
 
Charges :
 core                        :    12.00000000    
 valence                     :    17.00000000    
 interstitial                :   0.8476205470    
 muffin-tins (core leakage)
  species :    1 (Cu)
   atom    1                 :    28.15237945     (  0.3620930826E-03)
 total in muffin-tins        :    28.15237945    
 total calculated charge     :    28.99985870    
 total charge                :    29.00000000    
 error                       :   0.1412999580E-03
 
Wrote STATE.OUT
 
RMS change in Kohn-Sham potential (target) :   0.4411250935E-03 (   10.00000000    )
Absolute change in total energy (target)   :   0.1129933542E-01 (  0.1000000000E-07)
 
Time (CPU seconds) :       109.60
 
+--------------------+
| Loop number :   17 |
+--------------------+
 
Energies :
 Fermi                       :     0.387139820421    
 sum of eigenvalues          :     -945.833825845    
 electron kinetic            :      1687.13049074    
 core electron kinetic       :      1501.89072124    
 Coulomb                     :     -3274.40076919    
 Coulomb potential           :     -2542.56912752    
 nuclear-nuclear             :     -228.221914431    
 electron-nuclear            :     -3549.78858199    
 Hartree                     :      503.609727239    
 Madelung                    :     -2003.11620543    
 xc potential                :     -90.3951890645    
 exchange                    :     -66.9123005569    
 correlation                 :     -1.42062873354    
 total energy                :     -1655.60320774    
 
Density of states at Fermi energy :    2.911498663    
 (states/Hartree/unit cell)
 
Estimated indirect band gap :   0.2425369450E-02
 from k-point    125 to k-point     96
Estimated direct band gap   :   0.7079586723E-01
 at k-point     56
 
Charges :
 core                        :    12.00000000    
 valence                     :    17.00000000    
 interstitial                :   0.8476074475    
 muffin-tins (core leakage)
  species :    1 (Cu)
   atom    1                 :    28.15239255     (  0.3620937130E-03)
 total in muffin-tins        :    28.15239255    
 total calculated charge     :    28.99985870    
 total charge                :    29.00000000    
 error                       :   0.1412984694E-03
 
RMS change in Kohn-Sham potential (target) :   0.4858896877E-03 (   10.00000000    )
Absolute change in total energy (target)   :   0.2684479283E-02 (  0.1000000000E-07)
 
Time (CPU seconds) :       116.32
 
+--------------------+
| Loop number :   18 |
+--------------------+
 
Energies :
 Fermi                       :     0.387140703817    
 sum of eigenvalues          :     -945.834180083    
 electron kinetic            :      1687.13052856    
 core electron kinetic       :      1501.89119150    
 Coulomb                     :     -3274.40103730    
 Coulomb potential           :     -2542.56952234    
 nuclear-nuclear             :     -228.221914431    
 electron-nuclear            :     -3549.78872340    
 Hartree                     :      503.609600529    
 Madelung                    :     -2003.11627613    
 xc potential                :     -90.3951863003    
 exchange                    :     -66.9122992226    
 correlation                 :     -1.42062824579    
 total energy                :     -1655.60343621    
 
Density of states at Fermi energy :    2.909793936    
 (states/Hartree/unit cell)
 
Estimated indirect band gap :   0.2425173609E-02
 from k-point    125 to k-point     96
Estimated direct band gap   :   0.7079752769E-01
 at k-point     56
 
Charges :
 core                        :    12.00000000    
 valence                     :    17.00000000    
 interstitial                :   0.8475990526    
 muffin-tins (core leakage)
  species :    1 (Cu)
   atom    1                 :    28.15240095     (  0.3620945122E-03)
 total in muffin-tins        :    28.15240095    
 total calculated charge     :    28.99985870    
 total charge                :    29.00000000    
 error                       :   0.1412975096E-03
 
Wrote STATE.OUT
 
RMS change in Kohn-Sham potential (target) :   0.2642002585E-03 (   10.00000000    )
Absolute change in total energy (target)   :   0.4426481996E-03 (  0.1000000000E-07)
 
Time (CPU seconds) :       123.34
 
+--------------------+
| Loop number :   19 |
+--------------------+
 
Energies :
 Fermi                       :     0.387141056561    
 sum of eigenvalues          :     -945.834460022    
 electron kinetic            :      1687.13047723    
 core electron kinetic       :      1501.89146532    
 Coulomb                     :     -3274.40143350    
 Coulomb potential           :     -2542.56973156    
 nuclear-nuclear             :     -228.221914431    
 electron-nuclear            :     -3549.78930658    
 Hartree                     :      503.609787513    
 Madelung                    :     -2003.11656772    
 xc potential                :     -90.3952056916    
 exchange                    :     -66.9123146086    
 correlation                 :     -1.42062796982    
 total energy                :     -1655.60389885    
 
Density of states at Fermi energy :    2.907386501    
 (states/Hartree/unit cell)
 
Estimated indirect band gap :   0.2424851915E-02
 from k-point    125 to k-point     96
Estimated direct band gap   :   0.7079899408E-01
 at k-point     56
 
Charges :
 core                        :    12.00000000    
 valence                     :    17.00000000    
 interstitial                :   0.8475912248    
 muffin-tins (core leakage)
  species :    1 (Cu)
   atom    1                 :    28.15240878     (  0.3620942136E-03)
 total in muffin-tins        :    28.15240878    
 total calculated charge     :    28.99985870    
 total charge                :    29.00000000    
 error                       :   0.1412964302E-03
 
RMS change in Kohn-Sham potential (target) :   0.1537941179E-03 (   10.00000000    )
Absolute change in total energy (target)   :   0.3519787656E-03 (  0.1000000000E-07)
 
Time (CPU seconds) :       129.96
 
+--------------------+
| Loop number :   20 |
+--------------------+
 
Energies :
 Fermi                       :     0.387141824368    
 sum of eigenvalues          :     -945.834595184    
 electron kinetic            :      1687.13052958    
 core electron kinetic       :      1501.89166754    
 Coulomb                     :     -3274.40167557    
 Coulomb potential           :     -2542.56991143    
 nuclear-nuclear             :     -228.221914431    
 electron-nuclear            :     -3549.78961085    
 Hartree                     :      503.609849711    
 Madelung                    :     -2003.11671986    
 xc potential                :     -90.3952133393    
 exchange                    :     -66.9123206320    
 correlation                 :     -1.42062786437    
 total energy                :     -1655.60409448    
 
Density of states at Fermi energy :    2.907559082    
 (states/Hartree/unit cell)
 
Estimated indirect band gap :   0.2424908779E-02
 from k-point    125 to k-point     96
Estimated direct band gap   :   0.7079938346E-01
 at k-point     56
 
Charges :
 core                        :    12.00000000    
 valence                     :    17.00000000    
 interstitial                :   0.8475882236    
 muffin-tins (core leakage)
  species :    1 (Cu)
   atom    1                 :    28.15241178     (  0.3620940435E-03)
 total in muffin-tins        :    28.15241178    
 total calculated charge     :    28.99985870    
 total charge                :    29.00000000    
 error                       :   0.1412955530E-03
 
Wrote STATE.OUT
 
RMS change in Kohn-Sham potential (target) :   0.4128466209E-03 (   10.00000000    )
Absolute change in total energy (target)   :   0.2836253082E-03 (  0.1000000000E-07)
 
Time (CPU seconds) :       136.94
 
+--------------------+
| Loop number :   21 |
+--------------------+
 
Energies :
 Fermi                       :     0.387142465346    
 sum of eigenvalues          :     -945.834676223    
 electron kinetic            :      1687.13056344    
 core electron kinetic       :      1501.89178021    
 Coulomb                     :     -3274.40186173    
 Coulomb potential           :     -2542.57001849    
 nuclear-nuclear             :     -228.221914431    
 electron-nuclear            :     -3549.78987611    
 Hartree                     :      503.609928810    
 Madelung                    :     -2003.11685249    
 xc potential                :     -90.3952211685    
 exchange                    :     -66.9123267212    
 correlation                 :     -1.42062782053    
 total energy                :     -1655.60425284    
 
Density of states at Fermi energy :    2.907683274    
 (states/Hartree/unit cell)
 
Estimated indirect band gap :   0.2424946821E-02
 from k-point    125 to k-point     96
Estimated direct band gap   :   0.7079959819E-01
 at k-point     56
 
Charges :
 core                        :    12.00000000    
 valence                     :    17.00000000    
 interstitial                :   0.8475863034    
 muffin-tins (core leakage)
  species :    1 (Cu)
   atom    1                 :    28.15241370     (  0.3620936911E-03)
 total in muffin-tins        :    28.15241370    
 total calculated charge     :    28.99985871    
 total charge                :    29.00000000    
 error                       :   0.1412948183E-03
 
RMS change in Kohn-Sham potential (target) :   0.2323152130E-03 (   10.00000000    )
Absolute change in total energy (target)   :   0.2292597217E-03 (  0.1000000000E-07)
 
Time (CPU seconds) :       143.73
 
+--------------------+
| Loop number :   22 |
+--------------------+
 
Energies :
 Fermi                       :     0.387143038386    
 sum of eigenvalues          :     -945.834705192    
 electron kinetic            :      1687.13060980    
 core electron kinetic       :      1501.89185335    
 Coulomb                     :     -3274.40194776    
 Coulomb potential           :     -2542.57009205    
 nuclear-nuclear             :     -228.221914431    
 electron-nuclear            :     -3549.78997461    
 Hartree                     :      503.609941281    
 Madelung                    :     -2003.11690174    
 xc potential                :     -90.3952229453    
 exchange                    :     -66.9123281006    
 correlation                 :     -1.42062780995    
 total energy                :     -1655.60429387    
 
Density of states at Fermi energy :    2.908289038    
 (states/Hartree/unit cell)
 
Estimated indirect band gap :   0.2425050590E-02
 from k-point    125 to k-point     96
Estimated direct band gap   :   0.7079955447E-01
 at k-point     56
 
Charges :
 core                        :    12.00000000    
 valence                     :    17.00000000    
 interstitial                :   0.8475858502    
 muffin-tins (core leakage)
  species :    1 (Cu)
   atom    1                 :    28.15241415     (  0.3620935658E-03)
 total in muffin-tins        :    28.15241415    
 total calculated charge     :    28.99985871    
 total charge                :    29.00000000    
 error                       :   0.1412943878E-03
 
Wrote STATE.OUT
 
RMS change in Kohn-Sham potential (target) :   0.2334884767E-03 (   10.00000000    )
Absolute change in total energy (target)   :   0.9834770344E-04 (  0.1000000000E-07)
 
Time (CPU seconds) :       150.73
 
+--------------------+
| Loop number :   23 |
+--------------------+
 
Energies :
 Fermi                       :     0.387143334634    
 sum of eigenvalues          :     -945.834726177    
 electron kinetic            :      1687.13061840    
 core electron kinetic       :      1501.89187764    
 Coulomb                     :     -3274.40201298    
 Coulomb potential           :     -2542.57011814    
 nuclear-nuclear             :     -228.221914431    
 electron-nuclear            :     -3549.79007896    
 Hartree                     :      503.609980408    
 Madelung                    :     -2003.11695391    
 xc potential                :     -90.3952264333    
 exchange                    :     -66.9123308145    
 correlation                 :     -1.42062780125    
 total energy                :     -1655.60435320    
 
Density of states at Fermi energy :    2.908292871    
 (states/Hartree/unit cell)
 
Estimated indirect band gap :   0.2425057324E-02
 from k-point    125 to k-point     96
Estimated direct band gap   :   0.7079962603E-01
 at k-point     56
 
Charges :
 core                        :    12.00000000    
 valence                     :    17.00000000    
 interstitial                :   0.8475851606    
 muffin-tins (core leakage)
  species :    1 (Cu)
   atom    1                 :    28.15241484     (  0.3620934502E-03)
 total in muffin-tins        :    28.15241484    
 total calculated charge     :    28.99985871    
 total charge                :    29.00000000    
 error                       :   0.1412941777E-03
 
RMS change in Kohn-Sham potential (target) :   0.4558138911E-03 (   10.00000000    )
Absolute change in total energy (target)   :   0.8391592110E-04 (  0.1000000000E-07)
 
Time (CPU seconds) :       157.15
 
+--------------------+
| Loop number :   24 |
+--------------------+
 
Energies :
 Fermi                       :     0.387143597573    
 sum of eigenvalues          :     -945.834722650    
 electron kinetic            :      1687.13064558    
 core electron kinetic       :      1501.89190316    
 Coulomb                     :     -3274.40201446    
 Coulomb potential           :     -2542.57014352    
 nuclear-nuclear             :     -228.221914431    
 electron-nuclear            :     -3549.79005653    
 Hartree                     :      503.609956502    
 Madelung                    :     -2003.11694269    
 xc potential                :     -90.3952247025    
 exchange                    :     -66.9123294805    
 correlation                 :     -1.42062780159    
 total energy                :     -1655.60432616    
 
Density of states at Fermi energy :    2.908747060    
 (states/Hartree/unit cell)
 
Estimated indirect band gap :   0.2425129853E-02
 from k-point    125 to k-point     96
Estimated direct band gap   :   0.7079952647E-01
 at k-point     56
 
Charges :
 core                        :    12.00000000    
 valence                     :    17.00000000    
 interstitial                :   0.8475854011    
 muffin-tins (core leakage)
  species :    1 (Cu)
   atom    1                 :    28.15241460     (  0.3620935527E-03)
 total in muffin-tins        :    28.15241460    
 total calculated charge     :    28.99985871    
 total charge                :    29.00000000    
 error                       :   0.1412941451E-03
 
Wrote STATE.OUT
 
RMS change in Kohn-Sham potential (target) :   0.2206263129E-04 (   10.00000000    )
Absolute change in total energy (target)   :   0.6057026440E-05 (  0.1000000000E-07)
 
Time (CPU seconds) :       164.20
 
+--------------------+
| Loop number :   25 |
+--------------------+
 
Energies :
 Fermi                       :     0.387143614387    
 sum of eigenvalues          :     -945.834735015    
 electron kinetic            :      1687.13062619    
 core electron kinetic       :      1501.89188923    
 Coulomb                     :     -3274.40205193    
 Coulomb potential           :     -2542.57013266    
 nuclear-nuclear             :     -228.221914431    
 electron-nuclear            :     -3549.79014235    
 Hartree                     :      503.610004845    
 Madelung                    :     -2003.11698560    
 xc potential                :     -90.3952285477    
 exchange                    :     -66.9123324689    
 correlation                 :     -1.42062779556    
 total energy                :     -1655.60438601    
 
Density of states at Fermi energy :    2.908343363    
 (states/Hartree/unit cell)
 
Estimated indirect band gap :   0.2425069454E-02
 from k-point    125 to k-point     96
Estimated direct band gap   :   0.7079966056E-01
 at k-point     56
 
Charges :
 core                        :    12.00000000    
 valence                     :    17.00000000    
 interstitial                :   0.8475847115    
 muffin-tins (core leakage)
  species :    1 (Cu)
   atom    1                 :    28.15241529     (  0.3620933219E-03)
 total in muffin-tins        :    28.15241529    
 total calculated charge     :    28.99985871    
 total charge                :    29.00000000    
 error                       :   0.1412939776E-03
 
RMS change in Kohn-Sham potential (target) :   0.1426836127E-03 (   10.00000000    )
Absolute change in total energy (target)   :   0.5833090745E-04 (  0.1000000000E-07)
 
Time (CPU seconds) :       170.86
 
+--------------------+
| Loop number :   26 |
+--------------------+
 
Energies :
 Fermi                       :     0.387143757490    
 sum of eigenvalues          :     -945.834718081    
 electron kinetic            :      1687.13065687    
 core electron kinetic       :      1501.89190947    
 Coulomb                     :     -3274.40201326    
 Coulomb potential           :     -2542.57015088    
 nuclear-nuclear             :     -228.221914431    
 electron-nuclear            :     -3549.79004678    
 Hartree                     :      503.609947945    
 Madelung                    :     -2003.11693782    
 xc potential                :     -90.3952240649    
 exchange                    :     -66.9123290238    
 correlation                 :     -1.42062779655    
 total energy                :     -1655.60431321    
 
Density of states at Fermi energy :    2.908905238    
 (states/Hartree/unit cell)
 
Estimated indirect band gap :   0.2425155861E-02
 from k-point    125 to k-point     96
Estimated direct band gap   :   0.7079950114E-01
 at k-point     56
 
Charges :
 core                        :    12.00000000    
 valence                     :    17.00000000    
 interstitial                :   0.8475853859    
 muffin-tins (core leakage)
  species :    1 (Cu)
   atom    1                 :    28.15241461     (  0.3620933885E-03)
 total in muffin-tins        :    28.15241461    
 total calculated charge     :    28.99985871    
 total charge                :    29.00000000    
 error                       :   0.1412939268E-03
 
Wrote STATE.OUT
 
RMS change in Kohn-Sham potential (target) :   0.5227785982E-04 (   10.00000000    )
Absolute change in total energy (target)   :   0.5821204468E-04 (  0.1000000000E-07)
 
Time (CPU seconds) :       177.75
 
+--------------------+
| Loop number :   27 |
+--------------------+
 
Energies :
 Fermi                       :     0.387143729293    
 sum of eigenvalues          :     -945.834729220    
 electron kinetic            :      1687.13063733    
 core electron kinetic       :      1501.89190014    
 Coulomb                     :     -3274.40203788    
 Coulomb potential           :     -2542.57013965    
 nuclear-nuclear             :     -228.221914431    
 electron-nuclear            :     -3549.79010724    
 Hartree                     :      503.609983793    
 Madelung                    :     -2003.11696805    
 xc potential                :     -90.3952268927    
 exchange                    :     -66.9123312089    
 correlation                 :     -1.42062779198    
 total energy                :     -1655.60435955    
 
Density of states at Fermi energy :    2.908557005    
 (states/Hartree/unit cell)
 
Estimated indirect band gap :   0.2425103017E-02
 from k-point    125 to k-point     96
Estimated direct band gap   :   0.7079960963E-01
 at k-point     56
 
Charges :
 core                        :    12.00000000    
 valence                     :    17.00000000    
 interstitial                :   0.8475848839    
 muffin-tins (core leakage)
  species :    1 (Cu)
   atom    1                 :    28.15241512     (  0.3620932460E-03)
 total in muffin-tins        :    28.15241512    
 total calculated charge     :    28.99985871    
 total charge                :    29.00000000    
 error                       :   0.1412938444E-03
 
RMS change in Kohn-Sham potential (target) :   0.1294931089E-03 (   10.00000000    )
Absolute change in total energy (target)   :   0.3178596330E-04 (  0.1000000000E-07)
 
Time (CPU seconds) :       184.34
 
+--------------------+
| Loop number :   28 |
+--------------------+
 
Energies :
 Fermi                       :     0.387143735612    
 sum of eigenvalues          :     -945.834727255    
 electron kinetic            :      1687.13064002    
 core electron kinetic       :      1501.89190017    
 Coulomb                     :     -3274.40203407    
 Coulomb potential           :     -2542.57014081    
 nuclear-nuclear             :     -228.221914431    
 electron-nuclear            :     -3549.79009846    
 Hartree                     :      503.609978827    
 Madelung                    :     -2003.11696366    
 xc potential                :     -90.3952264663    
 exchange                    :     -66.9123308780    
 correlation                 :     -1.42062779320    
 total energy                :     -1655.60435272    
 
Density of states at Fermi energy :    2.908608699    
 (states/Hartree/unit cell)
 
Estimated indirect band gap :   0.2425110832E-02
 from k-point    125 to k-point     96
Estimated direct band gap   :   0.7079959274E-01
 at k-point     56
 
Charges :
 core                        :    12.00000000    
 valence                     :    17.00000000    
 interstitial                :   0.8475849607    
 muffin-tins (core leakage)
  species :    1 (Cu)
   atom    1                 :    28.15241504     (  0.3620933129E-03)
 total in muffin-tins        :    28.15241504    
 total calculated charge     :    28.99985871    
 total charge                :    29.00000000    
 error                       :   0.1412939039E-03
 
Wrote STATE.OUT
 
RMS change in Kohn-Sham potential (target) :   0.1104320694E-03 (   10.00000000    )
Absolute change in total energy (target)   :   0.1112365680E-05 (  0.1000000000E-07)
 
Time (CPU seconds) :       191.12
 
+--------------------+
| Loop number :   29 |
+--------------------+
 
Energies :
 Fermi                       :     0.387143738848    
 sum of eigenvalues          :     -945.834726495    
 electron kinetic            :      1687.13064110    
 core electron kinetic       :      1501.89190009    
 Coulomb                     :     -3274.40203235    
 Coulomb potential           :     -2542.57014127    
 nuclear-nuclear             :     -228.221914431    
 electron-nuclear            :     -3549.79009456    
 Hartree                     :      503.609976646    
 Madelung                    :     -2003.11696171    
 xc potential                :     -90.3952263265    
 exchange                    :     -66.9123307686    
 correlation                 :     -1.42062779365    
 total energy                :     -1655.60434981    
 
Density of states at Fermi energy :    2.908628906    
 (states/Hartree/unit cell)
 
Estimated indirect band gap :   0.2425113887E-02
 from k-point    125 to k-point     96
Estimated direct band gap   :   0.7079958588E-01
 at k-point     56
 
Charges :
 core                        :    12.00000000    
 valence                     :    17.00000000    
 interstitial                :   0.8475849900    
 muffin-tins (core leakage)
  species :    1 (Cu)
   atom    1                 :    28.15241501     (  0.3620933791E-03)
 total in muffin-tins        :    28.15241501    
 total calculated charge     :    28.99985871    
 total charge                :    29.00000000    
 error                       :   0.1412939670E-03
 
RMS change in Kohn-Sham potential (target) :   0.1736028107E-03 (   10.00000000    )
Absolute change in total energy (target)   :   0.2631597908E-05 (  0.1000000000E-07)
 
Time (CPU seconds) :       197.67
 
+--------------------+
| Loop number :   30 |
+--------------------+
 
Energies :
 Fermi                       :     0.387143740588    
 sum of eigenvalues          :     -945.834726199    
 electron kinetic            :      1687.13064142    
 core electron kinetic       :      1501.89189978    
 Coulomb                     :     -3274.40203287    
 Coulomb potential           :     -2542.57014133    
 nuclear-nuclear             :     -228.221914431    
 electron-nuclear            :     -3549.79009554    
 Hartree                     :      503.609977102    
 Madelung                    :     -2003.11696220    
 xc potential                :     -90.3952262908    
 exchange                    :     -66.9123307384    
 correlation                 :     -1.42062779415    
 total energy                :     -1655.60434997    
 
Density of states at Fermi energy :    2.908636958    
 (states/Hartree/unit cell)
 
Estimated indirect band gap :   0.2425115109E-02
 from k-point    125 to k-point     96
Estimated direct band gap   :   0.7079958302E-01
 at k-point     56
 
Charges :
 core                        :    12.00000000    
 valence                     :    17.00000000    
 interstitial                :   0.8475850007    
 muffin-tins (core leakage)
  species :    1 (Cu)
   atom    1                 :    28.15241500     (  0.3620933080E-03)
 total in muffin-tins        :    28.15241500    
 total calculated charge     :    28.99985871    
 total charge                :    29.00000000    
 error                       :   0.1412938963E-03
 
Wrote STATE.OUT
 
RMS change in Kohn-Sham potential (target) :   0.1763095256E-03 (   10.00000000    )
Absolute change in total energy (target)   :   0.4928024282E-06 (  0.1000000000E-07)
 
Time (CPU seconds) :       204.51
 
+--------------------+
| Loop number :   31 |
+--------------------+
 
Energies :
 Fermi                       :     0.387143742379    
 sum of eigenvalues          :     -945.834725985    
 electron kinetic            :      1687.13064166    
 core electron kinetic       :      1501.89189950    
 Coulomb                     :     -3274.40203240    
 Coulomb potential           :     -2542.57014138    
 nuclear-nuclear             :     -228.221914431    
 electron-nuclear            :     -3549.79009456    
 Hartree                     :      503.609976589    
 Madelung                    :     -2003.11696171    
 xc potential                :     -90.3952262628    
 exchange                    :     -66.9123307156    
 correlation                 :     -1.42062779449    
 total energy                :     -1655.60434925    
 
Density of states at Fermi energy :    2.908643119    
 (states/Hartree/unit cell)
 
Estimated indirect band gap :   0.2425116052E-02
 from k-point    125 to k-point     96
Estimated direct band gap   :   0.7079958092E-01
 at k-point     56
 
Charges :
 core                        :    12.00000000    
 valence                     :    17.00000000    
 interstitial                :   0.8475850083    
 muffin-tins (core leakage)
  species :    1 (Cu)
   atom    1                 :    28.15241499     (  0.3620933794E-03)
 total in muffin-tins        :    28.15241499    
 total calculated charge     :    28.99985871    
 total charge                :    29.00000000    
 error                       :   0.1412939676E-03
 
RMS change in Kohn-Sham potential (target) :   0.1382379933E-03 (   10.00000000    )
Absolute change in total energy (target)   :   0.8442584658E-06 (  0.1000000000E-07)
 
Time (CPU seconds) :       211.34
 
+--------------------+
| Loop number :   32 |
+--------------------+
 
Energies :
 Fermi                       :     0.387143743856    
 sum of eigenvalues          :     -945.834725847    
 electron kinetic            :      1687.13064182    
 core electron kinetic       :      1501.89189929    
 Coulomb                     :     -3274.40203242    
 Coulomb potential           :     -2542.57014142    
 nuclear-nuclear             :     -228.221914431    
 electron-nuclear            :     -3549.79009456    
 Hartree                     :      503.609976570    
 Madelung                    :     -2003.11696171    
 xc potential                :     -90.3952262485    
 exchange                    :     -66.9123307036    
 correlation                 :     -1.42062779464    
 total energy                :     -1655.60434910    
 
Density of states at Fermi energy :    2.908646993    
 (states/Hartree/unit cell)
 
Estimated indirect band gap :   0.2425116649E-02
 from k-point    125 to k-point     96
Estimated direct band gap   :   0.7079957963E-01
 at k-point     56
 
Charges :
 core                        :    12.00000000    
 valence                     :    17.00000000    
 interstitial                :   0.8475850129    
 muffin-tins (core leakage)
  species :    1 (Cu)
   atom    1                 :    28.15241499     (  0.3620933099E-03)
 total in muffin-tins        :    28.15241499    
 total calculated charge     :    28.99985871    
 total charge                :    29.00000000    
 error                       :   0.1412938966E-03
 
Wrote STATE.OUT
 
RMS change in Kohn-Sham potential (target) :   0.4052806595E-04 (   10.00000000    )
Absolute change in total energy (target)   :   0.3655022738E-06 (  0.1000000000E-07)
 
Time (CPU seconds) :       218.16
 
+--------------------+
| Loop number :   33 |
+--------------------+
 
Energies :
 Fermi                       :     0.387143744988    
 sum of eigenvalues          :     -945.834725752    
 electron kinetic            :      1687.13064190    
 core electron kinetic       :      1501.89189912    
 Coulomb                     :     -3274.40203193    
 Coulomb potential           :     -2542.57014141    
 nuclear-nuclear             :     -228.221914431    
 electron-nuclear            :     -3549.79009359    
 Hartree                     :      503.609976087    
 Madelung                    :     -2003.11696122    
 xc potential                :     -90.3952262388    
 exchange                    :     -66.9123306950    
 correlation                 :     -1.42062779482    
 total energy                :     -1655.60434852    
 
Density of states at Fermi energy :    2.908649271    
 (states/Hartree/unit cell)
 
Estimated indirect band gap :   0.2425117001E-02
 from k-point    125 to k-point     96
Estimated direct band gap   :   0.7079957889E-01
 at k-point     56
 
Charges :
 core                        :    12.00000000    
 valence                     :    17.00000000    
 interstitial                :   0.8475850156    
 muffin-tins (core leakage)
  species :    1 (Cu)
   atom    1                 :    28.15241498     (  0.3620933326E-03)
 total in muffin-tins        :    28.15241498    
 total calculated charge     :    28.99985871    
 total charge                :    29.00000000    
 error                       :   0.1412939202E-03
 
RMS change in Kohn-Sham potential (target) :   0.1253385058E-03 (   10.00000000    )
Absolute change in total energy (target)   :   0.6674354154E-06 (  0.1000000000E-07)
 
Time (CPU seconds) :       225.07
 
+--------------------+
| Loop number :   34 |
+--------------------+
 
Energies :
 Fermi                       :     0.387143745728    
 sum of eigenvalues          :     -945.834725699    
 electron kinetic            :      1687.13064189    
 core electron kinetic       :      1501.89189896    
 Coulomb                     :     -3274.40203190    
 Coulomb potential           :     -2542.57014136    
 nuclear-nuclear             :     -228.221914431    
 electron-nuclear            :     -3549.79009359    
 Hartree                     :      503.609976115    
 Madelung                    :     -2003.11696122    
 xc potential                :     -90.3952262338    
 exchange                    :     -66.9123306902    
 correlation                 :     -1.42062779502    
 total energy                :     -1655.60434850    
 
Density of states at Fermi energy :    2.908650104    
 (states/Hartree/unit cell)
 
Estimated indirect band gap :   0.2425117134E-02
 from k-point    125 to k-point     96
Estimated direct band gap   :   0.7079957864E-01
 at k-point     56
 
Charges :
 core                        :    12.00000000    
 valence                     :    17.00000000    
 interstitial                :   0.8475850167    
 muffin-tins (core leakage)
  species :    1 (Cu)
   atom    1                 :    28.15241498     (  0.3620933271E-03)
 total in muffin-tins        :    28.15241498    
 total calculated charge     :    28.99985871    
 total charge                :    29.00000000    
 error                       :   0.1412939131E-03
 
Wrote STATE.OUT
 
RMS change in Kohn-Sham potential (target) :   0.1838801325E-03 (   10.00000000    )
Absolute change in total energy (target)   :   0.1919008810E-06 (  0.1000000000E-07)
 
Time (CPU seconds) :       231.74
 
+--------------------+
| Loop number :   35 |
+--------------------+
 
Energies :
 Fermi                       :     0.387143746232    
 sum of eigenvalues          :     -945.834725667    
 electron kinetic            :      1687.13064192    
 core electron kinetic       :      1501.89189892    
 Coulomb                     :     -3274.40203190    
 Coulomb potential           :     -2542.57014136    
 nuclear-nuclear             :     -228.221914431    
 electron-nuclear            :     -3549.79009359    
 Hartree                     :      503.609976113    
 Madelung                    :     -2003.11696122    
 xc potential                :     -90.3952262321    
 exchange                    :     -66.9123306888    
 correlation                 :     -1.42062779500    
 total energy                :     -1655.60434846    
 
Density of states at Fermi energy :    2.908650343    
 (states/Hartree/unit cell)
 
Estimated indirect band gap :   0.2425117174E-02
 from k-point    125 to k-point     96
Estimated direct band gap   :   0.7079957860E-01
 at k-point     56
 
Charges :
 core                        :    12.00000000    
 valence                     :    17.00000000    
 interstitial                :   0.8475850170    
 muffin-tins (core leakage)
  species :    1 (Cu)
   atom    1                 :    28.15241498     (  0.3620933530E-03)
 total in muffin-tins        :    28.15241498    
 total calculated charge     :    28.99985871    
 total charge                :    29.00000000    
 error                       :   0.1412939405E-03
 
RMS change in Kohn-Sham potential (target) :   0.1172114908E-03 (   10.00000000    )
Absolute change in total energy (target)   :   0.8123515727E-07 (  0.1000000000E-07)
 
Time (CPU seconds) :       238.50
 
+--------------------+
| Loop number :   36 |
+--------------------+
 
Energies :
 Fermi                       :     0.387143746542    
 sum of eigenvalues          :     -945.834725649    
 electron kinetic            :      1687.13064191    
 core electron kinetic       :      1501.89189886    
 Coulomb                     :     -3274.40203189    
 Coulomb potential           :     -2542.57014133    
 nuclear-nuclear             :     -228.221914431    
 electron-nuclear            :     -3549.79009359    
 Hartree                     :      503.609976128    
 Madelung                    :     -2003.11696122    
 xc potential                :     -90.3952262303    
 exchange                    :     -66.9123306871    
 correlation                 :     -1.42062779504    
 total energy                :     -1655.60434846    
 
Density of states at Fermi energy :    2.908650209    
 (states/Hartree/unit cell)
 
Estimated indirect band gap :   0.2425117156E-02
 from k-point    125 to k-point     96
Estimated direct band gap   :   0.7079957867E-01
 at k-point     56
 
Charges :
 core                        :    12.00000000    
 valence                     :    17.00000000    
 interstitial                :   0.8475850169    
 muffin-tins (core leakage)
  species :    1 (Cu)
   atom    1                 :    28.15241498     (  0.3620934428E-03)
 total in muffin-tins        :    28.15241498    
 total calculated charge     :    28.99985871    
 total charge                :    29.00000000    
 error                       :   0.1412940312E-03
 
Wrote STATE.OUT
 
RMS change in Kohn-Sham potential (target) :   0.5498091350E-04 (   10.00000000    )
Absolute change in total energy (target)   :   0.2327988113E-07 (  0.1000000000E-07)
 
Time (CPU seconds) :       244.97
 
+--------------------+
| Loop number :   37 |
+--------------------+
 
Energies :
 Fermi                       :     0.387143746700    
 sum of eigenvalues          :     -945.834725644    
 electron kinetic            :      1687.13064191    
 core electron kinetic       :      1501.89189884    
 Coulomb                     :     -3274.40203188    
 Coulomb potential           :     -2542.57014132    
 nuclear-nuclear             :     -228.221914431    
 electron-nuclear            :     -3549.79009359    
 Hartree                     :      503.609976133    
 Madelung                    :     -2003.11696122    
 xc potential                :     -90.3952262311    
 exchange                    :     -66.9123306877    
 correlation                 :     -1.42062779502    
 total energy                :     -1655.60434846    
 
Density of states at Fermi energy :    2.908649911    
 (states/Hartree/unit cell)
 
Estimated indirect band gap :   0.2425117114E-02
 from k-point    125 to k-point     96
Estimated direct band gap   :   0.7079957879E-01
 at k-point     56
 
Charges :
 core                        :    12.00000000    
 valence                     :    17.00000000    
 interstitial                :   0.8475850165    
 muffin-tins (core leakage)
  species :    1 (Cu)
   atom    1                 :    28.15241498     (  0.3620932930E-03)
 total in muffin-tins        :    28.15241498    
 total calculated charge     :    28.99985871    
 total charge                :    29.00000000    
 error                       :   0.1412938786E-03
 
RMS change in Kohn-Sham potential (target) :   0.6242663161E-04 (   10.00000000    )
Absolute change in total energy (target)   :   0.6145228326E-08 (  0.1000000000E-07)
 
Convergence targets achieved
 
Time (CPU seconds) :       252.28
 
+--------------------+
| Loop number :   38 |
+--------------------+
 
Energies :
 Fermi                       :     0.387143746833    
 sum of eigenvalues          :     -945.834725635    
 electron kinetic            :      1687.13064191    
 core electron kinetic       :      1501.89189883    
 Coulomb                     :     -3274.40203188    
 Coulomb potential           :     -2542.57014131    
 nuclear-nuclear             :     -228.221914431    
 electron-nuclear            :     -3549.79009359    
 Hartree                     :      503.609976136    
 Madelung                    :     -2003.11696122    
 xc potential                :     -90.3952262277    
 exchange                    :     -66.9123306851    
 correlation                 :     -1.42062779505    
 total energy                :     -1655.60434846    
 
Density of states at Fermi energy :    2.908649986    
 (states/Hartree/unit cell)
 
Estimated indirect band gap :   0.2425117126E-02
 from k-point    125 to k-point     96
Estimated direct band gap   :   0.7079957878E-01
 at k-point     56
 
Charges :
 core                        :    12.00000000    
 valence                     :    17.00000000    
 interstitial                :   0.8475850166    
 muffin-tins (core leakage)
  species :    1 (Cu)
   atom    1                 :    28.15241498     (  0.3620933510E-03)
 total in muffin-tins        :    28.15241498    
 total calculated charge     :    28.99985871    
 total charge                :    29.00000000    
 error                       :   0.1412939376E-03
 
Wrote STATE.OUT
 
+------------------------------+
| Self-consistent loop stopped |
+------------------------------+
 
Wrote STATE.OUT
 
Timings (CPU seconds) :
 initialisation                        :         0.90
 Hamiltonian and overlap matrix set up :        47.38
 first-variational eigenvalue equation :        62.10
 charge density calculation            :        39.34
 potential calculation                 :       109.32
 total                                 :       259.05
 
+----------------------------+
| Elk version 8.3.15 stopped |
+----------------------------+
