   297 : nkpt; k-point, vkl, wkpt, nmat below
     1   0.000000000       0.000000000       0.000000000      0.2035416243E-03     555
     2  0.5882352941E-01   0.000000000       0.000000000      0.1221249746E-02     548
     3  0.1176470588       0.000000000       0.000000000      0.1221249746E-02     552
     4  0.1764705882       0.000000000       0.000000000      0.1221249746E-02     554
     5  0.2352941176       0.000000000       0.000000000      0.1221249746E-02     546
     6  0.2941176471       0.000000000       0.000000000      0.1221249746E-02     542
     7  0.3529411765       0.000000000       0.000000000      0.1221249746E-02     544
     8  0.4117647059       0.000000000       0.000000000      0.1221249746E-02     540
     9  0.4705882353       0.000000000       0.000000000      0.1221249746E-02     532
    10  0.5882352941E-01  0.5882352941E-01   0.000000000      0.1221249746E-02     549
    11  0.1176470588      0.5882352941E-01   0.000000000      0.2442499491E-02     549
    12  0.1764705882      0.5882352941E-01   0.000000000      0.2442499491E-02     550
    13  0.2352941176      0.5882352941E-01   0.000000000      0.2442499491E-02     550
    14  0.2941176471      0.5882352941E-01   0.000000000      0.2442499491E-02     544
    15  0.3529411765      0.5882352941E-01   0.000000000      0.2442499491E-02     542
    16  0.4117647059      0.5882352941E-01   0.000000000      0.2442499491E-02     534
    17  0.4705882353      0.5882352941E-01   0.000000000      0.1221249746E-02     534
    18  0.1176470588      0.1176470588       0.000000000      0.1221249746E-02     549
    19  0.1764705882      0.1176470588       0.000000000      0.2442499491E-02     553
    20  0.2352941176      0.1176470588       0.000000000      0.2442499491E-02     550
    21  0.2941176471      0.1176470588       0.000000000      0.2442499491E-02     542
    22  0.3529411765      0.1176470588       0.000000000      0.2442499491E-02     531
    23  0.4117647059      0.1176470588       0.000000000      0.2442499491E-02     532
    24  0.1764705882      0.1764705882       0.000000000      0.1221249746E-02     549
    25  0.2352941176      0.1764705882       0.000000000      0.2442499491E-02     543
    26  0.2941176471      0.1764705882       0.000000000      0.2442499491E-02     535
    27  0.3529411765      0.1764705882       0.000000000      0.2442499491E-02     535
    28  0.4117647059      0.1764705882       0.000000000      0.1221249746E-02     534
    29  0.2352941176      0.2352941176       0.000000000      0.1221249746E-02     539
    30  0.2941176471      0.2352941176       0.000000000      0.2442499491E-02     537
    31  0.3529411765      0.2352941176       0.000000000      0.2442499491E-02     537
    32  0.2941176471      0.2941176471       0.000000000      0.1221249746E-02     534
    33  0.3529411765      0.2941176471       0.000000000      0.1221249746E-02     540
    34   0.000000000       0.000000000      0.5882352941E-01  0.4070832485E-03     549
    35  0.5882352941E-01   0.000000000      0.5882352941E-01  0.2442499491E-02     548
    36  0.1176470588       0.000000000      0.5882352941E-01  0.2442499491E-02     551
    37  0.1764705882       0.000000000      0.5882352941E-01  0.2442499491E-02     552
    38  0.2352941176       0.000000000      0.5882352941E-01  0.2442499491E-02     548
    39  0.2941176471       0.000000000      0.5882352941E-01  0.2442499491E-02     541
    40  0.3529411765       0.000000000      0.5882352941E-01  0.2442499491E-02     543
    41  0.4117647059       0.000000000      0.5882352941E-01  0.2442499491E-02     536
    42  0.4705882353       0.000000000      0.5882352941E-01  0.2442499491E-02     532
    43  0.5882352941E-01  0.5882352941E-01  0.5882352941E-01  0.2442499491E-02     549
    44  0.1176470588      0.5882352941E-01  0.5882352941E-01  0.4884998982E-02     553
    45  0.1764705882      0.5882352941E-01  0.5882352941E-01  0.4884998982E-02     550
    46  0.2352941176      0.5882352941E-01  0.5882352941E-01  0.4884998982E-02     547
    47  0.2941176471      0.5882352941E-01  0.5882352941E-01  0.4884998982E-02     545
    48  0.3529411765      0.5882352941E-01  0.5882352941E-01  0.4884998982E-02     538
    49  0.4117647059      0.5882352941E-01  0.5882352941E-01  0.4884998982E-02     533
    50  0.4705882353      0.5882352941E-01  0.5882352941E-01  0.2442499491E-02     531
    51  0.1176470588      0.1176470588      0.5882352941E-01  0.2442499491E-02     551
    52  0.1764705882      0.1176470588      0.5882352941E-01  0.4884998982E-02     550
    53  0.2352941176      0.1176470588      0.5882352941E-01  0.4884998982E-02     547
    54  0.2941176471      0.1176470588      0.5882352941E-01  0.4884998982E-02     541
    55  0.3529411765      0.1176470588      0.5882352941E-01  0.4884998982E-02     534
    56  0.4117647059      0.1176470588      0.5882352941E-01  0.4884998982E-02     533
    57  0.1764705882      0.1764705882      0.5882352941E-01  0.2442499491E-02     547
    58  0.2352941176      0.1764705882      0.5882352941E-01  0.4884998982E-02     545
    59  0.2941176471      0.1764705882      0.5882352941E-01  0.4884998982E-02     537
    60  0.3529411765      0.1764705882      0.5882352941E-01  0.4884998982E-02     534
    61  0.4117647059      0.1764705882      0.5882352941E-01  0.2442499491E-02     536
    62  0.2352941176      0.2352941176      0.5882352941E-01  0.2442499491E-02     543
    63  0.2941176471      0.2352941176      0.5882352941E-01  0.4884998982E-02     537
    64  0.3529411765      0.2352941176      0.5882352941E-01  0.4884998982E-02     539
    65  0.2941176471      0.2941176471      0.5882352941E-01  0.2442499491E-02     540
    66  0.3529411765      0.2941176471      0.5882352941E-01  0.2442499491E-02     535
    67   0.000000000       0.000000000      0.1176470588      0.4070832485E-03     549
    68  0.5882352941E-01   0.000000000      0.1176470588      0.2442499491E-02     551
    69  0.1176470588       0.000000000      0.1176470588      0.2442499491E-02     547
    70  0.1764705882       0.000000000      0.1176470588      0.2442499491E-02     550
    71  0.2352941176       0.000000000      0.1176470588      0.2442499491E-02     545
    72  0.2941176471       0.000000000      0.1176470588      0.2442499491E-02     543
    73  0.3529411765       0.000000000      0.1176470588      0.2442499491E-02     541
    74  0.4117647059       0.000000000      0.1176470588      0.2442499491E-02     542
    75  0.4705882353       0.000000000      0.1176470588      0.2442499491E-02     535
    76  0.5882352941E-01  0.5882352941E-01  0.1176470588      0.2442499491E-02     549
    77  0.1176470588      0.5882352941E-01  0.1176470588      0.4884998982E-02     553
    78  0.1764705882      0.5882352941E-01  0.1176470588      0.4884998982E-02     549
    79  0.2352941176      0.5882352941E-01  0.1176470588      0.4884998982E-02     544
    80  0.2941176471      0.5882352941E-01  0.1176470588      0.4884998982E-02     545
    81  0.3529411765      0.5882352941E-01  0.1176470588      0.4884998982E-02     538
    82  0.4117647059      0.5882352941E-01  0.1176470588      0.4884998982E-02     535
    83  0.4705882353      0.5882352941E-01  0.1176470588      0.2442499491E-02     533
    84  0.1176470588      0.1176470588      0.1176470588      0.2442499491E-02     551
    85  0.1764705882      0.1176470588      0.1176470588      0.4884998982E-02     549
    86  0.2352941176      0.1176470588      0.1176470588      0.4884998982E-02     547
    87  0.2941176471      0.1176470588      0.1176470588      0.4884998982E-02     543
    88  0.3529411765      0.1176470588      0.1176470588      0.4884998982E-02     537
    89  0.4117647059      0.1176470588      0.1176470588      0.4884998982E-02     534
    90  0.1764705882      0.1764705882      0.1176470588      0.2442499491E-02     548
    91  0.2352941176      0.1764705882      0.1176470588      0.4884998982E-02     542
    92  0.2941176471      0.1764705882      0.1176470588      0.4884998982E-02     540
    93  0.3529411765      0.1764705882      0.1176470588      0.4884998982E-02     534
    94  0.4117647059      0.1764705882      0.1176470588      0.2442499491E-02     536
    95  0.2352941176      0.2352941176      0.1176470588      0.2442499491E-02     539
    96  0.2941176471      0.2352941176      0.1176470588      0.4884998982E-02     540
    97  0.3529411765      0.2352941176      0.1176470588      0.4884998982E-02     537
    98  0.2941176471      0.2941176471      0.1176470588      0.2442499491E-02     537
    99  0.3529411765      0.2941176471      0.1176470588      0.2442499491E-02     531
   100   0.000000000       0.000000000      0.1764705882      0.4070832485E-03     549
   101  0.5882352941E-01   0.000000000      0.1764705882      0.2442499491E-02     549
   102  0.1176470588       0.000000000      0.1764705882      0.2442499491E-02     546
   103  0.1764705882       0.000000000      0.1764705882      0.2442499491E-02     547
   104  0.2352941176       0.000000000      0.1764705882      0.2442499491E-02     547
   105  0.2941176471       0.000000000      0.1764705882      0.2442499491E-02     549
   106  0.3529411765       0.000000000      0.1764705882      0.2442499491E-02     543
   107  0.4117647059       0.000000000      0.1764705882      0.2442499491E-02     540
   108  0.4705882353       0.000000000      0.1764705882      0.2442499491E-02     536
   109  0.5882352941E-01  0.5882352941E-01  0.1764705882      0.2442499491E-02     547
   110  0.1176470588      0.5882352941E-01  0.1764705882      0.4884998982E-02     549
   111  0.1764705882      0.5882352941E-01  0.1764705882      0.4884998982E-02     548
   112  0.2352941176      0.5882352941E-01  0.1764705882      0.4884998982E-02     545
   113  0.2941176471      0.5882352941E-01  0.1764705882      0.4884998982E-02     544
   114  0.3529411765      0.5882352941E-01  0.1764705882      0.4884998982E-02     542
   115  0.4117647059      0.5882352941E-01  0.1764705882      0.4884998982E-02     535
   116  0.4705882353      0.5882352941E-01  0.1764705882      0.2442499491E-02     535
   117  0.1176470588      0.1176470588      0.1764705882      0.2442499491E-02     549
   118  0.1764705882      0.1176470588      0.1764705882      0.4884998982E-02     548
   119  0.2352941176      0.1176470588      0.1764705882      0.4884998982E-02     543
   120  0.2941176471      0.1176470588      0.1764705882      0.4884998982E-02     540
   121  0.3529411765      0.1176470588      0.1764705882      0.4884998982E-02     538
   122  0.4117647059      0.1176470588      0.1764705882      0.4884998982E-02     538
   123  0.1764705882      0.1764705882      0.1764705882      0.2442499491E-02     547
   124  0.2352941176      0.1764705882      0.1764705882      0.4884998982E-02     540
   125  0.2941176471      0.1764705882      0.1764705882      0.4884998982E-02     539
   126  0.3529411765      0.1764705882      0.1764705882      0.4884998982E-02     539
   127  0.4117647059      0.1764705882      0.1764705882      0.2442499491E-02     536
   128  0.2352941176      0.2352941176      0.1764705882      0.2442499491E-02     537
   129  0.2941176471      0.2352941176      0.1764705882      0.4884998982E-02     538
   130  0.3529411765      0.2352941176      0.1764705882      0.4884998982E-02     539
   131  0.2941176471      0.2941176471      0.1764705882      0.2442499491E-02     535
   132  0.3529411765      0.2941176471      0.1764705882      0.2442499491E-02     528
   133   0.000000000       0.000000000      0.2352941176      0.4070832485E-03     537
   134  0.5882352941E-01   0.000000000      0.2352941176      0.2442499491E-02     546
   135  0.1176470588       0.000000000      0.2352941176      0.2442499491E-02     547
   136  0.1764705882       0.000000000      0.2352941176      0.2442499491E-02     545
   137  0.2352941176       0.000000000      0.2352941176      0.2442499491E-02     552
   138  0.2941176471       0.000000000      0.2352941176      0.2442499491E-02     547
   139  0.3529411765       0.000000000      0.2352941176      0.2442499491E-02     543
   140  0.4117647059       0.000000000      0.2352941176      0.2442499491E-02     542
   141  0.4705882353       0.000000000      0.2352941176      0.2442499491E-02     539
   142  0.5882352941E-01  0.5882352941E-01  0.2352941176      0.2442499491E-02     545
   143  0.1176470588      0.5882352941E-01  0.2352941176      0.4884998982E-02     545
   144  0.1764705882      0.5882352941E-01  0.2352941176      0.4884998982E-02     548
   145  0.2352941176      0.5882352941E-01  0.2352941176      0.4884998982E-02     546
   146  0.2941176471      0.5882352941E-01  0.2352941176      0.4884998982E-02     544
   147  0.3529411765      0.5882352941E-01  0.2352941176      0.4884998982E-02     540
   148  0.4117647059      0.5882352941E-01  0.2352941176      0.4884998982E-02     537
   149  0.4705882353      0.5882352941E-01  0.2352941176      0.2442499491E-02     537
   150  0.1176470588      0.1176470588      0.2352941176      0.2442499491E-02     548
   151  0.1764705882      0.1176470588      0.2352941176      0.4884998982E-02     543
   152  0.2352941176      0.1176470588      0.2352941176      0.4884998982E-02     543
   153  0.2941176471      0.1176470588      0.2352941176      0.4884998982E-02     542
   154  0.3529411765      0.1176470588      0.2352941176      0.4884998982E-02     538
   155  0.4117647059      0.1176470588      0.2352941176      0.4884998982E-02     540
   156  0.1764705882      0.1764705882      0.2352941176      0.2442499491E-02     545
   157  0.2352941176      0.1764705882      0.2352941176      0.4884998982E-02     539
   158  0.2941176471      0.1764705882      0.2352941176      0.4884998982E-02     539
   159  0.3529411765      0.1764705882      0.2352941176      0.4884998982E-02     538
   160  0.4117647059      0.1764705882      0.2352941176      0.2442499491E-02     539
   161  0.2352941176      0.2352941176      0.2352941176      0.2442499491E-02     533
   162  0.2941176471      0.2352941176      0.2352941176      0.4884998982E-02     537
   163  0.3529411765      0.2352941176      0.2352941176      0.4884998982E-02     536
   164  0.2941176471      0.2941176471      0.2352941176      0.2442499491E-02     537
   165  0.3529411765      0.2941176471      0.2352941176      0.2442499491E-02     530
   166   0.000000000       0.000000000      0.2941176471      0.4070832485E-03     549
   167  0.5882352941E-01   0.000000000      0.2941176471      0.2442499491E-02     542
   168  0.1176470588       0.000000000      0.2941176471      0.2442499491E-02     543
   169  0.1764705882       0.000000000      0.2941176471      0.2442499491E-02     543
   170  0.2352941176       0.000000000      0.2941176471      0.2442499491E-02     546
   171  0.2941176471       0.000000000      0.2941176471      0.2442499491E-02     547
   172  0.3529411765       0.000000000      0.2941176471      0.2442499491E-02     544
   173  0.4117647059       0.000000000      0.2941176471      0.2442499491E-02     543
   174  0.4705882353       0.000000000      0.2941176471      0.2442499491E-02     538
   175  0.5882352941E-01  0.5882352941E-01  0.2941176471      0.2442499491E-02     543
   176  0.1176470588      0.5882352941E-01  0.2941176471      0.4884998982E-02     545
   177  0.1764705882      0.5882352941E-01  0.2941176471      0.4884998982E-02     545
   178  0.2352941176      0.5882352941E-01  0.2941176471      0.4884998982E-02     546
   179  0.2941176471      0.5882352941E-01  0.2941176471      0.4884998982E-02     544
   180  0.3529411765      0.5882352941E-01  0.2941176471      0.4884998982E-02     541
   181  0.4117647059      0.5882352941E-01  0.2941176471      0.4884998982E-02     540
   182  0.4705882353      0.5882352941E-01  0.2941176471      0.2442499491E-02     539
   183  0.1176470588      0.1176470588      0.2941176471      0.2442499491E-02     545
   184  0.1764705882      0.1176470588      0.2941176471      0.4884998982E-02     546
   185  0.2352941176      0.1176470588      0.2941176471      0.4884998982E-02     543
   186  0.2941176471      0.1176470588      0.2941176471      0.4884998982E-02     540
   187  0.3529411765      0.1176470588      0.2941176471      0.4884998982E-02     538
   188  0.4117647059      0.1176470588      0.2941176471      0.4884998982E-02     539
   189  0.1764705882      0.1764705882      0.2941176471      0.2442499491E-02     545
   190  0.2352941176      0.1764705882      0.2941176471      0.4884998982E-02     538
   191  0.2941176471      0.1764705882      0.2941176471      0.4884998982E-02     538
   192  0.3529411765      0.1764705882      0.2941176471      0.4884998982E-02     538
   193  0.4117647059      0.1764705882      0.2941176471      0.2442499491E-02     539
   194  0.2352941176      0.2352941176      0.2941176471      0.2442499491E-02     537
   195  0.2941176471      0.2352941176      0.2941176471      0.4884998982E-02     539
   196  0.3529411765      0.2352941176      0.2941176471      0.4884998982E-02     537
   197  0.2941176471      0.2941176471      0.2941176471      0.2442499491E-02     538
   198  0.3529411765      0.2941176471      0.2941176471      0.2442499491E-02     534
   199   0.000000000       0.000000000      0.3529411765      0.4070832485E-03     549
   200  0.5882352941E-01   0.000000000      0.3529411765      0.2442499491E-02     542
   201  0.1176470588       0.000000000      0.3529411765      0.2442499491E-02     546
   202  0.1764705882       0.000000000      0.3529411765      0.2442499491E-02     538
   203  0.2352941176       0.000000000      0.3529411765      0.2442499491E-02     543
   204  0.2941176471       0.000000000      0.3529411765      0.2442499491E-02     544
   205  0.3529411765       0.000000000      0.3529411765      0.2442499491E-02     543
   206  0.4117647059       0.000000000      0.3529411765      0.2442499491E-02     541
   207  0.4705882353       0.000000000      0.3529411765      0.2442499491E-02     536
   208  0.5882352941E-01  0.5882352941E-01  0.3529411765      0.2442499491E-02     542
   209  0.1176470588      0.5882352941E-01  0.3529411765      0.4884998982E-02     542
   210  0.1764705882      0.5882352941E-01  0.3529411765      0.4884998982E-02     541
   211  0.2352941176      0.5882352941E-01  0.3529411765      0.4884998982E-02     545
   212  0.2941176471      0.5882352941E-01  0.3529411765      0.4884998982E-02     542
   213  0.3529411765      0.5882352941E-01  0.3529411765      0.4884998982E-02     541
   214  0.4117647059      0.5882352941E-01  0.3529411765      0.4884998982E-02     539
   215  0.4705882353      0.5882352941E-01  0.3529411765      0.2442499491E-02     538
   216  0.1176470588      0.1176470588      0.3529411765      0.2442499491E-02     543
   217  0.1764705882      0.1176470588      0.3529411765      0.4884998982E-02     543
   218  0.2352941176      0.1176470588      0.3529411765      0.4884998982E-02     542
   219  0.2941176471      0.1176470588      0.3529411765      0.4884998982E-02     542
   220  0.3529411765      0.1176470588      0.3529411765      0.4884998982E-02     541
   221  0.4117647059      0.1176470588      0.3529411765      0.4884998982E-02     537
   222  0.1764705882      0.1764705882      0.3529411765      0.2442499491E-02     545
   223  0.2352941176      0.1764705882      0.3529411765      0.4884998982E-02     539
   224  0.2941176471      0.1764705882      0.3529411765      0.4884998982E-02     538
   225  0.3529411765      0.1764705882      0.3529411765      0.4884998982E-02     540
   226  0.4117647059      0.1764705882      0.3529411765      0.2442499491E-02     540
   227  0.2352941176      0.2352941176      0.3529411765      0.2442499491E-02     539
   228  0.2941176471      0.2352941176      0.3529411765      0.4884998982E-02     540
   229  0.3529411765      0.2352941176      0.3529411765      0.4884998982E-02     538
   230  0.2941176471      0.2941176471      0.3529411765      0.2442499491E-02     538
   231  0.3529411765      0.2941176471      0.3529411765      0.2442499491E-02     538
   232   0.000000000       0.000000000      0.4117647059      0.4070832485E-03     549
   233  0.5882352941E-01   0.000000000      0.4117647059      0.2442499491E-02     548
   234  0.1176470588       0.000000000      0.4117647059      0.2442499491E-02     543
   235  0.1764705882       0.000000000      0.4117647059      0.2442499491E-02     542
   236  0.2352941176       0.000000000      0.4117647059      0.2442499491E-02     540
   237  0.2941176471       0.000000000      0.4117647059      0.2442499491E-02     542
   238  0.3529411765       0.000000000      0.4117647059      0.2442499491E-02     544
   239  0.4117647059       0.000000000      0.4117647059      0.2442499491E-02     538
   240  0.4705882353       0.000000000      0.4117647059      0.2442499491E-02     538
   241  0.5882352941E-01  0.5882352941E-01  0.4117647059      0.2442499491E-02     546
   242  0.1176470588      0.5882352941E-01  0.4117647059      0.4884998982E-02     542
   243  0.1764705882      0.5882352941E-01  0.4117647059      0.4884998982E-02     541
   244  0.2352941176      0.5882352941E-01  0.4117647059      0.4884998982E-02     543
   245  0.2941176471      0.5882352941E-01  0.4117647059      0.4884998982E-02     542
   246  0.3529411765      0.5882352941E-01  0.4117647059      0.4884998982E-02     543
   247  0.4117647059      0.5882352941E-01  0.4117647059      0.4884998982E-02     537
   248  0.4705882353      0.5882352941E-01  0.4117647059      0.2442499491E-02     536
   249  0.1176470588      0.1176470588      0.4117647059      0.2442499491E-02     541
   250  0.1764705882      0.1176470588      0.4117647059      0.4884998982E-02     540
   251  0.2352941176      0.1176470588      0.4117647059      0.4884998982E-02     538
   252  0.2941176471      0.1176470588      0.4117647059      0.4884998982E-02     540
   253  0.3529411765      0.1176470588      0.4117647059      0.4884998982E-02     541
   254  0.4117647059      0.1176470588      0.4117647059      0.4884998982E-02     537
   255  0.1764705882      0.1764705882      0.4117647059      0.2442499491E-02     541
   256  0.2352941176      0.1764705882      0.4117647059      0.4884998982E-02     540
   257  0.2941176471      0.1764705882      0.4117647059      0.4884998982E-02     538
   258  0.3529411765      0.1764705882      0.4117647059      0.4884998982E-02     540
   259  0.4117647059      0.1764705882      0.4117647059      0.2442499491E-02     534
   260  0.2352941176      0.2352941176      0.4117647059      0.2442499491E-02     539
   261  0.2941176471      0.2352941176      0.4117647059      0.4884998982E-02     538
   262  0.3529411765      0.2352941176      0.4117647059      0.4884998982E-02     535
   263  0.2941176471      0.2941176471      0.4117647059      0.2442499491E-02     535
   264  0.3529411765      0.2941176471      0.4117647059      0.2442499491E-02     538
   265   0.000000000       0.000000000      0.4705882353      0.4070832485E-03     556
   266  0.5882352941E-01   0.000000000      0.4705882353      0.2442499491E-02     552
   267  0.1176470588       0.000000000      0.4705882353      0.2442499491E-02     540
   268  0.1764705882       0.000000000      0.4705882353      0.2442499491E-02     543
   269  0.2352941176       0.000000000      0.4705882353      0.2442499491E-02     544
   270  0.2941176471       0.000000000      0.4705882353      0.2442499491E-02     545
   271  0.3529411765       0.000000000      0.4705882353      0.2442499491E-02     540
   272  0.4117647059       0.000000000      0.4705882353      0.2442499491E-02     535
   273  0.4705882353       0.000000000      0.4705882353      0.2442499491E-02     534
   274  0.5882352941E-01  0.5882352941E-01  0.4705882353      0.2442499491E-02     546
   275  0.1176470588      0.5882352941E-01  0.4705882353      0.4884998982E-02     542
   276  0.1764705882      0.5882352941E-01  0.4705882353      0.4884998982E-02     539
   277  0.2352941176      0.5882352941E-01  0.4705882353      0.4884998982E-02     541
   278  0.2941176471      0.5882352941E-01  0.4705882353      0.4884998982E-02     544
   279  0.3529411765      0.5882352941E-01  0.4705882353      0.4884998982E-02     542
   280  0.4117647059      0.5882352941E-01  0.4705882353      0.4884998982E-02     536
   281  0.4705882353      0.5882352941E-01  0.4705882353      0.2442499491E-02     534
   282  0.1176470588      0.1176470588      0.4705882353      0.2442499491E-02     539
   283  0.1764705882      0.1176470588      0.4705882353      0.4884998982E-02     538
   284  0.2352941176      0.1176470588      0.4705882353      0.4884998982E-02     542
   285  0.2941176471      0.1176470588      0.4705882353      0.4884998982E-02     541
   286  0.3529411765      0.1176470588      0.4705882353      0.4884998982E-02     542
   287  0.4117647059      0.1176470588      0.4705882353      0.4884998982E-02     537
   288  0.1764705882      0.1764705882      0.4705882353      0.2442499491E-02     541
   289  0.2352941176      0.1764705882      0.4705882353      0.4884998982E-02     542
   290  0.2941176471      0.1764705882      0.4705882353      0.4884998982E-02     537
   291  0.3529411765      0.1764705882      0.4705882353      0.4884998982E-02     537
   292  0.4117647059      0.1764705882      0.4705882353      0.2442499491E-02     534
   293  0.2352941176      0.2352941176      0.4705882353      0.2442499491E-02     539
   294  0.2941176471      0.2352941176      0.4705882353      0.4884998982E-02     535
   295  0.3529411765      0.2352941176      0.4705882353      0.4884998982E-02     532
   296  0.2941176471      0.2941176471      0.4705882353      0.2442499491E-02     534
   297  0.3529411765      0.2941176471      0.4705882353      0.2442499491E-02     536
