 
+----------------------------+
| Real-space lattice vectors |
+----------------------------+
 
vector a1 :    3.364253447       3.364253447      -3.364253447    
vector a2 :    3.364253447      -3.364253447       3.364253447    
vector a3 :   -3.364253447       3.364253447       3.364253447    
 
Stored column-wise as a matrix :
   3.364253447       3.364253447      -3.364253447    
   3.364253447      -3.364253447       3.364253447    
  -3.364253447       3.364253447       3.364253447    
 
Inverse of matrix :
  0.1486213830      0.1486213830       0.000000000    
  0.1486213830       0.000000000      0.1486213830    
   0.000000000      0.1486213830      0.1486213830    
 
Unit cell volume :    152.3091904    
 
 
+----------------------------------+
| Reciprocal-space lattice vectors |
+----------------------------------+
 
vector b1 :   0.9338156899      0.9338156899       0.000000000    
vector b2 :   0.9338156899       0.000000000      0.9338156899    
vector b3 :    0.000000000      0.9338156899      0.9338156899    
 
Stored column-wise as a matrix :
  0.9338156899      0.9338156899       0.000000000    
  0.9338156899       0.000000000      0.9338156899    
   0.000000000      0.9338156899      0.9338156899    
 
Inverse of matrix :
  0.5354375659      0.5354375659     -0.5354375659    
  0.5354375659     -0.5354375659      0.5354375659    
 -0.5354375659      0.5354375659      0.5354375659    
 
Brillouin zone volume :    1.628596494    
