 
Species :    1 (Ru), atom :    1
 APW functions :
  l =  0, energy derivative =  0 :   0.5989084985    
  l =  1, energy derivative =  0 :   0.5989084985    
  l =  2, energy derivative =  0 :   0.5989084985    
  l =  3, energy derivative =  0 :   0.5989084985    
  l =  4, energy derivative =  0 :   0.5989084985    
  l =  5, energy derivative =  0 :   0.5989084985    
  l =  6, energy derivative =  0 :   0.5989084985    
  l =  7, energy derivative =  0 :   0.5989084985    
  l =  8, energy derivative =  0 :   0.5989084985    
  l =  9, energy derivative =  0 :   0.5989084985    
  l = 10, energy derivative =  0 :   0.5989084985    
 local-orbital functions :
  l.o. =  1, l =  0, energy derivative =  0 :   0.5989084985    
  l.o. =  1, l =  0, energy derivative =  1 :   0.5989084985    
  l.o. =  2, l =  1, energy derivative =  0 :   0.5989084985    
  l.o. =  2, l =  1, energy derivative =  1 :   0.5989084985    
  l.o. =  3, l =  2, energy derivative =  0 :   0.5989084985    
  l.o. =  3, l =  2, energy derivative =  1 :   0.5989084985    
  l.o. =  4, l =  0, energy derivative =  0 :   0.5989084985    
  l.o. =  4, l =  0, energy derivative =  0 :   -2.000651680    
  l.o. =  5, l =  1, energy derivative =  0 :   0.5989084985    
  l.o. =  5, l =  1, energy derivative =  0 :  -0.8918848932    
  l.o. =  6, l =  2, energy derivative =  0 :   0.5989084985    
  l.o. =  6, l =  2, energy derivative =  0 :   0.7194406413    
  l.o. =  7, l =  3, energy derivative =  0 :   0.5989084985    
  l.o. =  7, l =  3, energy derivative =  1 :   0.5989084985    
  l.o. =  8, l =  4, energy derivative =  0 :   0.5989084985    
  l.o. =  8, l =  4, energy derivative =  1 :   0.5989084985    
  l.o. =  9, l =  5, energy derivative =  0 :   0.5989084985    
  l.o. =  9, l =  5, energy derivative =  1 :   0.5989084985    
  l.o. = 10, l =  0, energy derivative =  0 :    1.785833120    
  l.o. = 10, l =  0, energy derivative =  1 :    1.785833120    
  l.o. = 10, l =  0, energy derivative =  2 :    1.785833120    
  l.o. = 11, l =  1, energy derivative =  0 :    2.427350327    
  l.o. = 11, l =  1, energy derivative =  1 :    2.427350327    
  l.o. = 11, l =  1, energy derivative =  2 :    2.427350327    
  l.o. = 12, l =  2, energy derivative =  0 :   0.7194406413    
  l.o. = 12, l =  2, energy derivative =  1 :   0.7194406413    
  l.o. = 12, l =  2, energy derivative =  2 :   0.7194406413    
  l.o. = 13, l =  3, energy derivative =  0 :    2.288295086    
  l.o. = 13, l =  3, energy derivative =  1 :    2.288295086    
  l.o. = 13, l =  3, energy derivative =  2 :    2.288295086    
  l.o. = 14, l =  4, energy derivative =  0 :    4.181367553    
  l.o. = 14, l =  4, energy derivative =  1 :    4.181367553    
  l.o. = 14, l =  4, energy derivative =  2 :    4.181367553    
  l.o. = 15, l =  5, energy derivative =  0 :    5.982874302    
  l.o. = 15, l =  5, energy derivative =  1 :    5.982874302    
  l.o. = 15, l =  5, energy derivative =  2 :    5.982874302    
  l.o. = 16, l =  6, energy derivative =  0 :    7.919511873    
  l.o. = 16, l =  6, energy derivative =  1 :    7.919511873    
  l.o. = 16, l =  6, energy derivative =  2 :    7.919511873    
  l.o. = 17, l =  7, energy derivative =  0 :    10.03210906    
  l.o. = 17, l =  7, energy derivative =  1 :    10.03210906    
  l.o. = 17, l =  7, energy derivative =  2 :    10.03210906    
  l.o. = 18, l =  8, energy derivative =  0 :    12.33445823    
  l.o. = 18, l =  8, energy derivative =  1 :    12.33445823    
  l.o. = 18, l =  8, energy derivative =  2 :    12.33445823    
 
Species :    1 (Ru), atom :    2
 APW functions :
  l =  0, energy derivative =  0 :   0.5989084985    
  l =  1, energy derivative =  0 :   0.5989084985    
  l =  2, energy derivative =  0 :   0.5989084985    
  l =  3, energy derivative =  0 :   0.5989084985    
  l =  4, energy derivative =  0 :   0.5989084985    
  l =  5, energy derivative =  0 :   0.5989084985    
  l =  6, energy derivative =  0 :   0.5989084985    
  l =  7, energy derivative =  0 :   0.5989084985    
  l =  8, energy derivative =  0 :   0.5989084985    
  l =  9, energy derivative =  0 :   0.5989084985    
  l = 10, energy derivative =  0 :   0.5989084985    
 local-orbital functions :
  l.o. =  1, l =  0, energy derivative =  0 :   0.5989084985    
  l.o. =  1, l =  0, energy derivative =  1 :   0.5989084985    
  l.o. =  2, l =  1, energy derivative =  0 :   0.5989084985    
  l.o. =  2, l =  1, energy derivative =  1 :   0.5989084985    
  l.o. =  3, l =  2, energy derivative =  0 :   0.5989084985    
  l.o. =  3, l =  2, energy derivative =  1 :   0.5989084985    
  l.o. =  4, l =  0, energy derivative =  0 :   0.5989084985    
  l.o. =  4, l =  0, energy derivative =  0 :   -2.000651680    
  l.o. =  5, l =  1, energy derivative =  0 :   0.5989084985    
  l.o. =  5, l =  1, energy derivative =  0 :  -0.8918848932    
  l.o. =  6, l =  2, energy derivative =  0 :   0.5989084985    
  l.o. =  6, l =  2, energy derivative =  0 :   0.7194406413    
  l.o. =  7, l =  3, energy derivative =  0 :   0.5989084985    
  l.o. =  7, l =  3, energy derivative =  1 :   0.5989084985    
  l.o. =  8, l =  4, energy derivative =  0 :   0.5989084985    
  l.o. =  8, l =  4, energy derivative =  1 :   0.5989084985    
  l.o. =  9, l =  5, energy derivative =  0 :   0.5989084985    
  l.o. =  9, l =  5, energy derivative =  1 :   0.5989084985    
  l.o. = 10, l =  0, energy derivative =  0 :    1.785833120    
  l.o. = 10, l =  0, energy derivative =  1 :    1.785833120    
  l.o. = 10, l =  0, energy derivative =  2 :    1.785833120    
  l.o. = 11, l =  1, energy derivative =  0 :    2.427350327    
  l.o. = 11, l =  1, energy derivative =  1 :    2.427350327    
  l.o. = 11, l =  1, energy derivative =  2 :    2.427350327    
  l.o. = 12, l =  2, energy derivative =  0 :   0.7194406413    
  l.o. = 12, l =  2, energy derivative =  1 :   0.7194406413    
  l.o. = 12, l =  2, energy derivative =  2 :   0.7194406413    
  l.o. = 13, l =  3, energy derivative =  0 :    2.288295086    
  l.o. = 13, l =  3, energy derivative =  1 :    2.288295086    
  l.o. = 13, l =  3, energy derivative =  2 :    2.288295086    
  l.o. = 14, l =  4, energy derivative =  0 :    4.181367553    
  l.o. = 14, l =  4, energy derivative =  1 :    4.181367553    
  l.o. = 14, l =  4, energy derivative =  2 :    4.181367553    
  l.o. = 15, l =  5, energy derivative =  0 :    5.982874302    
  l.o. = 15, l =  5, energy derivative =  1 :    5.982874302    
  l.o. = 15, l =  5, energy derivative =  2 :    5.982874302    
  l.o. = 16, l =  6, energy derivative =  0 :    7.919511873    
  l.o. = 16, l =  6, energy derivative =  1 :    7.919511873    
  l.o. = 16, l =  6, energy derivative =  2 :    7.919511873    
  l.o. = 17, l =  7, energy derivative =  0 :    10.03210906    
  l.o. = 17, l =  7, energy derivative =  1 :    10.03210906    
  l.o. = 17, l =  7, energy derivative =  2 :    10.03210906    
  l.o. = 18, l =  8, energy derivative =  0 :    12.33445823    
  l.o. = 18, l =  8, energy derivative =  1 :    12.33445823    
  l.o. = 18, l =  8, energy derivative =  2 :    12.33445823    
