   62.20960248    
   59.38980723    
   47.16931014    
   42.60298157    
   59.47773845    
   68.20330344    
   75.83005188    
   76.50022657    
   76.43422849    
   76.41684219    
   76.38878569    
   76.37820519    
   76.37874408    
   76.37823912    
   76.37807501    
   76.37935355    
   76.37848933    
   76.37825679    
   76.37800166    
   76.37804047    
   76.37807905    
   76.37812670    
   76.37765112    
   76.37783719    
   76.37788666    
   76.37781773    
   76.37789388    
   76.37794780    
   76.37794761    
   76.37795414    
   76.37795238    
   76.37794900    
