+----------------------------+
| Elk version 8.3.15 started |
+----------------------------+
 
Date (YYYY-MM-DD) : 2022-02-19
Time (hh:mm:ss)   : 15:15:22
 
All units are atomic (Hartree, Bohr, etc.)
 
+-------------------------------------------------+
| Ground-state run starting from atomic densities |
+-------------------------------------------------+
 
Lattice vectors :
   4.886985316      -2.821502288       0.000000000    
   0.000000000       5.643004575       0.000000000    
   0.000000000       0.000000000       8.408412001    
 
Reciprocal lattice vectors :
   1.285697603       0.000000000       0.000000000    
  0.6428488017       1.113446786       0.000000000    
   0.000000000       0.000000000      0.7472499333    
 
Unit cell volume      :    231.8811363    
Brillouin zone volume :    1.069730024    
 
Muffin-tin inner radius fraction :   0.1000000000E-01
 
Species :    1 (Ti)
 parameters loaded from : Ti.in
 name : titanium
 nuclear charge    :   -22.00000000    
 electronic charge :    22.00000000    
 atomic mass :    87256.20310    
 muffin-tin radius :    2.400000000    
 number of radial points in muffin-tin :   1000
 number on inner part of muffin-tin    :    716
 atomic positions (lattice), magnetic fields (Cartesian) :
   1 :   0.33333333  0.16666667  0.25000000    0.00000000  0.00000000  0.00000000
   2 :  -0.33333333 -0.16666667 -0.25000000    0.00000000  0.00000000  0.00000000
 
Total number of atoms per unit cell :    2
 
Spin treatment :
 spin-unpolarised
 
Number of Bravais lattice symmetries :   24
Number of crystal symmetries         :   24
Crystal has inversion symmetry
Real symmetric eigensolver will be used
 
k-point grid :     17    17    17
k-point offset :    0.000000000       0.000000000       0.000000000    
k-point set is reduced with full crystal symmetry group
Total number of k-points :      297
 
Muffin-tin radius times maximum |G+k| :    8.500000000    
 using gkmax = rgkmax / 2
Maximum |G+k| for APW functions       :    4.250000000    
Maximum (1/2)|G+k|²                   :    9.031250000    
Maximum |G| for potential and density :    34.00000000    
Constant for pseudocharge density :   20
Radial integration step length :    1
 
G-vector grid sizes :     64    64    96
Number of G-vectors :   153865
 
Maximum angular momentum used for
 APW functions                      :   10
 outer part of muffin-tin           :    8
 inner part of muffin-tin           :    1
 
Total nuclear charge    :   -44.00000000    
Total core charge       :    20.00000000    
Total valence charge    :    24.00000000    
Total excess charge     :    0.000000000    
Total electronic charge :    44.00000000    
 
Effective Wigner radius, rₛ :    1.079546560    
 
Number of empty states         :   40
Total number of valence states :   53
Total number of core states    :   20
 
Conduction state local-orbitals added automatically
Total number of local-orbitals :  242
 
Using Libxc version 05.01.05
Exchange-correlation functional :    100   493   494
 exchange: mgga_x_rscan; correlation: mgga_c_rscan
 
Smearing type :    1
 Methfessel-Paxton order 1, Phys. Rev. B 40, 3616 (1989)
Smearing width :   0.1000000000E-02
Effective electronic temperature (K) :    315.7750248    
 
Mixing type :    3
 Broyden mixing, J. Phys. A: Math. Gen. 17, L317 (1984)
 
Kohn-Sham potential initialised from atomic data
 
+------------------------------+
| Self-consistent loop started |
+------------------------------+
 
+--------------------+
| Loop number :    1 |
+--------------------+
 
Energies :
 Fermi                       :     0.161698717193    
 sum of eigenvalues          :     -1010.55712847    
 electron kinetic            :      1714.34440368    
 core electron kinetic       :      1592.42466562    
 Coulomb                     :     -3357.95188628    
 Coulomb potential           :     -2611.81509515    
 nuclear-nuclear             :     -233.523867720    
 electron-nuclear            :     -3637.04094198    
 Hartree                     :      512.612923415    
 Madelung                    :     -2052.04433871    
 xc potential                :     -113.086437004    
 exchange                    :     -83.7583340865    
 correlation                 :     -1.92938682947    
 total energy                :     -1729.29520352    
 
Density of states at Fermi energy :    62.20960248    
 (states/Hartree/unit cell)
 
Estimated indirect band gap :   0.2257377362E-03
 from k-point    192 to k-point    198
Estimated direct band gap   :   0.1153798478E-02
 at k-point    198
 
Charges :
 core                        :    20.00000000    
 valence                     :    24.00000000    
 interstitial                :    2.979548519    
 muffin-tins (core leakage)
  species :    1 (Ti)
   atom    1                 :    20.51022574     (  0.4734221903E-09)
   atom    2                 :    20.51022574     (  0.4734221903E-09)
 total in muffin-tins        :    41.02045148    
 total calculated charge     :    43.99998206    
 total charge                :    44.00000000    
 error                       :   0.1794419449E-04
 
Time (CPU seconds) :        72.25
 
+--------------------+
| Loop number :    2 |
+--------------------+
 
Energies :
 Fermi                       :     0.163757838801    
 sum of eigenvalues          :     -1010.37249730    
 electron kinetic            :      1714.53556602    
 core electron kinetic       :      1591.06750085    
 Coulomb                     :     -3357.81242089    
 Coulomb potential           :     -2611.83696457    
 nuclear-nuclear             :     -233.523867720    
 electron-nuclear            :     -3636.74014177    
 Hartree                     :      512.451588597    
 Madelung                    :     -2051.89393860    
 xc potential                :     -113.071098749    
 exchange                    :     -83.7473567751    
 correlation                 :     -1.92932902537    
 total energy                :     -1728.95354067    
 
Density of states at Fermi energy :    59.38980723    
 (states/Hartree/unit cell)
 
Estimated indirect band gap :   0.1378671379E-03
 from k-point    192 to k-point    198
Estimated direct band gap   :   0.1133327937E-02
 at k-point    198
 
Charges :
 core                        :    20.00000000    
 valence                     :    24.00000000    
 interstitial                :    2.986439293    
 muffin-tins (core leakage)
  species :    1 (Ti)
   atom    1                 :    20.50678035     (  0.4811688825E-09)
   atom    2                 :    20.50678035     (  0.4811688825E-09)
 total in muffin-tins        :    41.01356071    
 total calculated charge     :    43.99998193    
 total charge                :    44.00000000    
 error                       :   0.1807074157E-04
 
Wrote STATE.OUT
 
RMS change in Kohn-Sham potential (target) :   0.5860324943     (   10.00000000    )
Absolute change in total energy (target)   :   0.3416628450     (  0.1000000000E-07)
 
Time (CPU seconds) :       140.79
 
+--------------------+
| Loop number :    3 |
+--------------------+
 
Energies :
 Fermi                       :     0.192162657210    
 sum of eigenvalues          :     -1008.23936996    
 electron kinetic            :      1716.53798667    
 core electron kinetic       :      1587.45433362    
 Coulomb                     :     -3357.05931370    
 Coulomb potential           :     -2611.77091264    
 nuclear-nuclear             :     -233.523867720    
 electron-nuclear            :     -3635.29997932    
 Hartree                     :      511.764533337    
 Madelung                    :     -2051.17385738    
 xc potential                :     -113.006443993    
 exchange                    :     -83.7016615310    
 correlation                 :     -1.92912428267    
 total energy                :     -1726.15211284    
 
Density of states at Fermi energy :    47.16931014    
 (states/Hartree/unit cell)
 
Estimated indirect band gap :   0.9230109621E-03
 from k-point      4 to k-point     77
Estimated direct band gap   :   0.1059144654E-02
 at k-point    198
 
Charges :
 core                        :    20.00000000    
 valence                     :    24.00000000    
 interstitial                :    3.009861067    
 muffin-tins (core leakage)
  species :    1 (Ti)
   atom    1                 :    20.49506947     (  0.7047429307E-09)
   atom    2                 :    20.49506947     (  0.7047429307E-09)
 total in muffin-tins        :    40.99013893    
 total calculated charge     :    43.99998167    
 total charge                :    44.00000000    
 error                       :   0.1832834695E-04
 
RMS change in Kohn-Sham potential (target) :   0.4909559737     (   10.00000000    )
Absolute change in total energy (target)   :    2.886843540     (  0.1000000000E-07)
 
Time (CPU seconds) :       210.27
 
+--------------------+
| Loop number :    4 |
+--------------------+
 
Energies :
 Fermi                       :     0.281004048292    
 sum of eigenvalues          :     -1001.30728363    
 electron kinetic            :      1723.37375154    
 core electron kinetic       :      1588.85073980    
 Coulomb                     :     -3354.09392947    
 Coulomb potential           :     -2611.97119380    
 nuclear-nuclear             :     -233.523867720    
 electron-nuclear            :     -3629.16892971    
 Hartree                     :      508.598867953    
 Madelung                    :     -2048.10833257    
 xc potential                :     -112.709841367    
 exchange                    :     -83.4891507815    
 correlation                 :     -1.92803737434    
 total energy                :     -1716.13736609    
 
Density of states at Fermi energy :    42.60298157    
 (states/Hartree/unit cell)
 
Estimated indirect band gap :   0.2141912578E-03
 from k-point    198 to k-point    290
Estimated direct band gap   :   0.6201779283E-03
 at k-point    198
 
Charges :
 core                        :    20.00000000    
 valence                     :    24.00000000    
 interstitial                :    3.147423076    
 muffin-tins (core leakage)
  species :    1 (Ti)
   atom    1                 :    20.42628846     (  0.1552390216E-08)
   atom    2                 :    20.42628846     (  0.1552390216E-08)
 total in muffin-tins        :    40.85257692    
 total calculated charge     :    43.99997970    
 total charge                :    44.00000000    
 error                       :   0.2029921013E-04
 
Wrote STATE.OUT
 
RMS change in Kohn-Sham potential (target) :   0.2160506385     (   10.00000000    )
Absolute change in total energy (target)   :    10.73645764     (  0.1000000000E-07)
 
Time (CPU seconds) :       279.67
 
+--------------------+
| Loop number :    5 |
+--------------------+
 
Energies :
 Fermi                       :     0.324880060806    
 sum of eigenvalues          :     -997.928334261    
 electron kinetic            :      1726.78563767    
 core electron kinetic       :      1589.83346637    
 Coulomb                     :     -3352.67474016    
 Coulomb potential           :     -2612.15265665    
 nuclear-nuclear             :     -233.523867720    
 electron-nuclear            :     -3626.14908824    
 Hartree                     :      506.998215792    
 Madelung                    :     -2046.59841184    
 xc potential                :     -112.561315275    
 exchange                    :     -83.3830150577    
 correlation                 :     -1.92739590246    
 total energy                :     -1711.19951346    
 
Density of states at Fermi energy :    59.47773845    
 (states/Hartree/unit cell)
 
Estimated indirect band gap :   0.1284413000E-03
 from k-point    176 to k-point    196
Estimated direct band gap   :   0.3737860104E-03
 at k-point    198
 
Charges :
 core                        :    20.00000000    
 valence                     :    24.00000000    
 interstitial                :    3.221268890    
 muffin-tins (core leakage)
  species :    1 (Ti)
   atom    1                 :    20.38936555     (  0.2600396343E-08)
   atom    2                 :    20.38936555     (  0.2600396343E-08)
 total in muffin-tins        :    40.77873111    
 total calculated charge     :    43.99997858    
 total charge                :    44.00000000    
 error                       :   0.2141753310E-04
 
RMS change in Kohn-Sham potential (target) :   0.8150711403E-01 (   10.00000000    )
Absolute change in total energy (target)   :    7.621967042     (  0.1000000000E-07)
 
Time (CPU seconds) :       346.77
 
+--------------------+
| Loop number :    6 |
+--------------------+
 
Energies :
 Fermi                       :     0.342423824821    
 sum of eigenvalues          :     -996.607106060    
 electron kinetic            :      1728.16300214    
 core electron kinetic       :      1590.20698184    
 Coulomb                     :     -3352.14501271    
 Coulomb potential           :     -2612.26785428    
 nuclear-nuclear             :     -233.523867720    
 electron-nuclear            :     -3624.97443569    
 Hartree                     :      506.353290707    
 Madelung                    :     -2046.01108557    
 xc potential                :     -112.502253918    
 exchange                    :     -83.3409281419    
 correlation                 :     -1.92711913503    
 total energy                :     -1709.25005785    
 
Density of states at Fermi energy :    68.20330344    
 (states/Hartree/unit cell)
 
Estimated indirect band gap :   0.1469369054E-03
 from k-point    257 to k-point    196
Estimated direct band gap   :   0.2456347965E-02
 at k-point     44
 
Charges :
 core                        :    20.00000000    
 valence                     :    24.00000000    
 interstitial                :    3.252477723    
 muffin-tins (core leakage)
  species :    1 (Ti)
   atom    1                 :    20.37376114     (  0.3185499864E-08)
   atom    2                 :    20.37376114     (  0.3185499864E-08)
 total in muffin-tins        :    40.74752228    
 total calculated charge     :    43.99997819    
 total charge                :    44.00000000    
 error                       :   0.2180911622E-04
 
Wrote STATE.OUT
 
RMS change in Kohn-Sham potential (target) :   0.2727869959E-01 (   10.00000000    )
Absolute change in total energy (target)   :    3.854947373     (  0.1000000000E-07)
 
Time (CPU seconds) :       416.44
 
+--------------------+
| Loop number :    7 |
+--------------------+
 
Energies :
 Fermi                       :     0.350575954282    
 sum of eigenvalues          :     -996.001431711    
 electron kinetic            :      1728.81617216    
 core electron kinetic       :      1590.60403984    
 Coulomb                     :     -3351.91452991    
 Coulomb potential           :     -2612.34299701    
 nuclear-nuclear             :     -233.523867720    
 electron-nuclear            :     -3624.43832737    
 Hartree                     :      506.047665180    
 Madelung                    :     -2045.74303141    
 xc potential                :     -112.474606856    
 exchange                    :     -83.3212958927    
 correlation                 :     -1.92698156341    
 total energy                :     -1708.34663521    
 
Density of states at Fermi energy :    75.83005188    
 (states/Hartree/unit cell)
 
Estimated indirect band gap :   0.8555516316E-04
 from k-point    257 to k-point    209
Estimated direct band gap   :   0.1960630030E-02
 at k-point     44
 
Charges :
 core                        :    20.00000000    
 valence                     :    24.00000000    
 interstitial                :    3.268014167    
 muffin-tins (core leakage)
  species :    1 (Ti)
   atom    1                 :    20.36599292     (  0.3434644569E-08)
   atom    2                 :    20.36599292     (  0.3434644569E-08)
 total in muffin-tins        :    40.73198583    
 total calculated charge     :    43.99997799    
 total charge                :    44.00000000    
 error                       :   0.2200763612E-04
 
RMS change in Kohn-Sham potential (target) :   0.3794656131E-02 (   10.00000000    )
Absolute change in total energy (target)   :    1.867159480     (  0.1000000000E-07)
 
Time (CPU seconds) :       483.11
 
+--------------------+
| Loop number :    8 |
+--------------------+
 
Energies :
 Fermi                       :     0.350395302456    
 sum of eigenvalues          :     -996.023026974    
 electron kinetic            :      1728.81994664    
 core electron kinetic       :      1590.62592547    
 Coulomb                     :     -3351.92854085    
 Coulomb potential           :     -2612.36914048    
 nuclear-nuclear             :     -233.523867720    
 electron-nuclear            :     -3624.44020578    
 Hartree                     :      506.035532652    
 Madelung                    :     -2045.74397061    
 xc potential                :     -112.473833133    
 exchange                    :     -83.3207828702    
 correlation                 :     -1.92697450466    
 total energy                :     -1708.35635159    
 
Density of states at Fermi energy :    76.50022657    
 (states/Hartree/unit cell)
 
Estimated indirect band gap :   0.8085512033E-04
 from k-point    257 to k-point    209
Estimated direct band gap   :   0.1923182891E-02
 at k-point     44
 
Charges :
 core                        :    20.00000000    
 valence                     :    24.00000000    
 interstitial                :    3.269357759    
 muffin-tins (core leakage)
  species :    1 (Ti)
   atom    1                 :    20.36532112     (  0.3403286541E-08)
   atom    2                 :    20.36532112     (  0.3403286541E-08)
 total in muffin-tins        :    40.73064224    
 total calculated charge     :    43.99997797    
 total charge                :    44.00000000    
 error                       :   0.2203490464E-04
 
Wrote STATE.OUT
 
RMS change in Kohn-Sham potential (target) :   0.1049005587E-02 (   10.00000000    )
Absolute change in total energy (target)   :   0.4570734929     (  0.1000000000E-07)
 
Time (CPU seconds) :       550.22
 
+--------------------+
| Loop number :    9 |
+--------------------+
 
Energies :
 Fermi                       :     0.350244751329    
 sum of eigenvalues          :     -996.035009020    
 electron kinetic            :      1728.81079888    
 core electron kinetic       :      1590.62334462    
 Coulomb                     :     -3351.93542515    
 Coulomb potential           :     -2612.37152911    
 nuclear-nuclear             :     -233.523867720    
 electron-nuclear            :     -3624.45158574    
 Hartree                     :      506.040028315    
 Madelung                    :     -2045.74966059    
 xc potential                :     -112.474278790    
 exchange                    :     -83.3211126421    
 correlation                 :     -1.92697792730    
 total energy                :     -1708.37271683    
 
Density of states at Fermi energy :    76.43422849    
 (states/Hartree/unit cell)
 
Estimated indirect band gap :   0.7584705223E-04
 from k-point    257 to k-point    209
Estimated direct band gap   :   0.1929399589E-02
 at k-point     44
 
Charges :
 core                        :    20.00000000    
 valence                     :    24.00000000    
 interstitial                :    3.269213528    
 muffin-tins (core leakage)
  species :    1 (Ti)
   atom    1                 :    20.36539324     (  0.3376623425E-08)
   atom    2                 :    20.36539324     (  0.3376623425E-08)
 total in muffin-tins        :    40.73078647    
 total calculated charge     :    43.99997797    
 total charge                :    44.00000000    
 error                       :   0.2203450708E-04
 
RMS change in Kohn-Sham potential (target) :   0.2773109747E-03 (   10.00000000    )
Absolute change in total energy (target)   :   0.9790312665E-01 (  0.1000000000E-07)
 
Time (CPU seconds) :       618.38
 
+--------------------+
| Loop number :   10 |
+--------------------+
 
Energies :
 Fermi                       :     0.350231126164    
 sum of eigenvalues          :     -996.034154311    
 electron kinetic            :      1728.80993494    
 core electron kinetic       :      1590.62049108    
 Coulomb                     :     -3351.93319029    
 Coulomb potential           :     -2612.36991215    
 nuclear-nuclear             :     -233.523867720    
 electron-nuclear            :     -3624.44873298    
 Hartree                     :      506.039410416    
 Madelung                    :     -2045.74823421    
 xc potential                :     -112.474177096    
 exchange                    :     -83.3210319549    
 correlation                 :     -1.92697847320    
 total energy                :     -1708.37126578    
 
Density of states at Fermi energy :    76.41684219    
 (states/Hartree/unit cell)
 
Estimated indirect band gap :   0.7584728430E-04
 from k-point    257 to k-point    209
Estimated direct band gap   :   0.1929729846E-02
 at k-point     44
 
Charges :
 core                        :    20.00000000    
 valence                     :    24.00000000    
 interstitial                :    3.269206537    
 muffin-tins (core leakage)
  species :    1 (Ti)
   atom    1                 :    20.36539673     (  0.3456174014E-08)
   atom    2                 :    20.36539673     (  0.3456174014E-08)
 total in muffin-tins        :    40.73079346    
 total calculated charge     :    43.99997797    
 total charge                :    44.00000000    
 error                       :   0.2203417293E-04
 
Wrote STATE.OUT
 
RMS change in Kohn-Sham potential (target) :   0.1397093027E-03 (   10.00000000    )
Absolute change in total energy (target)   :   0.2592683637E-01 (  0.1000000000E-07)
 
Time (CPU seconds) :       685.47
 
+--------------------+
| Loop number :   11 |
+--------------------+
 
Energies :
 Fermi                       :     0.350226096149    
 sum of eigenvalues          :     -996.032327981    
 electron kinetic            :      1728.80935979    
 core electron kinetic       :      1590.61885445    
 Coulomb                     :     -3351.93026540    
 Coulomb potential           :     -2612.36762759    
 nuclear-nuclear             :     -233.523867720    
 electron-nuclear            :     -3624.44516778    
 Hartree                     :      506.038770091    
 Madelung                    :     -2045.74645161    
 xc potential                :     -112.474060175    
 exchange                    :     -83.3209385781    
 correlation                 :     -1.92697922809    
 total energy                :     -1708.36882342    
 
Density of states at Fermi energy :    76.38878569    
 (states/Hartree/unit cell)
 
Estimated indirect band gap :   0.7599563697E-04
 from k-point    257 to k-point    209
Estimated direct band gap   :   0.1930502641E-02
 at k-point     44
 
Charges :
 core                        :    20.00000000    
 valence                     :    24.00000000    
 interstitial                :    3.269181107    
 muffin-tins (core leakage)
  species :    1 (Ti)
   atom    1                 :    20.36540945     (  0.3395799197E-08)
   atom    2                 :    20.36540945     (  0.3395799197E-08)
 total in muffin-tins        :    40.73081889    
 total calculated charge     :    43.99997797    
 total charge                :    44.00000000    
 error                       :   0.2203319538E-04
 
RMS change in Kohn-Sham potential (target) :   0.4086788034E-04 (   10.00000000    )
Absolute change in total energy (target)   :   0.8924066122E-02 (  0.1000000000E-07)
 
Time (CPU seconds) :       754.97
 
+--------------------+
| Loop number :   12 |
+--------------------+
 
Energies :
 Fermi                       :     0.350230471417    
 sum of eigenvalues          :     -996.031669282    
 electron kinetic            :      1728.80937679    
 core electron kinetic       :      1590.61882297    
 Coulomb                     :     -3351.92965409    
 Coulomb potential           :     -2612.36699831    
 nuclear-nuclear             :     -233.523867720    
 electron-nuclear            :     -3624.44457444    
 Hartree                     :      506.038788064    
 Madelung                    :     -2045.74615494    
 xc potential                :     -112.474047763    
 exchange                    :     -83.3209275153    
 correlation                 :     -1.92697951684    
 total energy                :     -1708.36818434    
 
Density of states at Fermi energy :    76.37820519    
 (states/Hartree/unit cell)
 
Estimated indirect band gap :   0.7609102031E-04
 from k-point    257 to k-point    209
Estimated direct band gap   :   0.1930922475E-02
 at k-point     44
 
Charges :
 core                        :    20.00000000    
 valence                     :    24.00000000    
 interstitial                :    3.269163508    
 muffin-tins (core leakage)
  species :    1 (Ti)
   atom    1                 :    20.36541825     (  0.3394120540E-08)
   atom    2                 :    20.36541825     (  0.3394120540E-08)
 total in muffin-tins        :    40.73083649    
 total calculated charge     :    43.99997797    
 total charge                :    44.00000000    
 error                       :   0.2203256480E-04
 
Wrote STATE.OUT
 
RMS change in Kohn-Sham potential (target) :   0.4009959473E-03 (   10.00000000    )
Absolute change in total energy (target)   :   0.2870103384E-02 (  0.1000000000E-07)
 
Time (CPU seconds) :       822.61
 
+--------------------+
| Loop number :   13 |
+--------------------+
 
Energies :
 Fermi                       :     0.350228099421    
 sum of eigenvalues          :     -996.031920347    
 electron kinetic            :      1728.80921915    
 core electron kinetic       :      1590.61871556    
 Coulomb                     :     -3351.92979753    
 Coulomb potential           :     -2612.36708469    
 nuclear-nuclear             :     -233.523867720    
 electron-nuclear            :     -3624.44477493    
 Hartree                     :      506.038845119    
 Madelung                    :     -2045.74625518    
 xc potential                :     -112.474054800    
 exchange                    :     -83.3209326833    
 correlation                 :     -1.92697950650    
 total energy                :     -1708.36849057    
 
Density of states at Fermi energy :    76.37874408    
 (states/Hartree/unit cell)
 
Estimated indirect band gap :   0.7607406753E-04
 from k-point    257 to k-point    209
Estimated direct band gap   :   0.1930922386E-02
 at k-point     44
 
Charges :
 core                        :    20.00000000    
 valence                     :    24.00000000    
 interstitial                :    3.269163496    
 muffin-tins (core leakage)
  species :    1 (Ti)
   atom    1                 :    20.36541825     (  0.3360138834E-08)
   atom    2                 :    20.36541825     (  0.3360138834E-08)
 total in muffin-tins        :    40.73083650    
 total calculated charge     :    43.99997797    
 total charge                :    44.00000000    
 error                       :   0.2203249666E-04
 
RMS change in Kohn-Sham potential (target) :   0.4395297547E-04 (   10.00000000    )
Absolute change in total energy (target)   :   0.4112863389E-03 (  0.1000000000E-07)
 
Time (CPU seconds) :       889.24
 
+--------------------+
| Loop number :   14 |
+--------------------+
 
Energies :
 Fermi                       :     0.350229100486    
 sum of eigenvalues          :     -996.031857078    
 electron kinetic            :      1728.80923965    
 core electron kinetic       :      1590.61872932    
 Coulomb                     :     -3351.92975371    
 Coulomb potential           :     -2612.36704439    
 nuclear-nuclear             :     -233.523867720    
 electron-nuclear            :     -3624.44472758    
 Hartree                     :      506.038841594    
 Madelung                    :     -2045.74623151    
 xc potential                :     -112.474052336    
 exchange                    :     -83.3209305259    
 correlation                 :     -1.92697959377    
 total energy                :     -1708.36842418    
 
Density of states at Fermi energy :    76.37823912    
 (states/Hartree/unit cell)
 
Estimated indirect band gap :   0.7607018215E-04
 from k-point    257 to k-point    209
Estimated direct band gap   :   0.1930905557E-02
 at k-point     44
 
Charges :
 core                        :    20.00000000    
 valence                     :    24.00000000    
 interstitial                :    3.269162950    
 muffin-tins (core leakage)
  species :    1 (Ti)
   atom    1                 :    20.36541853     (  0.3366512402E-08)
   atom    2                 :    20.36541853     (  0.3366512402E-08)
 total in muffin-tins        :    40.73083705    
 total calculated charge     :    43.99997797    
 total charge                :    44.00000000    
 error                       :   0.2203237383E-04
 
Wrote STATE.OUT
 
RMS change in Kohn-Sham potential (target) :   0.3518530187E-04 (   10.00000000    )
Absolute change in total energy (target)   :   0.1692213712E-03 (  0.1000000000E-07)
 
Time (CPU seconds) :       959.01
 
+--------------------+
| Loop number :   15 |
+--------------------+
 
Energies :
 Fermi                       :     0.350230691407    
 sum of eigenvalues          :     -996.031827322    
 electron kinetic            :      1728.80928820    
 core electron kinetic       :      1590.61895975    
 Coulomb                     :     -3351.92979939    
 Coulomb potential           :     -2612.36706105    
 nuclear-nuclear             :     -233.523867720    
 electron-nuclear            :     -3624.44480230    
 Hartree                     :      506.038870628    
 Madelung                    :     -2045.74626887    
 xc potential                :     -112.474054477    
 exchange                    :     -83.3209319381    
 correlation                 :     -1.92697967017    
 total energy                :     -1708.36842280    
 
Density of states at Fermi energy :    76.37807501    
 (states/Hartree/unit cell)
 
Estimated indirect band gap :   0.7606086732E-04
 from k-point    257 to k-point    209
Estimated direct band gap   :   0.1930896169E-02
 at k-point     44
 
Charges :
 core                        :    20.00000000    
 valence                     :    24.00000000    
 interstitial                :    3.269162058    
 muffin-tins (core leakage)
  species :    1 (Ti)
   atom    1                 :    20.36541897     (  0.3403391347E-08)
   atom    2                 :    20.36541897     (  0.3403391347E-08)
 total in muffin-tins        :    40.73083794    
 total calculated charge     :    43.99997797    
 total charge                :    44.00000000    
 error                       :   0.2203240899E-04
 
RMS change in Kohn-Sham potential (target) :   0.6943184006E-03 (   10.00000000    )
Absolute change in total energy (target)   :   0.4367896349E-04 (  0.1000000000E-07)
 
Time (CPU seconds) :      1028.32
 
+--------------------+
| Loop number :   16 |
+--------------------+
 
Energies :
 Fermi                       :     0.350228751665    
 sum of eigenvalues          :     -996.032069664    
 electron kinetic            :      1728.80919159    
 core electron kinetic       :      1590.61888379    
 Coulomb                     :     -3351.92999153    
 Coulomb potential           :     -2612.36719895    
 nuclear-nuclear             :     -233.523867720    
 electron-nuclear            :     -3624.44504866    
 Hartree                     :      506.038924859    
 Madelung                    :     -2045.74639205    
 xc potential                :     -112.474062305    
 exchange                    :     -83.3209379641    
 correlation                 :     -1.92697966064    
 total energy                :     -1708.36871756    
 
Density of states at Fermi energy :    76.37935355    
 (states/Hartree/unit cell)
 
Estimated indirect band gap :   0.7601295571E-04
 from k-point    257 to k-point    209
Estimated direct band gap   :   0.1930876349E-02
 at k-point     44
 
Charges :
 core                        :    20.00000000    
 valence                     :    24.00000000    
 interstitial                :    3.269163140    
 muffin-tins (core leakage)
  species :    1 (Ti)
   atom    1                 :    20.36541843     (  0.3396195325E-08)
   atom    2                 :    20.36541843     (  0.3396195325E-08)
 total in muffin-tins        :    40.73083686    
 total calculated charge     :    43.99997797    
 total charge                :    44.00000000    
 error                       :   0.2203248916E-04
 
Wrote STATE.OUT
 
RMS change in Kohn-Sham potential (target) :   0.7911356518E-04 (   10.00000000    )
Absolute change in total energy (target)   :   0.2838416740E-03 (  0.1000000000E-07)
 
Time (CPU seconds) :      1097.52
 
+--------------------+
| Loop number :   17 |
+--------------------+
 
Energies :
 Fermi                       :     0.350229801680    
 sum of eigenvalues          :     -996.031954103    
 electron kinetic            :      1728.80922987    
 core electron kinetic       :      1590.61883014    
 Coulomb                     :     -3351.92989996    
 Coulomb potential           :     -2612.36712530    
 nuclear-nuclear             :     -233.523867720    
 electron-nuclear            :     -3624.44493917    
 Hartree                     :      506.038906933    
 Madelung                    :     -2045.74633731    
 xc potential                :     -112.474058673    
 exchange                    :     -83.3209350395    
 correlation                 :     -1.92697969957    
 total energy                :     -1708.36858482    
 
Density of states at Fermi energy :    76.37848933    
 (states/Hartree/unit cell)
 
Estimated indirect band gap :   0.7602861122E-04
 from k-point    257 to k-point    209
Estimated direct band gap   :   0.1930891086E-02
 at k-point     44
 
Charges :
 core                        :    20.00000000    
 valence                     :    24.00000000    
 interstitial                :    3.269162068    
 muffin-tins (core leakage)
  species :    1 (Ti)
   atom    1                 :    20.36541897     (  0.3437692797E-08)
   atom    2                 :    20.36541897     (  0.3437692797E-08)
 total in muffin-tins        :    40.73083793    
 total calculated charge     :    43.99997797    
 total charge                :    44.00000000    
 error                       :   0.2203244529E-04
 
RMS change in Kohn-Sham potential (target) :   0.7005147962E-04 (   10.00000000    )
Absolute change in total energy (target)   :   0.6178053036E-04 (  0.1000000000E-07)
 
Time (CPU seconds) :      1165.89
 
+--------------------+
| Loop number :   18 |
+--------------------+
 
Energies :
 Fermi                       :     0.350230313700    
 sum of eigenvalues          :     -996.031895122    
 electron kinetic            :      1728.80925985    
 core electron kinetic       :      1590.61880846    
 Coulomb                     :     -3351.92985894    
 Coulomb potential           :     -2612.36709801    
 nuclear-nuclear             :     -233.523867720    
 electron-nuclear            :     -3624.44488442    
 Hartree                     :      506.038893207    
 Madelung                    :     -2045.74630993    
 xc potential                :     -112.474056959    
 exchange                    :     -83.3209337499    
 correlation                 :     -1.92697969433    
 total energy                :     -1708.36851253    
 
Density of states at Fermi energy :    76.37825679    
 (states/Hartree/unit cell)
 
Estimated indirect band gap :   0.7603971758E-04
 from k-point    257 to k-point    209
Estimated direct band gap   :   0.1930895993E-02
 at k-point     44
 
Charges :
 core                        :    20.00000000    
 valence                     :    24.00000000    
 interstitial                :    3.269161922    
 muffin-tins (core leakage)
  species :    1 (Ti)
   atom    1                 :    20.36541904     (  0.3419016181E-08)
   atom    2                 :    20.36541904     (  0.3419016181E-08)
 total in muffin-tins        :    40.73083808    
 total calculated charge     :    43.99997797    
 total charge                :    44.00000000    
 error                       :   0.2203248114E-04
 
Wrote STATE.OUT
 
RMS change in Kohn-Sham potential (target) :   0.4703717334E-04 (   10.00000000    )
Absolute change in total energy (target)   :   0.8773298441E-04 (  0.1000000000E-07)
 
Time (CPU seconds) :      1234.77
 
+--------------------+
| Loop number :   19 |
+--------------------+
 
Energies :
 Fermi                       :     0.350230719371    
 sum of eigenvalues          :     -996.031860580    
 electron kinetic            :      1728.80927532    
 core electron kinetic       :      1590.61880116    
 Coulomb                     :     -3351.92983723    
 Coulomb potential           :     -2612.36707974    
 nuclear-nuclear             :     -233.523867720    
 electron-nuclear            :     -3624.44485927    
 Hartree                     :      506.038889764    
 Madelung                    :     -2045.74629735    
 xc potential                :     -112.474056158    
 exchange                    :     -83.3209330981    
 correlation                 :     -1.92697970565    
 total energy                :     -1708.36847471    
 
Density of states at Fermi energy :    76.37800166    
 (states/Hartree/unit cell)
 
Estimated indirect band gap :   0.7604366603E-04
 from k-point    257 to k-point    209
Estimated direct band gap   :   0.1930901110E-02
 at k-point     44
 
Charges :
 core                        :    20.00000000    
 valence                     :    24.00000000    
 interstitial                :    3.269161604    
 muffin-tins (core leakage)
  species :    1 (Ti)
   atom    1                 :    20.36541920     (  0.3390837833E-08)
   atom    2                 :    20.36541920     (  0.3390837833E-08)
 total in muffin-tins        :    40.73083840    
 total calculated charge     :    43.99997797    
 total charge                :    44.00000000    
 error                       :   0.2203234968E-04
 
RMS change in Kohn-Sham potential (target) :   0.8422755455E-04 (   10.00000000    )
Absolute change in total energy (target)   :   0.5975783642E-04 (  0.1000000000E-07)
 
Time (CPU seconds) :      1301.36
 
+--------------------+
| Loop number :   20 |
+--------------------+
 
Energies :
 Fermi                       :     0.350230776191    
 sum of eigenvalues          :     -996.031851568    
 electron kinetic            :      1728.80928238    
 core electron kinetic       :      1590.61880939    
 Coulomb                     :     -3351.92983087    
 Coulomb potential           :     -2612.36707812    
 nuclear-nuclear             :     -233.523867720    
 electron-nuclear            :     -3624.44484817    
 Hartree                     :      506.038885026    
 Madelung                    :     -2045.74629181    
 xc potential                :     -112.474055828    
 exchange                    :     -83.3209328785    
 correlation                 :     -1.92697969625    
 total energy                :     -1708.36846106    
 
Density of states at Fermi energy :    76.37804047    
 (states/Hartree/unit cell)
 
Estimated indirect band gap :   0.7604709740E-04
 from k-point    257 to k-point    209
Estimated direct band gap   :   0.1930899917E-02
 at k-point     44
 
Charges :
 core                        :    20.00000000    
 valence                     :    24.00000000    
 interstitial                :    3.269161750    
 muffin-tins (core leakage)
  species :    1 (Ti)
   atom    1                 :    20.36541913     (  0.3412266025E-08)
   atom    2                 :    20.36541913     (  0.3412266025E-08)
 total in muffin-tins        :    40.73083825    
 total calculated charge     :    43.99997797    
 total charge                :    44.00000000    
 error                       :   0.2203236168E-04
 
Wrote STATE.OUT
 
RMS change in Kohn-Sham potential (target) :   0.2568940774E-04 (   10.00000000    )
Absolute change in total energy (target)   :   0.2858865764E-04 (  0.1000000000E-07)
 
Time (CPU seconds) :      1371.56
 
+--------------------+
| Loop number :   21 |
+--------------------+
 
Energies :
 Fermi                       :     0.350230674428    
 sum of eigenvalues          :     -996.031861491    
 electron kinetic            :      1728.80927680    
 core electron kinetic       :      1590.61880196    
 Coulomb                     :     -3351.92983662    
 Coulomb potential           :     -2612.36708222    
 nuclear-nuclear             :     -233.523867720    
 electron-nuclear            :     -3624.44485557    
 Hartree                     :      506.038886674    
 Madelung                    :     -2045.74629551    
 xc potential                :     -112.474056069    
 exchange                    :     -83.3209330573    
 correlation                 :     -1.92697969590    
 total energy                :     -1708.36847257    
 
Density of states at Fermi energy :    76.37807905    
 (states/Hartree/unit cell)
 
Estimated indirect band gap :   0.7604566271E-04
 from k-point    257 to k-point    209
Estimated direct band gap   :   0.1930899250E-02
 at k-point     44
 
Charges :
 core                        :    20.00000000    
 valence                     :    24.00000000    
 interstitial                :    3.269161793    
 muffin-tins (core leakage)
  species :    1 (Ti)
   atom    1                 :    20.36541910     (  0.3427720330E-08)
   atom    2                 :    20.36541910     (  0.3427720330E-08)
 total in muffin-tins        :    40.73083821    
 total calculated charge     :    43.99997797    
 total charge                :    44.00000000    
 error                       :   0.2203251769E-04
 
RMS change in Kohn-Sham potential (target) :   0.6857080268E-04 (   10.00000000    )
Absolute change in total energy (target)   :   0.4362148729E-05 (  0.1000000000E-07)
 
Time (CPU seconds) :      1441.74
 
+--------------------+
| Loop number :   22 |
+--------------------+
 
Energies :
 Fermi                       :     0.350230710719    
 sum of eigenvalues          :     -996.031854855    
 electron kinetic            :      1728.80928303    
 core electron kinetic       :      1590.61876471    
 Coulomb                     :     -3351.92983246    
 Coulomb potential           :     -2612.36708204    
 nuclear-nuclear             :     -233.523867720    
 electron-nuclear            :     -3624.44484743    
 Hartree                     :      506.038882696    
 Madelung                    :     -2045.74629144    
 xc potential                :     -112.474055840    
 exchange                    :     -83.3209329178    
 correlation                 :     -1.92697968603    
 total energy                :     -1708.36846203    
 
Density of states at Fermi energy :    76.37812670    
 (states/Hartree/unit cell)
 
Estimated indirect band gap :   0.7604832009E-04
 from k-point    257 to k-point    209
Estimated direct band gap   :   0.1930898109E-02
 at k-point     44
 
Charges :
 core                        :    20.00000000    
 valence                     :    24.00000000    
 interstitial                :    3.269161939    
 muffin-tins (core leakage)
  species :    1 (Ti)
   atom    1                 :    20.36541903     (  0.3417403249E-08)
   atom    2                 :    20.36541903     (  0.3417403249E-08)
 total in muffin-tins        :    40.73083806    
 total calculated charge     :    43.99997797    
 total charge                :    44.00000000    
 error                       :   0.2203247720E-04
 
Wrote STATE.OUT
 
RMS change in Kohn-Sham potential (target) :   0.4878619233E-03 (   10.00000000    )
Absolute change in total energy (target)   :   0.9444207535E-05 (  0.1000000000E-07)
 
Time (CPU seconds) :      1510.70
 
+--------------------+
| Loop number :   23 |
+--------------------+
 
Energies :
 Fermi                       :     0.350231443683    
 sum of eigenvalues          :     -996.031797251    
 electron kinetic            :      1728.80930818    
 core electron kinetic       :      1590.61878014    
 Coulomb                     :     -3351.92979799    
 Coulomb potential           :     -2612.36705084    
 nuclear-nuclear             :     -233.523867720    
 electron-nuclear            :     -3624.44480970    
 Hartree                     :      506.038879431    
 Madelung                    :     -2045.74627257    
 xc potential                :     -112.474054587    
 exchange                    :     -83.3209318636    
 correlation                 :     -1.92697971289    
 total energy                :     -1708.36840139    
 
Density of states at Fermi energy :    76.37765112    
 (states/Hartree/unit cell)
 
Estimated indirect band gap :   0.7605321813E-04
 from k-point    257 to k-point    209
Estimated direct band gap   :   0.1930907418E-02
 at k-point     44
 
Charges :
 core                        :    20.00000000    
 valence                     :    24.00000000    
 interstitial                :    3.269161300    
 muffin-tins (core leakage)
  species :    1 (Ti)
   atom    1                 :    20.36541935     (  0.3462220732E-08)
   atom    2                 :    20.36541935     (  0.3462220732E-08)
 total in muffin-tins        :    40.73083870    
 total calculated charge     :    43.99997797    
 total charge                :    44.00000000    
 error                       :   0.2203245293E-04
 
RMS change in Kohn-Sham potential (target) :   0.1140940737E-03 (   10.00000000    )
Absolute change in total energy (target)   :   0.6300511677E-04 (  0.1000000000E-07)
 
Time (CPU seconds) :      1579.76
 
+--------------------+
| Loop number :   24 |
+--------------------+
 
Energies :
 Fermi                       :     0.350231186748    
 sum of eigenvalues          :     -996.031818458    
 electron kinetic            :      1728.80929988    
 core electron kinetic       :      1590.61878583    
 Coulomb                     :     -3351.92981124    
 Coulomb potential           :     -2612.36706328    
 nuclear-nuclear             :     -233.523867720    
 electron-nuclear            :     -3624.44482376    
 Hartree                     :      506.038880241    
 Madelung                    :     -2045.74627960    
 xc potential                :     -112.474055060    
 exchange                    :     -83.3209322614    
 correlation                 :     -1.92697970173    
 total energy                :     -1708.36842332    
 
Density of states at Fermi energy :    76.37783719    
 (states/Hartree/unit cell)
 
Estimated indirect band gap :   0.7605159742E-04
 from k-point    257 to k-point    209
Estimated direct band gap   :   0.1930903809E-02
 at k-point     44
 
Charges :
 core                        :    20.00000000    
 valence                     :    24.00000000    
 interstitial                :    3.269161569    
 muffin-tins (core leakage)
  species :    1 (Ti)
   atom    1                 :    20.36541922     (  0.3437857998E-08)
   atom    2                 :    20.36541922     (  0.3437857998E-08)
 total in muffin-tins        :    40.73083843    
 total calculated charge     :    43.99997797    
 total charge                :    44.00000000    
 error                       :   0.2203240385E-04
 
Wrote STATE.OUT
 
RMS change in Kohn-Sham potential (target) :   0.1494914757E-04 (   10.00000000    )
Absolute change in total energy (target)   :   0.6180656328E-05 (  0.1000000000E-07)
 
Time (CPU seconds) :      1649.19
 
+--------------------+
| Loop number :   25 |
+--------------------+
 
Energies :
 Fermi                       :     0.350231086010    
 sum of eigenvalues          :     -996.031826967    
 electron kinetic            :      1728.80929550    
 core electron kinetic       :      1590.61878096    
 Coulomb                     :     -3351.92981653    
 Coulomb potential           :     -2612.36706721    
 nuclear-nuclear             :     -233.523867720    
 electron-nuclear            :     -3624.44483042    
 Hartree                     :      506.038881602    
 Madelung                    :     -2045.74628293    
 xc potential                :     -112.474055253    
 exchange                    :     -83.3209324140    
 correlation                 :     -1.92697969980    
 total energy                :     -1708.36843315    
 
Density of states at Fermi energy :    76.37788666    
 (states/Hartree/unit cell)
 
Estimated indirect band gap :   0.7605054908E-04
 from k-point    257 to k-point    209
Estimated direct band gap   :   0.1930902991E-02
 at k-point     44
 
Charges :
 core                        :    20.00000000    
 valence                     :    24.00000000    
 interstitial                :    3.269161628    
 muffin-tins (core leakage)
  species :    1 (Ti)
   atom    1                 :    20.36541919     (  0.3342872645E-08)
   atom    2                 :    20.36541919     (  0.3342872645E-08)
 total in muffin-tins        :    40.73083837    
 total calculated charge     :    43.99997797    
 total charge                :    44.00000000    
 error                       :   0.2203223587E-04
 
RMS change in Kohn-Sham potential (target) :   0.3186681839E-03 (   10.00000000    )
Absolute change in total energy (target)   :   0.1137295885E-04 (  0.1000000000E-07)
 
Time (CPU seconds) :      1718.54
 
+--------------------+
| Loop number :   26 |
+--------------------+
 
Energies :
 Fermi                       :     0.350231181909    
 sum of eigenvalues          :     -996.031820293    
 electron kinetic            :      1728.80929821    
 core electron kinetic       :      1590.61878601    
 Coulomb                     :     -3351.92981276    
 Coulomb potential           :     -2612.36706337    
 nuclear-nuclear             :     -233.523867720    
 electron-nuclear            :     -3624.44482672    
 Hartree                     :      506.038881672    
 Madelung                    :     -2045.74628108    
 xc potential                :     -112.474055127    
 exchange                    :     -83.3209323007    
 correlation                 :     -1.92697970388    
 total energy                :     -1708.36842656    
 
Density of states at Fermi energy :    76.37781773    
 (states/Hartree/unit cell)
 
Estimated indirect band gap :   0.7605080748E-04
 from k-point    257 to k-point    209
Estimated direct band gap   :   0.1930904386E-02
 at k-point     44
 
Charges :
 core                        :    20.00000000    
 valence                     :    24.00000000    
 interstitial                :    3.269161527    
 muffin-tins (core leakage)
  species :    1 (Ti)
   atom    1                 :    20.36541924     (  0.3427931716E-08)
   atom    2                 :    20.36541924     (  0.3427931716E-08)
 total in muffin-tins        :    40.73083847    
 total calculated charge     :    43.99997797    
 total charge                :    44.00000000    
 error                       :   0.2203239915E-04
 
Wrote STATE.OUT
 
RMS change in Kohn-Sham potential (target) :   0.8584471813E-04 (   10.00000000    )
Absolute change in total energy (target)   :   0.3744824426E-05 (  0.1000000000E-07)
 
Time (CPU seconds) :      1787.53
 
+--------------------+
| Loop number :   27 |
+--------------------+
 
Energies :
 Fermi                       :     0.350231069713    
 sum of eigenvalues          :     -996.031828248    
 electron kinetic            :      1728.80929484    
 core electron kinetic       :      1590.61878980    
 Coulomb                     :     -3351.92981721    
 Coulomb potential           :     -2612.36706782    
 nuclear-nuclear             :     -233.523867720    
 electron-nuclear            :     -3624.44483116    
 Hartree                     :      506.038881669    
 Madelung                    :     -2045.74628330    
 xc potential                :     -112.474055272    
 exchange                    :     -83.3209324307    
 correlation                 :     -1.92697969899    
 total energy                :     -1708.36843450    
 
Density of states at Fermi energy :    76.37789388    
 (states/Hartree/unit cell)
 
Estimated indirect band gap :   0.7605042547E-04
 from k-point    257 to k-point    209
Estimated direct band gap   :   0.1930902966E-02
 at k-point     44
 
Charges :
 core                        :    20.00000000    
 valence                     :    24.00000000    
 interstitial                :    3.269161640    
 muffin-tins (core leakage)
  species :    1 (Ti)
   atom    1                 :    20.36541918     (  0.3399440729E-08)
   atom    2                 :    20.36541918     (  0.3399440729E-08)
 total in muffin-tins        :    40.73083836    
 total calculated charge     :    43.99997797    
 total charge                :    44.00000000    
 error                       :   0.2203240511E-04
 
RMS change in Kohn-Sham potential (target) :   0.1850655025E-03 (   10.00000000    )
Absolute change in total energy (target)   :   0.6996388038E-05 (  0.1000000000E-07)
 
Time (CPU seconds) :      1855.00
 
+--------------------+
| Loop number :   28 |
+--------------------+
 
Energies :
 Fermi                       :     0.350230977586    
 sum of eigenvalues          :     -996.031834670    
 electron kinetic            :      1728.80929183    
 core electron kinetic       :      1590.61878908    
 Coulomb                     :     -3351.92982033    
 Coulomb potential           :     -2612.36707111    
 nuclear-nuclear             :     -233.523867720    
 electron-nuclear            :     -3624.44483412    
 Hartree                     :      506.038881502    
 Madelung                    :     -2045.74628478    
 xc potential                :     -112.474055392    
 exchange                    :     -83.3209325366    
 correlation                 :     -1.92697969496    
 total energy                :     -1708.36844073    
 
Density of states at Fermi energy :    76.37794780    
 (states/Hartree/unit cell)
 
Estimated indirect band gap :   0.7605004468E-04
 from k-point    257 to k-point    209
Estimated direct band gap   :   0.1930901996E-02
 at k-point     44
 
Charges :
 core                        :    20.00000000    
 valence                     :    24.00000000    
 interstitial                :    3.269161717    
 muffin-tins (core leakage)
  species :    1 (Ti)
   atom    1                 :    20.36541914     (  0.3370670854E-08)
   atom    2                 :    20.36541914     (  0.3370670854E-08)
 total in muffin-tins        :    40.73083828    
 total calculated charge     :    43.99997797    
 total charge                :    44.00000000    
 error                       :   0.2203233164E-04
 
Wrote STATE.OUT
 
RMS change in Kohn-Sham potential (target) :   0.2269351191E-04 (   10.00000000    )
Absolute change in total energy (target)   :   0.7985704087E-05 (  0.1000000000E-07)
 
Time (CPU seconds) :      1923.37
 
+--------------------+
| Loop number :   29 |
+--------------------+
 
Energies :
 Fermi                       :     0.350230970545    
 sum of eigenvalues          :     -996.031834442    
 electron kinetic            :      1728.80929164    
 core electron kinetic       :      1590.61878921    
 Coulomb                     :     -3351.92981977    
 Coulomb potential           :     -2612.36707072    
 nuclear-nuclear             :     -233.523867720    
 electron-nuclear            :     -3624.44483338    
 Hartree                     :      506.038881328    
 Madelung                    :     -2045.74628441    
 xc potential                :     -112.474055366    
 exchange                    :     -83.3209325174    
 correlation                 :     -1.92697969482    
 total energy                :     -1708.36844034    
 
Density of states at Fermi energy :    76.37794761    
 (states/Hartree/unit cell)
 
Estimated indirect band gap :   0.7605021112E-04
 from k-point    257 to k-point    209
Estimated direct band gap   :   0.1930902030E-02
 at k-point     44
 
Charges :
 core                        :    20.00000000    
 valence                     :    24.00000000    
 interstitial                :    3.269161719    
 muffin-tins (core leakage)
  species :    1 (Ti)
   atom    1                 :    20.36541914     (  0.3411960492E-08)
   atom    2                 :    20.36541914     (  0.3411960492E-08)
 total in muffin-tins        :    40.73083828    
 total calculated charge     :    43.99997797    
 total charge                :    44.00000000    
 error                       :   0.2203247026E-04
 
RMS change in Kohn-Sham potential (target) :   0.9892172480E-04 (   10.00000000    )
Absolute change in total energy (target)   :   0.1600622909E-05 (  0.1000000000E-07)
 
Time (CPU seconds) :      1992.17
 
+--------------------+
| Loop number :   30 |
+--------------------+
 
Energies :
 Fermi                       :     0.350230955749    
 sum of eigenvalues          :     -996.031835192    
 electron kinetic            :      1728.80929119    
 core electron kinetic       :      1590.61878891    
 Coulomb                     :     -3351.92981991    
 Coulomb potential           :     -2612.36707101    
 nuclear-nuclear             :     -233.523867720    
 electron-nuclear            :     -3624.44483338    
 Hartree                     :      506.038881184    
 Madelung                    :     -2045.74628441    
 xc potential                :     -112.474055376    
 exchange                    :     -83.3209325261    
 correlation                 :     -1.92697969419    
 total energy                :     -1708.36844094    
 
Density of states at Fermi energy :    76.37795414    
 (states/Hartree/unit cell)
 
Estimated indirect band gap :   0.7605022676E-04
 from k-point    257 to k-point    209
Estimated direct band gap   :   0.1930901916E-02
 at k-point     44
 
Charges :
 core                        :    20.00000000    
 valence                     :    24.00000000    
 interstitial                :    3.269161729    
 muffin-tins (core leakage)
  species :    1 (Ti)
   atom    1                 :    20.36541914     (  0.3322536912E-08)
   atom    2                 :    20.36541914     (  0.3322536912E-08)
 total in muffin-tins        :    40.73083827    
 total calculated charge     :    43.99997797    
 total charge                :    44.00000000    
 error                       :   0.2203219809E-04
 
Wrote STATE.OUT
 
RMS change in Kohn-Sham potential (target) :   0.1179626726E-03 (   10.00000000    )
Absolute change in total energy (target)   :   0.1004399110E-05 (  0.1000000000E-07)
 
Time (CPU seconds) :      2060.48
 
+--------------------+
| Loop number :   31 |
+--------------------+
 
Energies :
 Fermi                       :     0.350230960461    
 sum of eigenvalues          :     -996.031834867    
 electron kinetic            :      1728.80929137    
 core electron kinetic       :      1590.61878861    
 Coulomb                     :     -3351.92981984    
 Coulomb potential           :     -2612.36707087    
 nuclear-nuclear             :     -233.523867720    
 electron-nuclear            :     -3624.44483338    
 Hartree                     :      506.038881253    
 Madelung                    :     -2045.74628441    
 xc potential                :     -112.474055366    
 exchange                    :     -83.3209325199    
 correlation                 :     -1.92697969425    
 total energy                :     -1708.36844069    
 
Density of states at Fermi energy :    76.37795238    
 (states/Hartree/unit cell)
 
Estimated indirect band gap :   0.7605025832E-04
 from k-point    257 to k-point    209
Estimated direct band gap   :   0.1930901940E-02
 at k-point     44
 
Charges :
 core                        :    20.00000000    
 valence                     :    24.00000000    
 interstitial                :    3.269161727    
 muffin-tins (core leakage)
  species :    1 (Ti)
   atom    1                 :    20.36541914     (  0.3393573422E-08)
   atom    2                 :    20.36541914     (  0.3393573422E-08)
 total in muffin-tins        :    40.73083827    
 total calculated charge     :    43.99997797    
 total charge                :    44.00000000    
 error                       :   0.2203236208E-04
 
RMS change in Kohn-Sham potential (target) :   0.2541445365E-04 (   10.00000000    )
Absolute change in total energy (target)   :   0.3567492968E-09 (  0.1000000000E-07)
 
Convergence targets achieved
 
Time (CPU seconds) :      2128.42
 
+--------------------+
| Loop number :   32 |
+--------------------+
 
Energies :
 Fermi                       :     0.350230964852    
 sum of eigenvalues          :     -996.031834446    
 electron kinetic            :      1728.80929156    
 core electron kinetic       :      1590.61878840    
 Coulomb                     :     -3351.92981973    
 Coulomb potential           :     -2612.36707065    
 nuclear-nuclear             :     -233.523867720    
 electron-nuclear            :     -3624.44483338    
 Hartree                     :      506.038881362    
 Madelung                    :     -2045.74628441    
 xc potential                :     -112.474055357    
 exchange                    :     -83.3209325134    
 correlation                 :     -1.92697969432    
 total energy                :     -1708.36844038    
 
Density of states at Fermi energy :    76.37794900    
 (states/Hartree/unit cell)
 
Estimated indirect band gap :   0.7605031893E-04
 from k-point    257 to k-point    209
Estimated direct band gap   :   0.1930902034E-02
 at k-point     44
 
Charges :
 core                        :    20.00000000    
 valence                     :    24.00000000    
 interstitial                :    3.269161723    
 muffin-tins (core leakage)
  species :    1 (Ti)
   atom    1                 :    20.36541914     (  0.3371839696E-08)
   atom    2                 :    20.36541914     (  0.3371839696E-08)
 total in muffin-tins        :    40.73083828    
 total calculated charge     :    43.99997797    
 total charge                :    44.00000000    
 error                       :   0.2203231772E-04
 
Wrote STATE.OUT
 
+------------------------------+
| Self-consistent loop stopped |
+------------------------------+
 
Wrote STATE.OUT
 
Timings (CPU seconds) :
 initialisation                        :         1.19
 Hamiltonian and overlap matrix set up :       651.24
 first-variational eigenvalue equation :       833.94
 charge density calculation            :       223.41
 potential calculation                 :       488.45
 total                                 :      2198.23
 
+----------------------------+
| Elk version 8.3.15 stopped |
+----------------------------+
