  0.7937232374E-02
  0.1080608054    
  0.1348968323    
  0.1010344106    
  0.6531314235E-01
  0.3645506291E-01
  0.6237370028E-02
  0.4326632989E-03
  0.1284084865E-03
  0.1086120901E-03
  0.8156775584E-04
  0.2998095442E-04
  0.5612324458E-05
  0.7444970834E-05
  0.2548462362E-05
  0.7271301001E-06
  0.9258947102E-06
  0.2239103196E-06
  0.1322128810E-05
  0.2378401405E-05
  0.1183288987E-06
  0.1864827937E-07
  0.1407621312E-05
  0.7923663361E-06
  0.3058812581E-06
  0.6049522199E-06
  0.5950423656E-06
  0.5432084436E-06
  0.1124426490E-06
  0.1426524250E-06
  0.2423985279E-06
  0.5253750714E-06
  0.2477390808E-06
  0.3479653969E-06
  0.2278829925E-06
  0.3856912372E-06
  0.6184709491E-06
  0.1852313289E-06
  0.2005253918E-07
  0.1651715138E-06
  0.1866792445E-06
  0.2584492904E-06
  0.1411317498E-06
  0.5227775546E-07
  0.1979133231E-06
  0.2022716217E-08
