 
Species :    1 (Re), atom :    1
 n =  1, l =  0, k =  1 :   -2632.376106    
 n =  2, l =  0, k =  1 :   -454.9319612    
 n =  2, l =  1, k =  1 :   -435.6514713    
 n =  2, l =  1, k =  2 :   -382.4783320    
 n =  3, l =  0, k =  1 :   -104.6091849    
 n =  3, l =  1, k =  1 :   -95.92549403    
 n =  3, l =  1, k =  2 :   -84.37545935    
 n =  3, l =  2, k =  2 :   -69.57357969    
 n =  3, l =  2, k =  3 :   -67.07697005    
 n =  4, l =  0, k =  1 :   -21.14272268    
 n =  4, l =  1, k =  1 :   -17.49913631    
 n =  4, l =  1, k =  2 :   -14.80275542    
 n =  4, l =  2, k =  2 :   -8.771924833    
 n =  4, l =  2, k =  3 :   -8.276062829    
 
Species :    1 (Re), atom :    2
 n =  1, l =  0, k =  1 :   -2632.376106    
 n =  2, l =  0, k =  1 :   -454.9319612    
 n =  2, l =  1, k =  1 :   -435.6514713    
 n =  2, l =  1, k =  2 :   -382.4783320    
 n =  3, l =  0, k =  1 :   -104.6091849    
 n =  3, l =  1, k =  1 :   -95.92549403    
 n =  3, l =  1, k =  2 :   -84.37545935    
 n =  3, l =  2, k =  2 :   -69.57357969    
 n =  3, l =  2, k =  3 :   -67.07697005    
 n =  4, l =  0, k =  1 :   -21.14272268    
 n =  4, l =  1, k =  1 :   -17.49913631    
 n =  4, l =  1, k =  2 :   -14.80275542    
 n =  4, l =  2, k =  2 :   -8.771924833    
 n =  4, l =  2, k =  3 :   -8.276062829    
