    -33699.6297645    
    -33694.7724386    
    -33680.8065606    
    -33575.3872879    
    -33495.0175065    
    -33460.7860471    
    -33447.0656288    
    -33447.3332856    
    -33447.3180909    
    -33447.3406230    
    -33447.3418810    
    -33447.3409509    
    -33447.3399157    
    -33447.3395676    
    -33447.3395359    
    -33447.3395150    
    -33447.3395623    
    -33447.3393527    
    -33447.3393959    
    -33447.3393877    
    -33447.3393888    
    -33447.3393886    
    -33447.3393628    
    -33447.3393720    
    -33447.3393713    
    -33447.3393709    
