   1.204515611    
   1.139335545    
  0.6195051240    
  0.2342300593    
  0.6751172695E-01
  0.2250478428E-02
  0.6886511159E-03
  0.2148825196E-03
  0.6974503346E-04
  0.3655578039E-04
  0.6651575808E-04
  0.6042606798E-05
  0.4352574630E-05
  0.2182362955E-04
  0.3289794231E-05
  0.4182600389E-04
  0.8185391928E-05
  0.1622968485E-04
  0.1214164971E-04
  0.1037391444E-04
  0.2103195306E-05
  0.3082731124E-04
  0.2469168684E-05
  0.2309121069E-04
  0.1972699661E-05
  0.2760348319E-05
  0.2884719792E-04
  0.1394941174E-04
  0.1499239823E-04
  0.8581683751E-05
  0.2142648362E-05
  0.5443562523E-05
  0.5809754747E-05
  0.1938553761E-05
  0.6261632901E-04
  0.2060559043E-04
  0.5829246760E-05
  0.6911568452E-04
  0.1490553103E-04
  0.1926208762E-05
  0.1260859146E-04
  0.1399502929E-04
  0.4122116604E-05
  0.2587376973E-04
  0.1462423529E-04
  0.6028891999E-05
  0.7597092313E-05
  0.8870446394E-04
  0.7163178724E-05
  0.3850959049E-05
  0.2104712165E-04
  0.6245593717E-05
  0.4575170115E-05
  0.9130618585E-05
  0.1105321938E-04
  0.2566705127E-04
  0.1881187933E-04
  0.4078821547E-04
  0.2544637854E-04
  0.2432393274E-04
