  0.1044628642E-02
  0.1243083513E-01
  0.1529138476E-01
  0.9693152709E-02
  0.4895843729E-02
  0.1894713445E-02
  0.8998740134E-03
  0.4919661044E-03
  0.1685846939E-03
  0.5547468140E-04
  0.1605355919E-06
  0.7001361382E-05
  0.3367121826E-04
  0.9297399401E-05
  0.1940452194E-05
  0.8581147313E-05
  0.5571186875E-05
  0.5592666412E-05
  0.3958588650E-05
  0.1849756927E-05
  0.1461775582E-05
  0.6286613825E-06
  0.2084516382E-07
  0.2591541488E-06
  0.4456683200E-07
  0.3969853424E-07
  0.1153587164E-06
  0.4680987331E-07
  0.5863694241E-07
  0.1350963430E-07
  0.1102375791E-07
  0.3289806045E-06
  0.2617775863E-06
  0.8205620361E-07
  0.1046805664E-07
  0.2054935067E-07
  0.1560601959E-07
  0.1777175385E-07
  0.8094502846E-08
