 
Species :    1 (Sc), atom :    1
 n =  1, l =  0, k =  1 :   -161.4624328    
 n =  2, l =  0, k =  1 :   -16.93973308    
 n =  2, l =  1, k =  1 :   -13.87882564    
 n =  2, l =  1, k =  2 :   -13.70736420    
 
Species :    1 (Sc), atom :    2
 n =  1, l =  0, k =  1 :   -161.4624328    
 n =  2, l =  0, k =  1 :   -16.93973308    
 n =  2, l =  1, k =  1 :   -13.87882564    
 n =  2, l =  1, k =  2 :   -13.70736420    
