 
Species :    1 (Sr), atom :    1
 n =  1, l =  0, k =  1 :   -586.3798395    
 n =  2, l =  0, k =  1 :   -78.99533744    
 n =  2, l =  1, k =  1 :   -71.83747419    
 n =  2, l =  1, k =  2 :   -69.31254208    
 n =  3, l =  0, k =  1 :   -11.93473407    
 n =  3, l =  1, k =  1 :   -9.339147889    
 n =  3, l =  1, k =  2 :   -8.951587958    
 n =  3, l =  2, k =  2 :   -4.395694147    
 n =  3, l =  2, k =  3 :   -4.328471308    
