 
+----------------------------+
| Real-space lattice vectors |
+----------------------------+
 
vector a1 :    5.982078516      -3.453754641       0.000000000    
vector a2 :    0.000000000       6.907509283       0.000000000    
vector a3 :    0.000000000       0.000000000       10.03384292    
 
Stored column-wise as a matrix :
   5.982078516       0.000000000       0.000000000    
  -3.453754641       6.907509283       0.000000000    
   0.000000000       0.000000000       10.03384292    
 
Inverse of matrix :
  0.1671659771       0.000000000       0.000000000    
  0.8358298853E-01  0.1447699828       0.000000000    
   0.000000000       0.000000000      0.9966271224E-01
 
Unit cell volume :    414.6110612    
 
 
+----------------------------------+
| Reciprocal-space lattice vectors |
+----------------------------------+
 
vector b1 :    1.050334811       0.000000000       0.000000000    
vector b2 :   0.5251674055      0.9096166288       0.000000000    
vector b3 :    0.000000000       0.000000000      0.6261992892    
 
Stored column-wise as a matrix :
   1.050334811      0.5251674055       0.000000000    
   0.000000000      0.9096166288       0.000000000    
   0.000000000       0.000000000      0.6261992892    
 
Inverse of matrix :
  0.9520773658     -0.5496821234       0.000000000    
   0.000000000       1.099364247       0.000000000    
   0.000000000       0.000000000       1.596935700    
 
Brillouin zone volume :   0.5982720595    
