    56 : nkpt; k-point, vkl, wkpt, nmat below
     1   0.000000000       0.000000000       0.000000000      0.1666666667E-02     833
     2  0.1000000000       0.000000000       0.000000000      0.1000000000E-01     824
     3  0.2000000000       0.000000000       0.000000000      0.1000000000E-01     826
     4  0.3000000000       0.000000000       0.000000000      0.1000000000E-01     820
     5  0.4000000000       0.000000000       0.000000000      0.1000000000E-01     820
     6  0.5000000000       0.000000000       0.000000000      0.5000000000E-02     818
     7  0.1000000000      0.1000000000       0.000000000      0.1000000000E-01     829
     8  0.2000000000      0.1000000000       0.000000000      0.2000000000E-01     823
     9  0.3000000000      0.1000000000       0.000000000      0.2000000000E-01     816
    10  0.4000000000      0.1000000000       0.000000000      0.2000000000E-01     822
    11  0.2000000000      0.2000000000       0.000000000      0.1000000000E-01     821
    12  0.3000000000      0.2000000000       0.000000000      0.2000000000E-01     818
    13  0.4000000000      0.2000000000       0.000000000      0.1000000000E-01     812
    14  0.3000000000      0.3000000000       0.000000000      0.1000000000E-01     805
    15   0.000000000       0.000000000      0.1666666667      0.3333333333E-02     833
    16  0.1000000000       0.000000000      0.1666666667      0.2000000000E-01     822
    17  0.2000000000       0.000000000      0.1666666667      0.2000000000E-01     821
    18  0.3000000000       0.000000000      0.1666666667      0.2000000000E-01     820
    19  0.4000000000       0.000000000      0.1666666667      0.2000000000E-01     823
    20  0.5000000000       0.000000000      0.1666666667      0.1000000000E-01     816
    21  0.1000000000      0.1000000000      0.1666666667      0.2000000000E-01     827
    22  0.2000000000      0.1000000000      0.1666666667      0.4000000000E-01     823
    23  0.3000000000      0.1000000000      0.1666666667      0.4000000000E-01     825
    24  0.4000000000      0.1000000000      0.1666666667      0.4000000000E-01     819
    25  0.2000000000      0.2000000000      0.1666666667      0.2000000000E-01     827
    26  0.3000000000      0.2000000000      0.1666666667      0.4000000000E-01     814
    27  0.4000000000      0.2000000000      0.1666666667      0.2000000000E-01     812
    28  0.3000000000      0.3000000000      0.1666666667      0.2000000000E-01     808
    29   0.000000000       0.000000000      0.3333333333      0.3333333333E-02     826
    30  0.1000000000       0.000000000      0.3333333333      0.2000000000E-01     823
    31  0.2000000000       0.000000000      0.3333333333      0.2000000000E-01     823
    32  0.3000000000       0.000000000      0.3333333333      0.2000000000E-01     818
    33  0.4000000000       0.000000000      0.3333333333      0.2000000000E-01     825
    34  0.5000000000       0.000000000      0.3333333333      0.1000000000E-01     824
    35  0.1000000000      0.1000000000      0.3333333333      0.2000000000E-01     819
    36  0.2000000000      0.1000000000      0.3333333333      0.4000000000E-01     821
    37  0.3000000000      0.1000000000      0.3333333333      0.4000000000E-01     819
    38  0.4000000000      0.1000000000      0.3333333333      0.4000000000E-01     824
    39  0.2000000000      0.2000000000      0.3333333333      0.2000000000E-01     816
    40  0.3000000000      0.2000000000      0.3333333333      0.4000000000E-01     819
    41  0.4000000000      0.2000000000      0.3333333333      0.2000000000E-01     814
    42  0.3000000000      0.3000000000      0.3333333333      0.2000000000E-01     819
    43   0.000000000       0.000000000      0.5000000000      0.1666666667E-02     808
    44  0.1000000000       0.000000000      0.5000000000      0.1000000000E-01     828
    45  0.2000000000       0.000000000      0.5000000000      0.1000000000E-01     824
    46  0.3000000000       0.000000000      0.5000000000      0.1000000000E-01     818
    47  0.4000000000       0.000000000      0.5000000000      0.1000000000E-01     820
    48  0.5000000000       0.000000000      0.5000000000      0.5000000000E-02     830
    49  0.1000000000      0.1000000000      0.5000000000      0.1000000000E-01     820
    50  0.2000000000      0.1000000000      0.5000000000      0.2000000000E-01     814
    51  0.3000000000      0.1000000000      0.5000000000      0.2000000000E-01     820
    52  0.4000000000      0.1000000000      0.5000000000      0.2000000000E-01     818
    53  0.2000000000      0.2000000000      0.5000000000      0.1000000000E-01     822
    54  0.3000000000      0.2000000000      0.5000000000      0.2000000000E-01     822
    55  0.4000000000      0.2000000000      0.5000000000      0.1000000000E-01     820
    56  0.3000000000      0.3000000000      0.5000000000      0.1000000000E-01     818
