    0.195812649565E-03
    0.139302291955E-03
    0.454157607723E-03
    0.258060042092E-03
    0.664426375639E-03
    0.124218568431E-03
    0.676366310285E-03
    0.675341100223E-03
    0.688281589945E-03
    0.696768767576E-03
    0.698940400217E-03
    0.699342057696E-03
    0.699344722351E-03
    0.699356864095E-03
    0.699348880922E-03
    0.699293140144E-03
    0.699277035294E-03
    0.699281389909E-03
    0.699277705610E-03
    0.699276704739E-03
    0.699274120681E-03
    0.699274426150E-03
    0.699275670433E-03
    0.699274467738E-03
    0.699275121930E-03
    0.699274867594E-03
    0.699274687281E-03
    0.699274716884E-03
    0.699275073132E-03
    0.699274824532E-03
    0.699274742726E-03
    0.699274630884E-03
    0.699274602587E-03
    0.699274636110E-03
    0.699274612132E-03
