 
Distance between is =    1 (Os), ia =    1 and
 is =    1 (Os), ia =    1 :    0.000000000    
 is =    1 (Os), ia =    2 :    5.071694418    
 
Distance between is =    1 (Os), ia =    2 and
 is =    1 (Os), ia =    1 :    5.071694418    
 is =    1 (Os), ia =    2 :    0.000000000    
