   165 : nkpt; k-point, vkl, wkpt, nmat below
     1   0.000000000       0.000000000       0.000000000      0.2035416243E-03     449
     2  0.5882352941E-01   0.000000000       0.000000000      0.1628332994E-02     449
     3  0.1176470588       0.000000000       0.000000000      0.1628332994E-02     463
     4  0.1764705882       0.000000000       0.000000000      0.1628332994E-02     469
     5  0.2352941176       0.000000000       0.000000000      0.1628332994E-02     469
     6  0.2941176471       0.000000000       0.000000000      0.1628332994E-02     469
     7  0.3529411765       0.000000000       0.000000000      0.1628332994E-02     469
     8  0.4117647059       0.000000000       0.000000000      0.1628332994E-02     472
     9  0.4705882353       0.000000000       0.000000000      0.1628332994E-02     478
    10  0.5882352941E-01  0.5882352941E-01   0.000000000      0.1221249746E-02     453
    11  0.1176470588      0.5882352941E-01   0.000000000      0.4884998982E-02     458
    12  0.1764705882      0.5882352941E-01   0.000000000      0.4884998982E-02     464
    13  0.2352941176      0.5882352941E-01   0.000000000      0.4884998982E-02     468
    14  0.2941176471      0.5882352941E-01   0.000000000      0.4884998982E-02     470
    15  0.3529411765      0.5882352941E-01   0.000000000      0.4884998982E-02     469
    16  0.4117647059      0.5882352941E-01   0.000000000      0.4884998982E-02     471
    17  0.4705882353      0.5882352941E-01   0.000000000      0.4884998982E-02     474
    18  0.5294117647      0.5882352941E-01   0.000000000      0.4884998982E-02     472
    19  0.5882352941      0.5882352941E-01   0.000000000      0.4884998982E-02     474
    20  0.6470588235      0.5882352941E-01   0.000000000      0.4884998982E-02     472
    21  0.7058823529      0.5882352941E-01   0.000000000      0.4884998982E-02     471
    22  0.7647058824      0.5882352941E-01   0.000000000      0.4884998982E-02     468
    23  0.8235294118      0.5882352941E-01   0.000000000      0.4884998982E-02     472
    24  0.8823529412      0.5882352941E-01   0.000000000      0.4884998982E-02     465
    25  0.9411764706      0.5882352941E-01   0.000000000      0.2442499491E-02     453
    26  0.1176470588      0.1176470588       0.000000000      0.1221249746E-02     461
    27  0.1764705882      0.1176470588       0.000000000      0.4884998982E-02     464
    28  0.2352941176      0.1176470588       0.000000000      0.4884998982E-02     469
    29  0.2941176471      0.1176470588       0.000000000      0.4884998982E-02     475
    30  0.3529411765      0.1176470588       0.000000000      0.4884998982E-02     472
    31  0.4117647059      0.1176470588       0.000000000      0.4884998982E-02     476
    32  0.4705882353      0.1176470588       0.000000000      0.4884998982E-02     478
    33  0.5294117647      0.1176470588       0.000000000      0.4884998982E-02     478
    34  0.5882352941      0.1176470588       0.000000000      0.4884998982E-02     475
    35  0.6470588235      0.1176470588       0.000000000      0.4884998982E-02     471
    36  0.7058823529      0.1176470588       0.000000000      0.4884998982E-02     472
    37  0.7647058824      0.1176470588       0.000000000      0.4884998982E-02     470
    38  0.8235294118      0.1176470588       0.000000000      0.4884998982E-02     474
    39  0.8823529412      0.1176470588       0.000000000      0.2442499491E-02     471
    40  0.1764705882      0.1764705882       0.000000000      0.1221249746E-02     465
    41  0.2352941176      0.1764705882       0.000000000      0.4884998982E-02     465
    42  0.2941176471      0.1764705882       0.000000000      0.4884998982E-02     467
    43  0.3529411765      0.1764705882       0.000000000      0.4884998982E-02     473
    44  0.4117647059      0.1764705882       0.000000000      0.4884998982E-02     475
    45  0.4705882353      0.1764705882       0.000000000      0.4884998982E-02     477
    46  0.5294117647      0.1764705882       0.000000000      0.4884998982E-02     478
    47  0.5882352941      0.1764705882       0.000000000      0.4884998982E-02     480
    48  0.6470588235      0.1764705882       0.000000000      0.4884998982E-02     477
    49  0.7058823529      0.1764705882       0.000000000      0.4884998982E-02     473
    50  0.7647058824      0.1764705882       0.000000000      0.4884998982E-02     472
    51  0.8235294118      0.1764705882       0.000000000      0.2442499491E-02     475
    52  0.2352941176      0.2352941176       0.000000000      0.1221249746E-02     461
    53  0.2941176471      0.2352941176       0.000000000      0.4884998982E-02     466
    54  0.3529411765      0.2352941176       0.000000000      0.4884998982E-02     469
    55  0.4117647059      0.2352941176       0.000000000      0.4884998982E-02     472
    56  0.4705882353      0.2352941176       0.000000000      0.4884998982E-02     478
    57  0.5294117647      0.2352941176       0.000000000      0.4884998982E-02     475
    58  0.5882352941      0.2352941176       0.000000000      0.4884998982E-02     479
    59  0.6470588235      0.2352941176       0.000000000      0.4884998982E-02     477
    60  0.7058823529      0.2352941176       0.000000000      0.4884998982E-02     480
    61  0.7647058824      0.2352941176       0.000000000      0.2442499491E-02     475
    62  0.2941176471      0.2941176471       0.000000000      0.1221249746E-02     469
    63  0.3529411765      0.2941176471       0.000000000      0.4884998982E-02     471
    64  0.4117647059      0.2941176471       0.000000000      0.4884998982E-02     475
    65  0.4705882353      0.2941176471       0.000000000      0.4884998982E-02     475
    66  0.5294117647      0.2941176471       0.000000000      0.4884998982E-02     474
    67  0.5882352941      0.2941176471       0.000000000      0.4884998982E-02     477
    68  0.6470588235      0.2941176471       0.000000000      0.4884998982E-02     479
    69  0.7058823529      0.2941176471       0.000000000      0.2442499491E-02     479
    70  0.3529411765      0.3529411765       0.000000000      0.1221249746E-02     465
    71  0.4117647059      0.3529411765       0.000000000      0.4884998982E-02     474
    72  0.4705882353      0.3529411765       0.000000000      0.4884998982E-02     474
    73  0.5294117647      0.3529411765       0.000000000      0.4884998982E-02     474
    74  0.5882352941      0.3529411765       0.000000000      0.4884998982E-02     477
    75  0.6470588235      0.3529411765       0.000000000      0.2442499491E-02     485
    76  0.4117647059      0.4117647059       0.000000000      0.1221249746E-02     469
    77  0.4705882353      0.4117647059       0.000000000      0.4884998982E-02     476
    78  0.5294117647      0.4117647059       0.000000000      0.4884998982E-02     472
    79  0.5882352941      0.4117647059       0.000000000      0.2442499491E-02     475
    80  0.4705882353      0.4705882353       0.000000000      0.1221249746E-02     469
    81  0.5294117647      0.4705882353       0.000000000      0.2442499491E-02     475
    82  0.1764705882      0.1176470588      0.5882352941E-01  0.4884998982E-02     465
    83  0.2352941176      0.1176470588      0.5882352941E-01  0.9769997965E-02     469
    84  0.2941176471      0.1176470588      0.5882352941E-01  0.9769997965E-02     471
    85  0.3529411765      0.1176470588      0.5882352941E-01  0.9769997965E-02     470
    86  0.4117647059      0.1176470588      0.5882352941E-01  0.9769997965E-02     471
    87  0.4705882353      0.1176470588      0.5882352941E-01  0.9769997965E-02     476
    88  0.5294117647      0.1176470588      0.5882352941E-01  0.9769997965E-02     477
    89  0.2352941176      0.1764705882      0.5882352941E-01  0.4884998982E-02     468
    90  0.2941176471      0.1764705882      0.5882352941E-01  0.9769997965E-02     467
    91  0.3529411765      0.1764705882      0.5882352941E-01  0.9769997965E-02     476
    92  0.4117647059      0.1764705882      0.5882352941E-01  0.9769997965E-02     475
    93  0.4705882353      0.1764705882      0.5882352941E-01  0.9769997965E-02     478
    94  0.5294117647      0.1764705882      0.5882352941E-01  0.9769997965E-02     477
    95  0.5882352941      0.1764705882      0.5882352941E-01  0.9769997965E-02     478
    96  0.6470588235      0.1764705882      0.5882352941E-01  0.9769997965E-02     477
    97  0.7058823529      0.1764705882      0.5882352941E-01  0.9769997965E-02     474
    98  0.7647058824      0.1764705882      0.5882352941E-01  0.9769997965E-02     473
    99  0.8235294118      0.1764705882      0.5882352941E-01  0.9769997965E-02     471
   100  0.8823529412      0.1764705882      0.5882352941E-01  0.4884998982E-02     471
   101  0.2941176471      0.2352941176      0.5882352941E-01  0.4884998982E-02     466
   102  0.3529411765      0.2352941176      0.5882352941E-01  0.9769997965E-02     467
   103  0.4117647059      0.2352941176      0.5882352941E-01  0.9769997965E-02     473
   104  0.4705882353      0.2352941176      0.5882352941E-01  0.9769997965E-02     478
   105  0.5294117647      0.2352941176      0.5882352941E-01  0.9769997965E-02     476
   106  0.5882352941      0.2352941176      0.5882352941E-01  0.9769997965E-02     479
   107  0.6470588235      0.2352941176      0.5882352941E-01  0.9769997965E-02     479
   108  0.7058823529      0.2352941176      0.5882352941E-01  0.9769997965E-02     476
   109  0.7647058824      0.2352941176      0.5882352941E-01  0.9769997965E-02     474
   110  0.8235294118      0.2352941176      0.5882352941E-01  0.4884998982E-02     471
   111  0.3529411765      0.2941176471      0.5882352941E-01  0.4884998982E-02     467
   112  0.4117647059      0.2941176471      0.5882352941E-01  0.9769997965E-02     473
   113  0.4705882353      0.2941176471      0.5882352941E-01  0.9769997965E-02     473
   114  0.5294117647      0.2941176471      0.5882352941E-01  0.9769997965E-02     478
   115  0.5882352941      0.2941176471      0.5882352941E-01  0.9769997965E-02     478
   116  0.6470588235      0.2941176471      0.5882352941E-01  0.9769997965E-02     477
   117  0.7058823529      0.2941176471      0.5882352941E-01  0.9769997965E-02     479
   118  0.7647058824      0.2941176471      0.5882352941E-01  0.4884998982E-02     477
   119  0.4117647059      0.3529411765      0.5882352941E-01  0.4884998982E-02     475
   120  0.4705882353      0.3529411765      0.5882352941E-01  0.9769997965E-02     470
   121  0.5294117647      0.3529411765      0.5882352941E-01  0.9769997965E-02     475
   122  0.5882352941      0.3529411765      0.5882352941E-01  0.9769997965E-02     481
   123  0.6470588235      0.3529411765      0.5882352941E-01  0.9769997965E-02     481
   124  0.7058823529      0.3529411765      0.5882352941E-01  0.4884998982E-02     482
   125  0.4705882353      0.4117647059      0.5882352941E-01  0.4884998982E-02     473
   126  0.5294117647      0.4117647059      0.5882352941E-01  0.9769997965E-02     472
   127  0.5882352941      0.4117647059      0.5882352941E-01  0.9769997965E-02     477
   128  0.6470588235      0.4117647059      0.5882352941E-01  0.4884998982E-02     480
   129  0.5294117647      0.4705882353      0.5882352941E-01  0.4884998982E-02     473
   130  0.5882352941      0.4705882353      0.5882352941E-01  0.4884998982E-02     475
   131  0.3529411765      0.2352941176      0.1176470588      0.4884998982E-02     472
   132  0.4117647059      0.2352941176      0.1176470588      0.9769997965E-02     473
   133  0.4705882353      0.2352941176      0.1176470588      0.9769997965E-02     476
   134  0.5294117647      0.2352941176      0.1176470588      0.9769997965E-02     477
   135  0.5882352941      0.2352941176      0.1176470588      0.9769997965E-02     482
   136  0.4117647059      0.2941176471      0.1176470588      0.4884998982E-02     468
   137  0.4705882353      0.2941176471      0.1176470588      0.9769997965E-02     474
   138  0.5294117647      0.2941176471      0.1176470588      0.9769997965E-02     476
   139  0.5882352941      0.2941176471      0.1176470588      0.9769997965E-02     481
   140  0.6470588235      0.2941176471      0.1176470588      0.9769997965E-02     482
   141  0.7058823529      0.2941176471      0.1176470588      0.9769997965E-02     478
   142  0.7647058824      0.2941176471      0.1176470588      0.9769997965E-02     476
   143  0.8235294118      0.2941176471      0.1176470588      0.4884998982E-02     472
   144  0.4705882353      0.3529411765      0.1176470588      0.4884998982E-02     469
   145  0.5294117647      0.3529411765      0.1176470588      0.9769997965E-02     472
   146  0.5882352941      0.3529411765      0.1176470588      0.9769997965E-02     478
   147  0.6470588235      0.3529411765      0.1176470588      0.9769997965E-02     482
   148  0.7058823529      0.3529411765      0.1176470588      0.9769997965E-02     481
   149  0.7647058824      0.3529411765      0.1176470588      0.4884998982E-02     483
   150  0.5294117647      0.4117647059      0.1176470588      0.4884998982E-02     471
   151  0.5882352941      0.4117647059      0.1176470588      0.9769997965E-02     477
   152  0.6470588235      0.4117647059      0.1176470588      0.9769997965E-02     481
   153  0.7058823529      0.4117647059      0.1176470588      0.4884998982E-02     482
   154  0.5882352941      0.4705882353      0.1176470588      0.4884998982E-02     473
   155  0.6470588235      0.4705882353      0.1176470588      0.4884998982E-02     477
   156  0.5294117647      0.3529411765      0.1764705882      0.4884998982E-02     471
   157  0.5882352941      0.3529411765      0.1764705882      0.9769997965E-02     477
   158  0.6470588235      0.3529411765      0.1764705882      0.9769997965E-02     479
   159  0.5882352941      0.4117647059      0.1764705882      0.4884998982E-02     477
   160  0.6470588235      0.4117647059      0.1764705882      0.9769997965E-02     482
   161  0.7058823529      0.4117647059      0.1764705882      0.9769997965E-02     482
   162  0.7647058824      0.4117647059      0.1764705882      0.4884998982E-02     484
   163  0.6470588235      0.4705882353      0.1764705882      0.4884998982E-02     482
   164  0.7058823529      0.4705882353      0.1764705882      0.4884998982E-02     485
   165  0.7058823529      0.4705882353      0.2352941176      0.4884998982E-02     481
