  0.4635033777    
  0.3404599918    
  0.1642824371    
  0.5941886159E-01
  0.1872219494E-01
  0.3131556704E-02
  0.7699426144E-03
  0.1473815570E-03
  0.8494165088E-04
  0.2551625006E-04
  0.3211051647E-04
  0.1454566812E-04
  0.1443779481E-04
  0.3764273236E-05
  0.1170437608E-03
  0.1255545539E-04
  0.4614511597E-05
  0.5169447179E-04
  0.1187940633E-04
  0.8523153805E-05
  0.8871966111E-04
  0.3985887063E-04
  0.1408154990E-04
  0.2640599979E-04
  0.2068048159E-04
  0.1787211226E-04
  0.2738468965E-04
  0.9920618428E-04
  0.5226274068E-05
  0.5890637297E-04
  0.8765680248E-04
  0.7776743058E-05
  0.3228029434E-04
  0.7546192034E-05
  0.1762914252E-04
  0.2005612923E-04
  0.1258591536E-04
