 
Species :    1 (Ti), atom :    1
 n =  1, l =  0, k =  1 :   -178.7620795    
 n =  2, l =  0, k =  1 :   -19.18460731    
 n =  2, l =  1, k =  1 :   -15.90754120    
 n =  2, l =  1, k =  2 :   -15.69436615    
 
Species :    1 (Ti), atom :    2
 n =  1, l =  0, k =  1 :   -178.7620795    
 n =  2, l =  0, k =  1 :   -19.18460731    
 n =  2, l =  1, k =  1 :   -15.90754120    
 n =  2, l =  1, k =  2 :   -15.69436615    
