  0.3488968344    
   2.513540212    
   10.82043299    
   7.605930020    
   3.889445460    
   1.923833132    
  0.4796024421    
  0.1044315883    
  0.2883377930E-01
  0.9390638458E-02
  0.2129784584E-02
  0.5574734480E-03
  0.1313877071E-03
  0.3368241778E-04
  0.3728595539E-04
  0.6596365074E-04
  0.3121747432E-04
  0.1945718213E-04
  0.1143115128E-04
  0.1697498192E-05
  0.3772335276E-05
  0.2898421599E-05
  0.7136009117E-06
  0.1436779939E-05
  0.2718662472E-05
  0.1931773113E-05
  0.4719247499E-06
  0.1355558652E-06
  0.7148037184E-07
  0.1260002591E-06
  0.1049479579E-06
  0.7355265552E-07
  0.5007677828E-08
