   297 : nkpt; k-point, vkl, wkpt, nmat below
     1   0.000000000       0.000000000       0.000000000      0.2035416243E-03     537
     2  0.5882352941E-01   0.000000000       0.000000000      0.1221249746E-02     535
     3  0.1176470588       0.000000000       0.000000000      0.1221249746E-02     524
     4  0.1764705882       0.000000000       0.000000000      0.1221249746E-02     526
     5  0.2352941176       0.000000000       0.000000000      0.1221249746E-02     528
     6  0.2941176471       0.000000000       0.000000000      0.1221249746E-02     532
     7  0.3529411765       0.000000000       0.000000000      0.1221249746E-02     524
     8  0.4117647059       0.000000000       0.000000000      0.1221249746E-02     520
     9  0.4705882353       0.000000000       0.000000000      0.1221249746E-02     518
    10  0.5882352941E-01  0.5882352941E-01   0.000000000      0.1221249746E-02     529
    11  0.1176470588      0.5882352941E-01   0.000000000      0.2442499491E-02     527
    12  0.1764705882      0.5882352941E-01   0.000000000      0.2442499491E-02     531
    13  0.2352941176      0.5882352941E-01   0.000000000      0.2442499491E-02     526
    14  0.2941176471      0.5882352941E-01   0.000000000      0.2442499491E-02     527
    15  0.3529411765      0.5882352941E-01   0.000000000      0.2442499491E-02     520
    16  0.4117647059      0.5882352941E-01   0.000000000      0.2442499491E-02     522
    17  0.4705882353      0.5882352941E-01   0.000000000      0.1221249746E-02     518
    18  0.1176470588      0.1176470588       0.000000000      0.1221249746E-02     535
    19  0.1764705882      0.1176470588       0.000000000      0.2442499491E-02     529
    20  0.2352941176      0.1176470588       0.000000000      0.2442499491E-02     527
    21  0.2941176471      0.1176470588       0.000000000      0.2442499491E-02     522
    22  0.3529411765      0.1176470588       0.000000000      0.2442499491E-02     523
    23  0.4117647059      0.1176470588       0.000000000      0.2442499491E-02     518
    24  0.1764705882      0.1764705882       0.000000000      0.1221249746E-02     529
    25  0.2352941176      0.1764705882       0.000000000      0.2442499491E-02     522
    26  0.2941176471      0.1764705882       0.000000000      0.2442499491E-02     522
    27  0.3529411765      0.1764705882       0.000000000      0.2442499491E-02     520
    28  0.4117647059      0.1764705882       0.000000000      0.1221249746E-02     516
    29  0.2352941176      0.2352941176       0.000000000      0.1221249746E-02     523
    30  0.2941176471      0.2352941176       0.000000000      0.2442499491E-02     521
    31  0.3529411765      0.2352941176       0.000000000      0.2442499491E-02     515
    32  0.2941176471      0.2941176471       0.000000000      0.1221249746E-02     519
    33  0.3529411765      0.2941176471       0.000000000      0.1221249746E-02     510
    34   0.000000000       0.000000000      0.5882352941E-01  0.4070832485E-03     537
    35  0.5882352941E-01   0.000000000      0.5882352941E-01  0.2442499491E-02     534
    36  0.1176470588       0.000000000      0.5882352941E-01  0.2442499491E-02     526
    37  0.1764705882       0.000000000      0.5882352941E-01  0.2442499491E-02     528
    38  0.2352941176       0.000000000      0.5882352941E-01  0.2442499491E-02     532
    39  0.2941176471       0.000000000      0.5882352941E-01  0.2442499491E-02     527
    40  0.3529411765       0.000000000      0.5882352941E-01  0.2442499491E-02     523
    41  0.4117647059       0.000000000      0.5882352941E-01  0.2442499491E-02     520
    42  0.4705882353       0.000000000      0.5882352941E-01  0.2442499491E-02     519
    43  0.5882352941E-01  0.5882352941E-01  0.5882352941E-01  0.2442499491E-02     527
    44  0.1176470588      0.5882352941E-01  0.5882352941E-01  0.4884998982E-02     528
    45  0.1764705882      0.5882352941E-01  0.5882352941E-01  0.4884998982E-02     532
    46  0.2352941176      0.5882352941E-01  0.5882352941E-01  0.4884998982E-02     526
    47  0.2941176471      0.5882352941E-01  0.5882352941E-01  0.4884998982E-02     525
    48  0.3529411765      0.5882352941E-01  0.5882352941E-01  0.4884998982E-02     522
    49  0.4117647059      0.5882352941E-01  0.5882352941E-01  0.4884998982E-02     521
    50  0.4705882353      0.5882352941E-01  0.5882352941E-01  0.2442499491E-02     518
    51  0.1176470588      0.1176470588      0.5882352941E-01  0.2442499491E-02     531
    52  0.1764705882      0.1176470588      0.5882352941E-01  0.4884998982E-02     528
    53  0.2352941176      0.1176470588      0.5882352941E-01  0.4884998982E-02     525
    54  0.2941176471      0.1176470588      0.5882352941E-01  0.4884998982E-02     523
    55  0.3529411765      0.1176470588      0.5882352941E-01  0.4884998982E-02     523
    56  0.4117647059      0.1176470588      0.5882352941E-01  0.4884998982E-02     520
    57  0.1764705882      0.1764705882      0.5882352941E-01  0.2442499491E-02     522
    58  0.2352941176      0.1764705882      0.5882352941E-01  0.4884998982E-02     522
    59  0.2941176471      0.1764705882      0.5882352941E-01  0.4884998982E-02     521
    60  0.3529411765      0.1764705882      0.5882352941E-01  0.4884998982E-02     518
    61  0.4117647059      0.1764705882      0.5882352941E-01  0.2442499491E-02     515
    62  0.2352941176      0.2352941176      0.5882352941E-01  0.2442499491E-02     522
    63  0.2941176471      0.2352941176      0.5882352941E-01  0.4884998982E-02     518
    64  0.3529411765      0.2352941176      0.5882352941E-01  0.4884998982E-02     517
    65  0.2941176471      0.2941176471      0.5882352941E-01  0.2442499491E-02     517
    66  0.3529411765      0.2941176471      0.5882352941E-01  0.2442499491E-02     512
    67   0.000000000       0.000000000      0.1176470588      0.4070832485E-03     531
    68  0.5882352941E-01   0.000000000      0.1176470588      0.2442499491E-02     532
    69  0.1176470588       0.000000000      0.1176470588      0.2442499491E-02     528
    70  0.1764705882       0.000000000      0.1176470588      0.2442499491E-02     530
    71  0.2352941176       0.000000000      0.1176470588      0.2442499491E-02     527
    72  0.2941176471       0.000000000      0.1176470588      0.2442499491E-02     524
    73  0.3529411765       0.000000000      0.1176470588      0.2442499491E-02     525
    74  0.4117647059       0.000000000      0.1176470588      0.2442499491E-02     523
    75  0.4705882353       0.000000000      0.1176470588      0.2442499491E-02     519
    76  0.5882352941E-01  0.5882352941E-01  0.1176470588      0.2442499491E-02     527
    77  0.1176470588      0.5882352941E-01  0.1176470588      0.4884998982E-02     529
    78  0.1764705882      0.5882352941E-01  0.1176470588      0.4884998982E-02     529
    79  0.2352941176      0.5882352941E-01  0.1176470588      0.4884998982E-02     527
    80  0.2941176471      0.5882352941E-01  0.1176470588      0.4884998982E-02     524
    81  0.3529411765      0.5882352941E-01  0.1176470588      0.4884998982E-02     524
    82  0.4117647059      0.5882352941E-01  0.1176470588      0.4884998982E-02     522
    83  0.4705882353      0.5882352941E-01  0.1176470588      0.2442499491E-02     520
    84  0.1176470588      0.1176470588      0.1176470588      0.2442499491E-02     529
    85  0.1764705882      0.1176470588      0.1176470588      0.4884998982E-02     524
    86  0.2352941176      0.1176470588      0.1176470588      0.4884998982E-02     524
    87  0.2941176471      0.1176470588      0.1176470588      0.4884998982E-02     522
    88  0.3529411765      0.1176470588      0.1176470588      0.4884998982E-02     521
    89  0.4117647059      0.1176470588      0.1176470588      0.4884998982E-02     519
    90  0.1764705882      0.1764705882      0.1176470588      0.2442499491E-02     523
    91  0.2352941176      0.1764705882      0.1176470588      0.4884998982E-02     523
    92  0.2941176471      0.1764705882      0.1176470588      0.4884998982E-02     521
    93  0.3529411765      0.1764705882      0.1176470588      0.4884998982E-02     518
    94  0.4117647059      0.1764705882      0.1176470588      0.2442499491E-02     515
    95  0.2352941176      0.2352941176      0.1176470588      0.2442499491E-02     522
    96  0.2941176471      0.2352941176      0.1176470588      0.4884998982E-02     520
    97  0.3529411765      0.2352941176      0.1176470588      0.4884998982E-02     514
    98  0.2941176471      0.2941176471      0.1176470588      0.2442499491E-02     516
    99  0.3529411765      0.2941176471      0.1176470588      0.2442499491E-02     518
   100   0.000000000       0.000000000      0.1764705882      0.4070832485E-03     531
   101  0.5882352941E-01   0.000000000      0.1764705882      0.2442499491E-02     528
   102  0.1176470588       0.000000000      0.1764705882      0.2442499491E-02     529
   103  0.1764705882       0.000000000      0.1764705882      0.2442499491E-02     529
   104  0.2352941176       0.000000000      0.1764705882      0.2442499491E-02     527
   105  0.2941176471       0.000000000      0.1764705882      0.2442499491E-02     524
   106  0.3529411765       0.000000000      0.1764705882      0.2442499491E-02     525
   107  0.4117647059       0.000000000      0.1764705882      0.2442499491E-02     524
   108  0.4705882353       0.000000000      0.1764705882      0.2442499491E-02     520
   109  0.5882352941E-01  0.5882352941E-01  0.1764705882      0.2442499491E-02     529
   110  0.1176470588      0.5882352941E-01  0.1764705882      0.4884998982E-02     528
   111  0.1764705882      0.5882352941E-01  0.1764705882      0.4884998982E-02     527
   112  0.2352941176      0.5882352941E-01  0.1764705882      0.4884998982E-02     525
   113  0.2941176471      0.5882352941E-01  0.1764705882      0.4884998982E-02     524
   114  0.3529411765      0.5882352941E-01  0.1764705882      0.4884998982E-02     522
   115  0.4117647059      0.5882352941E-01  0.1764705882      0.4884998982E-02     521
   116  0.4705882353      0.5882352941E-01  0.1764705882      0.2442499491E-02     522
   117  0.1176470588      0.1176470588      0.1764705882      0.2442499491E-02     529
   118  0.1764705882      0.1176470588      0.1764705882      0.4884998982E-02     525
   119  0.2352941176      0.1176470588      0.1764705882      0.4884998982E-02     523
   120  0.2941176471      0.1176470588      0.1764705882      0.4884998982E-02     524
   121  0.3529411765      0.1176470588      0.1764705882      0.4884998982E-02     519
   122  0.4117647059      0.1176470588      0.1764705882      0.4884998982E-02     521
   123  0.1764705882      0.1764705882      0.1764705882      0.2442499491E-02     523
   124  0.2352941176      0.1764705882      0.1764705882      0.4884998982E-02     521
   125  0.2941176471      0.1764705882      0.1764705882      0.4884998982E-02     521
   126  0.3529411765      0.1764705882      0.1764705882      0.4884998982E-02     519
   127  0.4117647059      0.1764705882      0.1764705882      0.2442499491E-02     516
   128  0.2352941176      0.2352941176      0.1764705882      0.2442499491E-02     520
   129  0.2941176471      0.2352941176      0.1764705882      0.4884998982E-02     519
   130  0.3529411765      0.2352941176      0.1764705882      0.4884998982E-02     517
   131  0.2941176471      0.2941176471      0.1764705882      0.2442499491E-02     516
   132  0.3529411765      0.2941176471      0.1764705882      0.2442499491E-02     517
   133   0.000000000       0.000000000      0.2352941176      0.4070832485E-03     531
   134  0.5882352941E-01   0.000000000      0.2352941176      0.2442499491E-02     527
   135  0.1176470588       0.000000000      0.2352941176      0.2442499491E-02     529
   136  0.1764705882       0.000000000      0.2352941176      0.2442499491E-02     525
   137  0.2352941176       0.000000000      0.2352941176      0.2442499491E-02     527
   138  0.2941176471       0.000000000      0.2352941176      0.2442499491E-02     526
   139  0.3529411765       0.000000000      0.2352941176      0.2442499491E-02     523
   140  0.4117647059       0.000000000      0.2352941176      0.2442499491E-02     524
   141  0.4705882353       0.000000000      0.2352941176      0.2442499491E-02     524
   142  0.5882352941E-01  0.5882352941E-01  0.2352941176      0.2442499491E-02     525
   143  0.1176470588      0.5882352941E-01  0.2352941176      0.4884998982E-02     529
   144  0.1764705882      0.5882352941E-01  0.2352941176      0.4884998982E-02     528
   145  0.2352941176      0.5882352941E-01  0.2352941176      0.4884998982E-02     526
   146  0.2941176471      0.5882352941E-01  0.2352941176      0.4884998982E-02     523
   147  0.3529411765      0.5882352941E-01  0.2352941176      0.4884998982E-02     521
   148  0.4117647059      0.5882352941E-01  0.2352941176      0.4884998982E-02     523
   149  0.4705882353      0.5882352941E-01  0.2352941176      0.2442499491E-02     526
   150  0.1176470588      0.1176470588      0.2352941176      0.2442499491E-02     527
   151  0.1764705882      0.1176470588      0.2352941176      0.4884998982E-02     524
   152  0.2352941176      0.1176470588      0.2352941176      0.4884998982E-02     522
   153  0.2941176471      0.1176470588      0.2352941176      0.4884998982E-02     524
   154  0.3529411765      0.1176470588      0.2352941176      0.4884998982E-02     520
   155  0.4117647059      0.1176470588      0.2352941176      0.4884998982E-02     521
   156  0.1764705882      0.1764705882      0.2352941176      0.2442499491E-02     525
   157  0.2352941176      0.1764705882      0.2352941176      0.4884998982E-02     521
   158  0.2941176471      0.1764705882      0.2352941176      0.4884998982E-02     520
   159  0.3529411765      0.1764705882      0.2352941176      0.4884998982E-02     519
   160  0.4117647059      0.1764705882      0.2352941176      0.2442499491E-02     518
   161  0.2352941176      0.2352941176      0.2352941176      0.2442499491E-02     517
   162  0.2941176471      0.2352941176      0.2352941176      0.4884998982E-02     516
   163  0.3529411765      0.2352941176      0.2352941176      0.4884998982E-02     518
   164  0.2941176471      0.2941176471      0.2352941176      0.2442499491E-02     520
   165  0.3529411765      0.2941176471      0.2352941176      0.2442499491E-02     520
   166   0.000000000       0.000000000      0.2941176471      0.4070832485E-03     525
   167  0.5882352941E-01   0.000000000      0.2941176471      0.2442499491E-02     524
   168  0.1176470588       0.000000000      0.2941176471      0.2442499491E-02     526
   169  0.1764705882       0.000000000      0.2941176471      0.2442499491E-02     526
   170  0.2352941176       0.000000000      0.2941176471      0.2442499491E-02     526
   171  0.2941176471       0.000000000      0.2941176471      0.2442499491E-02     524
   172  0.3529411765       0.000000000      0.2941176471      0.2442499491E-02     521
   173  0.4117647059       0.000000000      0.2941176471      0.2442499491E-02     525
   174  0.4705882353       0.000000000      0.2941176471      0.2442499491E-02     526
   175  0.5882352941E-01  0.5882352941E-01  0.2941176471      0.2442499491E-02     523
   176  0.1176470588      0.5882352941E-01  0.2941176471      0.4884998982E-02     527
   177  0.1764705882      0.5882352941E-01  0.2941176471      0.4884998982E-02     527
   178  0.2352941176      0.5882352941E-01  0.2941176471      0.4884998982E-02     524
   179  0.2941176471      0.5882352941E-01  0.2941176471      0.4884998982E-02     521
   180  0.3529411765      0.5882352941E-01  0.2941176471      0.4884998982E-02     522
   181  0.4117647059      0.5882352941E-01  0.2941176471      0.4884998982E-02     524
   182  0.4705882353      0.5882352941E-01  0.2941176471      0.2442499491E-02     527
   183  0.1176470588      0.1176470588      0.2941176471      0.2442499491E-02     527
   184  0.1764705882      0.1176470588      0.2941176471      0.4884998982E-02     524
   185  0.2352941176      0.1176470588      0.2941176471      0.4884998982E-02     522
   186  0.2941176471      0.1176470588      0.2941176471      0.4884998982E-02     524
   187  0.3529411765      0.1176470588      0.2941176471      0.4884998982E-02     520
   188  0.4117647059      0.1176470588      0.2941176471      0.4884998982E-02     520
   189  0.1764705882      0.1764705882      0.2941176471      0.2442499491E-02     521
   190  0.2352941176      0.1764705882      0.2941176471      0.4884998982E-02     520
   191  0.2941176471      0.1764705882      0.2941176471      0.4884998982E-02     519
   192  0.3529411765      0.1764705882      0.2941176471      0.4884998982E-02     518
   193  0.4117647059      0.1764705882      0.2941176471      0.2442499491E-02     519
   194  0.2352941176      0.2352941176      0.2941176471      0.2442499491E-02     519
   195  0.2941176471      0.2352941176      0.2941176471      0.4884998982E-02     517
   196  0.3529411765      0.2352941176      0.2941176471      0.4884998982E-02     519
   197  0.2941176471      0.2941176471      0.2941176471      0.2442499491E-02     522
   198  0.3529411765      0.2941176471      0.2941176471      0.2442499491E-02     524
   199   0.000000000       0.000000000      0.3529411765      0.4070832485E-03     513
   200  0.5882352941E-01   0.000000000      0.3529411765      0.2442499491E-02     519
   201  0.1176470588       0.000000000      0.3529411765      0.2442499491E-02     528
   202  0.1764705882       0.000000000      0.3529411765      0.2442499491E-02     526
   203  0.2352941176       0.000000000      0.3529411765      0.2442499491E-02     524
   204  0.2941176471       0.000000000      0.3529411765      0.2442499491E-02     520
   205  0.3529411765       0.000000000      0.3529411765      0.2442499491E-02     519
   206  0.4117647059       0.000000000      0.3529411765      0.2442499491E-02     523
   207  0.4705882353       0.000000000      0.3529411765      0.2442499491E-02     528
   208  0.5882352941E-01  0.5882352941E-01  0.3529411765      0.2442499491E-02     522
   209  0.1176470588      0.5882352941E-01  0.3529411765      0.4884998982E-02     527
   210  0.1764705882      0.5882352941E-01  0.3529411765      0.4884998982E-02     527
   211  0.2352941176      0.5882352941E-01  0.3529411765      0.4884998982E-02     523
   212  0.2941176471      0.5882352941E-01  0.3529411765      0.4884998982E-02     520
   213  0.3529411765      0.5882352941E-01  0.3529411765      0.4884998982E-02     522
   214  0.4117647059      0.5882352941E-01  0.3529411765      0.4884998982E-02     524
   215  0.4705882353      0.5882352941E-01  0.3529411765      0.2442499491E-02     523
   216  0.1176470588      0.1176470588      0.3529411765      0.2442499491E-02     529
   217  0.1764705882      0.1176470588      0.3529411765      0.4884998982E-02     525
   218  0.2352941176      0.1176470588      0.3529411765      0.4884998982E-02     521
   219  0.2941176471      0.1176470588      0.3529411765      0.4884998982E-02     518
   220  0.3529411765      0.1176470588      0.3529411765      0.4884998982E-02     518
   221  0.4117647059      0.1176470588      0.3529411765      0.4884998982E-02     521
   222  0.1764705882      0.1764705882      0.3529411765      0.2442499491E-02     523
   223  0.2352941176      0.1764705882      0.3529411765      0.4884998982E-02     521
   224  0.2941176471      0.1764705882      0.3529411765      0.4884998982E-02     520
   225  0.3529411765      0.1764705882      0.3529411765      0.4884998982E-02     518
   226  0.4117647059      0.1764705882      0.3529411765      0.2442499491E-02     519
   227  0.2352941176      0.2352941176      0.3529411765      0.2442499491E-02     517
   228  0.2941176471      0.2352941176      0.3529411765      0.4884998982E-02     522
   229  0.3529411765      0.2352941176      0.3529411765      0.4884998982E-02     521
   230  0.2941176471      0.2941176471      0.3529411765      0.2442499491E-02     520
   231  0.3529411765      0.2941176471      0.3529411765      0.2442499491E-02     523
   232   0.000000000       0.000000000      0.4117647059      0.4070832485E-03     514
   233  0.5882352941E-01   0.000000000      0.4117647059      0.2442499491E-02     520
   234  0.1176470588       0.000000000      0.4117647059      0.2442499491E-02     526
   235  0.1764705882       0.000000000      0.4117647059      0.2442499491E-02     524
   236  0.2352941176       0.000000000      0.4117647059      0.2442499491E-02     526
   237  0.2941176471       0.000000000      0.4117647059      0.2442499491E-02     521
   238  0.3529411765       0.000000000      0.4117647059      0.2442499491E-02     516
   239  0.4117647059       0.000000000      0.4117647059      0.2442499491E-02     521
   240  0.4705882353       0.000000000      0.4117647059      0.2442499491E-02     524
   241  0.5882352941E-01  0.5882352941E-01  0.4117647059      0.2442499491E-02     524
   242  0.1176470588      0.5882352941E-01  0.4117647059      0.4884998982E-02     528
   243  0.1764705882      0.5882352941E-01  0.4117647059      0.4884998982E-02     524
   244  0.2352941176      0.5882352941E-01  0.4117647059      0.4884998982E-02     521
   245  0.2941176471      0.5882352941E-01  0.4117647059      0.4884998982E-02     517
   246  0.3529411765      0.5882352941E-01  0.4117647059      0.4884998982E-02     520
   247  0.4117647059      0.5882352941E-01  0.4117647059      0.4884998982E-02     522
   248  0.4705882353      0.5882352941E-01  0.4117647059      0.2442499491E-02     520
   249  0.1176470588      0.1176470588      0.4117647059      0.2442499491E-02     524
   250  0.1764705882      0.1176470588      0.4117647059      0.4884998982E-02     527
   251  0.2352941176      0.1176470588      0.4117647059      0.4884998982E-02     521
   252  0.2941176471      0.1176470588      0.4117647059      0.4884998982E-02     518
   253  0.3529411765      0.1176470588      0.4117647059      0.4884998982E-02     519
   254  0.4117647059      0.1176470588      0.4117647059      0.4884998982E-02     522
   255  0.1764705882      0.1764705882      0.4117647059      0.2442499491E-02     524
   256  0.2352941176      0.1764705882      0.4117647059      0.4884998982E-02     521
   257  0.2941176471      0.1764705882      0.4117647059      0.4884998982E-02     521
   258  0.3529411765      0.1764705882      0.4117647059      0.4884998982E-02     521
   259  0.4117647059      0.1764705882      0.4117647059      0.2442499491E-02     519
   260  0.2352941176      0.2352941176      0.4117647059      0.2442499491E-02     519
   261  0.2941176471      0.2352941176      0.4117647059      0.4884998982E-02     522
   262  0.3529411765      0.2352941176      0.4117647059      0.4884998982E-02     521
   263  0.2941176471      0.2941176471      0.4117647059      0.2442499491E-02     522
   264  0.3529411765      0.2941176471      0.4117647059      0.2442499491E-02     521
   265   0.000000000       0.000000000      0.4705882353      0.4070832485E-03     514
   266  0.5882352941E-01   0.000000000      0.4705882353      0.2442499491E-02     520
   267  0.1176470588       0.000000000      0.4705882353      0.2442499491E-02     524
   268  0.1764705882       0.000000000      0.4705882353      0.2442499491E-02     520
   269  0.2352941176       0.000000000      0.4705882353      0.2442499491E-02     525
   270  0.2941176471       0.000000000      0.4705882353      0.2442499491E-02     520
   271  0.3529411765       0.000000000      0.4705882353      0.2442499491E-02     515
   272  0.4117647059       0.000000000      0.4705882353      0.2442499491E-02     523
   273  0.4705882353       0.000000000      0.4705882353      0.2442499491E-02     525
   274  0.5882352941E-01  0.5882352941E-01  0.4705882353      0.2442499491E-02     524
   275  0.1176470588      0.5882352941E-01  0.4705882353      0.4884998982E-02     528
   276  0.1764705882      0.5882352941E-01  0.4705882353      0.4884998982E-02     524
   277  0.2352941176      0.5882352941E-01  0.4705882353      0.4884998982E-02     521
   278  0.2941176471      0.5882352941E-01  0.4705882353      0.4884998982E-02     519
   279  0.3529411765      0.5882352941E-01  0.4705882353      0.4884998982E-02     520
   280  0.4117647059      0.5882352941E-01  0.4705882353      0.4884998982E-02     520
   281  0.4705882353      0.5882352941E-01  0.4705882353      0.2442499491E-02     524
   282  0.1176470588      0.1176470588      0.4705882353      0.2442499491E-02     526
   283  0.1764705882      0.1176470588      0.4705882353      0.4884998982E-02     525
   284  0.2352941176      0.1176470588      0.4705882353      0.4884998982E-02     518
   285  0.2941176471      0.1176470588      0.4705882353      0.4884998982E-02     518
   286  0.3529411765      0.1176470588      0.4705882353      0.4884998982E-02     519
   287  0.4117647059      0.1176470588      0.4705882353      0.4884998982E-02     525
   288  0.1764705882      0.1764705882      0.4705882353      0.2442499491E-02     522
   289  0.2352941176      0.1764705882      0.4705882353      0.4884998982E-02     520
   290  0.2941176471      0.1764705882      0.4705882353      0.4884998982E-02     523
   291  0.3529411765      0.1764705882      0.4705882353      0.4884998982E-02     519
   292  0.4117647059      0.1764705882      0.4705882353      0.2442499491E-02     522
   293  0.2352941176      0.2352941176      0.4705882353      0.2442499491E-02     520
   294  0.2941176471      0.2352941176      0.4705882353      0.4884998982E-02     523
   295  0.3529411765      0.2352941176      0.4705882353      0.4884998982E-02     522
   296  0.2941176471      0.2941176471      0.4705882353      0.2442499491E-02     524
   297  0.3529411765      0.2941176471      0.4705882353      0.2442499491E-02     519
