    0.102223751315E-02
    0.975456979229E-03
    0.942271922052E-03
    0.307181832744E-03
    0.140293041328E-03
    0.343551448958E-03
    0.431298395680E-03
    0.436324669774E-03
    0.439469375926E-03
    0.438993820160E-03
    0.439242807543E-03
    0.439084997052E-03
    0.439029186636E-03
    0.439073344984E-03
    0.438966101920E-03
    0.439017137847E-03
    0.439036007136E-03
    0.439058499999E-03
    0.439059414657E-03
    0.439052836855E-03
    0.439055775007E-03
    0.439060506747E-03
    0.439063070740E-03
    0.439063359851E-03
    0.439063928093E-03
    0.439065679102E-03
    0.439065620945E-03
    0.439065676194E-03
    0.439065522177E-03
    0.439065479889E-03
    0.439065316996E-03
    0.439065383822E-03
    0.439065431286E-03
    0.439065414521E-03
    0.439065485850E-03
    0.439065495964E-03
    0.439065501947E-03
    0.439065522339E-03
    0.439065523031E-03
    0.439065530405E-03
    0.439065529323E-03
