 
Elk code version 8.3.15 started
 
Info(readinput): parameters set by vhighq option
 rgkmax :    9.000000000    
 gmaxvr :    18.00000000    
 msmooth :    4
 lmaxapw :   10
 lmaxo :    8
 nrmtscf :    2.000000000    
 nxlo :    3
 lorbcnd : T
 radkpt :    90.00000000    
 autokpt : T
 vkloff :    0.000000000       0.000000000       0.000000000    
 nempty0 :    20.00000000    
 epspot :   0.1000000000E-06
 epsengy :   0.1000000000E-05
 epsforce :   0.1000000000E-03
 autolinengy : T
 gmaxrf :    5.000000000    
 
Number of MPI processes :      1
Number of OpenMP threads per MPI process :    1
Total number of threads (MPI x OpenMP) :      1
Maximum OpenMP nesting level :    4
Number of OpenMP threads at first nesting level :    1
Number of MKL threads :    1
 
RAM disk enabled
 
Info(elk): current task :      0
 
Info(checkmt): reduced muffin-tin radius of species   1 (Rh) from   2.4200 to   2.4199
 
Elk code stopped
