+----------------------------+
| Elk version 8.3.15 started |
+----------------------------+
 
Date (YYYY-MM-DD) : 2022-02-22
Time (hh:mm:ss)   : 16:46:10
 
All units are atomic (Hartree, Bohr, etc.)
 
+-------------------------------------------------+
| Ground-state run starting from atomic densities |
+-------------------------------------------------+
 
Lattice vectors :
   6.169121889      -3.561744183       0.000000000    
   0.000000000       7.123488366       0.000000000    
   0.000000000       0.000000000       10.34757398    
 
Reciprocal lattice vectors :
   1.018489409       0.000000000       0.000000000    
  0.5092447046      0.8820377018       0.000000000    
   0.000000000       0.000000000      0.6072133736    
 
Unit cell volume      :    454.7310509    
Brillouin zone volume :   0.5454877404    
 
Muffin-tin inner radius fraction :   0.1000000000E-01
 
Species :    1 (Y)
 parameters loaded from : Y.in
 name : yttrium
 nuclear charge    :   -39.00000000    
 electronic charge :    39.00000000    
 atomic mass :    162065.4502    
 muffin-tin radius :    2.600000000    
 number of radial points in muffin-tin :   1200
 number on inner part of muffin-tin    :    867
 atomic positions (lattice), magnetic fields (Cartesian) :
   1 :   0.33333333  0.16666667  0.25000000    0.00000000  0.00000000  0.00000000
   2 :  -0.33333333 -0.16666667 -0.25000000    0.00000000  0.00000000  0.00000000
 
Total number of atoms per unit cell :    2
 
Spin treatment :
 spin-unpolarised
 
Number of Bravais lattice symmetries :   24
Number of crystal symmetries         :   24
Crystal has inversion symmetry
Real symmetric eigensolver will be used
 
k-point grid :     17    17    17
k-point offset :    0.000000000       0.000000000       0.000000000    
k-point set is reduced with full crystal symmetry group
Total number of k-points :      297
 
Muffin-tin radius times maximum |G+k| :    8.500000000    
 using gkmax = rgkmax / 2
Maximum |G+k| for APW functions       :    4.250000000    
Maximum (1/2)|G+k|²                   :    9.031250000    
Maximum |G| for potential and density :    34.00000000    
Constant for pseudocharge density :   22
Radial integration step length :    1
 
G-vector grid sizes :     80    80   120
Number of G-vectors :   301791
 
Maximum angular momentum used for
 APW functions                      :   10
 outer part of muffin-tin           :    8
 inner part of muffin-tin           :    1
 
Total nuclear charge    :   -78.00000000    
Total core charge       :    56.00000000    
Total valence charge    :    22.00000000    
Total excess charge     :    0.000000000    
Total electronic charge :    78.00000000    
 
Effective Wigner radius, rₛ :    1.116495901    
 
Number of empty states         :   40
Total number of valence states :   52
Total number of core states    :   56
 
Conduction state local-orbitals added automatically
Total number of local-orbitals :  242
 
Using Libxc version 05.01.05
Exchange-correlation functional :    100   493   494
 exchange: mgga_x_rscan; correlation: mgga_c_rscan
 
Smearing type :    1
 Methfessel-Paxton order 1, Phys. Rev. B 40, 3616 (1989)
Smearing width :   0.1000000000E-02
Effective electronic temperature (K) :    315.7750248    
 
Mixing type :    3
 Broyden mixing, J. Phys. A: Math. Gen. 17, L317 (1984)
 
Kohn-Sham potential initialised from atomic data
 
+------------------------------+
| Self-consistent loop started |
+------------------------------+
 
+--------------------+
| Loop number :    1 |
+--------------------+
 
Energies :
 Fermi                       :     0.109549378918    
 sum of eigenvalues          :     -4046.17550829    
 electron kinetic            :      6963.72927619    
 core electron kinetic       :      6906.60704694    
 Coulomb                     :     -13577.6082522    
 Coulomb potential           :     -10713.8283073    
 nuclear-nuclear             :     -619.422498305    
 electron-nuclear            :     -15202.5432005    
 Hartree                     :      2244.35744662    
 Madelung                    :     -8220.69409858    
 xc potential                :     -296.076477169    
 exchange                    :     -219.092292691    
 correlation                 :     -3.95640127830    
 total energy                :     -6836.92767002    
 
Density of states at Fermi energy :    152.8486925    
 (states/Hartree/unit cell)
 
Estimated indirect band gap :   0.4553721123E-04
 from k-point     14 to k-point    248
Estimated direct band gap   :   0.3199891674E-02
 at k-point    296
 
Charges :
 core                        :    56.00000000    
 valence                     :    22.00000000    
 interstitial                :    4.244371567    
 muffin-tins (core leakage)
  species :    1 (Y)
   atom    1                 :    36.87781422     (  0.5989273632E-05)
   atom    2                 :    36.87781422     (  0.5989273632E-05)
 total in muffin-tins        :    73.75562843    
 total calculated charge     :    77.99998332    
 total charge                :    78.00000000    
 error                       :   0.1668006763E-04
 
Time (CPU seconds) :        86.46
 
+--------------------+
| Loop number :    2 |
+--------------------+
 
Energies :
 Fermi                       :     0.111179679139    
 sum of eigenvalues          :     -4045.61737387    
 electron kinetic            :      6964.18065439    
 core electron kinetic       :      6900.64692413    
 Coulomb                     :     -13577.1092624    
 Coulomb potential           :     -10713.7496948    
 nuclear-nuclear             :     -619.422498305    
 electron-nuclear            :     -15201.6238333    
 Hartree                     :      2243.93706924    
 Madelung                    :     -8220.23441495    
 xc potential                :     -296.048333444    
 exchange                    :     -219.071355519    
 correlation                 :     -3.95626442210    
 total energy                :     -6835.95622791    
 
Density of states at Fermi energy :    152.6082333    
 (states/Hartree/unit cell)
 
Estimated indirect band gap :   0.1127582987E-03
 from k-point     14 to k-point    248
Estimated direct band gap   :   0.3224443819E-02
 at k-point    296
 
Charges :
 core                        :    56.00000000    
 valence                     :    22.00000000    
 interstitial                :    4.249136232    
 muffin-tins (core leakage)
  species :    1 (Y)
   atom    1                 :    36.87543188     (  0.6030381250E-05)
   atom    2                 :    36.87543188     (  0.6030381250E-05)
 total in muffin-tins        :    73.75086377    
 total calculated charge     :    77.99998323    
 total charge                :    78.00000000    
 error                       :   0.1677453675E-04
 
Wrote STATE.OUT
 
RMS change in Kohn-Sham potential (target) :   0.7286487922     (   10.00000000    )
Absolute change in total energy (target)   :   0.9714421055     (  0.1000000000E-07)
 
Time (CPU seconds) :       170.64
 
+--------------------+
| Loop number :    3 |
+--------------------+
 
Energies :
 Fermi                       :     0.136743993327    
 sum of eigenvalues          :     -4038.90724651    
 electron kinetic            :      6969.68830694    
 core electron kinetic       :      6889.55405192    
 Coulomb                     :     -13571.7745893    
 Coulomb potential           :     -10712.8446228    
 nuclear-nuclear             :     -619.422498305    
 electron-nuclear            :     -15191.8595592    
 Hartree                     :      2239.50746824    
 Madelung                    :     -8215.35227792    
 xc potential                :     -295.750930686    
 exchange                    :     -218.851242078    
 correlation                 :     -3.95478962185    
 total energy                :     -6824.89231407    
 
Density of states at Fermi energy :    144.6309500    
 (states/Hartree/unit cell)
 
Estimated indirect band gap :   0.1499099040E-03
 from k-point    174 to k-point    104
Estimated direct band gap   :   0.3267806713E-02
 at k-point    227
 
Charges :
 core                        :    56.00000000    
 valence                     :    22.00000000    
 interstitial                :    4.294758128    
 muffin-tins (core leakage)
  species :    1 (Y)
   atom    1                 :    36.85262094     (  0.6499136394E-05)
   atom    2                 :    36.85262094     (  0.6499136394E-05)
 total in muffin-tins        :    73.70524187    
 total calculated charge     :    77.99998226    
 total charge                :    78.00000000    
 error                       :   0.1774214387E-04
 
RMS change in Kohn-Sham potential (target) :   0.6148654868     (   10.00000000    )
Absolute change in total energy (target)   :    11.30677437     (  0.1000000000E-07)
 
Time (CPU seconds) :       254.30
 
+--------------------+
| Loop number :    4 |
+--------------------+
 
Energies :
 Fermi                       :     0.195526986591    
 sum of eigenvalues          :     -4024.98274542    
 electron kinetic            :      6981.37590217    
 core electron kinetic       :      6883.10127861    
 Coulomb                     :     -13561.4303588    
 Coulomb potential           :     -10711.1877599    
 nuclear-nuclear             :     -619.422498305    
 electron-nuclear            :     -15172.8279612    
 Hartree                     :      2230.82010062    
 Madelung                    :     -8205.83647889    
 xc potential                :     -295.170887666    
 exchange                    :     -218.423118551    
 correlation                 :     -3.95186486549    
 total energy                :     -6802.42944009    
 
Density of states at Fermi energy :    119.2145133    
 (states/Hartree/unit cell)
 
Estimated indirect band gap :   0.1211208249E-03
 from k-point    104 to k-point    245
Estimated direct band gap   :   0.3231074344E-02
 at k-point    227
 
Charges :
 core                        :    56.00000000    
 valence                     :    22.00000000    
 interstitial                :    4.383020665    
 muffin-tins (core leakage)
  species :    1 (Y)
   atom    1                 :    36.80848967     (  0.7548165826E-05)
   atom    2                 :    36.80848967     (  0.7548165826E-05)
 total in muffin-tins        :    73.61697933    
 total calculated charge     :    77.99998008    
 total charge                :    78.00000000    
 error                       :   0.1992183425E-04
 
Wrote STATE.OUT
 
RMS change in Kohn-Sham potential (target) :   0.3503351087     (   10.00000000    )
Absolute change in total energy (target)   :    25.28956757     (  0.1000000000E-07)
 
Time (CPU seconds) :       338.09
 
+--------------------+
| Loop number :    5 |
+--------------------+
 
Energies :
 Fermi                       :     0.243225814996    
 sum of eigenvalues          :     -4013.95103789    
 electron kinetic            :      6990.77206039    
 core electron kinetic       :      6881.61225757    
 Coulomb                     :     -13553.4733806    
 Coulomb potential           :     -10710.0021219    
 nuclear-nuclear             :     -619.422498305    
 electron-nuclear            :     -15158.0996427    
 Hartree                     :      2224.04876038    
 Madelung                    :     -8198.47231965    
 xc potential                :     -294.720976355    
 exchange                    :     -218.091272923    
 correlation                 :     -3.94954602156    
 total energy                :     -6784.74213917    
 
Density of states at Fermi energy :    124.8466340    
 (states/Hartree/unit cell)
 
Estimated indirect band gap :   0.5276055093E-04
 from k-point    252 to k-point    253
Estimated direct band gap   :   0.3225890000E-02
 at k-point    227
 
Charges :
 core                        :    56.00000000    
 valence                     :    22.00000000    
 interstitial                :    4.453733693    
 muffin-tins (core leakage)
  species :    1 (Y)
   atom    1                 :    36.77313315     (  0.8490198258E-05)
   atom    2                 :    36.77313315     (  0.8490198258E-05)
 total in muffin-tins        :    73.54626631    
 total calculated charge     :    77.99997812    
 total charge                :    78.00000000    
 error                       :   0.2187926995E-04
 
RMS change in Kohn-Sham potential (target) :   0.1361176587     (   10.00000000    )
Absolute change in total energy (target)   :    24.00969281     (  0.1000000000E-07)
 
Time (CPU seconds) :       422.20
 
+--------------------+
| Loop number :    6 |
+--------------------+
 
Energies :
 Fermi                       :     0.264842086510    
 sum of eigenvalues          :     -4009.00292986    
 electron kinetic            :      6995.06080319    
 core electron kinetic       :      6881.23368950    
 Coulomb                     :     -13549.9962239    
 Coulomb potential           :     -10709.5418828    
 nuclear-nuclear             :     -619.422498305    
 electron-nuclear            :     -15151.6055683    
 Hartree                     :      2221.03184274    
 Madelung                    :     -8195.22528246    
 xc potential                :     -294.521850203    
 exchange                    :     -217.944521988    
 correlation                 :     -3.94848800504    
 total energy                :     -6776.82843069    
 
Density of states at Fermi energy :    133.2856173    
 (states/Hartree/unit cell)
 
Estimated indirect band gap :   0.5557647662E-04
 from k-point    227 to k-point     85
Estimated direct band gap   :   0.3891610487E-02
 at k-point    226
 
Charges :
 core                        :    56.00000000    
 valence                     :    22.00000000    
 interstitial                :    4.487278696    
 muffin-tins (core leakage)
  species :    1 (Y)
   atom    1                 :    36.75636065     (  0.8953530497E-05)
   atom    2                 :    36.75636065     (  0.8953530497E-05)
 total in muffin-tins        :    73.51272130    
 total calculated charge     :    77.99997717    
 total charge                :    78.00000000    
 error                       :   0.2283076482E-04
 
Wrote STATE.OUT
 
RMS change in Kohn-Sham potential (target) :   0.3969073210E-01 (   10.00000000    )
Absolute change in total energy (target)   :    13.91613168     (  0.1000000000E-07)
 
Time (CPU seconds) :       505.86
 
+--------------------+
| Loop number :    7 |
+--------------------+
 
Energies :
 Fermi                       :     0.273663794905    
 sum of eigenvalues          :     -4006.98723216    
 electron kinetic            :      6996.83557236    
 core electron kinetic       :      6881.87390133    
 Coulomb                     :     -13548.6085392    
 Coulomb potential           :     -10709.3814436    
 nuclear-nuclear             :     -619.422498305    
 electron-nuclear            :     -15148.9906382    
 Hartree                     :      2219.80459733    
 Madelung                    :     -8193.91781743    
 xc potential                :     -294.441360939    
 exchange                    :     -217.885257096    
 correlation                 :     -3.94804830044    
 total energy                :     -6773.60627226    
 
Density of states at Fermi energy :    135.9554007    
 (states/Hartree/unit cell)
 
Estimated indirect band gap :   0.2995247622E-04
 from k-point    217 to k-point     85
Estimated direct band gap   :   0.3660691677E-02
 at k-point    226
 
Charges :
 core                        :    56.00000000    
 valence                     :    22.00000000    
 interstitial                :    4.501810205    
 muffin-tins (core leakage)
  species :    1 (Y)
   atom    1                 :    36.74909490     (  0.9150081514E-05)
   atom    2                 :    36.74909490     (  0.9150081514E-05)
 total in muffin-tins        :    73.49818980    
 total calculated charge     :    77.99997677    
 total charge                :    78.00000000    
 error                       :   0.2323318535E-04
 
RMS change in Kohn-Sham potential (target) :   0.3207909870E-02 (   10.00000000    )
Absolute change in total energy (target)   :    6.701191354     (  0.1000000000E-07)
 
Time (CPU seconds) :       589.65
 
+--------------------+
| Loop number :    8 |
+--------------------+
 
Energies :
 Fermi                       :     0.273795137546    
 sum of eigenvalues          :     -4007.01297280    
 electron kinetic            :      6996.85752363    
 core electron kinetic       :      6881.94365743    
 Coulomb                     :     -13548.6863414    
 Coulomb potential           :     -10709.4261628    
 nuclear-nuclear             :     -619.422498305    
 electron-nuclear            :     -15149.1015233    
 Hartree                     :      2219.83768027    
 Madelung                    :     -8193.97325997    
 xc potential                :     -294.444333641    
 exchange                    :     -217.887577678    
 correlation                 :     -3.94804883836    
 total energy                :     -6773.66444425    
 
Density of states at Fermi energy :    136.2552321    
 (states/Hartree/unit cell)
 
Estimated indirect band gap :   0.1838144001E-04
 from k-point    217 to k-point     85
Estimated direct band gap   :   0.3646302911E-02
 at k-point    226
 
Charges :
 core                        :    56.00000000    
 valence                     :    22.00000000    
 interstitial                :    4.502597769    
 muffin-tins (core leakage)
  species :    1 (Y)
   atom    1                 :    36.74870112     (  0.9145206040E-05)
   atom    2                 :    36.74870112     (  0.9145206040E-05)
 total in muffin-tins        :    73.49740223    
 total calculated charge     :    77.99997678    
 total charge                :    78.00000000    
 error                       :   0.2322436067E-04
 
Wrote STATE.OUT
 
RMS change in Kohn-Sham potential (target) :   0.1862686625E-02 (   10.00000000    )
Absolute change in total energy (target)   :    1.617125846     (  0.1000000000E-07)
 
Time (CPU seconds) :       673.26
 
+--------------------+
| Loop number :    9 |
+--------------------+
 
Energies :
 Fermi                       :     0.273870490686    
 sum of eigenvalues          :     -4007.02226043    
 electron kinetic            :      6996.88289472    
 core electron kinetic       :      6881.97742752    
 Coulomb                     :     -13548.7344116    
 Coulomb potential           :     -10709.4592331    
 nuclear-nuclear             :     -619.422498305    
 electron-nuclear            :     -15149.1645936    
 Hartree                     :      2219.85268025    
 Madelung                    :     -8194.00479509    
 xc potential                :     -294.445922083    
 exchange                    :     -217.888850388    
 correlation                 :     -3.94804560517    
 total energy                :     -6773.68841290    
 
Density of states at Fermi energy :    136.5482371    
 (states/Hartree/unit cell)
 
Estimated indirect band gap :   0.7966354162E-05
 from k-point    217 to k-point     85
Estimated direct band gap   :   0.3633579941E-02
 at k-point    226
 
Charges :
 core                        :    56.00000000    
 valence                     :    22.00000000    
 interstitial                :    4.503374982    
 muffin-tins (core leakage)
  species :    1 (Y)
   atom    1                 :    36.74831251     (  0.9144069427E-05)
   atom    2                 :    36.74831251     (  0.9144069427E-05)
 total in muffin-tins        :    73.49662502    
 total calculated charge     :    77.99997678    
 total charge                :    78.00000000    
 error                       :   0.2322231796E-04
 
RMS change in Kohn-Sham potential (target) :   0.3196236381E-03 (   10.00000000    )
Absolute change in total energy (target)   :   0.3803128082     (  0.1000000000E-07)
 
Time (CPU seconds) :       757.05
 
+--------------------+
| Loop number :   10 |
+--------------------+
 
Energies :
 Fermi                       :     0.273840272513    
 sum of eigenvalues          :     -4007.01266224    
 electron kinetic            :      6996.87880720    
 core electron kinetic       :      6881.96129596    
 Coulomb                     :     -13548.7111505    
 Coulomb potential           :     -10709.4464610    
 nuclear-nuclear             :     -619.422498305    
 electron-nuclear            :     -15149.1308433    
 Hartree                     :      2219.84219115    
 Madelung                    :     -8193.98791996    
 xc potential                :     -294.445008418    
 exchange                    :     -217.888146470    
 correlation                 :     -3.94804518923    
 total energy                :     -6773.66853493    
 
Density of states at Fermi energy :    136.4883804    
 (states/Hartree/unit cell)
 
Estimated indirect band gap :   0.1092058160E-04
 from k-point    217 to k-point     85
Estimated direct band gap   :   0.3637365998E-02
 at k-point    226
 
Charges :
 core                        :    56.00000000    
 valence                     :    22.00000000    
 interstitial                :    4.503168897    
 muffin-tins (core leakage)
  species :    1 (Y)
   atom    1                 :    36.74841555     (  0.9145627065E-05)
   atom    2                 :    36.74841555     (  0.9145627065E-05)
 total in muffin-tins        :    73.49683110    
 total calculated charge     :    77.99997677    
 total charge                :    78.00000000    
 error                       :   0.2322523601E-04
 
Wrote STATE.OUT
 
RMS change in Kohn-Sham potential (target) :   0.8514454881E-04 (   10.00000000    )
Absolute change in total energy (target)   :   0.1149561735     (  0.1000000000E-07)
 
Time (CPU seconds) :       838.74
 
+--------------------+
| Loop number :   11 |
+--------------------+
 
Energies :
 Fermi                       :     0.273835103689    
 sum of eigenvalues          :     -4007.01202561    
 electron kinetic            :      6996.87783093    
 core electron kinetic       :      6881.95951434    
 Coulomb                     :     -13548.7090906    
 Coulomb potential           :     -10709.4449092    
 nuclear-nuclear             :     -619.422498305    
 electron-nuclear            :     -15149.1282754    
 Hartree                     :      2219.84168308    
 Madelung                    :     -8193.98663600    
 xc potential                :     -294.444947295    
 exchange                    :     -217.888101102    
 correlation                 :     -3.94804552222    
 total energy                :     -6773.66740632    
 
Density of states at Fermi energy :    136.4885306    
 (states/Hartree/unit cell)
 
Estimated indirect band gap :   0.1114091531E-04
 from k-point    217 to k-point     85
Estimated direct band gap   :   0.3637739179E-02
 at k-point    226
 
Charges :
 core                        :    56.00000000    
 valence                     :    22.00000000    
 interstitial                :    4.503138715    
 muffin-tins (core leakage)
  species :    1 (Y)
   atom    1                 :    36.74843064     (  0.9145908614E-05)
   atom    2                 :    36.74843064     (  0.9145908614E-05)
 total in muffin-tins        :    73.49686128    
 total calculated charge     :    77.99997677    
 total charge                :    78.00000000    
 error                       :   0.2322561178E-04
 
RMS change in Kohn-Sham potential (target) :   0.6138012314E-03 (   10.00000000    )
Absolute change in total energy (target)   :   0.2986765784E-01 (  0.1000000000E-07)
 
Time (CPU seconds) :       921.93
 
+--------------------+
| Loop number :   12 |
+--------------------+
 
Energies :
 Fermi                       :     0.273835460442    
 sum of eigenvalues          :     -4007.01201764    
 electron kinetic            :      6996.87795897    
 core electron kinetic       :      6881.95965066    
 Coulomb                     :     -13548.7092264    
 Coulomb potential           :     -10709.4450260    
 nuclear-nuclear             :     -619.422498305    
 electron-nuclear            :     -15149.1284302    
 Hartree                     :      2219.84170210    
 Madelung                    :     -8193.98671338    
 xc potential                :     -294.444950660    
 exchange                    :     -217.888103907    
 correlation                 :     -3.94804549668    
 total energy                :     -6773.66741679    
 
Density of states at Fermi energy :    136.4896185    
 (states/Hartree/unit cell)
 
Estimated indirect band gap :   0.1110376069E-04
 from k-point    217 to k-point     85
Estimated direct band gap   :   0.3637692804E-02
 at k-point    226
 
Charges :
 core                        :    56.00000000    
 valence                     :    22.00000000    
 interstitial                :    4.503141872    
 muffin-tins (core leakage)
  species :    1 (Y)
   atom    1                 :    36.74842906     (  0.9145959147E-05)
   atom    2                 :    36.74842906     (  0.9145959147E-05)
 total in muffin-tins        :    73.49685813    
 total calculated charge     :    77.99997677    
 total charge                :    78.00000000    
 error                       :   0.2322582590E-04
 
Wrote STATE.OUT
 
RMS change in Kohn-Sham potential (target) :   0.3000662909E-03 (   10.00000000    )
Absolute change in total energy (target)   :   0.7456441411E-02 (  0.1000000000E-07)
 
Time (CPU seconds) :      1006.59
 
+--------------------+
| Loop number :   13 |
+--------------------+
 
Energies :
 Fermi                       :     0.273836942815    
 sum of eigenvalues          :     -4007.01195045    
 electron kinetic            :      6996.87836822    
 core electron kinetic       :      6881.96023543    
 Coulomb                     :     -13548.7096989    
 Coulomb potential           :     -10709.4453520    
 nuclear-nuclear             :     -619.422498305    
 electron-nuclear            :     -15149.1290492    
 Hartree                     :      2219.84184861    
 Madelung                    :     -8193.98702290    
 xc potential                :     -294.444966708    
 exchange                    :     -217.888117569    
 correlation                 :     -3.94804548369    
 total energy                :     -6773.66749371    
 
Density of states at Fermi energy :    136.4944931    
 (states/Hartree/unit cell)
 
Estimated indirect band gap :   0.1089090249E-04
 from k-point    217 to k-point     85
Estimated direct band gap   :   0.3637452893E-02
 at k-point    226
 
Charges :
 core                        :    56.00000000    
 valence                     :    22.00000000    
 interstitial                :    4.503152680    
 muffin-tins (core leakage)
  species :    1 (Y)
   atom    1                 :    36.74842366     (  0.9145858513E-05)
   atom    2                 :    36.74842366     (  0.9145858513E-05)
 total in muffin-tins        :    73.49684732    
 total calculated charge     :    77.99997677    
 total charge                :    78.00000000    
 error                       :   0.2322554236E-04
 
RMS change in Kohn-Sham potential (target) :   0.1018892627E-03 (   10.00000000    )
Absolute change in total energy (target)   :   0.1787190957E-02 (  0.1000000000E-07)
 
Time (CPU seconds) :      1089.71
 
+--------------------+
| Loop number :   14 |
+--------------------+
 
Energies :
 Fermi                       :     0.273836871584    
 sum of eigenvalues          :     -4007.01196627    
 electron kinetic            :      6996.87845303    
 core electron kinetic       :      6881.96041845    
 Coulomb                     :     -13548.7098703    
 Coulomb potential           :     -10709.4454456    
 nuclear-nuclear             :     -619.422498305    
 electron-nuclear            :     -15149.1292984    
 Hartree                     :      2219.84192639    
 Madelung                    :     -8193.98714749    
 xc potential                :     -294.444973712    
 exchange                    :     -217.888123496    
 correlation                 :     -3.94804550533    
 total energy                :     -6773.66758625    
 
Density of states at Fermi energy :    136.4965362    
 (states/Hartree/unit cell)
 
Estimated indirect band gap :   0.1076775213E-04
 from k-point    217 to k-point     85
Estimated direct band gap   :   0.3637317824E-02
 at k-point    226
 
Charges :
 core                        :    56.00000000    
 valence                     :    22.00000000    
 interstitial                :    4.503157709    
 muffin-tins (core leakage)
  species :    1 (Y)
   atom    1                 :    36.74842115     (  0.9145839950E-05)
   atom    2                 :    36.74842115     (  0.9145839950E-05)
 total in muffin-tins        :    73.49684229    
 total calculated charge     :    77.99997677    
 total charge                :    78.00000000    
 error                       :   0.2322550121E-04
 
Wrote STATE.OUT
 
RMS change in Kohn-Sham potential (target) :   0.1396748071E-03 (   10.00000000    )
Absolute change in total energy (target)   :   0.3542549503E-03 (  0.1000000000E-07)
 
Time (CPU seconds) :      1175.62
 
+--------------------+
| Loop number :   15 |
+--------------------+
 
Energies :
 Fermi                       :     0.273836764201    
 sum of eigenvalues          :     -4007.01198400    
 electron kinetic            :      6996.87840705    
 core electron kinetic       :      6881.96043669    
 Coulomb                     :     -13548.7098597    
 Coulomb potential           :     -10709.4454166    
 nuclear-nuclear             :     -619.422498305    
 electron-nuclear            :     -15149.1293062    
 Hartree                     :      2219.84194484    
 Madelung                    :     -8193.98715142    
 xc potential                :     -294.444974485    
 exchange                    :     -217.888124039    
 correlation                 :     -3.94804552359    
 total energy                :     -6773.66762222    
 
Density of states at Fermi energy :    136.4962972    
 (states/Hartree/unit cell)
 
Estimated indirect band gap :   0.1075565828E-04
 from k-point    217 to k-point     85
Estimated direct band gap   :   0.3637305600E-02
 at k-point    226
 
Charges :
 core                        :    56.00000000    
 valence                     :    22.00000000    
 interstitial                :    4.503157459    
 muffin-tins (core leakage)
  species :    1 (Y)
   atom    1                 :    36.74842127     (  0.9145720892E-05)
   atom    2                 :    36.74842127     (  0.9145720892E-05)
 total in muffin-tins        :    73.49684254    
 total calculated charge     :    77.99997677    
 total charge                :    78.00000000    
 error                       :   0.2322528326E-04
 
RMS change in Kohn-Sham potential (target) :   0.1008725841E-02 (   10.00000000    )
Absolute change in total energy (target)   :   0.5259585214E-04 (  0.1000000000E-07)
 
Time (CPU seconds) :      1258.42
 
+--------------------+
| Loop number :   16 |
+--------------------+
 
Energies :
 Fermi                       :     0.273834750959    
 sum of eigenvalues          :     -4007.01209775    
 electron kinetic            :      6996.87799784    
 core electron kinetic       :      6881.95996117    
 Coulomb                     :     -13548.7095577    
 Coulomb potential           :     -10709.4451273    
 nuclear-nuclear             :     -619.422498305    
 electron-nuclear            :     -15149.1289915    
 Hartree                     :      2219.84193207    
 Madelung                    :     -8193.98699404    
 xc potential                :     -294.444968261    
 exchange                    :     -217.888118735    
 correlation                 :     -3.94804561113    
 total energy                :     -6773.66772422    
 
Density of states at Fermi energy :    136.4942659    
 (states/Hartree/unit cell)
 
Estimated indirect band gap :   0.1081333585E-04
 from k-point    217 to k-point     85
Estimated direct band gap   :   0.3637385009E-02
 at k-point    226
 
Charges :
 core                        :    56.00000000    
 valence                     :    22.00000000    
 interstitial                :    4.503151159    
 muffin-tins (core leakage)
  species :    1 (Y)
   atom    1                 :    36.74842442     (  0.9145658854E-05)
   atom    2                 :    36.74842442     (  0.9145658854E-05)
 total in muffin-tins        :    73.49684884    
 total calculated charge     :    77.99997677    
 total charge                :    78.00000000    
 error                       :   0.2322525890E-04
 
Wrote STATE.OUT
 
RMS change in Kohn-Sham potential (target) :   0.4192079607E-03 (   10.00000000    )
Absolute change in total energy (target)   :   0.8884898489E-04 (  0.1000000000E-07)
 
Time (CPU seconds) :      1340.77
 
+--------------------+
| Loop number :   17 |
+--------------------+
 
Energies :
 Fermi                       :     0.273836065802    
 sum of eigenvalues          :     -4007.01203406    
 electron kinetic            :      6996.87840040    
 core electron kinetic       :      6881.96050702    
 Coulomb                     :     -13548.7099742    
 Coulomb potential           :     -10709.4454540    
 nuclear-nuclear             :     -619.422498305    
 electron-nuclear            :     -15149.1294977    
 Hartree                     :      2219.84202186    
 Madelung                    :     -8193.98724716    
 xc potential                :     -294.444980464    
 exchange                    :     -217.888129055    
 correlation                 :     -3.94804556687    
 total energy                :     -6773.66774838    
 
Density of states at Fermi energy :    136.4981390    
 (states/Hartree/unit cell)
 
Estimated indirect band gap :   0.1062859624E-04
 from k-point    217 to k-point     85
Estimated direct band gap   :   0.3637167393E-02
 at k-point    226
 
Charges :
 core                        :    56.00000000    
 valence                     :    22.00000000    
 interstitial                :    4.503162362    
 muffin-tins (core leakage)
  species :    1 (Y)
   atom    1                 :    36.74841882     (  0.9145732125E-05)
   atom    2                 :    36.74841882     (  0.9145732125E-05)
 total in muffin-tins        :    73.49683764    
 total calculated charge     :    77.99997677    
 total charge                :    78.00000000    
 error                       :   0.2322534266E-04
 
RMS change in Kohn-Sham potential (target) :   0.2012637802E-04 (   10.00000000    )
Absolute change in total energy (target)   :   0.4638014161E-04 (  0.1000000000E-07)
 
Time (CPU seconds) :      1424.51
 
+--------------------+
| Loop number :   18 |
+--------------------+
 
Energies :
 Fermi                       :     0.273836273759    
 sum of eigenvalues          :     -4007.01203642    
 electron kinetic            :      6996.87839631    
 core electron kinetic       :      6881.96049920    
 Coulomb                     :     -13548.7099607    
 Coulomb potential           :     -10709.4454533    
 nuclear-nuclear             :     -619.422498305    
 electron-nuclear            :     -15149.1294715    
 Hartree                     :      2219.84200910    
 Madelung                    :     -8193.98723405    
 xc potential                :     -294.444979445    
 exchange                    :     -217.888128053    
 correlation                 :     -3.94804555383    
 total energy                :     -6773.66773799    
 
Density of states at Fermi energy :    136.4974648    
 (states/Hartree/unit cell)
 
Estimated indirect band gap :   0.1066779510E-04
 from k-point    217 to k-point     85
Estimated direct band gap   :   0.3637207463E-02
 at k-point    226
 
Charges :
 core                        :    56.00000000    
 valence                     :    22.00000000    
 interstitial                :    4.503161250    
 muffin-tins (core leakage)
  species :    1 (Y)
   atom    1                 :    36.74841938     (  0.9145765937E-05)
   atom    2                 :    36.74841938     (  0.9145765937E-05)
 total in muffin-tins        :    73.49683875    
 total calculated charge     :    77.99997677    
 total charge                :    78.00000000    
 error                       :   0.2322545096E-04
 
Wrote STATE.OUT
 
RMS change in Kohn-Sham potential (target) :   0.3603716208E-03 (   10.00000000    )
Absolute change in total energy (target)   :   0.1197503479E-05 (  0.1000000000E-07)
 
Time (CPU seconds) :      1507.94
 
+--------------------+
| Loop number :   19 |
+--------------------+
 
Energies :
 Fermi                       :     0.273836172059    
 sum of eigenvalues          :     -4007.01204755    
 electron kinetic            :      6996.87837179    
 core electron kinetic       :      6881.96047341    
 Coulomb                     :     -13548.7099488    
 Coulomb potential           :     -10709.4454400    
 nuclear-nuclear             :     -619.422498305    
 electron-nuclear            :     -15149.1294610    
 Hartree                     :      2219.84201048    
 Madelung                    :     -8193.98722880    
 xc potential                :     -294.444979309    
 exchange                    :     -217.888127894    
 correlation                 :     -3.94804555868    
 total energy                :     -6773.66775048    
 
Density of states at Fermi energy :    136.4972957    
 (states/Hartree/unit cell)
 
Estimated indirect band gap :   0.1067237253E-04
 from k-point    217 to k-point     85
Estimated direct band gap   :   0.3637212867E-02
 at k-point    226
 
Charges :
 core                        :    56.00000000    
 valence                     :    22.00000000    
 interstitial                :    4.503160905    
 muffin-tins (core leakage)
  species :    1 (Y)
   atom    1                 :    36.74841955     (  0.9145685937E-05)
   atom    2                 :    36.74841955     (  0.9145685937E-05)
 total in muffin-tins        :    73.49683910    
 total calculated charge     :    77.99997677    
 total charge                :    78.00000000    
 error                       :   0.2322529281E-04
 
RMS change in Kohn-Sham potential (target) :   0.4460627843E-04 (   10.00000000    )
Absolute change in total energy (target)   :   0.1279468233E-04 (  0.1000000000E-07)
 
Time (CPU seconds) :      1591.55
 
+--------------------+
| Loop number :   20 |
+--------------------+
 
Energies :
 Fermi                       :     0.273836359608    
 sum of eigenvalues          :     -4007.01203987    
 electron kinetic            :      6996.87840189    
 core electron kinetic       :      6881.96050734    
 Coulomb                     :     -13548.7099729    
 Coulomb potential           :     -10709.4454619    
 nuclear-nuclear             :     -619.422498305    
 electron-nuclear            :     -15149.1294872    
 Hartree                     :      2219.84201265    
 Madelung                    :     -8193.98724192    
 xc potential                :     -294.444979842    
 exchange                    :     -217.888128310    
 correlation                 :     -3.94804555261    
 total energy                :     -6773.66774485    
 
Density of states at Fermi energy :    136.4973887    
 (states/Hartree/unit cell)
 
Estimated indirect band gap :   0.1067099780E-04
 from k-point    217 to k-point     85
Estimated direct band gap   :   0.3637209608E-02
 at k-point    226
 
Charges :
 core                        :    56.00000000    
 valence                     :    22.00000000    
 interstitial                :    4.503161337    
 muffin-tins (core leakage)
  species :    1 (Y)
   atom    1                 :    36.74841933     (  0.9145786336E-05)
   atom    2                 :    36.74841933     (  0.9145786336E-05)
 total in muffin-tins        :    73.49683866    
 total calculated charge     :    77.99997677    
 total charge                :    78.00000000    
 error                       :   0.2322545620E-04
 
Wrote STATE.OUT
 
RMS change in Kohn-Sham potential (target) :   0.1041451598E-03 (   10.00000000    )
Absolute change in total energy (target)   :   0.2438055162E-05 (  0.1000000000E-07)
 
Time (CPU seconds) :      1675.54
 
+--------------------+
| Loop number :   21 |
+--------------------+
 
Energies :
 Fermi                       :     0.273836391481    
 sum of eigenvalues          :     -4007.01203840    
 electron kinetic            :      6996.87840641    
 core electron kinetic       :      6881.96050849    
 Coulomb                     :     -13548.7099757    
 Coulomb potential           :     -10709.4454649    
 nuclear-nuclear             :     -619.422498305    
 electron-nuclear            :     -15149.1294898    
 Hartree                     :      2219.84201247    
 Madelung                    :     -8193.98724323    
 xc potential                :     -294.444979894    
 exchange                    :     -217.888128350    
 correlation                 :     -3.94804555227    
 total energy                :     -6773.66774318    
 
Density of states at Fermi energy :    136.4973947    
 (states/Hartree/unit cell)
 
Estimated indirect band gap :   0.1067150466E-04
 from k-point    217 to k-point     85
Estimated direct band gap   :   0.3637209948E-02
 at k-point    226
 
Charges :
 core                        :    56.00000000    
 valence                     :    22.00000000    
 interstitial                :    4.503161365    
 muffin-tins (core leakage)
  species :    1 (Y)
   atom    1                 :    36.74841932     (  0.9145643261E-05)
   atom    2                 :    36.74841932     (  0.9145643261E-05)
 total in muffin-tins        :    73.49683864    
 total calculated charge     :    77.99997677    
 total charge                :    78.00000000    
 error                       :   0.2322512044E-04
 
RMS change in Kohn-Sham potential (target) :   0.1628552780E-03 (   10.00000000    )
Absolute change in total energy (target)   :   0.2277221029E-05 (  0.1000000000E-07)
 
Time (CPU seconds) :      1759.10
 
+--------------------+
| Loop number :   22 |
+--------------------+
 
Energies :
 Fermi                       :     0.273836458044    
 sum of eigenvalues          :     -4007.01203286    
 electron kinetic            :      6996.87842396    
 core electron kinetic       :      6881.96053225    
 Coulomb                     :     -13548.7099881    
 Coulomb potential           :     -10709.4454766    
 nuclear-nuclear             :     -619.422498305    
 electron-nuclear            :     -15149.1295030    
 Hartree                     :      2219.84201318    
 Madelung                    :     -8193.98724979    
 xc potential                :     -294.444980220    
 exchange                    :     -217.888128638    
 correlation                 :     -3.94804555001    
 total energy                :     -6773.66773832    
 
Density of states at Fermi energy :    136.4975431    
 (states/Hartree/unit cell)
 
Estimated indirect band gap :   0.1066550411E-04
 from k-point    217 to k-point     85
Estimated direct band gap   :   0.3637202792E-02
 at k-point    226
 
Charges :
 core                        :    56.00000000    
 valence                     :    22.00000000    
 interstitial                :    4.503161768    
 muffin-tins (core leakage)
  species :    1 (Y)
   atom    1                 :    36.74841912     (  0.9145890473E-05)
   atom    2                 :    36.74841912     (  0.9145890473E-05)
 total in muffin-tins        :    73.49683823    
 total calculated charge     :    77.99997677    
 total charge                :    78.00000000    
 error                       :   0.2322567128E-04
 
Wrote STATE.OUT
 
RMS change in Kohn-Sham potential (target) :   0.2643722505E-03 (   10.00000000    )
Absolute change in total energy (target)   :   0.5431664249E-05 (  0.1000000000E-07)
 
Time (CPU seconds) :      1842.47
 
+--------------------+
| Loop number :   23 |
+--------------------+
 
Energies :
 Fermi                       :     0.273836413678    
 sum of eigenvalues          :     -4007.01203747    
 electron kinetic            :      6996.87840909    
 core electron kinetic       :      6881.96051446    
 Coulomb                     :     -13548.7099766    
 Coulomb potential           :     -10709.4454666    
 nuclear-nuclear             :     -619.422498305    
 electron-nuclear            :     -15149.1294898    
 Hartree                     :      2219.84201160    
 Madelung                    :     -8193.98724323    
 xc potential                :     -294.444979912    
 exchange                    :     -217.888128365    
 correlation                 :     -3.94804555083    
 total energy                :     -6773.66774138    
 
Density of states at Fermi energy :    136.4973899    
 (states/Hartree/unit cell)
 
Estimated indirect band gap :   0.1067235925E-04
 from k-point    217 to k-point     85
Estimated direct band gap   :   0.3637210726E-02
 at k-point    226
 
Charges :
 core                        :    56.00000000    
 valence                     :    22.00000000    
 interstitial                :    4.503161364    
 muffin-tins (core leakage)
  species :    1 (Y)
   atom    1                 :    36.74841932     (  0.9145732285E-05)
   atom    2                 :    36.74841932     (  0.9145732285E-05)
 total in muffin-tins        :    73.49683864    
 total calculated charge     :    77.99997677    
 total charge                :    78.00000000    
 error                       :   0.2322531358E-04
 
RMS change in Kohn-Sham potential (target) :   0.1074887564E-03 (   10.00000000    )
Absolute change in total energy (target)   :   0.1708283889E-05 (  0.1000000000E-07)
 
Time (CPU seconds) :      1924.47
 
+--------------------+
| Loop number :   24 |
+--------------------+
 
Energies :
 Fermi                       :     0.273836388427    
 sum of eigenvalues          :     -4007.01203844    
 electron kinetic            :      6996.87840533    
 core electron kinetic       :      6881.96050515    
 Coulomb                     :     -13548.7099752    
 Coulomb potential           :     -10709.4454639    
 nuclear-nuclear             :     -619.422498305    
 electron-nuclear            :     -15149.1294898    
 Hartree                     :      2219.84201297    
 Madelung                    :     -8193.98724323    
 xc potential                :     -294.444979870    
 exchange                    :     -217.888128325    
 correlation                 :     -3.94804555423    
 total energy                :     -6773.66774373    
 
Density of states at Fermi energy :    136.4973904    
 (states/Hartree/unit cell)
 
Estimated indirect band gap :   0.1067166334E-04
 from k-point    217 to k-point     85
Estimated direct band gap   :   0.3637210219E-02
 at k-point    226
 
Charges :
 core                        :    56.00000000    
 valence                     :    22.00000000    
 interstitial                :    4.503161337    
 muffin-tins (core leakage)
  species :    1 (Y)
   atom    1                 :    36.74841933     (  0.9145883027E-05)
   atom    2                 :    36.74841933     (  0.9145883027E-05)
 total in muffin-tins        :    73.49683866    
 total calculated charge     :    77.99997677    
 total charge                :    78.00000000    
 error                       :   0.2322570812E-04
 
Wrote STATE.OUT
 
RMS change in Kohn-Sham potential (target) :   0.1965200743E-03 (   10.00000000    )
Absolute change in total energy (target)   :   0.2773711458E-05 (  0.1000000000E-07)
 
Time (CPU seconds) :      2011.07
 
+--------------------+
| Loop number :   25 |
+--------------------+
 
Energies :
 Fermi                       :     0.273836558261    
 sum of eigenvalues          :     -4007.01202835    
 electron kinetic            :      6996.87843363    
 core electron kinetic       :      6881.96053602    
 Coulomb                     :     -13548.7099933    
 Coulomb potential           :     -10709.4454817    
 nuclear-nuclear             :     -619.422498305    
 electron-nuclear            :     -15149.1295082    
 Hartree                     :      2219.84201325    
 Madelung                    :     -8193.98725241    
 xc potential                :     -294.444980274    
 exchange                    :     -217.888128669    
 correlation                 :     -3.94804554760    
 total energy                :     -6773.66773385    
 
Density of states at Fermi energy :    136.4975098    
 (states/Hartree/unit cell)
 
Estimated indirect band gap :   0.1066938005E-04
 from k-point    217 to k-point     85
Estimated direct band gap   :   0.3637206545E-02
 at k-point    226
 
Charges :
 core                        :    56.00000000    
 valence                     :    22.00000000    
 interstitial                :    4.503161707    
 muffin-tins (core leakage)
  species :    1 (Y)
   atom    1                 :    36.74841915     (  0.9145902762E-05)
   atom    2                 :    36.74841915     (  0.9145902762E-05)
 total in muffin-tins        :    73.49683829    
 total calculated charge     :    77.99997677    
 total charge                :    78.00000000    
 error                       :   0.2322573927E-04
 
RMS change in Kohn-Sham potential (target) :   0.1075761804E-03 (   10.00000000    )
Absolute change in total energy (target)   :   0.9187968317E-05 (  0.1000000000E-07)
 
Time (CPU seconds) :      2095.76
 
+--------------------+
| Loop number :   26 |
+--------------------+
 
Energies :
 Fermi                       :     0.273836548439    
 sum of eigenvalues          :     -4007.01202901    
 electron kinetic            :      6996.87842990    
 core electron kinetic       :      6881.96052860    
 Coulomb                     :     -13548.7099891    
 Coulomb potential           :     -10709.4454787    
 nuclear-nuclear             :     -619.422498305    
 electron-nuclear            :     -15149.1295030    
 Hartree                     :      2219.84201212    
 Madelung                    :     -8193.98724979    
 xc potential                :     -294.444980191    
 exchange                    :     -217.888128599    
 correlation                 :     -3.94804554800    
 total energy                :     -6773.66773340    
 
Density of states at Fermi energy :    136.4974752    
 (states/Hartree/unit cell)
 
Estimated indirect band gap :   0.1067077232E-04
 from k-point    217 to k-point     85
Estimated direct band gap   :   0.3637208271E-02
 at k-point    226
 
Charges :
 core                        :    56.00000000    
 valence                     :    22.00000000    
 interstitial                :    4.503161598    
 muffin-tins (core leakage)
  species :    1 (Y)
   atom    1                 :    36.74841920     (  0.9145902695E-05)
   atom    2                 :    36.74841920     (  0.9145902695E-05)
 total in muffin-tins        :    73.49683840    
 total calculated charge     :    77.99997677    
 total charge                :    78.00000000    
 error                       :   0.2322569723E-04
 
Wrote STATE.OUT
 
RMS change in Kohn-Sham potential (target) :   0.2133587562E-03 (   10.00000000    )
Absolute change in total energy (target)   :   0.2747461622E-05 (  0.1000000000E-07)
 
Time (CPU seconds) :      2179.30
 
+--------------------+
| Loop number :   27 |
+--------------------+
 
Energies :
 Fermi                       :     0.273836593879    
 sum of eigenvalues          :     -4007.01202514    
 electron kinetic            :      6996.87843873    
 core electron kinetic       :      6881.96053766    
 Coulomb                     :     -13548.7099955    
 Coulomb potential           :     -10709.4454836    
 nuclear-nuclear             :     -619.422498305    
 electron-nuclear            :     -15149.1295108    
 Hartree                     :      2219.84201363    
 Madelung                    :     -8193.98725372    
 xc potential                :     -294.444980301    
 exchange                    :     -217.888128697    
 correlation                 :     -3.94804554785    
 total energy                :     -6773.66773102    
 
Density of states at Fermi energy :    136.4975341    
 (states/Hartree/unit cell)
 
Estimated indirect band gap :   0.1066887526E-04
 from k-point    217 to k-point     85
Estimated direct band gap   :   0.3637205954E-02
 at k-point    226
 
Charges :
 core                        :    56.00000000    
 valence                     :    22.00000000    
 interstitial                :    4.503161743    
 muffin-tins (core leakage)
  species :    1 (Y)
   atom    1                 :    36.74841913     (  0.9145802608E-05)
   atom    2                 :    36.74841913     (  0.9145802608E-05)
 total in muffin-tins        :    73.49683826    
 total calculated charge     :    77.99997677    
 total charge                :    78.00000000    
 error                       :   0.2322542275E-04
 
RMS change in Kohn-Sham potential (target) :   0.3465439035E-04 (   10.00000000    )
Absolute change in total energy (target)   :   0.3065675628E-05 (  0.1000000000E-07)
 
Time (CPU seconds) :      2261.62
 
+--------------------+
| Loop number :   28 |
+--------------------+
 
Energies :
 Fermi                       :     0.273836596295    
 sum of eigenvalues          :     -4007.01202485    
 electron kinetic            :      6996.87843855    
 core electron kinetic       :      6881.96053858    
 Coulomb                     :     -13548.7099953    
 Coulomb potential           :     -10709.4454831    
 nuclear-nuclear             :     -619.422498305    
 electron-nuclear            :     -15149.1295108    
 Hartree                     :      2219.84201386    
 Madelung                    :     -8193.98725372    
 xc potential                :     -294.444980283    
 exchange                    :     -217.888128686    
 correlation                 :     -3.94804554712    
 total energy                :     -6773.66773096    
 
Density of states at Fermi energy :    136.4975281    
 (states/Hartree/unit cell)
 
Estimated indirect band gap :   0.1066914698E-04
 from k-point    217 to k-point     85
Estimated direct band gap   :   0.3637206302E-02
 at k-point    226
 
Charges :
 core                        :    56.00000000    
 valence                     :    22.00000000    
 interstitial                :    4.503161719    
 muffin-tins (core leakage)
  species :    1 (Y)
   atom    1                 :    36.74841914     (  0.9145872603E-05)
   atom    2                 :    36.74841914     (  0.9145872603E-05)
 total in muffin-tins        :    73.49683828    
 total calculated charge     :    77.99997677    
 total charge                :    78.00000000    
 error                       :   0.2322569784E-04
 
Wrote STATE.OUT
 
RMS change in Kohn-Sham potential (target) :   0.2541608602E-03 (   10.00000000    )
Absolute change in total energy (target)   :   0.8258275557E-06 (  0.1000000000E-07)
 
Time (CPU seconds) :      2347.36
 
+--------------------+
| Loop number :   29 |
+--------------------+
 
Energies :
 Fermi                       :     0.273836565486    
 sum of eigenvalues          :     -4007.01202716    
 electron kinetic            :      6996.87843275    
 core electron kinetic       :      6881.96053290    
 Coulomb                     :     -13548.7099909    
 Coulomb potential           :     -10709.4454797    
 nuclear-nuclear             :     -619.422498305    
 electron-nuclear            :     -15149.1295056    
 Hartree                     :      2219.84201295    
 Madelung                    :     -8193.98725110    
 xc potential                :     -294.444980211    
 exchange                    :     -217.888128623    
 correlation                 :     -3.94804554760    
 total energy                :     -6773.66773237    
 
Density of states at Fermi energy :    136.4974943    
 (states/Hartree/unit cell)
 
Estimated indirect band gap :   0.1067002487E-04
 from k-point    217 to k-point     85
Estimated direct band gap   :   0.3637207463E-02
 at k-point    226
 
Charges :
 core                        :    56.00000000    
 valence                     :    22.00000000    
 interstitial                :    4.503161631    
 muffin-tins (core leakage)
  species :    1 (Y)
   atom    1                 :    36.74841918     (  0.9145703480E-05)
   atom    2                 :    36.74841918     (  0.9145703480E-05)
 total in muffin-tins        :    73.49683837    
 total calculated charge     :    77.99997677    
 total charge                :    78.00000000    
 error                       :   0.2322536204E-04
 
RMS change in Kohn-Sham potential (target) :   0.1055551730E-03 (   10.00000000    )
Absolute change in total energy (target)   :   0.1202452040E-05 (  0.1000000000E-07)
 
Time (CPU seconds) :      2432.06
 
+--------------------+
| Loop number :   30 |
+--------------------+
 
Energies :
 Fermi                       :     0.273836561839    
 sum of eigenvalues          :     -4007.01202773    
 electron kinetic            :      6996.87843162    
 core electron kinetic       :      6881.96053130    
 Coulomb                     :     -13548.7099907    
 Coulomb potential           :     -10709.4454792    
 nuclear-nuclear             :     -619.422498305    
 electron-nuclear            :     -15149.1295056    
 Hartree                     :      2219.84201321    
 Madelung                    :     -8193.98725110    
 xc potential                :     -294.444980197    
 exchange                    :     -217.888128612    
 correlation                 :     -3.94804554680    
 total energy                :     -6773.66773321    
 
Density of states at Fermi energy :    136.4974805    
 (states/Hartree/unit cell)
 
Estimated indirect band gap :   0.1067055054E-04
 from k-point    217 to k-point     85
Estimated direct band gap   :   0.3637208055E-02
 at k-point    226
 
Charges :
 core                        :    56.00000000    
 valence                     :    22.00000000    
 interstitial                :    4.503161601    
 muffin-tins (core leakage)
  species :    1 (Y)
   atom    1                 :    36.74841920     (  0.9145765294E-05)
   atom    2                 :    36.74841920     (  0.9145765294E-05)
 total in muffin-tins        :    73.49683840    
 total calculated charge     :    77.99997677    
 total charge                :    78.00000000    
 error                       :   0.2322548926E-04
 
Wrote STATE.OUT
 
RMS change in Kohn-Sham potential (target) :   0.1550189990E-04 (   10.00000000    )
Absolute change in total energy (target)   :   0.1144271664E-05 (  0.1000000000E-07)
 
Time (CPU seconds) :      2515.68
 
+--------------------+
| Loop number :   31 |
+--------------------+
 
Energies :
 Fermi                       :     0.273836572281    
 sum of eigenvalues          :     -4007.01202708    
 electron kinetic            :      6996.87843282    
 core electron kinetic       :      6881.96053284    
 Coulomb                     :     -13548.7099909    
 Coulomb potential           :     -10709.4454797    
 nuclear-nuclear             :     -619.422498305    
 electron-nuclear            :     -15149.1295056    
 Hartree                     :      2219.84201295    
 Madelung                    :     -8193.98725110    
 xc potential                :     -294.444980209    
 exchange                    :     -217.888128616    
 correlation                 :     -3.94804554748    
 total energy                :     -6773.66773228    
 
Density of states at Fermi energy :    136.4974853    
 (states/Hartree/unit cell)
 
Estimated indirect band gap :   0.1067052200E-04
 from k-point    217 to k-point     85
Estimated direct band gap   :   0.3637207971E-02
 at k-point    226
 
Charges :
 core                        :    56.00000000    
 valence                     :    22.00000000    
 interstitial                :    4.503161614    
 muffin-tins (core leakage)
  species :    1 (Y)
   atom    1                 :    36.74841919     (  0.9145806111E-05)
   atom    2                 :    36.74841919     (  0.9145806111E-05)
 total in muffin-tins        :    73.49683839    
 total calculated charge     :    77.99997677    
 total charge                :    78.00000000    
 error                       :   0.2322545097E-04
 
RMS change in Kohn-Sham potential (target) :   0.1037078420E-03 (   10.00000000    )
Absolute change in total energy (target)   :   0.6400196071E-06 (  0.1000000000E-07)
 
Time (CPU seconds) :      2600.68
 
+--------------------+
| Loop number :   32 |
+--------------------+
 
Energies :
 Fermi                       :     0.273836569614    
 sum of eigenvalues          :     -4007.01202749    
 electron kinetic            :      6996.87843209    
 core electron kinetic       :      6881.96053193    
 Coulomb                     :     -13548.7099908    
 Coulomb potential           :     -10709.4454794    
 nuclear-nuclear             :     -619.422498305    
 electron-nuclear            :     -15149.1295056    
 Hartree                     :      2219.84201310    
 Madelung                    :     -8193.98725110    
 xc potential                :     -294.444980199    
 exchange                    :     -217.888128603    
 correlation                 :     -3.94804554888    
 total energy                :     -6773.66773285    
 
Density of states at Fermi energy :    136.4974768    
 (states/Hartree/unit cell)
 
Estimated indirect band gap :   0.1067084947E-04
 from k-point    217 to k-point     85
Estimated direct band gap   :   0.3637208340E-02
 at k-point    226
 
Charges :
 core                        :    56.00000000    
 valence                     :    22.00000000    
 interstitial                :    4.503161596    
 muffin-tins (core leakage)
  species :    1 (Y)
   atom    1                 :    36.74841920     (  0.9145836827E-05)
   atom    2                 :    36.74841920     (  0.9145836827E-05)
 total in muffin-tins        :    73.49683840    
 total calculated charge     :    77.99997677    
 total charge                :    78.00000000    
 error                       :   0.2322553517E-04
 
Wrote STATE.OUT
 
RMS change in Kohn-Sham potential (target) :   0.1897577904E-03 (   10.00000000    )
Absolute change in total energy (target)   :   0.4041467037E-06 (  0.1000000000E-07)
 
Time (CPU seconds) :      2683.69
 
+--------------------+
| Loop number :   33 |
+--------------------+
 
Energies :
 Fermi                       :     0.273836571867    
 sum of eigenvalues          :     -4007.01202733    
 electron kinetic            :      6996.87843246    
 core electron kinetic       :      6881.96053213    
 Coulomb                     :     -13548.7099909    
 Coulomb potential           :     -10709.4454796    
 nuclear-nuclear             :     -619.422498305    
 electron-nuclear            :     -15149.1295056    
 Hartree                     :      2219.84201300    
 Madelung                    :     -8193.98725110    
 xc potential                :     -294.444980205    
 exchange                    :     -217.888128612    
 correlation                 :     -3.94804554751    
 total energy                :     -6773.66773259    
 
Density of states at Fermi energy :    136.4974785    
 (states/Hartree/unit cell)
 
Estimated indirect band gap :   0.1067080146E-04
 from k-point    217 to k-point     85
Estimated direct band gap   :   0.3637208276E-02
 at k-point    226
 
Charges :
 core                        :    56.00000000    
 valence                     :    22.00000000    
 interstitial                :    4.503161601    
 muffin-tins (core leakage)
  species :    1 (Y)
   atom    1                 :    36.74841920     (  0.9145883080E-05)
   atom    2                 :    36.74841920     (  0.9145883080E-05)
 total in muffin-tins        :    73.49683840    
 total calculated charge     :    77.99997677    
 total charge                :    78.00000000    
 error                       :   0.2322565749E-04
 
RMS change in Kohn-Sham potential (target) :   0.7420966335E-04 (   10.00000000    )
Absolute change in total energy (target)   :   0.1564058039E-06 (  0.1000000000E-07)
 
Time (CPU seconds) :      2765.95
 
+--------------------+
| Loop number :   34 |
+--------------------+
 
Energies :
 Fermi                       :     0.273836575469    
 sum of eigenvalues          :     -4007.01202704    
 electron kinetic            :      6996.87843301    
 core electron kinetic       :      6881.96053251    
 Coulomb                     :     -13548.7099910    
 Coulomb potential           :     -10709.4454798    
 nuclear-nuclear             :     -619.422498305    
 electron-nuclear            :     -15149.1295056    
 Hartree                     :      2219.84201287    
 Madelung                    :     -8193.98725110    
 xc potential                :     -294.444980210    
 exchange                    :     -217.888128616    
 correlation                 :     -3.94804554781    
 total energy                :     -6773.66773217    
 
Density of states at Fermi energy :    136.4974811    
 (states/Hartree/unit cell)
 
Estimated indirect band gap :   0.1067074259E-04
 from k-point    217 to k-point     85
Estimated direct band gap   :   0.3637208202E-02
 at k-point    226
 
Charges :
 core                        :    56.00000000    
 valence                     :    22.00000000    
 interstitial                :    4.503161606    
 muffin-tins (core leakage)
  species :    1 (Y)
   atom    1                 :    36.74841920     (  0.9145724309E-05)
   atom    2                 :    36.74841920     (  0.9145724309E-05)
 total in muffin-tins        :    73.49683839    
 total calculated charge     :    77.99997677    
 total charge                :    78.00000000    
 error                       :   0.2322529693E-04
 
Wrote STATE.OUT
 
RMS change in Kohn-Sham potential (target) :   0.1610600500E-03 (   10.00000000    )
Absolute change in total energy (target)   :   0.4605126378E-06 (  0.1000000000E-07)
 
Time (CPU seconds) :      2850.73
 
+--------------------+
| Loop number :   35 |
+--------------------+
 
Energies :
 Fermi                       :     0.273836577889    
 sum of eigenvalues          :     -4007.01202680    
 electron kinetic            :      6996.87843348    
 core electron kinetic       :      6881.96053285    
 Coulomb                     :     -13548.7099911    
 Coulomb potential           :     -10709.4454801    
 nuclear-nuclear             :     -619.422498305    
 electron-nuclear            :     -15149.1295056    
 Hartree                     :      2219.84201276    
 Madelung                    :     -8193.98725110    
 xc potential                :     -294.444980214    
 exchange                    :     -217.888128620    
 correlation                 :     -3.94804554751    
 total energy                :     -6773.66773182    
 
Density of states at Fermi energy :    136.4974850    
 (states/Hartree/unit cell)
 
Estimated indirect band gap :   0.1067062071E-04
 from k-point    217 to k-point     85
Estimated direct band gap   :   0.3637208057E-02
 at k-point    226
 
Charges :
 core                        :    56.00000000    
 valence                     :    22.00000000    
 interstitial                :    4.503161615    
 muffin-tins (core leakage)
  species :    1 (Y)
   atom    1                 :    36.74841919     (  0.9145837836E-05)
   atom    2                 :    36.74841919     (  0.9145837836E-05)
 total in muffin-tins        :    73.49683839    
 total calculated charge     :    77.99997677    
 total charge                :    78.00000000    
 error                       :   0.2322553222E-04
 
RMS change in Kohn-Sham potential (target) :   0.5592135320E-04 (   10.00000000    )
Absolute change in total energy (target)   :   0.4677622201E-06 (  0.1000000000E-07)
 
Time (CPU seconds) :      2935.50
 
+--------------------+
| Loop number :   36 |
+--------------------+
 
Energies :
 Fermi                       :     0.273836580125    
 sum of eigenvalues          :     -4007.01202662    
 electron kinetic            :      6996.87843391    
 core electron kinetic       :      6881.96053344    
 Coulomb                     :     -13548.7099913    
 Coulomb potential           :     -10709.4454803    
 nuclear-nuclear             :     -619.422498305    
 electron-nuclear            :     -15149.1295056    
 Hartree                     :      2219.84201264    
 Madelung                    :     -8193.98725110    
 xc potential                :     -294.444980219    
 exchange                    :     -217.888128624    
 correlation                 :     -3.94804554803    
 total energy                :     -6773.66773152    
 
Density of states at Fermi energy :    136.4974865    
 (states/Hartree/unit cell)
 
Estimated indirect band gap :   0.1067058840E-04
 from k-point    217 to k-point     85
Estimated direct band gap   :   0.3637208016E-02
 at k-point    226
 
Charges :
 core                        :    56.00000000    
 valence                     :    22.00000000    
 interstitial                :    4.503161618    
 muffin-tins (core leakage)
  species :    1 (Y)
   atom    1                 :    36.74841919     (  0.9145702546E-05)
   atom    2                 :    36.74841919     (  0.9145702546E-05)
 total in muffin-tins        :    73.49683838    
 total calculated charge     :    77.99997677    
 total charge                :    78.00000000    
 error                       :   0.2322530203E-04
 
Wrote STATE.OUT
 
RMS change in Kohn-Sham potential (target) :   0.5631641050E-03 (   10.00000000    )
Absolute change in total energy (target)   :   0.4187213563E-06 (  0.1000000000E-07)
 
Time (CPU seconds) :      3019.00
 
+--------------------+
| Loop number :   37 |
+--------------------+
 
Energies :
 Fermi                       :     0.273836580435    
 sum of eigenvalues          :     -4007.01202677    
 electron kinetic            :      6996.87843365    
 core electron kinetic       :      6881.96053293    
 Coulomb                     :     -13548.7099912    
 Coulomb potential           :     -10709.4454802    
 nuclear-nuclear             :     -619.422498305    
 electron-nuclear            :     -15149.1295056    
 Hartree                     :      2219.84201269    
 Madelung                    :     -8193.98725110    
 xc potential                :     -294.444980215    
 exchange                    :     -217.888128621    
 correlation                 :     -3.94804554749    
 total energy                :     -6773.66773172    
 
Density of states at Fermi energy :    136.4974815    
 (states/Hartree/unit cell)
 
Estimated indirect band gap :   0.1067080689E-04
 from k-point    217 to k-point     85
Estimated direct band gap   :   0.3637208258E-02
 at k-point    226
 
Charges :
 core                        :    56.00000000    
 valence                     :    22.00000000    
 interstitial                :    4.503161606    
 muffin-tins (core leakage)
  species :    1 (Y)
   atom    1                 :    36.74841920     (  0.9145911520E-05)
   atom    2                 :    36.74841920     (  0.9145911520E-05)
 total in muffin-tins        :    73.49683839    
 total calculated charge     :    77.99997677    
 total charge                :    78.00000000    
 error                       :   0.2322570045E-04
 
RMS change in Kohn-Sham potential (target) :   0.9742514812E-05 (   10.00000000    )
Absolute change in total energy (target)   :   0.9946597856E-07 (  0.1000000000E-07)
 
Time (CPU seconds) :      3101.64
 
+--------------------+
| Loop number :   38 |
+--------------------+
 
Energies :
 Fermi                       :     0.273836583034    
 sum of eigenvalues          :     -4007.01202653    
 electron kinetic            :      6996.87843402    
 core electron kinetic       :      6881.96053328    
 Coulomb                     :     -13548.7099913    
 Coulomb potential           :     -10709.4454803    
 nuclear-nuclear             :     -619.422498305    
 electron-nuclear            :     -15149.1295056    
 Hartree                     :      2219.84201262    
 Madelung                    :     -8193.98725110    
 xc potential                :     -294.444980220    
 exchange                    :     -217.888128623    
 correlation                 :     -3.94804554796    
 total energy                :     -6773.66773141    
 
Density of states at Fermi energy :    136.4974843    
 (states/Hartree/unit cell)
 
Estimated indirect band gap :   0.1067072024E-04
 from k-point    217 to k-point     85
Estimated direct band gap   :   0.3637208156E-02
 at k-point    226
 
Charges :
 core                        :    56.00000000    
 valence                     :    22.00000000    
 interstitial                :    4.503161612    
 muffin-tins (core leakage)
  species :    1 (Y)
   atom    1                 :    36.74841919     (  0.9145704823E-05)
   atom    2                 :    36.74841919     (  0.9145704823E-05)
 total in muffin-tins        :    73.49683839    
 total calculated charge     :    77.99997677    
 total charge                :    78.00000000    
 error                       :   0.2322535448E-04
 
Wrote STATE.OUT
 
RMS change in Kohn-Sham potential (target) :   0.5641937579E-03 (   10.00000000    )
Absolute change in total energy (target)   :   0.2823016985E-06 (  0.1000000000E-07)
 
Time (CPU seconds) :      3184.04
 
+--------------------+
| Loop number :   39 |
+--------------------+
 
Energies :
 Fermi                       :     0.273836583085    
 sum of eigenvalues          :     -4007.01202648    
 electron kinetic            :      6996.87843421    
 core electron kinetic       :      6881.96053334    
 Coulomb                     :     -13548.7099913    
 Coulomb potential           :     -10709.4454805    
 nuclear-nuclear             :     -619.422498305    
 electron-nuclear            :     -15149.1295056    
 Hartree                     :      2219.84201256    
 Madelung                    :     -8193.98725110    
 xc potential                :     -294.444980222    
 exchange                    :     -217.888128627    
 correlation                 :     -3.94804554766    
 total energy                :     -6773.66773130    
 
Density of states at Fermi energy :    136.4974858    
 (states/Hartree/unit cell)
 
Estimated indirect band gap :   0.1067066056E-04
 from k-point    217 to k-point     85
Estimated direct band gap   :   0.3637208089E-02
 at k-point    226
 
Charges :
 core                        :    56.00000000    
 valence                     :    22.00000000    
 interstitial                :    4.503161615    
 muffin-tins (core leakage)
  species :    1 (Y)
   atom    1                 :    36.74841919     (  0.9145649351E-05)
   atom    2                 :    36.74841919     (  0.9145649351E-05)
 total in muffin-tins        :    73.49683838    
 total calculated charge     :    77.99997677    
 total charge                :    78.00000000    
 error                       :   0.2322510893E-04
 
RMS change in Kohn-Sham potential (target) :   0.2960914712E-03 (   10.00000000    )
Absolute change in total energy (target)   :   0.1851731213E-06 (  0.1000000000E-07)
 
Time (CPU seconds) :      3267.26
 
+--------------------+
| Loop number :   40 |
+--------------------+
 
Energies :
 Fermi                       :     0.273836584812    
 sum of eigenvalues          :     -4007.01202629    
 electron kinetic            :      6996.87843458    
 core electron kinetic       :      6881.96053365    
 Coulomb                     :     -13548.7099914    
 Coulomb potential           :     -10709.4454806    
 nuclear-nuclear             :     -619.422498305    
 electron-nuclear            :     -15149.1295056    
 Hartree                     :      2219.84201247    
 Madelung                    :     -8193.98725110    
 xc potential                :     -294.444980224    
 exchange                    :     -217.888128632    
 correlation                 :     -3.94804554682    
 total energy                :     -6773.66773102    
 
Density of states at Fermi energy :    136.4974881    
 (states/Hartree/unit cell)
 
Estimated indirect band gap :   0.1067058168E-04
 from k-point    217 to k-point     85
Estimated direct band gap   :   0.3637207998E-02
 at k-point    226
 
Charges :
 core                        :    56.00000000    
 valence                     :    22.00000000    
 interstitial                :    4.503161621    
 muffin-tins (core leakage)
  species :    1 (Y)
   atom    1                 :    36.74841919     (  0.9145841304E-05)
   atom    2                 :    36.74841919     (  0.9145841304E-05)
 total in muffin-tins        :    73.49683838    
 total calculated charge     :    77.99997677    
 total charge                :    78.00000000    
 error                       :   0.2322563817E-04
 
Wrote STATE.OUT
 
RMS change in Kohn-Sham potential (target) :   0.1135549572E-03 (   10.00000000    )
Absolute change in total energy (target)   :   0.3267268767E-06 (  0.1000000000E-07)
 
Time (CPU seconds) :      3350.86
 
+--------------------+
| Loop number :   41 |
+--------------------+
 
Energies :
 Fermi                       :     0.273836585366    
 sum of eigenvalues          :     -4007.01202624    
 electron kinetic            :      6996.87843468    
 core electron kinetic       :      6881.96053368    
 Coulomb                     :     -13548.7099914    
 Coulomb potential           :     -10709.4454807    
 nuclear-nuclear             :     -619.422498305    
 electron-nuclear            :     -15149.1295056    
 Hartree                     :      2219.84201245    
 Madelung                    :     -8193.98725110    
 xc potential                :     -294.444980223    
 exchange                    :     -217.888128630    
 correlation                 :     -3.94804554712    
 total energy                :     -6773.66773095    
 
Density of states at Fermi energy :    136.4974886    
 (states/Hartree/unit cell)
 
Estimated indirect band gap :   0.1067056972E-04
 from k-point    217 to k-point     85
Estimated direct band gap   :   0.3637207985E-02
 at k-point    226
 
Charges :
 core                        :    56.00000000    
 valence                     :    22.00000000    
 interstitial                :    4.503161621    
 muffin-tins (core leakage)
  species :    1 (Y)
   atom    1                 :    36.74841919     (  0.9145940755E-05)
   atom    2                 :    36.74841919     (  0.9145940755E-05)
 total in muffin-tins        :    73.49683838    
 total calculated charge     :    77.99997677    
 total charge                :    78.00000000    
 error                       :   0.2322573860E-04
 
RMS change in Kohn-Sham potential (target) :   0.3439042152E-03 (   10.00000000    )
Absolute change in total energy (target)   :   0.1535954652E-06 (  0.1000000000E-07)
 
Time (CPU seconds) :      3434.87
 
+--------------------+
| Loop number :   42 |
+--------------------+
 
Energies :
 Fermi                       :     0.273836585679    
 sum of eigenvalues          :     -4007.01202621    
 electron kinetic            :      6996.87843453    
 core electron kinetic       :      6881.96053355    
 Coulomb                     :     -13548.7099914    
 Coulomb potential           :     -10709.4454805    
 nuclear-nuclear             :     -619.422498305    
 electron-nuclear            :     -15149.1295056    
 Hartree                     :      2219.84201254    
 Madelung                    :     -8193.98725110    
 xc potential                :     -294.444980223    
 exchange                    :     -217.888128628    
 correlation                 :     -3.94804554726    
 total energy                :     -6773.66773100    
 
Density of states at Fermi energy :    136.4974894    
 (states/Hartree/unit cell)
 
Estimated indirect band gap :   0.1067053956E-04
 from k-point    217 to k-point     85
Estimated direct band gap   :   0.3637207951E-02
 at k-point    226
 
Charges :
 core                        :    56.00000000    
 valence                     :    22.00000000    
 interstitial                :    4.503161623    
 muffin-tins (core leakage)
  species :    1 (Y)
   atom    1                 :    36.74841919     (  0.9145897462E-05)
   atom    2                 :    36.74841919     (  0.9145897462E-05)
 total in muffin-tins        :    73.49683838    
 total calculated charge     :    77.99997677    
 total charge                :    78.00000000    
 error                       :   0.2322567160E-04
 
Wrote STATE.OUT
 
RMS change in Kohn-Sham potential (target) :   0.9973899451E-04 (   10.00000000    )
Absolute change in total energy (target)   :   0.1529042493E-07 (  0.1000000000E-07)
 
Time (CPU seconds) :      3518.94
 
+--------------------+
| Loop number :   43 |
+--------------------+
 
Energies :
 Fermi                       :     0.273836585944    
 sum of eigenvalues          :     -4007.01202619    
 electron kinetic            :      6996.87843455    
 core electron kinetic       :      6881.96053356    
 Coulomb                     :     -13548.7099914    
 Coulomb potential           :     -10709.4454805    
 nuclear-nuclear             :     -619.422498305    
 electron-nuclear            :     -15149.1295056    
 Hartree                     :      2219.84201253    
 Madelung                    :     -8193.98725110    
 xc potential                :     -294.444980221    
 exchange                    :     -217.888128624    
 correlation                 :     -3.94804554818    
 total energy                :     -6773.66773098    
 
Density of states at Fermi energy :    136.4974892    
 (states/Hartree/unit cell)
 
Estimated indirect band gap :   0.1067054676E-04
 from k-point    217 to k-point     85
Estimated direct band gap   :   0.3637207960E-02
 at k-point    226
 
Charges :
 core                        :    56.00000000    
 valence                     :    22.00000000    
 interstitial                :    4.503161622    
 muffin-tins (core leakage)
  species :    1 (Y)
   atom    1                 :    36.74841919     (  0.9145874973E-05)
   atom    2                 :    36.74841919     (  0.9145874973E-05)
 total in muffin-tins        :    73.49683838    
 total calculated charge     :    77.99997677    
 total charge                :    78.00000000    
 error                       :   0.2322572310E-04
 
RMS change in Kohn-Sham potential (target) :   0.1311651913E-03 (   10.00000000    )
Absolute change in total energy (target)   :   0.1415992301E-07 (  0.1000000000E-07)
 
Time (CPU seconds) :      3602.47
 
+--------------------+
| Loop number :   44 |
+--------------------+
 
Energies :
 Fermi                       :     0.273836585869    
 sum of eigenvalues          :     -4007.01202622    
 electron kinetic            :      6996.87843458    
 core electron kinetic       :      6881.96053360    
 Coulomb                     :     -13548.7099914    
 Coulomb potential           :     -10709.4454806    
 nuclear-nuclear             :     -619.422498305    
 electron-nuclear            :     -15149.1295056    
 Hartree                     :      2219.84201250    
 Madelung                    :     -8193.98725110    
 xc potential                :     -294.444980224    
 exchange                    :     -217.888128626    
 correlation                 :     -3.94804554831    
 total energy                :     -6773.66773098    
 
Density of states at Fermi energy :    136.4974887    
 (states/Hartree/unit cell)
 
Estimated indirect band gap :   0.1067056523E-04
 from k-point    217 to k-point     85
Estimated direct band gap   :   0.3637207981E-02
 at k-point    226
 
Charges :
 core                        :    56.00000000    
 valence                     :    22.00000000    
 interstitial                :    4.503161621    
 muffin-tins (core leakage)
  species :    1 (Y)
   atom    1                 :    36.74841919     (  0.9145723045E-05)
   atom    2                 :    36.74841919     (  0.9145723045E-05)
 total in muffin-tins        :    73.49683838    
 total calculated charge     :    77.99997677    
 total charge                :    78.00000000    
 error                       :   0.2322532407E-04
 
Wrote STATE.OUT
 
RMS change in Kohn-Sham potential (target) :   0.2923510668E-03 (   10.00000000    )
Absolute change in total energy (target)   :   0.6457412383E-08 (  0.1000000000E-07)
 
Convergence targets achieved
 
Time (CPU seconds) :      3684.28
 
+--------------------+
| Loop number :   45 |
+--------------------+
 
Energies :
 Fermi                       :     0.273836586187    
 sum of eigenvalues          :     -4007.01202618    
 electron kinetic            :      6996.87843458    
 core electron kinetic       :      6881.96053359    
 Coulomb                     :     -13548.7099914    
 Coulomb potential           :     -10709.4454805    
 nuclear-nuclear             :     -619.422498305    
 electron-nuclear            :     -15149.1295056    
 Hartree                     :      2219.84201252    
 Madelung                    :     -8193.98725110    
 xc potential                :     -294.444980224    
 exchange                    :     -217.888128624    
 correlation                 :     -3.94804554892    
 total energy                :     -6773.66773096    
 
Density of states at Fermi energy :    136.4974891    
 (states/Hartree/unit cell)
 
Estimated indirect band gap :   0.1067055099E-04
 from k-point    217 to k-point     85
Estimated direct band gap   :   0.3637207964E-02
 at k-point    226
 
Charges :
 core                        :    56.00000000    
 valence                     :    22.00000000    
 interstitial                :    4.503161622    
 muffin-tins (core leakage)
  species :    1 (Y)
   atom    1                 :    36.74841919     (  0.9145643787E-05)
   atom    2                 :    36.74841919     (  0.9145643787E-05)
 total in muffin-tins        :    73.49683838    
 total calculated charge     :    77.99997677    
 total charge                :    78.00000000    
 error                       :   0.2322512944E-04
 
+------------------------------+
| Self-consistent loop stopped |
+------------------------------+
 
Wrote STATE.OUT
 
Timings (CPU seconds) :
 initialisation                        :         1.32
 Hamiltonian and overlap matrix set up :      1462.38
 first-variational eigenvalue equation :      1703.58
 charge density calculation            :       218.53
 potential calculation                 :       384.99
 total                                 :      3770.79
 
+----------------------------+
| Elk version 8.3.15 stopped |
+----------------------------+
