 
Species :    1 (Y), atom :    1
 APW functions :
  l =  0, energy derivative =  0 :   0.1738365859    
  l =  1, energy derivative =  0 :   0.1738365859    
  l =  2, energy derivative =  0 :   0.1738365859    
  l =  3, energy derivative =  0 :   0.1738365859    
  l =  4, energy derivative =  0 :   0.1738365859    
  l =  5, energy derivative =  0 :   0.1738365859    
  l =  6, energy derivative =  0 :   0.1738365859    
  l =  7, energy derivative =  0 :   0.1738365859    
  l =  8, energy derivative =  0 :   0.1738365859    
  l =  9, energy derivative =  0 :   0.1738365859    
  l = 10, energy derivative =  0 :   0.1738365859    
 local-orbital functions :
  l.o. =  1, l =  0, energy derivative =  0 :   0.1738365859    
  l.o. =  1, l =  0, energy derivative =  1 :   0.1738365859    
  l.o. =  2, l =  1, energy derivative =  0 :   0.1738365859    
  l.o. =  2, l =  1, energy derivative =  1 :   0.1738365859    
  l.o. =  3, l =  2, energy derivative =  0 :   0.1738365859    
  l.o. =  3, l =  2, energy derivative =  1 :   0.1738365859    
  l.o. =  4, l =  0, energy derivative =  0 :   0.1738365859    
  l.o. =  4, l =  0, energy derivative =  0 :   -1.301691773    
  l.o. =  5, l =  1, energy derivative =  0 :   0.1738365859    
  l.o. =  5, l =  1, energy derivative =  0 :  -0.5480993825    
  l.o. =  6, l =  3, energy derivative =  0 :   0.1738365859    
  l.o. =  6, l =  3, energy derivative =  1 :   0.1738365859    
  l.o. =  7, l =  4, energy derivative =  0 :   0.1738365859    
  l.o. =  7, l =  4, energy derivative =  1 :   0.1738365859    
  l.o. =  8, l =  5, energy derivative =  0 :   0.1738365859    
  l.o. =  8, l =  5, energy derivative =  1 :   0.1738365859    
  l.o. =  9, l =  0, energy derivative =  0 :    1.473340118    
  l.o. =  9, l =  0, energy derivative =  1 :    1.473340118    
  l.o. =  9, l =  0, energy derivative =  2 :    1.473340118    
  l.o. = 10, l =  1, energy derivative =  0 :    2.035738519    
  l.o. = 10, l =  1, energy derivative =  1 :    2.035738519    
  l.o. = 10, l =  1, energy derivative =  2 :    2.035738519    
  l.o. = 11, l =  2, energy derivative =  0 :   0.5670252557    
  l.o. = 11, l =  2, energy derivative =  1 :   0.5670252557    
  l.o. = 11, l =  2, energy derivative =  2 :   0.5670252557    
  l.o. = 12, l =  3, energy derivative =  0 :    1.654897558    
  l.o. = 12, l =  3, energy derivative =  1 :    1.654897558    
  l.o. = 12, l =  3, energy derivative =  2 :    1.654897558    
  l.o. = 13, l =  4, energy derivative =  0 :    3.074180450    
  l.o. = 13, l =  4, energy derivative =  1 :    3.074180450    
  l.o. = 13, l =  4, energy derivative =  2 :    3.074180450    
  l.o. = 14, l =  5, energy derivative =  0 :    4.496748689    
  l.o. = 14, l =  5, energy derivative =  1 :    4.496748689    
  l.o. = 14, l =  5, energy derivative =  2 :    4.496748689    
  l.o. = 15, l =  6, energy derivative =  0 :    6.037143875    
  l.o. = 15, l =  6, energy derivative =  1 :    6.037143875    
  l.o. = 15, l =  6, energy derivative =  2 :    6.037143875    
  l.o. = 16, l =  7, energy derivative =  0 :    7.720385171    
  l.o. = 16, l =  7, energy derivative =  1 :    7.720385171    
  l.o. = 16, l =  7, energy derivative =  2 :    7.720385171    
  l.o. = 17, l =  8, energy derivative =  0 :    9.555546662    
  l.o. = 17, l =  8, energy derivative =  1 :    9.555546662    
  l.o. = 17, l =  8, energy derivative =  2 :    9.555546662    
 
Species :    1 (Y), atom :    2
 APW functions :
  l =  0, energy derivative =  0 :   0.1738365859    
  l =  1, energy derivative =  0 :   0.1738365859    
  l =  2, energy derivative =  0 :   0.1738365859    
  l =  3, energy derivative =  0 :   0.1738365859    
  l =  4, energy derivative =  0 :   0.1738365859    
  l =  5, energy derivative =  0 :   0.1738365859    
  l =  6, energy derivative =  0 :   0.1738365859    
  l =  7, energy derivative =  0 :   0.1738365859    
  l =  8, energy derivative =  0 :   0.1738365859    
  l =  9, energy derivative =  0 :   0.1738365859    
  l = 10, energy derivative =  0 :   0.1738365859    
 local-orbital functions :
  l.o. =  1, l =  0, energy derivative =  0 :   0.1738365859    
  l.o. =  1, l =  0, energy derivative =  1 :   0.1738365859    
  l.o. =  2, l =  1, energy derivative =  0 :   0.1738365859    
  l.o. =  2, l =  1, energy derivative =  1 :   0.1738365859    
  l.o. =  3, l =  2, energy derivative =  0 :   0.1738365859    
  l.o. =  3, l =  2, energy derivative =  1 :   0.1738365859    
  l.o. =  4, l =  0, energy derivative =  0 :   0.1738365859    
  l.o. =  4, l =  0, energy derivative =  0 :   -1.301691773    
  l.o. =  5, l =  1, energy derivative =  0 :   0.1738365859    
  l.o. =  5, l =  1, energy derivative =  0 :  -0.5480993825    
  l.o. =  6, l =  3, energy derivative =  0 :   0.1738365859    
  l.o. =  6, l =  3, energy derivative =  1 :   0.1738365859    
  l.o. =  7, l =  4, energy derivative =  0 :   0.1738365859    
  l.o. =  7, l =  4, energy derivative =  1 :   0.1738365859    
  l.o. =  8, l =  5, energy derivative =  0 :   0.1738365859    
  l.o. =  8, l =  5, energy derivative =  1 :   0.1738365859    
  l.o. =  9, l =  0, energy derivative =  0 :    1.473340118    
  l.o. =  9, l =  0, energy derivative =  1 :    1.473340118    
  l.o. =  9, l =  0, energy derivative =  2 :    1.473340118    
  l.o. = 10, l =  1, energy derivative =  0 :    2.035738519    
  l.o. = 10, l =  1, energy derivative =  1 :    2.035738519    
  l.o. = 10, l =  1, energy derivative =  2 :    2.035738519    
  l.o. = 11, l =  2, energy derivative =  0 :   0.5670252557    
  l.o. = 11, l =  2, energy derivative =  1 :   0.5670252557    
  l.o. = 11, l =  2, energy derivative =  2 :   0.5670252557    
  l.o. = 12, l =  3, energy derivative =  0 :    1.654897558    
  l.o. = 12, l =  3, energy derivative =  1 :    1.654897558    
  l.o. = 12, l =  3, energy derivative =  2 :    1.654897558    
  l.o. = 13, l =  4, energy derivative =  0 :    3.074180450    
  l.o. = 13, l =  4, energy derivative =  1 :    3.074180450    
  l.o. = 13, l =  4, energy derivative =  2 :    3.074180450    
  l.o. = 14, l =  5, energy derivative =  0 :    4.496748689    
  l.o. = 14, l =  5, energy derivative =  1 :    4.496748689    
  l.o. = 14, l =  5, energy derivative =  2 :    4.496748689    
  l.o. = 15, l =  6, energy derivative =  0 :    6.037143875    
  l.o. = 15, l =  6, energy derivative =  1 :    6.037143875    
  l.o. = 15, l =  6, energy derivative =  2 :    6.037143875    
  l.o. = 16, l =  7, energy derivative =  0 :    7.720385171    
  l.o. = 16, l =  7, energy derivative =  1 :    7.720385171    
  l.o. = 16, l =  7, energy derivative =  2 :    7.720385171    
  l.o. = 17, l =  8, energy derivative =  0 :    9.555546662    
  l.o. = 17, l =  8, energy derivative =  1 :    9.555546662    
  l.o. = 17, l =  8, energy derivative =  2 :    9.555546662    
