 
Species :    1 (K), atom :    1
 APW functions :
  l =  0, energy derivative =  0 :  -0.6566077299E-01
  l =  1, energy derivative =  0 :  -0.6566077299E-01
  l =  2, energy derivative =  0 :  -0.6566077299E-01
  l =  3, energy derivative =  0 :  -0.6566077299E-01
  l =  4, energy derivative =  0 :  -0.6566077299E-01
  l =  5, energy derivative =  0 :  -0.6566077299E-01
  l =  6, energy derivative =  0 :  -0.6566077299E-01
  l =  7, energy derivative =  0 :  -0.6566077299E-01
  l =  8, energy derivative =  0 :  -0.6566077299E-01
  l =  9, energy derivative =  0 :  -0.6566077299E-01
  l = 10, energy derivative =  0 :  -0.6566077299E-01
 local-orbital functions :
  l.o. =  1, l =  0, energy derivative =  0 :  -0.6566077299E-01
  l.o. =  1, l =  0, energy derivative =  1 :  -0.6566077299E-01
  l.o. =  2, l =  1, energy derivative =  0 :  -0.6566077299E-01
  l.o. =  2, l =  1, energy derivative =  1 :  -0.6566077299E-01
  l.o. =  3, l =  0, energy derivative =  0 :  -0.6566077299E-01
  l.o. =  3, l =  0, energy derivative =  0 :   -1.141265859    
  l.o. =  4, l =  1, energy derivative =  0 :  -0.6566077299E-01
  l.o. =  4, l =  1, energy derivative =  0 :  -0.5045388351    
  l.o. =  5, l =  2, energy derivative =  0 :  -0.6566077299E-01
  l.o. =  5, l =  2, energy derivative =  1 :  -0.6566077299E-01
  l.o. =  6, l =  3, energy derivative =  0 :  -0.6566077299E-01
  l.o. =  6, l =  3, energy derivative =  1 :  -0.6566077299E-01
  l.o. =  7, l =  4, energy derivative =  0 :  -0.6566077299E-01
  l.o. =  7, l =  4, energy derivative =  1 :  -0.6566077299E-01
  l.o. =  8, l =  0, energy derivative =  0 :    1.756216703    
  l.o. =  8, l =  0, energy derivative =  1 :    1.756216703    
  l.o. =  8, l =  0, energy derivative =  2 :    1.756216703    
  l.o. =  9, l =  1, energy derivative =  0 :    2.200705756    
  l.o. =  9, l =  1, energy derivative =  1 :    2.200705756    
  l.o. =  9, l =  1, energy derivative =  2 :    2.200705756    
  l.o. = 10, l =  2, energy derivative =  0 :   0.4559211170    
  l.o. = 10, l =  2, energy derivative =  1 :   0.4559211170    
  l.o. = 10, l =  2, energy derivative =  2 :   0.4559211170    
  l.o. = 11, l =  3, energy derivative =  0 :    2.123546695    
  l.o. = 11, l =  3, energy derivative =  1 :    2.123546695    
  l.o. = 11, l =  3, energy derivative =  2 :    2.123546695    
  l.o. = 12, l =  4, energy derivative =  0 :    3.615395080    
  l.o. = 12, l =  4, energy derivative =  1 :    3.615395080    
  l.o. = 12, l =  4, energy derivative =  2 :    3.615395080    
  l.o. = 13, l =  5, energy derivative =  0 :    5.227677159    
  l.o. = 13, l =  5, energy derivative =  1 :    5.227677159    
  l.o. = 13, l =  5, energy derivative =  2 :    5.227677159    
  l.o. = 14, l =  6, energy derivative =  0 :    7.005357753    
  l.o. = 14, l =  6, energy derivative =  1 :    7.005357753    
  l.o. = 14, l =  6, energy derivative =  2 :    7.005357753    
  l.o. = 15, l =  7, energy derivative =  0 :    8.962273488    
  l.o. = 15, l =  7, energy derivative =  1 :    8.962273488    
  l.o. = 15, l =  7, energy derivative =  2 :    8.962273488    
  l.o. = 16, l =  8, energy derivative =  0 :    11.10378027    
  l.o. = 16, l =  8, energy derivative =  1 :    11.10378027    
  l.o. = 16, l =  8, energy derivative =  2 :    11.10378027    
