   297 : nkpt; k-point, vkl, wkpt, nmat below
     1   0.000000000       0.000000000       0.000000000      0.2035416243E-03     515
     2  0.5882352941E-01   0.000000000       0.000000000      0.1221249746E-02     523
     3  0.1176470588       0.000000000       0.000000000      0.1221249746E-02     527
     4  0.1764705882       0.000000000       0.000000000      0.1221249746E-02     528
     5  0.2352941176       0.000000000       0.000000000      0.1221249746E-02     524
     6  0.2941176471       0.000000000       0.000000000      0.1221249746E-02     518
     7  0.3529411765       0.000000000       0.000000000      0.1221249746E-02     512
     8  0.4117647059       0.000000000       0.000000000      0.1221249746E-02     512
     9  0.4705882353       0.000000000       0.000000000      0.1221249746E-02     512
    10  0.5882352941E-01  0.5882352941E-01   0.000000000      0.1221249746E-02     531
    11  0.1176470588      0.5882352941E-01   0.000000000      0.2442499491E-02     526
    12  0.1764705882      0.5882352941E-01   0.000000000      0.2442499491E-02     521
    13  0.2352941176      0.5882352941E-01   0.000000000      0.2442499491E-02     519
    14  0.2941176471      0.5882352941E-01   0.000000000      0.2442499491E-02     513
    15  0.3529411765      0.5882352941E-01   0.000000000      0.2442499491E-02     511
    16  0.4117647059      0.5882352941E-01   0.000000000      0.2442499491E-02     510
    17  0.4705882353      0.5882352941E-01   0.000000000      0.1221249746E-02     508
    18  0.1176470588      0.1176470588       0.000000000      0.1221249746E-02     521
    19  0.1764705882      0.1176470588       0.000000000      0.2442499491E-02     521
    20  0.2352941176      0.1176470588       0.000000000      0.2442499491E-02     517
    21  0.2941176471      0.1176470588       0.000000000      0.2442499491E-02     510
    22  0.3529411765      0.1176470588       0.000000000      0.2442499491E-02     512
    23  0.4117647059      0.1176470588       0.000000000      0.2442499491E-02     509
    24  0.1764705882      0.1764705882       0.000000000      0.1221249746E-02     517
    25  0.2352941176      0.1764705882       0.000000000      0.2442499491E-02     514
    26  0.2941176471      0.1764705882       0.000000000      0.2442499491E-02     516
    27  0.3529411765      0.1764705882       0.000000000      0.2442499491E-02     513
    28  0.4117647059      0.1764705882       0.000000000      0.1221249746E-02     510
    29  0.2352941176      0.2352941176       0.000000000      0.1221249746E-02     516
    30  0.2941176471      0.2352941176       0.000000000      0.2442499491E-02     512
    31  0.3529411765      0.2352941176       0.000000000      0.2442499491E-02     513
    32  0.2941176471      0.2941176471       0.000000000      0.1221249746E-02     516
    33  0.3529411765      0.2941176471       0.000000000      0.1221249746E-02     522
    34   0.000000000       0.000000000      0.5882352941E-01  0.4070832485E-03     527
    35  0.5882352941E-01   0.000000000      0.5882352941E-01  0.2442499491E-02     526
    36  0.1176470588       0.000000000      0.5882352941E-01  0.2442499491E-02     525
    37  0.1764705882       0.000000000      0.5882352941E-01  0.2442499491E-02     523
    38  0.2352941176       0.000000000      0.5882352941E-01  0.2442499491E-02     521
    39  0.2941176471       0.000000000      0.5882352941E-01  0.2442499491E-02     517
    40  0.3529411765       0.000000000      0.5882352941E-01  0.2442499491E-02     512
    41  0.4117647059       0.000000000      0.5882352941E-01  0.2442499491E-02     510
    42  0.4705882353       0.000000000      0.5882352941E-01  0.2442499491E-02     512
    43  0.5882352941E-01  0.5882352941E-01  0.5882352941E-01  0.2442499491E-02     527
    44  0.1176470588      0.5882352941E-01  0.5882352941E-01  0.4884998982E-02     523
    45  0.1764705882      0.5882352941E-01  0.5882352941E-01  0.4884998982E-02     521
    46  0.2352941176      0.5882352941E-01  0.5882352941E-01  0.4884998982E-02     518
    47  0.2941176471      0.5882352941E-01  0.5882352941E-01  0.4884998982E-02     513
    48  0.3529411765      0.5882352941E-01  0.5882352941E-01  0.4884998982E-02     510
    49  0.4117647059      0.5882352941E-01  0.5882352941E-01  0.4884998982E-02     511
    50  0.4705882353      0.5882352941E-01  0.5882352941E-01  0.2442499491E-02     511
    51  0.1176470588      0.1176470588      0.5882352941E-01  0.2442499491E-02     523
    52  0.1764705882      0.1176470588      0.5882352941E-01  0.4884998982E-02     520
    53  0.2352941176      0.1176470588      0.5882352941E-01  0.4884998982E-02     515
    54  0.2941176471      0.1176470588      0.5882352941E-01  0.4884998982E-02     513
    55  0.3529411765      0.1176470588      0.5882352941E-01  0.4884998982E-02     514
    56  0.4117647059      0.1176470588      0.5882352941E-01  0.4884998982E-02     509
    57  0.1764705882      0.1764705882      0.5882352941E-01  0.2442499491E-02     515
    58  0.2352941176      0.1764705882      0.5882352941E-01  0.4884998982E-02     516
    59  0.2941176471      0.1764705882      0.5882352941E-01  0.4884998982E-02     515
    60  0.3529411765      0.1764705882      0.5882352941E-01  0.4884998982E-02     511
    61  0.4117647059      0.1764705882      0.5882352941E-01  0.2442499491E-02     508
    62  0.2352941176      0.2352941176      0.5882352941E-01  0.2442499491E-02     518
    63  0.2941176471      0.2352941176      0.5882352941E-01  0.4884998982E-02     513
    64  0.3529411765      0.2352941176      0.5882352941E-01  0.4884998982E-02     512
    65  0.2941176471      0.2941176471      0.5882352941E-01  0.2442499491E-02     514
    66  0.3529411765      0.2941176471      0.5882352941E-01  0.2442499491E-02     522
    67   0.000000000       0.000000000      0.1176470588      0.4070832485E-03     527
    68  0.5882352941E-01   0.000000000      0.1176470588      0.2442499491E-02     524
    69  0.1176470588       0.000000000      0.1176470588      0.2442499491E-02     528
    70  0.1764705882       0.000000000      0.1176470588      0.2442499491E-02     520
    71  0.2352941176       0.000000000      0.1176470588      0.2442499491E-02     519
    72  0.2941176471       0.000000000      0.1176470588      0.2442499491E-02     513
    73  0.3529411765       0.000000000      0.1176470588      0.2442499491E-02     512
    74  0.4117647059       0.000000000      0.1176470588      0.2442499491E-02     509
    75  0.4705882353       0.000000000      0.1176470588      0.2442499491E-02     512
    76  0.5882352941E-01  0.5882352941E-01  0.1176470588      0.2442499491E-02     523
    77  0.1176470588      0.5882352941E-01  0.1176470588      0.4884998982E-02     523
    78  0.1764705882      0.5882352941E-01  0.1176470588      0.4884998982E-02     522
    79  0.2352941176      0.5882352941E-01  0.1176470588      0.4884998982E-02     518
    80  0.2941176471      0.5882352941E-01  0.1176470588      0.4884998982E-02     516
    81  0.3529411765      0.5882352941E-01  0.1176470588      0.4884998982E-02     510
    82  0.4117647059      0.5882352941E-01  0.1176470588      0.4884998982E-02     513
    83  0.4705882353      0.5882352941E-01  0.1176470588      0.2442499491E-02     513
    84  0.1176470588      0.1176470588      0.1176470588      0.2442499491E-02     521
    85  0.1764705882      0.1176470588      0.1176470588      0.4884998982E-02     519
    86  0.2352941176      0.1176470588      0.1176470588      0.4884998982E-02     516
    87  0.2941176471      0.1176470588      0.1176470588      0.4884998982E-02     512
    88  0.3529411765      0.1176470588      0.1176470588      0.4884998982E-02     512
    89  0.4117647059      0.1176470588      0.1176470588      0.4884998982E-02     511
    90  0.1764705882      0.1764705882      0.1176470588      0.2442499491E-02     518
    91  0.2352941176      0.1764705882      0.1176470588      0.4884998982E-02     515
    92  0.2941176471      0.1764705882      0.1176470588      0.4884998982E-02     514
    93  0.3529411765      0.1764705882      0.1176470588      0.4884998982E-02     512
    94  0.4117647059      0.1764705882      0.1176470588      0.2442499491E-02     508
    95  0.2352941176      0.2352941176      0.1176470588      0.2442499491E-02     518
    96  0.2941176471      0.2352941176      0.1176470588      0.4884998982E-02     517
    97  0.3529411765      0.2352941176      0.1176470588      0.4884998982E-02     510
    98  0.2941176471      0.2941176471      0.1176470588      0.2442499491E-02     513
    99  0.3529411765      0.2941176471      0.1176470588      0.2442499491E-02     512
   100   0.000000000       0.000000000      0.1764705882      0.4070832485E-03     527
   101  0.5882352941E-01   0.000000000      0.1764705882      0.2442499491E-02     524
   102  0.1176470588       0.000000000      0.1764705882      0.2442499491E-02     523
   103  0.1764705882       0.000000000      0.1764705882      0.2442499491E-02     520
   104  0.2352941176       0.000000000      0.1764705882      0.2442499491E-02     516
   105  0.2941176471       0.000000000      0.1764705882      0.2442499491E-02     515
   106  0.3529411765       0.000000000      0.1764705882      0.2442499491E-02     510
   107  0.4117647059       0.000000000      0.1764705882      0.2442499491E-02     510
   108  0.4705882353       0.000000000      0.1764705882      0.2442499491E-02     513
   109  0.5882352941E-01  0.5882352941E-01  0.1764705882      0.2442499491E-02     521
   110  0.1176470588      0.5882352941E-01  0.1764705882      0.4884998982E-02     520
   111  0.1764705882      0.5882352941E-01  0.1764705882      0.4884998982E-02     520
   112  0.2352941176      0.5882352941E-01  0.1764705882      0.4884998982E-02     518
   113  0.2941176471      0.5882352941E-01  0.1764705882      0.4884998982E-02     516
   114  0.3529411765      0.5882352941E-01  0.1764705882      0.4884998982E-02     512
   115  0.4117647059      0.5882352941E-01  0.1764705882      0.4884998982E-02     515
   116  0.4705882353      0.5882352941E-01  0.1764705882      0.2442499491E-02     519
   117  0.1176470588      0.1176470588      0.1764705882      0.2442499491E-02     519
   118  0.1764705882      0.1176470588      0.1764705882      0.4884998982E-02     517
   119  0.2352941176      0.1176470588      0.1764705882      0.4884998982E-02     515
   120  0.2941176471      0.1176470588      0.1764705882      0.4884998982E-02     515
   121  0.3529411765      0.1176470588      0.1764705882      0.4884998982E-02     512
   122  0.4117647059      0.1176470588      0.1764705882      0.4884998982E-02     514
   123  0.1764705882      0.1764705882      0.1764705882      0.2442499491E-02     518
   124  0.2352941176      0.1764705882      0.1764705882      0.4884998982E-02     514
   125  0.2941176471      0.1764705882      0.1764705882      0.4884998982E-02     514
   126  0.3529411765      0.1764705882      0.1764705882      0.4884998982E-02     513
   127  0.4117647059      0.1764705882      0.1764705882      0.2442499491E-02     512
   128  0.2352941176      0.2352941176      0.1764705882      0.2442499491E-02     518
   129  0.2941176471      0.2352941176      0.1764705882      0.4884998982E-02     514
   130  0.3529411765      0.2352941176      0.1764705882      0.4884998982E-02     513
   131  0.2941176471      0.2941176471      0.1764705882      0.2442499491E-02     511
   132  0.3529411765      0.2941176471      0.1764705882      0.2442499491E-02     511
   133   0.000000000       0.000000000      0.2352941176      0.4070832485E-03     521
   134  0.5882352941E-01   0.000000000      0.2352941176      0.2442499491E-02     522
   135  0.1176470588       0.000000000      0.2352941176      0.2442499491E-02     520
   136  0.1764705882       0.000000000      0.2352941176      0.2442499491E-02     520
   137  0.2352941176       0.000000000      0.2352941176      0.2442499491E-02     520
   138  0.2941176471       0.000000000      0.2352941176      0.2442499491E-02     516
   139  0.3529411765       0.000000000      0.2352941176      0.2442499491E-02     510
   140  0.4117647059       0.000000000      0.2352941176      0.2442499491E-02     514
   141  0.4705882353       0.000000000      0.2352941176      0.2442499491E-02     514
   142  0.5882352941E-01  0.5882352941E-01  0.2352941176      0.2442499491E-02     519
   143  0.1176470588      0.5882352941E-01  0.2352941176      0.4884998982E-02     517
   144  0.1764705882      0.5882352941E-01  0.2352941176      0.4884998982E-02     518
   145  0.2352941176      0.5882352941E-01  0.2352941176      0.4884998982E-02     517
   146  0.2941176471      0.5882352941E-01  0.2352941176      0.4884998982E-02     515
   147  0.3529411765      0.5882352941E-01  0.2352941176      0.4884998982E-02     513
   148  0.4117647059      0.5882352941E-01  0.2352941176      0.4884998982E-02     515
   149  0.4705882353      0.5882352941E-01  0.2352941176      0.2442499491E-02     516
   150  0.1176470588      0.1176470588      0.2352941176      0.2442499491E-02     516
   151  0.1764705882      0.1176470588      0.2352941176      0.4884998982E-02     516
   152  0.2352941176      0.1176470588      0.2352941176      0.4884998982E-02     516
   153  0.2941176471      0.1176470588      0.2352941176      0.4884998982E-02     516
   154  0.3529411765      0.1176470588      0.2352941176      0.4884998982E-02     512
   155  0.4117647059      0.1176470588      0.2352941176      0.4884998982E-02     515
   156  0.1764705882      0.1764705882      0.2352941176      0.2442499491E-02     513
   157  0.2352941176      0.1764705882      0.2352941176      0.4884998982E-02     516
   158  0.2941176471      0.1764705882      0.2352941176      0.4884998982E-02     516
   159  0.3529411765      0.1764705882      0.2352941176      0.4884998982E-02     512
   160  0.4117647059      0.1764705882      0.2352941176      0.2442499491E-02     513
   161  0.2352941176      0.2352941176      0.2352941176      0.2442499491E-02     516
   162  0.2941176471      0.2352941176      0.2352941176      0.4884998982E-02     512
   163  0.3529411765      0.2352941176      0.2352941176      0.4884998982E-02     513
   164  0.2941176471      0.2941176471      0.2352941176      0.2442499491E-02     511
   165  0.3529411765      0.2941176471      0.2352941176      0.2442499491E-02     513
   166   0.000000000       0.000000000      0.2941176471      0.4070832485E-03     515
   167  0.5882352941E-01   0.000000000      0.2941176471      0.2442499491E-02     518
   168  0.1176470588       0.000000000      0.2941176471      0.2442499491E-02     516
   169  0.1764705882       0.000000000      0.2941176471      0.2442499491E-02     520
   170  0.2352941176       0.000000000      0.2941176471      0.2442499491E-02     516
   171  0.2941176471       0.000000000      0.2941176471      0.2442499491E-02     511
   172  0.3529411765       0.000000000      0.2941176471      0.2442499491E-02     514
   173  0.4117647059       0.000000000      0.2941176471      0.2442499491E-02     515
   174  0.4705882353       0.000000000      0.2941176471      0.2442499491E-02     513
   175  0.5882352941E-01  0.5882352941E-01  0.2941176471      0.2442499491E-02     515
   176  0.1176470588      0.5882352941E-01  0.2941176471      0.4884998982E-02     516
   177  0.1764705882      0.5882352941E-01  0.2941176471      0.4884998982E-02     517
   178  0.2352941176      0.5882352941E-01  0.2941176471      0.4884998982E-02     515
   179  0.2941176471      0.5882352941E-01  0.2941176471      0.4884998982E-02     512
   180  0.3529411765      0.5882352941E-01  0.2941176471      0.4884998982E-02     514
   181  0.4117647059      0.5882352941E-01  0.2941176471      0.4884998982E-02     515
   182  0.4705882353      0.5882352941E-01  0.2941176471      0.2442499491E-02     517
   183  0.1176470588      0.1176470588      0.2941176471      0.2442499491E-02     516
   184  0.1764705882      0.1176470588      0.2941176471      0.4884998982E-02     516
   185  0.2352941176      0.1176470588      0.2941176471      0.4884998982E-02     516
   186  0.2941176471      0.1176470588      0.2941176471      0.4884998982E-02     517
   187  0.3529411765      0.1176470588      0.2941176471      0.4884998982E-02     515
   188  0.4117647059      0.1176470588      0.2941176471      0.4884998982E-02     513
   189  0.1764705882      0.1764705882      0.2941176471      0.2442499491E-02     515
   190  0.2352941176      0.1764705882      0.2941176471      0.4884998982E-02     516
   191  0.2941176471      0.1764705882      0.2941176471      0.4884998982E-02     512
   192  0.3529411765      0.1764705882      0.2941176471      0.4884998982E-02     512
   193  0.4117647059      0.1764705882      0.2941176471      0.2442499491E-02     513
   194  0.2352941176      0.2352941176      0.2941176471      0.2442499491E-02     513
   195  0.2941176471      0.2352941176      0.2941176471      0.4884998982E-02     513
   196  0.3529411765      0.2352941176      0.2941176471      0.4884998982E-02     515
   197  0.2941176471      0.2941176471      0.2941176471      0.2442499491E-02     511
   198  0.3529411765      0.2941176471      0.2941176471      0.2442499491E-02     513
   199   0.000000000       0.000000000      0.3529411765      0.4070832485E-03     521
   200  0.5882352941E-01   0.000000000      0.3529411765      0.2442499491E-02     517
   201  0.1176470588       0.000000000      0.3529411765      0.2442499491E-02     516
   202  0.1764705882       0.000000000      0.3529411765      0.2442499491E-02     517
   203  0.2352941176       0.000000000      0.3529411765      0.2442499491E-02     513
   204  0.2941176471       0.000000000      0.3529411765      0.2442499491E-02     511
   205  0.3529411765       0.000000000      0.3529411765      0.2442499491E-02     515
   206  0.4117647059       0.000000000      0.3529411765      0.2442499491E-02     519
   207  0.4705882353       0.000000000      0.3529411765      0.2442499491E-02     513
   208  0.5882352941E-01  0.5882352941E-01  0.3529411765      0.2442499491E-02     518
   209  0.1176470588      0.5882352941E-01  0.3529411765      0.4884998982E-02     516
   210  0.1764705882      0.5882352941E-01  0.3529411765      0.4884998982E-02     513
   211  0.2352941176      0.5882352941E-01  0.3529411765      0.4884998982E-02     512
   212  0.2941176471      0.5882352941E-01  0.3529411765      0.4884998982E-02     514
   213  0.3529411765      0.5882352941E-01  0.3529411765      0.4884998982E-02     515
   214  0.4117647059      0.5882352941E-01  0.3529411765      0.4884998982E-02     513
   215  0.4705882353      0.5882352941E-01  0.3529411765      0.2442499491E-02     516
   216  0.1176470588      0.1176470588      0.3529411765      0.2442499491E-02     513
   217  0.1764705882      0.1176470588      0.3529411765      0.4884998982E-02     514
   218  0.2352941176      0.1176470588      0.3529411765      0.4884998982E-02     513
   219  0.2941176471      0.1176470588      0.3529411765      0.4884998982E-02     517
   220  0.3529411765      0.1176470588      0.3529411765      0.4884998982E-02     511
   221  0.4117647059      0.1176470588      0.3529411765      0.4884998982E-02     512
   222  0.1764705882      0.1764705882      0.3529411765      0.2442499491E-02     515
   223  0.2352941176      0.1764705882      0.3529411765      0.4884998982E-02     516
   224  0.2941176471      0.1764705882      0.3529411765      0.4884998982E-02     515
   225  0.3529411765      0.1764705882      0.3529411765      0.4884998982E-02     514
   226  0.4117647059      0.1764705882      0.3529411765      0.2442499491E-02     511
   227  0.2352941176      0.2352941176      0.3529411765      0.2442499491E-02     515
   228  0.2941176471      0.2352941176      0.3529411765      0.4884998982E-02     513
   229  0.3529411765      0.2352941176      0.3529411765      0.4884998982E-02     513
   230  0.2941176471      0.2941176471      0.3529411765      0.2442499491E-02     513
   231  0.3529411765      0.2941176471      0.3529411765      0.2442499491E-02     511
   232   0.000000000       0.000000000      0.4117647059      0.4070832485E-03     521
   233  0.5882352941E-01   0.000000000      0.4117647059      0.2442499491E-02     519
   234  0.1176470588       0.000000000      0.4117647059      0.2442499491E-02     517
   235  0.1764705882       0.000000000      0.4117647059      0.2442499491E-02     511
   236  0.2352941176       0.000000000      0.4117647059      0.2442499491E-02     510
   237  0.2941176471       0.000000000      0.4117647059      0.2442499491E-02     513
   238  0.3529411765       0.000000000      0.4117647059      0.2442499491E-02     513
   239  0.4117647059       0.000000000      0.4117647059      0.2442499491E-02     518
   240  0.4705882353       0.000000000      0.4117647059      0.2442499491E-02     514
   241  0.5882352941E-01  0.5882352941E-01  0.4117647059      0.2442499491E-02     520
   242  0.1176470588      0.5882352941E-01  0.4117647059      0.4884998982E-02     515
   243  0.1764705882      0.5882352941E-01  0.4117647059      0.4884998982E-02     511
   244  0.2352941176      0.5882352941E-01  0.4117647059      0.4884998982E-02     513
   245  0.2941176471      0.5882352941E-01  0.4117647059      0.4884998982E-02     515
   246  0.3529411765      0.5882352941E-01  0.4117647059      0.4884998982E-02     514
   247  0.4117647059      0.5882352941E-01  0.4117647059      0.4884998982E-02     514
   248  0.4705882353      0.5882352941E-01  0.4117647059      0.2442499491E-02     512
   249  0.1176470588      0.1176470588      0.4117647059      0.2442499491E-02     515
   250  0.1764705882      0.1176470588      0.4117647059      0.4884998982E-02     513
   251  0.2352941176      0.1176470588      0.4117647059      0.4884998982E-02     516
   252  0.2941176471      0.1176470588      0.4117647059      0.4884998982E-02     517
   253  0.3529411765      0.1176470588      0.4117647059      0.4884998982E-02     511
   254  0.4117647059      0.1176470588      0.4117647059      0.4884998982E-02     515
   255  0.1764705882      0.1764705882      0.4117647059      0.2442499491E-02     515
   256  0.2352941176      0.1764705882      0.4117647059      0.4884998982E-02     518
   257  0.2941176471      0.1764705882      0.4117647059      0.4884998982E-02     514
   258  0.3529411765      0.1764705882      0.4117647059      0.4884998982E-02     515
   259  0.4117647059      0.1764705882      0.4117647059      0.2442499491E-02     511
   260  0.2352941176      0.2352941176      0.4117647059      0.2442499491E-02     513
   261  0.2941176471      0.2352941176      0.4117647059      0.4884998982E-02     513
   262  0.3529411765      0.2352941176      0.4117647059      0.4884998982E-02     508
   263  0.2941176471      0.2941176471      0.4117647059      0.2442499491E-02     511
   264  0.3529411765      0.2941176471      0.4117647059      0.2442499491E-02     506
   265   0.000000000       0.000000000      0.4705882353      0.4070832485E-03     527
   266  0.5882352941E-01   0.000000000      0.4705882353      0.2442499491E-02     521
   267  0.1176470588       0.000000000      0.4705882353      0.2442499491E-02     517
   268  0.1764705882       0.000000000      0.4705882353      0.2442499491E-02     512
   269  0.2352941176       0.000000000      0.4705882353      0.2442499491E-02     513
   270  0.2941176471       0.000000000      0.4705882353      0.2442499491E-02     513
   271  0.3529411765       0.000000000      0.4705882353      0.2442499491E-02     514
   272  0.4117647059       0.000000000      0.4705882353      0.2442499491E-02     511
   273  0.4705882353       0.000000000      0.4705882353      0.2442499491E-02     514
   274  0.5882352941E-01  0.5882352941E-01  0.4705882353      0.2442499491E-02     519
   275  0.1176470588      0.5882352941E-01  0.4705882353      0.4884998982E-02     513
   276  0.1764705882      0.5882352941E-01  0.4705882353      0.4884998982E-02     509
   277  0.2352941176      0.5882352941E-01  0.4705882353      0.4884998982E-02     512
   278  0.2941176471      0.5882352941E-01  0.4705882353      0.4884998982E-02     514
   279  0.3529411765      0.5882352941E-01  0.4705882353      0.4884998982E-02     516
   280  0.4117647059      0.5882352941E-01  0.4705882353      0.4884998982E-02     511
   281  0.4705882353      0.5882352941E-01  0.4705882353      0.2442499491E-02     512
   282  0.1176470588      0.1176470588      0.4705882353      0.2442499491E-02     511
   283  0.1764705882      0.1176470588      0.4705882353      0.4884998982E-02     514
   284  0.2352941176      0.1176470588      0.4705882353      0.4884998982E-02     514
   285  0.2941176471      0.1176470588      0.4705882353      0.4884998982E-02     516
   286  0.3529411765      0.1176470588      0.4705882353      0.4884998982E-02     511
   287  0.4117647059      0.1176470588      0.4705882353      0.4884998982E-02     514
   288  0.1764705882      0.1764705882      0.4705882353      0.2442499491E-02     516
   289  0.2352941176      0.1764705882      0.4705882353      0.4884998982E-02     516
   290  0.2941176471      0.1764705882      0.4705882353      0.4884998982E-02     512
   291  0.3529411765      0.1764705882      0.4705882353      0.4884998982E-02     511
   292  0.4117647059      0.1764705882      0.4705882353      0.2442499491E-02     510
   293  0.2352941176      0.2352941176      0.4705882353      0.2442499491E-02     514
   294  0.2941176471      0.2352941176      0.4705882353      0.4884998982E-02     514
   295  0.3529411765      0.2352941176      0.4705882353      0.4884998982E-02     508
   296  0.2941176471      0.2941176471      0.4705882353      0.2442499491E-02     508
   297  0.3529411765      0.2941176471      0.4705882353      0.2442499491E-02     506
