 
Species :    1 (Ti), atom :    1
 APW functions :
  l =  0, energy derivative =  0 :   0.2106922540    
  l =  1, energy derivative =  0 :   0.2106922540    
  l =  2, energy derivative =  0 :   0.2106922540    
  l =  3, energy derivative =  0 :   0.2106922540    
  l =  4, energy derivative =  0 :   0.2106922540    
  l =  5, energy derivative =  0 :   0.2106922540    
  l =  6, energy derivative =  0 :   0.2106922540    
  l =  7, energy derivative =  0 :   0.2106922540    
  l =  8, energy derivative =  0 :   0.2106922540    
  l =  9, energy derivative =  0 :   0.2106922540    
  l = 10, energy derivative =  0 :   0.2106922540    
 local-orbital functions :
  l.o. =  1, l =  0, energy derivative =  0 :   0.2106922540    
  l.o. =  1, l =  0, energy derivative =  1 :   0.2106922540    
  l.o. =  2, l =  1, energy derivative =  0 :   0.2106922540    
  l.o. =  2, l =  1, energy derivative =  1 :   0.2106922540    
  l.o. =  3, l =  2, energy derivative =  0 :   0.2106922540    
  l.o. =  3, l =  2, energy derivative =  1 :   0.2106922540    
  l.o. =  4, l =  0, energy derivative =  0 :   0.2106922540    
  l.o. =  4, l =  0, energy derivative =  0 :   -1.794377104    
  l.o. =  5, l =  1, energy derivative =  0 :   0.2106922540    
  l.o. =  5, l =  1, energy derivative =  0 :  -0.9126047600    
  l.o. =  6, l =  3, energy derivative =  0 :   0.2106922540    
  l.o. =  6, l =  3, energy derivative =  1 :   0.2106922540    
  l.o. =  7, l =  4, energy derivative =  0 :   0.2106922540    
  l.o. =  7, l =  4, energy derivative =  1 :   0.2106922540    
  l.o. =  8, l =  5, energy derivative =  0 :   0.2106922540    
  l.o. =  8, l =  5, energy derivative =  1 :   0.2106922540    
  l.o. =  9, l =  0, energy derivative =  0 :    1.375927209    
  l.o. =  9, l =  0, energy derivative =  1 :    1.375927209    
  l.o. =  9, l =  0, energy derivative =  2 :    1.375927209    
  l.o. = 10, l =  1, energy derivative =  0 :    1.825281730    
  l.o. = 10, l =  1, energy derivative =  1 :    1.825281730    
  l.o. = 10, l =  1, energy derivative =  2 :    1.825281730    
  l.o. = 11, l =  2, energy derivative =  0 :   0.4218201199    
  l.o. = 11, l =  2, energy derivative =  1 :   0.4218201199    
  l.o. = 11, l =  2, energy derivative =  2 :   0.4218201199    
  l.o. = 12, l =  3, energy derivative =  0 :    2.382328349    
  l.o. = 12, l =  3, energy derivative =  1 :    2.382328349    
  l.o. = 12, l =  3, energy derivative =  2 :    2.382328349    
  l.o. = 13, l =  4, energy derivative =  0 :    3.900602836    
  l.o. = 13, l =  4, energy derivative =  1 :    3.900602836    
  l.o. = 13, l =  4, energy derivative =  2 :    3.900602836    
  l.o. = 14, l =  5, energy derivative =  0 :    5.517576248    
  l.o. = 14, l =  5, energy derivative =  1 :    5.517576248    
  l.o. = 14, l =  5, energy derivative =  2 :    5.517576248    
  l.o. = 15, l =  6, energy derivative =  0 :    7.294085608    
  l.o. = 15, l =  6, energy derivative =  1 :    7.294085608    
  l.o. = 15, l =  6, energy derivative =  2 :    7.294085608    
  l.o. = 16, l =  7, energy derivative =  0 :    9.247555845    
  l.o. = 16, l =  7, energy derivative =  1 :    9.247555845    
  l.o. = 16, l =  7, energy derivative =  2 :    9.247555845    
  l.o. = 17, l =  8, energy derivative =  0 :    11.38462489    
  l.o. = 17, l =  8, energy derivative =  1 :    11.38462489    
  l.o. = 17, l =  8, energy derivative =  2 :    11.38462489    
 
Species :    1 (Ti), atom :    2
 APW functions :
  l =  0, energy derivative =  0 :   0.2106922540    
  l =  1, energy derivative =  0 :   0.2106922540    
  l =  2, energy derivative =  0 :   0.2106922540    
  l =  3, energy derivative =  0 :   0.2106922540    
  l =  4, energy derivative =  0 :   0.2106922540    
  l =  5, energy derivative =  0 :   0.2106922540    
  l =  6, energy derivative =  0 :   0.2106922540    
  l =  7, energy derivative =  0 :   0.2106922540    
  l =  8, energy derivative =  0 :   0.2106922540    
  l =  9, energy derivative =  0 :   0.2106922540    
  l = 10, energy derivative =  0 :   0.2106922540    
 local-orbital functions :
  l.o. =  1, l =  0, energy derivative =  0 :   0.2106922540    
  l.o. =  1, l =  0, energy derivative =  1 :   0.2106922540    
  l.o. =  2, l =  1, energy derivative =  0 :   0.2106922540    
  l.o. =  2, l =  1, energy derivative =  1 :   0.2106922540    
  l.o. =  3, l =  2, energy derivative =  0 :   0.2106922540    
  l.o. =  3, l =  2, energy derivative =  1 :   0.2106922540    
  l.o. =  4, l =  0, energy derivative =  0 :   0.2106922540    
  l.o. =  4, l =  0, energy derivative =  0 :   -1.794377104    
  l.o. =  5, l =  1, energy derivative =  0 :   0.2106922540    
  l.o. =  5, l =  1, energy derivative =  0 :  -0.9126047600    
  l.o. =  6, l =  3, energy derivative =  0 :   0.2106922540    
  l.o. =  6, l =  3, energy derivative =  1 :   0.2106922540    
  l.o. =  7, l =  4, energy derivative =  0 :   0.2106922540    
  l.o. =  7, l =  4, energy derivative =  1 :   0.2106922540    
  l.o. =  8, l =  5, energy derivative =  0 :   0.2106922540    
  l.o. =  8, l =  5, energy derivative =  1 :   0.2106922540    
  l.o. =  9, l =  0, energy derivative =  0 :    1.375927209    
  l.o. =  9, l =  0, energy derivative =  1 :    1.375927209    
  l.o. =  9, l =  0, energy derivative =  2 :    1.375927209    
  l.o. = 10, l =  1, energy derivative =  0 :    1.825281730    
  l.o. = 10, l =  1, energy derivative =  1 :    1.825281730    
  l.o. = 10, l =  1, energy derivative =  2 :    1.825281730    
  l.o. = 11, l =  2, energy derivative =  0 :   0.4218201199    
  l.o. = 11, l =  2, energy derivative =  1 :   0.4218201199    
  l.o. = 11, l =  2, energy derivative =  2 :   0.4218201199    
  l.o. = 12, l =  3, energy derivative =  0 :    2.382328349    
  l.o. = 12, l =  3, energy derivative =  1 :    2.382328349    
  l.o. = 12, l =  3, energy derivative =  2 :    2.382328349    
  l.o. = 13, l =  4, energy derivative =  0 :    3.900602836    
  l.o. = 13, l =  4, energy derivative =  1 :    3.900602836    
  l.o. = 13, l =  4, energy derivative =  2 :    3.900602836    
  l.o. = 14, l =  5, energy derivative =  0 :    5.517576248    
  l.o. = 14, l =  5, energy derivative =  1 :    5.517576248    
  l.o. = 14, l =  5, energy derivative =  2 :    5.517576248    
  l.o. = 15, l =  6, energy derivative =  0 :    7.294085608    
  l.o. = 15, l =  6, energy derivative =  1 :    7.294085608    
  l.o. = 15, l =  6, energy derivative =  2 :    7.294085608    
  l.o. = 16, l =  7, energy derivative =  0 :    9.247555845    
  l.o. = 16, l =  7, energy derivative =  1 :    9.247555845    
  l.o. = 16, l =  7, energy derivative =  2 :    9.247555845    
  l.o. = 17, l =  8, energy derivative =  0 :    11.38462489    
  l.o. = 17, l =  8, energy derivative =  1 :    11.38462489    
  l.o. = 17, l =  8, energy derivative =  2 :    11.38462489    
