    0.907255791333E-03
    0.957381517403E-03
    0.937526205438E-03
    0.291993735723E-03
    0.159761576028E-03
    0.353625798520E-03
    0.431036109561E-03
    0.432876686566E-03
    0.435009619919E-03
    0.435054265384E-03
    0.436713303063E-03
    0.436822211829E-03
    0.436772253909E-03
    0.436757330149E-03
    0.436774123423E-03
    0.436814643618E-03
    0.436779302421E-03
    0.436782210362E-03
    0.436783027438E-03
    0.436778379313E-03
    0.436787048745E-03
    0.436779891505E-03
    0.436765161510E-03
    0.436762457934E-03
    0.436757633416E-03
    0.436755865479E-03
    0.436754362771E-03
    0.436756341828E-03
    0.436759682809E-03
    0.436760823052E-03
    0.436764429563E-03
    0.436764782747E-03
    0.436765240213E-03
    0.436764780093E-03
    0.436763602947E-03
    0.436764934438E-03
    0.436764318310E-03
    0.436764519739E-03
    0.436763763705E-03
    0.436763103494E-03
    0.436762532062E-03
    0.436762725019E-03
    0.436763633988E-03
    0.436762985277E-03
    0.436762962755E-03
    0.436763088995E-03
    0.436763094304E-03
    0.436763468904E-03
    0.436763238483E-03
    0.436763240391E-03
    0.436763230900E-03
    0.436763296796E-03
    0.436763310875E-03
    0.436763297964E-03
    0.436763294355E-03
    0.436763223623E-03
    0.436763210941E-03
    0.436763245284E-03
    0.436763249785E-03
    0.436763261480E-03
    0.436763281279E-03
    0.436763286226E-03
    0.436763293545E-03
    0.436763294119E-03
    0.436763295387E-03
    0.436763298579E-03
    0.436763295955E-03
    0.436763304376E-03
