 
Species :    1 (Sc), atom :    1
 APW functions :
  l =  0, energy derivative =  0 :   0.1281137364    
  l =  1, energy derivative =  0 :   0.1281137364    
  l =  2, energy derivative =  0 :   0.1281137364    
  l =  3, energy derivative =  0 :   0.1281137364    
  l =  4, energy derivative =  0 :   0.1281137364    
  l =  5, energy derivative =  0 :   0.1281137364    
  l =  6, energy derivative =  0 :   0.1281137364    
  l =  7, energy derivative =  0 :   0.1281137364    
  l =  8, energy derivative =  0 :   0.1281137364    
  l =  9, energy derivative =  0 :   0.1281137364    
  l = 10, energy derivative =  0 :   0.1281137364    
 local-orbital functions :
  l.o. =  1, l =  0, energy derivative =  0 :   0.1281137364    
  l.o. =  1, l =  0, energy derivative =  1 :   0.1281137364    
  l.o. =  2, l =  1, energy derivative =  0 :   0.1281137364    
  l.o. =  2, l =  1, energy derivative =  1 :   0.1281137364    
  l.o. =  3, l =  2, energy derivative =  0 :   0.1281137364    
  l.o. =  3, l =  2, energy derivative =  1 :   0.1281137364    
  l.o. =  4, l =  0, energy derivative =  0 :   0.1281137364    
  l.o. =  4, l =  0, energy derivative =  0 :   -1.604100034    
  l.o. =  5, l =  1, energy derivative =  0 :   0.1281137364    
  l.o. =  5, l =  1, energy derivative =  0 :  -0.8065114254    
  l.o. =  6, l =  3, energy derivative =  0 :   0.1281137364    
  l.o. =  6, l =  3, energy derivative =  1 :   0.1281137364    
  l.o. =  7, l =  4, energy derivative =  0 :   0.1281137364    
  l.o. =  7, l =  4, energy derivative =  1 :   0.1281137364    
  l.o. =  8, l =  5, energy derivative =  0 :   0.1281137364    
  l.o. =  8, l =  5, energy derivative =  1 :   0.1281137364    
  l.o. =  9, l =  0, energy derivative =  0 :    1.457809612    
  l.o. =  9, l =  0, energy derivative =  1 :    1.457809612    
  l.o. =  9, l =  0, energy derivative =  2 :    1.457809612    
  l.o. = 10, l =  1, energy derivative =  0 :    1.905054661    
  l.o. = 10, l =  1, energy derivative =  1 :    1.905054661    
  l.o. = 10, l =  1, energy derivative =  2 :    1.905054661    
  l.o. = 11, l =  2, energy derivative =  0 :   0.3964890340    
  l.o. = 11, l =  2, energy derivative =  1 :   0.3964890340    
  l.o. = 11, l =  2, energy derivative =  2 :   0.3964890340    
  l.o. = 12, l =  3, energy derivative =  0 :    2.274693096    
  l.o. = 12, l =  3, energy derivative =  1 :    2.274693096    
  l.o. = 12, l =  3, energy derivative =  2 :    2.274693096    
  l.o. = 13, l =  4, energy derivative =  0 :    3.794655035    
  l.o. = 13, l =  4, energy derivative =  1 :    3.794655035    
  l.o. = 13, l =  4, energy derivative =  2 :    3.794655035    
  l.o. = 14, l =  5, energy derivative =  0 :    5.416004173    
  l.o. = 14, l =  5, energy derivative =  1 :    5.416004173    
  l.o. = 14, l =  5, energy derivative =  2 :    5.416004173    
  l.o. = 15, l =  6, energy derivative =  0 :    7.196504026    
  l.o. = 15, l =  6, energy derivative =  1 :    7.196504026    
  l.o. = 15, l =  6, energy derivative =  2 :    7.196504026    
  l.o. = 16, l =  7, energy derivative =  0 :    9.153250369    
  l.o. = 16, l =  7, energy derivative =  1 :    9.153250369    
  l.o. = 16, l =  7, energy derivative =  2 :    9.153250369    
  l.o. = 17, l =  8, energy derivative =  0 :    11.29290956    
  l.o. = 17, l =  8, energy derivative =  1 :    11.29290956    
  l.o. = 17, l =  8, energy derivative =  2 :    11.29290956    
 
Species :    1 (Sc), atom :    2
 APW functions :
  l =  0, energy derivative =  0 :   0.1281137364    
  l =  1, energy derivative =  0 :   0.1281137364    
  l =  2, energy derivative =  0 :   0.1281137364    
  l =  3, energy derivative =  0 :   0.1281137364    
  l =  4, energy derivative =  0 :   0.1281137364    
  l =  5, energy derivative =  0 :   0.1281137364    
  l =  6, energy derivative =  0 :   0.1281137364    
  l =  7, energy derivative =  0 :   0.1281137364    
  l =  8, energy derivative =  0 :   0.1281137364    
  l =  9, energy derivative =  0 :   0.1281137364    
  l = 10, energy derivative =  0 :   0.1281137364    
 local-orbital functions :
  l.o. =  1, l =  0, energy derivative =  0 :   0.1281137364    
  l.o. =  1, l =  0, energy derivative =  1 :   0.1281137364    
  l.o. =  2, l =  1, energy derivative =  0 :   0.1281137364    
  l.o. =  2, l =  1, energy derivative =  1 :   0.1281137364    
  l.o. =  3, l =  2, energy derivative =  0 :   0.1281137364    
  l.o. =  3, l =  2, energy derivative =  1 :   0.1281137364    
  l.o. =  4, l =  0, energy derivative =  0 :   0.1281137364    
  l.o. =  4, l =  0, energy derivative =  0 :   -1.604100034    
  l.o. =  5, l =  1, energy derivative =  0 :   0.1281137364    
  l.o. =  5, l =  1, energy derivative =  0 :  -0.8065114254    
  l.o. =  6, l =  3, energy derivative =  0 :   0.1281137364    
  l.o. =  6, l =  3, energy derivative =  1 :   0.1281137364    
  l.o. =  7, l =  4, energy derivative =  0 :   0.1281137364    
  l.o. =  7, l =  4, energy derivative =  1 :   0.1281137364    
  l.o. =  8, l =  5, energy derivative =  0 :   0.1281137364    
  l.o. =  8, l =  5, energy derivative =  1 :   0.1281137364    
  l.o. =  9, l =  0, energy derivative =  0 :    1.457809612    
  l.o. =  9, l =  0, energy derivative =  1 :    1.457809612    
  l.o. =  9, l =  0, energy derivative =  2 :    1.457809612    
  l.o. = 10, l =  1, energy derivative =  0 :    1.905054661    
  l.o. = 10, l =  1, energy derivative =  1 :    1.905054661    
  l.o. = 10, l =  1, energy derivative =  2 :    1.905054661    
  l.o. = 11, l =  2, energy derivative =  0 :   0.3964890340    
  l.o. = 11, l =  2, energy derivative =  1 :   0.3964890340    
  l.o. = 11, l =  2, energy derivative =  2 :   0.3964890340    
  l.o. = 12, l =  3, energy derivative =  0 :    2.274693096    
  l.o. = 12, l =  3, energy derivative =  1 :    2.274693096    
  l.o. = 12, l =  3, energy derivative =  2 :    2.274693096    
  l.o. = 13, l =  4, energy derivative =  0 :    3.794655035    
  l.o. = 13, l =  4, energy derivative =  1 :    3.794655035    
  l.o. = 13, l =  4, energy derivative =  2 :    3.794655035    
  l.o. = 14, l =  5, energy derivative =  0 :    5.416004173    
  l.o. = 14, l =  5, energy derivative =  1 :    5.416004173    
  l.o. = 14, l =  5, energy derivative =  2 :    5.416004173    
  l.o. = 15, l =  6, energy derivative =  0 :    7.196504026    
  l.o. = 15, l =  6, energy derivative =  1 :    7.196504026    
  l.o. = 15, l =  6, energy derivative =  2 :    7.196504026    
  l.o. = 16, l =  7, energy derivative =  0 :    9.153250369    
  l.o. = 16, l =  7, energy derivative =  1 :    9.153250369    
  l.o. = 16, l =  7, energy derivative =  2 :    9.153250369    
  l.o. = 17, l =  8, energy derivative =  0 :    11.29290956    
  l.o. = 17, l =  8, energy derivative =  1 :    11.29290956    
  l.o. = 17, l =  8, energy derivative =  2 :    11.29290956    
