  0.9642162137    
  0.8391605329    
  0.5474177952    
  0.2392940488    
  0.7453199639E-01
  0.2745053232E-02
  0.2448482902E-02
  0.1763868532E-02
  0.2131424887E-02
  0.5957599872E-03
  0.5770136472E-03
  0.7637568074E-03
  0.8563625254E-03
  0.5955044156E-03
  0.5709207019E-03
  0.1183743635E-02
  0.7591298502E-03
  0.1643359923E-03
  0.9653322033E-03
  0.2320901527E-03
  0.3439983380E-03
  0.1797422012E-02
  0.1339061669E-03
  0.3709689561E-04
  0.3418684695E-04
  0.1956742950E-02
  0.2504749360E-03
  0.1366186476E-02
  0.6339926286E-03
  0.1818313863E-03
  0.7122374606E-03
  0.7556291664E-03
  0.7469246345E-03
  0.1025723348E-02
  0.4526882480E-03
  0.2752918198E-02
  0.4213988205E-03
  0.1397331652E-03
  0.4962219705E-04
  0.3870127400E-03
  0.8860033274E-03
  0.2234584652E-04
  0.1432121980E-02
  0.4637790707E-03
  0.1761563364E-02
  0.8866870738E-03
  0.5211788886E-03
  0.1180047251E-02
  0.1820769365E-03
  0.4003500438E-03
  0.1056276440E-03
  0.8618665582E-03
  0.3262999679E-03
  0.7500299388E-03
