 
Species :    1 (Tc), atom :    1
 APW functions :
  l =  0, energy derivative =  0 :   0.5531491793    
  l =  1, energy derivative =  0 :   0.5531491793    
  l =  2, energy derivative =  0 :   0.5531491793    
  l =  3, energy derivative =  0 :   0.5531491793    
  l =  4, energy derivative =  0 :   0.5531491793    
  l =  5, energy derivative =  0 :   0.5531491793    
  l =  6, energy derivative =  0 :   0.5531491793    
  l =  7, energy derivative =  0 :   0.5531491793    
  l =  8, energy derivative =  0 :   0.5531491793    
  l =  9, energy derivative =  0 :   0.5531491793    
  l = 10, energy derivative =  0 :   0.5531491793    
 local-orbital functions :
  l.o. =  1, l =  0, energy derivative =  0 :   0.5531491793    
  l.o. =  1, l =  0, energy derivative =  1 :   0.5531491793    
  l.o. =  2, l =  1, energy derivative =  0 :   0.5531491793    
  l.o. =  2, l =  1, energy derivative =  1 :   0.5531491793    
  l.o. =  3, l =  2, energy derivative =  0 :   0.5531491793    
  l.o. =  3, l =  2, energy derivative =  1 :   0.5531491793    
  l.o. =  4, l =  0, energy derivative =  0 :   0.5531491793    
  l.o. =  4, l =  0, energy derivative =  0 :   -1.804362767    
  l.o. =  5, l =  1, energy derivative =  0 :   0.5531491793    
  l.o. =  5, l =  1, energy derivative =  0 :  -0.7710475831    
  l.o. =  6, l =  2, energy derivative =  0 :   0.5531491793    
  l.o. =  6, l =  2, energy derivative =  0 :   0.7274129555    
  l.o. =  7, l =  3, energy derivative =  0 :   0.5531491793    
  l.o. =  7, l =  3, energy derivative =  1 :   0.5531491793    
  l.o. =  8, l =  4, energy derivative =  0 :   0.5531491793    
  l.o. =  8, l =  4, energy derivative =  1 :   0.5531491793    
  l.o. =  9, l =  5, energy derivative =  0 :   0.5531491793    
  l.o. =  9, l =  5, energy derivative =  1 :   0.5531491793    
  l.o. = 10, l =  0, energy derivative =  0 :    1.699902742    
  l.o. = 10, l =  0, energy derivative =  1 :    1.699902742    
  l.o. = 10, l =  0, energy derivative =  2 :    1.699902742    
  l.o. = 11, l =  1, energy derivative =  0 :    2.309170733    
  l.o. = 11, l =  1, energy derivative =  1 :    2.309170733    
  l.o. = 11, l =  1, energy derivative =  2 :    2.309170733    
  l.o. = 12, l =  2, energy derivative =  0 :   0.7274129555    
  l.o. = 12, l =  2, energy derivative =  1 :   0.7274129555    
  l.o. = 12, l =  2, energy derivative =  2 :   0.7274129555    
  l.o. = 13, l =  3, energy derivative =  0 :    2.175282330    
  l.o. = 13, l =  3, energy derivative =  1 :    2.175282330    
  l.o. = 13, l =  3, energy derivative =  2 :    2.175282330    
  l.o. = 14, l =  4, energy derivative =  0 :    3.924291210    
  l.o. = 14, l =  4, energy derivative =  1 :    3.924291210    
  l.o. = 14, l =  4, energy derivative =  2 :    3.924291210    
  l.o. = 15, l =  5, energy derivative =  0 :    5.604272420    
  l.o. = 15, l =  5, energy derivative =  1 :    5.604272420    
  l.o. = 15, l =  5, energy derivative =  2 :    5.604272420    
  l.o. = 16, l =  6, energy derivative =  0 :    7.412586898    
  l.o. = 16, l =  6, energy derivative =  1 :    7.412586898    
  l.o. = 16, l =  6, energy derivative =  2 :    7.412586898    
  l.o. = 17, l =  7, energy derivative =  0 :    9.385955252    
  l.o. = 17, l =  7, energy derivative =  1 :    9.385955252    
  l.o. = 17, l =  7, energy derivative =  2 :    9.385955252    
  l.o. = 18, l =  8, energy derivative =  0 :    11.53691839    
  l.o. = 18, l =  8, energy derivative =  1 :    11.53691839    
  l.o. = 18, l =  8, energy derivative =  2 :    11.53691839    
 
Species :    1 (Tc), atom :    2
 APW functions :
  l =  0, energy derivative =  0 :   0.5531491793    
  l =  1, energy derivative =  0 :   0.5531491793    
  l =  2, energy derivative =  0 :   0.5531491793    
  l =  3, energy derivative =  0 :   0.5531491793    
  l =  4, energy derivative =  0 :   0.5531491793    
  l =  5, energy derivative =  0 :   0.5531491793    
  l =  6, energy derivative =  0 :   0.5531491793    
  l =  7, energy derivative =  0 :   0.5531491793    
  l =  8, energy derivative =  0 :   0.5531491793    
  l =  9, energy derivative =  0 :   0.5531491793    
  l = 10, energy derivative =  0 :   0.5531491793    
 local-orbital functions :
  l.o. =  1, l =  0, energy derivative =  0 :   0.5531491793    
  l.o. =  1, l =  0, energy derivative =  1 :   0.5531491793    
  l.o. =  2, l =  1, energy derivative =  0 :   0.5531491793    
  l.o. =  2, l =  1, energy derivative =  1 :   0.5531491793    
  l.o. =  3, l =  2, energy derivative =  0 :   0.5531491793    
  l.o. =  3, l =  2, energy derivative =  1 :   0.5531491793    
  l.o. =  4, l =  0, energy derivative =  0 :   0.5531491793    
  l.o. =  4, l =  0, energy derivative =  0 :   -1.804362767    
  l.o. =  5, l =  1, energy derivative =  0 :   0.5531491793    
  l.o. =  5, l =  1, energy derivative =  0 :  -0.7710475831    
  l.o. =  6, l =  2, energy derivative =  0 :   0.5531491793    
  l.o. =  6, l =  2, energy derivative =  0 :   0.7274129555    
  l.o. =  7, l =  3, energy derivative =  0 :   0.5531491793    
  l.o. =  7, l =  3, energy derivative =  1 :   0.5531491793    
  l.o. =  8, l =  4, energy derivative =  0 :   0.5531491793    
  l.o. =  8, l =  4, energy derivative =  1 :   0.5531491793    
  l.o. =  9, l =  5, energy derivative =  0 :   0.5531491793    
  l.o. =  9, l =  5, energy derivative =  1 :   0.5531491793    
  l.o. = 10, l =  0, energy derivative =  0 :    1.699902742    
  l.o. = 10, l =  0, energy derivative =  1 :    1.699902742    
  l.o. = 10, l =  0, energy derivative =  2 :    1.699902742    
  l.o. = 11, l =  1, energy derivative =  0 :    2.309170733    
  l.o. = 11, l =  1, energy derivative =  1 :    2.309170733    
  l.o. = 11, l =  1, energy derivative =  2 :    2.309170733    
  l.o. = 12, l =  2, energy derivative =  0 :   0.7274129555    
  l.o. = 12, l =  2, energy derivative =  1 :   0.7274129555    
  l.o. = 12, l =  2, energy derivative =  2 :   0.7274129555    
  l.o. = 13, l =  3, energy derivative =  0 :    2.175282330    
  l.o. = 13, l =  3, energy derivative =  1 :    2.175282330    
  l.o. = 13, l =  3, energy derivative =  2 :    2.175282330    
  l.o. = 14, l =  4, energy derivative =  0 :    3.924291210    
  l.o. = 14, l =  4, energy derivative =  1 :    3.924291210    
  l.o. = 14, l =  4, energy derivative =  2 :    3.924291210    
  l.o. = 15, l =  5, energy derivative =  0 :    5.604272420    
  l.o. = 15, l =  5, energy derivative =  1 :    5.604272420    
  l.o. = 15, l =  5, energy derivative =  2 :    5.604272420    
  l.o. = 16, l =  6, energy derivative =  0 :    7.412586898    
  l.o. = 16, l =  6, energy derivative =  1 :    7.412586898    
  l.o. = 16, l =  6, energy derivative =  2 :    7.412586898    
  l.o. = 17, l =  7, energy derivative =  0 :    9.385955252    
  l.o. = 17, l =  7, energy derivative =  1 :    9.385955252    
  l.o. = 17, l =  7, energy derivative =  2 :    9.385955252    
  l.o. = 18, l =  8, energy derivative =  0 :    11.53691839    
  l.o. = 18, l =  8, energy derivative =  1 :    11.53691839    
  l.o. = 18, l =  8, energy derivative =  2 :    11.53691839    
