+----------------------------+
| Elk version 8.3.15 started |
+----------------------------+
 
Date (YYYY-MM-DD) : 2022-02-14
Time (hh:mm:ss)   : 16:49:19
 
All units are atomic (Hartree, Bohr, etc.)
 
+-------------------------------------------------+
| Ground-state run starting from atomic densities |
+-------------------------------------------------+
 
Lattice vectors :
   2.926411600       2.926411600      -2.926411600    
   2.926411600      -2.926411600       2.926411600    
  -2.926411600       2.926411600       2.926411600    
 
Reciprocal lattice vectors :
   1.073530686       1.073530686       0.000000000    
   1.073530686       0.000000000       1.073530686    
   0.000000000       1.073530686       1.073530686    
 
Unit cell volume      :    100.2458079    
Brillouin zone volume :    2.474419815    
 
Muffin-tin inner radius fraction :   0.1000000000E-01
 
Species :    1 (Mo)
 parameters loaded from : Mo.in
 name : molybdenum
 nuclear charge    :   -42.00000000    
 electronic charge :    42.00000000    
 atomic mass :    174887.9212    
 muffin-tin radius :    2.450000000    
 number of radial points in muffin-tin :   1200
 number on inner part of muffin-tin    :    866
 atomic positions (lattice), magnetic fields (Cartesian) :
   1 :   0.00000000  0.00000000  0.00000000    0.00000000  0.00000000  0.00000000
 
Total number of atoms per unit cell :    1
 
Spin treatment :
 spin-unpolarised
 
Number of Bravais lattice symmetries :   48
Number of crystal symmetries         :   48
Crystal has inversion symmetry
Real symmetric eigensolver will be used
 
k-point grid :     17    17    17
k-point offset :    0.000000000       0.000000000       0.000000000    
k-point set is reduced with full crystal symmetry group
Total number of k-points :      165
 
Muffin-tin radius times maximum |G+k| :    8.500000000    
 using gkmax = rgkmax / 2
Maximum |G+k| for APW functions       :    4.250000000    
Maximum (1/2)|G+k|²                   :    9.031250000    
Maximum |G| for potential and density :    51.00000000    
Constant for pseudocharge density :   31
Radial integration step length :    1
 
G-vector grid sizes :     90    90    90
Number of G-vectors :   224679
 
Maximum angular momentum used for
 APW functions                      :   10
 outer part of muffin-tin           :    8
 inner part of muffin-tin           :    1
 
Total nuclear charge    :   -42.00000000    
Total core charge       :    28.00000000    
Total valence charge    :    14.00000000    
Total excess charge     :    0.000000000    
Total electronic charge :    42.00000000    
 
Effective Wigner radius, rₛ :   0.8290411868    
 
Number of empty states         :   20
Total number of valence states :   28
Total number of core states    :   28
 
Conduction state local-orbitals added automatically
Total number of local-orbitals :  126
 
Using Libxc version 05.01.05
Exchange-correlation functional :    100   493   494
 exchange: mgga_x_rscan; correlation: mgga_c_rscan
 
Smearing type :    1
 Methfessel-Paxton order 1, Phys. Rev. B 40, 3616 (1989)
Smearing width :   0.1000000000E-02
Effective electronic temperature (K) :    315.7750248    
 
Mixing type :    3
 Broyden mixing, J. Phys. A: Math. Gen. 17, L317 (1984)
 
Kohn-Sham potential initialised from atomic data
 
+------------------------------+
| Self-consistent loop started |
+------------------------------+
 
+--------------------+
| Loop number :    1 |
+--------------------+
 
Energies :
 Fermi                       :     0.292802483520    
 sum of eigenvalues          :     -2426.32648703    
 electron kinetic            :      4183.12291243    
 core electron kinetic       :      4120.10309566    
 Coulomb                     :     -8144.33151239    
 Coulomb potential           :     -6442.47510275    
 nuclear-nuclear             :     -433.812138173    
 electron-nuclear            :     -8978.56364569    
 Hartree                     :      1268.04427147    
 Madelung                    :     -4923.09396102    
 xc potential                :     -166.974296713    
 exchange                    :     -123.571808503    
 correlation                 :     -2.22303399280    
 total energy                :     -4087.00344246    
 
Density of states at Fermi energy :    13.98910975    
 (states/Hartree/unit cell)
 
Estimated indirect band gap :   0.3888086099E-03
 from k-point    140 to k-point     39
Estimated direct band gap   :   0.2809711807E-01
 at k-point     53
 
Charges :
 core                        :    28.00000000    
 valence                     :    14.00000000    
 interstitial                :    1.714000881    
 muffin-tins (core leakage)
  species :    1 (Mo)
   atom    1                 :    40.28599912     (  0.7553500794E-06)
 total in muffin-tins        :    40.28599912    
 total calculated charge     :    41.99997024    
 total charge                :    42.00000000    
 error                       :   0.2976215212E-04
 
Time (CPU seconds) :        16.99
 
+--------------------+
| Loop number :    2 |
+--------------------+
 
Energies :
 Fermi                       :     0.296041388688    
 sum of eigenvalues          :     -2426.00830449    
 electron kinetic            :      4183.37028177    
 core electron kinetic       :      4111.76020374    
 Coulomb                     :     -8144.10066672    
 Coulomb potential           :     -6442.41559777    
 nuclear-nuclear             :     -433.812138173    
 electron-nuclear            :     -8978.16145932    
 Hartree                     :      1267.87293078    
 Madelung                    :     -4922.89286784    
 xc potential                :     -166.962988490    
 exchange                    :     -123.563420101    
 correlation                 :     -2.22301338135    
 total energy                :     -4086.51681844    
 
Density of states at Fermi energy :    14.46697499    
 (states/Hartree/unit cell)
 
Estimated indirect band gap :   0.1153209445E-02
 from k-point    139 to k-point    140
Estimated direct band gap   :   0.2444907986E-01
 at k-point    140
 
Charges :
 core                        :    28.00000000    
 valence                     :    14.00000000    
 interstitial                :    1.714973374    
 muffin-tins (core leakage)
  species :    1 (Mo)
   atom    1                 :    40.28502663     (  0.7590432354E-06)
 total in muffin-tins        :    40.28502663    
 total calculated charge     :    41.99996969    
 total charge                :    42.00000000    
 error                       :   0.3030697665E-04
 
Wrote STATE.OUT
 
RMS change in Kohn-Sham potential (target) :    1.100280098     (   10.00000000    )
Absolute change in total energy (target)   :   0.4866240221     (  0.1000000000E-07)
 
Time (CPU seconds) :        28.02
 
+--------------------+
| Loop number :    3 |
+--------------------+
 
Energies :
 Fermi                       :     0.420026971350    
 sum of eigenvalues          :     -2415.85356176    
 electron kinetic            :      4191.28023508    
 core electron kinetic       :      4106.99696400    
 Coulomb                     :     -8138.27078173    
 Coulomb potential           :     -6440.43174620    
 nuclear-nuclear             :     -433.812138173    
 electron-nuclear            :     -8968.48554093    
 Hartree                     :      1264.02689736    
 Madelung                    :     -4918.05490864    
 xc potential                :     -166.702050644    
 exchange                    :     -123.371028695    
 correlation                 :     -2.22215825406    
 total energy                :     -4072.58373361    
 
Density of states at Fermi energy :    7.085209041    
 (states/Hartree/unit cell)
 
Estimated indirect band gap :   0.1330547478E-02
 from k-point    140 to k-point     39
Estimated direct band gap   :   0.2903652749E-01
 at k-point     53
 
Charges :
 core                        :    28.00000000    
 valence                     :    14.00000000    
 interstitial                :    1.718772932    
 muffin-tins (core leakage)
  species :    1 (Mo)
   atom    1                 :    40.28122707     (  0.8719652698E-06)
 total in muffin-tins        :    40.28122707    
 total calculated charge     :    41.99997348    
 total charge                :    42.00000000    
 error                       :   0.2651948440E-04
 
RMS change in Kohn-Sham potential (target) :   0.6915653576     (   10.00000000    )
Absolute change in total energy (target)   :    14.05474083     (  0.1000000000E-07)
 
Time (CPU seconds) :        38.96
 
+--------------------+
| Loop number :    4 |
+--------------------+
 
Energies :
 Fermi                       :     0.543012522646    
 sum of eigenvalues          :     -2406.36641914    
 electron kinetic            :      4199.04913741    
 core electron kinetic       :      4106.59708571    
 Coulomb                     :     -8133.33235586    
 Coulomb potential           :     -6438.94260493    
 nuclear-nuclear             :     -433.812138173    
 electron-nuclear            :     -8960.09783044    
 Hartree                     :      1260.57761276    
 Madelung                    :     -4913.86105339    
 xc potential                :     -166.472951615    
 exchange                    :     -123.202467554    
 correlation                 :     -2.22149011177    
 total energy                :     -4059.70717612    
 
Density of states at Fermi energy :    6.858486182    
 (states/Hartree/unit cell)
 
Estimated indirect band gap :   0.1452204893E-02
 from k-point    140 to k-point     39
Estimated direct band gap   :   0.2909901819E-01
 at k-point     95
 
Charges :
 core                        :    28.00000000    
 valence                     :    14.00000000    
 interstitial                :    1.727940132    
 muffin-tins (core leakage)
  species :    1 (Mo)
   atom    1                 :    40.27205987     (  0.9892407746E-06)
 total in muffin-tins        :    40.27205987    
 total calculated charge     :    41.99997596    
 total charge                :    42.00000000    
 error                       :   0.2404208293E-04
 
Wrote STATE.OUT
 
RMS change in Kohn-Sham potential (target) :   0.2932633700     (   10.00000000    )
Absolute change in total energy (target)   :    16.39024270     (  0.1000000000E-07)
 
Time (CPU seconds) :        49.91
 
+--------------------+
| Loop number :    5 |
+--------------------+
 
Energies :
 Fermi                       :     0.605896062353    
 sum of eigenvalues          :     -2401.77593105    
 electron kinetic            :      4202.99849947    
 core electron kinetic       :      4107.20808258    
 Coulomb                     :     -8131.18593754    
 Coulomb potential           :     -6438.40571431    
 nuclear-nuclear             :     -433.812138173    
 electron-nuclear            :     -8956.34188442    
 Hartree                     :      1258.96808506    
 Madelung                    :     -4911.98308038    
 xc potential                :     -166.368716215    
 exchange                    :     -123.125977065    
 correlation                 :     -2.22122855087    
 total energy                :     -4053.53464368    
 
Density of states at Fermi energy :    9.551477582    
 (states/Hartree/unit cell)
 
Estimated indirect band gap :   0.1048902864E-02
 from k-point    140 to k-point     39
Estimated direct band gap   :   0.2913655100E-01
 at k-point     95
 
Charges :
 core                        :    28.00000000    
 valence                     :    14.00000000    
 interstitial                :    1.735380724    
 muffin-tins (core leakage)
  species :    1 (Mo)
   atom    1                 :    40.26461928     (  0.1052994552E-05)
 total in muffin-tins        :    40.26461928    
 total calculated charge     :    41.99997642    
 total charge                :    42.00000000    
 error                       :   0.2357787523E-04
 
RMS change in Kohn-Sham potential (target) :   0.9351071837E-01 (   10.00000000    )
Absolute change in total energy (target)   :    10.27009311     (  0.1000000000E-07)
 
Time (CPU seconds) :        60.97
 
+--------------------+
| Loop number :    6 |
+--------------------+
 
Energies :
 Fermi                       :     0.628548707693    
 sum of eigenvalues          :     -2400.21699278    
 electron kinetic            :      4204.42533745    
 core electron kinetic       :      4107.56546945    
 Coulomb                     :     -8130.55859534    
 Coulomb potential           :     -6438.30649865    
 nuclear-nuclear             :     -433.812138173    
 electron-nuclear            :     -8955.18641569    
 Hartree                     :      1258.43995852    
 Madelung                    :     -4911.40534602    
 xc potential                :     -166.335831581    
 exchange                    :     -123.101946882    
 correlation                 :     -2.22116788550    
 total energy                :     -4051.45637266    
 
Density of states at Fermi energy :    12.79294693    
 (states/Hartree/unit cell)
 
Estimated indirect band gap :   0.6953052024E-03
 from k-point    140 to k-point     39
Estimated direct band gap   :   0.2920939115E-01
 at k-point     95
 
Charges :
 core                        :    28.00000000    
 valence                     :    14.00000000    
 interstitial                :    1.739473754    
 muffin-tins (core leakage)
  species :    1 (Mo)
   atom    1                 :    40.26052625     (  0.1075986575E-05)
 total in muffin-tins        :    40.26052625    
 total calculated charge     :    41.99997610    
 total charge                :    42.00000000    
 error                       :   0.2390228877E-04
 
Wrote STATE.OUT
 
RMS change in Kohn-Sham potential (target) :   0.2299544894E-01 (   10.00000000    )
Absolute change in total energy (target)   :    4.645794301     (  0.1000000000E-07)
 
Time (CPU seconds) :        71.98
 
+--------------------+
| Loop number :    7 |
+--------------------+
 
Energies :
 Fermi                       :     0.635971880428    
 sum of eigenvalues          :     -2399.73210964    
 electron kinetic            :      4204.89798005    
 core electron kinetic       :      4107.85029584    
 Coulomb                     :     -8130.39607112    
 Coulomb potential           :     -6438.30371935    
 nuclear-nuclear             :     -433.812138173    
 electron-nuclear            :     -8954.86414656    
 Hartree                     :      1258.28021361    
 Madelung                    :     -4911.24421145    
 xc potential                :     -166.326370346    
 exchange                    :     -123.095076425    
 correlation                 :     -2.22115811642    
 total energy                :     -4050.81432562    
 
Density of states at Fermi energy :    14.44023567    
 (states/Hartree/unit cell)
 
Estimated indirect band gap :   0.5093266806E-03
 from k-point    140 to k-point     39
Estimated direct band gap   :   0.2925128480E-01
 at k-point     95
 
Charges :
 core                        :    28.00000000    
 valence                     :    14.00000000    
 interstitial                :    1.741313516    
 muffin-tins (core leakage)
  species :    1 (Mo)
   atom    1                 :    40.25868648     (  0.1083412627E-05)
 total in muffin-tins        :    40.25868648    
 total calculated charge     :    41.99997573    
 total charge                :    42.00000000    
 error                       :   0.2427251806E-04
 
RMS change in Kohn-Sham potential (target) :   0.1638291432E-02 (   10.00000000    )
Absolute change in total energy (target)   :    1.803495616     (  0.1000000000E-07)
 
Time (CPU seconds) :        83.04
 
+--------------------+
| Loop number :    8 |
+--------------------+
 
Energies :
 Fermi                       :     0.636163785716    
 sum of eigenvalues          :     -2399.74918992    
 electron kinetic            :      4204.91405723    
 core electron kinetic       :      4107.89306774    
 Coulomb                     :     -8130.43966551    
 Coulomb potential           :     -6438.33560601    
 nuclear-nuclear             :     -433.812138173    
 electron-nuclear            :     -8954.91944866    
 Hartree                     :      1258.29192133    
 Madelung                    :     -4911.27186251    
 xc potential                :     -166.327641139    
 exchange                    :     -123.096056460    
 correlation                 :     -2.22116792841    
 total energy                :     -4050.84283267    
 
Density of states at Fermi energy :    15.05629791    
 (states/Hartree/unit cell)
 
Estimated indirect band gap :   0.4332964997E-03
 from k-point    140 to k-point     39
Estimated direct band gap   :   0.2927018862E-01
 at k-point     95
 
Charges :
 core                        :    28.00000000    
 valence                     :    14.00000000    
 interstitial                :    1.741842709    
 muffin-tins (core leakage)
  species :    1 (Mo)
   atom    1                 :    40.25815729     (  0.1082859871E-05)
 total in muffin-tins        :    40.25815729    
 total calculated charge     :    41.99997544    
 total charge                :    42.00000000    
 error                       :   0.2456430362E-04
 
Wrote STATE.OUT
 
RMS change in Kohn-Sham potential (target) :   0.8305615760E-03 (   10.00000000    )
Absolute change in total energy (target)   :   0.4223668520     (  0.1000000000E-07)
 
Time (CPU seconds) :        93.96
 
+--------------------+
| Loop number :    9 |
+--------------------+
 
Energies :
 Fermi                       :     0.636242151881    
 sum of eigenvalues          :     -2399.75916760    
 electron kinetic            :      4204.92393338    
 core electron kinetic       :      4107.90831502    
 Coulomb                     :     -8130.46494734    
 Coulomb potential           :     -6438.35473129    
 nuclear-nuclear             :     -433.812138173    
 electron-nuclear            :     -8954.95088704    
 Hartree                     :      1258.29807788    
 Madelung                    :     -4911.28758169    
 xc potential                :     -166.328369696    
 exchange                    :     -123.096626353    
 correlation                 :     -2.22117332291    
 total energy                :     -4050.85881363    
 
Density of states at Fermi energy :    15.43020833    
 (states/Hartree/unit cell)
 
Estimated indirect band gap :   0.9756301663E-03
 from k-point    139 to k-point    140
Estimated direct band gap   :   0.2475820511E-01
 at k-point    140
 
Charges :
 core                        :    28.00000000    
 valence                     :    14.00000000    
 interstitial                :    1.742175643    
 muffin-tins (core leakage)
  species :    1 (Mo)
   atom    1                 :    40.25782436     (  0.1082806921E-05)
 total in muffin-tins        :    40.25782436    
 total calculated charge     :    41.99997517    
 total charge                :    42.00000000    
 error                       :   0.2482605700E-04
 
RMS change in Kohn-Sham potential (target) :   0.2157651183E-03 (   10.00000000    )
Absolute change in total energy (target)   :   0.8961075000E-01 (  0.1000000000E-07)
 
Time (CPU seconds) :       104.97
 
+--------------------+
| Loop number :   10 |
+--------------------+
 
Energies :
 Fermi                       :     0.636226231614    
 sum of eigenvalues          :     -2399.75629904    
 electron kinetic            :      4204.92439189    
 core electron kinetic       :      4107.90500921    
 Coulomb                     :     -8130.46062671    
 Coulomb potential           :     -6438.35246980    
 nuclear-nuclear             :     -433.812138173    
 electron-nuclear            :     -8954.94450728    
 Hartree                     :      1258.29601874    
 Madelung                    :     -4911.28439181    
 xc potential                :     -166.328221130    
 exchange                    :     -123.096518424    
 correlation                 :     -2.22117215272    
 total energy                :     -4050.85392540    
 
Density of states at Fermi energy :    15.40846500    
 (states/Hartree/unit cell)
 
Estimated indirect band gap :   0.3882419830E-03
 from k-point    140 to k-point     39
Estimated direct band gap   :   0.2927788642E-01
 at k-point     95
 
Charges :
 core                        :    28.00000000    
 valence                     :    14.00000000    
 interstitial                :    1.742151914    
 muffin-tins (core leakage)
  species :    1 (Mo)
   atom    1                 :    40.25784809     (  0.1082903825E-05)
 total in muffin-tins        :    40.25784809    
 total calculated charge     :    41.99997513    
 total charge                :    42.00000000    
 error                       :   0.2487023804E-04
 
Wrote STATE.OUT
 
RMS change in Kohn-Sham potential (target) :   0.1577297986E-03 (   10.00000000    )
Absolute change in total energy (target)   :   0.2729091788E-01 (  0.1000000000E-07)
 
Time (CPU seconds) :       116.07
 
+--------------------+
| Loop number :   11 |
+--------------------+
 
Energies :
 Fermi                       :     0.636218476954    
 sum of eigenvalues          :     -2399.75487969    
 electron kinetic            :      4204.92444973    
 core electron kinetic       :      4107.90351267    
 Coulomb                     :     -8130.45837625    
 Coulomb potential           :     -6438.35118205    
 nuclear-nuclear             :     -433.812138173    
 electron-nuclear            :     -8954.94129409    
 Hartree                     :      1258.29505602    
 Madelung                    :     -4911.28278522    
 xc potential                :     -166.328147365    
 exchange                    :     -123.096464434    
 correlation                 :     -2.22117154859    
 total energy                :     -4050.85156250    
 
Density of states at Fermi energy :    15.39269456    
 (states/Hartree/unit cell)
 
Estimated indirect band gap :   0.3904874295E-03
 from k-point    140 to k-point     39
Estimated direct band gap   :   0.2927662399E-01
 at k-point     95
 
Charges :
 core                        :    28.00000000    
 valence                     :    14.00000000    
 interstitial                :    1.742135788    
 muffin-tins (core leakage)
  species :    1 (Mo)
   atom    1                 :    40.25786421     (  0.1082805984E-05)
 total in muffin-tins        :    40.25786421    
 total calculated charge     :    41.99997511    
 total charge                :    42.00000000    
 error                       :   0.2488571607E-04
 
RMS change in Kohn-Sham potential (target) :   0.1064218655E-03 (   10.00000000    )
Absolute change in total energy (target)   :   0.9185632091E-02 (  0.1000000000E-07)
 
Time (CPU seconds) :       127.07
 
+--------------------+
| Loop number :   12 |
+--------------------+
 
Energies :
 Fermi                       :     0.636216798791    
 sum of eigenvalues          :     -2399.75443694    
 electron kinetic            :      4204.92452685    
 core electron kinetic       :      4107.90327876    
 Coulomb                     :     -8130.45776927    
 Coulomb potential           :     -6438.35083531    
 nuclear-nuclear             :     -433.812138173    
 electron-nuclear            :     -8954.94042688    
 Hartree                     :      1258.29479579    
 Madelung                    :     -4911.28235162    
 xc potential                :     -166.328128481    
 exchange                    :     -123.096450982    
 correlation                 :     -2.22117136473    
 total energy                :     -4050.85086476    
 
Density of states at Fermi energy :    15.38845356    
 (states/Hartree/unit cell)
 
Estimated indirect band gap :   0.3911209433E-03
 from k-point    140 to k-point     39
Estimated direct band gap   :   0.2927612030E-01
 at k-point     95
 
Charges :
 core                        :    28.00000000    
 valence                     :    14.00000000    
 interstitial                :    1.742131336    
 muffin-tins (core leakage)
  species :    1 (Mo)
   atom    1                 :    40.25786866     (  0.1083084086E-05)
 total in muffin-tins        :    40.25786866    
 total calculated charge     :    41.99997511    
 total charge                :    42.00000000    
 error                       :   0.2489240543E-04
 
Wrote STATE.OUT
 
RMS change in Kohn-Sham potential (target) :   0.1618664346E-03 (   10.00000000    )
Absolute change in total energy (target)   :   0.2994141541E-02 (  0.1000000000E-07)
 
Time (CPU seconds) :       138.04
 
+--------------------+
| Loop number :   13 |
+--------------------+
 
Energies :
 Fermi                       :     0.636218003306    
 sum of eigenvalues          :     -2399.75440781    
 electron kinetic            :      4204.92464284    
 core electron kinetic       :      4107.90348567    
 Coulomb                     :     -8130.45786156    
 Coulomb potential           :     -6438.35091962    
 nuclear-nuclear             :     -433.812138173    
 electron-nuclear            :     -8954.94052716    
 Hartree                     :      1258.29480377    
 Madelung                    :     -4911.28240176    
 xc potential                :     -166.328131038    
 exchange                    :     -123.096453176    
 correlation                 :     -2.22117138099    
 total energy                :     -4050.85084328    
 
Density of states at Fermi energy :    15.39025449    
 (states/Hartree/unit cell)
 
Estimated indirect band gap :   0.3908988982E-03
 from k-point    140 to k-point     39
Estimated direct band gap   :   0.2927609172E-01
 at k-point     95
 
Charges :
 core                        :    28.00000000    
 valence                     :    14.00000000    
 interstitial                :    1.742133028    
 muffin-tins (core leakage)
  species :    1 (Mo)
   atom    1                 :    40.25786697     (  0.1083091174E-05)
 total in muffin-tins        :    40.25786697    
 total calculated charge     :    41.99997511    
 total charge                :    42.00000000    
 error                       :   0.2489438754E-04
 
RMS change in Kohn-Sham potential (target) :   0.8495317190E-04 (   10.00000000    )
Absolute change in total energy (target)   :   0.7700222741E-03 (  0.1000000000E-07)
 
Time (CPU seconds) :       149.12
 
+--------------------+
| Loop number :   14 |
+--------------------+
 
Energies :
 Fermi                       :     0.636219632813    
 sum of eigenvalues          :     -2399.75445911    
 electron kinetic            :      4204.92480680    
 core electron kinetic       :      4107.90376977    
 Coulomb                     :     -8130.45812632    
 Coulomb potential           :     -6438.35112710    
 nuclear-nuclear             :     -433.812138173    
 electron-nuclear            :     -8954.94084919    
 Hartree                     :      1258.29486104    
 Madelung                    :     -4911.28256277    
 xc potential                :     -166.328138814    
 exchange                    :     -123.096459411    
 correlation                 :     -2.22117143858    
 total energy                :     -4050.85095036    
 
Density of states at Fermi energy :    15.39426323    
 (states/Hartree/unit cell)
 
Estimated indirect band gap :   0.3903891846E-03
 from k-point    140 to k-point     39
Estimated direct band gap   :   0.2927610722E-01
 at k-point     95
 
Charges :
 core                        :    28.00000000    
 valence                     :    14.00000000    
 interstitial                :    1.742136834    
 muffin-tins (core leakage)
  species :    1 (Mo)
   atom    1                 :    40.25786317     (  0.1083223612E-05)
 total in muffin-tins        :    40.25786317    
 total calculated charge     :    41.99997510    
 total charge                :    42.00000000    
 error                       :   0.2489748518E-04
 
Wrote STATE.OUT
 
RMS change in Kohn-Sham potential (target) :   0.1224689583E-04 (   10.00000000    )
Absolute change in total energy (target)   :   0.8541893567E-04 (  0.1000000000E-07)
 
Time (CPU seconds) :       160.04
 
+--------------------+
| Loop number :   15 |
+--------------------+
 
Energies :
 Fermi                       :     0.636220076842    
 sum of eigenvalues          :     -2399.75448868    
 electron kinetic            :      4204.92485471    
 core electron kinetic       :      4107.90402025    
 Coulomb                     :     -8130.45822436    
 Coulomb potential           :     -6438.35120171    
 nuclear-nuclear             :     -433.812138173    
 electron-nuclear            :     -8954.94097065    
 Hartree                     :      1258.29488447    
 Madelung                    :     -4911.28262350    
 xc potential                :     -166.328141677    
 exchange                    :     -123.096461679    
 correlation                 :     -2.22117146118    
 total energy                :     -4050.85100279    
 
Density of states at Fermi energy :    15.39566631    
 (states/Hartree/unit cell)
 
Estimated indirect band gap :   0.3902096648E-03
 from k-point    140 to k-point     39
Estimated direct band gap   :   0.2927611775E-01
 at k-point     95
 
Charges :
 core                        :    28.00000000    
 valence                     :    14.00000000    
 interstitial                :    1.742138185    
 muffin-tins (core leakage)
  species :    1 (Mo)
   atom    1                 :    40.25786182     (  0.1082922218E-05)
 total in muffin-tins        :    40.25786182    
 total calculated charge     :    41.99997510    
 total charge                :    42.00000000    
 error                       :   0.2489801778E-04
 
RMS change in Kohn-Sham potential (target) :   0.3367449945E-03 (   10.00000000    )
Absolute change in total energy (target)   :   0.3106803433E-04 (  0.1000000000E-07)
 
Time (CPU seconds) :       171.03
 
+--------------------+
| Loop number :   16 |
+--------------------+
 
Energies :
 Fermi                       :     0.636222865918    
 sum of eigenvalues          :     -2399.75461145    
 electron kinetic            :      4204.92501816    
 core electron kinetic       :      4107.90421280    
 Coulomb                     :     -8130.45861864    
 Coulomb potential           :     -6438.35147617    
 nuclear-nuclear             :     -433.812138173    
 electron-nuclear            :     -8954.94148476    
 Hartree                     :      1258.29500430    
 Madelung                    :     -4911.28288056    
 xc potential                :     -166.328153445    
 exchange                    :     -123.096470674    
 correlation                 :     -2.22117156000    
 total energy                :     -4050.85124271    
 
Density of states at Fermi energy :    15.40013493    
 (states/Hartree/unit cell)
 
Estimated indirect band gap :   0.3896168151E-03
 from k-point    140 to k-point     39
Estimated direct band gap   :   0.2927625831E-01
 at k-point     95
 
Charges :
 core                        :    28.00000000    
 valence                     :    14.00000000    
 interstitial                :    1.742142591    
 muffin-tins (core leakage)
  species :    1 (Mo)
   atom    1                 :    40.25785741     (  0.1083264287E-05)
 total in muffin-tins        :    40.25785741    
 total calculated charge     :    41.99997510    
 total charge                :    42.00000000    
 error                       :   0.2489881550E-04
 
Wrote STATE.OUT
 
RMS change in Kohn-Sham potential (target) :   0.1519042172E-04 (   10.00000000    )
Absolute change in total energy (target)   :   0.2476927507E-03 (  0.1000000000E-07)
 
Time (CPU seconds) :       182.04
 
+--------------------+
| Loop number :   17 |
+--------------------+
 
Energies :
 Fermi                       :     0.636221845689    
 sum of eigenvalues          :     -2399.75451807    
 electron kinetic            :      4204.92497759    
 core electron kinetic       :      4107.90407220    
 Coulomb                     :     -8130.45841916    
 Coulomb potential           :     -6438.35134840    
 nuclear-nuclear             :     -433.812138173    
 electron-nuclear            :     -8954.94121359    
 Hartree                     :      1258.29493259    
 Madelung                    :     -4911.28274497    
 xc potential                :     -166.328147257    
 exchange                    :     -123.096466040    
 correlation                 :     -2.22117150827    
 total energy                :     -4050.85107913    
 
Density of states at Fermi energy :    15.39820587    
 (states/Hartree/unit cell)
 
Estimated indirect band gap :   0.3898794430E-03
 from k-point    140 to k-point     39
Estimated direct band gap   :   0.2927616306E-01
 at k-point     95
 
Charges :
 core                        :    28.00000000    
 valence                     :    14.00000000    
 interstitial                :    1.742140671    
 muffin-tins (core leakage)
  species :    1 (Mo)
   atom    1                 :    40.25785933     (  0.1083010009E-05)
 total in muffin-tins        :    40.25785933    
 total calculated charge     :    41.99997510    
 total charge                :    42.00000000    
 error                       :   0.2489899394E-04
 
RMS change in Kohn-Sham potential (target) :   0.2129253418E-03 (   10.00000000    )
Absolute change in total energy (target)   :   0.1016646047E-03 (  0.1000000000E-07)
 
Time (CPU seconds) :       192.97
 
+--------------------+
| Loop number :   18 |
+--------------------+
 
Energies :
 Fermi                       :     0.636220787008    
 sum of eigenvalues          :     -2399.75451693    
 electron kinetic            :      4204.92488298    
 core electron kinetic       :      4107.90394236    
 Coulomb                     :     -8130.45830650    
 Coulomb potential           :     -6438.35125583    
 nuclear-nuclear             :     -433.812138173    
 electron-nuclear            :     -8954.94108082    
 Hartree                     :      1258.29491250    
 Madelung                    :     -4911.28267858    
 xc potential                :     -166.328144081    
 exchange                    :     -123.096463456    
 correlation                 :     -2.22117148372    
 total energy                :     -4050.85105846    
 
Density of states at Fermi energy :    15.39639562    
 (states/Hartree/unit cell)
 
Estimated indirect band gap :   0.3901083451E-03
 from k-point    140 to k-point     39
Estimated direct band gap   :   0.2927616367E-01
 at k-point     95
 
Charges :
 core                        :    28.00000000    
 valence                     :    14.00000000    
 interstitial                :    1.742138930    
 muffin-tins (core leakage)
  species :    1 (Mo)
   atom    1                 :    40.25786107     (  0.1083050435E-05)
 total in muffin-tins        :    40.25786107    
 total calculated charge     :    41.99997510    
 total charge                :    42.00000000    
 error                       :   0.2489765623E-04
 
Wrote STATE.OUT
 
RMS change in Kohn-Sham potential (target) :   0.1995437181E-03 (   10.00000000    )
Absolute change in total energy (target)   :   0.4608018571E-04 (  0.1000000000E-07)
 
Time (CPU seconds) :       203.98
 
+--------------------+
| Loop number :   19 |
+--------------------+
 
Energies :
 Fermi                       :     0.636220856792    
 sum of eigenvalues          :     -2399.75450957    
 electron kinetic            :      4204.92489171    
 core electron kinetic       :      4107.90395854    
 Coulomb                     :     -8130.45830509    
 Coulomb potential           :     -6438.35125725    
 nuclear-nuclear             :     -433.812138173    
 electron-nuclear            :     -8954.94107658    
 Hartree                     :      1258.29490966    
 Madelung                    :     -4911.28267647    
 xc potential                :     -166.328144020    
 exchange                    :     -123.096463436    
 correlation                 :     -2.22117148267    
 total energy                :     -4050.85104830    
 
Density of states at Fermi energy :    15.39646345    
 (states/Hartree/unit cell)
 
Estimated indirect band gap :   0.3901010329E-03
 from k-point    140 to k-point     39
Estimated direct band gap   :   0.2927615720E-01
 at k-point     95
 
Charges :
 core                        :    28.00000000    
 valence                     :    14.00000000    
 interstitial                :    1.742138989    
 muffin-tins (core leakage)
  species :    1 (Mo)
   atom    1                 :    40.25786101     (  0.1082915446E-05)
 total in muffin-tins        :    40.25786101    
 total calculated charge     :    41.99997510    
 total charge                :    42.00000000    
 error                       :   0.2489772250E-04
 
RMS change in Kohn-Sham potential (target) :   0.3969297794E-03 (   10.00000000    )
Absolute change in total energy (target)   :   0.2167994626E-04 (  0.1000000000E-07)
 
Time (CPU seconds) :       214.99
 
+--------------------+
| Loop number :   20 |
+--------------------+
 
Energies :
 Fermi                       :     0.636220718418    
 sum of eigenvalues          :     -2399.75452149    
 electron kinetic            :      4204.92488606    
 core electron kinetic       :      4107.90395307    
 Coulomb                     :     -8130.45831514    
 Coulomb potential           :     -6438.35126323    
 nuclear-nuclear             :     -433.812138173    
 electron-nuclear            :     -8954.94109071    
 Hartree                     :      1258.29491374    
 Madelung                    :     -4911.28268353    
 xc potential                :     -166.328144325    
 exchange                    :     -123.096463667    
 correlation                 :     -2.22117148498    
 total energy                :     -4050.85106423    
 
Density of states at Fermi energy :    15.39659422    
 (states/Hartree/unit cell)
 
Estimated indirect band gap :   0.3900837098E-03
 from k-point    140 to k-point     39
Estimated direct band gap   :   0.2927616161E-01
 at k-point     95
 
Charges :
 core                        :    28.00000000    
 valence                     :    14.00000000    
 interstitial                :    1.742139107    
 muffin-tins (core leakage)
  species :    1 (Mo)
   atom    1                 :    40.25786089     (  0.1083186493E-05)
 total in muffin-tins        :    40.25786089    
 total calculated charge     :    41.99997510    
 total charge                :    42.00000000    
 error                       :   0.2489809612E-04
 
Wrote STATE.OUT
 
RMS change in Kohn-Sham potential (target) :   0.2288882060E-04 (   10.00000000    )
Absolute change in total energy (target)   :   0.1050993887E-04 (  0.1000000000E-07)
 
Time (CPU seconds) :       226.02
 
+--------------------+
| Loop number :   21 |
+--------------------+
 
Energies :
 Fermi                       :     0.636220894031    
 sum of eigenvalues          :     -2399.75451306    
 electron kinetic            :      4204.92491131    
 core electron kinetic       :      4107.90397979    
 Coulomb                     :     -8130.45832903    
 Coulomb potential           :     -6438.35127971    
 nuclear-nuclear             :     -433.812138173    
 electron-nuclear            :     -8954.94110201    
 Hartree                     :      1258.29491115    
 Madelung                    :     -4911.28268918    
 xc potential                :     -166.328144656    
 exchange                    :     -123.096463986    
 correlation                 :     -2.22117148704    
 total energy                :     -4050.85105319    
 
Density of states at Fermi energy :    15.39699777    
 (states/Hartree/unit cell)
 
Estimated indirect band gap :   0.3900349515E-03
 from k-point    140 to k-point     39
Estimated direct band gap   :   0.2927614989E-01
 at k-point     95
 
Charges :
 core                        :    28.00000000    
 valence                     :    14.00000000    
 interstitial                :    1.742139484    
 muffin-tins (core leakage)
  species :    1 (Mo)
   atom    1                 :    40.25786052     (  0.1083082292E-05)
 total in muffin-tins        :    40.25786052    
 total calculated charge     :    41.99997510    
 total charge                :    42.00000000    
 error                       :   0.2489852983E-04
 
RMS change in Kohn-Sham potential (target) :   0.8622195307E-04 (   10.00000000    )
Absolute change in total energy (target)   :   0.8410663213E-05 (  0.1000000000E-07)
 
Time (CPU seconds) :       237.04
 
+--------------------+
| Loop number :   22 |
+--------------------+
 
Energies :
 Fermi                       :     0.636220863171    
 sum of eigenvalues          :     -2399.75451460    
 electron kinetic            :      4204.92490655    
 core electron kinetic       :      4107.90397313    
 Coulomb                     :     -8130.45832603    
 Coulomb potential           :     -6438.35127653    
 nuclear-nuclear             :     -433.812138173    
 electron-nuclear            :     -8954.94109918    
 Hartree                     :      1258.29491132    
 Madelung                    :     -4911.28268776    
 xc potential                :     -166.328144621    
 exchange                    :     -123.096463655    
 correlation                 :     -2.22117152252    
 total energy                :     -4050.85105466    
 
Density of states at Fermi energy :    15.39696318    
 (states/Hartree/unit cell)
 
Estimated indirect band gap :   0.3900390485E-03
 from k-point    140 to k-point     39
Estimated direct band gap   :   0.2927615134E-01
 at k-point     95
 
Charges :
 core                        :    28.00000000    
 valence                     :    14.00000000    
 interstitial                :    1.742139451    
 muffin-tins (core leakage)
  species :    1 (Mo)
   atom    1                 :    40.25786055     (  0.1083090655E-05)
 total in muffin-tins        :    40.25786055    
 total calculated charge     :    41.99997510    
 total charge                :    42.00000000    
 error                       :   0.2489848514E-04
 
Wrote STATE.OUT
 
RMS change in Kohn-Sham potential (target) :   0.1444581164E-03 (   10.00000000    )
Absolute change in total energy (target)   :   0.6397344805E-06 (  0.1000000000E-07)
 
Time (CPU seconds) :       248.00
 
+--------------------+
| Loop number :   23 |
+--------------------+
 
Energies :
 Fermi                       :     0.636220834983    
 sum of eigenvalues          :     -2399.75451321    
 electron kinetic            :      4204.92490944    
 core electron kinetic       :      4107.90397356    
 Coulomb                     :     -8130.45832681    
 Coulomb potential           :     -6438.35127809    
 nuclear-nuclear             :     -433.812138173    
 electron-nuclear            :     -8954.94109918    
 Hartree                     :      1258.29491055    
 Madelung                    :     -4911.28268776    
 xc potential                :     -166.328144559    
 exchange                    :     -123.096463912    
 correlation                 :     -2.22117148702    
 total energy                :     -4050.85105277    
 
Density of states at Fermi energy :    15.39698438    
 (states/Hartree/unit cell)
 
Estimated indirect band gap :   0.3900370307E-03
 from k-point    140 to k-point     39
Estimated direct band gap   :   0.2927614794E-01
 at k-point     95
 
Charges :
 core                        :    28.00000000    
 valence                     :    14.00000000    
 interstitial                :    1.742139467    
 muffin-tins (core leakage)
  species :    1 (Mo)
   atom    1                 :    40.25786053     (  0.1083016286E-05)
 total in muffin-tins        :    40.25786053    
 total calculated charge     :    41.99997510    
 total charge                :    42.00000000    
 error                       :   0.2489850704E-04
 
RMS change in Kohn-Sham potential (target) :   0.3213952588E-04 (   10.00000000    )
Absolute change in total energy (target)   :   0.2046998816E-05 (  0.1000000000E-07)
 
Time (CPU seconds) :       259.09
 
+--------------------+
| Loop number :   24 |
+--------------------+
 
Energies :
 Fermi                       :     0.636220756238    
 sum of eigenvalues          :     -2399.75451286    
 electron kinetic            :      4204.92490562    
 core electron kinetic       :      4107.90396619    
 Coulomb                     :     -8130.45832058    
 Coulomb potential           :     -6438.35127410    
 nuclear-nuclear             :     -433.812138173    
 electron-nuclear            :     -8954.94109071    
 Hartree                     :      1258.29490830    
 Madelung                    :     -4911.28268353    
 xc potential                :     -166.328144380    
 exchange                    :     -123.096463779    
 correlation                 :     -2.22117148450    
 total energy                :     -4050.85105022    
 
Density of states at Fermi energy :    15.39692036    
 (states/Hartree/unit cell)
 
Estimated indirect band gap :   0.3900455221E-03
 from k-point    140 to k-point     39
Estimated direct band gap   :   0.2927614597E-01
 at k-point     95
 
Charges :
 core                        :    28.00000000    
 valence                     :    14.00000000    
 interstitial                :    1.742139402    
 muffin-tins (core leakage)
  species :    1 (Mo)
   atom    1                 :    40.25786060     (  0.1083065836E-05)
 total in muffin-tins        :    40.25786060    
 total calculated charge     :    41.99997510    
 total charge                :    42.00000000    
 error                       :   0.2489855714E-04
 
Wrote STATE.OUT
 
RMS change in Kohn-Sham potential (target) :   0.1711262916E-03 (   10.00000000    )
Absolute change in total energy (target)   :   0.3059300980E-05 (  0.1000000000E-07)
 
Time (CPU seconds) :       270.12
 
+--------------------+
| Loop number :   25 |
+--------------------+
 
Energies :
 Fermi                       :     0.636220755091    
 sum of eigenvalues          :     -2399.75451115    
 electron kinetic            :      4204.92490692    
 core electron kinetic       :      4107.90396577    
 Coulomb                     :     -8130.45831898    
 Coulomb potential           :     -6438.35127374    
 nuclear-nuclear             :     -433.812138173    
 electron-nuclear            :     -8954.94108788    
 Hartree                     :      1258.29490707    
 Madelung                    :     -4911.28268211    
 xc potential                :     -166.328144327    
 exchange                    :     -123.096463744    
 correlation                 :     -2.22117148420    
 total energy                :     -4050.85104729    
 
Density of states at Fermi energy :    15.39692677    
 (states/Hartree/unit cell)
 
Estimated indirect band gap :   0.3900451374E-03
 from k-point    140 to k-point     39
Estimated direct band gap   :   0.2927614375E-01
 at k-point     95
 
Charges :
 core                        :    28.00000000    
 valence                     :    14.00000000    
 interstitial                :    1.742139406    
 muffin-tins (core leakage)
  species :    1 (Mo)
   atom    1                 :    40.25786059     (  0.1083003752E-05)
 total in muffin-tins        :    40.25786059    
 total calculated charge     :    41.99997510    
 total charge                :    42.00000000    
 error                       :   0.2489856139E-04
 
RMS change in Kohn-Sham potential (target) :   0.7288188050E-04 (   10.00000000    )
Absolute change in total energy (target)   :   0.3692945029E-05 (  0.1000000000E-07)
 
Time (CPU seconds) :       281.10
 
+--------------------+
| Loop number :   26 |
+--------------------+
 
Energies :
 Fermi                       :     0.636220731332    
 sum of eigenvalues          :     -2399.75451080    
 electron kinetic            :      4204.92490803    
 core electron kinetic       :      4107.90396671    
 Coulomb                     :     -8130.45831867    
 Coulomb potential           :     -6438.35127452    
 nuclear-nuclear             :     -433.812138173    
 electron-nuclear            :     -8954.94108647    
 Hartree                     :      1258.29490598    
 Madelung                    :     -4911.28268141    
 xc potential                :     -166.328144309    
 exchange                    :     -123.096463739    
 correlation                 :     -2.22117148413    
 total energy                :     -4050.85104586    
 
Density of states at Fermi energy :    15.39696086    
 (states/Hartree/unit cell)
 
Estimated indirect band gap :   0.3900412873E-03
 from k-point    140 to k-point     39
Estimated direct band gap   :   0.2927614139E-01
 at k-point     95
 
Charges :
 core                        :    28.00000000    
 valence                     :    14.00000000    
 interstitial                :    1.742139436    
 muffin-tins (core leakage)
  species :    1 (Mo)
   atom    1                 :    40.25786056     (  0.1083159379E-05)
 total in muffin-tins        :    40.25786056    
 total calculated charge     :    41.99997510    
 total charge                :    42.00000000    
 error                       :   0.2489877711E-04
 
Wrote STATE.OUT
 
RMS change in Kohn-Sham potential (target) :   0.1706521187E-03 (   10.00000000    )
Absolute change in total energy (target)   :   0.2356279765E-05 (  0.1000000000E-07)
 
Time (CPU seconds) :       292.23
 
+--------------------+
| Loop number :   27 |
+--------------------+
 
Energies :
 Fermi                       :     0.636220723459    
 sum of eigenvalues          :     -2399.75451105    
 electron kinetic            :      4204.92490721    
 core electron kinetic       :      4107.90396588    
 Coulomb                     :     -8130.45831839    
 Coulomb potential           :     -6438.35127396    
 nuclear-nuclear             :     -433.812138173    
 electron-nuclear            :     -8954.94108647    
 Hartree                     :      1258.29490625    
 Madelung                    :     -4911.28268141    
 xc potential                :     -166.328144298    
 exchange                    :     -123.096463729    
 correlation                 :     -2.22117148369    
 total energy                :     -4050.85104639    
 
Density of states at Fermi energy :    15.39694987    
 (states/Hartree/unit cell)
 
Estimated indirect band gap :   0.3900426468E-03
 from k-point    140 to k-point     39
Estimated direct band gap   :   0.2927614155E-01
 at k-point     95
 
Charges :
 core                        :    28.00000000    
 valence                     :    14.00000000    
 interstitial                :    1.742139426    
 muffin-tins (core leakage)
  species :    1 (Mo)
   atom    1                 :    40.25786057     (  0.1083007866E-05)
 total in muffin-tins        :    40.25786057    
 total calculated charge     :    41.99997510    
 total charge                :    42.00000000    
 error                       :   0.2489860517E-04
 
RMS change in Kohn-Sham potential (target) :   0.2021786879E-04 (   10.00000000    )
Absolute change in total energy (target)   :   0.6153550203E-07 (  0.1000000000E-07)
 
Time (CPU seconds) :       303.19
 
+--------------------+
| Loop number :   28 |
+--------------------+
 
Energies :
 Fermi                       :     0.636220705615    
 sum of eigenvalues          :     -2399.75451131    
 electron kinetic            :      4204.92490704    
 core electron kinetic       :      4107.90396577    
 Coulomb                     :     -8130.45831773    
 Coulomb potential           :     -6438.35127406    
 nuclear-nuclear             :     -433.812138173    
 electron-nuclear            :     -8954.94108506    
 Hartree                     :      1258.29490550    
 Madelung                    :     -4911.28268070    
 xc potential                :     -166.328144286    
 exchange                    :     -123.096463724    
 correlation                 :     -2.22117148350    
 total energy                :     -4050.85104590    
 
Density of states at Fermi energy :    15.39695918    
 (states/Hartree/unit cell)
 
Estimated indirect band gap :   0.3900416183E-03
 from k-point    140 to k-point     39
Estimated direct band gap   :   0.2927614079E-01
 at k-point     95
 
Charges :
 core                        :    28.00000000    
 valence                     :    14.00000000    
 interstitial                :    1.742139434    
 muffin-tins (core leakage)
  species :    1 (Mo)
   atom    1                 :    40.25786057     (  0.1083026920E-05)
 total in muffin-tins        :    40.25786057    
 total calculated charge     :    41.99997510    
 total charge                :    42.00000000    
 error                       :   0.2489865389E-04
 
Wrote STATE.OUT
 
RMS change in Kohn-Sham potential (target) :   0.2813729178E-04 (   10.00000000    )
Absolute change in total energy (target)   :   0.5034808055E-06 (  0.1000000000E-07)
 
Time (CPU seconds) :       314.01
 
+--------------------+
| Loop number :   29 |
+--------------------+
 
Energies :
 Fermi                       :     0.636220685177    
 sum of eigenvalues          :     -2399.75451169    
 electron kinetic            :      4204.92490657    
 core electron kinetic       :      4107.90396534    
 Coulomb                     :     -8130.45831770    
 Coulomb potential           :     -6438.35127399    
 nuclear-nuclear             :     -433.812138173    
 electron-nuclear            :     -8954.94108506    
 Hartree                     :      1258.29490553    
 Madelung                    :     -4911.28268070    
 xc potential                :     -166.328144274    
 exchange                    :     -123.096463716    
 correlation                 :     -2.22117148335    
 total energy                :     -4050.85104633    
 
Density of states at Fermi energy :    15.39696557    
 (states/Hartree/unit cell)
 
Estimated indirect band gap :   0.3900409475E-03
 from k-point    140 to k-point     39
Estimated direct band gap   :   0.2927614010E-01
 at k-point     95
 
Charges :
 core                        :    28.00000000    
 valence                     :    14.00000000    
 interstitial                :    1.742139439    
 muffin-tins (core leakage)
  species :    1 (Mo)
   atom    1                 :    40.25786056     (  0.1083057267E-05)
 total in muffin-tins        :    40.25786056    
 total calculated charge     :    41.99997510    
 total charge                :    42.00000000    
 error                       :   0.2489871454E-04
 
RMS change in Kohn-Sham potential (target) :   0.2051441836E-04 (   10.00000000    )
Absolute change in total energy (target)   :   0.2996694093E-06 (  0.1000000000E-07)
 
Time (CPU seconds) :       325.10
 
+--------------------+
| Loop number :   30 |
+--------------------+
 
Energies :
 Fermi                       :     0.636220681257    
 sum of eigenvalues          :     -2399.75451179    
 electron kinetic            :      4204.92490645    
 core electron kinetic       :      4107.90396509    
 Coulomb                     :     -8130.45831769    
 Coulomb potential           :     -6438.35127397    
 nuclear-nuclear             :     -433.812138173    
 electron-nuclear            :     -8954.94108506    
 Hartree                     :      1258.29490555    
 Madelung                    :     -4911.28268070    
 xc potential                :     -166.328144271    
 exchange                    :     -123.096463713    
 correlation                 :     -2.22117148349    
 total energy                :     -4050.85104644    
 
Density of states at Fermi energy :    15.39696471    
 (states/Hartree/unit cell)
 
Estimated indirect band gap :   0.3900410651E-03
 from k-point    140 to k-point     39
Estimated direct band gap   :   0.2927614005E-01
 at k-point     95
 
Charges :
 core                        :    28.00000000    
 valence                     :    14.00000000    
 interstitial                :    1.742139438    
 muffin-tins (core leakage)
  species :    1 (Mo)
   atom    1                 :    40.25786056     (  0.1083125575E-05)
 total in muffin-tins        :    40.25786056    
 total calculated charge     :    41.99997510    
 total charge                :    42.00000000    
 error                       :   0.2489878005E-04
 
Wrote STATE.OUT
 
RMS change in Kohn-Sham potential (target) :   0.2189318671E-03 (   10.00000000    )
Absolute change in total energy (target)   :   0.1848061402E-06 (  0.1000000000E-07)
 
Time (CPU seconds) :       336.04
 
+--------------------+
| Loop number :   31 |
+--------------------+
 
Energies :
 Fermi                       :     0.636220698812    
 sum of eigenvalues          :     -2399.75451142    
 electron kinetic            :      4204.92490670    
 core electron kinetic       :      4107.90396552    
 Coulomb                     :     -8130.45831762    
 Coulomb potential           :     -6438.35127384    
 nuclear-nuclear             :     -433.812138173    
 electron-nuclear            :     -8954.94108506    
 Hartree                     :      1258.29490561    
 Madelung                    :     -4911.28268070    
 xc potential                :     -166.328144277    
 exchange                    :     -123.096463715    
 correlation                 :     -2.22117148378    
 total energy                :     -4050.85104612    
 
Density of states at Fermi energy :    15.39695665    
 (states/Hartree/unit cell)
 
Estimated indirect band gap :   0.3900419519E-03
 from k-point    140 to k-point     39
Estimated direct band gap   :   0.2927614073E-01
 at k-point     95
 
Charges :
 core                        :    28.00000000    
 valence                     :    14.00000000    
 interstitial                :    1.742139431    
 muffin-tins (core leakage)
  species :    1 (Mo)
   atom    1                 :    40.25786057     (  0.1082949368E-05)
 total in muffin-tins        :    40.25786057    
 total calculated charge     :    41.99997510    
 total charge                :    42.00000000    
 error                       :   0.2489859143E-04
 
RMS change in Kohn-Sham potential (target) :   0.1012380804E-03 (   10.00000000    )
Absolute change in total energy (target)   :   0.2652832336E-06 (  0.1000000000E-07)
 
Time (CPU seconds) :       347.12
 
+--------------------+
| Loop number :   32 |
+--------------------+
 
Energies :
 Fermi                       :     0.636220672804    
 sum of eigenvalues          :     -2399.75451201    
 electron kinetic            :      4204.92490619    
 core electron kinetic       :      4107.90396527    
 Coulomb                     :     -8130.45831767    
 Coulomb potential           :     -6438.35127394    
 nuclear-nuclear             :     -433.812138173    
 electron-nuclear            :     -8954.94108506    
 Hartree                     :      1258.29490556    
 Madelung                    :     -4911.28268070    
 xc potential                :     -166.328144265    
 exchange                    :     -123.096463710    
 correlation                 :     -2.22117148346    
 total energy                :     -4050.85104667    
 
Density of states at Fermi energy :    15.39696708    
 (states/Hartree/unit cell)
 
Estimated indirect band gap :   0.3900408078E-03
 from k-point    140 to k-point     39
Estimated direct band gap   :   0.2927613984E-01
 at k-point     95
 
Charges :
 core                        :    28.00000000    
 valence                     :    14.00000000    
 interstitial                :    1.742139440    
 muffin-tins (core leakage)
  species :    1 (Mo)
   atom    1                 :    40.25786056     (  0.1083170961E-05)
 total in muffin-tins        :    40.25786056    
 total calculated charge     :    41.99997510    
 total charge                :    42.00000000    
 error                       :   0.2489884822E-04
 
Wrote STATE.OUT
 
RMS change in Kohn-Sham potential (target) :   0.3077612162E-04 (   10.00000000    )
Absolute change in total energy (target)   :   0.4823650670E-06 (  0.1000000000E-07)
 
Time (CPU seconds) :       358.07
 
+--------------------+
| Loop number :   33 |
+--------------------+
 
Energies :
 Fermi                       :     0.636220659341    
 sum of eigenvalues          :     -2399.75451240    
 electron kinetic            :      4204.92490587    
 core electron kinetic       :      4107.90396532    
 Coulomb                     :     -8130.45831771    
 Coulomb potential           :     -6438.35127401    
 nuclear-nuclear             :     -433.812138173    
 electron-nuclear            :     -8954.94108506    
 Hartree                     :      1258.29490553    
 Madelung                    :     -4911.28268070    
 xc potential                :     -166.328144265    
 exchange                    :     -123.096463710    
 correlation                 :     -2.22117148358    
 total energy                :     -4050.85104703    
 
Density of states at Fermi energy :    15.39697301    
 (states/Hartree/unit cell)
 
Estimated indirect band gap :   0.3900401330E-03
 from k-point    140 to k-point     39
Estimated direct band gap   :   0.2927613946E-01
 at k-point     95
 
Charges :
 core                        :    28.00000000    
 valence                     :    14.00000000    
 interstitial                :    1.742139445    
 muffin-tins (core leakage)
  species :    1 (Mo)
   atom    1                 :    40.25786056     (  0.1082979296E-05)
 total in muffin-tins        :    40.25786056    
 total calculated charge     :    41.99997510    
 total charge                :    42.00000000    
 error                       :   0.2489867206E-04
 
RMS change in Kohn-Sham potential (target) :   0.3925561759E-03 (   10.00000000    )
Absolute change in total energy (target)   :   0.4762346180E-06 (  0.1000000000E-07)
 
Time (CPU seconds) :       369.00
 
+--------------------+
| Loop number :   34 |
+--------------------+
 
Energies :
 Fermi                       :     0.636220644217    
 sum of eigenvalues          :     -2399.75451287    
 electron kinetic            :      4204.92490554    
 core electron kinetic       :      4107.90396504    
 Coulomb                     :     -8130.45831777    
 Coulomb potential           :     -6438.35127415    
 nuclear-nuclear             :     -433.812138173    
 electron-nuclear            :     -8954.94108506    
 Hartree                     :      1258.29490546    
 Madelung                    :     -4911.28268070    
 xc potential                :     -166.328144263    
 exchange                    :     -123.096463711    
 correlation                 :     -2.22117148326    
 total energy                :     -4050.85104743    
 
Density of states at Fermi energy :    15.39698001    
 (states/Hartree/unit cell)
 
Estimated indirect band gap :   0.3900393322E-03
 from k-point    140 to k-point     39
Estimated direct band gap   :   0.2927613903E-01
 at k-point     95
 
Charges :
 core                        :    28.00000000    
 valence                     :    14.00000000    
 interstitial                :    1.742139451    
 muffin-tins (core leakage)
  species :    1 (Mo)
   atom    1                 :    40.25786055     (  0.1083115272E-05)
 total in muffin-tins        :    40.25786055    
 total calculated charge     :    41.99997510    
 total charge                :    42.00000000    
 error                       :   0.2489880700E-04
 
Wrote STATE.OUT
 
RMS change in Kohn-Sham potential (target) :   0.1037355304E-03 (   10.00000000    )
Absolute change in total energy (target)   :   0.5204242370E-06 (  0.1000000000E-07)
 
Time (CPU seconds) :       380.09
 
+--------------------+
| Loop number :   35 |
+--------------------+
 
Energies :
 Fermi                       :     0.636220653043    
 sum of eigenvalues          :     -2399.75451267    
 electron kinetic            :      4204.92490573    
 core electron kinetic       :      4107.90396522    
 Coulomb                     :     -8130.45831777    
 Coulomb potential           :     -6438.35127413    
 nuclear-nuclear             :     -433.812138173    
 electron-nuclear            :     -8954.94108506    
 Hartree                     :      1258.29490546    
 Madelung                    :     -4911.28268070    
 xc potential                :     -166.328144267    
 exchange                    :     -123.096463712    
 correlation                 :     -2.22117148376    
 total energy                :     -4050.85104723    
 
Density of states at Fermi energy :    15.39697666    
 (states/Hartree/unit cell)
 
Estimated indirect band gap :   0.3900396972E-03
 from k-point    140 to k-point     39
Estimated direct band gap   :   0.2927613933E-01
 at k-point     95
 
Charges :
 core                        :    28.00000000    
 valence                     :    14.00000000    
 interstitial                :    1.742139448    
 muffin-tins (core leakage)
  species :    1 (Mo)
   atom    1                 :    40.25786055     (  0.1082986788E-05)
 total in muffin-tins        :    40.25786055    
 total calculated charge     :    41.99997510    
 total charge                :    42.00000000    
 error                       :   0.2489867556E-04
 
RMS change in Kohn-Sham potential (target) :   0.9747648980E-05 (   10.00000000    )
Absolute change in total energy (target)   :   0.6702339306E-07 (  0.1000000000E-07)
 
Time (CPU seconds) :       391.11
 
+--------------------+
| Loop number :   36 |
+--------------------+
 
Energies :
 Fermi                       :     0.636220652597    
 sum of eigenvalues          :     -2399.75451269    
 electron kinetic            :      4204.92490574    
 core electron kinetic       :      4107.90396522    
 Coulomb                     :     -8130.45831778    
 Coulomb potential           :     -6438.35127416    
 nuclear-nuclear             :     -433.812138173    
 electron-nuclear            :     -8954.94108506    
 Hartree                     :      1258.29490545    
 Madelung                    :     -4911.28268070    
 xc potential                :     -166.328144267    
 exchange                    :     -123.096463712    
 correlation                 :     -2.22117148356    
 total energy                :     -4050.85104724    
 
Density of states at Fermi energy :    15.39697687    
 (states/Hartree/unit cell)
 
Estimated indirect band gap :   0.3900396720E-03
 from k-point    140 to k-point     39
Estimated direct band gap   :   0.2927613932E-01
 at k-point     95
 
Charges :
 core                        :    28.00000000    
 valence                     :    14.00000000    
 interstitial                :    1.742139448    
 muffin-tins (core leakage)
  species :    1 (Mo)
   atom    1                 :    40.25786055     (  0.1083067531E-05)
 total in muffin-tins        :    40.25786055    
 total calculated charge     :    41.99997510    
 total charge                :    42.00000000    
 error                       :   0.2489876705E-04
 
Wrote STATE.OUT
 
RMS change in Kohn-Sham potential (target) :   0.2748339007E-04 (   10.00000000    )
Absolute change in total energy (target)   :   0.9869836504E-08 (  0.1000000000E-07)
 
Convergence targets achieved
 
Time (CPU seconds) :       402.16
 
+--------------------+
| Loop number :   37 |
+--------------------+
 
Energies :
 Fermi                       :     0.636220652987    
 sum of eigenvalues          :     -2399.75451268    
 electron kinetic            :      4204.92490568    
 core electron kinetic       :      4107.90396519    
 Coulomb                     :     -8130.45831775    
 Coulomb potential           :     -6438.35127409    
 nuclear-nuclear             :     -433.812138173    
 electron-nuclear            :     -8954.94108506    
 Hartree                     :      1258.29490548    
 Madelung                    :     -4911.28268070    
 xc potential                :     -166.328144266    
 exchange                    :     -123.096463710    
 correlation                 :     -2.22117148380    
 total energy                :     -4050.85104727    
 
Density of states at Fermi energy :    15.39697662    
 (states/Hartree/unit cell)
 
Estimated indirect band gap :   0.3900397016E-03
 from k-point    140 to k-point     39
Estimated direct band gap   :   0.2927613933E-01
 at k-point     95
 
Charges :
 core                        :    28.00000000    
 valence                     :    14.00000000    
 interstitial                :    1.742139448    
 muffin-tins (core leakage)
  species :    1 (Mo)
   atom    1                 :    40.25786055     (  0.1083174755E-05)
 total in muffin-tins        :    40.25786055    
 total calculated charge     :    41.99997510    
 total charge                :    42.00000000    
 error                       :   0.2489887576E-04
 
+------------------------------+
| Self-consistent loop stopped |
+------------------------------+
 
Wrote STATE.OUT
 
Timings (CPU seconds) :
 initialisation                        :         3.02
 Hamiltonian and overlap matrix set up :        57.46
 first-variational eigenvalue equation :        51.76
 charge density calculation            :        37.81
 potential calculation                 :       263.13
 total                                 :       413.18
 
+----------------------------+
| Elk version 8.3.15 stopped |
+----------------------------+
