   297 : nkpt; k-point, vkl, wkpt, nmat below
     1   0.000000000       0.000000000       0.000000000      0.2035416243E-03     553
     2  0.5882352941E-01   0.000000000       0.000000000      0.1221249746E-02     549
     3  0.1176470588       0.000000000       0.000000000      0.1221249746E-02     551
     4  0.1764705882       0.000000000       0.000000000      0.1221249746E-02     551
     5  0.2352941176       0.000000000       0.000000000      0.1221249746E-02     559
     6  0.2941176471       0.000000000       0.000000000      0.1221249746E-02     563
     7  0.3529411765       0.000000000       0.000000000      0.1221249746E-02     557
     8  0.4117647059       0.000000000       0.000000000      0.1221249746E-02     562
     9  0.4705882353       0.000000000       0.000000000      0.1221249746E-02     568
    10  0.5882352941E-01  0.5882352941E-01   0.000000000      0.1221249746E-02     547
    11  0.1176470588      0.5882352941E-01   0.000000000      0.2442499491E-02     552
    12  0.1764705882      0.5882352941E-01   0.000000000      0.2442499491E-02     555
    13  0.2352941176      0.5882352941E-01   0.000000000      0.2442499491E-02     560
    14  0.2941176471      0.5882352941E-01   0.000000000      0.2442499491E-02     560
    15  0.3529411765      0.5882352941E-01   0.000000000      0.2442499491E-02     561
    16  0.4117647059      0.5882352941E-01   0.000000000      0.2442499491E-02     565
    17  0.4705882353      0.5882352941E-01   0.000000000      0.1221249746E-02     568
    18  0.1176470588      0.1176470588       0.000000000      0.1221249746E-02     554
    19  0.1764705882      0.1176470588       0.000000000      0.2442499491E-02     552
    20  0.2352941176      0.1176470588       0.000000000      0.2442499491E-02     560
    21  0.2941176471      0.1176470588       0.000000000      0.2442499491E-02     566
    22  0.3529411765      0.1176470588       0.000000000      0.2442499491E-02     563
    23  0.4117647059      0.1176470588       0.000000000      0.2442499491E-02     563
    24  0.1764705882      0.1764705882       0.000000000      0.1221249746E-02     562
    25  0.2352941176      0.1764705882       0.000000000      0.2442499491E-02     567
    26  0.2941176471      0.1764705882       0.000000000      0.2442499491E-02     564
    27  0.3529411765      0.1764705882       0.000000000      0.2442499491E-02     565
    28  0.4117647059      0.1764705882       0.000000000      0.1221249746E-02     562
    29  0.2352941176      0.2352941176       0.000000000      0.1221249746E-02     564
    30  0.2941176471      0.2352941176       0.000000000      0.2442499491E-02     566
    31  0.3529411765      0.2352941176       0.000000000      0.2442499491E-02     566
    32  0.2941176471      0.2941176471       0.000000000      0.1221249746E-02     572
    33  0.3529411765      0.2941176471       0.000000000      0.1221249746E-02     562
    34   0.000000000       0.000000000      0.5882352941E-01  0.4070832485E-03     547
    35  0.5882352941E-01   0.000000000      0.5882352941E-01  0.2442499491E-02     549
    36  0.1176470588       0.000000000      0.5882352941E-01  0.2442499491E-02     548
    37  0.1764705882       0.000000000      0.5882352941E-01  0.2442499491E-02     551
    38  0.2352941176       0.000000000      0.5882352941E-01  0.2442499491E-02     560
    39  0.2941176471       0.000000000      0.5882352941E-01  0.2442499491E-02     557
    40  0.3529411765       0.000000000      0.5882352941E-01  0.2442499491E-02     561
    41  0.4117647059       0.000000000      0.5882352941E-01  0.2442499491E-02     564
    42  0.4705882353       0.000000000      0.5882352941E-01  0.2442499491E-02     571
    43  0.5882352941E-01  0.5882352941E-01  0.5882352941E-01  0.2442499491E-02     549
    44  0.1176470588      0.5882352941E-01  0.5882352941E-01  0.4884998982E-02     551
    45  0.1764705882      0.5882352941E-01  0.5882352941E-01  0.4884998982E-02     557
    46  0.2352941176      0.5882352941E-01  0.5882352941E-01  0.4884998982E-02     559
    47  0.2941176471      0.5882352941E-01  0.5882352941E-01  0.4884998982E-02     562
    48  0.3529411765      0.5882352941E-01  0.5882352941E-01  0.4884998982E-02     560
    49  0.4117647059      0.5882352941E-01  0.5882352941E-01  0.4884998982E-02     565
    50  0.4705882353      0.5882352941E-01  0.5882352941E-01  0.2442499491E-02     566
    51  0.1176470588      0.1176470588      0.5882352941E-01  0.2442499491E-02     552
    52  0.1764705882      0.1176470588      0.5882352941E-01  0.4884998982E-02     557
    53  0.2352941176      0.1176470588      0.5882352941E-01  0.4884998982E-02     562
    54  0.2941176471      0.1176470588      0.5882352941E-01  0.4884998982E-02     566
    55  0.3529411765      0.1176470588      0.5882352941E-01  0.4884998982E-02     561
    56  0.4117647059      0.1176470588      0.5882352941E-01  0.4884998982E-02     563
    57  0.1764705882      0.1764705882      0.5882352941E-01  0.2442499491E-02     559
    58  0.2352941176      0.1764705882      0.5882352941E-01  0.4884998982E-02     563
    59  0.2941176471      0.1764705882      0.5882352941E-01  0.4884998982E-02     565
    60  0.3529411765      0.1764705882      0.5882352941E-01  0.4884998982E-02     562
    61  0.4117647059      0.1764705882      0.5882352941E-01  0.2442499491E-02     563
    62  0.2352941176      0.2352941176      0.5882352941E-01  0.2442499491E-02     564
    63  0.2941176471      0.2352941176      0.5882352941E-01  0.4884998982E-02     567
    64  0.3529411765      0.2352941176      0.5882352941E-01  0.4884998982E-02     567
    65  0.2941176471      0.2941176471      0.5882352941E-01  0.2442499491E-02     568
    66  0.3529411765      0.2941176471      0.5882352941E-01  0.2442499491E-02     564
    67   0.000000000       0.000000000      0.1176470588      0.4070832485E-03     547
    68  0.5882352941E-01   0.000000000      0.1176470588      0.2442499491E-02     547
    69  0.1176470588       0.000000000      0.1176470588      0.2442499491E-02     550
    70  0.1764705882       0.000000000      0.1176470588      0.2442499491E-02     559
    71  0.2352941176       0.000000000      0.1176470588      0.2442499491E-02     558
    72  0.2941176471       0.000000000      0.1176470588      0.2442499491E-02     555
    73  0.3529411765       0.000000000      0.1176470588      0.2442499491E-02     565
    74  0.4117647059       0.000000000      0.1176470588      0.2442499491E-02     565
    75  0.4705882353       0.000000000      0.1176470588      0.2442499491E-02     569
    76  0.5882352941E-01  0.5882352941E-01  0.1176470588      0.2442499491E-02     550
    77  0.1176470588      0.5882352941E-01  0.1176470588      0.4884998982E-02     554
    78  0.1764705882      0.5882352941E-01  0.1176470588      0.4884998982E-02     556
    79  0.2352941176      0.5882352941E-01  0.1176470588      0.4884998982E-02     559
    80  0.2941176471      0.5882352941E-01  0.1176470588      0.4884998982E-02     560
    81  0.3529411765      0.5882352941E-01  0.1176470588      0.4884998982E-02     564
    82  0.4117647059      0.5882352941E-01  0.1176470588      0.4884998982E-02     565
    83  0.4705882353      0.5882352941E-01  0.1176470588      0.2442499491E-02     568
    84  0.1176470588      0.1176470588      0.1176470588      0.2442499491E-02     556
    85  0.1764705882      0.1176470588      0.1176470588      0.4884998982E-02     558
    86  0.2352941176      0.1176470588      0.1176470588      0.4884998982E-02     561
    87  0.2941176471      0.1176470588      0.1176470588      0.4884998982E-02     563
    88  0.3529411765      0.1176470588      0.1176470588      0.4884998982E-02     562
    89  0.4117647059      0.1176470588      0.1176470588      0.4884998982E-02     563
    90  0.1764705882      0.1764705882      0.1176470588      0.2442499491E-02     559
    91  0.2352941176      0.1764705882      0.1176470588      0.4884998982E-02     562
    92  0.2941176471      0.1764705882      0.1176470588      0.4884998982E-02     563
    93  0.3529411765      0.1764705882      0.1176470588      0.4884998982E-02     562
    94  0.4117647059      0.1764705882      0.1176470588      0.2442499491E-02     561
    95  0.2352941176      0.2352941176      0.1176470588      0.2442499491E-02     560
    96  0.2941176471      0.2352941176      0.1176470588      0.4884998982E-02     566
    97  0.3529411765      0.2352941176      0.1176470588      0.4884998982E-02     564
    98  0.2941176471      0.2941176471      0.1176470588      0.2442499491E-02     566
    99  0.3529411765      0.2941176471      0.1176470588      0.2442499491E-02     567
   100   0.000000000       0.000000000      0.1764705882      0.4070832485E-03     548
   101  0.5882352941E-01   0.000000000      0.1764705882      0.2442499491E-02     549
   102  0.1176470588       0.000000000      0.1764705882      0.2442499491E-02     551
   103  0.1764705882       0.000000000      0.1764705882      0.2442499491E-02     561
   104  0.2352941176       0.000000000      0.1764705882      0.2442499491E-02     557
   105  0.2941176471       0.000000000      0.1764705882      0.2442499491E-02     560
   106  0.3529411765       0.000000000      0.1764705882      0.2442499491E-02     561
   107  0.4117647059       0.000000000      0.1764705882      0.2442499491E-02     565
   108  0.4705882353       0.000000000      0.1764705882      0.2442499491E-02     570
   109  0.5882352941E-01  0.5882352941E-01  0.1764705882      0.2442499491E-02     554
   110  0.1176470588      0.5882352941E-01  0.1764705882      0.4884998982E-02     556
   111  0.1764705882      0.5882352941E-01  0.1764705882      0.4884998982E-02     557
   112  0.2352941176      0.5882352941E-01  0.1764705882      0.4884998982E-02     559
   113  0.2941176471      0.5882352941E-01  0.1764705882      0.4884998982E-02     562
   114  0.3529411765      0.5882352941E-01  0.1764705882      0.4884998982E-02     564
   115  0.4117647059      0.5882352941E-01  0.1764705882      0.4884998982E-02     565
   116  0.4705882353      0.5882352941E-01  0.1764705882      0.2442499491E-02     569
   117  0.1176470588      0.1176470588      0.1764705882      0.2442499491E-02     555
   118  0.1764705882      0.1176470588      0.1764705882      0.4884998982E-02     558
   119  0.2352941176      0.1176470588      0.1764705882      0.4884998982E-02     563
   120  0.2941176471      0.1176470588      0.1764705882      0.4884998982E-02     563
   121  0.3529411765      0.1176470588      0.1764705882      0.4884998982E-02     564
   122  0.4117647059      0.1176470588      0.1764705882      0.4884998982E-02     564
   123  0.1764705882      0.1764705882      0.1764705882      0.2442499491E-02     560
   124  0.2352941176      0.1764705882      0.1764705882      0.4884998982E-02     564
   125  0.2941176471      0.1764705882      0.1764705882      0.4884998982E-02     561
   126  0.3529411765      0.1764705882      0.1764705882      0.4884998982E-02     560
   127  0.4117647059      0.1764705882      0.1764705882      0.2442499491E-02     563
   128  0.2352941176      0.2352941176      0.1764705882      0.2442499491E-02     563
   129  0.2941176471      0.2352941176      0.1764705882      0.4884998982E-02     564
   130  0.3529411765      0.2352941176      0.1764705882      0.4884998982E-02     564
   131  0.2941176471      0.2941176471      0.1764705882      0.2442499491E-02     566
   132  0.3529411765      0.2941176471      0.1764705882      0.2442499491E-02     567
   133   0.000000000       0.000000000      0.2352941176      0.4070832485E-03     548
   134  0.5882352941E-01   0.000000000      0.2352941176      0.2442499491E-02     550
   135  0.1176470588       0.000000000      0.2352941176      0.2442499491E-02     557
   136  0.1764705882       0.000000000      0.2352941176      0.2442499491E-02     559
   137  0.2352941176       0.000000000      0.2352941176      0.2442499491E-02     557
   138  0.2941176471       0.000000000      0.2352941176      0.2442499491E-02     560
   139  0.3529411765       0.000000000      0.2352941176      0.2442499491E-02     562
   140  0.4117647059       0.000000000      0.2352941176      0.2442499491E-02     560
   141  0.4705882353       0.000000000      0.2352941176      0.2442499491E-02     571
   142  0.5882352941E-01  0.5882352941E-01  0.2352941176      0.2442499491E-02     554
   143  0.1176470588      0.5882352941E-01  0.2352941176      0.4884998982E-02     556
   144  0.1764705882      0.5882352941E-01  0.2352941176      0.4884998982E-02     559
   145  0.2352941176      0.5882352941E-01  0.2352941176      0.4884998982E-02     560
   146  0.2941176471      0.5882352941E-01  0.2352941176      0.4884998982E-02     563
   147  0.3529411765      0.5882352941E-01  0.2352941176      0.4884998982E-02     564
   148  0.4117647059      0.5882352941E-01  0.2352941176      0.4884998982E-02     566
   149  0.4705882353      0.5882352941E-01  0.2352941176      0.2442499491E-02     567
   150  0.1176470588      0.1176470588      0.2352941176      0.2442499491E-02     555
   151  0.1764705882      0.1176470588      0.2352941176      0.4884998982E-02     557
   152  0.2352941176      0.1176470588      0.2352941176      0.4884998982E-02     561
   153  0.2941176471      0.1176470588      0.2352941176      0.4884998982E-02     561
   154  0.3529411765      0.1176470588      0.2352941176      0.4884998982E-02     566
   155  0.4117647059      0.1176470588      0.2352941176      0.4884998982E-02     565
   156  0.1764705882      0.1764705882      0.2352941176      0.2442499491E-02     564
   157  0.2352941176      0.1764705882      0.2352941176      0.4884998982E-02     561
   158  0.2941176471      0.1764705882      0.2352941176      0.4884998982E-02     561
   159  0.3529411765      0.1764705882      0.2352941176      0.4884998982E-02     564
   160  0.4117647059      0.1764705882      0.2352941176      0.2442499491E-02     569
   161  0.2352941176      0.2352941176      0.2352941176      0.2442499491E-02     561
   162  0.2941176471      0.2352941176      0.2352941176      0.4884998982E-02     563
   163  0.3529411765      0.2352941176      0.2352941176      0.4884998982E-02     565
   164  0.2941176471      0.2941176471      0.2352941176      0.2442499491E-02     566
   165  0.3529411765      0.2941176471      0.2352941176      0.2442499491E-02     571
   166   0.000000000       0.000000000      0.2941176471      0.4070832485E-03     554
   167  0.5882352941E-01   0.000000000      0.2941176471      0.2442499491E-02     558
   168  0.1176470588       0.000000000      0.2941176471      0.2442499491E-02     557
   169  0.1764705882       0.000000000      0.2941176471      0.2442499491E-02     555
   170  0.2352941176       0.000000000      0.2941176471      0.2442499491E-02     558
   171  0.2941176471       0.000000000      0.2941176471      0.2442499491E-02     560
   172  0.3529411765       0.000000000      0.2941176471      0.2442499491E-02     562
   173  0.4117647059       0.000000000      0.2941176471      0.2442499491E-02     567
   174  0.4705882353       0.000000000      0.2941176471      0.2442499491E-02     566
   175  0.5882352941E-01  0.5882352941E-01  0.2941176471      0.2442499491E-02     556
   176  0.1176470588      0.5882352941E-01  0.2941176471      0.4884998982E-02     557
   177  0.1764705882      0.5882352941E-01  0.2941176471      0.4884998982E-02     560
   178  0.2352941176      0.5882352941E-01  0.2941176471      0.4884998982E-02     560
   179  0.2941176471      0.5882352941E-01  0.2941176471      0.4884998982E-02     562
   180  0.3529411765      0.5882352941E-01  0.2941176471      0.4884998982E-02     562
   181  0.4117647059      0.5882352941E-01  0.2941176471      0.4884998982E-02     565
   182  0.4705882353      0.5882352941E-01  0.2941176471      0.2442499491E-02     565
   183  0.1176470588      0.1176470588      0.2941176471      0.2442499491E-02     555
   184  0.1764705882      0.1176470588      0.2941176471      0.4884998982E-02     560
   185  0.2352941176      0.1176470588      0.2941176471      0.4884998982E-02     563
   186  0.2941176471      0.1176470588      0.2941176471      0.4884998982E-02     561
   187  0.3529411765      0.1176470588      0.2941176471      0.4884998982E-02     565
   188  0.4117647059      0.1176470588      0.2941176471      0.4884998982E-02     565
   189  0.1764705882      0.1764705882      0.2941176471      0.2442499491E-02     566
   190  0.2352941176      0.1764705882      0.2941176471      0.4884998982E-02     562
   191  0.2941176471      0.1764705882      0.2941176471      0.4884998982E-02     565
   192  0.3529411765      0.1764705882      0.2941176471      0.4884998982E-02     564
   193  0.4117647059      0.1764705882      0.2941176471      0.2442499491E-02     568
   194  0.2352941176      0.2352941176      0.2941176471      0.2442499491E-02     563
   195  0.2941176471      0.2352941176      0.2941176471      0.4884998982E-02     564
   196  0.3529411765      0.2352941176      0.2941176471      0.4884998982E-02     565
   197  0.2941176471      0.2941176471      0.2941176471      0.2442499491E-02     564
   198  0.3529411765      0.2941176471      0.2941176471      0.2442499491E-02     567
   199   0.000000000       0.000000000      0.3529411765      0.4070832485E-03     554
   200  0.5882352941E-01   0.000000000      0.3529411765      0.2442499491E-02     560
   201  0.1176470588       0.000000000      0.3529411765      0.2442499491E-02     558
   202  0.1764705882       0.000000000      0.3529411765      0.2442499491E-02     560
   203  0.2352941176       0.000000000      0.3529411765      0.2442499491E-02     561
   204  0.2941176471       0.000000000      0.3529411765      0.2442499491E-02     566
   205  0.3529411765       0.000000000      0.3529411765      0.2442499491E-02     566
   206  0.4117647059       0.000000000      0.3529411765      0.2442499491E-02     566
   207  0.4705882353       0.000000000      0.3529411765      0.2442499491E-02     564
   208  0.5882352941E-01  0.5882352941E-01  0.3529411765      0.2442499491E-02     560
   209  0.1176470588      0.5882352941E-01  0.3529411765      0.4884998982E-02     560
   210  0.1764705882      0.5882352941E-01  0.3529411765      0.4884998982E-02     560
   211  0.2352941176      0.5882352941E-01  0.3529411765      0.4884998982E-02     558
   212  0.2941176471      0.5882352941E-01  0.3529411765      0.4884998982E-02     563
   213  0.3529411765      0.5882352941E-01  0.3529411765      0.4884998982E-02     563
   214  0.4117647059      0.5882352941E-01  0.3529411765      0.4884998982E-02     562
   215  0.4705882353      0.5882352941E-01  0.3529411765      0.2442499491E-02     567
   216  0.1176470588      0.1176470588      0.3529411765      0.2442499491E-02     559
   217  0.1764705882      0.1176470588      0.3529411765      0.4884998982E-02     561
   218  0.2352941176      0.1176470588      0.3529411765      0.4884998982E-02     561
   219  0.2941176471      0.1176470588      0.3529411765      0.4884998982E-02     560
   220  0.3529411765      0.1176470588      0.3529411765      0.4884998982E-02     563
   221  0.4117647059      0.1176470588      0.3529411765      0.4884998982E-02     564
   222  0.1764705882      0.1764705882      0.3529411765      0.2442499491E-02     562
   223  0.2352941176      0.1764705882      0.3529411765      0.4884998982E-02     563
   224  0.2941176471      0.1764705882      0.3529411765      0.4884998982E-02     566
   225  0.3529411765      0.1764705882      0.3529411765      0.4884998982E-02     562
   226  0.4117647059      0.1764705882      0.3529411765      0.2442499491E-02     562
   227  0.2352941176      0.2352941176      0.3529411765      0.2442499491E-02     567
   228  0.2941176471      0.2352941176      0.3529411765      0.4884998982E-02     565
   229  0.3529411765      0.2352941176      0.3529411765      0.4884998982E-02     567
   230  0.2941176471      0.2941176471      0.3529411765      0.2442499491E-02     566
   231  0.3529411765      0.2941176471      0.3529411765      0.2442499491E-02     567
   232   0.000000000       0.000000000      0.4117647059      0.4070832485E-03     578
   233  0.5882352941E-01   0.000000000      0.4117647059      0.2442499491E-02     568
   234  0.1176470588       0.000000000      0.4117647059      0.2442499491E-02     558
   235  0.1764705882       0.000000000      0.4117647059      0.2442499491E-02     562
   236  0.2352941176       0.000000000      0.4117647059      0.2442499491E-02     558
   237  0.2941176471       0.000000000      0.4117647059      0.2442499491E-02     566
   238  0.3529411765       0.000000000      0.4117647059      0.2442499491E-02     562
   239  0.4117647059       0.000000000      0.4117647059      0.2442499491E-02     564
   240  0.4705882353       0.000000000      0.4117647059      0.2442499491E-02     558
   241  0.5882352941E-01  0.5882352941E-01  0.4117647059      0.2442499491E-02     564
   242  0.1176470588      0.5882352941E-01  0.4117647059      0.4884998982E-02     561
   243  0.1764705882      0.5882352941E-01  0.4117647059      0.4884998982E-02     560
   244  0.2352941176      0.5882352941E-01  0.4117647059      0.4884998982E-02     559
   245  0.2941176471      0.5882352941E-01  0.4117647059      0.4884998982E-02     563
   246  0.3529411765      0.5882352941E-01  0.4117647059      0.4884998982E-02     565
   247  0.4117647059      0.5882352941E-01  0.4117647059      0.4884998982E-02     560
   248  0.4705882353      0.5882352941E-01  0.4117647059      0.2442499491E-02     560
   249  0.1176470588      0.1176470588      0.4117647059      0.2442499491E-02     562
   250  0.1764705882      0.1176470588      0.4117647059      0.4884998982E-02     561
   251  0.2352941176      0.1176470588      0.4117647059      0.4884998982E-02     562
   252  0.2941176471      0.1176470588      0.4117647059      0.4884998982E-02     562
   253  0.3529411765      0.1176470588      0.4117647059      0.4884998982E-02     562
   254  0.4117647059      0.1176470588      0.4117647059      0.4884998982E-02     562
   255  0.1764705882      0.1764705882      0.4117647059      0.2442499491E-02     560
   256  0.2352941176      0.1764705882      0.4117647059      0.4884998982E-02     565
   257  0.2941176471      0.1764705882      0.4117647059      0.4884998982E-02     564
   258  0.3529411765      0.1764705882      0.4117647059      0.4884998982E-02     564
   259  0.4117647059      0.1764705882      0.4117647059      0.2442499491E-02     562
   260  0.2352941176      0.2352941176      0.4117647059      0.2442499491E-02     564
   261  0.2941176471      0.2352941176      0.4117647059      0.4884998982E-02     567
   262  0.3529411765      0.2352941176      0.4117647059      0.4884998982E-02     567
   263  0.2941176471      0.2941176471      0.4117647059      0.2442499491E-02     567
   264  0.3529411765      0.2941176471      0.4117647059      0.2442499491E-02     567
   265   0.000000000       0.000000000      0.4705882353      0.4070832485E-03     578
   266  0.5882352941E-01   0.000000000      0.4705882353      0.2442499491E-02     570
   267  0.1176470588       0.000000000      0.4705882353      0.2442499491E-02     564
   268  0.1764705882       0.000000000      0.4705882353      0.2442499491E-02     564
   269  0.2352941176       0.000000000      0.4705882353      0.2442499491E-02     560
   270  0.2941176471       0.000000000      0.4705882353      0.2442499491E-02     563
   271  0.3529411765       0.000000000      0.4705882353      0.2442499491E-02     560
   272  0.4117647059       0.000000000      0.4705882353      0.2442499491E-02     564
   273  0.4705882353       0.000000000      0.4705882353      0.2442499491E-02     556
   274  0.5882352941E-01  0.5882352941E-01  0.4705882353      0.2442499491E-02     566
   275  0.1176470588      0.5882352941E-01  0.4705882353      0.4884998982E-02     563
   276  0.1764705882      0.5882352941E-01  0.4705882353      0.4884998982E-02     561
   277  0.2352941176      0.5882352941E-01  0.4705882353      0.4884998982E-02     561
   278  0.2941176471      0.5882352941E-01  0.4705882353      0.4884998982E-02     564
   279  0.3529411765      0.5882352941E-01  0.4705882353      0.4884998982E-02     563
   280  0.4117647059      0.5882352941E-01  0.4705882353      0.4884998982E-02     557
   281  0.4705882353      0.5882352941E-01  0.4705882353      0.2442499491E-02     560
   282  0.1176470588      0.1176470588      0.4705882353      0.2442499491E-02     558
   283  0.1764705882      0.1176470588      0.4705882353      0.4884998982E-02     560
   284  0.2352941176      0.1176470588      0.4705882353      0.4884998982E-02     559
   285  0.2941176471      0.1176470588      0.4705882353      0.4884998982E-02     564
   286  0.3529411765      0.1176470588      0.4705882353      0.4884998982E-02     561
   287  0.4117647059      0.1176470588      0.4705882353      0.4884998982E-02     560
   288  0.1764705882      0.1764705882      0.4705882353      0.2442499491E-02     562
   289  0.2352941176      0.1764705882      0.4705882353      0.4884998982E-02     564
   290  0.2941176471      0.1764705882      0.4705882353      0.4884998982E-02     565
   291  0.3529411765      0.1764705882      0.4705882353      0.4884998982E-02     564
   292  0.4117647059      0.1764705882      0.4705882353      0.2442499491E-02     560
   293  0.2352941176      0.2352941176      0.4705882353      0.2442499491E-02     565
   294  0.2941176471      0.2352941176      0.4705882353      0.4884998982E-02     566
   295  0.3529411765      0.2352941176      0.4705882353      0.4884998982E-02     570
   296  0.2941176471      0.2941176471      0.4705882353      0.2442499491E-02     569
   297  0.3529411765      0.2941176471      0.4705882353      0.2442499491E-02     570
