  0.4439751066    
  0.3192180659    
  0.1455765214    
  0.4993836643E-01
  0.1484556750E-01
  0.2746735504E-02
  0.6276719121E-03
  0.1441787723E-03
  0.5561899549E-04
  0.8488500763E-05
  0.1844842906E-04
  0.1001551935E-04
  0.5538771663E-05
  0.1204473528E-04
  0.5871649446E-05
  0.3264660042E-04
  0.8491559410E-06
  0.6261440350E-04
  0.2156914047E-04
  0.4928081715E-05
  0.1186266649E-04
  0.3652465597E-05
  0.5378597037E-04
  0.6875154956E-05
  0.1390298309E-04
  0.3329242763E-05
  0.5214933927E-05
  0.1730050415E-04
