    -9066.39293864    
    -9066.39474646    
    -9066.39520216    
    -9066.40906638    
    -9066.43088047    
    -9066.44307698    
    -9066.45001146    
    -9066.45189727    
    -9066.44874533    
    -9066.44829588    
    -9066.44918358    
    -9066.44946131    
    -9066.44963920    
    -9066.44973060    
    -9066.44974709    
    -9066.44972008    
    -9066.44973036    
    -9066.44974815    
    -9066.44975376    
    -9066.44974347    
    -9066.44974388    
    -9066.44972680    
    -9066.44973673    
    -9066.44974952    
    -9066.44974414    
    -9066.44974735    
    -9066.44975698    
    -9066.44975309    
    -9066.44975267    
    -9066.44974607    
    -9066.44974806    
    -9066.44974873    
    -9066.44974892    
    -9066.44974815    
    -9066.44974901    
    -9066.44974944    
    -9066.44974884    
    -9066.44974918    
    -9066.44974848    
    -9066.44974847    
    -9066.44974852    
    -9066.44974862    
