   49.87283707    
   23.07048183    
   34.31329031    
   37.64248790    
   31.98782468    
   31.45568630    
   30.91999998    
   30.63551954    
   30.44194765    
   30.34431517    
   30.31778152    
   30.31542344    
   30.31790535    
   30.32025154    
   30.32155838    
   30.32214201    
   30.32230701    
   30.32237570    
   30.32239484    
   30.32240614    
   30.32240875    
   30.32240313    
   30.32241040    
   30.32241302    
   30.32241297    
   30.32241265    
   30.32241210    
