   56.82506791    
   56.77544547    
   56.77109442    
   56.65544853    
   56.30227205    
   56.84910618    
   57.04903523    
   57.06439629    
   57.09405508    
   57.07538818    
   57.05293377    
   57.05328438    
   57.06358115    
   57.06483890    
   57.06760998    
   57.06759575    
   57.06721763    
   57.06739386    
   57.06720784    
   57.06719187    
   57.06723031    
   57.06723571    
   57.06723876    
   57.06706060    
   57.06711480    
   57.06715306    
   57.06717829    
   57.06718569    
   57.06718764    
   57.06719157    
   57.06725515    
   57.06723085    
   57.06722204    
   57.06721240    
   57.06720673    
   57.06720002    
   57.06720230    
   57.06720070    
   57.06719766    
   57.06719848    
   57.06720197    
   57.06720076    
   57.06719994    
   57.06719945    
   57.06719840    
   57.06719799    
   57.06719786    
   57.06719732    
   57.06719612    
   57.06719718    
   57.06719808    
   57.06719759    
   57.06719795    
   57.06719817    
   57.06719810    
   57.06719812    
   57.06719791    
