    0.993860585589E-04
    0.136926907455E-03
    0.138814857799E-03
    0.190768995722E-03
    0.304699789844E-03
    0.139023148983E-03
    0.138910472354E-03
    0.144356582238E-03
    0.158171773936E-03
    0.162407216678E-03
    0.164252333259E-03
    0.150589431988E-03
    0.150530662520E-03
    0.151262276910E-03
    0.151514039613E-03
    0.151446607298E-03
    0.151243275275E-03
    0.151321582835E-03
    0.151344552721E-03
    0.151375959685E-03
    0.151387163794E-03
    0.151393464334E-03
    0.151383905684E-03
    0.151500836609E-03
    0.151450459273E-03
    0.151425595795E-03
    0.151409735866E-03
    0.151405182635E-03
    0.151407552048E-03
    0.151405338773E-03
    0.151375165531E-03
    0.151389924623E-03
    0.151394772149E-03
    0.151399074600E-03
    0.151401215641E-03
    0.151403912078E-03
    0.151402692968E-03
    0.151403476252E-03
    0.151404646779E-03
    0.151404336192E-03
    0.151402946688E-03
    0.151403434516E-03
    0.151403846161E-03
    0.151403983219E-03
    0.151404307857E-03
    0.151404481254E-03
    0.151404521185E-03
    0.151404723866E-03
    0.151405100451E-03
    0.151404821608E-03
    0.151404550703E-03
    0.151404626699E-03
    0.151404585646E-03
    0.151404490792E-03
    0.151404488304E-03
    0.151404543833E-03
    0.151404517467E-03
