    0.193308592164E-03
    0.250381172714E-03
    0.387241675795E-03
    0.388646253531E-03
    0.218438447204E-03
    0.316084821590E-03
    0.299587691776E-03
    0.296036749072E-03
    0.292780496361E-03
    0.291127713358E-03
    0.290631357121E-03
    0.290748247280E-03
    0.290863818725E-03
    0.290857024955E-03
    0.290858074566E-03
    0.290861496038E-03
    0.290871246421E-03
    0.290869725068E-03
    0.290873148776E-03
    0.290874770729E-03
    0.290874868663E-03
    0.290875075407E-03
    0.290875335721E-03
    0.290875124720E-03
    0.290876119892E-03
    0.290876700992E-03
    0.290877078815E-03
    0.290877267931E-03
    0.290877498697E-03
    0.290877506222E-03
    0.290877915771E-03
    0.290877762053E-03
    0.290877906955E-03
    0.290877710869E-03
    0.290877708604E-03
    0.290877663287E-03
    0.290877633314E-03
    0.290877669778E-03
    0.290877651878E-03
    0.290877655320E-03
    0.290877660240E-03
    0.290877657670E-03
    0.290877661160E-03
    0.290877657858E-03
    0.290877657753E-03
    0.290877659508E-03
    0.290877666528E-03
    0.290877665587E-03
    0.290877663862E-03
    0.290877658717E-03
    0.290877658897E-03
    0.290877661426E-03
    0.290877662665E-03
    0.290877662974E-03
    0.290877662717E-03
    0.290877662638E-03
    0.290877662201E-03
    0.290877662121E-03
    0.290877660580E-03
    0.290877662117E-03
    0.290877662838E-03
    0.290877661417E-03
    0.290877660275E-03
    0.290877660425E-03
    0.290877659214E-03
    0.290877661065E-03
    0.290877659769E-03
    0.290877659516E-03
    0.290877659568E-03
    0.290877662432E-03
    0.290877662098E-03
    0.290877661244E-03
    0.290877662218E-03
    0.290877662246E-03
    0.290877663231E-03
    0.290877660436E-03
    0.290877661738E-03
    0.290877662760E-03
    0.290877662132E-03
    0.290877662360E-03
    0.290877662015E-03
    0.290877661249E-03
    0.290877660611E-03
    0.290877661470E-03
    0.290877660976E-03
    0.290877657634E-03
    0.290877656771E-03
    0.290877659724E-03
    0.290877661870E-03
    0.290877661536E-03
    0.290877661301E-03
    0.290877661846E-03
    0.290877663778E-03
    0.290877663463E-03
    0.290877661022E-03
    0.290877659367E-03
    0.290877659245E-03
    0.290877661239E-03
    0.290877659234E-03
    0.290877657958E-03
    0.290877658709E-03
    0.290877658100E-03
    0.290877661480E-03
    0.290877663271E-03
    0.290877661551E-03
    0.290877662304E-03
    0.290877662233E-03
    0.290877660802E-03
    0.290877660586E-03
    0.290877662559E-03
    0.290877663009E-03
    0.290877662744E-03
    0.290877661029E-03
    0.290877662032E-03
    0.290877664176E-03
    0.290877662165E-03
    0.290877661552E-03
    0.290877662968E-03
    0.290877662740E-03
    0.290877661956E-03
    0.290877662284E-03
    0.290877660886E-03
    0.290877661604E-03
    0.290877662062E-03
    0.290877663159E-03
    0.290877663054E-03
    0.290877664879E-03
    0.290877663530E-03
    0.290877662580E-03
    0.290877661505E-03
    0.290877661041E-03
    0.290877660966E-03
    0.290877660915E-03
    0.290877661354E-03
    0.290877662712E-03
    0.290877660021E-03
    0.290877658056E-03
    0.290877659254E-03
    0.290877659875E-03
    0.290877659891E-03
    0.290877660715E-03
    0.290877660475E-03
    0.290877661024E-03
    0.290877661577E-03
    0.290877662206E-03
    0.290877660672E-03
    0.290877661444E-03
    0.290877661446E-03
    0.290877659887E-03
    0.290877659745E-03
    0.290877660416E-03
    0.290877660759E-03
    0.290877661750E-03
    0.290877661865E-03
    0.290877660820E-03
    0.290877660807E-03
    0.290877659567E-03
    0.290877659642E-03
    0.290877660210E-03
    0.290877661594E-03
    0.290877658121E-03
    0.290877658419E-03
    0.290877658078E-03
    0.290877659502E-03
    0.290877660561E-03
    0.290877662016E-03
    0.290877662107E-03
    0.290877662175E-03
    0.290877661845E-03
    0.290877661446E-03
    0.290877659136E-03
    0.290877659404E-03
    0.290877659089E-03
    0.290877661884E-03
    0.290877658475E-03
    0.290877659203E-03
    0.290877657654E-03
    0.290877661781E-03
    0.290877661519E-03
    0.290877665264E-03
    0.290877664363E-03
    0.290877662957E-03
    0.290877662171E-03
    0.290877662104E-03
    0.290877662445E-03
