 
Distance between is =    1 (Os), ia =    1 and
 is =    1 (Os), ia =    1 :    0.000000000    
 is =    1 (Os), ia =    2 :    5.085586829    
 
Distance between is =    1 (Os), ia =    2 and
 is =    1 (Os), ia =    1 :    5.085586829    
 is =    1 (Os), ia =    2 :    0.000000000    
