   165 : nkpt; k-point, vkl, wkpt, nmat below
     1   0.000000000       0.000000000       0.000000000      0.2035416243E-03     491
     2  0.5882352941E-01   0.000000000       0.000000000      0.2442499491E-02     490
     3  0.1176470588       0.000000000       0.000000000      0.2442499491E-02     498
     4  0.1764705882       0.000000000       0.000000000      0.2442499491E-02     498
     5  0.2352941176       0.000000000       0.000000000      0.2442499491E-02     500
     6  0.2941176471       0.000000000       0.000000000      0.2442499491E-02     502
     7  0.3529411765       0.000000000       0.000000000      0.2442499491E-02     504
     8  0.4117647059       0.000000000       0.000000000      0.2442499491E-02     512
     9  0.4705882353       0.000000000       0.000000000      0.2442499491E-02     502
    10  0.5882352941E-01  0.5882352941E-01   0.000000000      0.4884998982E-02     495
    11  0.1176470588      0.5882352941E-01   0.000000000      0.9769997965E-02     500
    12  0.1764705882      0.5882352941E-01   0.000000000      0.9769997965E-02     500
    13  0.2352941176      0.5882352941E-01   0.000000000      0.9769997965E-02     500
    14  0.2941176471      0.5882352941E-01   0.000000000      0.9769997965E-02     504
    15  0.3529411765      0.5882352941E-01   0.000000000      0.9769997965E-02     506
    16  0.4117647059      0.5882352941E-01   0.000000000      0.9769997965E-02     508
    17  0.4705882353      0.5882352941E-01   0.000000000      0.4884998982E-02     503
    18  0.1176470588      0.1176470588       0.000000000      0.4884998982E-02     503
    19  0.1764705882      0.1176470588       0.000000000      0.9769997965E-02     500
    20  0.2352941176      0.1176470588       0.000000000      0.9769997965E-02     497
    21  0.2941176471      0.1176470588       0.000000000      0.9769997965E-02     500
    22  0.3529411765      0.1176470588       0.000000000      0.9769997965E-02     504
    23  0.4117647059      0.1176470588       0.000000000      0.9769997965E-02     510
    24  0.1764705882      0.1764705882       0.000000000      0.4884998982E-02     499
    25  0.2352941176      0.1764705882       0.000000000      0.9769997965E-02     499
    26  0.2941176471      0.1764705882       0.000000000      0.9769997965E-02     505
    27  0.3529411765      0.1764705882       0.000000000      0.9769997965E-02     508
    28  0.4117647059      0.1764705882       0.000000000      0.4884998982E-02     507
    29  0.2352941176      0.2352941176       0.000000000      0.4884998982E-02     504
    30  0.2941176471      0.2352941176       0.000000000      0.9769997965E-02     508
    31  0.3529411765      0.2352941176       0.000000000      0.9769997965E-02     507
    32  0.2941176471      0.2941176471       0.000000000      0.4884998982E-02     499
    33  0.3529411765      0.2941176471       0.000000000      0.4884998982E-02     504
    34  0.5882352941E-01  0.5882352941E-01  0.5882352941E-01  0.1628332994E-02     497
    35  0.1176470588      0.5882352941E-01  0.5882352941E-01  0.4884998982E-02     501
    36  0.1764705882      0.5882352941E-01  0.5882352941E-01  0.4884998982E-02     498
    37  0.2352941176      0.5882352941E-01  0.5882352941E-01  0.4884998982E-02     496
    38  0.2941176471      0.5882352941E-01  0.5882352941E-01  0.4884998982E-02     502
    39  0.3529411765      0.5882352941E-01  0.5882352941E-01  0.4884998982E-02     506
    40  0.4117647059      0.5882352941E-01  0.5882352941E-01  0.4884998982E-02     510
    41  0.9411764706      0.5882352941E-01  0.5882352941E-01  0.1221249746E-02     491
    42  0.1176470588      0.1176470588      0.5882352941E-01  0.4884998982E-02     500
    43  0.1764705882      0.1176470588      0.5882352941E-01  0.9769997965E-02     500
    44  0.2352941176      0.1176470588      0.5882352941E-01  0.9769997965E-02     500
    45  0.2941176471      0.1176470588      0.5882352941E-01  0.9769997965E-02     504
    46  0.3529411765      0.1176470588      0.5882352941E-01  0.9769997965E-02     507
    47  0.4117647059      0.1176470588      0.5882352941E-01  0.4884998982E-02     506
    48  0.8823529412      0.1176470588      0.5882352941E-01  0.4884998982E-02     498
    49  0.1764705882      0.1764705882      0.5882352941E-01  0.4884998982E-02     501
    50  0.2352941176      0.1764705882      0.5882352941E-01  0.9769997965E-02     503
    51  0.2941176471      0.1764705882      0.5882352941E-01  0.9769997965E-02     502
    52  0.3529411765      0.1764705882      0.5882352941E-01  0.9769997965E-02     502
    53  0.8235294118      0.1764705882      0.5882352941E-01  0.4884998982E-02     502
    54  0.8823529412      0.1764705882      0.5882352941E-01  0.4884998982E-02     502
    55  0.2352941176      0.2352941176      0.5882352941E-01  0.4884998982E-02     502
    56  0.2941176471      0.2352941176      0.5882352941E-01  0.9769997965E-02     502
    57  0.3529411765      0.2352941176      0.5882352941E-01  0.4884998982E-02     502
    58  0.7647058824      0.2352941176      0.5882352941E-01  0.4884998982E-02     499
    59  0.8235294118      0.2352941176      0.5882352941E-01  0.9769997965E-02     503
    60  0.2941176471      0.2941176471      0.5882352941E-01  0.4884998982E-02     502
    61  0.7058823529      0.2941176471      0.5882352941E-01  0.4884998982E-02     501
    62  0.7647058824      0.2941176471      0.5882352941E-01  0.9769997965E-02     500
    63  0.8235294118      0.2941176471      0.5882352941E-01  0.4884998982E-02     500
    64  0.6470588235      0.3529411765      0.5882352941E-01  0.4884998982E-02     506
    65  0.7058823529      0.3529411765      0.5882352941E-01  0.9769997965E-02     503
    66  0.7647058824      0.3529411765      0.5882352941E-01  0.9769997965E-02     502
    67  0.5882352941      0.4117647059      0.5882352941E-01  0.4884998982E-02     510
    68  0.6470588235      0.4117647059      0.5882352941E-01  0.9769997965E-02     506
    69  0.7058823529      0.4117647059      0.5882352941E-01  0.9769997965E-02     505
    70  0.7647058824      0.4117647059      0.5882352941E-01  0.4884998982E-02     501
    71  0.5294117647      0.4705882353      0.5882352941E-01  0.4884998982E-02     507
    72  0.5882352941      0.4705882353      0.5882352941E-01  0.9769997965E-02     510
    73  0.6470588235      0.4705882353      0.5882352941E-01  0.9769997965E-02     512
    74  0.7058823529      0.4705882353      0.5882352941E-01  0.9769997965E-02     506
    75  0.5294117647      0.5294117647      0.5882352941E-01  0.4884998982E-02     506
    76  0.5882352941      0.5294117647      0.5882352941E-01  0.9769997965E-02     508
    77  0.6470588235      0.5294117647      0.5882352941E-01  0.9769997965E-02     513
    78  0.7058823529      0.5294117647      0.5882352941E-01  0.4884998982E-02     508
    79  0.5882352941      0.5882352941      0.5882352941E-01  0.4884998982E-02     510
    80  0.6470588235      0.5882352941      0.5882352941E-01  0.9769997965E-02     505
    81  0.6470588235      0.6470588235      0.5882352941E-01  0.1628332994E-02     504
    82  0.1176470588      0.1176470588      0.1176470588      0.1628332994E-02     494
    83  0.1764705882      0.1176470588      0.1176470588      0.4884998982E-02     506
    84  0.2352941176      0.1176470588      0.1176470588      0.4884998982E-02     506
    85  0.2941176471      0.1176470588      0.1176470588      0.4884998982E-02     508
    86  0.3529411765      0.1176470588      0.1176470588      0.4884998982E-02     508
    87  0.8823529412      0.1176470588      0.1176470588      0.1221249746E-02     507
    88  0.1764705882      0.1764705882      0.1176470588      0.4884998982E-02     508
    89  0.2352941176      0.1764705882      0.1176470588      0.9769997965E-02     508
    90  0.2941176471      0.1764705882      0.1176470588      0.9769997965E-02     503
    91  0.3529411765      0.1764705882      0.1176470588      0.4884998982E-02     502
    92  0.8235294118      0.1764705882      0.1176470588      0.4884998982E-02     504
    93  0.2352941176      0.2352941176      0.1176470588      0.4884998982E-02     505
    94  0.2941176471      0.2352941176      0.1176470588      0.9769997965E-02     506
    95  0.7647058824      0.2352941176      0.1176470588      0.4884998982E-02     499
    96  0.8235294118      0.2352941176      0.1176470588      0.4884998982E-02     501
    97  0.2941176471      0.2941176471      0.1176470588      0.1628332994E-02     503
    98  0.7058823529      0.2941176471      0.1176470588      0.4884998982E-02     501
    99  0.7647058824      0.2941176471      0.1176470588      0.9769997965E-02     505
   100  0.6470588235      0.3529411765      0.1176470588      0.4884998982E-02     507
   101  0.7058823529      0.3529411765      0.1176470588      0.9769997965E-02     506
   102  0.7647058824      0.3529411765      0.1176470588      0.4884998982E-02     505
   103  0.5882352941      0.4117647059      0.1176470588      0.4884998982E-02     509
   104  0.6470588235      0.4117647059      0.1176470588      0.9769997965E-02     509
   105  0.7058823529      0.4117647059      0.1176470588      0.9769997965E-02     507
   106  0.5294117647      0.4705882353      0.1176470588      0.4884998982E-02     506
   107  0.5882352941      0.4705882353      0.1176470588      0.9769997965E-02     511
   108  0.6470588235      0.4705882353      0.1176470588      0.9769997965E-02     510
   109  0.7058823529      0.4705882353      0.1176470588      0.4884998982E-02     514
   110  0.5294117647      0.5294117647      0.1176470588      0.4884998982E-02     506
   111  0.5882352941      0.5294117647      0.1176470588      0.9769997965E-02     507
   112  0.6470588235      0.5294117647      0.1176470588      0.9769997965E-02     509
   113  0.5882352941      0.5882352941      0.1176470588      0.4884998982E-02     510
   114  0.6470588235      0.5882352941      0.1176470588      0.4884998982E-02     504
   115  0.1764705882      0.1764705882      0.1764705882      0.1628332994E-02     503
   116  0.2352941176      0.1764705882      0.1764705882      0.4884998982E-02     508
   117  0.2941176471      0.1764705882      0.1764705882      0.4884998982E-02     504
   118  0.8235294118      0.1764705882      0.1764705882      0.1221249746E-02     500
   119  0.2352941176      0.2352941176      0.1764705882      0.4884998982E-02     503
   120  0.2941176471      0.2352941176      0.1764705882      0.4884998982E-02     508
   121  0.7647058824      0.2352941176      0.1764705882      0.4884998982E-02     504
   122  0.7058823529      0.2941176471      0.1764705882      0.4884998982E-02     506
   123  0.7647058824      0.2941176471      0.1764705882      0.4884998982E-02     511
   124  0.6470588235      0.3529411765      0.1764705882      0.4884998982E-02     512
   125  0.7058823529      0.3529411765      0.1764705882      0.9769997965E-02     512
   126  0.5882352941      0.4117647059      0.1764705882      0.4884998982E-02     512
   127  0.6470588235      0.4117647059      0.1764705882      0.9769997965E-02     513
   128  0.7058823529      0.4117647059      0.1764705882      0.4884998982E-02     514
   129  0.5294117647      0.4705882353      0.1764705882      0.4884998982E-02     507
   130  0.5882352941      0.4705882353      0.1764705882      0.9769997965E-02     509
   131  0.6470588235      0.4705882353      0.1764705882      0.9769997965E-02     514
   132  0.5294117647      0.5294117647      0.1764705882      0.4884998982E-02     506
   133  0.5882352941      0.5294117647      0.1764705882      0.9769997965E-02     513
   134  0.6470588235      0.5294117647      0.1764705882      0.4884998982E-02     512
   135  0.5882352941      0.5882352941      0.1764705882      0.4884998982E-02     509
   136  0.2352941176      0.2352941176      0.2352941176      0.1628332994E-02     506
   137  0.7647058824      0.2352941176      0.2352941176      0.1221249746E-02     512
   138  0.7058823529      0.2941176471      0.2352941176      0.4884998982E-02     514
   139  0.6470588235      0.3529411765      0.2352941176      0.4884998982E-02     511
   140  0.7058823529      0.3529411765      0.2352941176      0.4884998982E-02     513
   141  0.5882352941      0.4117647059      0.2352941176      0.4884998982E-02     518
   142  0.6470588235      0.4117647059      0.2352941176      0.9769997965E-02     517
   143  0.5294117647      0.4705882353      0.2352941176      0.4884998982E-02     515
   144  0.5882352941      0.4705882353      0.2352941176      0.9769997965E-02     514
   145  0.6470588235      0.4705882353      0.2352941176      0.4884998982E-02     516
   146  0.5294117647      0.5294117647      0.2352941176      0.4884998982E-02     514
   147  0.5882352941      0.5294117647      0.2352941176      0.9769997965E-02     513
   148  0.5882352941      0.5882352941      0.2352941176      0.1628332994E-02     516
   149  0.7058823529      0.2941176471      0.2941176471      0.1221249746E-02     520
   150  0.6470588235      0.3529411765      0.2941176471      0.4884998982E-02     519
   151  0.5882352941      0.4117647059      0.2941176471      0.4884998982E-02     512
   152  0.6470588235      0.4117647059      0.2941176471      0.4884998982E-02     516
   153  0.5294117647      0.4705882353      0.2941176471      0.4884998982E-02     512
   154  0.5882352941      0.4705882353      0.2941176471      0.9769997965E-02     509
   155  0.5294117647      0.5294117647      0.2941176471      0.4884998982E-02     508
   156  0.5882352941      0.5294117647      0.2941176471      0.4884998982E-02     510
   157  0.6470588235      0.3529411765      0.3529411765      0.1221249746E-02     512
   158  0.5882352941      0.4117647059      0.3529411765      0.4884998982E-02     508
   159  0.5294117647      0.4705882353      0.3529411765      0.4884998982E-02     508
   160  0.5882352941      0.4705882353      0.3529411765      0.4884998982E-02     506
   161  0.5294117647      0.5294117647      0.3529411765      0.4884998982E-02     504
   162  0.5882352941      0.4117647059      0.4117647059      0.1221249746E-02     504
   163  0.5294117647      0.4705882353      0.4117647059      0.4884998982E-02     504
   164  0.5294117647      0.5294117647      0.4117647059      0.1628332994E-02     504
   165  0.5294117647      0.4705882353      0.4705882353      0.1221249746E-02     504
