   1.367406181    
   1.254295850    
  0.8853409585    
  0.3987455355    
  0.1266815101    
  0.5292797239E-02
  0.1469519645E-02
  0.5648911345E-03
  0.1136423058E-03
  0.6009109981E-04
  0.4045150233E-04
  0.7414586027E-04
  0.1113606076E-04
  0.7295661303E-04
  0.1132224646E-04
  0.9716145524E-04
  0.3164625530E-04
  0.4940631460E-04
  0.1242726471E-04
  0.3089953400E-04
  0.2912116858E-04
  0.1036864505E-03
  0.9035351913E-04
  0.4468612519E-04
  0.1066672210E-04
  0.1789697351E-04
  0.2069865842E-04
  0.7336075024E-04
  0.1449510780E-04
  0.4243078996E-04
  0.1105634350E-03
  0.6997231428E-04
  0.1095350031E-04
