    -1677.81101328    
    -1670.90385573    
    -1664.67888902    
    -1661.08500962    
    -1659.44382948    
    -1658.19209148    
    -1657.18210605    
    -1656.49666754    
    -1656.05032742    
    -1655.81682600    
    -1655.67730923    
    -1655.65261194    
    -1655.57655627    
    -1655.64770519    
    -1655.61237213    
    -1655.60478681    
    -1655.60492178    
    -1655.60511088    
    -1655.60562287    
    -1655.60583845    
    -1655.60602412    
    -1655.60607108    
    -1655.60614668    
    -1655.60611019    
    -1655.60619159    
    -1655.60610876    
    -1655.60614821    
    -1655.60614694    
    -1655.60614610    
    -1655.60614489    
    -1655.60614429    
    -1655.60614424    
    -1655.60614425    
    -1655.60614374    
    -1655.60614379    
    -1655.60614376    
    -1655.60614382    
    -1655.60614376    
    -1655.60614384    
    -1655.60614380    
    -1655.60614381    
    -1655.60614381    
    -1655.60614381    
