    -33696.4586776    
    -33691.6122133    
    -33678.2359491    
    -33574.4394580    
    -33494.9593326    
    -33460.8324266    
    -33447.0747377    
    -33447.3417942    
    -33447.3230714    
    -33447.3476006    
    -33447.3482260    
    -33447.3477838    
    -33447.3460590    
    -33447.3454951    
    -33447.3453351    
    -33447.3453460    
    -33447.3453880    
    -33447.3454197    
    -33447.3454429    
    -33447.3453553    
    -33447.3453313    
    -33447.3453097    
    -33447.3453184    
    -33447.3453052    
    -33447.3453056    
    -33447.3453010    
    -33447.3452996    
    -33447.3452863    
    -33447.3452815    
    -33447.3452790    
    -33447.3452797    
    -33447.3452772    
    -33447.3452772    
    -33447.3452768    
    -33447.3452769    
    -33447.3452764    
    -33447.3452770    
    -33447.3452768    
    -33447.3452766    
    -33447.3452765    
    -33447.3452762    
    -33447.3452762    
    -33447.3452763    
    -33447.3452757    
    -33447.3452758    
    -33447.3452758    
    -33447.3452757    
    -33447.3452753    
    -33447.3452758    
    -33447.3452761    
    -33447.3452755    
    -33447.3452760    
    -33447.3452757    
    -33447.3452759    
    -33447.3452762    
    -33447.3452758    
    -33447.3452759    
    -33447.3452757    
