   92.97626872    
   94.11239965    
   91.31044845    
   55.44819299    
   55.10762541    
   55.23638347    
   58.95535103    
   59.30228491    
   59.22066097    
   59.23136480    
   59.22739860    
   59.22274266    
   59.22209335    
   59.22157077    
   59.22138989    
   59.22131630    
   59.22108513    
   59.22104474    
   59.22088700    
   59.22091567    
   59.22089415    
   59.22098342    
   59.22081162    
   59.22074812    
   59.22073309    
   59.22073199    
   59.22073438    
   59.22073102    
   59.22072778    
   59.22073409    
   59.22073393    
   59.22073402    
   59.22073602    
   59.22073629    
