    0.615457590505E-04
    0.395280011276E-04
    0.143800628924E-03
    0.335846369383E-03
    0.113865989783E-03
    0.227044125980E-03
    0.371128747824E-04
    0.173965955284E-03
    0.154958260192E-03
    0.157059079431E-03
    0.155818241930E-03
    0.154528343747E-03
    0.154514082546E-03
    0.154455090765E-03
    0.154458330486E-03
    0.154459701879E-03
    0.154435642318E-03
    0.154434109877E-03
    0.154420356265E-03
    0.154417493288E-03
    0.154413062585E-03
    0.154420541959E-03
    0.154408942220E-03
    0.154401500875E-03
    0.154400374109E-03
    0.154398531635E-03
    0.154398965251E-03
    0.154397894881E-03
    0.154397955082E-03
    0.154398530581E-03
    0.154398493754E-03
    0.154398604982E-03
    0.154398932447E-03
    0.154398984747E-03
