    -1729.21988484    
    -1728.86555388    
    -1726.54695797    
    -1716.25233864    
    -1711.24449436    
    -1709.28856380    
    -1708.36130788    
    -1708.35397914    
    -1708.37126408    
    -1708.36806821    
    -1708.36712557    
    -1708.36557970    
    -1708.36553437    
    -1708.36558711    
    -1708.36560723    
    -1708.36566271    
    -1708.36566872    
    -1708.36567971    
    -1708.36568520    
    -1708.36568396    
    -1708.36568205    
    -1708.36568298    
    -1708.36569131    
    -1708.36569162    
    -1708.36569093    
    -1708.36568948    
    -1708.36568957    
    -1708.36568951    
    -1708.36568953    
    -1708.36568978    
    -1708.36568985    
    -1708.36568978    
    -1708.36568980    
    -1708.36568973    
