 
Species :    1 (Tc), atom :    1
 APW functions :
  l =  0, energy derivative =  0 :   0.4976987670    
  l =  1, energy derivative =  0 :   0.4976987670    
  l =  2, energy derivative =  0 :   0.4976987670    
  l =  3, energy derivative =  0 :   0.4976987670    
  l =  4, energy derivative =  0 :   0.4976987670    
  l =  5, energy derivative =  0 :   0.4976987670    
  l =  6, energy derivative =  0 :   0.4976987670    
  l =  7, energy derivative =  0 :   0.4976987670    
  l =  8, energy derivative =  0 :   0.4976987670    
  l =  9, energy derivative =  0 :   0.4976987670    
  l = 10, energy derivative =  0 :   0.4976987670    
 local-orbital functions :
  l.o. =  1, l =  0, energy derivative =  0 :   0.4976987670    
  l.o. =  1, l =  0, energy derivative =  1 :   0.4976987670    
  l.o. =  2, l =  1, energy derivative =  0 :   0.4976987670    
  l.o. =  2, l =  1, energy derivative =  1 :   0.4976987670    
  l.o. =  3, l =  2, energy derivative =  0 :   0.4976987670    
  l.o. =  3, l =  2, energy derivative =  1 :   0.4976987670    
  l.o. =  4, l =  0, energy derivative =  0 :   0.4976987670    
  l.o. =  4, l =  0, energy derivative =  0 :   -1.862536931    
  l.o. =  5, l =  1, energy derivative =  0 :   0.4976987670    
  l.o. =  5, l =  1, energy derivative =  0 :  -0.8279314596    
  l.o. =  6, l =  2, energy derivative =  0 :   0.4976987670    
  l.o. =  6, l =  2, energy derivative =  0 :   0.6738393995    
  l.o. =  7, l =  3, energy derivative =  0 :   0.4976987670    
  l.o. =  7, l =  3, energy derivative =  1 :   0.4976987670    
  l.o. =  8, l =  4, energy derivative =  0 :   0.4976987670    
  l.o. =  8, l =  4, energy derivative =  1 :   0.4976987670    
  l.o. =  9, l =  5, energy derivative =  0 :   0.4976987670    
  l.o. =  9, l =  5, energy derivative =  1 :   0.4976987670    
  l.o. = 10, l =  0, energy derivative =  0 :    1.651984425    
  l.o. = 10, l =  0, energy derivative =  1 :    1.651984425    
  l.o. = 10, l =  0, energy derivative =  2 :    1.651984425    
  l.o. = 11, l =  1, energy derivative =  0 :    2.260873134    
  l.o. = 11, l =  1, energy derivative =  1 :    2.260873134    
  l.o. = 11, l =  1, energy derivative =  2 :    2.260873134    
  l.o. = 12, l =  2, energy derivative =  0 :   0.6738393995    
  l.o. = 12, l =  2, energy derivative =  1 :   0.6738393995    
  l.o. = 12, l =  2, energy derivative =  2 :   0.6738393995    
  l.o. = 13, l =  3, energy derivative =  0 :    2.124935861    
  l.o. = 13, l =  3, energy derivative =  1 :    2.124935861    
  l.o. = 13, l =  3, energy derivative =  2 :    2.124935861    
  l.o. = 14, l =  4, energy derivative =  0 :    3.877714746    
  l.o. = 14, l =  4, energy derivative =  1 :    3.877714746    
  l.o. = 14, l =  4, energy derivative =  2 :    3.877714746    
  l.o. = 15, l =  5, energy derivative =  0 :    5.559452895    
  l.o. = 15, l =  5, energy derivative =  1 :    5.559452895    
  l.o. = 15, l =  5, energy derivative =  2 :    5.559452895    
  l.o. = 16, l =  6, energy derivative =  0 :    7.368973147    
  l.o. = 16, l =  6, energy derivative =  1 :    7.368973147    
  l.o. = 16, l =  6, energy derivative =  2 :    7.368973147    
  l.o. = 17, l =  7, energy derivative =  0 :    9.343268075    
  l.o. = 17, l =  7, energy derivative =  1 :    9.343268075    
  l.o. = 17, l =  7, energy derivative =  2 :    9.343268075    
  l.o. = 18, l =  8, energy derivative =  0 :    11.49498324    
  l.o. = 18, l =  8, energy derivative =  1 :    11.49498324    
  l.o. = 18, l =  8, energy derivative =  2 :    11.49498324    
 
Species :    1 (Tc), atom :    2
 APW functions :
  l =  0, energy derivative =  0 :   0.4976987670    
  l =  1, energy derivative =  0 :   0.4976987670    
  l =  2, energy derivative =  0 :   0.4976987670    
  l =  3, energy derivative =  0 :   0.4976987670    
  l =  4, energy derivative =  0 :   0.4976987670    
  l =  5, energy derivative =  0 :   0.4976987670    
  l =  6, energy derivative =  0 :   0.4976987670    
  l =  7, energy derivative =  0 :   0.4976987670    
  l =  8, energy derivative =  0 :   0.4976987670    
  l =  9, energy derivative =  0 :   0.4976987670    
  l = 10, energy derivative =  0 :   0.4976987670    
 local-orbital functions :
  l.o. =  1, l =  0, energy derivative =  0 :   0.4976987670    
  l.o. =  1, l =  0, energy derivative =  1 :   0.4976987670    
  l.o. =  2, l =  1, energy derivative =  0 :   0.4976987670    
  l.o. =  2, l =  1, energy derivative =  1 :   0.4976987670    
  l.o. =  3, l =  2, energy derivative =  0 :   0.4976987670    
  l.o. =  3, l =  2, energy derivative =  1 :   0.4976987670    
  l.o. =  4, l =  0, energy derivative =  0 :   0.4976987670    
  l.o. =  4, l =  0, energy derivative =  0 :   -1.862536931    
  l.o. =  5, l =  1, energy derivative =  0 :   0.4976987670    
  l.o. =  5, l =  1, energy derivative =  0 :  -0.8279314596    
  l.o. =  6, l =  2, energy derivative =  0 :   0.4976987670    
  l.o. =  6, l =  2, energy derivative =  0 :   0.6738393995    
  l.o. =  7, l =  3, energy derivative =  0 :   0.4976987670    
  l.o. =  7, l =  3, energy derivative =  1 :   0.4976987670    
  l.o. =  8, l =  4, energy derivative =  0 :   0.4976987670    
  l.o. =  8, l =  4, energy derivative =  1 :   0.4976987670    
  l.o. =  9, l =  5, energy derivative =  0 :   0.4976987670    
  l.o. =  9, l =  5, energy derivative =  1 :   0.4976987670    
  l.o. = 10, l =  0, energy derivative =  0 :    1.651984425    
  l.o. = 10, l =  0, energy derivative =  1 :    1.651984425    
  l.o. = 10, l =  0, energy derivative =  2 :    1.651984425    
  l.o. = 11, l =  1, energy derivative =  0 :    2.260873134    
  l.o. = 11, l =  1, energy derivative =  1 :    2.260873134    
  l.o. = 11, l =  1, energy derivative =  2 :    2.260873134    
  l.o. = 12, l =  2, energy derivative =  0 :   0.6738393995    
  l.o. = 12, l =  2, energy derivative =  1 :   0.6738393995    
  l.o. = 12, l =  2, energy derivative =  2 :   0.6738393995    
  l.o. = 13, l =  3, energy derivative =  0 :    2.124935861    
  l.o. = 13, l =  3, energy derivative =  1 :    2.124935861    
  l.o. = 13, l =  3, energy derivative =  2 :    2.124935861    
  l.o. = 14, l =  4, energy derivative =  0 :    3.877714746    
  l.o. = 14, l =  4, energy derivative =  1 :    3.877714746    
  l.o. = 14, l =  4, energy derivative =  2 :    3.877714746    
  l.o. = 15, l =  5, energy derivative =  0 :    5.559452895    
  l.o. = 15, l =  5, energy derivative =  1 :    5.559452895    
  l.o. = 15, l =  5, energy derivative =  2 :    5.559452895    
  l.o. = 16, l =  6, energy derivative =  0 :    7.368973147    
  l.o. = 16, l =  6, energy derivative =  1 :    7.368973147    
  l.o. = 16, l =  6, energy derivative =  2 :    7.368973147    
  l.o. = 17, l =  7, energy derivative =  0 :    9.343268075    
  l.o. = 17, l =  7, energy derivative =  1 :    9.343268075    
  l.o. = 17, l =  7, energy derivative =  2 :    9.343268075    
  l.o. = 18, l =  8, energy derivative =  0 :    11.49498324    
  l.o. = 18, l =  8, energy derivative =  1 :    11.49498324    
  l.o. = 18, l =  8, energy derivative =  2 :    11.49498324    
