   23.66907408    
   23.78872571    
   28.05834549    
   26.93734947    
   25.86505984    
   25.63362336    
   25.63706576    
   25.68620273    
   25.71488689    
   25.71771360    
   25.71189699    
   25.70994570    
   25.70848553    
   25.70886578    
   25.70837374    
   25.70855671    
   25.70840723    
   25.70814661    
   25.70831793    
   25.70831531    
   25.70827513    
   25.70832146    
   25.70827488    
   25.70825465    
   25.70824568    
   25.70824281    
   25.70823785    
   25.70823622    
   25.70822056    
   25.70822815    
   25.70822878    
   25.70822868    
   25.70822780    
   25.70822822    
   25.70822792    
   25.70822837    
   25.70822842    
   25.70822862    
   25.70822859    
   25.70822876    
   25.70822890    
   25.70822891    
   25.70822891    
   25.70822896    
   25.70822898    
   25.70822907    
   25.70822908    
   25.70822908    
   25.70822910    
   25.70822910    
   25.70822904    
   25.70822903    
   25.70822904    
   25.70822905    
   25.70822903    
   25.70822905    
   25.70822905    
   25.70822905    
   25.70822903    
   25.70822901    
   25.70822901    
   25.70822901    
   25.70822899    
   25.70822893    
   25.70822900    
   25.70822910    
   25.70822909    
   25.70822905    
   25.70822905    
   25.70822910    
   25.70822909    
   25.70822906    
   25.70822907    
   25.70822908    
   25.70822904    
   25.70822905    
   25.70822907    
   25.70822909    
   25.70822905    
   25.70822906    
   25.70822906    
   25.70822910    
   25.70822910    
   25.70822908    
   25.70822907    
   25.70822906    
   25.70822906    
   25.70822905    
   25.70822906    
   25.70822906    
   25.70822907    
   25.70822910    
   25.70822907    
   25.70822908    
   25.70822905    
   25.70822907    
   25.70822908    
   25.70822907    
   25.70822908    
   25.70822909    
   25.70822909    
   25.70822907    
   25.70822907    
   25.70822905    
   25.70822901    
   25.70822908    
   25.70822905    
   25.70822906    
   25.70822907    
   25.70822906    
   25.70822906    
   25.70822908    
   25.70822908    
   25.70822906    
   25.70822905    
   25.70822904    
   25.70822905    
   25.70822906    
   25.70822906    
   25.70822908    
   25.70822905    
   25.70822909    
   25.70822906    
   25.70822906    
   25.70822906    
   25.70822906    
   25.70822908    
   25.70822905    
   25.70822905    
   25.70822907    
   25.70822906    
   25.70822909    
   25.70822911    
   25.70822909    
   25.70822906    
   25.70822907    
   25.70822906    
   25.70822910    
   25.70822909    
   25.70822906    
   25.70822907    
   25.70822903    
   25.70822907    
   25.70822905    
   25.70822906    
   25.70822904    
   25.70822906    
   25.70822906    
   25.70822906    
   25.70822904    
   25.70822903    
   25.70822904    
   25.70822908    
   25.70822903    
   25.70822906    
   25.70822906    
   25.70822907    
   25.70822905    
   25.70822911    
   25.70822907    
   25.70822904    
   25.70822906    
   25.70822907    
   25.70822906    
   25.70822905    
   25.70822905    
   25.70822904    
   25.70822905    
   25.70822905    
   25.70822908    
   25.70822907    
   25.70822906    
   25.70822905    
   25.70822907    
   25.70822904    
   25.70822906    
   25.70822904    
   25.70822905    
   25.70822905    
   25.70822907    
   25.70822905    
   25.70822908    
   25.70822908    
   25.70822908    
   25.70822908    
   25.70822904    
   25.70822905    
   25.70822902    
   25.70822904    
   25.70822902    
   25.70822905    
   25.70822907    
   25.70822910    
   25.70822907    
   25.70822909    
   25.70822909    
   25.70822905    
   25.70822905    
   25.70822907    
   25.70822907    
