 
scale
 1.0
 
scale1
 1.0
 
scale2
 1.0
 
scale3
 1.0
 
avec
   4.464369850      -2.577505134       0.000000000    
   0.000000000       5.155010269       0.000000000    
   0.000000000       0.000000000       7.644208547    
 
atoms
   1                                    : nspecies
'Os.in'                                 : spfname
   2                                    : natoms; atpos, bfcmt below
    0.33333333    0.16666667    0.25000000    0.00000000  0.00000000  0.00000000
   -0.33333333   -0.16666667   -0.25000000    0.00000000  0.00000000  0.00000000
