   38.44840560    
   38.45515314    
   38.89290513    
   39.22628826    
   39.34960877    
   39.38774156    
   39.40250147    
   39.40636694    
   39.40778049    
   39.40778544    
   39.40779199    
   39.40783214    
   39.40785629    
   39.40787782    
   39.40790060    
   39.40787985    
   39.40790387    
   39.40791009    
   39.40791373    
   39.40791082    
   39.40790721    
   39.40791143    
   39.40791536    
   39.40790901    
   39.40790837    
   39.40790812    
   39.40790856    
   39.40790910    
   39.40790913    
   39.40790805    
   39.40790793    
   39.40790726    
   39.40790637    
   39.40790697    
   39.40790674    
   39.40790702    
