   297 : nkpt; k-point, vkl, wkpt, nmat below
     1   0.000000000       0.000000000       0.000000000      0.2035416243E-03     537
     2  0.5882352941E-01   0.000000000       0.000000000      0.1221249746E-02     538
     3  0.1176470588       0.000000000       0.000000000      0.1221249746E-02     546
     4  0.1764705882       0.000000000       0.000000000      0.1221249746E-02     550
     5  0.2352941176       0.000000000       0.000000000      0.1221249746E-02     550
     6  0.2941176471       0.000000000       0.000000000      0.1221249746E-02     550
     7  0.3529411765       0.000000000       0.000000000      0.1221249746E-02     540
     8  0.4117647059       0.000000000       0.000000000      0.1221249746E-02     536
     9  0.4705882353       0.000000000       0.000000000      0.1221249746E-02     538
    10  0.5882352941E-01  0.5882352941E-01   0.000000000      0.1221249746E-02     547
    11  0.1176470588      0.5882352941E-01   0.000000000      0.2442499491E-02     547
    12  0.1764705882      0.5882352941E-01   0.000000000      0.2442499491E-02     546
    13  0.2352941176      0.5882352941E-01   0.000000000      0.2442499491E-02     548
    14  0.2941176471      0.5882352941E-01   0.000000000      0.2442499491E-02     544
    15  0.3529411765      0.5882352941E-01   0.000000000      0.2442499491E-02     543
    16  0.4117647059      0.5882352941E-01   0.000000000      0.2442499491E-02     539
    17  0.4705882353      0.5882352941E-01   0.000000000      0.1221249746E-02     540
    18  0.1176470588      0.1176470588       0.000000000      0.1221249746E-02     549
    19  0.1764705882      0.1176470588       0.000000000      0.2442499491E-02     545
    20  0.2352941176      0.1176470588       0.000000000      0.2442499491E-02     544
    21  0.2941176471      0.1176470588       0.000000000      0.2442499491E-02     540
    22  0.3529411765      0.1176470588       0.000000000      0.2442499491E-02     541
    23  0.4117647059      0.1176470588       0.000000000      0.2442499491E-02     541
    24  0.1764705882      0.1764705882       0.000000000      0.1221249746E-02     541
    25  0.2352941176      0.1764705882       0.000000000      0.2442499491E-02     541
    26  0.2941176471      0.1764705882       0.000000000      0.2442499491E-02     540
    27  0.3529411765      0.1764705882       0.000000000      0.2442499491E-02     541
    28  0.4117647059      0.1764705882       0.000000000      0.1221249746E-02     542
    29  0.2352941176      0.2352941176       0.000000000      0.1221249746E-02     539
    30  0.2941176471      0.2352941176       0.000000000      0.2442499491E-02     532
    31  0.3529411765      0.2352941176       0.000000000      0.2442499491E-02     541
    32  0.2941176471      0.2941176471       0.000000000      0.1221249746E-02     540
    33  0.3529411765      0.2941176471       0.000000000      0.1221249746E-02     550
    34   0.000000000       0.000000000      0.5882352941E-01  0.4070832485E-03     537
    35  0.5882352941E-01   0.000000000      0.5882352941E-01  0.2442499491E-02     538
    36  0.1176470588       0.000000000      0.5882352941E-01  0.2442499491E-02     548
    37  0.1764705882       0.000000000      0.5882352941E-01  0.2442499491E-02     551
    38  0.2352941176       0.000000000      0.5882352941E-01  0.2442499491E-02     548
    39  0.2941176471       0.000000000      0.5882352941E-01  0.2442499491E-02     546
    40  0.3529411765       0.000000000      0.5882352941E-01  0.2442499491E-02     540
    41  0.4117647059       0.000000000      0.5882352941E-01  0.2442499491E-02     535
    42  0.4705882353       0.000000000      0.5882352941E-01  0.2442499491E-02     541
    43  0.5882352941E-01  0.5882352941E-01  0.5882352941E-01  0.2442499491E-02     545
    44  0.1176470588      0.5882352941E-01  0.5882352941E-01  0.4884998982E-02     550
    45  0.1764705882      0.5882352941E-01  0.5882352941E-01  0.4884998982E-02     549
    46  0.2352941176      0.5882352941E-01  0.5882352941E-01  0.4884998982E-02     548
    47  0.2941176471      0.5882352941E-01  0.5882352941E-01  0.4884998982E-02     544
    48  0.3529411765      0.5882352941E-01  0.5882352941E-01  0.4884998982E-02     541
    49  0.4117647059      0.5882352941E-01  0.5882352941E-01  0.4884998982E-02     538
    50  0.4705882353      0.5882352941E-01  0.5882352941E-01  0.2442499491E-02     539
    51  0.1176470588      0.1176470588      0.5882352941E-01  0.2442499491E-02     545
    52  0.1764705882      0.1176470588      0.5882352941E-01  0.4884998982E-02     547
    53  0.2352941176      0.1176470588      0.5882352941E-01  0.4884998982E-02     543
    54  0.2941176471      0.1176470588      0.5882352941E-01  0.4884998982E-02     540
    55  0.3529411765      0.1176470588      0.5882352941E-01  0.4884998982E-02     541
    56  0.4117647059      0.1176470588      0.5882352941E-01  0.4884998982E-02     541
    57  0.1764705882      0.1764705882      0.5882352941E-01  0.2442499491E-02     545
    58  0.2352941176      0.1764705882      0.5882352941E-01  0.4884998982E-02     541
    59  0.2941176471      0.1764705882      0.5882352941E-01  0.4884998982E-02     538
    60  0.3529411765      0.1764705882      0.5882352941E-01  0.4884998982E-02     541
    61  0.4117647059      0.1764705882      0.5882352941E-01  0.2442499491E-02     542
    62  0.2352941176      0.2352941176      0.5882352941E-01  0.2442499491E-02     537
    63  0.2941176471      0.2352941176      0.5882352941E-01  0.4884998982E-02     539
    64  0.3529411765      0.2352941176      0.5882352941E-01  0.4884998982E-02     542
    65  0.2941176471      0.2941176471      0.5882352941E-01  0.2442499491E-02     542
    66  0.3529411765      0.2941176471      0.5882352941E-01  0.2442499491E-02     546
    67   0.000000000       0.000000000      0.1176470588      0.4070832485E-03     538
    68  0.5882352941E-01   0.000000000      0.1176470588      0.2442499491E-02     541
    69  0.1176470588       0.000000000      0.1176470588      0.2442499491E-02     549
    70  0.1764705882       0.000000000      0.1176470588      0.2442499491E-02     550
    71  0.2352941176       0.000000000      0.1176470588      0.2442499491E-02     548
    72  0.2941176471       0.000000000      0.1176470588      0.2442499491E-02     544
    73  0.3529411765       0.000000000      0.1176470588      0.2442499491E-02     541
    74  0.4117647059       0.000000000      0.1176470588      0.2442499491E-02     538
    75  0.4705882353       0.000000000      0.1176470588      0.2442499491E-02     536
    76  0.5882352941E-01  0.5882352941E-01  0.1176470588      0.2442499491E-02     549
    77  0.1176470588      0.5882352941E-01  0.1176470588      0.4884998982E-02     550
    78  0.1764705882      0.5882352941E-01  0.1176470588      0.4884998982E-02     547
    79  0.2352941176      0.5882352941E-01  0.1176470588      0.4884998982E-02     547
    80  0.2941176471      0.5882352941E-01  0.1176470588      0.4884998982E-02     543
    81  0.3529411765      0.5882352941E-01  0.1176470588      0.4884998982E-02     539
    82  0.4117647059      0.5882352941E-01  0.1176470588      0.4884998982E-02     540
    83  0.4705882353      0.5882352941E-01  0.1176470588      0.2442499491E-02     537
    84  0.1176470588      0.1176470588      0.1176470588      0.2442499491E-02     549
    85  0.1764705882      0.1176470588      0.1176470588      0.4884998982E-02     549
    86  0.2352941176      0.1176470588      0.1176470588      0.4884998982E-02     543
    87  0.2941176471      0.1176470588      0.1176470588      0.4884998982E-02     541
    88  0.3529411765      0.1176470588      0.1176470588      0.4884998982E-02     542
    89  0.4117647059      0.1176470588      0.1176470588      0.4884998982E-02     541
    90  0.1764705882      0.1764705882      0.1176470588      0.2442499491E-02     545
    91  0.2352941176      0.1764705882      0.1176470588      0.4884998982E-02     542
    92  0.2941176471      0.1764705882      0.1176470588      0.4884998982E-02     539
    93  0.3529411765      0.1764705882      0.1176470588      0.4884998982E-02     542
    94  0.4117647059      0.1764705882      0.1176470588      0.2442499491E-02     542
    95  0.2352941176      0.2352941176      0.1176470588      0.2442499491E-02     540
    96  0.2941176471      0.2352941176      0.1176470588      0.4884998982E-02     539
    97  0.3529411765      0.2352941176      0.1176470588      0.4884998982E-02     539
    98  0.2941176471      0.2941176471      0.1176470588      0.2442499491E-02     538
    99  0.3529411765      0.2941176471      0.1176470588      0.2442499491E-02     542
   100   0.000000000       0.000000000      0.1764705882      0.4070832485E-03     538
   101  0.5882352941E-01   0.000000000      0.1764705882      0.2442499491E-02     545
   102  0.1176470588       0.000000000      0.1764705882      0.2442499491E-02     548
   103  0.1764705882       0.000000000      0.1764705882      0.2442499491E-02     549
   104  0.2352941176       0.000000000      0.1764705882      0.2442499491E-02     547
   105  0.2941176471       0.000000000      0.1764705882      0.2442499491E-02     548
   106  0.3529411765       0.000000000      0.1764705882      0.2442499491E-02     542
   107  0.4117647059       0.000000000      0.1764705882      0.2442499491E-02     543
   108  0.4705882353       0.000000000      0.1764705882      0.2442499491E-02     538
   109  0.5882352941E-01  0.5882352941E-01  0.1764705882      0.2442499491E-02     549
   110  0.1176470588      0.5882352941E-01  0.1764705882      0.4884998982E-02     549
   111  0.1764705882      0.5882352941E-01  0.1764705882      0.4884998982E-02     548
   112  0.2352941176      0.5882352941E-01  0.1764705882      0.4884998982E-02     548
   113  0.2941176471      0.5882352941E-01  0.1764705882      0.4884998982E-02     544
   114  0.3529411765      0.5882352941E-01  0.1764705882      0.4884998982E-02     540
   115  0.4117647059      0.5882352941E-01  0.1764705882      0.4884998982E-02     540
   116  0.4705882353      0.5882352941E-01  0.1764705882      0.2442499491E-02     539
   117  0.1176470588      0.1176470588      0.1764705882      0.2442499491E-02     547
   118  0.1764705882      0.1176470588      0.1764705882      0.4884998982E-02     548
   119  0.2352941176      0.1176470588      0.1764705882      0.4884998982E-02     546
   120  0.2941176471      0.1176470588      0.1764705882      0.4884998982E-02     542
   121  0.3529411765      0.1176470588      0.1764705882      0.4884998982E-02     541
   122  0.4117647059      0.1176470588      0.1764705882      0.4884998982E-02     541
   123  0.1764705882      0.1764705882      0.1764705882      0.2442499491E-02     543
   124  0.2352941176      0.1764705882      0.1764705882      0.4884998982E-02     543
   125  0.2941176471      0.1764705882      0.1764705882      0.4884998982E-02     542
   126  0.3529411765      0.1764705882      0.1764705882      0.4884998982E-02     542
   127  0.4117647059      0.1764705882      0.1764705882      0.2442499491E-02     538
   128  0.2352941176      0.2352941176      0.1764705882      0.2442499491E-02     543
   129  0.2941176471      0.2352941176      0.1764705882      0.4884998982E-02     539
   130  0.3529411765      0.2352941176      0.1764705882      0.4884998982E-02     539
   131  0.2941176471      0.2941176471      0.1764705882      0.2442499491E-02     537
   132  0.3529411765      0.2941176471      0.1764705882      0.2442499491E-02     538
   133   0.000000000       0.000000000      0.2352941176      0.4070832485E-03     544
   134  0.5882352941E-01   0.000000000      0.2352941176      0.2442499491E-02     548
   135  0.1176470588       0.000000000      0.2352941176      0.2442499491E-02     550
   136  0.1764705882       0.000000000      0.2352941176      0.2442499491E-02     551
   137  0.2352941176       0.000000000      0.2352941176      0.2442499491E-02     553
   138  0.2941176471       0.000000000      0.2352941176      0.2442499491E-02     548
   139  0.3529411765       0.000000000      0.2352941176      0.2442499491E-02     542
   140  0.4117647059       0.000000000      0.2352941176      0.2442499491E-02     539
   141  0.4705882353       0.000000000      0.2352941176      0.2442499491E-02     541
   142  0.5882352941E-01  0.5882352941E-01  0.2352941176      0.2442499491E-02     549
   143  0.1176470588      0.5882352941E-01  0.2352941176      0.4884998982E-02     547
   144  0.1764705882      0.5882352941E-01  0.2352941176      0.4884998982E-02     548
   145  0.2352941176      0.5882352941E-01  0.2352941176      0.4884998982E-02     549
   146  0.2941176471      0.5882352941E-01  0.2352941176      0.4884998982E-02     545
   147  0.3529411765      0.5882352941E-01  0.2352941176      0.4884998982E-02     541
   148  0.4117647059      0.5882352941E-01  0.2352941176      0.4884998982E-02     540
   149  0.4705882353      0.5882352941E-01  0.2352941176      0.2442499491E-02     541
   150  0.1176470588      0.1176470588      0.2352941176      0.2442499491E-02     549
   151  0.1764705882      0.1176470588      0.2352941176      0.4884998982E-02     548
   152  0.2352941176      0.1176470588      0.2352941176      0.4884998982E-02     546
   153  0.2941176471      0.1176470588      0.2352941176      0.4884998982E-02     542
   154  0.3529411765      0.1176470588      0.2352941176      0.4884998982E-02     542
   155  0.4117647059      0.1176470588      0.2352941176      0.4884998982E-02     541
   156  0.1764705882      0.1764705882      0.2352941176      0.2442499491E-02     547
   157  0.2352941176      0.1764705882      0.2352941176      0.4884998982E-02     541
   158  0.2941176471      0.1764705882      0.2352941176      0.4884998982E-02     540
   159  0.3529411765      0.1764705882      0.2352941176      0.4884998982E-02     539
   160  0.4117647059      0.1764705882      0.2352941176      0.2442499491E-02     539
   161  0.2352941176      0.2352941176      0.2352941176      0.2442499491E-02     543
   162  0.2941176471      0.2352941176      0.2352941176      0.4884998982E-02     538
   163  0.3529411765      0.2352941176      0.2352941176      0.4884998982E-02     539
   164  0.2941176471      0.2941176471      0.2352941176      0.2442499491E-02     540
   165  0.3529411765      0.2941176471      0.2352941176      0.2442499491E-02     535
   166   0.000000000       0.000000000      0.2941176471      0.4070832485E-03     544
   167  0.5882352941E-01   0.000000000      0.2941176471      0.2442499491E-02     551
   168  0.1176470588       0.000000000      0.2941176471      0.2442499491E-02     550
   169  0.1764705882       0.000000000      0.2941176471      0.2442499491E-02     549
   170  0.2352941176       0.000000000      0.2941176471      0.2442499491E-02     552
   171  0.2941176471       0.000000000      0.2941176471      0.2442499491E-02     552
   172  0.3529411765       0.000000000      0.2941176471      0.2442499491E-02     544
   173  0.4117647059       0.000000000      0.2941176471      0.2442499491E-02     541
   174  0.4705882353       0.000000000      0.2941176471      0.2442499491E-02     540
   175  0.5882352941E-01  0.5882352941E-01  0.2941176471      0.2442499491E-02     549
   176  0.1176470588      0.5882352941E-01  0.2941176471      0.4884998982E-02     549
   177  0.1764705882      0.5882352941E-01  0.2941176471      0.4884998982E-02     547
   178  0.2352941176      0.5882352941E-01  0.2941176471      0.4884998982E-02     550
   179  0.2941176471      0.5882352941E-01  0.2941176471      0.4884998982E-02     543
   180  0.3529411765      0.5882352941E-01  0.2941176471      0.4884998982E-02     542
   181  0.4117647059      0.5882352941E-01  0.2941176471      0.4884998982E-02     541
   182  0.4705882353      0.5882352941E-01  0.2941176471      0.2442499491E-02     539
   183  0.1176470588      0.1176470588      0.2941176471      0.2442499491E-02     549
   184  0.1764705882      0.1176470588      0.2941176471      0.4884998982E-02     548
   185  0.2352941176      0.1176470588      0.2941176471      0.4884998982E-02     548
   186  0.2941176471      0.1176470588      0.2941176471      0.4884998982E-02     542
   187  0.3529411765      0.1176470588      0.2941176471      0.4884998982E-02     540
   188  0.4117647059      0.1176470588      0.2941176471      0.4884998982E-02     540
   189  0.1764705882      0.1764705882      0.2941176471      0.2442499491E-02     548
   190  0.2352941176      0.1764705882      0.2941176471      0.4884998982E-02     544
   191  0.2941176471      0.1764705882      0.2941176471      0.4884998982E-02     540
   192  0.3529411765      0.1764705882      0.2941176471      0.4884998982E-02     542
   193  0.4117647059      0.1764705882      0.2941176471      0.2442499491E-02     540
   194  0.2352941176      0.2352941176      0.2941176471      0.2442499491E-02     540
   195  0.2941176471      0.2352941176      0.2941176471      0.4884998982E-02     541
   196  0.3529411765      0.2352941176      0.2941176471      0.4884998982E-02     539
   197  0.2941176471      0.2941176471      0.2941176471      0.2442499491E-02     538
   198  0.3529411765      0.2941176471      0.2941176471      0.2442499491E-02     535
   199   0.000000000       0.000000000      0.3529411765      0.4070832485E-03     556
   200  0.5882352941E-01   0.000000000      0.3529411765      0.2442499491E-02     549
   201  0.1176470588       0.000000000      0.3529411765      0.2442499491E-02     548
   202  0.1764705882       0.000000000      0.3529411765      0.2442499491E-02     551
   203  0.2352941176       0.000000000      0.3529411765      0.2442499491E-02     553
   204  0.2941176471       0.000000000      0.3529411765      0.2442499491E-02     551
   205  0.3529411765       0.000000000      0.3529411765      0.2442499491E-02     545
   206  0.4117647059       0.000000000      0.3529411765      0.2442499491E-02     541
   207  0.4705882353       0.000000000      0.3529411765      0.2442499491E-02     542
   208  0.5882352941E-01  0.5882352941E-01  0.3529411765      0.2442499491E-02     549
   209  0.1176470588      0.5882352941E-01  0.3529411765      0.4884998982E-02     547
   210  0.1764705882      0.5882352941E-01  0.3529411765      0.4884998982E-02     551
   211  0.2352941176      0.5882352941E-01  0.3529411765      0.4884998982E-02     550
   212  0.2941176471      0.5882352941E-01  0.3529411765      0.4884998982E-02     547
   213  0.3529411765      0.5882352941E-01  0.3529411765      0.4884998982E-02     545
   214  0.4117647059      0.5882352941E-01  0.3529411765      0.4884998982E-02     543
   215  0.4705882353      0.5882352941E-01  0.3529411765      0.2442499491E-02     541
   216  0.1176470588      0.1176470588      0.3529411765      0.2442499491E-02     551
   217  0.1764705882      0.1176470588      0.3529411765      0.4884998982E-02     549
   218  0.2352941176      0.1176470588      0.3529411765      0.4884998982E-02     546
   219  0.2941176471      0.1176470588      0.3529411765      0.4884998982E-02     544
   220  0.3529411765      0.1176470588      0.3529411765      0.4884998982E-02     543
   221  0.4117647059      0.1176470588      0.3529411765      0.4884998982E-02     540
   222  0.1764705882      0.1764705882      0.3529411765      0.2442499491E-02     542
   223  0.2352941176      0.1764705882      0.3529411765      0.4884998982E-02     543
   224  0.2941176471      0.1764705882      0.3529411765      0.4884998982E-02     538
   225  0.3529411765      0.1764705882      0.3529411765      0.4884998982E-02     538
   226  0.4117647059      0.1764705882      0.3529411765      0.2442499491E-02     541
   227  0.2352941176      0.2352941176      0.3529411765      0.2442499491E-02     540
   228  0.2941176471      0.2352941176      0.3529411765      0.4884998982E-02     538
   229  0.3529411765      0.2352941176      0.3529411765      0.4884998982E-02     537
   230  0.2941176471      0.2941176471      0.3529411765      0.2442499491E-02     534
   231  0.3529411765      0.2941176471      0.3529411765      0.2442499491E-02     535
   232   0.000000000       0.000000000      0.4117647059      0.4070832485E-03     550
   233  0.5882352941E-01   0.000000000      0.4117647059      0.2442499491E-02     552
   234  0.1176470588       0.000000000      0.4117647059      0.2442499491E-02     553
   235  0.1764705882       0.000000000      0.4117647059      0.2442499491E-02     553
   236  0.2352941176       0.000000000      0.4117647059      0.2442499491E-02     550
   237  0.2941176471       0.000000000      0.4117647059      0.2442499491E-02     547
   238  0.3529411765       0.000000000      0.4117647059      0.2442499491E-02     548
   239  0.4117647059       0.000000000      0.4117647059      0.2442499491E-02     545
   240  0.4705882353       0.000000000      0.4117647059      0.2442499491E-02     544
   241  0.5882352941E-01  0.5882352941E-01  0.4117647059      0.2442499491E-02     548
   242  0.1176470588      0.5882352941E-01  0.4117647059      0.4884998982E-02     549
   243  0.1764705882      0.5882352941E-01  0.4117647059      0.4884998982E-02     554
   244  0.2352941176      0.5882352941E-01  0.4117647059      0.4884998982E-02     552
   245  0.2941176471      0.5882352941E-01  0.4117647059      0.4884998982E-02     547
   246  0.3529411765      0.5882352941E-01  0.4117647059      0.4884998982E-02     545
   247  0.4117647059      0.5882352941E-01  0.4117647059      0.4884998982E-02     542
   248  0.4705882353      0.5882352941E-01  0.4117647059      0.2442499491E-02     544
   249  0.1176470588      0.1176470588      0.4117647059      0.2442499491E-02     551
   250  0.1764705882      0.1176470588      0.4117647059      0.4884998982E-02     545
   251  0.2352941176      0.1176470588      0.4117647059      0.4884998982E-02     548
   252  0.2941176471      0.1176470588      0.4117647059      0.4884998982E-02     546
   253  0.3529411765      0.1176470588      0.4117647059      0.4884998982E-02     541
   254  0.4117647059      0.1176470588      0.4117647059      0.4884998982E-02     539
   255  0.1764705882      0.1764705882      0.4117647059      0.2442499491E-02     546
   256  0.2352941176      0.1764705882      0.4117647059      0.4884998982E-02     541
   257  0.2941176471      0.1764705882      0.4117647059      0.4884998982E-02     539
   258  0.3529411765      0.1764705882      0.4117647059      0.4884998982E-02     539
   259  0.4117647059      0.1764705882      0.4117647059      0.2442499491E-02     539
   260  0.2352941176      0.2352941176      0.4117647059      0.2442499491E-02     542
   261  0.2941176471      0.2352941176      0.4117647059      0.4884998982E-02     539
   262  0.3529411765      0.2352941176      0.4117647059      0.4884998982E-02     534
   263  0.2941176471      0.2941176471      0.4117647059      0.2442499491E-02     537
   264  0.3529411765      0.2941176471      0.4117647059      0.2442499491E-02     537
   265   0.000000000       0.000000000      0.4705882353      0.4070832485E-03     556
   266  0.5882352941E-01   0.000000000      0.4705882353      0.2442499491E-02     551
   267  0.1176470588       0.000000000      0.4705882353      0.2442499491E-02     552
   268  0.1764705882       0.000000000      0.4705882353      0.2442499491E-02     554
   269  0.2352941176       0.000000000      0.4705882353      0.2442499491E-02     546
   270  0.2941176471       0.000000000      0.4705882353      0.2442499491E-02     550
   271  0.3529411765       0.000000000      0.4705882353      0.2442499491E-02     548
   272  0.4117647059       0.000000000      0.4705882353      0.2442499491E-02     544
   273  0.4705882353       0.000000000      0.4705882353      0.2442499491E-02     544
   274  0.5882352941E-01  0.5882352941E-01  0.4705882353      0.2442499491E-02     552
   275  0.1176470588      0.5882352941E-01  0.4705882353      0.4884998982E-02     551
   276  0.1764705882      0.5882352941E-01  0.4705882353      0.4884998982E-02     554
   277  0.2352941176      0.5882352941E-01  0.4705882353      0.4884998982E-02     547
   278  0.2941176471      0.5882352941E-01  0.4705882353      0.4884998982E-02     551
   279  0.3529411765      0.5882352941E-01  0.4705882353      0.4884998982E-02     545
   280  0.4117647059      0.5882352941E-01  0.4705882353      0.4884998982E-02     544
   281  0.4705882353      0.5882352941E-01  0.4705882353      0.2442499491E-02     544
   282  0.1176470588      0.1176470588      0.4705882353      0.2442499491E-02     551
   283  0.1764705882      0.1176470588      0.4705882353      0.4884998982E-02     546
   284  0.2352941176      0.1176470588      0.4705882353      0.4884998982E-02     547
   285  0.2941176471      0.1176470588      0.4705882353      0.4884998982E-02     546
   286  0.3529411765      0.1176470588      0.4705882353      0.4884998982E-02     541
   287  0.4117647059      0.1176470588      0.4705882353      0.4884998982E-02     540
   288  0.1764705882      0.1764705882      0.4705882353      0.2442499491E-02     548
   289  0.2352941176      0.1764705882      0.4705882353      0.4884998982E-02     541
   290  0.2941176471      0.1764705882      0.4705882353      0.4884998982E-02     539
   291  0.3529411765      0.1764705882      0.4705882353      0.4884998982E-02     539
   292  0.4117647059      0.1764705882      0.4705882353      0.2442499491E-02     538
   293  0.2352941176      0.2352941176      0.4705882353      0.2442499491E-02     542
   294  0.2941176471      0.2352941176      0.4705882353      0.4884998982E-02     537
   295  0.3529411765      0.2352941176      0.4705882353      0.4884998982E-02     534
   296  0.2941176471      0.2941176471      0.4705882353      0.2442499491E-02     536
   297  0.3529411765      0.2941176471      0.4705882353      0.2442499491E-02     534
