 
Lattice optimisation step :      1
Derivative of total energy w.r.t. strain tensors :
 -0.9678700735E-03
 
Lattice optimisation step :      2
Derivative of total energy w.r.t. strain tensors :
 -0.1215650082E-02
 
Lattice optimisation step :      3
Derivative of total energy w.r.t. strain tensors :
 -0.1595793128E-02
 
Lattice optimisation step :      4
Derivative of total energy w.r.t. strain tensors :
 -0.1262568321E-02
 
Lattice optimisation step :      5
Derivative of total energy w.r.t. strain tensors :
 -0.1141145071E-02
 
Lattice optimisation step :      6
Derivative of total energy w.r.t. strain tensors :
  0.1213928613E-03
 
Stress convergence target achieved
