    -1729.55677513    
    -1729.21765830    
    -1726.20862929    
    -1716.20504605    
    -1711.23877131    
    -1709.27112797    
    -1708.34337949    
    -1708.34851800    
    -1708.36834922    
    -1708.36841867    
    -1708.36616762    
    -1708.36624173    
    -1708.36620914    
    -1708.36620302    
    -1708.36615540    
    -1708.36616261    
    -1708.36623509    
    -1708.36631054    
    -1708.36633275    
    -1708.36634423    
    -1708.36634552    
    -1708.36633877    
    -1708.36633923    
    -1708.36634415    
    -1708.36634593    
    -1708.36634715    
    -1708.36634810    
    -1708.36634631    
    -1708.36634408    
    -1708.36634367    
    -1708.36634322    
    -1708.36633976    
    -1708.36633841    
    -1708.36633700    
    -1708.36633727    
    -1708.36633731    
    -1708.36633768    
    -1708.36633781    
    -1708.36633787    
    -1708.36633783    
    -1708.36633791    
    -1708.36633800    
    -1708.36633801    
    -1708.36633804    
    -1708.36633807    
    -1708.36633809    
    -1708.36633810    
    -1708.36633807    
    -1708.36633807    
    -1708.36633807    
