    0.180793381912E-03
    0.118796408110E-03
    0.483424277391E-04
    0.158664495807E-03
    0.435126753395E-03
    0.225270254361E-04
    0.157029236121E-04
    0.140639319305E-02
    0.110089644634E-05
    0.730943386351E-05
    0.119693116847E-04
    0.151533763832E-03
    0.147023279791E-01
    0.257340653866E-03
    0.142489110393E-03
    0.758143781650E-03
    0.702932499845E-04
    0.992618140565E-04
    0.106356902694E-04
    0.298826122219E-03
    0.175327207601E-01
    0.111261750403E-03
    0.143725436036E-03
    0.206679937523E-03
    0.105360544277E-03
    0.676234622562E-03
    0.356575465899E-04
    0.561144605319E-03
    0.265652009005E-03
    0.108875699087E-03
    0.210931871249E-03
    0.119166181201E-03
    0.306590416044E-03
    0.239175901634E-03
    0.211086267668E-03
    0.971036977273E-04
    0.100797926247E-03
    0.993096423109E-04
    0.987707090466E-04
    0.988511795554E-04
    0.990598689445E-04
    0.990649640283E-04
    0.990356957062E-04
    0.991810243256E-04
    0.991788455579E-04
    0.991815962347E-04
    0.992055868189E-04
    0.992197423879E-04
    0.991976525563E-04
    0.992093151483E-04
    0.991948486939E-04
    0.991822216225E-04
    0.991860749222E-04
    0.992327072239E-04
    0.992193385980E-04
    0.992135336353E-04
    0.992105323781E-04
    0.992051618611E-04
    0.992072100770E-04
    0.992015020810E-04
    0.992045831401E-04
    0.992108101870E-04
    0.992165733548E-04
    0.992187132557E-04
    0.992220025093E-04
    0.992120370484E-04
    0.992086483034E-04
    0.991857729627E-04
    0.992027907798E-04
    0.992073065612E-04
    0.992092818191E-04
    0.992073139754E-04
    0.992068564948E-04
    0.992060102051E-04
    0.992062238956E-04
    0.992054244355E-04
    0.992057286384E-04
