 
Distance between is =    1 (Sc), ia =    1 and
 is =    1 (Sc), ia =    1 :    0.000000000    
 is =    1 (Sc), ia =    2 :    6.217407544    
 
Distance between is =    1 (Sc), ia =    2 and
 is =    1 (Sc), ia =    1 :    6.217407544    
 is =    1 (Sc), ia =    2 :    0.000000000    
