 
Species :    1 (Sr), atom :    1
 APW functions :
  l =  0, energy derivative =  0 :   0.5364209827E-01
  l =  1, energy derivative =  0 :   0.5364209827E-01
  l =  2, energy derivative =  0 :   0.5364209827E-01
  l =  3, energy derivative =  0 :   0.5364209827E-01
  l =  4, energy derivative =  0 :   0.5364209827E-01
  l =  5, energy derivative =  0 :   0.5364209827E-01
  l =  6, energy derivative =  0 :   0.5364209827E-01
  l =  7, energy derivative =  0 :   0.5364209827E-01
  l =  8, energy derivative =  0 :   0.5364209827E-01
  l =  9, energy derivative =  0 :   0.5364209827E-01
  l = 10, energy derivative =  0 :   0.5364209827E-01
 local-orbital functions :
  l.o. =  1, l =  0, energy derivative =  0 :   0.5364209827E-01
  l.o. =  1, l =  0, energy derivative =  1 :   0.5364209827E-01
  l.o. =  2, l =  1, energy derivative =  0 :   0.5364209827E-01
  l.o. =  2, l =  1, energy derivative =  1 :   0.5364209827E-01
  l.o. =  3, l =  0, energy derivative =  0 :   0.5364209827E-01
  l.o. =  3, l =  0, energy derivative =  0 :   -1.193034456    
  l.o. =  4, l =  1, energy derivative =  0 :   0.5364209827E-01
  l.o. =  4, l =  1, energy derivative =  0 :  -0.5028921871    
  l.o. =  5, l =  2, energy derivative =  0 :   0.5364209827E-01
  l.o. =  5, l =  2, energy derivative =  1 :   0.5364209827E-01
  l.o. =  6, l =  3, energy derivative =  0 :   0.5364209827E-01
  l.o. =  6, l =  3, energy derivative =  1 :   0.5364209827E-01
  l.o. =  7, l =  4, energy derivative =  0 :   0.5364209827E-01
  l.o. =  7, l =  4, energy derivative =  1 :   0.5364209827E-01
  l.o. =  8, l =  0, energy derivative =  0 :    1.524070366    
  l.o. =  8, l =  0, energy derivative =  1 :    1.524070366    
  l.o. =  8, l =  0, energy derivative =  2 :    1.524070366    
  l.o. =  9, l =  1, energy derivative =  0 :    2.098952969    
  l.o. =  9, l =  1, energy derivative =  1 :    2.098952969    
  l.o. =  9, l =  1, energy derivative =  2 :    2.098952969    
  l.o. = 10, l =  2, energy derivative =  0 :   0.5392826934    
  l.o. = 10, l =  2, energy derivative =  1 :   0.5392826934    
  l.o. = 10, l =  2, energy derivative =  2 :   0.5392826934    
  l.o. = 11, l =  3, energy derivative =  0 :    1.565769660    
  l.o. = 11, l =  3, energy derivative =  1 :    1.565769660    
  l.o. = 11, l =  3, energy derivative =  2 :    1.565769660    
  l.o. = 12, l =  4, energy derivative =  0 :    2.958922029    
  l.o. = 12, l =  4, energy derivative =  1 :    2.958922029    
  l.o. = 12, l =  4, energy derivative =  2 :    2.958922029    
  l.o. = 13, l =  5, energy derivative =  0 :    4.375228056    
  l.o. = 13, l =  5, energy derivative =  1 :    4.375228056    
  l.o. = 13, l =  5, energy derivative =  2 :    4.375228056    
  l.o. = 14, l =  6, energy derivative =  0 :    5.913874538    
  l.o. = 14, l =  6, energy derivative =  1 :    5.913874538    
  l.o. = 14, l =  6, energy derivative =  2 :    5.913874538    
  l.o. = 15, l =  7, energy derivative =  0 :    7.597274094    
  l.o. = 15, l =  7, energy derivative =  1 :    7.597274094    
  l.o. = 15, l =  7, energy derivative =  2 :    7.597274094    
  l.o. = 16, l =  8, energy derivative =  0 :    9.433586001    
  l.o. = 16, l =  8, energy derivative =  1 :    9.433586001    
  l.o. = 16, l =  8, energy derivative =  2 :    9.433586001    
