 
Species :    1 (Sc), atom :    1
 n =  1, l =  0, k =  1 :   -161.4733964    
 n =  2, l =  0, k =  1 :   -16.95057321    
 n =  2, l =  1, k =  1 :   -13.88968105    
 n =  2, l =  1, k =  2 :   -13.71821838    
 
Species :    1 (Sc), atom :    2
 n =  1, l =  0, k =  1 :   -161.4733964    
 n =  2, l =  0, k =  1 :   -16.95057321    
 n =  2, l =  1, k =  1 :   -13.88968105    
 n =  2, l =  1, k =  2 :   -13.71821838    
