 
scale
 1.0
 
scale1
 1.0
 
scale2
 1.0
 
scale3
 1.0
 
avec
   5.418230469      -3.128216820       0.000000000    
   0.000000000       6.256433639       0.000000000    
   0.000000000       0.000000000       9.151418930    
 
atoms
   1                                    : nspecies
'Sc.in'                                 : spfname
   2                                    : natoms; atpos, bfcmt below
    0.33333333    0.16666667    0.25000000    0.00000000  0.00000000  0.00000000
   -0.33333333   -0.16666667   -0.25000000    0.00000000  0.00000000  0.00000000
