    -1729.58591493    
    -1729.25136507    
    -1726.05190775    
    -1716.16841290    
    -1711.23469142    
    -1709.24199060    
    -1708.33348946    
    -1708.35000447    
    -1708.36804262    
    -1708.36674655    
    -1708.36542544    
    -1708.36546991    
    -1708.36496657    
    -1708.36502102    
    -1708.36510486    
    -1708.36505728    
    -1708.36505353    
    -1708.36505877    
    -1708.36508097    
    -1708.36508482    
    -1708.36509550    
    -1708.36508463    
    -1708.36508187    
    -1708.36508559    
    -1708.36508471    
    -1708.36508515    
    -1708.36507975    
    -1708.36507799    
    -1708.36507553    
    -1708.36507678    
    -1708.36507550    
    -1708.36507457    
    -1708.36507262    
    -1708.36507167    
    -1708.36507271    
    -1708.36507441    
    -1708.36507408    
    -1708.36507368    
    -1708.36507420    
    -1708.36507457    
    -1708.36507455    
    -1708.36507451    
    -1708.36507453    
    -1708.36507418    
    -1708.36507458    
    -1708.36507458    
    -1708.36507456    
    -1708.36507455    
