 
Species :    1 (Pt), atom :    1
 n =  1, l =  0, k =  1 :   -2880.827487    
 n =  2, l =  0, k =  1 :   -504.6720222    
 n =  2, l =  1, k =  1 :   -484.1526494    
 n =  2, l =  1, k =  2 :   -420.2826514    
 n =  3, l =  0, k =  1 :   -117.9612195    
 n =  3, l =  1, k =  1 :   -108.6466705    
 n =  3, l =  1, k =  2 :   -94.60656518    
 n =  3, l =  2, k =  2 :   -78.83280735    
 n =  3, l =  2, k =  3 :   -75.81907397    
 n =  4, l =  0, k =  1 :   -24.80134880    
 n =  4, l =  1, k =  1 :   -20.82463982    
 n =  4, l =  1, k =  2 :   -17.47870367    
 n =  4, l =  2, k =  2 :   -10.90541811    
 n =  4, l =  2, k =  3 :   -10.28598565    
 n =  5, l =  0, k =  1 :   -3.024239834    
