 
Species :    1 (Zr), atom :    1
 n =  1, l =  0, k =  1 :   -655.4524793    
 n =  2, l =  0, k =  1 :   -90.11901488    
 n =  2, l =  1, k =  1 :   -82.41508429    
 n =  2, l =  1, k =  2 :   -79.24668945    
 n =  3, l =  0, k =  1 :   -14.20985816    
 n =  3, l =  1, k =  1 :   -11.34658320    
 n =  3, l =  1, k =  2 :   -10.84158693    
 n =  3, l =  2, k =  2 :   -5.792541022    
 n =  3, l =  2, k =  3 :   -5.700800127    
 
Species :    1 (Zr), atom :    2
 n =  1, l =  0, k =  1 :   -655.4524793    
 n =  2, l =  0, k =  1 :   -90.11901488    
 n =  2, l =  1, k =  1 :   -82.41508429    
 n =  2, l =  1, k =  2 :   -79.24668945    
 n =  3, l =  0, k =  1 :   -14.20985816    
 n =  3, l =  1, k =  1 :   -11.34658320    
 n =  3, l =  1, k =  2 :   -10.84158693    
 n =  3, l =  2, k =  2 :   -5.792541022    
 n =  3, l =  2, k =  3 :   -5.700800127    
