 
+----------------------------+
| Real-space lattice vectors |
+----------------------------+
 
vector a1 :    4.336696334      -2.503792796       0.000000000    
vector a2 :    0.000000000       5.007585591       0.000000000    
vector a3 :    0.000000000       0.000000000       8.543842342    
 
Stored column-wise as a matrix :
   4.336696334       0.000000000       0.000000000    
  -2.503792796       5.007585591       0.000000000    
   0.000000000       0.000000000       8.543842342    
 
Inverse of matrix :
  0.2305902750       0.000000000       0.000000000    
  0.1152951375      0.1996970360       0.000000000    
   0.000000000       0.000000000      0.1170433582    
 
Unit cell volume :    185.5413105    
 
 
+----------------------------------+
| Reciprocal-space lattice vectors |
+----------------------------------+
 
vector b1 :    1.448841428       0.000000000       0.000000000    
vector b2 :   0.7244207139       1.254733482       0.000000000    
vector b3 :    0.000000000       0.000000000      0.7354051088    
 
Stored column-wise as a matrix :
   1.448841428      0.7244207139       0.000000000    
   0.000000000       1.254733482       0.000000000    
   0.000000000       0.000000000      0.7354051088    
 
Inverse of matrix :
  0.6902066582     -0.3984909999       0.000000000    
   0.000000000      0.7969819997       0.000000000    
   0.000000000       0.000000000       1.359794742    
 
Brillouin zone volume :    1.336900191    
