   22.95308102    
   22.69251385    
   18.91028552    
   20.32509153    
   20.04682240    
   19.86118399    
   19.79048234    
   19.77441429    
   19.76148209    
   19.76042531    
   19.75969434    
   19.75938612    
   19.75915712    
   19.75915362    
   19.75915365    
   19.75915352    
   19.75915356    
   19.75915357    
   19.75915357    
   19.75915359    
   19.75915357    
