   28.17230843    
   39.38644109    
   37.99161710    
   28.94070434    
   18.48319168    
   10.68420279    
   6.088212928    
   3.514614379    
   1.966323524    
   1.023905163    
  0.4840695484    
  0.2016663291    
  0.7200730963E-01
  0.2059813743E-01
  0.4259372003E-02
  0.3422439477E-04
  0.3283155456E-03
  0.2231217513E-03
  0.7006654414E-04
  0.4363558401E-04
  0.9336290532E-05
  0.6792641216E-05
  0.1464981324E-05
  0.1787633664E-05
  0.6328991731E-07
