 
Species :    1 (Au), atom :    1
 APW functions :
  l =  0, energy derivative =  0 :   0.3652819634    
  l =  1, energy derivative =  0 :   0.3652819634    
  l =  2, energy derivative =  0 :   0.3652819634    
  l =  3, energy derivative =  0 :   0.3652819634    
  l =  4, energy derivative =  0 :   0.3652819634    
  l =  5, energy derivative =  0 :   0.3652819634    
  l =  6, energy derivative =  0 :   0.3652819634    
  l =  7, energy derivative =  0 :   0.3652819634    
  l =  8, energy derivative =  0 :   0.3652819634    
  l =  9, energy derivative =  0 :   0.3652819634    
  l = 10, energy derivative =  0 :   0.3652819634    
 local-orbital functions :
  l.o. =  1, l =  0, energy derivative =  0 :   0.3652819634    
  l.o. =  1, l =  0, energy derivative =  1 :   0.3652819634    
  l.o. =  2, l =  1, energy derivative =  0 :   0.3652819634    
  l.o. =  2, l =  1, energy derivative =  1 :   0.3652819634    
  l.o. =  3, l =  2, energy derivative =  0 :   0.3652819634    
  l.o. =  3, l =  2, energy derivative =  1 :   0.3652819634    
  l.o. =  4, l =  3, energy derivative =  0 :   0.3652819634    
  l.o. =  4, l =  3, energy derivative =  1 :   0.3652819634    
  l.o. =  5, l =  3, energy derivative =  0 :   0.3652819634    
  l.o. =  5, l =  3, energy derivative =  0 :   -2.416162644    
  l.o. =  6, l =  1, energy derivative =  0 :   0.3652819634    
  l.o. =  6, l =  1, energy derivative =  0 :   -1.646863060    
  l.o. =  7, l =  2, energy derivative =  0 :   0.3652819634    
  l.o. =  7, l =  2, energy derivative =  0 :   0.3450983820    
  l.o. =  8, l =  4, energy derivative =  0 :   0.3652819634    
  l.o. =  8, l =  4, energy derivative =  1 :   0.3652819634    
  l.o. =  9, l =  5, energy derivative =  0 :   0.3652819634    
  l.o. =  9, l =  5, energy derivative =  1 :   0.3652819634    
  l.o. = 10, l =  6, energy derivative =  0 :   0.3652819634    
  l.o. = 10, l =  6, energy derivative =  1 :   0.3652819634    
  l.o. = 11, l =  0, energy derivative =  0 :   0.7877132076    
  l.o. = 11, l =  0, energy derivative =  1 :   0.7877132076    
  l.o. = 11, l =  0, energy derivative =  2 :   0.7877132076    
  l.o. = 12, l =  1, energy derivative =  0 :    1.450254948    
  l.o. = 12, l =  1, energy derivative =  1 :    1.450254948    
  l.o. = 12, l =  1, energy derivative =  2 :    1.450254948    
  l.o. = 13, l =  2, energy derivative =  0 :   0.3450983820    
  l.o. = 13, l =  2, energy derivative =  1 :   0.3450983820    
  l.o. = 13, l =  2, energy derivative =  2 :   0.3450983820    
  l.o. = 14, l =  3, energy derivative =  0 :    1.948943230    
  l.o. = 14, l =  3, energy derivative =  1 :    1.948943230    
  l.o. = 14, l =  3, energy derivative =  2 :    1.948943230    
  l.o. = 15, l =  4, energy derivative =  0 :    3.223237693    
  l.o. = 15, l =  4, energy derivative =  1 :    3.223237693    
  l.o. = 15, l =  4, energy derivative =  2 :    3.223237693    
  l.o. = 16, l =  5, energy derivative =  0 :    4.667086833    
  l.o. = 16, l =  5, energy derivative =  1 :    4.667086833    
  l.o. = 16, l =  5, energy derivative =  2 :    4.667086833    
  l.o. = 17, l =  6, energy derivative =  0 :    6.192833431    
  l.o. = 17, l =  6, energy derivative =  1 :    6.192833431    
  l.o. = 17, l =  6, energy derivative =  2 :    6.192833431    
  l.o. = 18, l =  7, energy derivative =  0 :    7.852139609    
  l.o. = 18, l =  7, energy derivative =  1 :    7.852139609    
  l.o. = 18, l =  7, energy derivative =  2 :    7.852139609    
  l.o. = 19, l =  8, energy derivative =  0 :    9.658887076    
  l.o. = 19, l =  8, energy derivative =  1 :    9.658887076    
  l.o. = 19, l =  8, energy derivative =  2 :    9.658887076    
