   7.394057441    
   10.53586565    
   10.82351838    
   9.272887013    
   7.068997120    
   5.040680880    
   3.348413764    
   2.076679347    
   1.178325798    
  0.6080762548    
  0.2854295645    
  0.1206871558    
  0.4550402458E-01
  0.1461904822E-01
  0.4075508144E-02
  0.5843574800E-03
  0.2138794016E-03
  0.4068225098E-04
  0.3799228398E-04
  0.2076275086E-04
  0.1012400571E-04
  0.7289977475E-05
  0.1753197466E-05
  0.1447626346E-05
  0.5812426025E-06
  0.1992211764E-06
  0.2406395652E-06
  0.9203995432E-07
