    0.233827092062E-03
    0.132787085013E-03
    0.641092808528E-04
    0.153668209005E-03
    0.219606640217E-03
    0.199659662035E-03
    0.589536436233E-04
    0.694555365844E-04
    0.761936402569E-04
    0.801311820641E-04
    0.822309719357E-04
    0.832627185151E-04
    0.837231088254E-04
    0.839105658492E-04
    0.839760891205E-04
    0.839979544628E-04
    0.839993266192E-04
    0.840020098765E-04
    0.840028840217E-04
    0.840029248309E-04
    0.840028863023E-04
    0.840028047878E-04
    0.840027422220E-04
    0.840027217289E-04
    0.840027121534E-04
    0.840027021587E-04
    0.840026938203E-04
    0.840026958180E-04
    0.840026969953E-04
    0.840027003873E-04
