  0.8921860655    
  0.7296598392    
  0.5669639216    
  0.4157335140    
  0.2832021006    
  0.1776797391    
  0.1027846489    
  0.5487659635E-01
  0.2699978140E-01
  0.1232830543E-01
  0.5346533169E-02
  0.2264619006E-02
  0.9362505131E-03
  0.3621881280E-03
  0.1300627930E-03
  0.5167642604E-04
  0.1552064262E-04
  0.8168121981E-05
  0.1338979696E-04
  0.6640112309E-05
  0.1704793310E-04
  0.1600006757E-04
  0.4373033262E-05
  0.5327278831E-05
  0.1356187503E-04
