    -19187.5445167    
    -19159.3213950    
    -19126.9544014    
    -19098.8064140    
    -19079.5061169    
    -19068.4644691    
    -19062.5318640    
    -19059.1785587    
    -19057.2250542    
    -19056.1658264    
    -19055.6478022    
    -19055.4260336    
    -19055.3477570    
    -19055.3269327    
    -19055.3244478    
    -19055.3252962    
    -19055.3262989    
    -19055.3265156    
    -19055.3267103    
    -19055.3266930    
    -19055.3267051    
    -19055.3267013    
    -19055.3267025    
    -19055.3267034    
    -19055.3267037    
    -19055.3267036    
    -19055.3267036    
