  0.4407812165E-01
   1.928038937    
   1.532893797    
  0.6957127222    
  0.2284961142    
  0.6118037900E-01
  0.5316870967E-02
  0.4695604855E-03
  0.1573724887E-02
  0.1181763314E-02
  0.2983479258E-03
  0.6541550187E-04
  0.1619114332E-04
  0.3990183359E-05
  0.1085945712E-05
  0.2732326152E-06
  0.6481590731E-07
  0.1917572945E-07
  0.3059909659E-08
