   297 : nkpt; k-point, vkl, wkpt, nmat below
     1   0.000000000       0.000000000       0.000000000      0.2035416243E-03     497
     2  0.5882352941E-01   0.000000000       0.000000000      0.1221249746E-02     498
     3  0.1176470588       0.000000000       0.000000000      0.1221249746E-02     496
     4  0.1764705882       0.000000000       0.000000000      0.1221249746E-02     492
     5  0.2352941176       0.000000000       0.000000000      0.1221249746E-02     500
     6  0.2941176471       0.000000000       0.000000000      0.1221249746E-02     498
     7  0.3529411765       0.000000000       0.000000000      0.1221249746E-02     490
     8  0.4117647059       0.000000000       0.000000000      0.1221249746E-02     480
     9  0.4705882353       0.000000000       0.000000000      0.1221249746E-02     484
    10  0.5882352941E-01  0.5882352941E-01   0.000000000      0.1221249746E-02     495
    11  0.1176470588      0.5882352941E-01   0.000000000      0.2442499491E-02     493
    12  0.1764705882      0.5882352941E-01   0.000000000      0.2442499491E-02     495
    13  0.2352941176      0.5882352941E-01   0.000000000      0.2442499491E-02     496
    14  0.2941176471      0.5882352941E-01   0.000000000      0.2442499491E-02     491
    15  0.3529411765      0.5882352941E-01   0.000000000      0.2442499491E-02     485
    16  0.4117647059      0.5882352941E-01   0.000000000      0.2442499491E-02     484
    17  0.4705882353      0.5882352941E-01   0.000000000      0.1221249746E-02     482
    18  0.1176470588      0.1176470588       0.000000000      0.1221249746E-02     495
    19  0.1764705882      0.1176470588       0.000000000      0.2442499491E-02     493
    20  0.2352941176      0.1176470588       0.000000000      0.2442499491E-02     488
    21  0.2941176471      0.1176470588       0.000000000      0.2442499491E-02     487
    22  0.3529411765      0.1176470588       0.000000000      0.2442499491E-02     487
    23  0.4117647059      0.1176470588       0.000000000      0.2442499491E-02     484
    24  0.1764705882      0.1764705882       0.000000000      0.1221249746E-02     493
    25  0.2352941176      0.1764705882       0.000000000      0.2442499491E-02     489
    26  0.2941176471      0.1764705882       0.000000000      0.2442499491E-02     486
    27  0.3529411765      0.1764705882       0.000000000      0.2442499491E-02     482
    28  0.4117647059      0.1764705882       0.000000000      0.1221249746E-02     478
    29  0.2352941176      0.2352941176       0.000000000      0.1221249746E-02     485
    30  0.2941176471      0.2352941176       0.000000000      0.2442499491E-02     481
    31  0.3529411765      0.2352941176       0.000000000      0.2442499491E-02     479
    32  0.2941176471      0.2941176471       0.000000000      0.1221249746E-02     483
    33  0.3529411765      0.2941176471       0.000000000      0.1221249746E-02     474
    34   0.000000000       0.000000000      0.5882352941E-01  0.4070832485E-03     497
    35  0.5882352941E-01   0.000000000      0.5882352941E-01  0.2442499491E-02     497
    36  0.1176470588       0.000000000      0.5882352941E-01  0.2442499491E-02     496
    37  0.1764705882       0.000000000      0.5882352941E-01  0.2442499491E-02     492
    38  0.2352941176       0.000000000      0.5882352941E-01  0.2442499491E-02     498
    39  0.2941176471       0.000000000      0.5882352941E-01  0.2442499491E-02     497
    40  0.3529411765       0.000000000      0.5882352941E-01  0.2442499491E-02     489
    41  0.4117647059       0.000000000      0.5882352941E-01  0.2442499491E-02     486
    42  0.4705882353       0.000000000      0.5882352941E-01  0.2442499491E-02     479
    43  0.5882352941E-01  0.5882352941E-01  0.5882352941E-01  0.2442499491E-02     495
    44  0.1176470588      0.5882352941E-01  0.5882352941E-01  0.4884998982E-02     495
    45  0.1764705882      0.5882352941E-01  0.5882352941E-01  0.4884998982E-02     494
    46  0.2352941176      0.5882352941E-01  0.5882352941E-01  0.4884998982E-02     496
    47  0.2941176471      0.5882352941E-01  0.5882352941E-01  0.4884998982E-02     490
    48  0.3529411765      0.5882352941E-01  0.5882352941E-01  0.4884998982E-02     487
    49  0.4117647059      0.5882352941E-01  0.5882352941E-01  0.4884998982E-02     484
    50  0.4705882353      0.5882352941E-01  0.5882352941E-01  0.2442499491E-02     484
    51  0.1176470588      0.1176470588      0.5882352941E-01  0.2442499491E-02     495
    52  0.1764705882      0.1176470588      0.5882352941E-01  0.4884998982E-02     492
    53  0.2352941176      0.1176470588      0.5882352941E-01  0.4884998982E-02     490
    54  0.2941176471      0.1176470588      0.5882352941E-01  0.4884998982E-02     489
    55  0.3529411765      0.1176470588      0.5882352941E-01  0.4884998982E-02     485
    56  0.4117647059      0.1176470588      0.5882352941E-01  0.4884998982E-02     485
    57  0.1764705882      0.1764705882      0.5882352941E-01  0.2442499491E-02     492
    58  0.2352941176      0.1764705882      0.5882352941E-01  0.4884998982E-02     489
    59  0.2941176471      0.1764705882      0.5882352941E-01  0.4884998982E-02     488
    60  0.3529411765      0.1764705882      0.5882352941E-01  0.4884998982E-02     483
    61  0.4117647059      0.1764705882      0.5882352941E-01  0.2442499491E-02     481
    62  0.2352941176      0.2352941176      0.5882352941E-01  0.2442499491E-02     484
    63  0.2941176471      0.2352941176      0.5882352941E-01  0.4884998982E-02     483
    64  0.3529411765      0.2352941176      0.5882352941E-01  0.4884998982E-02     479
    65  0.2941176471      0.2941176471      0.5882352941E-01  0.2442499491E-02     481
    66  0.3529411765      0.2941176471      0.5882352941E-01  0.2442499491E-02     476
    67   0.000000000       0.000000000      0.1176470588      0.4070832485E-03     497
    68  0.5882352941E-01   0.000000000      0.1176470588      0.2442499491E-02     495
    69  0.1176470588       0.000000000      0.1176470588      0.2442499491E-02     493
    70  0.1764705882       0.000000000      0.1176470588      0.2442499491E-02     494
    71  0.2352941176       0.000000000      0.1176470588      0.2442499491E-02     498
    72  0.2941176471       0.000000000      0.1176470588      0.2442499491E-02     497
    73  0.3529411765       0.000000000      0.1176470588      0.2442499491E-02     489
    74  0.4117647059       0.000000000      0.1176470588      0.2442499491E-02     485
    75  0.4705882353       0.000000000      0.1176470588      0.2442499491E-02     479
    76  0.5882352941E-01  0.5882352941E-01  0.1176470588      0.2442499491E-02     495
    77  0.1176470588      0.5882352941E-01  0.1176470588      0.4884998982E-02     495
    78  0.1764705882      0.5882352941E-01  0.1176470588      0.4884998982E-02     493
    79  0.2352941176      0.5882352941E-01  0.1176470588      0.4884998982E-02     495
    80  0.2941176471      0.5882352941E-01  0.1176470588      0.4884998982E-02     490
    81  0.3529411765      0.5882352941E-01  0.1176470588      0.4884998982E-02     487
    82  0.4117647059      0.5882352941E-01  0.1176470588      0.4884998982E-02     485
    83  0.4705882353      0.5882352941E-01  0.1176470588      0.2442499491E-02     482
    84  0.1176470588      0.1176470588      0.1176470588      0.2442499491E-02     495
    85  0.1764705882      0.1176470588      0.1176470588      0.4884998982E-02     493
    86  0.2352941176      0.1176470588      0.1176470588      0.4884998982E-02     491
    87  0.2941176471      0.1176470588      0.1176470588      0.4884998982E-02     488
    88  0.3529411765      0.1176470588      0.1176470588      0.4884998982E-02     487
    89  0.4117647059      0.1176470588      0.1176470588      0.4884998982E-02     484
    90  0.1764705882      0.1764705882      0.1176470588      0.2442499491E-02     487
    91  0.2352941176      0.1764705882      0.1176470588      0.4884998982E-02     489
    92  0.2941176471      0.1764705882      0.1176470588      0.4884998982E-02     486
    93  0.3529411765      0.1764705882      0.1176470588      0.4884998982E-02     483
    94  0.4117647059      0.1764705882      0.1176470588      0.2442499491E-02     483
    95  0.2352941176      0.2352941176      0.1176470588      0.2442499491E-02     484
    96  0.2941176471      0.2352941176      0.1176470588      0.4884998982E-02     482
    97  0.3529411765      0.2352941176      0.1176470588      0.4884998982E-02     479
    98  0.2941176471      0.2941176471      0.1176470588      0.2442499491E-02     478
    99  0.3529411765      0.2941176471      0.1176470588      0.2442499491E-02     482
   100   0.000000000       0.000000000      0.1764705882      0.4070832485E-03     491
   101  0.5882352941E-01   0.000000000      0.1764705882      0.2442499491E-02     493
   102  0.1176470588       0.000000000      0.1764705882      0.2442499491E-02     494
   103  0.1764705882       0.000000000      0.1764705882      0.2442499491E-02     495
   104  0.2352941176       0.000000000      0.1764705882      0.2442499491E-02     498
   105  0.2941176471       0.000000000      0.1764705882      0.2442499491E-02     491
   106  0.3529411765       0.000000000      0.1764705882      0.2442499491E-02     487
   107  0.4117647059       0.000000000      0.1764705882      0.2442499491E-02     485
   108  0.4705882353       0.000000000      0.1764705882      0.2442499491E-02     485
   109  0.5882352941E-01  0.5882352941E-01  0.1764705882      0.2442499491E-02     493
   110  0.1176470588      0.5882352941E-01  0.1764705882      0.4884998982E-02     494
   111  0.1764705882      0.5882352941E-01  0.1764705882      0.4884998982E-02     493
   112  0.2352941176      0.5882352941E-01  0.1764705882      0.4884998982E-02     492
   113  0.2941176471      0.5882352941E-01  0.1764705882      0.4884998982E-02     490
   114  0.3529411765      0.5882352941E-01  0.1764705882      0.4884998982E-02     487
   115  0.4117647059      0.5882352941E-01  0.1764705882      0.4884998982E-02     484
   116  0.4705882353      0.5882352941E-01  0.1764705882      0.2442499491E-02     484
   117  0.1176470588      0.1176470588      0.1764705882      0.2442499491E-02     491
   118  0.1764705882      0.1176470588      0.1764705882      0.4884998982E-02     492
   119  0.2352941176      0.1176470588      0.1764705882      0.4884998982E-02     491
   120  0.2941176471      0.1176470588      0.1764705882      0.4884998982E-02     489
   121  0.3529411765      0.1176470588      0.1764705882      0.4884998982E-02     489
   122  0.4117647059      0.1176470588      0.1764705882      0.4884998982E-02     486
   123  0.1764705882      0.1764705882      0.1764705882      0.2442499491E-02     487
   124  0.2352941176      0.1764705882      0.1764705882      0.4884998982E-02     488
   125  0.2941176471      0.1764705882      0.1764705882      0.4884998982E-02     485
   126  0.3529411765      0.1764705882      0.1764705882      0.4884998982E-02     483
   127  0.4117647059      0.1764705882      0.1764705882      0.2442499491E-02     484
   128  0.2352941176      0.2352941176      0.1764705882      0.2442499491E-02     487
   129  0.2941176471      0.2352941176      0.1764705882      0.4884998982E-02     481
   130  0.3529411765      0.2352941176      0.1764705882      0.4884998982E-02     480
   131  0.2941176471      0.2941176471      0.1764705882      0.2442499491E-02     482
   132  0.3529411765      0.2941176471      0.1764705882      0.2442499491E-02     482
   133   0.000000000       0.000000000      0.2352941176      0.4070832485E-03     491
   134  0.5882352941E-01   0.000000000      0.2352941176      0.2442499491E-02     489
   135  0.1176470588       0.000000000      0.2352941176      0.2442499491E-02     493
   136  0.1764705882       0.000000000      0.2352941176      0.2442499491E-02     496
   137  0.2352941176       0.000000000      0.2352941176      0.2442499491E-02     494
   138  0.2941176471       0.000000000      0.2352941176      0.2442499491E-02     490
   139  0.3529411765       0.000000000      0.2352941176      0.2442499491E-02     487
   140  0.4117647059       0.000000000      0.2352941176      0.2442499491E-02     484
   141  0.4705882353       0.000000000      0.2352941176      0.2442499491E-02     486
   142  0.5882352941E-01  0.5882352941E-01  0.2352941176      0.2442499491E-02     493
   143  0.1176470588      0.5882352941E-01  0.2352941176      0.4884998982E-02     493
   144  0.1764705882      0.5882352941E-01  0.2352941176      0.4884998982E-02     491
   145  0.2352941176      0.5882352941E-01  0.2352941176      0.4884998982E-02     491
   146  0.2941176471      0.5882352941E-01  0.2352941176      0.4884998982E-02     491
   147  0.3529411765      0.5882352941E-01  0.2352941176      0.4884998982E-02     489
   148  0.4117647059      0.5882352941E-01  0.2352941176      0.4884998982E-02     487
   149  0.4705882353      0.5882352941E-01  0.2352941176      0.2442499491E-02     487
   150  0.1176470588      0.1176470588      0.2352941176      0.2442499491E-02     493
   151  0.1764705882      0.1176470588      0.2352941176      0.4884998982E-02     491
   152  0.2352941176      0.1176470588      0.2352941176      0.4884998982E-02     486
   153  0.2941176471      0.1176470588      0.2352941176      0.4884998982E-02     486
   154  0.3529411765      0.1176470588      0.2352941176      0.4884998982E-02     486
   155  0.4117647059      0.1176470588      0.2352941176      0.4884998982E-02     488
   156  0.1764705882      0.1764705882      0.2352941176      0.2442499491E-02     489
   157  0.2352941176      0.1764705882      0.2352941176      0.4884998982E-02     486
   158  0.2941176471      0.1764705882      0.2352941176      0.4884998982E-02     485
   159  0.3529411765      0.1764705882      0.2352941176      0.4884998982E-02     482
   160  0.4117647059      0.1764705882      0.2352941176      0.2442499491E-02     482
   161  0.2352941176      0.2352941176      0.2352941176      0.2442499491E-02     483
   162  0.2941176471      0.2352941176      0.2352941176      0.4884998982E-02     480
   163  0.3529411765      0.2352941176      0.2352941176      0.4884998982E-02     482
   164  0.2941176471      0.2941176471      0.2352941176      0.2442499491E-02     482
   165  0.3529411765      0.2941176471      0.2352941176      0.2442499491E-02     487
   166   0.000000000       0.000000000      0.2941176471      0.4070832485E-03     485
   167  0.5882352941E-01   0.000000000      0.2941176471      0.2442499491E-02     484
   168  0.1176470588       0.000000000      0.2941176471      0.2442499491E-02     491
   169  0.1764705882       0.000000000      0.2941176471      0.2442499491E-02     496
   170  0.2352941176       0.000000000      0.2941176471      0.2442499491E-02     490
   171  0.2941176471       0.000000000      0.2941176471      0.2442499491E-02     488
   172  0.3529411765       0.000000000      0.2941176471      0.2442499491E-02     487
   173  0.4117647059       0.000000000      0.2941176471      0.2442499491E-02     485
   174  0.4705882353       0.000000000      0.2941176471      0.2442499491E-02     490
   175  0.5882352941E-01  0.5882352941E-01  0.2941176471      0.2442499491E-02     489
   176  0.1176470588      0.5882352941E-01  0.2941176471      0.4884998982E-02     496
   177  0.1764705882      0.5882352941E-01  0.2941176471      0.4884998982E-02     495
   178  0.2352941176      0.5882352941E-01  0.2941176471      0.4884998982E-02     491
   179  0.2941176471      0.5882352941E-01  0.2941176471      0.4884998982E-02     489
   180  0.3529411765      0.5882352941E-01  0.2941176471      0.4884998982E-02     488
   181  0.4117647059      0.5882352941E-01  0.2941176471      0.4884998982E-02     487
   182  0.4705882353      0.5882352941E-01  0.2941176471      0.2442499491E-02     489
   183  0.1176470588      0.1176470588      0.2941176471      0.2442499491E-02     491
   184  0.1764705882      0.1176470588      0.2941176471      0.4884998982E-02     491
   185  0.2352941176      0.1176470588      0.2941176471      0.4884998982E-02     486
   186  0.2941176471      0.1176470588      0.2941176471      0.4884998982E-02     486
   187  0.3529411765      0.1176470588      0.2941176471      0.4884998982E-02     486
   188  0.4117647059      0.1176470588      0.2941176471      0.4884998982E-02     485
   189  0.1764705882      0.1764705882      0.2941176471      0.2442499491E-02     487
   190  0.2352941176      0.1764705882      0.2941176471      0.4884998982E-02     483
   191  0.2941176471      0.1764705882      0.2941176471      0.4884998982E-02     481
   192  0.3529411765      0.1764705882      0.2941176471      0.4884998982E-02     484
   193  0.4117647059      0.1764705882      0.2941176471      0.2442499491E-02     481
   194  0.2352941176      0.2352941176      0.2941176471      0.2442499491E-02     483
   195  0.2941176471      0.2352941176      0.2941176471      0.4884998982E-02     484
   196  0.3529411765      0.2352941176      0.2941176471      0.4884998982E-02     482
   197  0.2941176471      0.2941176471      0.2941176471      0.2442499491E-02     486
   198  0.3529411765      0.2941176471      0.2941176471      0.2442499491E-02     487
   199   0.000000000       0.000000000      0.3529411765      0.4070832485E-03     485
   200  0.5882352941E-01   0.000000000      0.3529411765      0.2442499491E-02     483
   201  0.1176470588       0.000000000      0.3529411765      0.2442499491E-02     490
   202  0.1764705882       0.000000000      0.3529411765      0.2442499491E-02     492
   203  0.2352941176       0.000000000      0.3529411765      0.2442499491E-02     487
   204  0.2941176471       0.000000000      0.3529411765      0.2442499491E-02     484
   205  0.3529411765       0.000000000      0.3529411765      0.2442499491E-02     490
   206  0.4117647059       0.000000000      0.3529411765      0.2442499491E-02     488
   207  0.4705882353       0.000000000      0.3529411765      0.2442499491E-02     490
   208  0.5882352941E-01  0.5882352941E-01  0.3529411765      0.2442499491E-02     488
   209  0.1176470588      0.5882352941E-01  0.3529411765      0.4884998982E-02     494
   210  0.1764705882      0.5882352941E-01  0.3529411765      0.4884998982E-02     491
   211  0.2352941176      0.5882352941E-01  0.3529411765      0.4884998982E-02     490
   212  0.2941176471      0.5882352941E-01  0.3529411765      0.4884998982E-02     486
   213  0.3529411765      0.5882352941E-01  0.3529411765      0.4884998982E-02     486
   214  0.4117647059      0.5882352941E-01  0.3529411765      0.4884998982E-02     487
   215  0.4705882353      0.5882352941E-01  0.3529411765      0.2442499491E-02     488
   216  0.1176470588      0.1176470588      0.3529411765      0.2442499491E-02     495
   217  0.1764705882      0.1176470588      0.3529411765      0.4884998982E-02     492
   218  0.2352941176      0.1176470588      0.3529411765      0.4884998982E-02     486
   219  0.2941176471      0.1176470588      0.3529411765      0.4884998982E-02     484
   220  0.3529411765      0.1176470588      0.3529411765      0.4884998982E-02     486
   221  0.4117647059      0.1176470588      0.3529411765      0.4884998982E-02     483
   222  0.1764705882      0.1764705882      0.3529411765      0.2442499491E-02     487
   223  0.2352941176      0.1764705882      0.3529411765      0.4884998982E-02     485
   224  0.2941176471      0.1764705882      0.3529411765      0.4884998982E-02     483
   225  0.3529411765      0.1764705882      0.3529411765      0.4884998982E-02     485
   226  0.4117647059      0.1764705882      0.3529411765      0.2442499491E-02     483
   227  0.2352941176      0.2352941176      0.3529411765      0.2442499491E-02     485
   228  0.2941176471      0.2352941176      0.3529411765      0.4884998982E-02     486
   229  0.3529411765      0.2352941176      0.3529411765      0.4884998982E-02     484
   230  0.2941176471      0.2941176471      0.3529411765      0.2442499491E-02     486
   231  0.3529411765      0.2941176471      0.3529411765      0.2442499491E-02     487
   232   0.000000000       0.000000000      0.4117647059      0.4070832485E-03     486
   233  0.5882352941E-01   0.000000000      0.4117647059      0.2442499491E-02     488
   234  0.1176470588       0.000000000      0.4117647059      0.2442499491E-02     486
   235  0.1764705882       0.000000000      0.4117647059      0.2442499491E-02     492
   236  0.2352941176       0.000000000      0.4117647059      0.2442499491E-02     490
   237  0.2941176471       0.000000000      0.4117647059      0.2442499491E-02     487
   238  0.3529411765       0.000000000      0.4117647059      0.2442499491E-02     487
   239  0.4117647059       0.000000000      0.4117647059      0.2442499491E-02     488
   240  0.4705882353       0.000000000      0.4117647059      0.2442499491E-02     490
   241  0.5882352941E-01  0.5882352941E-01  0.4117647059      0.2442499491E-02     490
   242  0.1176470588      0.5882352941E-01  0.4117647059      0.4884998982E-02     490
   243  0.1764705882      0.5882352941E-01  0.4117647059      0.4884998982E-02     490
   244  0.2352941176      0.5882352941E-01  0.4117647059      0.4884998982E-02     489
   245  0.2941176471      0.5882352941E-01  0.4117647059      0.4884998982E-02     485
   246  0.3529411765      0.5882352941E-01  0.4117647059      0.4884998982E-02     486
   247  0.4117647059      0.5882352941E-01  0.4117647059      0.4884998982E-02     485
   248  0.4705882353      0.5882352941E-01  0.4117647059      0.2442499491E-02     487
   249  0.1176470588      0.1176470588      0.4117647059      0.2442499491E-02     490
   250  0.1764705882      0.1176470588      0.4117647059      0.4884998982E-02     492
   251  0.2352941176      0.1176470588      0.4117647059      0.4884998982E-02     487
   252  0.2941176471      0.1176470588      0.4117647059      0.4884998982E-02     483
   253  0.3529411765      0.1176470588      0.4117647059      0.4884998982E-02     486
   254  0.4117647059      0.1176470588      0.4117647059      0.4884998982E-02     484
   255  0.1764705882      0.1764705882      0.4117647059      0.2442499491E-02     484
   256  0.2352941176      0.1764705882      0.4117647059      0.4884998982E-02     486
   257  0.2941176471      0.1764705882      0.4117647059      0.4884998982E-02     485
   258  0.3529411765      0.1764705882      0.4117647059      0.4884998982E-02     485
   259  0.4117647059      0.1764705882      0.4117647059      0.2442499491E-02     487
   260  0.2352941176      0.2352941176      0.4117647059      0.2442499491E-02     487
   261  0.2941176471      0.2352941176      0.4117647059      0.4884998982E-02     484
   262  0.3529411765      0.2352941176      0.4117647059      0.4884998982E-02     486
   263  0.2941176471      0.2941176471      0.4117647059      0.2442499491E-02     483
   264  0.3529411765      0.2941176471      0.4117647059      0.2442499491E-02     485
   265   0.000000000       0.000000000      0.4705882353      0.4070832485E-03     480
   266  0.5882352941E-01   0.000000000      0.4705882353      0.2442499491E-02     488
   267  0.1176470588       0.000000000      0.4705882353      0.2442499491E-02     490
   268  0.1764705882       0.000000000      0.4705882353      0.2442499491E-02     496
   269  0.2352941176       0.000000000      0.4705882353      0.2442499491E-02     491
   270  0.2941176471       0.000000000      0.4705882353      0.2442499491E-02     487
   271  0.3529411765       0.000000000      0.4705882353      0.2442499491E-02     487
   272  0.4117647059       0.000000000      0.4705882353      0.2442499491E-02     489
   273  0.4705882353       0.000000000      0.4705882353      0.2442499491E-02     490
   274  0.5882352941E-01  0.5882352941E-01  0.4705882353      0.2442499491E-02     490
   275  0.1176470588      0.5882352941E-01  0.4705882353      0.4884998982E-02     490
   276  0.1764705882      0.5882352941E-01  0.4705882353      0.4884998982E-02     488
   277  0.2352941176      0.5882352941E-01  0.4705882353      0.4884998982E-02     490
   278  0.2941176471      0.5882352941E-01  0.4705882353      0.4884998982E-02     483
   279  0.3529411765      0.5882352941E-01  0.4705882353      0.4884998982E-02     486
   280  0.4117647059      0.5882352941E-01  0.4705882353      0.4884998982E-02     486
   281  0.4705882353      0.5882352941E-01  0.4705882353      0.2442499491E-02     488
   282  0.1176470588      0.1176470588      0.4705882353      0.2442499491E-02     490
   283  0.1764705882      0.1176470588      0.4705882353      0.4884998982E-02     490
   284  0.2352941176      0.1176470588      0.4705882353      0.4884998982E-02     486
   285  0.2941176471      0.1176470588      0.4705882353      0.4884998982E-02     483
   286  0.3529411765      0.1176470588      0.4705882353      0.4884998982E-02     487
   287  0.4117647059      0.1176470588      0.4705882353      0.4884998982E-02     485
   288  0.1764705882      0.1764705882      0.4705882353      0.2442499491E-02     486
   289  0.2352941176      0.1764705882      0.4705882353      0.4884998982E-02     486
   290  0.2941176471      0.1764705882      0.4705882353      0.4884998982E-02     485
   291  0.3529411765      0.1764705882      0.4705882353      0.4884998982E-02     486
   292  0.4117647059      0.1764705882      0.4705882353      0.2442499491E-02     488
   293  0.2352941176      0.2352941176      0.4705882353      0.2442499491E-02     488
   294  0.2941176471      0.2352941176      0.4705882353      0.4884998982E-02     485
   295  0.3529411765      0.2352941176      0.4705882353      0.4884998982E-02     487
   296  0.2941176471      0.2941176471      0.4705882353      0.2442499491E-02     484
   297  0.3529411765      0.2941176471      0.4705882353      0.2442499491E-02     485
