 
+----------------------------+
| Real-space lattice vectors |
+----------------------------+
 
vector a1 :    4.351314252      -2.512232455       0.000000000    
vector a2 :    0.000000000       5.024464909       0.000000000    
vector a3 :    0.000000000       0.000000000       8.311550584    
 
Stored column-wise as a matrix :
   4.351314252       0.000000000       0.000000000    
  -2.512232455       5.024464909       0.000000000    
   0.000000000       0.000000000       8.311550584    
 
Inverse of matrix :
  0.2298156240       0.000000000       0.000000000    
  0.1149078120      0.1990261686       0.000000000    
   0.000000000       0.000000000      0.1203144937    
 
Unit cell volume :    181.7156445    
 
 
+----------------------------------+
| Reciprocal-space lattice vectors |
+----------------------------------+
 
vector b1 :    1.443974152       0.000000000       0.000000000    
vector b2 :   0.7219870762       1.250518298       0.000000000    
vector b3 :    0.000000000       0.000000000      0.7559582588    
 
Stored column-wise as a matrix :
   1.443974152      0.7219870762       0.000000000    
   0.000000000       1.250518298       0.000000000    
   0.000000000       0.000000000      0.7559582588    
 
Inverse of matrix :
  0.6925331721     -0.3998342134       0.000000000    
   0.000000000      0.7996684266       0.000000000    
   0.000000000       0.000000000       1.322824360    
 
Brillouin zone volume :    1.365045998    
