  0.7267793157E-01
  0.4634759081E-01
  0.2744426466E-01
  0.1486588879E-01
  0.5089533234E-02
  0.2263425230E-03
  0.1054626400E-03
  0.3115550915E-03
  0.3879182825E-03
  0.4770465982E-04
  0.1606382578E-03
  0.3146931264E-04
  0.3958945936E-04
  0.1540613548E-03
  0.1380573882E-03
  0.2517872689E-03
  0.6024086400E-04
  0.2907717078E-03
  0.1624831995E-03
  0.5112734843E-04
  0.1559325435E-03
  0.6596472758E-04
  0.3029397193E-04
  0.1297960294E-03
  0.1307410250E-03
  0.1234823467E-02
  0.7277995560E-04
  0.3203641701E-03
  0.6407108337E-04
  0.6682449529E-04
  0.5082208878E-04
  0.2981764963E-04
  0.1673997783E-03
  0.1366273514E-02
  0.6061473035E-03
  0.2108526142E-03
  0.2149595235E-03
  0.1916632742E-03
  0.7821627760E-04
  0.5880067197E-04
  0.1099118143E-03
  0.1757676993E-03
  0.1432128467E-03
  0.1778465118E-03
