   165 : nkpt; k-point, vkl, wkpt, nmat below
     1   0.000000000       0.000000000       0.000000000      0.2035416243E-03     282
     2  0.5882352941E-01   0.000000000       0.000000000      0.1628332994E-02     282
     3  0.1176470588       0.000000000       0.000000000      0.1628332994E-02     280
     4  0.1764705882       0.000000000       0.000000000      0.1628332994E-02     277
     5  0.2352941176       0.000000000       0.000000000      0.1628332994E-02     283
     6  0.2941176471       0.000000000       0.000000000      0.1628332994E-02     283
     7  0.3529411765       0.000000000       0.000000000      0.1628332994E-02     283
     8  0.4117647059       0.000000000       0.000000000      0.1628332994E-02     274
     9  0.4705882353       0.000000000       0.000000000      0.1628332994E-02     280
    10  0.5882352941E-01  0.5882352941E-01   0.000000000      0.1221249746E-02     282
    11  0.1176470588      0.5882352941E-01   0.000000000      0.4884998982E-02     277
    12  0.1764705882      0.5882352941E-01   0.000000000      0.4884998982E-02     278
    13  0.2352941176      0.5882352941E-01   0.000000000      0.4884998982E-02     279
    14  0.2941176471      0.5882352941E-01   0.000000000      0.4884998982E-02     281
    15  0.3529411765      0.5882352941E-01   0.000000000      0.4884998982E-02     285
    16  0.4117647059      0.5882352941E-01   0.000000000      0.4884998982E-02     279
    17  0.4705882353      0.5882352941E-01   0.000000000      0.4884998982E-02     274
    18  0.5294117647      0.5882352941E-01   0.000000000      0.4884998982E-02     274
    19  0.5882352941      0.5882352941E-01   0.000000000      0.4884998982E-02     274
    20  0.6470588235      0.5882352941E-01   0.000000000      0.4884998982E-02     283
    21  0.7058823529      0.5882352941E-01   0.000000000      0.4884998982E-02     285
    22  0.7647058824      0.5882352941E-01   0.000000000      0.4884998982E-02     281
    23  0.8235294118      0.5882352941E-01   0.000000000      0.4884998982E-02     277
    24  0.8823529412      0.5882352941E-01   0.000000000      0.4884998982E-02     277
    25  0.9411764706      0.5882352941E-01   0.000000000      0.2442499491E-02     278
    26  0.1176470588      0.1176470588       0.000000000      0.1221249746E-02     274
    27  0.1764705882      0.1176470588       0.000000000      0.4884998982E-02     277
    28  0.2352941176      0.1176470588       0.000000000      0.4884998982E-02     277
    29  0.2941176471      0.1176470588       0.000000000      0.4884998982E-02     281
    30  0.3529411765      0.1176470588       0.000000000      0.4884998982E-02     279
    31  0.4117647059      0.1176470588       0.000000000      0.4884998982E-02     281
    32  0.4705882353      0.1176470588       0.000000000      0.4884998982E-02     276
    33  0.5294117647      0.1176470588       0.000000000      0.4884998982E-02     274
    34  0.5882352941      0.1176470588       0.000000000      0.4884998982E-02     274
    35  0.6470588235      0.1176470588       0.000000000      0.4884998982E-02     277
    36  0.7058823529      0.1176470588       0.000000000      0.4884998982E-02     279
    37  0.7647058824      0.1176470588       0.000000000      0.4884998982E-02     281
    38  0.8235294118      0.1176470588       0.000000000      0.4884998982E-02     282
    39  0.8823529412      0.1176470588       0.000000000      0.2442499491E-02     278
    40  0.1764705882      0.1764705882       0.000000000      0.1221249746E-02     274
    41  0.2352941176      0.1764705882       0.000000000      0.4884998982E-02     277
    42  0.2941176471      0.1764705882       0.000000000      0.4884998982E-02     281
    43  0.3529411765      0.1764705882       0.000000000      0.4884998982E-02     281
    44  0.4117647059      0.1764705882       0.000000000      0.4884998982E-02     281
    45  0.4705882353      0.1764705882       0.000000000      0.4884998982E-02     275
    46  0.5294117647      0.1764705882       0.000000000      0.4884998982E-02     276
    47  0.5882352941      0.1764705882       0.000000000      0.4884998982E-02     274
    48  0.6470588235      0.1764705882       0.000000000      0.4884998982E-02     276
    49  0.7058823529      0.1764705882       0.000000000      0.4884998982E-02     279
    50  0.7647058824      0.1764705882       0.000000000      0.4884998982E-02     280
    51  0.8235294118      0.1764705882       0.000000000      0.2442499491E-02     282
    52  0.2352941176      0.2352941176       0.000000000      0.1221249746E-02     278
    53  0.2941176471      0.2352941176       0.000000000      0.4884998982E-02     278
    54  0.3529411765      0.2352941176       0.000000000      0.4884998982E-02     277
    55  0.4117647059      0.2352941176       0.000000000      0.4884998982E-02     281
    56  0.4705882353      0.2352941176       0.000000000      0.4884998982E-02     275
    57  0.5294117647      0.2352941176       0.000000000      0.4884998982E-02     273
    58  0.5882352941      0.2352941176       0.000000000      0.4884998982E-02     272
    59  0.6470588235      0.2352941176       0.000000000      0.4884998982E-02     274
    60  0.7058823529      0.2352941176       0.000000000      0.4884998982E-02     276
    61  0.7647058824      0.2352941176       0.000000000      0.2442499491E-02     279
    62  0.2941176471      0.2941176471       0.000000000      0.1221249746E-02     274
    63  0.3529411765      0.2941176471       0.000000000      0.4884998982E-02     274
    64  0.4117647059      0.2941176471       0.000000000      0.4884998982E-02     276
    65  0.4705882353      0.2941176471       0.000000000      0.4884998982E-02     273
    66  0.5294117647      0.2941176471       0.000000000      0.4884998982E-02     273
    67  0.5882352941      0.2941176471       0.000000000      0.4884998982E-02     276
    68  0.6470588235      0.2941176471       0.000000000      0.4884998982E-02     272
    69  0.7058823529      0.2941176471       0.000000000      0.2442499491E-02     275
    70  0.3529411765      0.3529411765       0.000000000      0.1221249746E-02     274
    71  0.4117647059      0.3529411765       0.000000000      0.4884998982E-02     274
    72  0.4705882353      0.3529411765       0.000000000      0.4884998982E-02     272
    73  0.5294117647      0.3529411765       0.000000000      0.4884998982E-02     274
    74  0.5882352941      0.3529411765       0.000000000      0.4884998982E-02     275
    75  0.6470588235      0.3529411765       0.000000000      0.2442499491E-02     271
    76  0.4117647059      0.4117647059       0.000000000      0.1221249746E-02     274
    77  0.4705882353      0.4117647059       0.000000000      0.4884998982E-02     270
    78  0.5294117647      0.4117647059       0.000000000      0.4884998982E-02     270
    79  0.5882352941      0.4117647059       0.000000000      0.2442499491E-02     273
    80  0.4705882353      0.4705882353       0.000000000      0.1221249746E-02     266
    81  0.5294117647      0.4705882353       0.000000000      0.2442499491E-02     265
    82  0.1764705882      0.1176470588      0.5882352941E-01  0.4884998982E-02     280
    83  0.2352941176      0.1176470588      0.5882352941E-01  0.9769997965E-02     281
    84  0.2941176471      0.1176470588      0.5882352941E-01  0.9769997965E-02     281
    85  0.3529411765      0.1176470588      0.5882352941E-01  0.9769997965E-02     281
    86  0.4117647059      0.1176470588      0.5882352941E-01  0.9769997965E-02     279
    87  0.4705882353      0.1176470588      0.5882352941E-01  0.9769997965E-02     276
    88  0.5294117647      0.1176470588      0.5882352941E-01  0.9769997965E-02     276
    89  0.2352941176      0.1764705882      0.5882352941E-01  0.4884998982E-02     278
    90  0.2941176471      0.1764705882      0.5882352941E-01  0.9769997965E-02     281
    91  0.3529411765      0.1764705882      0.5882352941E-01  0.9769997965E-02     281
    92  0.4117647059      0.1764705882      0.5882352941E-01  0.9769997965E-02     280
    93  0.4705882353      0.1764705882      0.5882352941E-01  0.9769997965E-02     277
    94  0.5294117647      0.1764705882      0.5882352941E-01  0.9769997965E-02     274
    95  0.5882352941      0.1764705882      0.5882352941E-01  0.9769997965E-02     273
    96  0.6470588235      0.1764705882      0.5882352941E-01  0.9769997965E-02     274
    97  0.7058823529      0.1764705882      0.5882352941E-01  0.9769997965E-02     279
    98  0.7647058824      0.1764705882      0.5882352941E-01  0.9769997965E-02     280
    99  0.8235294118      0.1764705882      0.5882352941E-01  0.9769997965E-02     280
   100  0.8823529412      0.1764705882      0.5882352941E-01  0.4884998982E-02     282
   101  0.2941176471      0.2352941176      0.5882352941E-01  0.4884998982E-02     276
   102  0.3529411765      0.2352941176      0.5882352941E-01  0.9769997965E-02     279
   103  0.4117647059      0.2352941176      0.5882352941E-01  0.9769997965E-02     280
   104  0.4705882353      0.2352941176      0.5882352941E-01  0.9769997965E-02     275
   105  0.5294117647      0.2352941176      0.5882352941E-01  0.9769997965E-02     274
   106  0.5882352941      0.2352941176      0.5882352941E-01  0.9769997965E-02     272
   107  0.6470588235      0.2352941176      0.5882352941E-01  0.9769997965E-02     273
   108  0.7058823529      0.2352941176      0.5882352941E-01  0.9769997965E-02     277
   109  0.7647058824      0.2352941176      0.5882352941E-01  0.9769997965E-02     280
   110  0.8235294118      0.2352941176      0.5882352941E-01  0.4884998982E-02     280
   111  0.3529411765      0.2941176471      0.5882352941E-01  0.4884998982E-02     275
   112  0.4117647059      0.2941176471      0.5882352941E-01  0.9769997965E-02     277
   113  0.4705882353      0.2941176471      0.5882352941E-01  0.9769997965E-02     274
   114  0.5294117647      0.2941176471      0.5882352941E-01  0.9769997965E-02     273
   115  0.5882352941      0.2941176471      0.5882352941E-01  0.9769997965E-02     273
   116  0.6470588235      0.2941176471      0.5882352941E-01  0.9769997965E-02     272
   117  0.7058823529      0.2941176471      0.5882352941E-01  0.9769997965E-02     275
   118  0.7647058824      0.2941176471      0.5882352941E-01  0.4884998982E-02     275
   119  0.4117647059      0.3529411765      0.5882352941E-01  0.4884998982E-02     276
   120  0.4705882353      0.3529411765      0.5882352941E-01  0.9769997965E-02     273
   121  0.5294117647      0.3529411765      0.5882352941E-01  0.9769997965E-02     274
   122  0.5882352941      0.3529411765      0.5882352941E-01  0.9769997965E-02     274
   123  0.6470588235      0.3529411765      0.5882352941E-01  0.9769997965E-02     272
   124  0.7058823529      0.3529411765      0.5882352941E-01  0.4884998982E-02     271
   125  0.4705882353      0.4117647059      0.5882352941E-01  0.4884998982E-02     274
   126  0.5294117647      0.4117647059      0.5882352941E-01  0.9769997965E-02     271
   127  0.5882352941      0.4117647059      0.5882352941E-01  0.9769997965E-02     273
   128  0.6470588235      0.4117647059      0.5882352941E-01  0.4884998982E-02     275
   129  0.5294117647      0.4705882353      0.5882352941E-01  0.4884998982E-02     270
   130  0.5882352941      0.4705882353      0.5882352941E-01  0.4884998982E-02     269
   131  0.3529411765      0.2352941176      0.1176470588      0.4884998982E-02     280
   132  0.4117647059      0.2352941176      0.1176470588      0.9769997965E-02     280
   133  0.4705882353      0.2352941176      0.1176470588      0.9769997965E-02     279
   134  0.5294117647      0.2352941176      0.1176470588      0.9769997965E-02     275
   135  0.5882352941      0.2352941176      0.1176470588      0.9769997965E-02     275
   136  0.4117647059      0.2941176471      0.1176470588      0.4884998982E-02     277
   137  0.4705882353      0.2941176471      0.1176470588      0.9769997965E-02     275
   138  0.5294117647      0.2941176471      0.1176470588      0.9769997965E-02     274
   139  0.5882352941      0.2941176471      0.1176470588      0.9769997965E-02     274
   140  0.6470588235      0.2941176471      0.1176470588      0.9769997965E-02     273
   141  0.7058823529      0.2941176471      0.1176470588      0.9769997965E-02     276
   142  0.7647058824      0.2941176471      0.1176470588      0.9769997965E-02     276
   143  0.8235294118      0.2941176471      0.1176470588      0.4884998982E-02     275
   144  0.4705882353      0.3529411765      0.1176470588      0.4884998982E-02     273
   145  0.5294117647      0.3529411765      0.1176470588      0.9769997965E-02     273
   146  0.5882352941      0.3529411765      0.1176470588      0.9769997965E-02     273
   147  0.6470588235      0.3529411765      0.1176470588      0.9769997965E-02     271
   148  0.7058823529      0.3529411765      0.1176470588      0.9769997965E-02     274
   149  0.7647058824      0.3529411765      0.1176470588      0.4884998982E-02     275
   150  0.5294117647      0.4117647059      0.1176470588      0.4884998982E-02     272
   151  0.5882352941      0.4117647059      0.1176470588      0.9769997965E-02     273
   152  0.6470588235      0.4117647059      0.1176470588      0.9769997965E-02     273
   153  0.7058823529      0.4117647059      0.1176470588      0.4884998982E-02     270
   154  0.5882352941      0.4705882353      0.1176470588      0.4884998982E-02     270
   155  0.6470588235      0.4705882353      0.1176470588      0.4884998982E-02     272
   156  0.5294117647      0.3529411765      0.1764705882      0.4884998982E-02     275
   157  0.5882352941      0.3529411765      0.1764705882      0.9769997965E-02     273
   158  0.6470588235      0.3529411765      0.1764705882      0.9769997965E-02     271
   159  0.5882352941      0.4117647059      0.1764705882      0.4884998982E-02     272
   160  0.6470588235      0.4117647059      0.1764705882      0.9769997965E-02     275
   161  0.7058823529      0.4117647059      0.1764705882      0.9769997965E-02     271
   162  0.7647058824      0.4117647059      0.1764705882      0.4884998982E-02     274
   163  0.6470588235      0.4705882353      0.1764705882      0.4884998982E-02     274
   164  0.7058823529      0.4705882353      0.1764705882      0.4884998982E-02     270
   165  0.7058823529      0.4705882353      0.2352941176      0.4884998982E-02     270
