   5.485352427    
   8.022900752    
   8.316308473    
   6.940883318    
   4.799291838    
   2.795438481    
   1.402070717    
  0.6372440197    
  0.2852356286    
  0.1290328017    
  0.5762449115E-01
  0.2388512649E-01
  0.8684274811E-02
  0.2704627373E-02
  0.6541341372E-03
  0.8770397881E-04
  0.2334140572E-04
  0.2220730858E-04
  0.8578147117E-05
  0.7266108696E-05
  0.3578301403E-05
  0.1556364623E-05
  0.6564050636E-06
  0.1969510777E-06
  0.8578854249E-07
  0.3934655979E-07
  0.1036551112E-07
  0.1603439159E-07
  0.2089200279E-07
  0.5112178769E-07
  0.2104934538E-07
  0.1823127604E-07
  0.5134097592E-08
