   54.69817990    
   54.93598748    
   55.48033009    
   35.01504608    
   31.15951926    
   34.94301865    
   37.95276297    
   38.69728133    
   38.75141614    
   38.69827899    
   38.66544257    
   38.66438290    
   38.66688430    
   38.66686578    
   38.66763264    
   38.66752173    
   38.66775013    
   38.66820407    
   38.66833968    
   38.66823266    
   38.66831004    
   38.66837916    
   38.66841779    
   38.66843336    
   38.66845096    
   38.66846097    
   38.66845248    
   38.66844790    
   38.66843715    
   38.66842934    
   38.66843119    
   38.66842831    
   38.66843954    
   38.66843004    
   38.66843345    
   38.66843400    
   38.66843168    
   38.66843029    
   38.66842956    
   38.66842798    
   38.66842713    
   38.66842691    
   38.66842637    
   38.66842588    
   38.66842610    
   38.66842583    
   38.66842561    
