 
+----------------------------+
| Real-space lattice vectors |
+----------------------------+
 
vector a1 :    3.393673021       3.393673021       0.000000000    
vector a2 :    3.393673021       0.000000000       3.393673021    
vector a3 :    0.000000000       3.393673021       3.393673021    
 
Stored column-wise as a matrix :
   3.393673021       3.393673021       0.000000000    
   3.393673021       0.000000000       3.393673021    
   0.000000000       3.393673021       3.393673021    
 
Inverse of matrix :
  0.1473329920      0.1473329920     -0.1473329920    
  0.1473329920     -0.1473329920      0.1473329920    
 -0.1473329920      0.1473329920      0.1473329920    
 
Unit cell volume :    78.16997684    
 
 
+----------------------------------+
| Reciprocal-space lattice vectors |
+----------------------------------+
 
vector b1 :   0.9257204906      0.9257204906     -0.9257204906    
vector b2 :   0.9257204906     -0.9257204906      0.9257204906    
vector b3 :  -0.9257204906      0.9257204906      0.9257204906    
 
Stored column-wise as a matrix :
  0.9257204906      0.9257204906     -0.9257204906    
  0.9257204906     -0.9257204906      0.9257204906    
 -0.9257204906      0.9257204906      0.9257204906    
 
Inverse of matrix :
  0.5401198365      0.5401198365       0.000000000    
  0.5401198365       0.000000000      0.5401198365    
   0.000000000      0.5401198365      0.5401198365    
 
Brillouin zone volume :    3.173215900    
