+----------------------------+
| Elk version 8.3.15 started |
+----------------------------+
 
Date (YYYY-MM-DD) : 2022-02-26
Time (hh:mm:ss)   : 03:38:18
 
All units are atomic (Hartree, Bohr, etc.)
 
+------------------------------------------+
| Ground-state run resuming from STATE.OUT |
+------------------------------------------+
 
Lattice vectors :
   4.396640073      -2.538401330       0.000000000    
   0.000000000       5.076802659       0.000000000    
   0.000000000       0.000000000       8.398128531    
 
Reciprocal lattice vectors :
   1.429087941       0.000000000       0.000000000    
  0.7145439704       1.237626461       0.000000000    
   0.000000000       0.000000000      0.7481649375    
 
Unit cell volume      :    187.4535689    
Brillouin zone volume :    1.323262155    
 
Muffin-tin inner radius fraction :   0.1000000000E-01
 
Species :    1 (Tc)
 parameters loaded from : Tc.in
 name : technetium
 nuclear charge    :   -43.00000000    
 electronic charge :    43.00000000    
 atomic mass :    178643.0715    
 muffin-tin radius :    2.400000000    
 number of radial points in muffin-tin :   1200
 number on inner part of muffin-tin    :    866
 atomic positions (lattice), magnetic fields (Cartesian) :
   1 :   0.33333333  0.16666667  0.25000000    0.00000000  0.00000000  0.00000000
   2 :  -0.33333333 -0.16666667 -0.25000000    0.00000000  0.00000000  0.00000000
 
Total number of atoms per unit cell :    2
 
Spin treatment :
 spin-unpolarised
 
Number of Bravais lattice symmetries :   24
Number of crystal symmetries         :   24
Crystal has inversion symmetry
Real symmetric eigensolver will be used
 
k-point grid :     17    17    17
k-point offset :    0.000000000       0.000000000       0.000000000    
k-point set is reduced with full crystal symmetry group
Total number of k-points :      297
 
Muffin-tin radius times maximum |G+k| :    8.500000000    
 using gkmax = rgkmax / 2
Maximum |G+k| for APW functions       :    4.250000000    
Maximum (1/2)|G+k|²                   :    9.031250000    
Maximum |G| for potential and density :    34.00000000    
Constant for pseudocharge density :   20
Radial integration step length :    1
 
G-vector grid sizes :     60    60    96
Number of G-vectors :   124447
 
Maximum angular momentum used for
 APW functions                      :   10
 outer part of muffin-tin           :    8
 inner part of muffin-tin           :    1
 
Total nuclear charge    :   -86.00000000    
Total core charge       :    56.00000000    
Total valence charge    :    30.00000000    
Total excess charge     :    0.000000000    
Total electronic charge :    86.00000000    
 
Effective Wigner radius, rₛ :   0.8043323771    
 
Number of empty states         :   40
Total number of valence states :   56
Total number of core states    :   56
 
Conduction state local-orbitals added automatically
Total number of local-orbitals :  252
 
Using Libxc version 05.01.05
Exchange-correlation functional :    100   493   494
 exchange: mgga_x_rscan; correlation: mgga_c_rscan
 
Smearing type :    1
 Methfessel-Paxton order 1, Phys. Rev. B 40, 3616 (1989)
Smearing width :   0.1000000000E-02
Effective electronic temperature (K) :    315.7750248    
 
Mixing type :    3
 Broyden mixing, J. Phys. A: Math. Gen. 17, L317 (1984)
 
Potential read in from STATE.OUT
 
+------------------------------+
| Self-consistent loop started |
+------------------------------+
 
+--------------------+
| Loop number :    1 |
+--------------------+
 
Energies :
 Fermi                       :     0.611443021292    
 sum of eigenvalues          :     -5090.18378166    
 electron kinetic            :      8917.22093520    
 core electron kinetic       :      8690.73900704    
 Coulomb                     :     -17232.6214374    
 Coulomb potential           :     -13661.5775037    
 nuclear-nuclear             :     -925.919138022    
 electron-nuclear            :     -18951.8270951    
 Hartree                     :      2645.12479571    
 Madelung                    :     -10401.8326856    
 xc potential                :     -345.827213177    
 exchange                    :     -255.978953940    
 correlation                 :     -4.57957658089    
 total energy                :     -8575.95903273    
 
Density of states at Fermi energy :    63.64502356    
 (states/Hartree/unit cell)
 
Estimated indirect band gap :   0.4330486956E-03
 from k-point     35 to k-point    288
Estimated direct band gap   :   0.3565299907E-02
 at k-point     35
 
Charges :
 core                        :    56.00000000    
 valence                     :    30.00000000    
 interstitial                :    3.383634506    
 muffin-tins (core leakage)
  species :    1 (Tc)
   atom    1                 :    41.30818275     (  0.5909687317E-06)
   atom    2                 :    41.30818275     (  0.5909687317E-06)
 total in muffin-tins        :    82.61636549    
 total calculated charge     :    85.99959708    
 total charge                :    86.00000000    
 error                       :   0.4029154910E-03
 
Time (CPU seconds) :        65.58
 
+--------------------+
| Loop number :    2 |
+--------------------+
 
Energies :
 Fermi                       :     0.611441661196    
 sum of eigenvalues          :     -5090.18383318    
 electron kinetic            :      8917.22093827    
 core electron kinetic       :      8690.73901571    
 Coulomb                     :     -17232.6217801    
 Coulomb potential           :     -13661.5775441    
 nuclear-nuclear             :     -925.919138022    
 electron-nuclear            :     -18951.8277400    
 Hartree                     :      2645.12509793    
 Madelung                    :     -10401.8330080    
 xc potential                :     -345.827227301    
 exchange                    :     -255.978963108    
 correlation                 :     -4.57957744931    
 total energy                :     -8575.95938239    
 
Density of states at Fermi energy :    63.70329027    
 (states/Hartree/unit cell)
 
Estimated indirect band gap :   0.4419565788E-03
 from k-point    254 to k-point    288
Estimated direct band gap   :   0.3565386476E-02
 at k-point     35
 
Charges :
 core                        :    56.00000000    
 valence                     :    30.00000000    
 interstitial                :    3.383650387    
 muffin-tins (core leakage)
  species :    1 (Tc)
   atom    1                 :    41.30817481     (  0.5907200276E-06)
   atom    2                 :    41.30817481     (  0.5907200276E-06)
 total in muffin-tins        :    82.61634961    
 total calculated charge     :    85.99959712    
 total charge                :    86.00000000    
 error                       :   0.4028844825E-03
 
Wrote STATE.OUT
 
RMS change in Kohn-Sham potential (target) :   0.2826745021E-01 (   10.00000000    )
Absolute change in total energy (target)   :   0.3496620484E-03 (  0.1000000000E-07)
 
Time (CPU seconds) :       126.85
 
+--------------------+
| Loop number :    3 |
+--------------------+
 
Energies :
 Fermi                       :     0.611441469472    
 sum of eigenvalues          :     -5090.18382242    
 electron kinetic            :      8917.22097098    
 core electron kinetic       :      8690.73899877    
 Coulomb                     :     -17232.6217899    
 Coulomb potential           :     -13661.5775667    
 nuclear-nuclear             :     -925.919138022    
 electron-nuclear            :     -18951.8277371    
 Hartree                     :      2645.12508521    
 Madelung                    :     -10401.8330066    
 xc potential                :     -345.827226698    
 exchange                    :     -255.978962387    
 correlation                 :     -4.57957756697    
 total energy                :     -8575.95935891    
 
Density of states at Fermi energy :    63.71717439    
 (states/Hartree/unit cell)
 
Estimated indirect band gap :   0.4417961478E-03
 from k-point    254 to k-point    288
Estimated direct band gap   :   0.3565424847E-02
 at k-point     35
 
Charges :
 core                        :    56.00000000    
 valence                     :    30.00000000    
 interstitial                :    3.383653109    
 muffin-tins (core leakage)
  species :    1 (Tc)
   atom    1                 :    41.30817345     (  0.5908323182E-06)
   atom    2                 :    41.30817345     (  0.5908323182E-06)
 total in muffin-tins        :    82.61634689    
 total calculated charge     :    85.99959712    
 total charge                :    86.00000000    
 error                       :   0.4028811230E-03
 
RMS change in Kohn-Sham potential (target) :   0.2820151850E-01 (   10.00000000    )
Absolute change in total energy (target)   :   0.6392972500E-04 (  0.1000000000E-07)
 
Time (CPU seconds) :       186.59
 
+--------------------+
| Loop number :    4 |
+--------------------+
 
Energies :
 Fermi                       :     0.611435139687    
 sum of eigenvalues          :     -5090.18355601    
 electron kinetic            :      8917.22184310    
 core electron kinetic       :      8690.74146160    
 Coulomb                     :     -17232.6221506    
 Coulomb potential           :     -13661.5781838    
 nuclear-nuclear             :     -925.919138022    
 electron-nuclear            :     -18951.8278412    
 Hartree                     :      2645.12482871    
 Madelung                    :     -10401.8330586    
 xc potential                :     -345.827215293    
 exchange                    :     -255.978946196    
 correlation                 :     -4.57958081548    
 total energy                :     -8575.95883446    
 
Density of states at Fermi energy :    64.11972228    
 (states/Hartree/unit cell)
 
Estimated indirect band gap :   0.4370003871E-03
 from k-point    254 to k-point    288
Estimated direct band gap   :   0.3566589702E-02
 at k-point     35
 
Charges :
 core                        :    56.00000000    
 valence                     :    30.00000000    
 interstitial                :    3.383727847    
 muffin-tins (core leakage)
  species :    1 (Tc)
   atom    1                 :    41.30813608     (  0.5907742349E-06)
   atom    2                 :    41.30813608     (  0.5907742349E-06)
 total in muffin-tins        :    82.61627215    
 total calculated charge     :    85.99959723    
 total charge                :    86.00000000    
 error                       :   0.4027742243E-03
 
Wrote STATE.OUT
 
RMS change in Kohn-Sham potential (target) :   0.2679252251E-01 (   10.00000000    )
Absolute change in total energy (target)   :   0.5084646000E-03 (  0.1000000000E-07)
 
Time (CPU seconds) :       251.51
 
+--------------------+
| Loop number :    5 |
+--------------------+
 
Energies :
 Fermi                       :     0.611349684082    
 sum of eigenvalues          :     -5090.18426367    
 electron kinetic            :      8917.22396396    
 core electron kinetic       :      8690.74227879    
 Coulomb                     :     -17232.6286805    
 Coulomb potential           :     -13661.5807138    
 nuclear-nuclear             :     -925.919138022    
 electron-nuclear            :     -18951.8383711    
 Hartree                     :      2645.12882868    
 Madelung                    :     -10401.8383236    
 xc potential                :     -345.827513844    
 exchange                    :     -255.979130957    
 correlation                 :     -4.57959390644    
 total energy                :     -8575.96344139    
 
Density of states at Fermi energy :    69.59498204    
 (states/Hartree/unit cell)
 
Estimated indirect band gap :   0.8120957857E-04
 from k-point     57 to k-point     76
Estimated direct band gap   :   0.3579548243E-02
 at k-point     35
 
Charges :
 core                        :    56.00000000    
 valence                     :    30.00000000    
 interstitial                :    3.384074458    
 muffin-tins (core leakage)
  species :    1 (Tc)
   atom    1                 :    41.30796277     (  0.5908130873E-06)
   atom    2                 :    41.30796277     (  0.5908130873E-06)
 total in muffin-tins        :    82.61592554    
 total calculated charge     :    85.99959827    
 total charge                :    86.00000000    
 error                       :   0.4017276960E-03
 
RMS change in Kohn-Sham potential (target) :   0.1388790430E-01 (   10.00000000    )
Absolute change in total energy (target)   :   0.4479814685E-02 (  0.1000000000E-07)
 
Time (CPU seconds) :       316.47
 
+--------------------+
| Loop number :    6 |
+--------------------+
 
Energies :
 Fermi                       :     0.611296028460    
 sum of eigenvalues          :     -5090.18394498    
 electron kinetic            :      8917.22601878    
 core electron kinetic       :      8690.74339456    
 Coulomb                     :     -17232.6313224    
 Coulomb potential           :     -13661.5823247    
 nuclear-nuclear             :     -925.919138022    
 electron-nuclear            :     -18951.8420440    
 Hartree                     :      2645.12985965    
 Madelung                    :     -10401.8401600    
 xc potential                :     -345.827639035    
 exchange                    :     -255.979214245    
 correlation                 :     -4.57959532282    
 total energy                :     -8575.96411318    
 
Density of states at Fermi energy :    74.88129349    
 (states/Hartree/unit cell)
 
Estimated indirect band gap :   0.3056655216E-03
 from k-point    144 to k-point    277
Estimated direct band gap   :   0.3502934335E-02
 at k-point    271
 
Charges :
 core                        :    56.00000000    
 valence                     :    30.00000000    
 interstitial                :    3.384268369    
 muffin-tins (core leakage)
  species :    1 (Tc)
   atom    1                 :    41.30786582     (  0.5907190399E-06)
   atom    2                 :    41.30786582     (  0.5907190399E-06)
 total in muffin-tins        :    82.61573163    
 total calculated charge     :    85.99959895    
 total charge                :    86.00000000    
 error                       :   0.4010547158E-03
 
Wrote STATE.OUT
 
RMS change in Kohn-Sham potential (target) :   0.6455790005E-02 (   10.00000000    )
Absolute change in total energy (target)   :   0.1791746279E-02 (  0.1000000000E-07)
 
Time (CPU seconds) :       376.65
 
+--------------------+
| Loop number :    7 |
+--------------------+
 
Energies :
 Fermi                       :     0.611273873810    
 sum of eigenvalues          :     -5090.18403169    
 electron kinetic            :      8917.22700463    
 core electron kinetic       :      8690.74402919    
 Coulomb                     :     -17232.6326075    
 Coulomb potential           :     -13661.5833361    
 nuclear-nuclear             :     -925.919138022    
 electron-nuclear            :     -18951.8436028    
 Hartree                     :      2645.13013338    
 Madelung                    :     -10401.8409394    
 xc potential                :     -345.827700258    
 exchange                    :     -255.979258201    
 correlation                 :     -4.57959414829    
 total energy                :     -8575.96445519    
 
Density of states at Fermi energy :    78.70215317    
 (states/Hartree/unit cell)
 
Estimated indirect band gap :   0.1847527058E-03
 from k-point    144 to k-point    277
Estimated direct band gap   :   0.3157756926E-02
 at k-point    271
 
Charges :
 core                        :    56.00000000    
 valence                     :    30.00000000    
 interstitial                :    3.384365289    
 muffin-tins (core leakage)
  species :    1 (Tc)
   atom    1                 :    41.30781736     (  0.5907416707E-06)
   atom    2                 :    41.30781736     (  0.5907416707E-06)
 total in muffin-tins        :    82.61563471    
 total calculated charge     :    85.99959930    
 total charge                :    86.00000000    
 error                       :   0.4006950564E-03
 
RMS change in Kohn-Sham potential (target) :   0.4840348392E-02 (   10.00000000    )
Absolute change in total energy (target)   :   0.7899403900E-03 (  0.1000000000E-07)
 
Time (CPU seconds) :       439.19
 
+--------------------+
| Loop number :    8 |
+--------------------+
 
Energies :
 Fermi                       :     0.611270818564    
 sum of eigenvalues          :     -5090.18443380    
 electron kinetic            :      8917.22691228    
 core electron kinetic       :      8690.74768260    
 Coulomb                     :     -17232.6324783    
 Coulomb potential           :     -13661.5836706    
 nuclear-nuclear             :     -925.919138022    
 electron-nuclear            :     -18951.8430100    
 Hartree                     :      2645.12966968    
 Madelung                    :     -10401.8406430    
 xc potential                :     -345.827675467    
 exchange                    :     -255.979239747    
 correlation                 :     -4.57959439353    
 total energy                :     -8575.96440018    
 
Density of states at Fermi energy :    78.46525770    
 (states/Hartree/unit cell)
 
Estimated indirect band gap :   0.1921720821E-03
 from k-point    144 to k-point    277
Estimated direct band gap   :   0.3166164690E-02
 at k-point    271
 
Charges :
 core                        :    56.00000000    
 valence                     :    30.00000000    
 interstitial                :    3.384382399    
 muffin-tins (core leakage)
  species :    1 (Tc)
   atom    1                 :    41.30780880     (  0.5907409246E-06)
   atom    2                 :    41.30780880     (  0.5907409246E-06)
 total in muffin-tins        :    82.61561760    
 total calculated charge     :    85.99959934    
 total charge                :    86.00000000    
 error                       :   0.4006571788E-03
 
Wrote STATE.OUT
 
RMS change in Kohn-Sham potential (target) :   0.4437715177E-02 (   10.00000000    )
Absolute change in total energy (target)   :   0.1424714428E-03 (  0.1000000000E-07)
 
Time (CPU seconds) :       498.42
 
+--------------------+
| Loop number :    9 |
+--------------------+
 
Energies :
 Fermi                       :     0.611242571508    
 sum of eigenvalues          :     -5090.18919733    
 electron kinetic            :      8917.22304866    
 core electron kinetic       :      8690.74487368    
 Coulomb                     :     -17232.6338139    
 Coulomb potential           :     -13661.5845314    
 nuclear-nuclear             :     -925.919138022    
 electron-nuclear            :     -18951.8448204    
 Hartree                     :      2645.13014447    
 Madelung                    :     -10401.8415482    
 xc potential                :     -345.827714549    
 exchange                    :     -255.979273112    
 correlation                 :     -4.57959369953    
 total energy                :     -8575.96963208    
 
Density of states at Fermi energy :    77.43024341    
 (states/Hartree/unit cell)
 
Estimated indirect band gap :   0.2239381659E-03
 from k-point    144 to k-point    277
Estimated direct band gap   :   0.3218360543E-02
 at k-point    271
 
Charges :
 core                        :    56.00000000    
 valence                     :    30.00000000    
 interstitial                :    3.384381441    
 muffin-tins (core leakage)
  species :    1 (Tc)
   atom    1                 :    41.30780928     (  0.5906624416E-06)
   atom    2                 :    41.30780928     (  0.5906624416E-06)
 total in muffin-tins        :    82.61561856    
 total calculated charge     :    85.99959953    
 total charge                :    86.00000000    
 error                       :   0.4004718113E-03
 
RMS change in Kohn-Sham potential (target) :   0.1248840604E-02 (   10.00000000    )
Absolute change in total energy (target)   :   0.5267527737E-02 (  0.1000000000E-07)
 
Time (CPU seconds) :       558.35
 
+--------------------+
| Loop number :   10 |
+--------------------+
 
Energies :
 Fermi                       :     0.611244718291    
 sum of eigenvalues          :     -5090.18839194    
 electron kinetic            :      8917.22334206    
 core electron kinetic       :      8690.74309616    
 Coulomb                     :     -17232.6333839    
 Coulomb potential           :     -13661.5840213    
 nuclear-nuclear             :     -925.919138022    
 electron-nuclear            :     -18951.8444704    
 Hartree                     :      2645.13022458    
 Madelung                    :     -10401.8413732    
 xc potential                :     -345.827712718    
 exchange                    :     -255.979271352    
 correlation                 :     -4.57959336535    
 total energy                :     -8575.96890655    
 
Density of states at Fermi energy :    77.87487527    
 (states/Hartree/unit cell)
 
Estimated indirect band gap :   0.2099162602E-03
 from k-point    144 to k-point    277
Estimated direct band gap   :   0.3205311641E-02
 at k-point    271
 
Charges :
 core                        :    56.00000000    
 valence                     :    30.00000000    
 interstitial                :    3.384363891    
 muffin-tins (core leakage)
  species :    1 (Tc)
   atom    1                 :    41.30781805     (  0.5906649641E-06)
   atom    2                 :    41.30781805     (  0.5906649641E-06)
 total in muffin-tins        :    82.61563611    
 total calculated charge     :    85.99959948    
 total charge                :    86.00000000    
 error                       :   0.4005158173E-03
 
Wrote STATE.OUT
 
RMS change in Kohn-Sham potential (target) :   0.4289684355E-03 (   10.00000000    )
Absolute change in total energy (target)   :   0.5913425466E-03 (  0.1000000000E-07)
 
Time (CPU seconds) :       618.85
 
+--------------------+
| Loop number :   11 |
+--------------------+
 
Energies :
 Fermi                       :     0.611258034291    
 sum of eigenvalues          :     -5090.18608772    
 electron kinetic            :      8917.22523662    
 core electron kinetic       :      8690.74360688    
 Coulomb                     :     -17232.6326611    
 Coulomb potential           :     -13661.5836372    
 nuclear-nuclear             :     -925.919138022    
 electron-nuclear            :     -18951.8434091    
 Hartree                     :      2645.12988596    
 Madelung                    :     -10401.8408426    
 xc potential                :     -345.827687193    
 exchange                    :     -255.979250233    
 correlation                 :     -4.57959373101    
 total energy                :     -8575.96626847    
 
Density of states at Fermi energy :    78.36227612    
 (states/Hartree/unit cell)
 
Estimated indirect band gap :   0.1949582196E-03
 from k-point    144 to k-point    277
Estimated direct band gap   :   0.3179854790E-02
 at k-point    271
 
Charges :
 core                        :    56.00000000    
 valence                     :    30.00000000    
 interstitial                :    3.384367176    
 muffin-tins (core leakage)
  species :    1 (Tc)
   atom    1                 :    41.30781641     (  0.5905828040E-06)
   atom    2                 :    41.30781641     (  0.5905828040E-06)
 total in muffin-tins        :    82.61563282    
 total calculated charge     :    85.99959940    
 total charge                :    86.00000000    
 error                       :   0.4005979085E-03
 
RMS change in Kohn-Sham potential (target) :   0.1331724595E-03 (   10.00000000    )
Absolute change in total energy (target)   :   0.2490236455E-02 (  0.1000000000E-07)
 
Time (CPU seconds) :       680.00
 
+--------------------+
| Loop number :   12 |
+--------------------+
 
Energies :
 Fermi                       :     0.611263101352    
 sum of eigenvalues          :     -5090.18541897    
 electron kinetic            :      8917.22593663    
 core electron kinetic       :      8690.74398088    
 Coulomb                     :     -17232.6325648    
 Coulomb potential           :     -13661.5836759    
 nuclear-nuclear             :     -925.919138022    
 electron-nuclear            :     -18951.8431777    
 Hartree                     :      2645.12975092    
 Madelung                    :     -10401.8407269    
 xc potential                :     -345.827679723    
 exchange                    :     -255.979243947    
 correlation                 :     -4.57959401724    
 total energy                :     -8575.96546615    
 
Density of states at Fermi energy :    78.39718477    
 (states/Hartree/unit cell)
 
Estimated indirect band gap :   0.1941106274E-03
 from k-point    144 to k-point    277
Estimated direct band gap   :   0.3173188518E-02
 at k-point    271
 
Charges :
 core                        :    56.00000000    
 valence                     :    30.00000000    
 interstitial                :    3.384375364    
 muffin-tins (core leakage)
  species :    1 (Tc)
   atom    1                 :    41.30781232     (  0.5905856710E-06)
   atom    2                 :    41.30781232     (  0.5905856710E-06)
 total in muffin-tins        :    82.61562464    
 total calculated charge     :    85.99959939    
 total charge                :    86.00000000    
 error                       :   0.4006148418E-03
 
Wrote STATE.OUT
 
RMS change in Kohn-Sham potential (target) :   0.3859652944E-03 (   10.00000000    )
Absolute change in total energy (target)   :   0.1424883871E-02 (  0.1000000000E-07)
 
Time (CPU seconds) :       740.67
 
+--------------------+
| Loop number :   13 |
+--------------------+
 
Energies :
 Fermi                       :     0.611264511364    
 sum of eigenvalues          :     -5090.18532609    
 electron kinetic            :      8917.22607607    
 core electron kinetic       :      8690.74411731    
 Coulomb                     :     -17232.6326346    
 Coulomb potential           :     -13661.5837200    
 nuclear-nuclear             :     -925.919138022    
 electron-nuclear            :     -18951.8432731    
 Hartree                     :      2645.12977657    
 Madelung                    :     -10401.8407746    
 xc potential                :     -345.827682164    
 exchange                    :     -255.979245643    
 correlation                 :     -4.57959411653    
 total energy                :     -8575.96539828    
 
Density of states at Fermi energy :    78.35911963    
 (states/Hartree/unit cell)
 
Estimated indirect band gap :   0.1953564369E-03
 from k-point    144 to k-point    277
Estimated direct band gap   :   0.3173369286E-02
 at k-point    271
 
Charges :
 core                        :    56.00000000    
 valence                     :    30.00000000    
 interstitial                :    3.384377564    
 muffin-tins (core leakage)
  species :    1 (Tc)
   atom    1                 :    41.30781122     (  0.5907836744E-06)
   atom    2                 :    41.30781122     (  0.5907836744E-06)
 total in muffin-tins        :    82.61562244    
 total calculated charge     :    85.99959938    
 total charge                :    86.00000000    
 error                       :   0.4006196398E-03
 
RMS change in Kohn-Sham potential (target) :   0.7449108713E-03 (   10.00000000    )
Absolute change in total energy (target)   :   0.4240905528E-03 (  0.1000000000E-07)
 
Time (CPU seconds) :       802.03
 
+--------------------+
| Loop number :   14 |
+--------------------+
 
Energies :
 Fermi                       :     0.611264785302    
 sum of eigenvalues          :     -5090.18533755    
 electron kinetic            :      8917.22609453    
 core electron kinetic       :      8690.74421512    
 Coulomb                     :     -17232.6326848    
 Coulomb potential           :     -13661.5837481    
 nuclear-nuclear             :     -925.919138022    
 electron-nuclear            :     -18951.8433454    
 Hartree                     :      2645.12979868    
 Madelung                    :     -10401.8408107    
 xc potential                :     -345.827683990    
 exchange                    :     -255.979247009    
 correlation                 :     -4.57959414406    
 total energy                :     -8575.96543142    
 
Density of states at Fermi energy :    78.33730777    
 (states/Hartree/unit cell)
 
Estimated indirect band gap :   0.1960640025E-03
 from k-point    144 to k-point    277
Estimated direct band gap   :   0.3173440072E-02
 at k-point    271
 
Charges :
 core                        :    56.00000000    
 valence                     :    30.00000000    
 interstitial                :    3.384378579    
 muffin-tins (core leakage)
  species :    1 (Tc)
   atom    1                 :    41.30781071     (  0.5904808731E-06)
   atom    2                 :    41.30781071     (  0.5904808731E-06)
 total in muffin-tins        :    82.61562142    
 total calculated charge     :    85.99959938    
 total charge                :    86.00000000    
 error                       :   0.4006182088E-03
 
Wrote STATE.OUT
 
RMS change in Kohn-Sham potential (target) :   0.3171108808E-03 (   10.00000000    )
Absolute change in total energy (target)   :   0.7288657434E-04 (  0.1000000000E-07)
 
Time (CPU seconds) :       861.65
 
+--------------------+
| Loop number :   15 |
+--------------------+
 
Energies :
 Fermi                       :     0.611264246720    
 sum of eigenvalues          :     -5090.18542676    
 electron kinetic            :      8917.22601808    
 core electron kinetic       :      8690.74413981    
 Coulomb                     :     -17232.6327122    
 Coulomb potential           :     -13661.5837596    
 nuclear-nuclear             :     -925.919138022    
 electron-nuclear            :     -18951.8433888    
 Hartree                     :      2645.12981462    
 Madelung                    :     -10401.8408324    
 xc potential                :     -345.827685253    
 exchange                    :     -255.979248036    
 correlation                 :     -4.57959412493    
 total energy                :     -8575.96553630    
 
Density of states at Fermi energy :    78.32114134    
 (states/Hartree/unit cell)
 
Estimated indirect band gap :   0.1965424232E-03
 from k-point    144 to k-point    277
Estimated direct band gap   :   0.3174530130E-02
 at k-point    271
 
Charges :
 core                        :    56.00000000    
 valence                     :    30.00000000    
 interstitial                :    3.384378193    
 muffin-tins (core leakage)
  species :    1 (Tc)
   atom    1                 :    41.30781090     (  0.5908288614E-06)
   atom    2                 :    41.30781090     (  0.5908288614E-06)
 total in muffin-tins        :    82.61562181    
 total calculated charge     :    85.99959938    
 total charge                :    86.00000000    
 error                       :   0.4006169459E-03
 
RMS change in Kohn-Sham potential (target) :   0.2603304950E-03 (   10.00000000    )
Absolute change in total energy (target)   :   0.8666669055E-04 (  0.1000000000E-07)
 
Time (CPU seconds) :       920.34
 
+--------------------+
| Loop number :   16 |
+--------------------+
 
Energies :
 Fermi                       :     0.611264618164    
 sum of eigenvalues          :     -5090.18537819    
 electron kinetic            :      8917.22606705    
 core electron kinetic       :      8690.74417882    
 Coulomb                     :     -17232.6327110    
 Coulomb potential           :     -13661.5837601    
 nuclear-nuclear             :     -925.919138022    
 electron-nuclear            :     -18951.8433859    
 Hartree                     :      2645.12981291    
 Madelung                    :     -10401.8408310    
 xc potential                :     -345.827685134    
 exchange                    :     -255.979247899    
 correlation                 :     -4.57959414261    
 total energy                :     -8575.96548603    
 
Density of states at Fermi energy :    78.32525060    
 (states/Hartree/unit cell)
 
Estimated indirect band gap :   0.1964282130E-03
 from k-point    144 to k-point    277
Estimated direct band gap   :   0.3174004510E-02
 at k-point    271
 
Charges :
 core                        :    56.00000000    
 valence                     :    30.00000000    
 interstitial                :    3.384378608    
 muffin-tins (core leakage)
  species :    1 (Tc)
   atom    1                 :    41.30781070     (  0.5906004539E-06)
   atom    2                 :    41.30781070     (  0.5906004539E-06)
 total in muffin-tins        :    82.61562139    
 total calculated charge     :    85.99959938    
 total charge                :    86.00000000    
 error                       :   0.4006181721E-03
 
Wrote STATE.OUT
 
RMS change in Kohn-Sham potential (target) :   0.2894184946E-03 (   10.00000000    )
Absolute change in total energy (target)   :   0.2860212589E-04 (  0.1000000000E-07)
 
Time (CPU seconds) :       982.91
 
+--------------------+
| Loop number :   17 |
+--------------------+
 
Energies :
 Fermi                       :     0.611264437578    
 sum of eigenvalues          :     -5090.18539125    
 electron kinetic            :      8917.22604646    
 core electron kinetic       :      8690.74414892    
 Coulomb                     :     -17232.6327016    
 Coulomb potential           :     -13661.5837528    
 nuclear-nuclear             :     -925.919138022    
 electron-nuclear            :     -18951.8433744    
 Hartree                     :      2645.12981079    
 Madelung                    :     -10401.8408252    
 xc potential                :     -345.827684921    
 exchange                    :     -255.979247756    
 correlation                 :     -4.57959412904    
 total energy                :     -8575.96549702    
 
Density of states at Fermi energy :    78.32844247    
 (states/Hartree/unit cell)
 
Estimated indirect band gap :   0.1963105066E-03
 from k-point    144 to k-point    277
Estimated direct band gap   :   0.3174304079E-02
 at k-point    271
 
Charges :
 core                        :    56.00000000    
 valence                     :    30.00000000    
 interstitial                :    3.384378138    
 muffin-tins (core leakage)
  species :    1 (Tc)
   atom    1                 :    41.30781093     (  0.5905962119E-06)
   atom    2                 :    41.30781093     (  0.5905962119E-06)
 total in muffin-tins        :    82.61562186    
 total calculated charge     :    85.99959938    
 total charge                :    86.00000000    
 error                       :   0.4006186319E-03
 
RMS change in Kohn-Sham potential (target) :   0.5395471943E-03 (   10.00000000    )
Absolute change in total energy (target)   :   0.3839020792E-05 (  0.1000000000E-07)
 
Time (CPU seconds) :      1041.40
 
+--------------------+
| Loop number :   18 |
+--------------------+
 
Energies :
 Fermi                       :     0.611264604474    
 sum of eigenvalues          :     -5090.18537111    
 electron kinetic            :      8917.22606747    
 core electron kinetic       :      8690.74415910    
 Coulomb                     :     -17232.6327006    
 Coulomb potential           :     -13661.5837537    
 nuclear-nuclear             :     -925.919138022    
 electron-nuclear            :     -18951.8433715    
 Hartree                     :      2645.12980889    
 Madelung                    :     -10401.8408238    
 xc potential                :     -345.827684880    
 exchange                    :     -255.979247701    
 correlation                 :     -4.57959413864    
 total energy                :     -8575.96547498    
 
Density of states at Fermi energy :    78.32933904    
 (states/Hartree/unit cell)
 
Estimated indirect band gap :   0.1962890891E-03
 from k-point    144 to k-point    277
Estimated direct band gap   :   0.3174118402E-02
 at k-point    271
 
Charges :
 core                        :    56.00000000    
 valence                     :    30.00000000    
 interstitial                :    3.384378331    
 muffin-tins (core leakage)
  species :    1 (Tc)
   atom    1                 :    41.30781083     (  0.5905124212E-06)
   atom    2                 :    41.30781083     (  0.5905124212E-06)
 total in muffin-tins        :    82.61562167    
 total calculated charge     :    85.99959938    
 total charge                :    86.00000000    
 error                       :   0.4006191703E-03
 
Wrote STATE.OUT
 
RMS change in Kohn-Sham potential (target) :   0.3354216959E-03 (   10.00000000    )
Absolute change in total energy (target)   :   0.2108628905E-04 (  0.1000000000E-07)
 
Time (CPU seconds) :      1100.77
 
+--------------------+
| Loop number :   19 |
+--------------------+
 
Energies :
 Fermi                       :     0.611264592331    
 sum of eigenvalues          :     -5090.18536765    
 electron kinetic            :      8917.22606770    
 core electron kinetic       :      8690.74414492    
 Coulomb                     :     -17232.6326962    
 Coulomb potential           :     -13661.5837507    
 nuclear-nuclear             :     -925.919138022    
 electron-nuclear            :     -18951.8433657    
 Hartree                     :      2645.12980750    
 Madelung                    :     -10401.8408209    
 xc potential                :     -345.827684668    
 exchange                    :     -255.979247540    
 correlation                 :     -4.57959413623    
 total energy                :     -8575.96547018    
 
Density of states at Fermi energy :    78.33161876    
 (states/Hartree/unit cell)
 
Estimated indirect band gap :   0.1962146404E-03
 from k-point    144 to k-point    277
Estimated direct band gap   :   0.3174130693E-02
 at k-point    271
 
Charges :
 core                        :    56.00000000    
 valence                     :    30.00000000    
 interstitial                :    3.384378228    
 muffin-tins (core leakage)
  species :    1 (Tc)
   atom    1                 :    41.30781089     (  0.5907674137E-06)
   atom    2                 :    41.30781089     (  0.5907674137E-06)
 total in muffin-tins        :    82.61562177    
 total calculated charge     :    85.99959938    
 total charge                :    86.00000000    
 error                       :   0.4006199820E-03
 
RMS change in Kohn-Sham potential (target) :   0.5046191377E-03 (   10.00000000    )
Absolute change in total energy (target)   :   0.1006771345E-04 (  0.1000000000E-07)
 
Time (CPU seconds) :      1159.08
 
+--------------------+
| Loop number :   20 |
+--------------------+
 
Energies :
 Fermi                       :     0.611264695716    
 sum of eigenvalues          :     -5090.18535136    
 electron kinetic            :      8917.22608190    
 core electron kinetic       :      8690.74415479    
 Coulomb                     :     -17232.6326909    
 Coulomb potential           :     -13661.5837488    
 nuclear-nuclear             :     -925.919138022    
 electron-nuclear            :     -18951.8433570    
 Hartree                     :      2645.12980412    
 Madelung                    :     -10401.8408165    
 xc potential                :     -345.827684493    
 exchange                    :     -255.979247392    
 correlation                 :     -4.57959414128    
 total energy                :     -8575.96545055    
 
Density of states at Fermi energy :    78.33391759    
 (states/Hartree/unit cell)
 
Estimated indirect band gap :   0.1961443840E-03
 from k-point    144 to k-point    277
Estimated direct band gap   :   0.3174028539E-02
 at k-point    271
 
Charges :
 core                        :    56.00000000    
 valence                     :    30.00000000    
 interstitial                :    3.384378260    
 muffin-tins (core leakage)
  species :    1 (Tc)
   atom    1                 :    41.30781087     (  0.5907543290E-06)
   atom    2                 :    41.30781087     (  0.5907543290E-06)
 total in muffin-tins        :    82.61562174    
 total calculated charge     :    85.99959938    
 total charge                :    86.00000000    
 error                       :   0.4006207855E-03
 
Wrote STATE.OUT
 
RMS change in Kohn-Sham potential (target) :   0.8304680382E-04 (   10.00000000    )
Absolute change in total energy (target)   :   0.2215073982E-04 (  0.1000000000E-07)
 
Time (CPU seconds) :      1222.92
 
+--------------------+
| Loop number :   21 |
+--------------------+
 
Energies :
 Fermi                       :     0.611264686665    
 sum of eigenvalues          :     -5090.18535324    
 electron kinetic            :      8917.22608030    
 core electron kinetic       :      8690.74415361    
 Coulomb                     :     -17232.6326925    
 Coulomb potential           :     -13661.5837490    
 nuclear-nuclear             :     -925.919138022    
 electron-nuclear            :     -18951.8433599    
 Hartree                     :      2645.12980544    
 Madelung                    :     -10401.8408180    
 xc potential                :     -345.827684524    
 exchange                    :     -255.979247418    
 correlation                 :     -4.57959414061    
 total energy                :     -8575.96545374    
 
Density of states at Fermi energy :    78.33346526    
 (states/Hartree/unit cell)
 
Estimated indirect band gap :   0.1961577537E-03
 from k-point    144 to k-point    277
Estimated direct band gap   :   0.3174070088E-02
 at k-point    271
 
Charges :
 core                        :    56.00000000    
 valence                     :    30.00000000    
 interstitial                :    3.384378246    
 muffin-tins (core leakage)
  species :    1 (Tc)
   atom    1                 :    41.30781088     (  0.5908199299E-06)
   atom    2                 :    41.30781088     (  0.5908199299E-06)
 total in muffin-tins        :    82.61562175    
 total calculated charge     :    85.99959938    
 total charge                :    86.00000000    
 error                       :   0.4006209562E-03
 
RMS change in Kohn-Sham potential (target) :   0.7657446926E-04 (   10.00000000    )
Absolute change in total energy (target)   :   0.2343957021E-05 (  0.1000000000E-07)
 
Time (CPU seconds) :      1285.26
 
+--------------------+
| Loop number :   22 |
+--------------------+
 
Energies :
 Fermi                       :     0.611264692680    
 sum of eigenvalues          :     -5090.18535251    
 electron kinetic            :      8917.22608093    
 core electron kinetic       :      8690.74415353    
 Coulomb                     :     -17232.6326924    
 Coulomb potential           :     -13661.5837489    
 nuclear-nuclear             :     -925.919138022    
 electron-nuclear            :     -18951.8433599    
 Hartree                     :      2645.12980549    
 Madelung                    :     -10401.8408180    
 xc potential                :     -345.827684526    
 exchange                    :     -255.979247417    
 correlation                 :     -4.57959414095    
 total energy                :     -8575.96545306    
 
Density of states at Fermi energy :    78.33350120    
 (states/Hartree/unit cell)
 
Estimated indirect band gap :   0.1961565861E-03
 from k-point    144 to k-point    277
Estimated direct band gap   :   0.3174071898E-02
 at k-point    271
 
Charges :
 core                        :    56.00000000    
 valence                     :    30.00000000    
 interstitial                :    3.384378247    
 muffin-tins (core leakage)
  species :    1 (Tc)
   atom    1                 :    41.30781088     (  0.5907007790E-06)
   atom    2                 :    41.30781088     (  0.5907007790E-06)
 total in muffin-tins        :    82.61562175    
 total calculated charge     :    85.99959938    
 total charge                :    86.00000000    
 error                       :   0.4006208079E-03
 
Wrote STATE.OUT
 
RMS change in Kohn-Sham potential (target) :   0.5501596280E-04 (   10.00000000    )
Absolute change in total energy (target)   :   0.1268586857E-05 (  0.1000000000E-07)
 
Time (CPU seconds) :      1345.53
 
+--------------------+
| Loop number :   23 |
+--------------------+
 
Energies :
 Fermi                       :     0.611264700734    
 sum of eigenvalues          :     -5090.18535172    
 electron kinetic            :      8917.22608205    
 core electron kinetic       :      8690.74415748    
 Coulomb                     :     -17232.6326926    
 Coulomb potential           :     -13661.5837492    
 nuclear-nuclear             :     -925.919138022    
 electron-nuclear            :     -18951.8433599    
 Hartree                     :      2645.12980534    
 Madelung                    :     -10401.8408180    
 xc potential                :     -345.827684534    
 exchange                    :     -255.979247425    
 correlation                 :     -4.57959414106    
 total energy                :     -8575.96545210    
 
Density of states at Fermi energy :    78.33346619    
 (states/Hartree/unit cell)
 
Estimated indirect band gap :   0.1961577378E-03
 from k-point    144 to k-point    277
Estimated direct band gap   :   0.3174074624E-02
 at k-point    271
 
Charges :
 core                        :    56.00000000    
 valence                     :    30.00000000    
 interstitial                :    3.384378252    
 muffin-tins (core leakage)
  species :    1 (Tc)
   atom    1                 :    41.30781087     (  0.5907827045E-06)
   atom    2                 :    41.30781087     (  0.5907827045E-06)
 total in muffin-tins        :    82.61562175    
 total calculated charge     :    85.99959938    
 total charge                :    86.00000000    
 error                       :   0.4006210572E-03
 
RMS change in Kohn-Sham potential (target) :   0.1069713446E-02 (   10.00000000    )
Absolute change in total energy (target)   :   0.1272137524E-05 (  0.1000000000E-07)
 
Time (CPU seconds) :      1406.60
 
+--------------------+
| Loop number :   24 |
+--------------------+
 
Energies :
 Fermi                       :     0.611264668036    
 sum of eigenvalues          :     -5090.18535580    
 electron kinetic            :      8917.22607785    
 core electron kinetic       :      8690.74415322    
 Coulomb                     :     -17232.6326911    
 Coulomb potential           :     -13661.5837491    
 nuclear-nuclear             :     -925.919138022    
 electron-nuclear            :     -18951.8433570    
 Hartree                     :      2645.12980395    
 Madelung                    :     -10401.8408165    
 xc potential                :     -345.827684537    
 exchange                    :     -255.979247431    
 correlation                 :     -4.57959413986    
 total energy                :     -8575.96545480    
 
Density of states at Fermi energy :    78.33325050    
 (states/Hartree/unit cell)
 
Estimated indirect band gap :   0.1961630003E-03
 from k-point    144 to k-point    277
Estimated direct band gap   :   0.3174121920E-02
 at k-point    271
 
Charges :
 core                        :    56.00000000    
 valence                     :    30.00000000    
 interstitial                :    3.384378215    
 muffin-tins (core leakage)
  species :    1 (Tc)
   atom    1                 :    41.30781089     (  0.5907877849E-06)
   atom    2                 :    41.30781089     (  0.5907877849E-06)
 total in muffin-tins        :    82.61562179    
 total calculated charge     :    85.99959938    
 total charge                :    86.00000000    
 error                       :   0.4006210112E-03
 
Wrote STATE.OUT
 
RMS change in Kohn-Sham potential (target) :   0.8210913841E-04 (   10.00000000    )
Absolute change in total energy (target)   :   0.2379212674E-05 (  0.1000000000E-07)
 
Time (CPU seconds) :      1469.73
 
+--------------------+
| Loop number :   25 |
+--------------------+
 
Energies :
 Fermi                       :     0.611264685171    
 sum of eigenvalues          :     -5090.18535367    
 electron kinetic            :      8917.22607992    
 core electron kinetic       :      8690.74415409    
 Coulomb                     :     -17232.6326925    
 Coulomb potential           :     -13661.5837491    
 nuclear-nuclear             :     -925.919138022    
 electron-nuclear            :     -18951.8433599    
 Hartree                     :      2645.12980542    
 Madelung                    :     -10401.8408180    
 xc potential                :     -345.827684536    
 exchange                    :     -255.979247426    
 correlation                 :     -4.57959414073    
 total energy                :     -8575.96545415    
 
Density of states at Fermi energy :    78.33338463    
 (states/Hartree/unit cell)
 
Estimated indirect band gap :   0.1961594405E-03
 from k-point    144 to k-point    277
Estimated direct band gap   :   0.3174103303E-02
 at k-point    271
 
Charges :
 core                        :    56.00000000    
 valence                     :    30.00000000    
 interstitial                :    3.384378230    
 muffin-tins (core leakage)
  species :    1 (Tc)
   atom    1                 :    41.30781089     (  0.5907767076E-06)
   atom    2                 :    41.30781089     (  0.5907767076E-06)
 total in muffin-tins        :    82.61562177    
 total calculated charge     :    85.99959938    
 total charge                :    86.00000000    
 error                       :   0.4006210254E-03
 
RMS change in Kohn-Sham potential (target) :   0.7072795624E-04 (   10.00000000    )
Absolute change in total energy (target)   :   0.5828223948E-07 (  0.1000000000E-07)
 
Time (CPU seconds) :      1528.88
 
+--------------------+
| Loop number :   26 |
+--------------------+
 
Energies :
 Fermi                       :     0.611264690897    
 sum of eigenvalues          :     -5090.18535301    
 electron kinetic            :      8917.22608064    
 core electron kinetic       :      8690.74415485    
 Coulomb                     :     -17232.6326925    
 Coulomb potential           :     -13661.5837491    
 nuclear-nuclear             :     -925.919138022    
 electron-nuclear            :     -18951.8433599    
 Hartree                     :      2645.12980539    
 Madelung                    :     -10401.8408180    
 xc potential                :     -345.827684533    
 exchange                    :     -255.979247424    
 correlation                 :     -4.57959414134    
 total energy                :     -8575.96545346    
 
Density of states at Fermi energy :    78.33339708    
 (states/Hartree/unit cell)
 
Estimated indirect band gap :   0.1961591986E-03
 from k-point    144 to k-point    277
Estimated direct band gap   :   0.3174100057E-02
 at k-point    271
 
Charges :
 core                        :    56.00000000    
 valence                     :    30.00000000    
 interstitial                :    3.384378235    
 muffin-tins (core leakage)
  species :    1 (Tc)
   atom    1                 :    41.30781088     (  0.5908599938E-06)
   atom    2                 :    41.30781088     (  0.5908599938E-06)
 total in muffin-tins        :    82.61562176    
 total calculated charge     :    85.99959938    
 total charge                :    86.00000000    
 error                       :   0.4006212631E-03
 
Wrote STATE.OUT
 
RMS change in Kohn-Sham potential (target) :   0.3506099497E-03 (   10.00000000    )
Absolute change in total energy (target)   :   0.7046874089E-06 (  0.1000000000E-07)
 
Time (CPU seconds) :      1589.81
 
+--------------------+
| Loop number :   27 |
+--------------------+
 
Energies :
 Fermi                       :     0.611264688131    
 sum of eigenvalues          :     -5090.18535338    
 electron kinetic            :      8917.22608035    
 core electron kinetic       :      8690.74415432    
 Coulomb                     :     -17232.6326926    
 Coulomb potential           :     -13661.5837492    
 nuclear-nuclear             :     -925.919138022    
 electron-nuclear            :     -18951.8433599    
 Hartree                     :      2645.12980536    
 Madelung                    :     -10401.8408180    
 xc potential                :     -345.827684541    
 exchange                    :     -255.979247430    
 correlation                 :     -4.57959414095    
 total energy                :     -8575.96545379    
 
Density of states at Fermi energy :    78.33337734    
 (states/Hartree/unit cell)
 
Estimated indirect band gap :   0.1961597455E-03
 from k-point    144 to k-point    277
Estimated direct band gap   :   0.3174102343E-02
 at k-point    271
 
Charges :
 core                        :    56.00000000    
 valence                     :    30.00000000    
 interstitial                :    3.384378232    
 muffin-tins (core leakage)
  species :    1 (Tc)
   atom    1                 :    41.30781088     (  0.5907228626E-06)
   atom    2                 :    41.30781088     (  0.5907228626E-06)
 total in muffin-tins        :    82.61562177    
 total calculated charge     :    85.99959938    
 total charge                :    86.00000000    
 error                       :   0.4006209657E-03
 
RMS change in Kohn-Sham potential (target) :   0.1217521597E-03 (   10.00000000    )
Absolute change in total energy (target)   :   0.1530479494E-06 (  0.1000000000E-07)
 
Time (CPU seconds) :      1655.22
 
+--------------------+
| Loop number :   28 |
+--------------------+
 
Energies :
 Fermi                       :     0.611264692639    
 sum of eigenvalues          :     -5090.18535282    
 electron kinetic            :      8917.22608072    
 core electron kinetic       :      8690.74415375    
 Coulomb                     :     -17232.6326925    
 Coulomb potential           :     -13661.5837490    
 nuclear-nuclear             :     -925.919138022    
 electron-nuclear            :     -18951.8433599    
 Hartree                     :      2645.12980545    
 Madelung                    :     -10401.8408180    
 xc potential                :     -345.827684538    
 exchange                    :     -255.979247425    
 correlation                 :     -4.57959414138    
 total energy                :     -8575.96545332    
 
Density of states at Fermi energy :    78.33340345    
 (states/Hartree/unit cell)
 
Estimated indirect band gap :   0.1961590600E-03
 from k-point    144 to k-point    277
Estimated direct band gap   :   0.3174098627E-02
 at k-point    271
 
Charges :
 core                        :    56.00000000    
 valence                     :    30.00000000    
 interstitial                :    3.384378237    
 muffin-tins (core leakage)
  species :    1 (Tc)
   atom    1                 :    41.30781088     (  0.5907105169E-06)
   atom    2                 :    41.30781088     (  0.5907105169E-06)
 total in muffin-tins        :    82.61562176    
 total calculated charge     :    85.99959938    
 total charge                :    86.00000000    
 error                       :   0.4006209725E-03
 
Wrote STATE.OUT
 
RMS change in Kohn-Sham potential (target) :   0.5857751805E-03 (   10.00000000    )
Absolute change in total energy (target)   :   0.4288267519E-06 (  0.1000000000E-07)
 
Time (CPU seconds) :      1716.18
 
+--------------------+
| Loop number :   29 |
+--------------------+
 
Energies :
 Fermi                       :     0.611264701009    
 sum of eigenvalues          :     -5090.18535181    
 electron kinetic            :      8917.22608188    
 core electron kinetic       :      8690.74415471    
 Coulomb                     :     -17232.6326925    
 Coulomb potential           :     -13661.5837491    
 nuclear-nuclear             :     -925.919138022    
 electron-nuclear            :     -18951.8433599    
 Hartree                     :      2645.12980538    
 Madelung                    :     -10401.8408180    
 xc potential                :     -345.827684539    
 exchange                    :     -255.979247425    
 correlation                 :     -4.57959414174    
 total energy                :     -8575.96545224    
 
Density of states at Fermi energy :    78.33344572    
 (states/Hartree/unit cell)
 
Estimated indirect band gap :   0.1961579886E-03
 from k-point    144 to k-point    277
Estimated direct band gap   :   0.3174091319E-02
 at k-point    271
 
Charges :
 core                        :    56.00000000    
 valence                     :    30.00000000    
 interstitial                :    3.384378244    
 muffin-tins (core leakage)
  species :    1 (Tc)
   atom    1                 :    41.30781088     (  0.5907778835E-06)
   atom    2                 :    41.30781088     (  0.5907778835E-06)
 total in muffin-tins        :    82.61562176    
 total calculated charge     :    85.99959938    
 total charge                :    86.00000000    
 error                       :   0.4006211726E-03
 
RMS change in Kohn-Sham potential (target) :   0.2129092580E-03 (   10.00000000    )
Absolute change in total energy (target)   :   0.1190106559E-05 (  0.1000000000E-07)
 
Time (CPU seconds) :      1776.95
 
+--------------------+
| Loop number :   30 |
+--------------------+
 
Energies :
 Fermi                       :     0.611264699338    
 sum of eigenvalues          :     -5090.18535200    
 electron kinetic            :      8917.22608177    
 core electron kinetic       :      8690.74415429    
 Coulomb                     :     -17232.6326926    
 Coulomb potential           :     -13661.5837492    
 nuclear-nuclear             :     -925.919138022    
 electron-nuclear            :     -18951.8433599    
 Hartree                     :      2645.12980533    
 Madelung                    :     -10401.8408180    
 xc potential                :     -345.827684540    
 exchange                    :     -255.979247429    
 correlation                 :     -4.57959414125    
 total energy                :     -8575.96545239    
 
Density of states at Fermi energy :    78.33343651    
 (states/Hartree/unit cell)
 
Estimated indirect band gap :   0.1961582030E-03
 from k-point    144 to k-point    277
Estimated direct band gap   :   0.3174093386E-02
 at k-point    271
 
Charges :
 core                        :    56.00000000    
 valence                     :    30.00000000    
 interstitial                :    3.384378243    
 muffin-tins (core leakage)
  species :    1 (Tc)
   atom    1                 :    41.30781088     (  0.5907200844E-06)
   atom    2                 :    41.30781088     (  0.5907200844E-06)
 total in muffin-tins        :    82.61562176    
 total calculated charge     :    85.99959938    
 total charge                :    86.00000000    
 error                       :   0.4006209971E-03
 
Wrote STATE.OUT
 
RMS change in Kohn-Sham potential (target) :   0.8011758679E-03 (   10.00000000    )
Absolute change in total energy (target)   :   0.1468815753E-06 (  0.1000000000E-07)
 
Time (CPU seconds) :      1838.59
 
+--------------------+
| Loop number :   31 |
+--------------------+
 
Energies :
 Fermi                       :     0.611264704276    
 sum of eigenvalues          :     -5090.18535142    
 electron kinetic            :      8917.22608234    
 core electron kinetic       :      8690.74415467    
 Coulomb                     :     -17232.6326926    
 Coulomb potential           :     -13661.5837492    
 nuclear-nuclear             :     -925.919138022    
 electron-nuclear            :     -18951.8433599    
 Hartree                     :      2645.12980534    
 Madelung                    :     -10401.8408180    
 xc potential                :     -345.827684542    
 exchange                    :     -255.979247429    
 correlation                 :     -4.57959414167    
 total energy                :     -8575.96545181    
 
Density of states at Fermi energy :    78.33346214    
 (states/Hartree/unit cell)
 
Estimated indirect band gap :   0.1961575268E-03
 from k-point    144 to k-point    277
Estimated direct band gap   :   0.3174089974E-02
 at k-point    271
 
Charges :
 core                        :    56.00000000    
 valence                     :    30.00000000    
 interstitial                :    3.384378246    
 muffin-tins (core leakage)
  species :    1 (Tc)
   atom    1                 :    41.30781088     (  0.5907087015E-06)
   atom    2                 :    41.30781088     (  0.5907087015E-06)
 total in muffin-tins        :    82.61562175    
 total calculated charge     :    85.99959938    
 total charge                :    86.00000000    
 error                       :   0.4006210234E-03
 
RMS change in Kohn-Sham potential (target) :   0.3139834625E-04 (   10.00000000    )
Absolute change in total energy (target)   :   0.6132559065E-06 (  0.1000000000E-07)
 
Time (CPU seconds) :      1899.44
 
+--------------------+
| Loop number :   32 |
+--------------------+
 
Energies :
 Fermi                       :     0.611264704120    
 sum of eigenvalues          :     -5090.18535142    
 electron kinetic            :      8917.22608219    
 core electron kinetic       :      8690.74415465    
 Coulomb                     :     -17232.6326925    
 Coulomb potential           :     -13661.5837491    
 nuclear-nuclear             :     -925.919138022    
 electron-nuclear            :     -18951.8433599    
 Hartree                     :      2645.12980542    
 Madelung                    :     -10401.8408180    
 xc potential                :     -345.827684536    
 exchange                    :     -255.979247424    
 correlation                 :     -4.57959414195    
 total energy                :     -8575.96545189    
 
Density of states at Fermi energy :    78.33346430    
 (states/Hartree/unit cell)
 
Estimated indirect band gap :   0.1961574477E-03
 from k-point    144 to k-point    277
Estimated direct band gap   :   0.3174090227E-02
 at k-point    271
 
Charges :
 core                        :    56.00000000    
 valence                     :    30.00000000    
 interstitial                :    3.384378247    
 muffin-tins (core leakage)
  species :    1 (Tc)
   atom    1                 :    41.30781088     (  0.5907417702E-06)
   atom    2                 :    41.30781088     (  0.5907417702E-06)
 total in muffin-tins        :    82.61562175    
 total calculated charge     :    85.99959938    
 total charge                :    86.00000000    
 error                       :   0.4006210764E-03
 
Wrote STATE.OUT
 
RMS change in Kohn-Sham potential (target) :   0.1173426482E-02 (   10.00000000    )
Absolute change in total energy (target)   :   0.7717062545E-07 (  0.1000000000E-07)
 
Time (CPU seconds) :      1959.19
 
+--------------------+
| Loop number :   33 |
+--------------------+
 
Energies :
 Fermi                       :     0.611264702362    
 sum of eigenvalues          :     -5090.18535162    
 electron kinetic            :      8917.22608202    
 core electron kinetic       :      8690.74415450    
 Coulomb                     :     -17232.6326925    
 Coulomb potential           :     -13661.5837491    
 nuclear-nuclear             :     -925.919138022    
 electron-nuclear            :     -18951.8433599    
 Hartree                     :      2645.12980540    
 Madelung                    :     -10401.8408180    
 xc potential                :     -345.827684538    
 exchange                    :     -255.979247424    
 correlation                 :     -4.57959414178    
 total energy                :     -8575.96545207    
 
Density of states at Fermi energy :    78.33345568    
 (states/Hartree/unit cell)
 
Estimated indirect band gap :   0.1961576715E-03
 from k-point    144 to k-point    277
Estimated direct band gap   :   0.3174091632E-02
 at k-point    271
 
Charges :
 core                        :    56.00000000    
 valence                     :    30.00000000    
 interstitial                :    3.384378245    
 muffin-tins (core leakage)
  species :    1 (Tc)
   atom    1                 :    41.30781088     (  0.5907999459E-06)
   atom    2                 :    41.30781088     (  0.5907999459E-06)
 total in muffin-tins        :    82.61562175    
 total calculated charge     :    85.99959938    
 total charge                :    86.00000000    
 error                       :   0.4006211973E-03
 
RMS change in Kohn-Sham potential (target) :   0.1216118827E-03 (   10.00000000    )
Absolute change in total energy (target)   :   0.1670596248E-06 (  0.1000000000E-07)
 
Time (CPU seconds) :      2019.10
 
+--------------------+
| Loop number :   34 |
+--------------------+
 
Energies :
 Fermi                       :     0.611264702623    
 sum of eigenvalues          :     -5090.18535160    
 electron kinetic            :      8917.22608203    
 core electron kinetic       :      8690.74415452    
 Coulomb                     :     -17232.6326925    
 Coulomb potential           :     -13661.5837491    
 nuclear-nuclear             :     -925.919138022    
 electron-nuclear            :     -18951.8433599    
 Hartree                     :      2645.12980541    
 Madelung                    :     -10401.8408180    
 xc potential                :     -345.827684538    
 exchange                    :     -255.979247426    
 correlation                 :     -4.57959414149    
 total energy                :     -8575.96545206    
 
Density of states at Fermi energy :    78.33345786    
 (states/Hartree/unit cell)
 
Estimated indirect band gap :   0.1961576128E-03
 from k-point    144 to k-point    277
Estimated direct band gap   :   0.3174091380E-02
 at k-point    271
 
Charges :
 core                        :    56.00000000    
 valence                     :    30.00000000    
 interstitial                :    3.384378246    
 muffin-tins (core leakage)
  species :    1 (Tc)
   atom    1                 :    41.30781088     (  0.5907054401E-06)
   atom    2                 :    41.30781088     (  0.5907054401E-06)
 total in muffin-tins        :    82.61562175    
 total calculated charge     :    85.99959938    
 total charge                :    86.00000000    
 error                       :   0.4006210098E-03
 
Wrote STATE.OUT
 
RMS change in Kohn-Sham potential (target) :   0.6457284656E-04 (   10.00000000    )
Absolute change in total energy (target)   :   0.2479646355E-07 (  0.1000000000E-07)
 
Time (CPU seconds) :      2079.06
 
+--------------------+
| Loop number :   35 |
+--------------------+
 
Energies :
 Fermi                       :     0.611264702740    
 sum of eigenvalues          :     -5090.18535157    
 electron kinetic            :      8917.22608220    
 core electron kinetic       :      8690.74415462    
 Coulomb                     :     -17232.6326926    
 Coulomb potential           :     -13661.5837492    
 nuclear-nuclear             :     -925.919138022    
 electron-nuclear            :     -18951.8433599    
 Hartree                     :      2645.12980534    
 Madelung                    :     -10401.8408180    
 xc potential                :     -345.827684542    
 exchange                    :     -255.979247430    
 correlation                 :     -4.57959414123    
 total energy                :     -8575.96545196    
 
Density of states at Fermi energy :    78.33345858    
 (states/Hartree/unit cell)
 
Estimated indirect band gap :   0.1961575950E-03
 from k-point    144 to k-point    277
Estimated direct band gap   :   0.3174091280E-02
 at k-point    271
 
Charges :
 core                        :    56.00000000    
 valence                     :    30.00000000    
 interstitial                :    3.384378245    
 muffin-tins (core leakage)
  species :    1 (Tc)
   atom    1                 :    41.30781088     (  0.5906090550E-06)
   atom    2                 :    41.30781088     (  0.5906090550E-06)
 total in muffin-tins        :    82.61562175    
 total calculated charge     :    85.99959938    
 total charge                :    86.00000000    
 error                       :   0.4006208658E-03
 
RMS change in Kohn-Sham potential (target) :   0.6493786365E-03 (   10.00000000    )
Absolute change in total energy (target)   :   0.9129871614E-07 (  0.1000000000E-07)
 
Time (CPU seconds) :      2142.44
 
+--------------------+
| Loop number :   36 |
+--------------------+
 
Energies :
 Fermi                       :     0.611264703686    
 sum of eigenvalues          :     -5090.18535145    
 electron kinetic            :      8917.22608227    
 core electron kinetic       :      8690.74415467    
 Coulomb                     :     -17232.6326926    
 Coulomb potential           :     -13661.5837492    
 nuclear-nuclear             :     -925.919138022    
 electron-nuclear            :     -18951.8433599    
 Hartree                     :      2645.12980536    
 Madelung                    :     -10401.8408180    
 xc potential                :     -345.827684540    
 exchange                    :     -255.979247429    
 correlation                 :     -4.57959414116    
 total energy                :     -8575.96545186    
 
Density of states at Fermi energy :    78.33346384    
 (states/Hartree/unit cell)
 
Estimated indirect band gap :   0.1961574523E-03
 from k-point    144 to k-point    277
Estimated direct band gap   :   0.3174090669E-02
 at k-point    271
 
Charges :
 core                        :    56.00000000    
 valence                     :    30.00000000    
 interstitial                :    3.384378246    
 muffin-tins (core leakage)
  species :    1 (Tc)
   atom    1                 :    41.30781088     (  0.5905656266E-06)
   atom    2                 :    41.30781088     (  0.5905656266E-06)
 total in muffin-tins        :    82.61562175    
 total calculated charge     :    85.99959938    
 total charge                :    86.00000000    
 error                       :   0.4006207867E-03
 
Wrote STATE.OUT
 
RMS change in Kohn-Sham potential (target) :   0.1726622807E-03 (   10.00000000    )
Absolute change in total energy (target)   :   0.1204753062E-06 (  0.1000000000E-07)
 
Time (CPU seconds) :      2201.51
 
+--------------------+
| Loop number :   37 |
+--------------------+
 
Energies :
 Fermi                       :     0.611264703489    
 sum of eigenvalues          :     -5090.18535147    
 electron kinetic            :      8917.22608209    
 core electron kinetic       :      8690.74415444    
 Coulomb                     :     -17232.6326925    
 Coulomb potential           :     -13661.5837490    
 nuclear-nuclear             :     -925.919138022    
 electron-nuclear            :     -18951.8433599    
 Hartree                     :      2645.12980544    
 Madelung                    :     -10401.8408180    
 xc potential                :     -345.827684533    
 exchange                    :     -255.979247421    
 correlation                 :     -4.57959414203    
 total energy                :     -8575.96545196    
 
Density of states at Fermi energy :    78.33346279    
 (states/Hartree/unit cell)
 
Estimated indirect band gap :   0.1961574809E-03
 from k-point    144 to k-point    277
Estimated direct band gap   :   0.3174090810E-02
 at k-point    271
 
Charges :
 core                        :    56.00000000    
 valence                     :    30.00000000    
 interstitial                :    3.384378246    
 muffin-tins (core leakage)
  species :    1 (Tc)
   atom    1                 :    41.30781088     (  0.5907761427E-06)
   atom    2                 :    41.30781088     (  0.5907761427E-06)
 total in muffin-tins        :    82.61562175    
 total calculated charge     :    85.99959938    
 total charge                :    86.00000000    
 error                       :   0.4006212215E-03
 
RMS change in Kohn-Sham potential (target) :   0.3519598844E-03 (   10.00000000    )
Absolute change in total energy (target)   :   0.6793925422E-07 (  0.1000000000E-07)
 
Time (CPU seconds) :      2262.76
 
+--------------------+
| Loop number :   38 |
+--------------------+
 
Energies :
 Fermi                       :     0.611264703340    
 sum of eigenvalues          :     -5090.18535150    
 electron kinetic            :      8917.22608205    
 core electron kinetic       :      8690.74415444    
 Coulomb                     :     -17232.6326925    
 Coulomb potential           :     -13661.5837490    
 nuclear-nuclear             :     -925.919138022    
 electron-nuclear            :     -18951.8433599    
 Hartree                     :      2645.12980544    
 Madelung                    :     -10401.8408180    
 xc potential                :     -345.827684537    
 exchange                    :     -255.979247423    
 correlation                 :     -4.57959414201    
 total energy                :     -8575.96545200    
 
Density of states at Fermi energy :    78.33346215    
 (states/Hartree/unit cell)
 
Estimated indirect band gap :   0.1961574989E-03
 from k-point    144 to k-point    277
Estimated direct band gap   :   0.3174090886E-02
 at k-point    271
 
Charges :
 core                        :    56.00000000    
 valence                     :    30.00000000    
 interstitial                :    3.384378246    
 muffin-tins (core leakage)
  species :    1 (Tc)
   atom    1                 :    41.30781088     (  0.5906811396E-06)
   atom    2                 :    41.30781088     (  0.5906811396E-06)
 total in muffin-tins        :    82.61562175    
 total calculated charge     :    85.99959938    
 total charge                :    86.00000000    
 error                       :   0.4006209984E-03
 
Wrote STATE.OUT
 
RMS change in Kohn-Sham potential (target) :   0.8372636660E-04 (   10.00000000    )
Absolute change in total energy (target)   :   0.5218680599E-07 (  0.1000000000E-07)
 
Time (CPU seconds) :      2325.60
 
+--------------------+
| Loop number :   39 |
+--------------------+
 
Energies :
 Fermi                       :     0.611264703401    
 sum of eigenvalues          :     -5090.18535150    
 electron kinetic            :      8917.22608209    
 core electron kinetic       :      8690.74415448    
 Coulomb                     :     -17232.6326925    
 Coulomb potential           :     -13661.5837491    
 nuclear-nuclear             :     -925.919138022    
 electron-nuclear            :     -18951.8433599    
 Hartree                     :      2645.12980543    
 Madelung                    :     -10401.8408180    
 xc potential                :     -345.827684538    
 exchange                    :     -255.979247424    
 correlation                 :     -4.57959414190    
 total energy                :     -8575.96545197    
 
Density of states at Fermi energy :    78.33346267    
 (states/Hartree/unit cell)
 
Estimated indirect band gap :   0.1961574852E-03
 from k-point    144 to k-point    277
Estimated direct band gap   :   0.3174090829E-02
 at k-point    271
 
Charges :
 core                        :    56.00000000    
 valence                     :    30.00000000    
 interstitial                :    3.384378246    
 muffin-tins (core leakage)
  species :    1 (Tc)
   atom    1                 :    41.30781088     (  0.5907032552E-06)
   atom    2                 :    41.30781088     (  0.5907032552E-06)
 total in muffin-tins        :    82.61562175    
 total calculated charge     :    85.99959938    
 total charge                :    86.00000000    
 error                       :   0.4006210015E-03
 
RMS change in Kohn-Sham potential (target) :   0.3468183234E-04 (   10.00000000    )
Absolute change in total energy (target)   :   0.9029463399E-08 (  0.1000000000E-07)
 
Convergence targets achieved
 
Time (CPU seconds) :      2387.49
 
+--------------------+
| Loop number :   40 |
+--------------------+
 
Energies :
 Fermi                       :     0.611264703399    
 sum of eigenvalues          :     -5090.18535149    
 electron kinetic            :      8917.22608226    
 core electron kinetic       :      8690.74415463    
 Coulomb                     :     -17232.6326926    
 Coulomb potential           :     -13661.5837492    
 nuclear-nuclear             :     -925.919138022    
 electron-nuclear            :     -18951.8433599    
 Hartree                     :      2645.12980535    
 Madelung                    :     -10401.8408180    
 xc potential                :     -345.827684537    
 exchange                    :     -255.979247425    
 correlation                 :     -4.57959414181    
 total energy                :     -8575.96545189    
 
Density of states at Fermi energy :    78.33346267    
 (states/Hartree/unit cell)
 
Estimated indirect band gap :   0.1961574839E-03
 from k-point    144 to k-point    277
Estimated direct band gap   :   0.3174090843E-02
 at k-point    271
 
Charges :
 core                        :    56.00000000    
 valence                     :    30.00000000    
 interstitial                :    3.384378246    
 muffin-tins (core leakage)
  species :    1 (Tc)
   atom    1                 :    41.30781088     (  0.5907850529E-06)
   atom    2                 :    41.30781088     (  0.5907850529E-06)
 total in muffin-tins        :    82.61562175    
 total calculated charge     :    85.99959938    
 total charge                :    86.00000000    
 error                       :   0.4006212081E-03
 
Wrote STATE.OUT
 
+------------------------------+
| Self-consistent loop stopped |
+------------------------------+
 
Wrote STATE.OUT
 
Timings (CPU seconds) :
 initialisation                        :         0.91
 Hamiltonian and overlap matrix set up :       601.97
 first-variational eigenvalue equation :       840.29
 charge density calculation            :       521.66
 potential calculation                 :       486.26
 total                                 :      2451.08
 
+----------------------------+
| Elk version 8.3.15 stopped |
+----------------------------+
