   20.65074421    
   20.17775747    
   29.77507688    
   26.33452841    
   26.31408046    
   27.49644739    
   28.27751246    
   28.65043796    
   28.91437225    
   28.94132178    
   28.92622579    
   28.91903998    
   28.91834639    
   28.91959036    
   28.92015082    
   28.92031953    
   28.92046441    
   28.92057020    
   28.92063511    
   28.92061706    
   28.92055335    
   28.92053237    
   28.92052925    
   28.92053295    
   28.92058354    
   28.92053840    
   28.92053669    
   28.92053118    
   28.92052655    
   28.92051836    
   28.92051933    
   28.92051674    
   28.92051607    
   28.92051691    
   28.92051663    
   28.92051613    
   28.92051468    
   28.92051523    
   28.92051480    
   28.92051550    
   28.92051565    
   28.92051597    
   28.92051598    
   28.92051630    
   28.92051616    
   28.92051614    
   28.92051611    
   28.92051616    
   28.92051612    
   28.92051614    
