+----------------------------+
| Elk version 8.3.15 started |
+----------------------------+
 
Date (YYYY-MM-DD) : 2022-01-26
Time (hh:mm:ss)   : 21:16:59
 
All units are atomic (Hartree, Bohr, etc.)
 
+-------------------------------------------------+
| Ground-state run starting from atomic densities |
+-------------------------------------------------+
 
Lattice vectors :
   5.155380105       5.155380105      -5.155380105    
   5.155380105      -5.155380105       5.155380105    
  -5.155380105       5.155380105       5.155380105    
 
Reciprocal lattice vectors :
  0.6093813820      0.6093813820       0.000000000    
  0.6093813820       0.000000000      0.6093813820    
   0.000000000      0.6093813820      0.6093813820    
 
Unit cell volume      :    548.0776156    
Brillouin zone volume :   0.4525822737    
 
Muffin-tin inner radius fraction :   0.1000000000E-01
 
Species :    1 (K)
 parameters loaded from : K.in
 name : potassium
 nuclear charge    :   -19.00000000    
 electronic charge :    19.00000000    
 atomic mass :    71271.84084    
 muffin-tin radius :    2.400000000    
 number of radial points in muffin-tin :   1000
 number on inner part of muffin-tin    :    715
 atomic positions (lattice), magnetic fields (Cartesian) :
   1 :   0.00000000  0.00000000  0.00000000    0.00000000  0.00000000  0.00000000
 
Total number of atoms per unit cell :    1
 
Spin treatment :
 spin-unpolarised
 
Number of Bravais lattice symmetries :   48
Number of crystal symmetries         :   48
Crystal has inversion symmetry
Real symmetric eigensolver will be used
 
k-point grid :     17    17    17
k-point offset :    0.000000000       0.000000000       0.000000000    
k-point set is reduced with full crystal symmetry group
Total number of k-points :      165
 
Muffin-tin radius times maximum |G+k| :    8.500000000    
 using gkmax = rgkmax / 2
Maximum |G+k| for APW functions       :    4.250000000    
Maximum (1/2)|G+k|²                   :    9.031250000    
Maximum |G| for potential and density :    34.00000000    
Constant for pseudocharge density :   20
Radial integration step length :    1
 
G-vector grid sizes :    100   100   100
Number of G-vectors :   363831
 
Maximum angular momentum used for
 APW functions                      :   10
 outer part of muffin-tin           :    8
 inner part of muffin-tin           :    1
 
Total nuclear charge    :   -19.00000000    
Total core charge       :    10.00000000    
Total valence charge    :    9.000000000    
Total excess charge     :    0.000000000    
Total electronic charge :    19.00000000    
 
Effective Wigner radius, rₛ :    1.902537760    
 
Number of empty states         :   20
Total number of valence states :   25
Total number of core states    :   10
 
Conduction state local-orbitals added automatically
Total number of local-orbitals :  110
 
Using Libxc version 05.01.05
Exchange-correlation functional :    100   493   494
 exchange: mgga_x_rscan; correlation: mgga_c_rscan
 
Smearing type :    1
 Methfessel-Paxton order 1, Phys. Rev. B 40, 3616 (1989)
Smearing width :   0.1000000000E-02
Effective electronic temperature (K) :    315.7750248    
 
Mixing type :    3
 Broyden mixing, J. Phys. A: Math. Gen. 17, L317 (1984)
 
Kohn-Sham potential initialised from atomic data
 
+------------------------------+
| Self-consistent loop started |
+------------------------------+
 
+--------------------+
| Loop number :    1 |
+--------------------+
 
Energies :
 Fermi                       :    -0.233619875922E-01
 sum of eigenvalues          :     -356.207343697    
 electron kinetic            :      603.635042899    
 core electron kinetic       :      574.051227686    
 Coulomb                     :     -1179.57214133    
 Coulomb potential           :     -915.073000557    
 nuclear-nuclear             :     -59.5399902901    
 electron-nuclear            :     -1324.99130152    
 Hartree                     :      204.959150481    
 Madelung                    :     -722.035641050    
 xc potential                :     -44.7693860400    
 exchange                    :     -33.2417354996    
 correlation                 :    -0.745567376791    
 total energy                :     -609.924401305    
 
Density of states at Fermi energy :    38.59596892    
 (states/Hartree/unit cell)
 
Estimated indirect band gap :   0.1689555673E-02
 from k-point     89 to k-point     16
Estimated direct band gap   :   0.5496029646E-01
 at k-point     73
 
Charges :
 core                        :    10.00000000    
 valence                     :    9.000000000    
 interstitial                :    1.362660787    
 muffin-tins (core leakage)
  species :    1 (K)
   atom    1                 :    17.63733921     (  0.8706121868E-07)
 total in muffin-tins        :    17.63733921    
 total calculated charge     :    18.99999988    
 total charge                :    19.00000000    
 error                       :   0.1207260212E-06
 
Time (CPU seconds) :        52.62
 
+--------------------+
| Loop number :    2 |
+--------------------+
 
Energies :
 Fermi                       :    -0.228513379471E-01
 sum of eigenvalues          :     -356.141181934    
 electron kinetic            :      603.691111698    
 core electron kinetic       :      572.335825324    
 Coulomb                     :     -1179.52780110    
 Coulomb potential           :     -915.066977288    
 nuclear-nuclear             :     -59.5399902901    
 electron-nuclear            :     -1324.90864434    
 Hartree                     :      204.920833524    
 Madelung                    :     -721.994312458    
 xc potential                :     -44.7653163436    
 exchange                    :     -33.2387631558    
 correlation                 :    -0.745523891012    
 total energy                :     -609.820976451    
 
Density of states at Fermi energy :    38.60270861    
 (states/Hartree/unit cell)
 
Estimated indirect band gap :   0.1696477532E-02
 from k-point     89 to k-point     16
Estimated direct band gap   :   0.5498476851E-01
 at k-point     73
 
Charges :
 core                        :    10.00000000    
 valence                     :    9.000000000    
 interstitial                :    1.363581249    
 muffin-tins (core leakage)
  species :    1 (K)
   atom    1                 :    17.63641875     (  0.8743899826E-07)
 total in muffin-tins        :    17.63641875    
 total calculated charge     :    18.99999988    
 total charge                :    19.00000000    
 error                       :   0.1209809710E-06
 
Wrote STATE.OUT
 
RMS change in Kohn-Sham potential (target) :   0.4155927986     (   10.00000000    )
Absolute change in total energy (target)   :   0.1034248538     (  0.1000000000E-07)
 
Time (CPU seconds) :        99.48
 
+--------------------+
| Loop number :    3 |
+--------------------+
 
Energies :
 Fermi                       :    -0.188433557779E-02
 sum of eigenvalues          :     -353.979603709    
 electron kinetic            :      605.578184285    
 core electron kinetic       :      572.231623713    
 Coulomb                     :     -1178.21695982    
 Coulomb potential           :     -914.913601965    
 nuclear-nuclear             :     -59.5399902901    
 electron-nuclear            :     -1322.44033710    
 Hartree                     :      203.763367569    
 Madelung                    :     -720.760158842    
 xc potential                :     -44.6441860297    
 exchange                    :     -33.1509464841    
 correlation                 :    -0.744214405592    
 total energy                :     -606.533936428    
 
Density of states at Fermi energy :    39.04409022    
 (states/Hartree/unit cell)
 
Estimated indirect band gap :   0.1920533230E-02
 from k-point     89 to k-point     16
Estimated direct band gap   :   0.5556993131E-01
 at k-point     73
 
Charges :
 core                        :    10.00000000    
 valence                     :    9.000000000    
 interstitial                :    1.388047388    
 muffin-tins (core leakage)
  species :    1 (K)
   atom    1                 :    17.61195261     (  0.9889282815E-07)
 total in muffin-tins        :    17.61195261    
 total calculated charge     :    18.99999987    
 total charge                :    19.00000000    
 error                       :   0.1284566409E-06
 
RMS change in Kohn-Sham potential (target) :   0.2605472425     (   10.00000000    )
Absolute change in total energy (target)   :    3.312896236     (  0.1000000000E-07)
 
Time (CPU seconds) :       145.44
 
+--------------------+
| Loop number :    4 |
+--------------------+
 
Energies :
 Fermi                       :     0.162029425542E-01
 sum of eigenvalues          :     -352.380103363    
 electron kinetic            :      607.024558212    
 core electron kinetic       :      572.534822199    
 Coulomb                     :     -1177.36334178    
 Coulomb potential           :     -914.840494408    
 nuclear-nuclear             :     -59.5399902901    
 electron-nuclear            :     -1320.80620857    
 Hartree                     :      202.982857082    
 Madelung                    :     -719.943094576    
 xc potential                :     -44.5641671673    
 exchange                    :     -33.0933078377    
 correlation                 :    -0.743334372651    
 total energy                :     -604.175425778    
 
Density of states at Fermi energy :    39.37786244    
 (states/Hartree/unit cell)
 
Estimated indirect band gap :   0.2068030876E-02
 from k-point     89 to k-point     16
Estimated direct band gap   :   0.5589161614E-01
 at k-point     73
 
Charges :
 core                        :    10.00000000    
 valence                     :    9.000000000    
 interstitial                :    1.402569536    
 muffin-tins (core leakage)
  species :    1 (K)
   atom    1                 :    17.59743046     (  0.1087514399E-06)
 total in muffin-tins        :    17.59743046    
 total calculated charge     :    18.99999986    
 total charge                :    19.00000000    
 error                       :   0.1354540657E-06
 
Wrote STATE.OUT
 
RMS change in Kohn-Sham potential (target) :   0.1201769840     (   10.00000000    )
Absolute change in total energy (target)   :    3.186734710     (  0.1000000000E-07)
 
Time (CPU seconds) :       193.39
 
+--------------------+
| Loop number :    5 |
+--------------------+
 
Energies :
 Fermi                       :     0.260674682858E-01
 sum of eigenvalues          :     -351.568283741    
 electron kinetic            :      607.781566461    
 core electron kinetic       :      572.817986242    
 Coulomb                     :     -1176.97204487    
 Coulomb potential           :     -914.823221244    
 nuclear-nuclear             :     -59.5399902901    
 electron-nuclear            :     -1320.04088791    
 Hartree                     :      202.608833332    
 Madelung                    :     -719.560434244    
 xc potential                :     -44.5266289583    
 exchange                    :     -33.0664138935    
 correlation                 :    -0.742906309678    
 total energy                :     -602.999798607    
 
Density of states at Fermi energy :    39.50281046    
 (states/Hartree/unit cell)
 
Estimated indirect band gap :   0.2137933159E-02
 from k-point     89 to k-point     16
Estimated direct band gap   :   0.5604611519E-01
 at k-point     73
 
Charges :
 core                        :    10.00000000    
 valence                     :    9.000000000    
 interstitial                :    1.409038470    
 muffin-tins (core leakage)
  species :    1 (K)
   atom    1                 :    17.59096153     (  0.1144940587E-06)
 total in muffin-tins        :    17.59096153    
 total calculated charge     :    18.99999986    
 total charge                :    19.00000000    
 error                       :   0.1398798979E-06
 
RMS change in Kohn-Sham potential (target) :   0.4151315958E-01 (   10.00000000    )
Absolute change in total energy (target)   :    1.972310848     (  0.1000000000E-07)
 
Time (CPU seconds) :       240.71
 
+--------------------+
| Loop number :    6 |
+--------------------+
 
Energies :
 Fermi                       :     0.297530243155E-01
 sum of eigenvalues          :     -351.274921706    
 electron kinetic            :      608.064745648    
 core electron kinetic       :      572.935988996    
 Coulomb                     :     -1176.84352424    
 Coulomb potential           :     -914.825859447    
 nuclear-nuclear             :     -59.5399902901    
 electron-nuclear            :     -1319.78120846    
 Hartree                     :      202.477674506    
 Madelung                    :     -719.430594519    
 xc potential                :     -44.5138079061    
 exchange                    :     -33.0572874704    
 correlation                 :    -0.742749688811    
 total energy                :     -602.578815755    
 
Density of states at Fermi energy :    39.54215568    
 (states/Hartree/unit cell)
 
Estimated indirect band gap :   0.2164388353E-02
 from k-point     89 to k-point     16
Estimated direct band gap   :   0.5610831196E-01
 at k-point     73
 
Charges :
 core                        :    10.00000000    
 valence                     :    9.000000000    
 interstitial                :    1.411302637    
 muffin-tins (core leakage)
  species :    1 (K)
   atom    1                 :    17.58869736     (  0.1168459907E-06)
 total in muffin-tins        :    17.58869736    
 total calculated charge     :    18.99999986    
 total charge                :    19.00000000    
 error                       :   0.1417641187E-06
 
Wrote STATE.OUT
 
RMS change in Kohn-Sham potential (target) :   0.1159741207E-01 (   10.00000000    )
Absolute change in total energy (target)   :   0.9140605648     (  0.1000000000E-07)
 
Time (CPU seconds) :       287.82
 
+--------------------+
| Loop number :    7 |
+--------------------+
 
Energies :
 Fermi                       :     0.310488733231E-01
 sum of eigenvalues          :     -351.171105163    
 electron kinetic            :      608.169332152    
 core electron kinetic       :      573.021718216    
 Coulomb                     :     -1176.80258728    
 Coulomb potential           :     -914.830969917    
 nuclear-nuclear             :     -59.5399902901    
 electron-nuclear            :     -1319.69422407    
 Hartree                     :      202.431627075    
 Madelung                    :     -719.387102324    
 xc potential                :     -44.5094673981    
 exchange                    :     -33.0542250996    
 correlation                 :    -0.742690312091    
 total energy                :     -602.430170542    
 
Density of states at Fermi energy :    39.55736728    
 (states/Hartree/unit cell)
 
Estimated indirect band gap :   0.2175419549E-02
 from k-point     89 to k-point     16
Estimated direct band gap   :   0.5613602550E-01
 at k-point     73
 
Charges :
 core                        :    10.00000000    
 valence                     :    9.000000000    
 interstitial                :    1.412162720    
 muffin-tins (core leakage)
  species :    1 (K)
   atom    1                 :    17.58783728     (  0.1176350146E-06)
 total in muffin-tins        :    17.58783728    
 total calculated charge     :    18.99999986    
 total charge                :    19.00000000    
 error                       :   0.1425489415E-06
 
RMS change in Kohn-Sham potential (target) :   0.2048595662E-02 (   10.00000000    )
Absolute change in total energy (target)   :   0.3771603536     (  0.1000000000E-07)
 
Time (CPU seconds) :       333.83
 
+--------------------+
| Loop number :    8 |
+--------------------+
 
Energies :
 Fermi                       :     0.309834407006E-01
 sum of eigenvalues          :     -351.181340623    
 electron kinetic            :      608.165736394    
 core electron kinetic       :      573.023679770    
 Coulomb                     :     -1176.81511248    
 Coulomb potential           :     -914.836700093    
 nuclear-nuclear             :     -59.5399902901    
 electron-nuclear            :     -1319.71354428    
 Hartree                     :      202.438422092    
 Madelung                    :     -719.396762429    
 xc potential                :     -44.5103769242    
 exchange                    :     -33.0549243690    
 correlation                 :    -0.742692501467    
 total energy                :     -602.446992952    
 
Density of states at Fermi energy :    39.56093671    
 (states/Hartree/unit cell)
 
Estimated indirect band gap :   0.2177686623E-02
 from k-point     89 to k-point     16
Estimated direct band gap   :   0.5614047308E-01
 at k-point     73
 
Charges :
 core                        :    10.00000000    
 valence                     :    9.000000000    
 interstitial                :    1.412040692    
 muffin-tins (core leakage)
  species :    1 (K)
   atom    1                 :    17.58795931     (  0.1156530072E-06)
 total in muffin-tins        :    17.58795931    
 total calculated charge     :    18.99999986    
 total charge                :    19.00000000    
 error                       :   0.1406676020E-06
 
Wrote STATE.OUT
 
RMS change in Kohn-Sham potential (target) :   0.5933372821E-03 (   10.00000000    )
Absolute change in total energy (target)   :   0.7746767874E-01 (  0.1000000000E-07)
 
Time (CPU seconds) :       377.69
 
+--------------------+
| Loop number :    9 |
+--------------------+
 
Energies :
 Fermi                       :     0.309586957109E-01
 sum of eigenvalues          :     -351.181599232    
 electron kinetic            :      608.166384303    
 core electron kinetic       :      573.023233820    
 Coulomb                     :     -1176.81622802    
 Coulomb potential           :     -914.837530314    
 nuclear-nuclear             :     -59.5399902901    
 electron-nuclear            :     -1319.71494515    
 Hartree                     :      202.438707418    
 Madelung                    :     -719.397462865    
 xc potential                :     -44.5104532212    
 exchange                    :     -33.0549890552    
 correlation                 :    -0.742691185860    
 total energy                :     -602.447523959    
 
Density of states at Fermi energy :    39.56232525    
 (states/Hartree/unit cell)
 
Estimated indirect band gap :   0.2178664222E-02
 from k-point     89 to k-point     16
Estimated direct band gap   :   0.5614264593E-01
 at k-point     73
 
Charges :
 core                        :    10.00000000    
 valence                     :    9.000000000    
 interstitial                :    1.412043881    
 muffin-tins (core leakage)
  species :    1 (K)
   atom    1                 :    17.58795612     (  0.1175295008E-06)
 total in muffin-tins        :    17.58795612    
 total calculated charge     :    18.99999986    
 total charge                :    19.00000000    
 error                       :   0.1425944518E-06
 
RMS change in Kohn-Sham potential (target) :   0.6106167164E-04 (   10.00000000    )
Absolute change in total energy (target)   :   0.1883591219E-01 (  0.1000000000E-07)
 
Time (CPU seconds) :       423.81
 
+--------------------+
| Loop number :   10 |
+--------------------+
 
Energies :
 Fermi                       :     0.309597321151E-01
 sum of eigenvalues          :     -351.179950343    
 electron kinetic            :      608.167150832    
 core electron kinetic       :      573.022862236    
 Coulomb                     :     -1176.81451612    
 Coulomb potential           :     -914.836762886    
 nuclear-nuclear             :     -59.5399902901    
 electron-nuclear            :     -1319.71228876    
 Hartree                     :      202.437762939    
 Madelung                    :     -719.396134672    
 xc potential                :     -44.5103382891    
 exchange                    :     -33.0549032634    
 correlation                 :    -0.742690405203    
 total energy                :     -602.444958952    
 
Density of states at Fermi energy :    39.56236807    
 (states/Hartree/unit cell)
 
Estimated indirect band gap :   0.2178740398E-02
 from k-point     89 to k-point     16
Estimated direct band gap   :   0.5614269733E-01
 at k-point     73
 
Charges :
 core                        :    10.00000000    
 valence                     :    9.000000000    
 interstitial                :    1.412055833    
 muffin-tins (core leakage)
  species :    1 (K)
   atom    1                 :    17.58794417     (  0.1156876888E-06)
 total in muffin-tins        :    17.58794417    
 total calculated charge     :    18.99999986    
 total charge                :    19.00000000    
 error                       :   0.1407828840E-06
 
Wrote STATE.OUT
 
RMS change in Kohn-Sham potential (target) :   0.1951861620E-04 (   10.00000000    )
Absolute change in total energy (target)   :   0.7273985687E-02 (  0.1000000000E-07)
 
Time (CPU seconds) :       471.55
 
+--------------------+
| Loop number :   11 |
+--------------------+
 
Energies :
 Fermi                       :     0.309592976050E-01
 sum of eigenvalues          :     -351.179432426    
 electron kinetic            :      608.167292452    
 core electron kinetic       :      573.022829062    
 Coulomb                     :     -1176.81393075    
 Coulomb potential           :     -914.836418302    
 nuclear-nuclear             :     -59.5399902901    
 electron-nuclear            :     -1319.71146262    
 Hartree                     :      202.437522157    
 Madelung                    :     -719.395721599    
 xc potential                :     -44.5103065756    
 exchange                    :     -33.0548796447    
 correlation                 :    -0.742690249502    
 total energy                :     -602.444208192    
 
Density of states at Fermi energy :    39.56242301    
 (states/Hartree/unit cell)
 
Estimated indirect band gap :   0.2178799922E-02
 from k-point     89 to k-point     16
Estimated direct band gap   :   0.5614265036E-01
 at k-point     73
 
Charges :
 core                        :    10.00000000    
 valence                     :    9.000000000    
 interstitial                :    1.412053169    
 muffin-tins (core leakage)
  species :    1 (K)
   atom    1                 :    17.58794683     (  0.1175168354E-06)
 total in muffin-tins        :    17.58794683    
 total calculated charge     :    18.99999986    
 total charge                :    19.00000000    
 error                       :   0.1425609888E-06
 
RMS change in Kohn-Sham potential (target) :   0.3790989685E-04 (   10.00000000    )
Absolute change in total energy (target)   :   0.2569255741E-02 (  0.1000000000E-07)
 
Time (CPU seconds) :       517.85
 
+--------------------+
| Loop number :   12 |
+--------------------+
 
Energies :
 Fermi                       :     0.309592613268E-01
 sum of eigenvalues          :     -351.179446686    
 electron kinetic            :      608.167284636    
 core electron kinetic       :      573.022818562    
 Coulomb                     :     -1176.81394539    
 Coulomb potential           :     -914.836423625    
 nuclear-nuclear             :     -59.5399902901    
 electron-nuclear            :     -1319.71148658    
 Hartree                     :      202.437531476    
 Madelung                    :     -719.395733579    
 xc potential                :     -44.5103076979    
 exchange                    :     -33.0548804894    
 correlation                 :    -0.742690256709    
 total energy                :     -602.444231501    
 
Density of states at Fermi energy :    39.56242433    
 (states/Hartree/unit cell)
 
Estimated indirect band gap :   0.2178800604E-02
 from k-point     89 to k-point     16
Estimated direct band gap   :   0.5614264976E-01
 at k-point     73
 
Charges :
 core                        :    10.00000000    
 valence                     :    9.000000000    
 interstitial                :    1.412052933    
 muffin-tins (core leakage)
  species :    1 (K)
   atom    1                 :    17.58794707     (  0.1157794518E-06)
 total in muffin-tins        :    17.58794707    
 total calculated charge     :    18.99999986    
 total charge                :    19.00000000    
 error                       :   0.1408574377E-06
 
Wrote STATE.OUT
 
RMS change in Kohn-Sham potential (target) :   0.9007111760E-04 (   10.00000000    )
Absolute change in total energy (target)   :   0.6190055460E-03 (  0.1000000000E-07)
 
Time (CPU seconds) :       563.42
 
+--------------------+
| Loop number :   13 |
+--------------------+
 
Energies :
 Fermi                       :     0.309592642106E-01
 sum of eigenvalues          :     -351.179438981    
 electron kinetic            :      608.167284399    
 core electron kinetic       :      573.022809063    
 Coulomb                     :     -1176.81394223    
 Coulomb potential           :     -914.836415070    
 nuclear-nuclear             :     -59.5399902901    
 electron-nuclear            :     -1319.71148881    
 Hartree                     :      202.437536872    
 Madelung                    :     -719.395734697    
 xc potential                :     -44.5103083100    
 exchange                    :     -33.0548809965    
 correlation                 :    -0.742690260333    
 total energy                :     -602.444229090    
 
Density of states at Fermi energy :    39.56243550    
 (states/Hartree/unit cell)
 
Estimated indirect band gap :   0.2178809464E-02
 from k-point     89 to k-point     16
Estimated direct band gap   :   0.5614264944E-01
 at k-point     73
 
Charges :
 core                        :    10.00000000    
 valence                     :    9.000000000    
 interstitial                :    1.412052092    
 muffin-tins (core leakage)
  species :    1 (K)
   atom    1                 :    17.58794791     (  0.1174650794E-06)
 total in muffin-tins        :    17.58794791    
 total calculated charge     :    18.99999986    
 total charge                :    19.00000000    
 error                       :   0.1425498901E-06
 
RMS change in Kohn-Sham potential (target) :   0.2343719570E-04 (   10.00000000    )
Absolute change in total energy (target)   :   0.1571625729E-03 (  0.1000000000E-07)
 
Time (CPU seconds) :       607.63
 
+--------------------+
| Loop number :   14 |
+--------------------+
 
Energies :
 Fermi                       :     0.309588966456E-01
 sum of eigenvalues          :     -351.179435029    
 electron kinetic            :      608.167266013    
 core electron kinetic       :      573.022794045    
 Coulomb                     :     -1176.81393707    
 Coulomb potential           :     -914.836390695    
 nuclear-nuclear             :     -59.5399902901    
 electron-nuclear            :     -1319.71150287    
 Hartree                     :      202.437556088    
 Madelung                    :     -719.395741725    
 xc potential                :     -44.5103103472    
 exchange                    :     -33.0548826198    
 correlation                 :    -0.742690274751    
 total energy                :     -602.444243954    
 
Density of states at Fermi energy :    39.56246398    
 (states/Hartree/unit cell)
 
Estimated indirect band gap :   0.2178832322E-02
 from k-point     89 to k-point     16
Estimated direct band gap   :   0.5614264769E-01
 at k-point     73
 
Charges :
 core                        :    10.00000000    
 valence                     :    9.000000000    
 interstitial                :    1.412049851    
 muffin-tins (core leakage)
  species :    1 (K)
   atom    1                 :    17.58795015     (  0.1174827382E-06)
 total in muffin-tins        :    17.58795015    
 total calculated charge     :    18.99999986    
 total charge                :    19.00000000    
 error                       :   0.1425409835E-06
 
Wrote STATE.OUT
 
RMS change in Kohn-Sham potential (target) :   0.2223897078E-04 (   10.00000000    )
Absolute change in total energy (target)   :   0.2442611060E-04 (  0.1000000000E-07)
 
Time (CPU seconds) :       655.25
 
+--------------------+
| Loop number :   15 |
+--------------------+
 
Energies :
 Fermi                       :     0.309587336655E-01
 sum of eigenvalues          :     -351.179435061    
 electron kinetic            :      608.167260680    
 core electron kinetic       :      573.022789292    
 Coulomb                     :     -1176.81393829    
 Coulomb potential           :     -914.836384500    
 nuclear-nuclear             :     -59.5399902901    
 electron-nuclear            :     -1319.71151150    
 Hartree                     :      202.437563498    
 Madelung                    :     -719.395746038    
 xc potential                :     -44.5103112412    
 exchange                    :     -33.0548833332    
 correlation                 :    -0.742690278266    
 total energy                :     -602.444251219    
 
Density of states at Fermi energy :    39.56247600    
 (states/Hartree/unit cell)
 
Estimated indirect band gap :   0.2178841910E-02
 from k-point     89 to k-point     16
Estimated direct band gap   :   0.5614264941E-01
 at k-point     73
 
Charges :
 core                        :    10.00000000    
 valence                     :    9.000000000    
 interstitial                :    1.412049028    
 muffin-tins (core leakage)
  species :    1 (K)
   atom    1                 :    17.58795097     (  0.1157375582E-06)
 total in muffin-tins        :    17.58795097    
 total calculated charge     :    18.99999986    
 total charge                :    19.00000000    
 error                       :   0.1408178925E-06
 
RMS change in Kohn-Sham potential (target) :   0.2558175983E-04 (   10.00000000    )
Absolute change in total energy (target)   :   0.1158634973E-05 (  0.1000000000E-07)
 
Time (CPU seconds) :       699.49
 
+--------------------+
| Loop number :   16 |
+--------------------+
 
Energies :
 Fermi                       :     0.309582685415E-01
 sum of eigenvalues          :     -351.179434360    
 electron kinetic            :      608.167254141    
 core electron kinetic       :      573.022780238    
 Coulomb                     :     -1176.81394554    
 Coulomb potential           :     -914.836375036    
 nuclear-nuclear             :     -59.5399902901    
 electron-nuclear            :     -1319.71153546    
 Hartree                     :      202.437580210    
 Madelung                    :     -719.395758018    
 xc potential                :     -44.5103134656    
 exchange                    :     -33.0548851347    
 correlation                 :    -0.742690278061    
 total energy                :     -602.444266807    
 
Density of states at Fermi energy :    39.56250963    
 (states/Hartree/unit cell)
 
Estimated indirect band gap :   0.2178868417E-02
 from k-point     89 to k-point     16
Estimated direct band gap   :   0.5614266295E-01
 at k-point     73
 
Charges :
 core                        :    10.00000000    
 valence                     :    9.000000000    
 interstitial                :    1.412047186    
 muffin-tins (core leakage)
  species :    1 (K)
   atom    1                 :    17.58795281     (  0.1175258912E-06)
 total in muffin-tins        :    17.58795281    
 total calculated charge     :    18.99999986    
 total charge                :    19.00000000    
 error                       :   0.1426419018E-06
 
Wrote STATE.OUT
 
RMS change in Kohn-Sham potential (target) :   0.2992386446E-04 (   10.00000000    )
Absolute change in total energy (target)   :   0.1587774102E-04 (  0.1000000000E-07)
 
Time (CPU seconds) :       744.10
 
+--------------------+
| Loop number :   17 |
+--------------------+
 
Energies :
 Fermi                       :     0.309582152037E-01
 sum of eigenvalues          :     -351.179424135    
 electron kinetic            :      608.167260184    
 core electron kinetic       :      573.022778024    
 Coulomb                     :     -1176.81393653    
 Coulomb potential           :     -914.836371402    
 nuclear-nuclear             :     -59.5399902901    
 electron-nuclear            :     -1319.71152108    
 Hartree                     :      202.437574839    
 Madelung                    :     -719.395750830    
 xc potential                :     -44.5103129175    
 exchange                    :     -33.0548847420    
 correlation                 :    -0.742690270859    
 total energy                :     -602.444251359    
 
Density of states at Fermi energy :    39.56251329    
 (states/Hartree/unit cell)
 
Estimated indirect band gap :   0.2178871561E-02
 from k-point     89 to k-point     16
Estimated direct band gap   :   0.5614266661E-01
 at k-point     73
 
Charges :
 core                        :    10.00000000    
 valence                     :    9.000000000    
 interstitial                :    1.412047176    
 muffin-tins (core leakage)
  species :    1 (K)
   atom    1                 :    17.58795282     (  0.1156852925E-06)
 total in muffin-tins        :    17.58795282    
 total calculated charge     :    18.99999986    
 total charge                :    19.00000000    
 error                       :   0.1407915846E-06
 
RMS change in Kohn-Sham potential (target) :   0.2655340630E-04 (   10.00000000    )
Absolute change in total energy (target)   :   0.1147856472E-04 (  0.1000000000E-07)
 
Time (CPU seconds) :       791.40
 
+--------------------+
| Loop number :   18 |
+--------------------+
 
Energies :
 Fermi                       :     0.309581804563E-01
 sum of eigenvalues          :     -351.179418536    
 electron kinetic            :      608.167263487    
 core electron kinetic       :      573.022769369    
 Coulomb                     :     -1176.81393215    
 Coulomb potential           :     -914.836369356    
 nuclear-nuclear             :     -59.5399902901    
 electron-nuclear            :     -1319.71151437    
 Hartree                     :      202.437572507    
 Madelung                    :     -719.395747476    
 xc potential                :     -44.5103126670    
 exchange                    :     -33.0548845671    
 correlation                 :    -0.742690266912    
 total energy                :     -602.444243500    
 
Density of states at Fermi energy :    39.56251601    
 (states/Hartree/unit cell)
 
Estimated indirect band gap :   0.2178873885E-02
 from k-point     89 to k-point     16
Estimated direct band gap   :   0.5614266872E-01
 at k-point     73
 
Charges :
 core                        :    10.00000000    
 valence                     :    9.000000000    
 interstitial                :    1.412047124    
 muffin-tins (core leakage)
  species :    1 (K)
   atom    1                 :    17.58795288     (  0.1174718385E-06)
 total in muffin-tins        :    17.58795288    
 total calculated charge     :    18.99999986    
 total charge                :    19.00000000    
 error                       :   0.1425650709E-06
 
Wrote STATE.OUT
 
RMS change in Kohn-Sham potential (target) :   0.2760394318E-04 (   10.00000000    )
Absolute change in total energy (target)   :   0.1072869668E-04 (  0.1000000000E-07)
 
Time (CPU seconds) :       836.14
 
+--------------------+
| Loop number :   19 |
+--------------------+
 
Energies :
 Fermi                       :     0.309584395383E-01
 sum of eigenvalues          :     -351.179411329    
 electron kinetic            :      608.167258576    
 core electron kinetic       :      573.022740932    
 Coulomb                     :     -1176.81391266    
 Coulomb potential           :     -914.836358793    
 nuclear-nuclear             :     -59.5399902901    
 electron-nuclear            :     -1319.71148594    
 Hartree                     :      202.437563573    
 Madelung                    :     -719.395733259    
 xc potential                :     -44.5103111122    
 exchange                    :     -33.0548833102    
 correlation                 :    -0.742690275757    
 total energy                :     -602.444227666    
 
Density of states at Fermi energy :    39.56249706    
 (states/Hartree/unit cell)
 
Estimated indirect band gap :   0.2178859516E-02
 from k-point     89 to k-point     16
Estimated direct band gap   :   0.5614265011E-01
 at k-point     73
 
Charges :
 core                        :    10.00000000    
 valence                     :    9.000000000    
 interstitial                :    1.412047652    
 muffin-tins (core leakage)
  species :    1 (K)
   atom    1                 :    17.58795235     (  0.1174671418E-06)
 total in muffin-tins        :    17.58795235    
 total calculated charge     :    18.99999986    
 total charge                :    19.00000000    
 error                       :   0.1425441276E-06
 
RMS change in Kohn-Sham potential (target) :   0.2559633768E-04 (   10.00000000    )
Absolute change in total energy (target)   :   0.1851657862E-04 (  0.1000000000E-07)
 
Time (CPU seconds) :       880.96
 
+--------------------+
| Loop number :   20 |
+--------------------+
 
Energies :
 Fermi                       :     0.309583166591E-01
 sum of eigenvalues          :     -351.179394336    
 electron kinetic            :      608.167261690    
 core electron kinetic       :      573.022778887    
 Coulomb                     :     -1176.81389304    
 Coulomb potential           :     -914.836345767    
 nuclear-nuclear             :     -59.5399902901    
 electron-nuclear            :     -1319.71145974    
 Hartree                     :      202.437556987    
 Madelung                    :     -719.395720161    
 xc potential                :     -44.5103102592    
 exchange                    :     -33.0548826907    
 correlation                 :    -0.742690269467    
 total energy                :     -602.444204315    
 
Density of states at Fermi energy :    39.56250321    
 (states/Hartree/unit cell)
 
Estimated indirect band gap :   0.2178865101E-02
 from k-point     89 to k-point     16
Estimated direct band gap   :   0.5614265007E-01
 at k-point     73
 
Charges :
 core                        :    10.00000000    
 valence                     :    9.000000000    
 interstitial                :    1.412047330    
 muffin-tins (core leakage)
  species :    1 (K)
   atom    1                 :    17.58795267     (  0.1175296447E-06)
 total in muffin-tins        :    17.58795267    
 total calculated charge     :    18.99999986    
 total charge                :    19.00000000    
 error                       :   0.1426027936E-06
 
Wrote STATE.OUT
 
RMS change in Kohn-Sham potential (target) :   0.3840580615E-04 (   10.00000000    )
Absolute change in total energy (target)   :   0.2798043977E-04 (  0.1000000000E-07)
 
Time (CPU seconds) :       927.93
 
+--------------------+
| Loop number :   21 |
+--------------------+
 
Energies :
 Fermi                       :     0.309580322420E-01
 sum of eigenvalues          :     -351.179429461    
 electron kinetic            :      608.167266568    
 core electron kinetic       :      573.022788863    
 Coulomb                     :     -1176.81395002    
 Coulomb potential           :     -914.836382410    
 nuclear-nuclear             :     -59.5399902901    
 electron-nuclear            :     -1319.71153705    
 Hartree                     :      202.437577322    
 Madelung                    :     -719.395758817    
 xc potential                :     -44.5103136195    
 exchange                    :     -33.0548853202    
 correlation                 :    -0.742690260447    
 total energy                :     -602.444259034    
 
Density of states at Fermi energy :    39.56252303    
 (states/Hartree/unit cell)
 
Estimated indirect band gap :   0.2178878944E-02
 from k-point     89 to k-point     16
Estimated direct band gap   :   0.5614268109E-01
 at k-point     73
 
Charges :
 core                        :    10.00000000    
 valence                     :    9.000000000    
 interstitial                :    1.412047158    
 muffin-tins (core leakage)
  species :    1 (K)
   atom    1                 :    17.58795284     (  0.1157940801E-06)
 total in muffin-tins        :    17.58795284    
 total calculated charge     :    18.99999986    
 total charge                :    19.00000000    
 error                       :   0.1408745725E-06
 
RMS change in Kohn-Sham potential (target) :   0.3336180170E-04 (   10.00000000    )
Absolute change in total energy (target)   :   0.4772468174E-04 (  0.1000000000E-07)
 
Time (CPU seconds) :       975.48
 
+--------------------+
| Loop number :   22 |
+--------------------+
 
Energies :
 Fermi                       :     0.309581552542E-01
 sum of eigenvalues          :     -351.179419710    
 electron kinetic            :      608.167263295    
 core electron kinetic       :      573.022784456    
 Coulomb                     :     -1176.81393073    
 Coulomb potential           :     -914.836370658    
 nuclear-nuclear             :     -59.5399902901    
 electron-nuclear            :     -1319.71151022    
 Hartree                     :      202.437569780    
 Madelung                    :     -719.395745399    
 xc potential                :     -44.5103123467    
 exchange                    :     -33.0548843099    
 correlation                 :    -0.742690265229    
 total energy                :     -602.444242008    
 
Density of states at Fermi energy :    39.56251250    
 (states/Hartree/unit cell)
 
Estimated indirect band gap :   0.2178871236E-02
 from k-point     89 to k-point     16
Estimated direct band gap   :   0.5614266824E-01
 at k-point     73
 
Charges :
 core                        :    10.00000000    
 valence                     :    9.000000000    
 interstitial                :    1.412047376    
 muffin-tins (core leakage)
  species :    1 (K)
   atom    1                 :    17.58795262     (  0.1157105398E-06)
 total in muffin-tins        :    17.58795262    
 total calculated charge     :    18.99999986    
 total charge                :    19.00000000    
 error                       :   0.1408251507E-06
 
Wrote STATE.OUT
 
RMS change in Kohn-Sham potential (target) :   0.3770315321E-04 (   10.00000000    )
Absolute change in total energy (target)   :   0.5095225902E-05 (  0.1000000000E-07)
 
Time (CPU seconds) :      1022.61
 
+--------------------+
| Loop number :   23 |
+--------------------+
 
Energies :
 Fermi                       :     0.309580961974E-01
 sum of eigenvalues          :     -351.179423744    
 electron kinetic            :      608.167263867    
 core electron kinetic       :      573.022788164    
 Coulomb                     :     -1176.81393788    
 Coulomb potential           :     -914.836374749    
 nuclear-nuclear             :     -59.5399902901    
 electron-nuclear            :     -1319.71152044    
 Hartree                     :      202.437572846    
 Madelung                    :     -719.395750511    
 xc potential                :     -44.5103128623    
 exchange                    :     -33.0548847181    
 correlation                 :    -0.742690263699    
 total energy                :     -602.444248999    
 
Density of states at Fermi energy :    39.56251678    
 (states/Hartree/unit cell)
 
Estimated indirect band gap :   0.2178874444E-02
 from k-point     89 to k-point     16
Estimated direct band gap   :   0.5614267303E-01
 at k-point     73
 
Charges :
 core                        :    10.00000000    
 valence                     :    9.000000000    
 interstitial                :    1.412047263    
 muffin-tins (core leakage)
  species :    1 (K)
   atom    1                 :    17.58795274     (  0.1175479838E-06)
 total in muffin-tins        :    17.58795274    
 total calculated charge     :    18.99999986    
 total charge                :    19.00000000    
 error                       :   0.1425979477E-06
 
RMS change in Kohn-Sham potential (target) :   0.3689513299E-04 (   10.00000000    )
Absolute change in total energy (target)   :   0.5717576869E-05 (  0.1000000000E-07)
 
Time (CPU seconds) :      1068.52
 
+--------------------+
| Loop number :   24 |
+--------------------+
 
Energies :
 Fermi                       :     0.309580808207E-01
 sum of eigenvalues          :     -351.179424186    
 electron kinetic            :      608.167264724    
 core electron kinetic       :      573.022789784    
 Coulomb                     :     -1176.81393961    
 Coulomb potential           :     -914.836375953    
 nuclear-nuclear             :     -59.5399902901    
 electron-nuclear            :     -1319.71152268    
 Hartree                     :      202.437573362    
 Madelung                    :     -719.395751629    
 xc potential                :     -44.5103129564    
 exchange                    :     -33.0548847955    
 correlation                 :    -0.742690262636    
 total energy                :     -602.444249940    
 
Density of states at Fermi energy :    39.56251798    
 (states/Hartree/unit cell)
 
Estimated indirect band gap :   0.2178875320E-02
 from k-point     89 to k-point     16
Estimated direct band gap   :   0.5614267463E-01
 at k-point     73
 
Charges :
 core                        :    10.00000000    
 valence                     :    9.000000000    
 interstitial                :    1.412047251    
 muffin-tins (core leakage)
  species :    1 (K)
   atom    1                 :    17.58795275     (  0.1157848786E-06)
 total in muffin-tins        :    17.58795275    
 total calculated charge     :    18.99999986    
 total charge                :    19.00000000    
 error                       :   0.1408620278E-06
 
Wrote STATE.OUT
 
RMS change in Kohn-Sham potential (target) :   0.1106105037E-04 (   10.00000000    )
Absolute change in total energy (target)   :   0.2369500635E-05 (  0.1000000000E-07)
 
Time (CPU seconds) :      1114.40
 
+--------------------+
| Loop number :   25 |
+--------------------+
 
Energies :
 Fermi                       :     0.309580262199E-01
 sum of eigenvalues          :     -351.179424283    
 electron kinetic            :      608.167265031    
 core electron kinetic       :      573.022789279    
 Coulomb                     :     -1176.81394054    
 Coulomb potential           :     -914.836376232    
 nuclear-nuclear             :     -59.5399902901    
 electron-nuclear            :     -1319.71152427    
 Hartree                     :      202.437574021    
 Madelung                    :     -719.395752427    
 xc potential                :     -44.5103130823    
 exchange                    :     -33.0548849014    
 correlation                 :    -0.742690261087    
 total energy                :     -602.444250675    
 
Density of states at Fermi energy :    39.56252072    
 (states/Hartree/unit cell)
 
Estimated indirect band gap :   0.2178877463E-02
 from k-point     89 to k-point     16
Estimated direct band gap   :   0.5614267694E-01
 at k-point     73
 
Charges :
 core                        :    10.00000000    
 valence                     :    9.000000000    
 interstitial                :    1.412047169    
 muffin-tins (core leakage)
  species :    1 (K)
   atom    1                 :    17.58795283     (  0.1175543360E-06)
 total in muffin-tins        :    17.58795283    
 total calculated charge     :    18.99999986    
 total charge                :    19.00000000    
 error                       :   0.1426470781E-06
 
RMS change in Kohn-Sham potential (target) :   0.2591625122E-04 (   10.00000000    )
Absolute change in total energy (target)   :   0.1327526775E-05 (  0.1000000000E-07)
 
Time (CPU seconds) :      1161.18
 
+--------------------+
| Loop number :   26 |
+--------------------+
 
Energies :
 Fermi                       :     0.309581013127E-01
 sum of eigenvalues          :     -351.179424016    
 electron kinetic            :      608.167262989    
 core electron kinetic       :      573.022787462    
 Coulomb                     :     -1176.81393669    
 Coulomb potential           :     -914.836374281    
 nuclear-nuclear             :     -59.5399902901    
 electron-nuclear            :     -1319.71151852    
 Hartree                     :      202.437572122    
 Madelung                    :     -719.395749552    
 xc potential                :     -44.5103127240    
 exchange                    :     -33.0548846033    
 correlation                 :    -0.742690264594    
 total energy                :     -602.444248571    
 
Density of states at Fermi energy :    39.56251487    
 (states/Hartree/unit cell)
 
Estimated indirect band gap :   0.2178872976E-02
 from k-point     89 to k-point     16
Estimated direct band gap   :   0.5614267155E-01
 at k-point     73
 
Charges :
 core                        :    10.00000000    
 valence                     :    9.000000000    
 interstitial                :    1.412047337    
 muffin-tins (core leakage)
  species :    1 (K)
   atom    1                 :    17.58795266     (  0.1175825908E-06)
 total in muffin-tins        :    17.58795266    
 total calculated charge     :    18.99999986    
 total charge                :    19.00000000    
 error                       :   0.1426773650E-06
 
Wrote STATE.OUT
 
RMS change in Kohn-Sham potential (target) :   0.1830925466E-04 (   10.00000000    )
Absolute change in total energy (target)   :   0.1771444659E-05 (  0.1000000000E-07)
 
Time (CPU seconds) :      1207.18
 
+--------------------+
| Loop number :   27 |
+--------------------+
 
Energies :
 Fermi                       :     0.309580767130E-01
 sum of eigenvalues          :     -351.179425198    
 electron kinetic            :      608.167263406    
 core electron kinetic       :      573.022788246    
 Coulomb                     :     -1176.81393901    
 Coulomb potential           :     -914.836375722    
 nuclear-nuclear             :     -59.5399902901    
 electron-nuclear            :     -1319.71152172    
 Hartree                     :      202.437572998    
 Madelung                    :     -719.395751150    
 xc potential                :     -44.5103128822    
 exchange                    :     -33.0548847310    
 correlation                 :    -0.742690263453    
 total energy                :     -602.444250599    
 
Density of states at Fermi energy :    39.56251630    
 (states/Hartree/unit cell)
 
Estimated indirect band gap :   0.2178874077E-02
 from k-point     89 to k-point     16
Estimated direct band gap   :   0.5614267334E-01
 at k-point     73
 
Charges :
 core                        :    10.00000000    
 valence                     :    9.000000000    
 interstitial                :    1.412047307    
 muffin-tins (core leakage)
  species :    1 (K)
   atom    1                 :    17.58795269     (  0.1157755527E-06)
 total in muffin-tins        :    17.58795269    
 total calculated charge     :    18.99999986    
 total charge                :    19.00000000    
 error                       :   0.1408307497E-06
 
RMS change in Kohn-Sham potential (target) :   0.1274366621E-03 (   10.00000000    )
Absolute change in total energy (target)   :   0.1584554298E-05 (  0.1000000000E-07)
 
Time (CPU seconds) :      1252.80
 
+--------------------+
| Loop number :   28 |
+--------------------+
 
Energies :
 Fermi                       :     0.309581688152E-01
 sum of eigenvalues          :     -351.179425807    
 electron kinetic            :      608.167261018    
 core electron kinetic       :      573.022785922    
 Coulomb                     :     -1176.81393665    
 Coulomb potential           :     -914.836374200    
 nuclear-nuclear             :     -59.5399902901    
 electron-nuclear            :     -1319.71151852    
 Hartree                     :      202.437572162    
 Madelung                    :     -719.395749552    
 xc potential                :     -44.5103126246    
 exchange                    :     -33.0548845098    
 correlation                 :    -0.742690267594    
 total energy                :     -602.444250412    
 
Density of states at Fermi energy :    39.56251052    
 (states/Hartree/unit cell)
 
Estimated indirect band gap :   0.2178869519E-02
 from k-point     89 to k-point     16
Estimated direct band gap   :   0.5614266764E-01
 at k-point     73
 
Charges :
 core                        :    10.00000000    
 valence                     :    9.000000000    
 interstitial                :    1.412047451    
 muffin-tins (core leakage)
  species :    1 (K)
   atom    1                 :    17.58795255     (  0.1158071736E-06)
 total in muffin-tins        :    17.58795255    
 total calculated charge     :    18.99999986    
 total charge                :    19.00000000    
 error                       :   0.1409233690E-06
 
Wrote STATE.OUT
 
RMS change in Kohn-Sham potential (target) :   0.3367901101E-04 (   10.00000000    )
Absolute change in total energy (target)   :   0.2090974931E-06 (  0.1000000000E-07)
 
Time (CPU seconds) :      1298.04
 
+--------------------+
| Loop number :   29 |
+--------------------+
 
Energies :
 Fermi                       :     0.309581301432E-01
 sum of eigenvalues          :     -351.179426126    
 electron kinetic            :      608.167262158    
 core electron kinetic       :      573.022787723    
 Coulomb                     :     -1176.81393858    
 Coulomb potential           :     -914.836375502    
 nuclear-nuclear             :     -59.5399902901    
 electron-nuclear            :     -1319.71152108    
 Hartree                     :      202.437572789    
 Madelung                    :     -719.395750830    
 xc potential                :     -44.5103127819    
 exchange                    :     -33.0548846408    
 correlation                 :    -0.742690265740    
 total energy                :     -602.444251330    
 
Density of states at Fermi energy :    39.56251309    
 (states/Hartree/unit cell)
 
Estimated indirect band gap :   0.2178871523E-02
 from k-point     89 to k-point     16
Estimated direct band gap   :   0.5614267043E-01
 at k-point     73
 
Charges :
 core                        :    10.00000000    
 valence                     :    9.000000000    
 interstitial                :    1.412047394    
 muffin-tins (core leakage)
  species :    1 (K)
   atom    1                 :    17.58795261     (  0.1157594642E-06)
 total in muffin-tins        :    17.58795261    
 total calculated charge     :    18.99999986    
 total charge                :    19.00000000    
 error                       :   0.1408413226E-06
 
RMS change in Kohn-Sham potential (target) :   0.2524768242E-04 (   10.00000000    )
Absolute change in total energy (target)   :   0.9703226169E-06 (  0.1000000000E-07)
 
Time (CPU seconds) :      1345.38
 
+--------------------+
| Loop number :   30 |
+--------------------+
 
Energies :
 Fermi                       :     0.309581125345E-01
 sum of eigenvalues          :     -351.179426019    
 electron kinetic            :      608.167262574    
 core electron kinetic       :      573.022788296    
 Coulomb                     :     -1176.81393903    
 Coulomb potential           :     -914.836375765    
 nuclear-nuclear             :     -59.5399902901    
 electron-nuclear            :     -1319.71152172    
 Hartree                     :      202.437572977    
 Madelung                    :     -719.395751150    
 xc potential                :     -44.5103128272    
 exchange                    :     -33.0548846797    
 correlation                 :    -0.742690265030    
 total energy                :     -602.444251403    
 
Density of states at Fermi energy :    39.56251418    
 (states/Hartree/unit cell)
 
Estimated indirect band gap :   0.2178872354E-02
 from k-point     89 to k-point     16
Estimated direct band gap   :   0.5614267148E-01
 at k-point     73
 
Charges :
 core                        :    10.00000000    
 valence                     :    9.000000000    
 interstitial                :    1.412047369    
 muffin-tins (core leakage)
  species :    1 (K)
   atom    1                 :    17.58795263     (  0.1157637719E-06)
 total in muffin-tins        :    17.58795263    
 total calculated charge     :    18.99999986    
 total charge                :    19.00000000    
 error                       :   0.1408667600E-06
 
Wrote STATE.OUT
 
RMS change in Kohn-Sham potential (target) :   0.2742309484E-04 (   10.00000000    )
Absolute change in total energy (target)   :   0.3158829713E-06 (  0.1000000000E-07)
 
Time (CPU seconds) :      1390.54
 
+--------------------+
| Loop number :   31 |
+--------------------+
 
Energies :
 Fermi                       :     0.309581105276E-01
 sum of eigenvalues          :     -351.179425978    
 electron kinetic            :      608.167262675    
 core electron kinetic       :      573.022788441    
 Coulomb                     :     -1176.81393906    
 Coulomb potential           :     -914.836375822    
 nuclear-nuclear             :     -59.5399902901    
 electron-nuclear            :     -1319.71152172    
 Hartree                     :      202.437572948    
 Madelung                    :     -719.395751150    
 xc potential                :     -44.5103128313    
 exchange                    :     -33.0548846821    
 correlation                 :    -0.742690265276    
 total energy                :     -602.444251333    
 
Density of states at Fermi energy :    39.56251440    
 (states/Hartree/unit cell)
 
Estimated indirect band gap :   0.2178872522E-02
 from k-point     89 to k-point     16
Estimated direct band gap   :   0.5614267174E-01
 at k-point     73
 
Charges :
 core                        :    10.00000000    
 valence                     :    9.000000000    
 interstitial                :    1.412047367    
 muffin-tins (core leakage)
  species :    1 (K)
   atom    1                 :    17.58795263     (  0.1175743041E-06)
 total in muffin-tins        :    17.58795263    
 total calculated charge     :    18.99999986    
 total charge                :    19.00000000    
 error                       :   0.1426701637E-06
 
RMS change in Kohn-Sham potential (target) :   0.1602311728E-04 (   10.00000000    )
Absolute change in total energy (target)   :   0.8746837921E-08 (  0.1000000000E-07)
 
Convergence targets achieved
 
Time (CPU seconds) :      1437.57
 
+--------------------+
| Loop number :   32 |
+--------------------+
 
Energies :
 Fermi                       :     0.309580962534E-01
 sum of eigenvalues          :     -351.179425884    
 electron kinetic            :      608.167263118    
 core electron kinetic       :      573.022788811    
 Coulomb                     :     -1176.81393954    
 Coulomb potential           :     -914.836376135    
 nuclear-nuclear             :     -59.5399902901    
 electron-nuclear            :     -1319.71152236    
 Hartree                     :      202.437573112    
 Madelung                    :     -719.395751469    
 xc potential                :     -44.5103128676    
 exchange                    :     -33.0548847152    
 correlation                 :    -0.742690264174    
 total energy                :     -602.444251398    
 
Density of states at Fermi energy :    39.56251521    
 (states/Hartree/unit cell)
 
Estimated indirect band gap :   0.2178873143E-02
 from k-point     89 to k-point     16
Estimated direct band gap   :   0.5614267260E-01
 at k-point     73
 
Charges :
 core                        :    10.00000000    
 valence                     :    9.000000000    
 interstitial                :    1.412047350    
 muffin-tins (core leakage)
  species :    1 (K)
   atom    1                 :    17.58795265     (  0.1157677989E-06)
 total in muffin-tins        :    17.58795265    
 total calculated charge     :    18.99999986    
 total charge                :    19.00000000    
 error                       :   0.1408730768E-06
 
Wrote STATE.OUT
 
+------------------------------+
| Self-consistent loop stopped |
+------------------------------+
 
Wrote STATE.OUT
 
Timings (CPU seconds) :
 initialisation                        :         1.97
 Hamiltonian and overlap matrix set up :       456.16
 first-variational eigenvalue equation :       794.62
 charge density calculation            :        34.69
 potential calculation                 :       196.79
 total                                 :      1484.24
 
+----------------------------+
| Elk version 8.3.15 stopped |
+----------------------------+
