    -609.924401305    
    -609.820976451    
    -606.533936428    
    -604.175425778    
    -602.999798607    
    -602.578815755    
    -602.430170542    
    -602.446992952    
    -602.447523959    
    -602.444958952    
    -602.444208192    
    -602.444231501    
    -602.444229090    
    -602.444243954    
    -602.444251219    
    -602.444266807    
    -602.444251359    
    -602.444243500    
    -602.444227666    
    -602.444204315    
    -602.444259034    
    -602.444242008    
    -602.444248999    
    -602.444249940    
    -602.444250675    
    -602.444248571    
    -602.444250599    
    -602.444250412    
    -602.444251330    
    -602.444251403    
    -602.444251333    
    -602.444251398    
