    0.245936294898E-03
    0.164954548536E-03
    0.599052531575E-03
    0.215177479508E-03
    0.432984622403E-03
    0.613065127121E-03
    0.422568964840E-03
    0.333115400314E-03
    0.373008186993E-03
    0.433317979724E-03
    0.471920508864E-03
    0.491577102247E-03
    0.500377326250E-03
    0.504103010326E-03
    0.505427775289E-03
    0.505916296721E-03
    0.505971284542E-03
    0.506034646404E-03
    0.506019789911E-03
    0.506032783749E-03
    0.506033289791E-03
    0.506033979730E-03
    0.506034479848E-03
    0.506034636466E-03
    0.506035005842E-03
    0.506034681195E-03
    0.506034117503E-03
    0.506034655376E-03
    0.506034447228E-03
    0.506034520785E-03
    0.506034633772E-03
    0.506034703160E-03
