    0.647906646664E-03
    0.686911781193E-03
    0.295255587671E-03
    0.485893266092E-03
    0.586699895133E-03
    0.236184511638E-03
    0.538167431875E-03
    0.530949787892E-03
    0.532261988664E-03
    0.533809755116E-03
    0.534242855757E-03
    0.534463129236E-03
    0.534509060921E-03
    0.534521927410E-03
    0.534518908981E-03
    0.534523211302E-03
    0.534527222472E-03
    0.534527966190E-03
    0.534531976588E-03
    0.534532436647E-03
    0.534530542509E-03
    0.534530249185E-03
    0.534529929588E-03
    0.534534921040E-03
    0.534535091380E-03
    0.534534681100E-03
    0.534534401640E-03
    0.534534040919E-03
    0.534533974067E-03
    0.534535937923E-03
    0.534537203559E-03
    0.534537772863E-03
    0.534538066775E-03
    0.534538408782E-03
    0.534538495490E-03
    0.534538171295E-03
    0.534538241049E-03
    0.534538260576E-03
    0.534538483561E-03
    0.534538453007E-03
    0.534538292070E-03
    0.534538326233E-03
    0.534538373645E-03
    0.534538561089E-03
