    0.216194849451E-03
    0.215986384923E-03
    0.215370135389E-03
    0.192754576943E-03
    0.435440692747E-03
    0.247738628082E-03
    0.994988199082E-04
    0.112684650082E-03
    0.728347953740E-04
    0.111562090073E-03
    0.114815836999E-03
    0.119069770096E-03
    0.119865947633E-03
    0.118679375631E-03
    0.118930257716E-03
    0.118883226057E-03
    0.118763966309E-03
    0.118991945108E-03
    0.118954575743E-03
    0.118919336539E-03
    0.118897011858E-03
    0.118887301906E-03
    0.118885274666E-03
    0.118892611775E-03
    0.118892274884E-03
    0.118885265626E-03
    0.118884365981E-03
    0.118883754520E-03
    0.118879199087E-03
    0.118873706287E-03
    0.118867884850E-03
    0.118869387587E-03
    0.118869872007E-03
    0.118870236672E-03
    0.118870884370E-03
    0.118871472044E-03
    0.118871591907E-03
    0.118871676012E-03
    0.118871684251E-03
    0.118871702648E-03
    0.118871726199E-03
