    -16292.0004517    
    -16289.5280334    
    -16279.1267430    
    -16247.8467517    
    -16206.2840149    
    -16182.7742463    
    -16171.5382029    
    -16171.7353940    
    -16171.7086429    
    -16171.7278283    
    -16171.7310167    
    -16171.7317229    
    -16171.7308695    
    -16171.7303662    
    -16171.7303386    
    -16171.7303154    
    -16171.7302834    
    -16171.7302807    
    -16171.7302526    
    -16171.7302593    
    -16171.7302472    
    -16171.7302463    
    -16171.7302454    
    -16171.7302443    
    -16171.7302469    
    -16171.7302461    
    -16171.7302461    
    -16171.7302462    
    -16171.7302460    
