    0.318814393431E-03
    0.379173770643E-03
    0.188106371075E-03
    0.297636829475E-03
    0.342455155251E-03
    0.173294785496E-04
    0.647960241206E-04
    0.608910213624E-04
    0.578958688735E-04
    0.571956825213E-04
    0.572649358193E-04
    0.572284633242E-04
    0.572051516268E-04
    0.572029016064E-04
    0.572002290791E-04
    0.572021959224E-04
    0.572040529530E-04
    0.572041912388E-04
    0.572045508276E-04
    0.572058773423E-04
    0.572062659392E-04
    0.572064516506E-04
    0.572063766214E-04
    0.572063551537E-04
    0.572063865780E-04
    0.572064322690E-04
    0.572064094022E-04
    0.572064093229E-04
    0.572064226956E-04
    0.572063759774E-04
    0.572063558224E-04
    0.572063497535E-04
    0.572063305894E-04
    0.572063387749E-04
    0.572063277600E-04
    0.572063163169E-04
    0.572063132108E-04
    0.572063149837E-04
    0.572063205679E-04
    0.572063084250E-04
    0.572063059748E-04
    0.572063044649E-04
    0.572063022464E-04
    0.572063030748E-04
    0.572063013797E-04
    0.572063007023E-04
