    -33693.9047146    
    -33689.0763002    
    -33676.1179389    
    -33572.5530229    
    -33494.0070727    
    -33460.6081002    
    -33447.0713270    
    -33447.3359243    
    -33447.3201938    
    -33447.3466819    
    -33447.3462294    
    -33447.3441063    
    -33447.3430132    
    -33447.3428949    
    -33447.3426553    
    -33447.3425287    
    -33447.3424992    
    -33447.3424818    
    -33447.3424933    
    -33447.3424461    
    -33447.3424586    
    -33447.3424577    
    -33447.3424599    
    -33447.3424603    
    -33447.3424603    
    -33447.3424595    
    -33447.3424600    
    -33447.3424598    
    -33447.3424608    
    -33447.3424611    
    -33447.3424614    
    -33447.3424618    
    -33447.3424621    
    -33447.3424617    
    -33447.3424620    
    -33447.3424623    
    -33447.3424622    
    -33447.3424621    
    -33447.3424622    
    -33447.3424623    
    -33447.3424619    
    -33447.3424622    
    -33447.3424621    
    -33447.3424624    
    -33447.3424623    
    -33447.3424620    
