   62.05505867    
   61.95106356    
   61.34915807    
   61.84551895    
   62.02183650    
   62.38745850    
   62.71129817    
   62.81889150    
   62.81621838    
   62.80047351    
   62.79980356    
   62.79662529    
   62.79757704    
   62.79767134    
   62.79878177    
   62.79911714    
   62.79933166    
   62.79935530    
   62.79902821    
   62.79910510    
   62.79919114    
   62.79928116    
   62.79938687    
   62.79942395    
   62.79948144    
   62.79936673    
   62.79937144    
   62.79939941    
   62.79938165    
   62.79938359    
   62.79938456    
   62.79936848    
   62.79936510    
   62.79935983    
   62.79935899    
   62.79935654    
   62.79935569    
   62.79935594    
   62.79935733    
   62.79935720    
   62.79935762    
   62.79935721    
   62.79935745    
   62.79935722    
