   38.34672938    
   38.35311083    
   38.78457719    
   39.11374331    
   39.23458193    
   39.27191629    
   39.28646267    
   39.29059985    
   39.29205297    
   39.29204817    
   39.29205576    
   39.29206547    
   39.29209615    
   39.29210867    
   39.29212459    
   39.29213530    
   39.29213887    
   39.29213690    
   39.29214604    
   39.29214643    
   39.29214865    
   39.29215088    
   39.29215274    
   39.29214687    
   39.29214738    
   39.29214853    
   39.29214838    
   39.29214992    
   39.29215026    
   39.29215124    
   39.29215089    
   39.29215028    
   39.29215030    
   39.29215020    
   39.29215024    
   39.29215012    
   39.29215014    
   39.29215009    
   39.29215010    
   39.29215005    
   39.29215006    
   39.29215005    
