    -1529.12551350    
    -1529.12666307    
    -1529.12842321    
    -1529.14489276    
    -1529.15256493    
    -1529.15611892    
    -1529.15813658    
    -1529.15880442    
    -1529.15905041    
    -1529.15874852    
    -1529.15862252    
    -1529.15863149    
    -1529.15863981    
    -1529.15863676    
    -1529.15863477    
    -1529.15862628    
    -1529.15863273    
    -1529.15863330    
    -1529.15863382    
    -1529.15863387    
    -1529.15863411    
    -1529.15863641    
    -1529.15863496    
    -1529.15863490    
    -1529.15863434    
    -1529.15863406    
    -1529.15863365    
    -1529.15863436    
    -1529.15863465    
    -1529.15863481    
    -1529.15863462    
    -1529.15863468    
    -1529.15863475    
    -1529.15863478    
    -1529.15863482    
    -1529.15863456    
    -1529.15863461    
    -1529.15863457    
    -1529.15863461    
    -1529.15863460    
    -1529.15863461    
