 
scale
 1.0
 
scale1
 1.0
 
scale2
 1.0
 
scale3
 1.0
 
avec
   5.865933042      -3.386698021       0.000000000    
   0.000000000       6.773396041       0.000000000    
   0.000000000       0.000000000       10.43520165    
 
atoms
   1                                    : nspecies
'Y.in'                                  : spfname
   2                                    : natoms; atpos, bfcmt below
    0.33333333    0.16666667    0.25000000    0.00000000  0.00000000  0.00000000
   -0.33333333   -0.16666667   -0.25000000    0.00000000  0.00000000  0.00000000
