 
+----------------------------+
| Real-space lattice vectors |
+----------------------------+
 
vector a1 :    5.865933042      -3.386698021       0.000000000    
vector a2 :    0.000000000       6.773396041       0.000000000    
vector a3 :    0.000000000       0.000000000       10.43520165    
 
Stored column-wise as a matrix :
   5.865933042       0.000000000       0.000000000    
  -3.386698021       6.773396041       0.000000000    
   0.000000000       0.000000000       10.43520165    
 
Inverse of matrix :
  0.1704758634       0.000000000       0.000000000    
  0.8523793171E-01  0.1476364285       0.000000000    
   0.000000000       0.000000000      0.9582948500E-01
 
Unit cell volume :    414.6144336    
 
 
+----------------------------------+
| Reciprocal-space lattice vectors |
+----------------------------------+
 
vector b1 :    1.071131440       0.000000000       0.000000000    
vector b2 :   0.5355657201      0.9276270381       0.000000000    
vector b3 :    0.000000000       0.000000000      0.6021144121    
 
Stored column-wise as a matrix :
   1.071131440      0.5355657201       0.000000000    
   0.000000000      0.9276270381       0.000000000    
   0.000000000       0.000000000      0.6021144121    
 
Inverse of matrix :
  0.9335922394     -0.5390097307       0.000000000    
   0.000000000       1.078019461       0.000000000    
   0.000000000       0.000000000       1.660813925    
 
Brillouin zone volume :   0.5982671932    
