 
Distance between is =    1 (Re), ia =    1 and
 is =    1 (Re), ia =    1 :    0.000000000    
 is =    1 (Re), ia =    2 :    5.425916590    
 
Distance between is =    1 (Re), ia =    2 and
 is =    1 (Re), ia =    1 :    5.425916590    
 is =    1 (Re), ia =    2 :    0.000000000    
