 
scale
 1.0
 
scale1
 1.0
 
scale2
 1.0
 
scale3
 1.0
 
avec
   4.361945143      -2.518370202       0.000000000    
   0.000000000       5.036740404       0.000000000    
   0.000000000       0.000000000       7.921384882    
 
atoms
   1                                    : nspecies
'Os.in'                                 : spfname
   2                                    : natoms; atpos, bfcmt below
    0.33333333    0.16666667    0.25000000    0.00000000  0.00000000  0.00000000
   -0.33333333   -0.16666667   -0.25000000    0.00000000  0.00000000  0.00000000
