    0.386365716017E-04
    0.401537778133E-04
    0.646651545722E-04
    0.720129405280E-04
    0.763154268763E-04
    0.114151552755E-03
    0.126121727943E-03
    0.118734227775E-03
    0.113637842035E-03
    0.113077061819E-03
    0.112840512925E-03
    0.112872099286E-03
    0.113194442817E-03
    0.113239049838E-03
    0.113236267613E-03
    0.113275187411E-03
    0.113371873516E-03
    0.113324597167E-03
    0.113323826304E-03
    0.113316847414E-03
    0.113308232789E-03
    0.113308926593E-03
    0.113301510786E-03
    0.113302846844E-03
    0.113303583326E-03
    0.113304360592E-03
    0.113303355803E-03
    0.113306516556E-03
    0.113305184845E-03
    0.113305812878E-03
    0.113304956666E-03
    0.113304709206E-03
    0.113304487109E-03
    0.113304524822E-03
    0.113304634173E-03
    0.113304410135E-03
    0.113304497502E-03
    0.113304531427E-03
