    0.313744518086E-03
    0.319247129868E-03
    0.140312683868E-03
    0.670988944359E-04
    0.163156263631E-03
    0.170118437480E-03
    0.178448406583E-03
    0.178911289828E-03
    0.178612677336E-03
    0.178364312148E-03
    0.178233047667E-03
    0.178221963933E-03
    0.178264146141E-03
    0.178278504931E-03
    0.178329205161E-03
    0.178319592244E-03
    0.178327358877E-03
    0.178331594844E-03
    0.178324927740E-03
    0.178316296812E-03
    0.178321949270E-03
    0.178326594298E-03
    0.178349658092E-03
    0.178342222673E-03
    0.178337591191E-03
    0.178331732192E-03
    0.178327471203E-03
    0.178329760679E-03
    0.178327763103E-03
    0.178330128569E-03
    0.178329584657E-03
    0.178330262001E-03
    0.178328353950E-03
    0.178329754017E-03
    0.178330736178E-03
    0.178331108839E-03
    0.178331013379E-03
    0.178331643487E-03
    0.178332418581E-03
    0.178332133617E-03
    0.178332335635E-03
    0.178332020659E-03
    0.178331905492E-03
    0.178331878748E-03
    0.178331895236E-03
    0.178331816852E-03
    0.178331834026E-03
