   27.29143709    
   38.01675335    
   36.85045355    
   28.35772222    
   18.24321564    
   10.68243669    
   6.208343263    
   3.630805138    
   2.063850274    
   1.088866728    
  0.5217560449    
  0.2207995659    
  0.8092432481E-01
  0.2425790931E-01
  0.5769409552E-02
  0.4940569488E-03
  0.7478429325E-05
  0.2023341804E-03
  0.4867917232E-04
  0.1050856736E-04
  0.1854557922E-05
  0.2818705980E-07
