 
Species :    1 (Pt), atom :    1
 n =  1, l =  0, k =  1 :   -2880.886512    
 n =  2, l =  0, k =  1 :   -504.7304678    
 n =  2, l =  1, k =  1 :   -484.2111948    
 n =  2, l =  1, k =  2 :   -420.3411277    
 n =  3, l =  0, k =  1 :   -118.0192575    
 n =  3, l =  1, k =  1 :   -108.7047370    
 n =  3, l =  1, k =  2 :   -94.66459676    
 n =  3, l =  2, k =  2 :   -78.89087700    
 n =  3, l =  2, k =  3 :   -75.87713132    
 n =  4, l =  0, k =  1 :   -24.85910386    
 n =  4, l =  1, k =  1 :   -20.88239006    
 n =  4, l =  1, k =  2 :   -17.53640881    
 n =  4, l =  2, k =  2 :   -10.96308868    
 n =  4, l =  2, k =  3 :   -10.34363708    
 n =  5, l =  0, k =  1 :   -3.080394721    
