    -7200.61825484    
    -7200.62098281    
    -7200.62274055    
    -7200.66730915    
    -7200.70449663    
    -7200.72380767    
    -7200.73494604    
    -7200.73539026    
    -7200.73518653    
    -7200.73484706    
    -7200.73449290    
    -7200.73443560    
    -7200.73443889    
    -7200.73442770    
    -7200.73438498    
    -7200.73443533    
    -7200.73442703    
    -7200.73442742    
    -7200.73442752    
    -7200.73443095    
    -7200.73443053    
    -7200.73443257    
    -7200.73443268    
    -7200.73443457    
    -7200.73443490    
    -7200.73443453    
    -7200.73443569    
    -7200.73443554    
    -7200.73443498    
    -7200.73443524    
    -7200.73443478    
    -7200.73443460    
    -7200.73443446    
    -7200.73443269    
    -7200.73443477    
    -7200.73443463    
    -7200.73443477    
    -7200.73443477    
    -7200.73443466    
    -7200.73443474    
    -7200.73443485    
    -7200.73443486    
    -7200.73443490    
    -7200.73443488    
    -7200.73443494    
