 
Species :    1 (Ti), atom :    1
 n =  1, l =  0, k =  1 :   -178.7225830    
 n =  2, l =  0, k =  1 :   -19.14517575    
 n =  2, l =  1, k =  1 :   -15.86809469    
 n =  2, l =  1, k =  2 :   -15.65492164    
 
Species :    1 (Ti), atom :    2
 n =  1, l =  0, k =  1 :   -178.7225830    
 n =  2, l =  0, k =  1 :   -19.14517575    
 n =  2, l =  1, k =  1 :   -15.86809469    
 n =  2, l =  1, k =  2 :   -15.65492164    
