 
scale
 1.0
 
scale1
 1.0
 
scale2
 1.0
 
scale3
 1.0
 
avec
   3.646071282       3.646071282       0.000000000    
   3.646071282       0.000000000       3.646071282    
   0.000000000       3.646071282       3.646071282    
 
atoms
   1                                    : nspecies
'Pt.in'                                 : spfname
   1                                    : natoms; atpos, bfcmt below
    0.00000000    0.00000000    0.00000000    0.00000000  0.00000000  0.00000000
