 
+----------------------------+
| Real-space lattice vectors |
+----------------------------+
 
vector a1 :    5.202454674      -3.003638607       0.000000000    
vector a2 :    0.000000000       6.007277213       0.000000000    
vector a3 :    0.000000000       0.000000000       9.606157611    
 
Stored column-wise as a matrix :
   5.202454674       0.000000000       0.000000000    
  -3.003638607       6.007277213       0.000000000    
   0.000000000       0.000000000       9.606157611    
 
Inverse of matrix :
  0.1922169558       0.000000000       0.000000000    
  0.9610847790E-01  0.1664647667       0.000000000    
   0.000000000       0.000000000      0.1040998951    
 
Unit cell volume :    300.2172805    
 
 
+----------------------------------+
| Reciprocal-space lattice vectors |
+----------------------------------+
 
vector b1 :    1.207734752       0.000000000       0.000000000    
vector b2 :   0.6038673762       1.045928977       0.000000000    
vector b3 :    0.000000000       0.000000000      0.6540789316    
 
Stored column-wise as a matrix :
   1.207734752      0.6038673762       0.000000000    
   0.000000000       1.045928977       0.000000000    
   0.000000000       0.000000000      0.6540789316    
 
Inverse of matrix :
  0.8279963776     -0.4780439316       0.000000000    
   0.000000000      0.9560878630       0.000000000    
   0.000000000       0.000000000       1.528867468    
 
Brillouin zone volume :   0.8262356286    
