  0.1756152104E-01
  0.1583040266E-01
  0.6281342757E-02
  0.2323389512E-02
  0.1045652432E-02
  0.6426536050E-03
  0.3098979141E-04
  0.2012398103E-03
  0.2375108893E-03
  0.3785991371E-03
  0.2032278142E-03
  0.1596011374E-03
  0.2612813642E-03
  0.2297181783E-03
  0.2500428384E-03
  0.4360369942E-03
  0.2179762761E-03
  0.2793044537E-03
  0.3513984849E-03
  0.3559798892E-03
  0.4861516915E-03
  0.2866041192E-03
  0.3173247600E-03
  0.4723339528E-03
  0.4115737762E-03
  0.3745405259E-03
  0.1362950510E-03
  0.2333258974E-03
  0.1466129790E-03
  0.2982573259E-04
  0.7111718471E-04
  0.1521607279E-03
  0.1518745553E-04
  0.1305566739E-03
  0.1711266656E-04
  0.1445093421E-03
  0.1443410079E-03
  0.1580915714E-04
  0.1338580925E-04
  0.9879667599E-04
  0.1146004291E-04
  0.7369635747E-05
  0.4180308809E-05
  0.4760898217E-04
