   55.39426271    
   55.93674095    
   56.17594466    
   55.96024600    
   55.33957045    
   54.42948129    
   53.38094686    
   52.36523959    
   51.51679208    
   50.89439763    
   50.48791049    
   50.24988014    
   50.12479137    
   50.06568345    
   50.04074425    
   50.03148871    
   50.02846429    
   50.02758795    
   50.02734908    
   50.02727853    
   50.02725672    
   50.02724681    
   50.02724158    
   50.02723960    
   50.02723893    
   50.02723890    
   50.02723879    
   50.02723872    
