  0.8272926652E-03
  0.3219920730E-02
  0.7269564122E-02
  0.9561281847E-02
  0.5854304927E-02
  0.2524562567E-02
  0.1614562957E-02
  0.4921999432E-03
  0.1347337832E-03
  0.6167035235E-04
  0.4928313820E-04
  0.3491683924E-04
  0.2298899403E-04
  0.1214111649E-04
  0.4976565833E-05
  0.1028034148E-05
  0.3259592404E-05
  0.4084011607E-05
  0.2155634775E-05
  0.3226211447E-05
  0.4509500513E-05
  0.3586233333E-05
  0.3832844868E-05
  0.1465508376E-05
  0.1978393584E-05
  0.3253583372E-05
  0.8220049494E-06
  0.8895431165E-06
  0.1533032901E-06
  0.5097354006E-07
  0.1334161652E-05
  0.2891083568E-06
  0.1568398602E-06
  0.5977881301E-06
  0.6002212558E-06
  0.2741380740E-06
  0.2588585630E-06
  0.4386643013E-06
  0.1500561666E-06
  0.1301079919E-06
  0.5511537893E-09
