+----------------------------+
| Elk version 8.3.15 started |
+----------------------------+
 
Date (YYYY-MM-DD) : 2022-02-24
Time (hh:mm:ss)   : 09:37:45
 
All units are atomic (Hartree, Bohr, etc.)
 
+------------------------------------------+
| Ground-state run resuming from STATE.OUT |
+------------------------------------------+
 
Lattice vectors :
   5.388136639      -3.110842139       0.000000000    
   0.000000000       6.221684278       0.000000000    
   0.000000000       0.000000000       9.652017898    
 
Reciprocal lattice vectors :
   1.166114694       0.000000000       0.000000000    
  0.5830573470       1.009884949       0.000000000    
   0.000000000       0.000000000      0.6509711621    
 
Unit cell volume      :    323.5673469    
Brillouin zone volume :   0.7666107715    
 
Muffin-tin inner radius fraction :   0.1000000000E-01
 
Species :    1 (Sc)
 parameters loaded from : Sc.in
 name : scandium
 nuclear charge    :   -21.00000000    
 electronic charge :    21.00000000    
 atomic mass :    81949.61066    
 muffin-tin radius :    2.400000000    
 number of radial points in muffin-tin :   1000
 number on inner part of muffin-tin    :    716
 atomic positions (lattice), magnetic fields (Cartesian) :
   1 :   0.33333333  0.16666667  0.25000000    0.00000000  0.00000000  0.00000000
   2 :  -0.33333333 -0.16666667 -0.25000000    0.00000000  0.00000000  0.00000000
 
Total number of atoms per unit cell :    2
 
Spin treatment :
 spin-unpolarised
 
Number of Bravais lattice symmetries :   24
Number of crystal symmetries         :   24
Crystal has inversion symmetry
Real symmetric eigensolver will be used
 
k-point grid :     17    17    17
k-point offset :    0.000000000       0.000000000       0.000000000    
k-point set is reduced with full crystal symmetry group
Total number of k-points :      297
 
Muffin-tin radius times maximum |G+k| :    8.500000000    
 using gkmax = rgkmax / 2
Maximum |G+k| for APW functions       :    4.250000000    
Maximum (1/2)|G+k|²                   :    9.031250000    
Maximum |G| for potential and density :    34.00000000    
Constant for pseudocharge density :   20
Radial integration step length :    1
 
G-vector grid sizes :     72    72   108
Number of G-vectors :   214779
 
Maximum angular momentum used for
 APW functions                      :   10
 outer part of muffin-tin           :    8
 inner part of muffin-tin           :    1
 
Total nuclear charge    :   -42.00000000    
Total core charge       :    20.00000000    
Total valence charge    :    22.00000000    
Total excess charge     :    0.000000000    
Total electronic charge :    42.00000000    
 
Effective Wigner radius, rₛ :    1.225205477    
 
Number of empty states         :   40
Total number of valence states :   52
Total number of core states    :   20
 
Conduction state local-orbitals added automatically
Total number of local-orbitals :  242
 
Using Libxc version 05.01.05
Exchange-correlation functional :    100   493   494
 exchange: mgga_x_rscan; correlation: mgga_c_rscan
 
Smearing type :    1
 Methfessel-Paxton order 1, Phys. Rev. B 40, 3616 (1989)
Smearing width :   0.1000000000E-02
Effective electronic temperature (K) :    315.7750248    
 
Mixing type :    3
 Broyden mixing, J. Phys. A: Math. Gen. 17, L317 (1984)
 
Potential read in from STATE.OUT
 
+------------------------------+
| Self-consistent loop started |
+------------------------------+
 
+--------------------+
| Loop number :    1 |
+--------------------+
 
Energies :
 Fermi                       :     0.256754028817    
 sum of eigenvalues          :     -893.717760272    
 electron kinetic            :      1546.23994629    
 core electron kinetic       :      1433.77532357    
 Coulomb                     :     -2996.36771261    
 Coulomb potential           :     -2335.79439086    
 nuclear-nuclear             :     -199.161036415    
 electron-nuclear            :     -3258.61896152    
 Hartree                     :      461.412285331    
 Madelung                    :     -1828.47051718    
 xc potential                :     -104.163315700    
 exchange                    :     -77.2295989341    
 correlation                 :     -1.77757944711    
 total energy                :     -1529.13494470    
 
Density of states at Fermi energy :    118.6847318    
 (states/Hartree/unit cell)
 
Estimated indirect band gap :   0.4414678220E-04
 from k-point     73 to k-point    246
Estimated direct band gap   :   0.1267983190E-02
 at k-point    248
 
Charges :
 core                        :    20.00000000    
 valence                     :    22.00000000    
 interstitial                :    3.804146943    
 muffin-tins (core leakage)
  species :    1 (Sc)
   atom    1                 :    19.09792653     (  0.6525704421E-08)
   atom    2                 :    19.09792653     (  0.6525704421E-08)
 total in muffin-tins        :    38.19585306    
 total calculated charge     :    41.99999681    
 total charge                :    42.00000000    
 error                       :   0.3185784493E-05
 
Time (CPU seconds) :        73.15
 
+--------------------+
| Loop number :    2 |
+--------------------+
 
Energies :
 Fermi                       :     0.256753068533    
 sum of eigenvalues          :     -893.717965947    
 electron kinetic            :      1546.23941935    
 core electron kinetic       :      1433.77474901    
 Coulomb                     :     -2996.36797978    
 Coulomb potential           :     -2335.79402127    
 nuclear-nuclear             :     -199.161036415    
 electron-nuclear            :     -3258.61986545    
 Hartree                     :      461.412922090    
 Madelung                    :     -1828.47096914    
 xc potential                :     -104.163364025    
 exchange                    :     -77.2296294286    
 correlation                 :     -1.77758213589    
 total energy                :     -1529.13577199    
 
Density of states at Fermi energy :    119.1291166    
 (states/Hartree/unit cell)
 
Estimated indirect band gap :   0.4187707429E-04
 from k-point     73 to k-point    246
Estimated direct band gap   :   0.1267133241E-02
 at k-point    248
 
Charges :
 core                        :    20.00000000    
 valence                     :    22.00000000    
 interstitial                :    3.804069793    
 muffin-tins (core leakage)
  species :    1 (Sc)
   atom    1                 :    19.09796510     (  0.6580105349E-08)
   atom    2                 :    19.09796510     (  0.6580105349E-08)
 total in muffin-tins        :    38.19593021    
 total calculated charge     :    41.99999682    
 total charge                :    42.00000000    
 error                       :   0.3178910426E-05
 
Wrote STATE.OUT
 
RMS change in Kohn-Sham potential (target) :   0.1650840356E-01 (   10.00000000    )
Absolute change in total energy (target)   :   0.8272926652E-03 (  0.1000000000E-07)
 
Time (CPU seconds) :       145.24
 
+--------------------+
| Loop number :    3 |
+--------------------+
 
Energies :
 Fermi                       :     0.256757670656    
 sum of eigenvalues          :     -893.717429316    
 electron kinetic            :      1546.23685861    
 core electron kinetic       :      1433.77400304    
 Coulomb                     :     -2996.36832472    
 Coulomb potential           :     -2335.79073386    
 nuclear-nuclear             :     -199.161036415    
 electron-nuclear            :     -3258.62384274    
 Hartree                     :      461.416554439    
 Madelung                    :     -1828.47295778    
 xc potential                :     -104.163554069    
 exchange                    :     -77.2297046867    
 correlation                 :     -1.77761430126    
 total energy                :     -1529.13878509    
 
Density of states at Fermi energy :    125.1991330    
 (states/Hartree/unit cell)
 
Estimated indirect band gap :   0.2470574300E-04
 from k-point    184 to k-point    230
Estimated direct band gap   :   0.1247838028E-02
 at k-point    248
 
Charges :
 core                        :    20.00000000    
 valence                     :    22.00000000    
 interstitial                :    3.803417404    
 muffin-tins (core leakage)
  species :    1 (Sc)
   atom    1                 :    19.09829130     (  0.6569639055E-08)
   atom    2                 :    19.09829130     (  0.6569639055E-08)
 total in muffin-tins        :    38.19658260    
 total calculated charge     :    41.99999691    
 total charge                :    42.00000000    
 error                       :   0.3086558877E-05
 
RMS change in Kohn-Sham potential (target) :   0.1416522920E-01 (   10.00000000    )
Absolute change in total energy (target)   :   0.3219920730E-02 (  0.1000000000E-07)
 
Time (CPU seconds) :       219.48
 
+--------------------+
| Loop number :    4 |
+--------------------+
 
Energies :
 Fermi                       :     0.256728474016    
 sum of eigenvalues          :     -893.715840633    
 electron kinetic            :      1546.23120768    
 core electron kinetic       :      1433.77694209    
 Coulomb                     :     -2996.36897719    
 Coulomb potential           :     -2335.78314782    
 nuclear-nuclear             :     -199.161036415    
 electron-nuclear            :     -3258.63273373    
 Hartree                     :      461.424792955    
 Madelung                    :     -1828.47740328    
 xc potential                :     -104.163900489    
 exchange                    :     -77.2297741212    
 correlation                 :     -1.77770603843    
 total energy                :     -1529.14524967    
 
Density of states at Fermi energy :    139.1682045    
 (states/Hartree/unit cell)
 
Estimated indirect band gap :   0.1995962729E-04
 from k-point    230 to k-point    187
Estimated direct band gap   :   0.1166190307E-02
 at k-point    248
 
Charges :
 core                        :    20.00000000    
 valence                     :    22.00000000    
 interstitial                :    3.801841201    
 muffin-tins (core leakage)
  species :    1 (Sc)
   atom    1                 :    19.09907940     (  0.6552662413E-08)
   atom    2                 :    19.09907940     (  0.6552662413E-08)
 total in muffin-tins        :    38.19815880    
 total calculated charge     :    41.99999727    
 total charge                :    42.00000000    
 error                       :   0.2728408319E-05
 
Wrote STATE.OUT
 
RMS change in Kohn-Sham potential (target) :   0.5566025258E-02 (   10.00000000    )
Absolute change in total energy (target)   :   0.7269564122E-02 (  0.1000000000E-07)
 
Time (CPU seconds) :       291.21
 
+--------------------+
| Loop number :    5 |
+--------------------+
 
Energies :
 Fermi                       :     0.256690223189    
 sum of eigenvalues          :     -893.717647264    
 electron kinetic            :      1546.22638397    
 core electron kinetic       :      1433.77692926    
 Coulomb                     :     -2996.37161385    
 Coulomb potential           :     -2335.77969469    
 nuclear-nuclear             :     -199.161036415    
 electron-nuclear            :     -3258.64146018    
 Hartree                     :      461.430882747    
 Madelung                    :     -1828.48176650    
 xc potential                :     -104.164336553    
 exchange                    :     -77.2300232431    
 correlation                 :     -1.77774044721    
 total energy                :     -1529.15299356    
 
Density of states at Fermi energy :    136.9202896    
 (states/Hartree/unit cell)
 
Estimated indirect band gap :   0.4571435073E-04
 from k-point    230 to k-point    297
Estimated direct band gap   :   0.1376330606E-02
 at k-point    227
 
Charges :
 core                        :    20.00000000    
 valence                     :    22.00000000    
 interstitial                :    3.801031614    
 muffin-tins (core leakage)
  species :    1 (Sc)
   atom    1                 :    19.09948419     (  0.6526587271E-08)
   atom    2                 :    19.09948419     (  0.6526587271E-08)
 total in muffin-tins        :    38.19896839    
 total calculated charge     :    41.99999742    
 total charge                :    42.00000000    
 error                       :   0.2575389679E-05
 
RMS change in Kohn-Sham potential (target) :   0.1923247805E-02 (   10.00000000    )
Absolute change in total energy (target)   :   0.9561281847E-02 (  0.1000000000E-07)
 
Time (CPU seconds) :       359.75
 
+--------------------+
| Loop number :    6 |
+--------------------+
 
Energies :
 Fermi                       :     0.256678661058    
 sum of eigenvalues          :     -893.718647317    
 electron kinetic            :      1546.22436563    
 core electron kinetic       :      1433.77649981    
 Coulomb                     :     -2996.37291565    
 Coulomb potential           :     -2335.77846719    
 nuclear-nuclear             :     -199.161036415    
 electron-nuclear            :     -3258.64529129    
 Hartree                     :      461.433412048    
 Madelung                    :     -1828.48368206    
 xc potential                :     -104.164545753    
 exchange                    :     -77.2301581721    
 correlation                 :     -1.77774934989    
 total energy                :     -1529.15645755    
 
Density of states at Fermi energy :    135.6316840    
 (states/Hartree/unit cell)
 
Estimated indirect band gap :   0.8844926875E-04
 from k-point    230 to k-point    248
Estimated direct band gap   :   0.1359347683E-02
 at k-point    227
 
Charges :
 core                        :    20.00000000    
 valence                     :    22.00000000    
 interstitial                :    3.800740924    
 muffin-tins (core leakage)
  species :    1 (Sc)
   atom    1                 :    19.09962954     (  0.6505299410E-08)
   atom    2                 :    19.09962954     (  0.6505299410E-08)
 total in muffin-tins        :    38.19925908    
 total calculated charge     :    41.99999746    
 total charge                :    42.00000000    
 error                       :   0.2542163799E-05
 
Wrote STATE.OUT
 
RMS change in Kohn-Sham potential (target) :   0.1242463785E-02 (   10.00000000    )
Absolute change in total energy (target)   :   0.5854304927E-02 (  0.1000000000E-07)
 
Time (CPU seconds) :       429.70
 
+--------------------+
| Loop number :    7 |
+--------------------+
 
Energies :
 Fermi                       :     0.256675157610    
 sum of eigenvalues          :     -893.718878236    
 electron kinetic            :      1546.22373261    
 core electron kinetic       :      1433.77676728    
 Coulomb                     :     -2996.37329571    
 Coulomb potential           :     -2335.77799428    
 nuclear-nuclear             :     -199.161036415    
 electron-nuclear            :     -3258.64652430    
 Hartree                     :      461.434265010    
 Madelung                    :     -1828.48429857    
 xc potential                :     -104.164616560    
 exchange                    :     -77.2302027770    
 correlation                 :     -1.77775265836    
 total energy                :     -1529.15751853    
 
Density of states at Fermi energy :    135.0841412    
 (states/Hartree/unit cell)
 
Estimated indirect band gap :   0.9609192594E-04
 from k-point    230 to k-point     84
Estimated direct band gap   :   0.1354933785E-02
 at k-point    227
 
Charges :
 core                        :    20.00000000    
 valence                     :    22.00000000    
 interstitial                :    3.800633365    
 muffin-tins (core leakage)
  species :    1 (Sc)
   atom    1                 :    19.09968332     (  0.6552292930E-08)
   atom    2                 :    19.09968332     (  0.6552292930E-08)
 total in muffin-tins        :    38.19936664    
 total calculated charge     :    41.99999747    
 total charge                :    42.00000000    
 error                       :   0.2531495703E-05
 
RMS change in Kohn-Sham potential (target) :   0.6967011199E-03 (   10.00000000    )
Absolute change in total energy (target)   :   0.2524562567E-02 (  0.1000000000E-07)
 
Time (CPU seconds) :       502.06
 
+--------------------+
| Loop number :    8 |
+--------------------+
 
Energies :
 Fermi                       :     0.256676244823    
 sum of eigenvalues          :     -893.719409963    
 electron kinetic            :      1546.22347235    
 core electron kinetic       :      1433.77648836    
 Coulomb                     :     -2996.37397231    
 Coulomb potential           :     -2335.77820415    
 nuclear-nuclear             :     -199.161036415    
 electron-nuclear            :     -3258.64766763    
 Hartree                     :      461.434731739    
 Madelung                    :     -1828.48487023    
 xc potential                :     -104.164678158    
 exchange                    :     -77.2302493183    
 correlation                 :     -1.77775267939    
 total energy                :     -1529.15850196    
 
Density of states at Fermi energy :    135.2847151    
 (states/Hartree/unit cell)
 
Estimated indirect band gap :   0.9504463101E-04
 from k-point    230 to k-point    248
Estimated direct band gap   :   0.1373956791E-02
 at k-point    227
 
Charges :
 core                        :    20.00000000    
 valence                     :    22.00000000    
 interstitial                :    3.800632936    
 muffin-tins (core leakage)
  species :    1 (Sc)
   atom    1                 :    19.09968353     (  0.6505636918E-08)
   atom    2                 :    19.09968353     (  0.6505636918E-08)
 total in muffin-tins        :    38.19936706    
 total calculated charge     :    41.99999745    
 total charge                :    42.00000000    
 error                       :   0.2546976056E-05
 
Wrote STATE.OUT
 
RMS change in Kohn-Sham potential (target) :   0.2230027194E-03 (   10.00000000    )
Absolute change in total energy (target)   :   0.1614562957E-02 (  0.1000000000E-07)
 
Time (CPU seconds) :       575.87
 
+--------------------+
| Loop number :    9 |
+--------------------+
 
Energies :
 Fermi                       :     0.256676337042    
 sum of eigenvalues          :     -893.719537581    
 electron kinetic            :      1546.22352859    
 core electron kinetic       :      1433.77640082    
 Coulomb                     :     -2996.37411393    
 Coulomb potential           :     -2335.77838430    
 nuclear-nuclear             :     -199.161036415    
 electron-nuclear            :     -3258.64777074    
 Hartree                     :      461.434693219    
 Madelung                    :     -1828.48492178    
 xc potential                :     -104.164681874    
 exchange                    :     -77.2302525511    
 correlation                 :     -1.77775262450    
 total energy                :     -1529.15859052    
 
Density of states at Fermi energy :    135.3406995    
 (states/Hartree/unit cell)
 
Estimated indirect band gap :   0.9405992918E-04
 from k-point    230 to k-point    248
Estimated direct band gap   :   0.1381094870E-02
 at k-point    227
 
Charges :
 core                        :    20.00000000    
 valence                     :    22.00000000    
 interstitial                :    3.800653082    
 muffin-tins (core leakage)
  species :    1 (Sc)
   atom    1                 :    19.09967346     (  0.6550934017E-08)
   atom    2                 :    19.09967346     (  0.6550934017E-08)
 total in muffin-tins        :    38.19934692    
 total calculated charge     :    41.99999745    
 total charge                :    42.00000000    
 error                       :   0.2552848557E-05
 
RMS change in Kohn-Sham potential (target) :   0.3182573519E-03 (   10.00000000    )
Absolute change in total energy (target)   :   0.4921999432E-03 (  0.1000000000E-07)
 
Time (CPU seconds) :       649.26
 
+--------------------+
| Loop number :   10 |
+--------------------+
 
Energies :
 Fermi                       :     0.256676223030    
 sum of eigenvalues          :     -893.719551977    
 electron kinetic            :      1546.22352909    
 core electron kinetic       :      1433.77641586    
 Coulomb                     :     -2996.37412574    
 Coulomb potential           :     -2335.77839873    
 nuclear-nuclear             :     -199.161036415    
 electron-nuclear            :     -3258.64777992    
 Hartree                     :      461.434690595    
 Madelung                    :     -1828.48492637    
 xc potential                :     -104.164682337    
 exchange                    :     -77.2302529209    
 correlation                 :     -1.77775262821    
 total energy                :     -1529.15860220    
 
Density of states at Fermi energy :    135.3453631    
 (states/Hartree/unit cell)
 
Estimated indirect band gap :   0.9395944659E-04
 from k-point    230 to k-point    248
Estimated direct band gap   :   0.1381707005E-02
 at k-point    227
 
Charges :
 core                        :    20.00000000    
 valence                     :    22.00000000    
 interstitial                :    3.800654764    
 muffin-tins (core leakage)
  species :    1 (Sc)
   atom    1                 :    19.09967262     (  0.6552699716E-08)
   atom    2                 :    19.09967262     (  0.6552699716E-08)
 total in muffin-tins        :    38.19934524    
 total calculated charge     :    41.99999745    
 total charge                :    42.00000000    
 error                       :   0.2553294053E-05
 
Wrote STATE.OUT
 
RMS change in Kohn-Sham potential (target) :   0.3950171735E-04 (   10.00000000    )
Absolute change in total energy (target)   :   0.1347337832E-03 (  0.1000000000E-07)
 
Time (CPU seconds) :       724.16
 
+--------------------+
| Loop number :   11 |
+--------------------+
 
Energies :
 Fermi                       :     0.256675537014    
 sum of eigenvalues          :     -893.719591736    
 electron kinetic            :      1546.22351023    
 core electron kinetic       :      1433.77642253    
 Coulomb                     :     -2996.37413572    
 Coulomb potential           :     -2335.77842081    
 nuclear-nuclear             :     -199.161036415    
 electron-nuclear            :     -3258.64777780    
 Hartree                     :      461.434678493    
 Madelung                    :     -1828.48492531    
 xc potential                :     -104.164681155    
 exchange                    :     -77.2302520229    
 correlation                 :     -1.77775267515    
 total energy                :     -1529.15863019    
 
Density of states at Fermi energy :    135.3344461    
 (states/Hartree/unit cell)
 
Estimated indirect band gap :   0.9408982853E-04
 from k-point    230 to k-point    248
Estimated direct band gap   :   0.1381159639E-02
 at k-point    227
 
Charges :
 core                        :    20.00000000    
 valence                     :    22.00000000    
 interstitial                :    3.800657940    
 muffin-tins (core leakage)
  species :    1 (Sc)
   atom    1                 :    19.09967103     (  0.6533216634E-08)
   atom    2                 :    19.09967103     (  0.6533216634E-08)
 total in muffin-tins        :    38.19934206    
 total calculated charge     :    41.99999745    
 total charge                :    42.00000000    
 error                       :   0.2552692862E-05
 
RMS change in Kohn-Sham potential (target) :   0.1337587198E-03 (   10.00000000    )
Absolute change in total energy (target)   :   0.6167035235E-04 (  0.1000000000E-07)
 
Time (CPU seconds) :       796.10
 
+--------------------+
| Loop number :   12 |
+--------------------+
 
Energies :
 Fermi                       :     0.256675256071    
 sum of eigenvalues          :     -893.719617151    
 electron kinetic            :      1546.22349464    
 core electron kinetic       :      1433.77642357    
 Coulomb                     :     -2996.37415311    
 Coulomb potential           :     -2335.77842946    
 nuclear-nuclear             :     -199.161036415    
 electron-nuclear            :     -3258.64780393    
 Hartree                     :      461.434687236    
 Madelung                    :     -1828.48493838    
 xc potential                :     -104.164682335    
 exchange                    :     -77.2302528836    
 correlation                 :     -1.77775270248    
 total energy                :     -1529.15866405    
 
Density of states at Fermi energy :    135.3346504    
 (states/Hartree/unit cell)
 
Estimated indirect band gap :   0.9406886176E-04
 from k-point    230 to k-point    248
Estimated direct band gap   :   0.1381446378E-02
 at k-point    227
 
Charges :
 core                        :    20.00000000    
 valence                     :    22.00000000    
 interstitial                :    3.800658650    
 muffin-tins (core leakage)
  species :    1 (Sc)
   atom    1                 :    19.09967068     (  0.6543206865E-08)
   atom    2                 :    19.09967068     (  0.6543206865E-08)
 total in muffin-tins        :    38.19934135    
 total calculated charge     :    41.99999745    
 total charge                :    42.00000000    
 error                       :   0.2552963878E-05
 
Wrote STATE.OUT
 
RMS change in Kohn-Sham potential (target) :   0.1119080217E-04 (   10.00000000    )
Absolute change in total energy (target)   :   0.4928313820E-04 (  0.1000000000E-07)
 
Time (CPU seconds) :       871.26
 
+--------------------+
| Loop number :   13 |
+--------------------+
 
Energies :
 Fermi                       :     0.256674845501    
 sum of eigenvalues          :     -893.719642077    
 electron kinetic            :      1546.22348216    
 core electron kinetic       :      1433.77641895    
 Coulomb                     :     -2996.37416321    
 Coulomb potential           :     -2335.77844190    
 nuclear-nuclear             :     -199.161036415    
 electron-nuclear            :     -3258.64781170    
 Hartree                     :      461.434684897    
 Madelung                    :     -1828.48494226    
 xc potential                :     -104.164682336    
 exchange                    :     -77.2302528598    
 correlation                 :     -1.77775273622    
 total energy                :     -1529.15868665    
 
Density of states at Fermi energy :    135.3310606    
 (states/Hartree/unit cell)
 
Estimated indirect band gap :   0.9409774184E-04
 from k-point    230 to k-point    248
Estimated direct band gap   :   0.1381495291E-02
 at k-point    227
 
Charges :
 core                        :    20.00000000    
 valence                     :    22.00000000    
 interstitial                :    3.800660330    
 muffin-tins (core leakage)
  species :    1 (Sc)
   atom    1                 :    19.09966984     (  0.6531296393E-08)
   atom    2                 :    19.09966984     (  0.6531296393E-08)
 total in muffin-tins        :    38.19933967    
 total calculated charge     :    41.99999745    
 total charge                :    42.00000000    
 error                       :   0.2552952147E-05
 
RMS change in Kohn-Sham potential (target) :   0.6349049226E-04 (   10.00000000    )
Absolute change in total energy (target)   :   0.3491683924E-04 (  0.1000000000E-07)
 
Time (CPU seconds) :       941.76
 
+--------------------+
| Loop number :   14 |
+--------------------+
 
Energies :
 Fermi                       :     0.256674626097    
 sum of eigenvalues          :     -893.719654866    
 electron kinetic            :      1546.22347288    
 core electron kinetic       :      1433.77641549    
 Coulomb                     :     -2996.37416806    
 Coulomb potential           :     -2335.77844523    
 nuclear-nuclear             :     -199.161036415    
 electron-nuclear            :     -3258.64781805    
 Hartree                     :      461.434686410    
 Madelung                    :     -1828.48494544    
 xc potential                :     -104.164682512    
 exchange                    :     -77.2302529758    
 correlation                 :     -1.77775275361    
 total energy                :     -1529.15870091    
 
Density of states at Fermi energy :    135.3293602    
 (states/Hartree/unit cell)
 
Estimated indirect band gap :   0.9411284344E-04
 from k-point    230 to k-point    248
Estimated direct band gap   :   0.1381456941E-02
 at k-point    227
 
Charges :
 core                        :    20.00000000    
 valence                     :    22.00000000    
 interstitial                :    3.800660802    
 muffin-tins (core leakage)
  species :    1 (Sc)
   atom    1                 :    19.09966960     (  0.6562498100E-08)
   atom    2                 :    19.09966960     (  0.6562498100E-08)
 total in muffin-tins        :    38.19933920    
 total calculated charge     :    41.99999745    
 total charge                :    42.00000000    
 error                       :   0.2553040666E-05
 
Wrote STATE.OUT
 
RMS change in Kohn-Sham potential (target) :   0.2041490264E-04 (   10.00000000    )
Absolute change in total energy (target)   :   0.2298899403E-04 (  0.1000000000E-07)
 
Time (CPU seconds) :      1014.50
 
+--------------------+
| Loop number :   15 |
+--------------------+
 
Energies :
 Fermi                       :     0.256674475197    
 sum of eigenvalues          :     -893.719660827    
 electron kinetic            :      1546.22346673    
 core electron kinetic       :      1433.77641350    
 Coulomb                     :     -2996.37416833    
 Coulomb potential           :     -2335.77844507    
 nuclear-nuclear             :     -199.161036415    
 electron-nuclear            :     -3258.64781876    
 Hartree                     :      461.434686842    
 Madelung                    :     -1828.48494579    
 xc potential                :     -104.164682483    
 exchange                    :     -77.2302529367    
 correlation                 :     -1.77775276556    
 total energy                :     -1529.15870730    
 
Density of states at Fermi energy :    135.3278073    
 (states/Hartree/unit cell)
 
Estimated indirect band gap :   0.9413141909E-04
 from k-point    230 to k-point    248
Estimated direct band gap   :   0.1381360912E-02
 at k-point    227
 
Charges :
 core                        :    20.00000000    
 valence                     :    22.00000000    
 interstitial                :    3.800660938    
 muffin-tins (core leakage)
  species :    1 (Sc)
   atom    1                 :    19.09966953     (  0.6555664456E-08)
   atom    2                 :    19.09966953     (  0.6555664456E-08)
 total in muffin-tins        :    38.19933906    
 total calculated charge     :    41.99999745    
 total charge                :    42.00000000    
 error                       :   0.2553018668E-05
 
RMS change in Kohn-Sham potential (target) :   0.5264498786E-04 (   10.00000000    )
Absolute change in total energy (target)   :   0.1214111649E-04 (  0.1000000000E-07)
 
Time (CPU seconds) :      1084.80
 
+--------------------+
| Loop number :   16 |
+--------------------+
 
Energies :
 Fermi                       :     0.256674427303    
 sum of eigenvalues          :     -893.719662660    
 electron kinetic            :      1546.22346467    
 core electron kinetic       :      1433.77641108    
 Coulomb                     :     -2996.37416823    
 Coulomb potential           :     -2335.77844487    
 nuclear-nuclear             :     -199.161036415    
 electron-nuclear            :     -3258.64781876    
 Hartree                     :      461.434686946    
 Madelung                    :     -1828.48494579    
 xc potential                :     -104.164682465    
 exchange                    :     -77.2302529197    
 correlation                 :     -1.77775276872    
 total energy                :     -1529.15870924    
 
Density of states at Fermi energy :    135.3274529    
 (states/Hartree/unit cell)
 
Estimated indirect band gap :   0.9413571162E-04
 from k-point    230 to k-point    248
Estimated direct band gap   :   0.1381323671E-02
 at k-point    227
 
Charges :
 core                        :    20.00000000    
 valence                     :    22.00000000    
 interstitial                :    3.800660979    
 muffin-tins (core leakage)
  species :    1 (Sc)
   atom    1                 :    19.09966951     (  0.6501794658E-08)
   atom    2                 :    19.09966951     (  0.6501794658E-08)
 total in muffin-tins        :    38.19933902    
 total calculated charge     :    41.99999745    
 total charge                :    42.00000000    
 error                       :   0.2552856401E-05
 
Wrote STATE.OUT
 
RMS change in Kohn-Sham potential (target) :   0.7906209268E-04 (   10.00000000    )
Absolute change in total energy (target)   :   0.4976565833E-05 (  0.1000000000E-07)
 
Time (CPU seconds) :      1158.49
 
+--------------------+
| Loop number :   17 |
+--------------------+
 
Energies :
 Fermi                       :     0.256674462464    
 sum of eigenvalues          :     -893.719660211    
 electron kinetic            :      1546.22346605    
 core electron kinetic       :      1433.77641396    
 Coulomb                     :     -2996.37416735    
 Coulomb potential           :     -2335.77844382    
 nuclear-nuclear             :     -199.161036415    
 electron-nuclear            :     -3258.64781805    
 Hartree                     :      461.434687114    
 Madelung                    :     -1828.48494544    
 xc potential                :     -104.164682434    
 exchange                    :     -77.2302529004    
 correlation                 :     -1.77775276558    
 total energy                :     -1529.15870697    
 
Density of states at Fermi energy :    135.3278112    
 (states/Hartree/unit cell)
 
Estimated indirect band gap :   0.9413261803E-04
 from k-point    230 to k-point    248
Estimated direct band gap   :   0.1381325522E-02
 at k-point    227
 
Charges :
 core                        :    20.00000000    
 valence                     :    22.00000000    
 interstitial                :    3.800660859    
 muffin-tins (core leakage)
  species :    1 (Sc)
   atom    1                 :    19.09966957     (  0.6547121956E-08)
   atom    2                 :    19.09966957     (  0.6547121956E-08)
 total in muffin-tins        :    38.19933914    
 total calculated charge     :    41.99999745    
 total charge                :    42.00000000    
 error                       :   0.2552910445E-05
 
RMS change in Kohn-Sham potential (target) :   0.9706689624E-05 (   10.00000000    )
Absolute change in total energy (target)   :   0.1028034148E-05 (  0.1000000000E-07)
 
Time (CPU seconds) :      1230.59
 
+--------------------+
| Loop number :   18 |
+--------------------+
 
Energies :
 Fermi                       :     0.256674398552    
 sum of eigenvalues          :     -893.719663325    
 electron kinetic            :      1546.22346356    
 core electron kinetic       :      1433.77641387    
 Coulomb                     :     -2996.37416835    
 Coulomb potential           :     -2335.77844441    
 nuclear-nuclear             :     -199.161036415    
 electron-nuclear            :     -3258.64781946    
 Hartree                     :      461.434687526    
 Madelung                    :     -1828.48494615    
 xc potential                :     -104.164682472    
 exchange                    :     -77.2302529240    
 correlation                 :     -1.77775277046    
 total energy                :     -1529.15871049    
 
Density of states at Fermi energy :    135.3275387    
 (states/Hartree/unit cell)
 
Estimated indirect band gap :   0.9413407586E-04
 from k-point    230 to k-point    248
Estimated direct band gap   :   0.1381326869E-02
 at k-point    227
 
Charges :
 core                        :    20.00000000    
 valence                     :    22.00000000    
 interstitial                :    3.800660985    
 muffin-tins (core leakage)
  species :    1 (Sc)
   atom    1                 :    19.09966951     (  0.6548106057E-08)
   atom    2                 :    19.09966951     (  0.6548106057E-08)
 total in muffin-tins        :    38.19933902    
 total calculated charge     :    41.99999745    
 total charge                :    42.00000000    
 error                       :   0.2553021133E-05
 
Wrote STATE.OUT
 
RMS change in Kohn-Sham potential (target) :   0.4496853426E-05 (   10.00000000    )
Absolute change in total energy (target)   :   0.3259592404E-05 (  0.1000000000E-07)
 
Time (CPU seconds) :      1301.57
 
+--------------------+
| Loop number :   19 |
+--------------------+
 
Energies :
 Fermi                       :     0.256674329989    
 sum of eigenvalues          :     -893.719666505    
 electron kinetic            :      1546.22346092    
 core electron kinetic       :      1433.77641228    
 Coulomb                     :     -2996.37416896    
 Coulomb potential           :     -2335.77844492    
 nuclear-nuclear             :     -199.161036415    
 electron-nuclear            :     -3258.64782017    
 Hartree                     :      461.434687624    
 Madelung                    :     -1828.48494650    
 xc potential                :     -104.164682504    
 exchange                    :     -77.2302529408    
 correlation                 :     -1.77775277623    
 total energy                :     -1529.15871376    
 
Density of states at Fermi energy :    135.3272419    
 (states/Hartree/unit cell)
 
Estimated indirect band gap :   0.9413550641E-04
 from k-point    230 to k-point    248
Estimated direct band gap   :   0.1381328205E-02
 at k-point    227
 
Charges :
 core                        :    20.00000000    
 valence                     :    22.00000000    
 interstitial                :    3.800661116    
 muffin-tins (core leakage)
  species :    1 (Sc)
   atom    1                 :    19.09966944     (  0.6581952761E-08)
   atom    2                 :    19.09966944     (  0.6581952761E-08)
 total in muffin-tins        :    38.19933888    
 total calculated charge     :    41.99999745    
 total charge                :    42.00000000    
 error                       :   0.2552948885E-05
 
RMS change in Kohn-Sham potential (target) :   0.2796316873E-04 (   10.00000000    )
Absolute change in total energy (target)   :   0.4084011607E-05 (  0.1000000000E-07)
 
Time (CPU seconds) :      1373.90
 
+--------------------+
| Loop number :   20 |
+--------------------+
 
Energies :
 Fermi                       :     0.256674308828    
 sum of eigenvalues          :     -893.719667328    
 electron kinetic            :      1546.22346019    
 core electron kinetic       :      1433.77641297    
 Coulomb                     :     -2996.37416935    
 Coulomb potential           :     -2335.77844500    
 nuclear-nuclear             :     -199.161036415    
 electron-nuclear            :     -3258.64782088    
 Hartree                     :      461.434687937    
 Madelung                    :     -1828.48494685    
 xc potential                :     -104.164682512    
 exchange                    :     -77.2302529465    
 correlation                 :     -1.77775277769    
 total energy                :     -1529.15871489    
 
Density of states at Fermi energy :    135.3272049    
 (states/Hartree/unit cell)
 
Estimated indirect band gap :   0.9413523394E-04
 from k-point    230 to k-point    248
Estimated direct band gap   :   0.1381330074E-02
 at k-point    227
 
Charges :
 core                        :    20.00000000    
 valence                     :    22.00000000    
 interstitial                :    3.800661152    
 muffin-tins (core leakage)
  species :    1 (Sc)
   atom    1                 :    19.09966942     (  0.6560593846E-08)
   atom    2                 :    19.09966942     (  0.6560593846E-08)
 total in muffin-tins        :    38.19933885    
 total calculated charge     :    41.99999745    
 total charge                :    42.00000000    
 error                       :   0.2552918474E-05
 
Wrote STATE.OUT
 
RMS change in Kohn-Sham potential (target) :   0.8792072742E-04 (   10.00000000    )
Absolute change in total energy (target)   :   0.2155634775E-05 (  0.1000000000E-07)
 
Time (CPU seconds) :      1447.93
 
+--------------------+
| Loop number :   21 |
+--------------------+
 
Energies :
 Fermi                       :     0.256674249874    
 sum of eigenvalues          :     -893.719669781    
 electron kinetic            :      1546.22345798    
 core electron kinetic       :      1433.77641303    
 Coulomb                     :     -2996.37416982    
 Coulomb potential           :     -2335.77844523    
 nuclear-nuclear             :     -199.161036415    
 electron-nuclear            :     -3258.64782158    
 Hartree                     :      461.434688178    
 Madelung                    :     -1828.48494721    
 xc potential                :     -104.164682533    
 exchange                    :     -77.2302529557    
 correlation                 :     -1.77775278255    
 total energy                :     -1529.15871758    
 
Density of states at Fermi energy :    135.3269740    
 (states/Hartree/unit cell)
 
Estimated indirect band gap :   0.9413637600E-04
 from k-point    230 to k-point    248
Estimated direct band gap   :   0.1381329441E-02
 at k-point    227
 
Charges :
 core                        :    20.00000000    
 valence                     :    22.00000000    
 interstitial                :    3.800661249    
 muffin-tins (core leakage)
  species :    1 (Sc)
   atom    1                 :    19.09966938     (  0.6538057207E-08)
   atom    2                 :    19.09966938     (  0.6538057207E-08)
 total in muffin-tins        :    38.19933875    
 total calculated charge     :    41.99999745    
 total charge                :    42.00000000    
 error                       :   0.2552922822E-05
 
RMS change in Kohn-Sham potential (target) :   0.1972243545E-03 (   10.00000000    )
Absolute change in total energy (target)   :   0.3226211447E-05 (  0.1000000000E-07)
 
Time (CPU seconds) :      1519.92
 
+--------------------+
| Loop number :   22 |
+--------------------+
 
Energies :
 Fermi                       :     0.256674175342    
 sum of eigenvalues          :     -893.719672978    
 electron kinetic            :      1546.22345520    
 core electron kinetic       :      1433.77640872    
 Coulomb                     :     -2996.37417072    
 Coulomb potential           :     -2335.77844561    
 nuclear-nuclear             :     -199.161036415    
 electron-nuclear            :     -3258.64782299    
 Hartree                     :      461.434688693    
 Madelung                    :     -1828.48494791    
 xc potential                :     -104.164682566    
 exchange                    :     -77.2302529743    
 correlation                 :     -1.77775278827    
 total energy                :     -1529.15872128    
 
Density of states at Fermi energy :    135.3267331    
 (states/Hartree/unit cell)
 
Estimated indirect band gap :   0.9413700574E-04
 from k-point    230 to k-point    248
Estimated direct band gap   :   0.1381331990E-02
 at k-point    227
 
Charges :
 core                        :    20.00000000    
 valence                     :    22.00000000    
 interstitial                :    3.800661379    
 muffin-tins (core leakage)
  species :    1 (Sc)
   atom    1                 :    19.09966931     (  0.6549329967E-08)
   atom    2                 :    19.09966931     (  0.6549329967E-08)
 total in muffin-tins        :    38.19933862    
 total calculated charge     :    41.99999745    
 total charge                :    42.00000000    
 error                       :   0.2552993436E-05
 
Wrote STATE.OUT
 
RMS change in Kohn-Sham potential (target) :   0.3178825340E-04 (   10.00000000    )
Absolute change in total energy (target)   :   0.4509500513E-05 (  0.1000000000E-07)
 
Time (CPU seconds) :      1589.51
 
+--------------------+
| Loop number :   23 |
+--------------------+
 
Energies :
 Fermi                       :     0.256674267503    
 sum of eigenvalues          :     -893.719668642    
 electron kinetic            :      1546.22345885    
 core electron kinetic       :      1433.77641019    
 Coulomb                     :     -2996.37416970    
 Coulomb potential           :     -2335.77844498    
 nuclear-nuclear             :     -199.161036415    
 electron-nuclear            :     -3258.64782158    
 Hartree                     :      461.434688302    
 Madelung                    :     -1828.48494721    
 xc potential                :     -104.164682515    
 exchange                    :     -77.2302529440    
 correlation                 :     -1.77775278113    
 total energy                :     -1529.15871657    
 
Density of states at Fermi energy :    135.3270580    
 (states/Hartree/unit cell)
 
Estimated indirect band gap :   0.9413580123E-04
 from k-point    230 to k-point    248
Estimated direct band gap   :   0.1381328969E-02
 at k-point    227
 
Charges :
 core                        :    20.00000000    
 valence                     :    22.00000000    
 interstitial                :    3.800661207    
 muffin-tins (core leakage)
  species :    1 (Sc)
   atom    1                 :    19.09966940     (  0.6471907454E-08)
   atom    2                 :    19.09966940     (  0.6471907454E-08)
 total in muffin-tins        :    38.19933879    
 total calculated charge     :    41.99999745    
 total charge                :    42.00000000    
 error                       :   0.2552681281E-05
 
RMS change in Kohn-Sham potential (target) :   0.2356787349E-04 (   10.00000000    )
Absolute change in total energy (target)   :   0.3586233333E-05 (  0.1000000000E-07)
 
Time (CPU seconds) :      1662.21
 
+--------------------+
| Loop number :   24 |
+--------------------+
 
Energies :
 Fermi                       :     0.256674322162    
 sum of eigenvalues          :     -893.719666294    
 electron kinetic            :      1546.22346095    
 core electron kinetic       :      1433.77641145    
 Coulomb                     :     -2996.37416888    
 Coulomb potential           :     -2335.77844476    
 nuclear-nuclear             :     -199.161036415    
 electron-nuclear            :     -3258.64782017    
 Hartree                     :      461.434687706    
 Madelung                    :     -1828.48494650    
 xc potential                :     -104.164682488    
 exchange                    :     -77.2302529285    
 correlation                 :     -1.77775277683    
 total energy                :     -1529.15871363    
 
Density of states at Fermi energy :    135.3271977    
 (states/Hartree/unit cell)
 
Estimated indirect band gap :   0.9413582466E-04
 from k-point    230 to k-point    248
Estimated direct band gap   :   0.1381326855E-02
 at k-point    227
 
Charges :
 core                        :    20.00000000    
 valence                     :    22.00000000    
 interstitial                :    3.800661113    
 muffin-tins (core leakage)
  species :    1 (Sc)
   atom    1                 :    19.09966944     (  0.6537341335E-08)
   atom    2                 :    19.09966944     (  0.6537341335E-08)
 total in muffin-tins        :    38.19933889    
 total calculated charge     :    41.99999745    
 total charge                :    42.00000000    
 error                       :   0.2552883878E-05
 
Wrote STATE.OUT
 
RMS change in Kohn-Sham potential (target) :   0.6469784292E-05 (   10.00000000    )
Absolute change in total energy (target)   :   0.3832844868E-05 (  0.1000000000E-07)
 
Time (CPU seconds) :      1733.25
 
+--------------------+
| Loop number :   25 |
+--------------------+
 
Energies :
 Fermi                       :     0.256674336421    
 sum of eigenvalues          :     -893.719665776    
 electron kinetic            :      1546.22346144    
 core electron kinetic       :      1433.77641121    
 Coulomb                     :     -2996.37416887    
 Coulomb potential           :     -2335.77844474    
 nuclear-nuclear             :     -199.161036415    
 electron-nuclear            :     -3258.64782017    
 Hartree                     :      461.434687717    
 Madelung                    :     -1828.48494650    
 xc potential                :     -104.164682485    
 exchange                    :     -77.2302529258    
 correlation                 :     -1.77775277603    
 total energy                :     -1529.15871312    
 
Density of states at Fermi energy :    135.3272128    
 (states/Hartree/unit cell)
 
Estimated indirect band gap :   0.9413610992E-04
 from k-point    230 to k-point    248
Estimated direct band gap   :   0.1381326307E-02
 at k-point    227
 
Charges :
 core                        :    20.00000000    
 valence                     :    22.00000000    
 interstitial                :    3.800661090    
 muffin-tins (core leakage)
  species :    1 (Sc)
   atom    1                 :    19.09966945     (  0.6520748386E-08)
   atom    2                 :    19.09966945     (  0.6520748386E-08)
 total in muffin-tins        :    38.19933891    
 total calculated charge     :    41.99999745    
 total charge                :    42.00000000    
 error                       :   0.2552872978E-05
 
RMS change in Kohn-Sham potential (target) :   0.1154175445E-03 (   10.00000000    )
Absolute change in total energy (target)   :   0.1465508376E-05 (  0.1000000000E-07)
 
Time (CPU seconds) :      1805.28
 
+--------------------+
| Loop number :   26 |
+--------------------+
 
Energies :
 Fermi                       :     0.256674370612    
 sum of eigenvalues          :     -893.719664483    
 electron kinetic            :      1546.22346266    
 core electron kinetic       :      1433.77641368    
 Coulomb                     :     -2996.37416848    
 Coulomb potential           :     -2335.77844467    
 nuclear-nuclear             :     -199.161036415    
 electron-nuclear            :     -3258.64781946    
 Hartree                     :      461.434687395    
 Madelung                    :     -1828.48494615    
 xc potential                :     -104.164682475    
 exchange                    :     -77.2302529210    
 correlation                 :     -1.77775277343    
 total energy                :     -1529.15871151    
 
Density of states at Fermi energy :    135.3272847    
 (states/Hartree/unit cell)
 
Estimated indirect band gap :   0.9413637802E-04
 from k-point    230 to k-point    248
Estimated direct band gap   :   0.1381325330E-02
 at k-point    227
 
Charges :
 core                        :    20.00000000    
 valence                     :    22.00000000    
 interstitial                :    3.800661035    
 muffin-tins (core leakage)
  species :    1 (Sc)
   atom    1                 :    19.09966948     (  0.6535039176E-08)
   atom    2                 :    19.09966948     (  0.6535039176E-08)
 total in muffin-tins        :    38.19933897    
 total calculated charge     :    41.99999745    
 total charge                :    42.00000000    
 error                       :   0.2552911305E-05
 
Wrote STATE.OUT
 
RMS change in Kohn-Sham potential (target) :   0.8062199472E-05 (   10.00000000    )
Absolute change in total energy (target)   :   0.1978393584E-05 (  0.1000000000E-07)
 
Time (CPU seconds) :      1876.49
 
+--------------------+
| Loop number :   27 |
+--------------------+
 
Energies :
 Fermi                       :     0.256674296344    
 sum of eigenvalues          :     -893.719667706    
 electron kinetic            :      1546.22345982    
 core electron kinetic       :      1433.77641162    
 Coulomb                     :     -2996.37416936    
 Coulomb potential           :     -2335.77844502    
 nuclear-nuclear             :     -199.161036415    
 electron-nuclear            :     -3258.64782088    
 Hartree                     :      461.434687929    
 Madelung                    :     -1828.48494685    
 xc potential                :     -104.164682506    
 exchange                    :     -77.2302529388    
 correlation                 :     -1.77775277917    
 total energy                :     -1529.15871526    
 
Density of states at Fermi energy :    135.3270617    
 (states/Hartree/unit cell)
 
Estimated indirect band gap :   0.9413673139E-04
 from k-point    230 to k-point    248
Estimated direct band gap   :   0.1381327878E-02
 at k-point    227
 
Charges :
 core                        :    20.00000000    
 valence                     :    22.00000000    
 interstitial                :    3.800661164    
 muffin-tins (core leakage)
  species :    1 (Sc)
   atom    1                 :    19.09966942     (  0.6575248790E-08)
   atom    2                 :    19.09966942     (  0.6575248790E-08)
 total in muffin-tins        :    38.19933884    
 total calculated charge     :    41.99999745    
 total charge                :    42.00000000    
 error                       :   0.2553067894E-05
 
RMS change in Kohn-Sham potential (target) :   0.2259441689E-04 (   10.00000000    )
Absolute change in total energy (target)   :   0.3253583372E-05 (  0.1000000000E-07)
 
Time (CPU seconds) :      1947.37
 
+--------------------+
| Loop number :   28 |
+--------------------+
 
Energies :
 Fermi                       :     0.256674294507    
 sum of eigenvalues          :     -893.719667729    
 electron kinetic            :      1546.22345983    
 core electron kinetic       :      1433.77641197    
 Coulomb                     :     -2996.37416938    
 Coulomb potential           :     -2335.77844505    
 nuclear-nuclear             :     -199.161036415    
 electron-nuclear            :     -3258.64782088    
 Hartree                     :      461.434687914    
 Madelung                    :     -1828.48494685    
 xc potential                :     -104.164682507    
 exchange                    :     -77.2302529397    
 correlation                 :     -1.77775277906    
 total energy                :     -1529.15871527    
 
Density of states at Fermi energy :    135.3270587    
 (states/Hartree/unit cell)
 
Estimated indirect band gap :   0.9413666420E-04
 from k-point    230 to k-point    248
Estimated direct band gap   :   0.1381327912E-02
 at k-point    227
 
Charges :
 core                        :    20.00000000    
 valence                     :    22.00000000    
 interstitial                :    3.800661165    
 muffin-tins (core leakage)
  species :    1 (Sc)
   atom    1                 :    19.09966942     (  0.6874417480E-08)
   atom    2                 :    19.09966942     (  0.6874417480E-08)
 total in muffin-tins        :    38.19933884    
 total calculated charge     :    41.99999745    
 total charge                :    42.00000000    
 error                       :   0.2553610145E-05
 
Wrote STATE.OUT
 
RMS change in Kohn-Sham potential (target) :   0.5200705513E-05 (   10.00000000    )
Absolute change in total energy (target)   :   0.8220049494E-06 (  0.1000000000E-07)
 
Time (CPU seconds) :      2018.85
 
+--------------------+
| Loop number :   29 |
+--------------------+
 
Energies :
 Fermi                       :     0.256674276542    
 sum of eigenvalues          :     -893.719668434    
 electron kinetic            :      1546.22345917    
 core electron kinetic       :      1433.77641144    
 Coulomb                     :     -2996.37416939    
 Coulomb potential           :     -2335.77844508    
 nuclear-nuclear             :     -199.161036415    
 electron-nuclear            :     -3258.64782088    
 Hartree                     :      461.434687896    
 Madelung                    :     -1828.48494685    
 xc potential                :     -104.164682515    
 exchange                    :     -77.2302529433    
 correlation                 :     -1.77775278063    
 total energy                :     -1529.15871595    
 
Density of states at Fermi energy :    135.3270139    
 (states/Hartree/unit cell)
 
Estimated indirect band gap :   0.9413659184E-04
 from k-point    230 to k-point    248
Estimated direct band gap   :   0.1381328544E-02
 at k-point    227
 
Charges :
 core                        :    20.00000000    
 valence                     :    22.00000000    
 interstitial                :    3.800661194    
 muffin-tins (core leakage)
  species :    1 (Sc)
   atom    1                 :    19.09966940     (  0.6477762327E-08)
   atom    2                 :    19.09966940     (  0.6477762327E-08)
 total in muffin-tins        :    38.19933881    
 total calculated charge     :    41.99999745    
 total charge                :    42.00000000    
 error                       :   0.2552869113E-05
 
RMS change in Kohn-Sham potential (target) :   0.6464624331E-05 (   10.00000000    )
Absolute change in total energy (target)   :   0.8895431165E-06 (  0.1000000000E-07)
 
Time (CPU seconds) :      2094.88
 
+--------------------+
| Loop number :   30 |
+--------------------+
 
Energies :
 Fermi                       :     0.256674277592    
 sum of eigenvalues          :     -893.719668333    
 electron kinetic            :      1546.22345920    
 core electron kinetic       :      1433.77641146    
 Coulomb                     :     -2996.37416936    
 Coulomb potential           :     -2335.77844502    
 nuclear-nuclear             :     -199.161036415    
 electron-nuclear            :     -3258.64782088    
 Hartree                     :      461.434687927    
 Madelung                    :     -1828.48494685    
 xc potential                :     -104.164682509    
 exchange                    :     -77.2302529382    
 correlation                 :     -1.77775278082    
 total energy                :     -1529.15871588    
 
Density of states at Fermi energy :    135.3270211    
 (states/Hartree/unit cell)
 
Estimated indirect band gap :   0.9413650936E-04
 from k-point    230 to k-point    248
Estimated direct band gap   :   0.1381328487E-02
 at k-point    227
 
Charges :
 core                        :    20.00000000    
 valence                     :    22.00000000    
 interstitial                :    3.800661191    
 muffin-tins (core leakage)
  species :    1 (Sc)
   atom    1                 :    19.09966940     (  0.6842798328E-08)
   atom    2                 :    19.09966940     (  0.6842798328E-08)
 total in muffin-tins        :    38.19933881    
 total calculated charge     :    41.99999745    
 total charge                :    42.00000000    
 error                       :   0.2553506526E-05
 
Wrote STATE.OUT
 
RMS change in Kohn-Sham potential (target) :   0.9494938348E-04 (   10.00000000    )
Absolute change in total energy (target)   :   0.1533032901E-06 (  0.1000000000E-07)
 
Time (CPU seconds) :      2167.67
 
+--------------------+
| Loop number :   31 |
+--------------------+
 
Energies :
 Fermi                       :     0.256674277697    
 sum of eigenvalues          :     -893.719668359    
 electron kinetic            :      1546.22345920    
 core electron kinetic       :      1433.77641198    
 Coulomb                     :     -2996.37416938    
 Coulomb potential           :     -2335.77844505    
 nuclear-nuclear             :     -199.161036415    
 electron-nuclear            :     -3258.64782088    
 Hartree                     :      461.434687913    
 Madelung                    :     -1828.48494685    
 xc potential                :     -104.164682511    
 exchange                    :     -77.2302529405    
 correlation                 :     -1.77775278058    
 total energy                :     -1529.15871590    
 
Density of states at Fermi energy :    135.3270226    
 (states/Hartree/unit cell)
 
Estimated indirect band gap :   0.9413651885E-04
 from k-point    230 to k-point    248
Estimated direct band gap   :   0.1381328450E-02
 at k-point    227
 
Charges :
 core                        :    20.00000000    
 valence                     :    22.00000000    
 interstitial                :    3.800661192    
 muffin-tins (core leakage)
  species :    1 (Sc)
   atom    1                 :    19.09966940     (  0.6893330351E-08)
   atom    2                 :    19.09966940     (  0.6893330351E-08)
 total in muffin-tins        :    38.19933881    
 total calculated charge     :    41.99999745    
 total charge                :    42.00000000    
 error                       :   0.2553551568E-05
 
RMS change in Kohn-Sham potential (target) :   0.1349660777E-03 (   10.00000000    )
Absolute change in total energy (target)   :   0.5097354006E-07 (  0.1000000000E-07)
 
Time (CPU seconds) :      2238.38
 
+--------------------+
| Loop number :   32 |
+--------------------+
 
Energies :
 Fermi                       :     0.256674253814    
 sum of eigenvalues          :     -893.719669380    
 electron kinetic            :      1546.22345829    
 core electron kinetic       :      1433.77641113    
 Coulomb                     :     -2996.37416978    
 Coulomb potential           :     -2335.77844515    
 nuclear-nuclear             :     -199.161036415    
 electron-nuclear            :     -3258.64782158    
 Hartree                     :      461.434688216    
 Madelung                    :     -1828.48494721    
 xc potential                :     -104.164682521    
 exchange                    :     -77.2302529474    
 correlation                 :     -1.77775278234    
 total energy                :     -1529.15871722    
 
Density of states at Fermi energy :    135.3269557    
 (states/Hartree/unit cell)
 
Estimated indirect band gap :   0.9413655413E-04
 from k-point    230 to k-point    248
Estimated direct band gap   :   0.1381329352E-02
 at k-point    227
 
Charges :
 core                        :    20.00000000    
 valence                     :    22.00000000    
 interstitial                :    3.800661232    
 muffin-tins (core leakage)
  species :    1 (Sc)
   atom    1                 :    19.09966938     (  0.6560883392E-08)
   atom    2                 :    19.09966938     (  0.6560883392E-08)
 total in muffin-tins        :    38.19933877    
 total calculated charge     :    41.99999745    
 total charge                :    42.00000000    
 error                       :   0.2552921920E-05
 
Wrote STATE.OUT
 
RMS change in Kohn-Sham potential (target) :   0.6215919328E-05 (   10.00000000    )
Absolute change in total energy (target)   :   0.1334161652E-05 (  0.1000000000E-07)
 
Time (CPU seconds) :      2308.78
 
+--------------------+
| Loop number :   33 |
+--------------------+
 
Energies :
 Fermi                       :     0.256674258297    
 sum of eigenvalues          :     -893.719669069    
 electron kinetic            :      1546.22345851    
 core electron kinetic       :      1433.77641123    
 Coulomb                     :     -2996.37416939    
 Coulomb potential           :     -2335.77844507    
 nuclear-nuclear             :     -199.161036415    
 electron-nuclear            :     -3258.64782088    
 Hartree                     :      461.434687905    
 Madelung                    :     -1828.48494685    
 xc potential                :     -104.164682517    
 exchange                    :     -77.2302529424    
 correlation                 :     -1.77775278226    
 total energy                :     -1529.15871660    
 
Density of states at Fermi energy :    135.3269775    
 (states/Hartree/unit cell)
 
Estimated indirect band gap :   0.9413635822E-04
 from k-point    230 to k-point    248
Estimated direct band gap   :   0.1381329160E-02
 at k-point    227
 
Charges :
 core                        :    20.00000000    
 valence                     :    22.00000000    
 interstitial                :    3.800661222    
 muffin-tins (core leakage)
  species :    1 (Sc)
   atom    1                 :    19.09966939     (  0.6510676442E-08)
   atom    2                 :    19.09966939     (  0.6510676442E-08)
 total in muffin-tins        :    38.19933878    
 total calculated charge     :    41.99999745    
 total charge                :    42.00000000    
 error                       :   0.2552749940E-05
 
RMS change in Kohn-Sham potential (target) :   0.5327444329E-04 (   10.00000000    )
Absolute change in total energy (target)   :   0.2891083568E-06 (  0.1000000000E-07)
 
Time (CPU seconds) :      2380.79
 
+--------------------+
| Loop number :   34 |
+--------------------+
 
Energies :
 Fermi                       :     0.256674260710    
 sum of eigenvalues          :     -893.719668950    
 electron kinetic            :      1546.22345865    
 core electron kinetic       :      1433.77641166    
 Coulomb                     :     -2996.37416975    
 Coulomb potential           :     -2335.77844508    
 nuclear-nuclear             :     -199.161036415    
 electron-nuclear            :     -3258.64782158    
 Hartree                     :      461.434688251    
 Madelung                    :     -1828.48494721    
 xc potential                :     -104.164682516    
 exchange                    :     -77.2302529429    
 correlation                 :     -1.77775278191    
 total energy                :     -1529.15871682    
 
Density of states at Fermi energy :    135.3269848    
 (states/Hartree/unit cell)
 
Estimated indirect band gap :   0.9413633927E-04
 from k-point    230 to k-point    248
Estimated direct band gap   :   0.1381329060E-02
 at k-point    227
 
Charges :
 core                        :    20.00000000    
 valence                     :    22.00000000    
 interstitial                :    3.800661218    
 muffin-tins (core leakage)
  species :    1 (Sc)
   atom    1                 :    19.09966939     (  0.6493463545E-08)
   atom    2                 :    19.09966939     (  0.6493463545E-08)
 total in muffin-tins        :    38.19933878    
 total calculated charge     :    41.99999745    
 total charge                :    42.00000000    
 error                       :   0.2552841501E-05
 
Wrote STATE.OUT
 
RMS change in Kohn-Sham potential (target) :   0.4635853253E-03 (   10.00000000    )
Absolute change in total energy (target)   :   0.1568398602E-06 (  0.1000000000E-07)
 
Time (CPU seconds) :      2453.42
 
+--------------------+
| Loop number :   35 |
+--------------------+
 
Energies :
 Fermi                       :     0.256674247920    
 sum of eigenvalues          :     -893.719669550    
 electron kinetic            :      1546.22345813    
 core electron kinetic       :      1433.77641102    
 Coulomb                     :     -2996.37416979    
 Coulomb potential           :     -2335.77844516    
 nuclear-nuclear             :     -199.161036415    
 electron-nuclear            :     -3258.64782158    
 Hartree                     :      461.434688211    
 Madelung                    :     -1828.48494721    
 xc potential                :     -104.164682523    
 exchange                    :     -77.2302529474    
 correlation                 :     -1.77775278270    
 total energy                :     -1529.15871738    
 
Density of states at Fermi energy :    135.3269451    
 (states/Hartree/unit cell)
 
Estimated indirect band gap :   0.9413643631E-04
 from k-point    230 to k-point    248
Estimated direct band gap   :   0.1381329627E-02
 at k-point    227
 
Charges :
 core                        :    20.00000000    
 valence                     :    22.00000000    
 interstitial                :    3.800661241    
 muffin-tins (core leakage)
  species :    1 (Sc)
   atom    1                 :    19.09966938     (  0.6514664364E-08)
   atom    2                 :    19.09966938     (  0.6514664364E-08)
 total in muffin-tins        :    38.19933876    
 total calculated charge     :    41.99999745    
 total charge                :    42.00000000    
 error                       :   0.2552761281E-05
 
RMS change in Kohn-Sham potential (target) :   0.8361454925E-05 (   10.00000000    )
Absolute change in total energy (target)   :   0.5977881301E-06 (  0.1000000000E-07)
 
Time (CPU seconds) :      2527.34
 
+--------------------+
| Loop number :   36 |
+--------------------+
 
Energies :
 Fermi                       :     0.256674256380    
 sum of eigenvalues          :     -893.719669106    
 electron kinetic            :      1546.22345848    
 core electron kinetic       :      1433.77641121    
 Coulomb                     :     -2996.37416939    
 Coulomb potential           :     -2335.77844507    
 nuclear-nuclear             :     -199.161036415    
 electron-nuclear            :     -3258.64782088    
 Hartree                     :      461.434687905    
 Madelung                    :     -1828.48494685    
 xc potential                :     -104.164682517    
 exchange                    :     -77.2302529424    
 correlation                 :     -1.77775278241    
 total energy                :     -1529.15871663    
 
Density of states at Fermi energy :    135.3269750    
 (states/Hartree/unit cell)
 
Estimated indirect band gap :   0.9413629748E-04
 from k-point    230 to k-point    248
Estimated direct band gap   :   0.1381329245E-02
 at k-point    227
 
Charges :
 core                        :    20.00000000    
 valence                     :    22.00000000    
 interstitial                :    3.800661225    
 muffin-tins (core leakage)
  species :    1 (Sc)
   atom    1                 :    19.09966939     (  0.6456934543E-08)
   atom    2                 :    19.09966939     (  0.6456934543E-08)
 total in muffin-tins        :    38.19933878    
 total calculated charge     :    41.99999745    
 total charge                :    42.00000000    
 error                       :   0.2552671006E-05
 
Wrote STATE.OUT
 
RMS change in Kohn-Sham potential (target) :   0.4713298544E-04 (   10.00000000    )
Absolute change in total energy (target)   :   0.6002212558E-06 (  0.1000000000E-07)
 
Time (CPU seconds) :      2598.40
 
+--------------------+
| Loop number :   37 |
+--------------------+
 
Energies :
 Fermi                       :     0.256674258842    
 sum of eigenvalues          :     -893.719668987    
 electron kinetic            :      1546.22345861    
 core electron kinetic       :      1433.77641121    
 Coulomb                     :     -2996.37416939    
 Coulomb potential           :     -2335.77844508    
 nuclear-nuclear             :     -199.161036415    
 electron-nuclear            :     -3258.64782088    
 Hartree                     :      461.434687899    
 Madelung                    :     -1828.48494685    
 xc potential                :     -104.164682516    
 exchange                    :     -77.2302529424    
 correlation                 :     -1.77775278204    
 total energy                :     -1529.15871651    
 
Density of states at Fermi energy :    135.3269823    
 (states/Hartree/unit cell)
 
Estimated indirect band gap :   0.9413628264E-04
 from k-point    230 to k-point    248
Estimated direct band gap   :   0.1381329126E-02
 at k-point    227
 
Charges :
 core                        :    20.00000000    
 valence                     :    22.00000000    
 interstitial                :    3.800661220    
 muffin-tins (core leakage)
  species :    1 (Sc)
   atom    1                 :    19.09966939     (  0.6484626169E-08)
   atom    2                 :    19.09966939     (  0.6484626169E-08)
 total in muffin-tins        :    38.19933878    
 total calculated charge     :    41.99999745    
 total charge                :    42.00000000    
 error                       :   0.2552752534E-05
 
RMS change in Kohn-Sham potential (target) :   0.6706547092E-04 (   10.00000000    )
Absolute change in total energy (target)   :   0.2741380740E-06 (  0.1000000000E-07)
 
Time (CPU seconds) :      2672.04
 
+--------------------+
| Loop number :   38 |
+--------------------+
 
Energies :
 Fermi                       :     0.256674263303    
 sum of eigenvalues          :     -893.719668784    
 electron kinetic            :      1546.22345878    
 core electron kinetic       :      1433.77641132    
 Coulomb                     :     -2996.37416938    
 Coulomb potential           :     -2335.77844506    
 nuclear-nuclear             :     -199.161036415    
 electron-nuclear            :     -3258.64782088    
 Hartree                     :      461.434687910    
 Madelung                    :     -1828.48494685    
 xc potential                :     -104.164682512    
 exchange                    :     -77.2302529405    
 correlation                 :     -1.77775278169    
 total energy                :     -1529.15871632    
 
Density of states at Fermi energy :    135.3269944    
 (states/Hartree/unit cell)
 
Estimated indirect band gap :   0.9413627284E-04
 from k-point    230 to k-point    248
Estimated direct band gap   :   0.1381328932E-02
 at k-point    227
 
Charges :
 core                        :    20.00000000    
 valence                     :    22.00000000    
 interstitial                :    3.800661212    
 muffin-tins (core leakage)
  species :    1 (Sc)
   atom    1                 :    19.09966939     (  0.6508527051E-08)
   atom    2                 :    19.09966939     (  0.6508527051E-08)
 total in muffin-tins        :    38.19933879    
 total calculated charge     :    41.99999745    
 total charge                :    42.00000000    
 error                       :   0.2552942959E-05
 
Wrote STATE.OUT
 
RMS change in Kohn-Sham potential (target) :   0.4173429839E-04 (   10.00000000    )
Absolute change in total energy (target)   :   0.2588585630E-06 (  0.1000000000E-07)
 
Time (CPU seconds) :      2743.98
 
+--------------------+
| Loop number :   39 |
+--------------------+
 
Energies :
 Fermi                       :     0.256674264727    
 sum of eigenvalues          :     -893.719668737    
 electron kinetic            :      1546.22345877    
 core electron kinetic       :      1433.77641126    
 Coulomb                     :     -2996.37416900    
 Coulomb potential           :     -2335.77844500    
 nuclear-nuclear             :     -199.161036415    
 electron-nuclear            :     -3258.64782017    
 Hartree                     :      461.434687583    
 Madelung                    :     -1828.48494650    
 xc potential                :     -104.164682509    
 exchange                    :     -77.2302529374    
 correlation                 :     -1.77775278185    
 total energy                :     -1529.15871595    
 
Density of states at Fermi energy :    135.3269970    
 (states/Hartree/unit cell)
 
Estimated indirect band gap :   0.9413629286E-04
 from k-point    230 to k-point    248
Estimated direct band gap   :   0.1381328881E-02
 at k-point    227
 
Charges :
 core                        :    20.00000000    
 valence                     :    22.00000000    
 interstitial                :    3.800661210    
 muffin-tins (core leakage)
  species :    1 (Sc)
   atom    1                 :    19.09966939     (  0.6584741641E-08)
   atom    2                 :    19.09966939     (  0.6584741641E-08)
 total in muffin-tins        :    38.19933879    
 total calculated charge     :    41.99999745    
 total charge                :    42.00000000    
 error                       :   0.2553077678E-05
 
RMS change in Kohn-Sham potential (target) :   0.1526985278E-04 (   10.00000000    )
Absolute change in total energy (target)   :   0.4386643013E-06 (  0.1000000000E-07)
 
Time (CPU seconds) :      2815.25
 
+--------------------+
| Loop number :   40 |
+--------------------+
 
Energies :
 Fermi                       :     0.256674265421    
 sum of eigenvalues          :     -893.719668710    
 electron kinetic            :      1546.22345883    
 core electron kinetic       :      1433.77641127    
 Coulomb                     :     -2996.37416901    
 Coulomb potential           :     -2335.77844503    
 nuclear-nuclear             :     -199.161036415    
 electron-nuclear            :     -3258.64782017    
 Hartree                     :      461.434687570    
 Madelung                    :     -1828.48494650    
 xc potential                :     -104.164682510    
 exchange                    :     -77.2302529392    
 correlation                 :     -1.77775278166    
 total energy                :     -1529.15871591    
 
Density of states at Fermi energy :    135.3269987    
 (states/Hartree/unit cell)
 
Estimated indirect band gap :   0.9413629489E-04
 from k-point    230 to k-point    248
Estimated direct band gap   :   0.1381328853E-02
 at k-point    227
 
Charges :
 core                        :    20.00000000    
 valence                     :    22.00000000    
 interstitial                :    3.800661209    
 muffin-tins (core leakage)
  species :    1 (Sc)
   atom    1                 :    19.09966940     (  0.6534445873E-08)
   atom    2                 :    19.09966940     (  0.6534445873E-08)
 total in muffin-tins        :    38.19933879    
 total calculated charge     :    41.99999745    
 total charge                :    42.00000000    
 error                       :   0.2552817215E-05
 
Wrote STATE.OUT
 
RMS change in Kohn-Sham potential (target) :   0.4887532838E-04 (   10.00000000    )
Absolute change in total energy (target)   :   0.1500561666E-06 (  0.1000000000E-07)
 
Time (CPU seconds) :      2887.51
 
+--------------------+
| Loop number :   41 |
+--------------------+
 
Energies :
 Fermi                       :     0.256674267521    
 sum of eigenvalues          :     -893.719668617    
 electron kinetic            :      1546.22345892    
 core electron kinetic       :      1433.77641136    
 Coulomb                     :     -2996.37416901    
 Coulomb potential           :     -2335.77844503    
 nuclear-nuclear             :     -199.161036415    
 electron-nuclear            :     -3258.64782017    
 Hartree                     :      461.434687571    
 Madelung                    :     -1828.48494650    
 xc potential                :     -104.164682510    
 exchange                    :     -77.2302529389    
 correlation                 :     -1.77775278145    
 total energy                :     -1529.15871581    
 
Density of states at Fermi energy :    135.3270039    
 (states/Hartree/unit cell)
 
Estimated indirect band gap :   0.9413629700E-04
 from k-point    230 to k-point    248
Estimated direct band gap   :   0.1381328768E-02
 at k-point    227
 
Charges :
 core                        :    20.00000000    
 valence                     :    22.00000000    
 interstitial                :    3.800661205    
 muffin-tins (core leakage)
  species :    1 (Sc)
   atom    1                 :    19.09966940     (  0.6536984287E-08)
   atom    2                 :    19.09966940     (  0.6536984287E-08)
 total in muffin-tins        :    38.19933879    
 total calculated charge     :    41.99999745    
 total charge                :    42.00000000    
 error                       :   0.2552935214E-05
 
RMS change in Kohn-Sham potential (target) :   0.9501213116E-04 (   10.00000000    )
Absolute change in total energy (target)   :   0.1301079919E-06 (  0.1000000000E-07)
 
Time (CPU seconds) :      2956.66
 
+--------------------+
| Loop number :   42 |
+--------------------+
 
Energies :
 Fermi                       :     0.256674267003    
 sum of eigenvalues          :     -893.719668650    
 electron kinetic            :      1546.22345889    
 core electron kinetic       :      1433.77641133    
 Coulomb                     :     -2996.37416901    
 Coulomb potential           :     -2335.77844503    
 nuclear-nuclear             :     -199.161036415    
 electron-nuclear            :     -3258.64782017    
 Hartree                     :      461.434687572    
 Madelung                    :     -1828.48494650    
 xc potential                :     -104.164682510    
 exchange                    :     -77.2302529383    
 correlation                 :     -1.77775278165    
 total energy                :     -1529.15871585    
 
Density of states at Fermi energy :    135.3270019    
 (states/Hartree/unit cell)
 
Estimated indirect band gap :   0.9413630965E-04
 from k-point    230 to k-point    248
Estimated direct band gap   :   0.1381328798E-02
 at k-point    227
 
Charges :
 core                        :    20.00000000    
 valence                     :    22.00000000    
 interstitial                :    3.800661207    
 muffin-tins (core leakage)
  species :    1 (Sc)
   atom    1                 :    19.09966940     (  0.6867498570E-08)
   atom    2                 :    19.09966940     (  0.6867498570E-08)
 total in muffin-tins        :    38.19933879    
 total calculated charge     :    41.99999745    
 total charge                :    42.00000000    
 error                       :   0.2553472413E-05
 
Wrote STATE.OUT
 
RMS change in Kohn-Sham potential (target) :   0.5501649430E-05 (   10.00000000    )
Absolute change in total energy (target)   :   0.5511537893E-09 (  0.1000000000E-07)
 
Convergence targets achieved
 
Time (CPU seconds) :      3027.34
 
+--------------------+
| Loop number :   43 |
+--------------------+
 
Energies :
 Fermi                       :     0.256674267504    
 sum of eigenvalues          :     -893.719668640    
 electron kinetic            :      1546.22345894    
 core electron kinetic       :      1433.77641139    
 Coulomb                     :     -2996.37416938    
 Coulomb potential           :     -2335.77844506    
 nuclear-nuclear             :     -199.161036415    
 electron-nuclear            :     -3258.64782088    
 Hartree                     :      461.434687907    
 Madelung                    :     -1828.48494685    
 xc potential                :     -104.164682513    
 exchange                    :     -77.2302529414    
 correlation                 :     -1.77775278135    
 total energy                :     -1529.15871617    
 
Density of states at Fermi energy :    135.3270025    
 (states/Hartree/unit cell)
 
Estimated indirect band gap :   0.9413632434E-04
 from k-point    230 to k-point    248
Estimated direct band gap   :   0.1381328783E-02
 at k-point    227
 
Charges :
 core                        :    20.00000000    
 valence                     :    22.00000000    
 interstitial                :    3.800661205    
 muffin-tins (core leakage)
  species :    1 (Sc)
   atom    1                 :    19.09966940     (  0.6496842175E-08)
   atom    2                 :    19.09966940     (  0.6496842175E-08)
 total in muffin-tins        :    38.19933879    
 total calculated charge     :    41.99999745    
 total charge                :    42.00000000    
 error                       :   0.2552890344E-05
 
+------------------------------+
| Self-consistent loop stopped |
+------------------------------+
 
Wrote STATE.OUT
 
Timings (CPU seconds) :
 initialisation                        :         1.06
 Hamiltonian and overlap matrix set up :      1007.53
 first-variational eigenvalue equation :      1315.45
 charge density calculation            :       249.52
 potential calculation                 :       526.65
 total                                 :      3100.21
 
+----------------------------+
| Elk version 8.3.15 stopped |
+----------------------------+
