+----------------------------+
| Elk version 8.3.15 started |
+----------------------------+
 
Date (YYYY-MM-DD) : 2022-02-24
Time (hh:mm:ss)   : 20:35:37
 
All units are atomic (Hartree, Bohr, etc.)
 
+-------------------------------------------------+
| Ground-state run starting from atomic densities |
+-------------------------------------------------+
 
Lattice vectors :
   4.584734328      -2.646997599       0.000000000    
   0.000000000       5.293995197       0.000000000    
   0.000000000       0.000000000       8.570215115    
 
Reciprocal lattice vectors :
   1.370457884       0.000000000       0.000000000    
  0.6852289422       1.186851343       0.000000000    
   0.000000000       0.000000000      0.7331420767    
 
Unit cell volume      :    208.0125033    
Brillouin zone volume :    1.192477421    
 
Muffin-tin inner radius fraction :   0.1000000000E-01
 
Species :    1 (Re)
 parameters loaded from : Re.in
 name : rhenium
 nuclear charge    :   -75.00000000    
 electronic charge :    75.00000000    
 atomic mass :    339434.5961    
 muffin-tin radius :    2.420000000    
 number of radial points in muffin-tin :   1400
 number on inner part of muffin-tin    :   1017
 atomic positions (lattice), magnetic fields (Cartesian) :
   1 :   0.33333333  0.16666667  0.25000000    0.00000000  0.00000000  0.00000000
   2 :  -0.33333333 -0.16666667 -0.25000000    0.00000000  0.00000000  0.00000000
 
Total number of atoms per unit cell :    2
 
Spin treatment :
 spin-unpolarised
 
Number of Bravais lattice symmetries :   24
Number of crystal symmetries         :   24
Crystal has inversion symmetry
Real symmetric eigensolver will be used
 
k-point grid :     17    17    17
k-point offset :    0.000000000       0.000000000       0.000000000    
k-point set is reduced with full crystal symmetry group
Total number of k-points :      297
 
Muffin-tin radius times maximum |G+k| :    8.500000000    
 using gkmax = rgkmax / 2
Maximum |G+k| for APW functions       :    4.250000000    
Maximum (1/2)|G+k|²                   :    9.031250000    
Maximum |G| for potential and density :    34.00000000    
Constant for pseudocharge density :   21
Radial integration step length :    1
 
G-vector grid sizes :     60    60    96
Number of G-vectors :   138237
 
Maximum angular momentum used for
 APW functions                      :   10
 outer part of muffin-tin           :    8
 inner part of muffin-tin           :    1
 
Total nuclear charge    :   -150.0000000    
Total core charge       :    92.00000000    
Total valence charge    :    58.00000000    
Total excess charge     :    0.000000000    
Total electronic charge :    150.0000000    
 
Effective Wigner radius, rₛ :   0.6917829554    
 
Number of empty states         :   40
Total number of valence states :   70
Total number of core states    :   92
 
Conduction state local-orbitals added automatically
Total number of local-orbitals :  292
 
Using Libxc version 05.01.05
Exchange-correlation functional :    100   493   494
 exchange: mgga_x_rscan; correlation: mgga_c_rscan
 
Smearing type :    1
 Methfessel-Paxton order 1, Phys. Rev. B 40, 3616 (1989)
Smearing width :   0.1000000000E-02
Effective electronic temperature (K) :    315.7750248    
 
Mixing type :    3
 Broyden mixing, J. Phys. A: Math. Gen. 17, L317 (1984)
 
Kohn-Sham potential initialised from atomic data
 
+------------------------------+
| Self-consistent loop started |
+------------------------------+
 
+--------------------+
| Loop number :    1 |
+--------------------+
 
Energies :
 Fermi                       :     0.270117766643    
 sum of eigenvalues          :     -20605.7006981    
 electron kinetic            :      37723.8601537    
 core electron kinetic       :      36523.7667048    
 Coulomb                     :     -70736.6020413    
 Coulomb potential           :     -57426.8446178    
 nuclear-nuclear             :     -2759.54883054    
 electron-nuclear            :     -78527.2618037    
 Hartree                     :      10550.2085930    
 Madelung                    :     -42023.1797324    
 xc potential                :     -902.716234015    
 exchange                    :     -672.407997108    
 correlation                 :     -9.25081228350    
 total energy                :     -33694.4006970    
 
Density of states at Fermi energy :    49.58101896    
 (states/Hartree/unit cell)
 
Estimated indirect band gap :   0.1487257072E-03
 from k-point    278 to k-point    277
Estimated direct band gap   :   0.4037060004E-02
 at k-point     35
 
Charges :
 core                        :    92.00000000    
 valence                     :    58.00000000    
 interstitial                :    4.018049792    
 muffin-tins (core leakage)
  species :    1 (Re)
   atom    1                 :    72.99097510     (  0.7503983639E-06)
   atom    2                 :    72.99097510     (  0.7503983639E-06)
 total in muffin-tins        :    145.9819502    
 total calculated charge     :    149.9996613    
 total charge                :    150.0000000    
 error                       :   0.3387017185E-03
 
Time (CPU seconds) :        56.35
 
+--------------------+
| Loop number :    2 |
+--------------------+
 
Energies :
 Fermi                       :     0.273835511382    
 sum of eigenvalues          :     -20603.5185836    
 electron kinetic            :      37726.0450008    
 core electron kinetic       :      36518.7322637    
 Coulomb                     :     -70734.0370573    
 Coulomb potential           :     -57426.9569953    
 nuclear-nuclear             :     -2759.54883054    
 electron-nuclear            :     -78522.0194581    
 Hartree                     :      10547.5312314    
 Madelung                    :     -42020.5585596    
 xc potential                :     -902.606589023    
 exchange                    :     -672.325315129    
 correlation                 :     -9.25052918596    
 total energy                :     -33689.5679008    
 
Density of states at Fermi energy :    52.04564147    
 (states/Hartree/unit cell)
 
Estimated indirect band gap :   0.7775881465E-04
 from k-point     19 to k-point    278
Estimated direct band gap   :   0.4128312701E-02
 at k-point     35
 
Charges :
 core                        :    92.00000000    
 valence                     :    58.00000000    
 interstitial                :    4.025313482    
 muffin-tins (core leakage)
  species :    1 (Re)
   atom    1                 :    72.98734326     (  0.7559163322E-06)
   atom    2                 :    72.98734326     (  0.7559163322E-06)
 total in muffin-tins        :    145.9746865    
 total calculated charge     :    149.9996599    
 total charge                :    150.0000000    
 error                       :   0.3401396067E-03
 
Wrote STATE.OUT
 
RMS change in Kohn-Sham potential (target) :    1.159996597     (   10.00000000    )
Absolute change in total energy (target)   :    4.832796223     (  0.1000000000E-07)
 
Time (CPU seconds) :       112.23
 
+--------------------+
| Loop number :    3 |
+--------------------+
 
Energies :
 Fermi                       :     0.291326195284    
 sum of eigenvalues          :     -20596.5629984    
 electron kinetic            :      37732.1427901    
 core electron kinetic       :      36476.0243234    
 Coulomb                     :     -70727.3382621    
 Coulomb potential           :     -57426.3558147    
 nuclear-nuclear             :     -2759.54883054    
 electron-nuclear            :     -78509.2230484    
 Hartree                     :      10541.4336169    
 Madelung                    :     -42014.1603548    
 xc potential                :     -902.349973730    
 exchange                    :     -672.132829410    
 correlation                 :     -9.24981697994    
 total energy                :     -33676.5781185    
 
Density of states at Fermi energy :    54.99915355    
 (states/Hartree/unit cell)
 
Estimated indirect band gap :   0.1228440296E-03
 from k-point      2 to k-point     19
Estimated direct band gap   :   0.4237185742E-02
 at k-point     35
 
Charges :
 core                        :    92.00000000    
 valence                     :    58.00000000    
 interstitial                :    4.035172194    
 muffin-tins (core leakage)
  species :    1 (Re)
   atom    1                 :    72.98241390     (  0.7698870235E-06)
   atom    2                 :    72.98241390     (  0.7698870235E-06)
 total in muffin-tins        :    145.9648278    
 total calculated charge     :    149.9996595    
 total charge                :    150.0000000    
 error                       :   0.3404781034E-03
 
RMS change in Kohn-Sham potential (target) :    1.099525960     (   10.00000000    )
Absolute change in total energy (target)   :    14.19798139     (  0.1000000000E-07)
 
Time (CPU seconds) :       168.71
 
+--------------------+
| Loop number :    4 |
+--------------------+
 
Energies :
 Fermi                       :     0.440065204605    
 sum of eigenvalues          :     -20540.1698241    
 electron kinetic            :      37782.8053400    
 core electron kinetic       :      36458.2197269    
 Coulomb                     :     -70675.2148835    
 Coulomb potential           :     -57422.6507051    
 nuclear-nuclear             :     -2759.54883054    
 electron-nuclear            :     -78408.6814008    
 Hartree                     :      10493.0153479    
 Madelung                    :     -41963.8895310    
 xc potential                :     -900.324458997    
 exchange                    :     -670.613962069    
 correlation                 :     -9.24445907207    
 total energy                :     -33572.2679646    
 
Density of states at Fermi energy :    18.99254413    
 (states/Hartree/unit cell)
 
Estimated indirect band gap :   0.6928173384E-03
 from k-point    297 to k-point    177
Estimated direct band gap   :   0.2318992797E-02
 at k-point     18
 
Charges :
 core                        :    92.00000000    
 valence                     :    58.00000000    
 interstitial                :    4.134112967    
 muffin-tins (core leakage)
  species :    1 (Re)
   atom    1                 :    72.93294352     (  0.9056072017E-06)
   atom    2                 :    72.93294352     (  0.9056072017E-06)
 total in muffin-tins        :    145.8658870    
 total calculated charge     :    149.9996566    
 total charge                :    150.0000000    
 error                       :   0.3433549782E-03
 
Wrote STATE.OUT
 
RMS change in Kohn-Sham potential (target) :   0.6043485129     (   10.00000000    )
Absolute change in total energy (target)   :    107.8596492     (  0.1000000000E-07)
 
Time (CPU seconds) :       223.82
 
+--------------------+
| Loop number :    5 |
+--------------------+
 
Energies :
 Fermi                       :     0.555832722225    
 sum of eigenvalues          :     -20497.7827796    
 electron kinetic            :      37821.6191610    
 core electron kinetic       :      36456.3568603    
 Coulomb                     :     -70636.8186499    
 Coulomb potential           :     -57420.5894977    
 nuclear-nuclear             :     -2759.54883054    
 electron-nuclear            :     -78333.9501410    
 Hartree                     :      10456.6803217    
 Madelung                    :     -41926.5239010    
 xc potential                :     -898.812442986    
 exchange                    :     -669.480249143    
 correlation                 :     -9.24043470036    
 total energy                :     -33493.9201727    
 
Density of states at Fermi energy :    40.89261473    
 (states/Hartree/unit cell)
 
Estimated indirect band gap :   0.1597820904E-03
 from k-point    117 to k-point    150
Estimated direct band gap   :   0.2878856661E-02
 at k-point     18
 
Charges :
 core                        :    92.00000000    
 valence                     :    58.00000000    
 interstitial                :    4.213805376    
 muffin-tins (core leakage)
  species :    1 (Re)
   atom    1                 :    72.89309731     (  0.1058633352E-05)
   atom    2                 :    72.89309731     (  0.1058633352E-05)
 total in muffin-tins        :    145.7861946    
 total calculated charge     :    149.9996542    
 total charge                :    150.0000000    
 error                       :   0.3457591991E-03
 
RMS change in Kohn-Sham potential (target) :   0.2287868539     (   10.00000000    )
Absolute change in total energy (target)   :    105.3127042     (  0.1000000000E-07)
 
Time (CPU seconds) :       278.45
 
+--------------------+
| Loop number :    6 |
+--------------------+
 
Energies :
 Fermi                       :     0.607091386129    
 sum of eigenvalues          :     -20479.6313067    
 electron kinetic            :      37838.5076767    
 core electron kinetic       :      36456.2352833    
 Coulomb                     :     -70620.7487420    
 Coulomb potential           :     -57419.9663651    
 nuclear-nuclear             :     -2759.54883054    
 electron-nuclear            :     -78302.4334578    
 Hartree                     :      10441.2335463    
 Madelung                    :     -41910.7655594    
 xc potential                :     -898.172618236    
 exchange                    :     -669.000691804    
 correlation                 :     -9.23875074311    
 total energy                :     -33460.4805079    
 
Density of states at Fermi energy :    36.93948540    
 (states/Hartree/unit cell)
 
Estimated indirect band gap :   0.3667676900E-03
 from k-point     37 to k-point    285
Estimated direct band gap   :   0.3144535787E-02
 at k-point     18
 
Charges :
 core                        :    92.00000000    
 valence                     :    58.00000000    
 interstitial                :    4.251182425    
 muffin-tins (core leakage)
  species :    1 (Re)
   atom    1                 :    72.87440879     (  0.1082483649E-05)
   atom    2                 :    72.87440879     (  0.1082483649E-05)
 total in muffin-tins        :    145.7488176    
 total calculated charge     :    149.9996530    
 total charge                :    150.0000000    
 error                       :   0.3469570374E-03
 
Wrote STATE.OUT
 
RMS change in Kohn-Sham potential (target) :   0.6583842081E-01 (   10.00000000    )
Absolute change in total energy (target)   :    59.76784086     (  0.1000000000E-07)
 
Time (CPU seconds) :       333.89
 
+--------------------+
| Loop number :    7 |
+--------------------+
 
Energies :
 Fermi                       :     0.628036923311    
 sum of eigenvalues          :     -20472.3583563    
 electron kinetic            :      37845.3182506    
 core electron kinetic       :      36458.6119968    
 Coulomb                     :     -70614.3602332    
 Coulomb potential           :     -57419.7594924    
 nuclear-nuclear             :     -2759.54883054    
 electron-nuclear            :     -78289.8633129    
 Hartree                     :      10435.0519103    
 Madelung                    :     -41904.4804870    
 xc potential                :     -897.917114523    
 exchange                    :     -668.809243577    
 correlation                 :     -9.23806294204    
 total energy                :     -33447.0892891    
 
Density of states at Fermi energy :    40.00300977    
 (states/Hartree/unit cell)
 
Estimated indirect band gap :   0.3454897222E-03
 from k-point     37 to k-point    285
Estimated direct band gap   :   0.3266956895E-02
 at k-point     18
 
Charges :
 core                        :    92.00000000    
 valence                     :    58.00000000    
 interstitial                :    4.265703879    
 muffin-tins (core leakage)
  species :    1 (Re)
   atom    1                 :    72.86714806     (  0.1110101508E-05)
   atom    2                 :    72.86714806     (  0.1110101508E-05)
 total in muffin-tins        :    145.7342961    
 total calculated charge     :    149.9996526    
 total charge                :    150.0000000    
 error                       :   0.3473727343E-03
 
RMS change in Kohn-Sham potential (target) :   0.2395530903E-02 (   10.00000000    )
Absolute change in total energy (target)   :    28.33317895     (  0.1000000000E-07)
 
Time (CPU seconds) :       389.47
 
+--------------------+
| Loop number :    8 |
+--------------------+
 
Energies :
 Fermi                       :     0.628229531788    
 sum of eigenvalues          :     -20472.4683043    
 electron kinetic            :      37845.2916592    
 core electron kinetic       :      36458.6711859    
 Coulomb                     :     -70614.5798678    
 Coulomb potential           :     -57419.8360397    
 nuclear-nuclear             :     -2759.54883054    
 electron-nuclear            :     -78290.2260347    
 Hartree                     :      10435.1949975    
 Madelung                    :     -41904.6618479    
 xc potential                :     -897.923923765    
 exchange                    :     -668.814443068    
 correlation                 :     -9.23808840212    
 total energy                :     -33447.3407400    
 
Density of states at Fermi energy :    40.38950353    
 (states/Hartree/unit cell)
 
Estimated indirect band gap :   0.3478017245E-03
 from k-point     37 to k-point    285
Estimated direct band gap   :   0.3279942242E-02
 at k-point     18
 
Charges :
 core                        :    92.00000000    
 valence                     :    58.00000000    
 interstitial                :    4.266189407    
 muffin-tins (core leakage)
  species :    1 (Re)
   atom    1                 :    72.86690530     (  0.1109753740E-05)
   atom    2                 :    72.86690530     (  0.1109753740E-05)
 total in muffin-tins        :    145.7338106    
 total calculated charge     :    149.9996526    
 total charge                :    150.0000000    
 error                       :   0.3474439752E-03
 
Wrote STATE.OUT
 
RMS change in Kohn-Sham potential (target) :   0.7337945462E-03 (   10.00000000    )
Absolute change in total energy (target)   :    6.831843819     (  0.1000000000E-07)
 
Time (CPU seconds) :       445.23
 
+--------------------+
| Loop number :    9 |
+--------------------+
 
Energies :
 Fermi                       :     0.628377616943    
 sum of eigenvalues          :     -20472.4681143    
 electron kinetic            :      37845.3362457    
 core electron kinetic       :      36458.7227442    
 Coulomb                     :     -70614.6077896    
 Coulomb potential           :     -57419.8806449    
 nuclear-nuclear             :     -2759.54883054    
 electron-nuclear            :     -78290.2372733    
 Hartree                     :      10435.1783142    
 Madelung                    :     -41904.6674672    
 xc potential                :     -897.923715108    
 exchange                    :     -668.814324037    
 correlation                 :     -9.23808996822    
 total energy                :     -33447.3239580    
 
Density of states at Fermi energy :    40.65930030    
 (states/Hartree/unit cell)
 
Estimated indirect band gap :   0.3488843302E-03
 from k-point     37 to k-point    285
Estimated direct band gap   :   0.3287764618E-02
 at k-point     18
 
Charges :
 core                        :    92.00000000    
 valence                     :    58.00000000    
 interstitial                :    4.266572444    
 muffin-tins (core leakage)
  species :    1 (Re)
   atom    1                 :    72.86671378     (  0.1109959207E-05)
   atom    2                 :    72.86671378     (  0.1109959207E-05)
 total in muffin-tins        :    145.7334276    
 total calculated charge     :    149.9996526    
 total charge                :    150.0000000    
 error                       :   0.3474232767E-03
 
RMS change in Kohn-Sham potential (target) :   0.2296791404E-03 (   10.00000000    )
Absolute change in total energy (target)   :    1.724743022     (  0.1000000000E-07)
 
Time (CPU seconds) :       501.61
 
+--------------------+
| Loop number :   10 |
+--------------------+
 
Energies :
 Fermi                       :     0.628376580862    
 sum of eigenvalues          :     -20472.4861331    
 electron kinetic            :      37845.3350200    
 core electron kinetic       :      36458.7299760    
 Coulomb                     :     -70614.6293616    
 Coulomb potential           :     -57419.8970340    
 nuclear-nuclear             :     -2759.54883054    
 electron-nuclear            :     -78290.2640280    
 Hartree                     :      10435.1834970    
 Madelung                    :     -41904.6808445    
 xc potential                :     -897.924119033    
 exchange                    :     -668.814650800    
 correlation                 :     -9.23809072022    
 total energy                :     -33447.3470831    
 
Density of states at Fermi energy :    40.73589162    
 (states/Hartree/unit cell)
 
Estimated indirect band gap :   0.3492735773E-03
 from k-point     37 to k-point    285
Estimated direct band gap   :   0.3290250561E-02
 at k-point     18
 
Charges :
 core                        :    92.00000000    
 valence                     :    58.00000000    
 interstitial                :    4.266639482    
 muffin-tins (core leakage)
  species :    1 (Re)
   atom    1                 :    72.86668026     (  0.1110084348E-05)
   atom    2                 :    72.86668026     (  0.1110084348E-05)
 total in muffin-tins        :    145.7333605    
 total calculated charge     :    149.9996526    
 total charge                :    150.0000000    
 error                       :   0.3474111994E-03
 
Wrote STATE.OUT
 
RMS change in Kohn-Sham potential (target) :   0.6884486352E-04 (   10.00000000    )
Absolute change in total energy (target)   :   0.4080606652     (  0.1000000000E-07)
 
Time (CPU seconds) :       556.59
 
+--------------------+
| Loop number :   11 |
+--------------------+
 
Energies :
 Fermi                       :     0.628365176301    
 sum of eigenvalues          :     -20472.4885389    
 electron kinetic            :      37845.3321573    
 core electron kinetic       :      36458.7273506    
 Coulomb                     :     -70614.6286595    
 Coulomb potential           :     -57419.8965783    
 nuclear-nuclear             :     -2759.54883054    
 electron-nuclear            :     -78290.2630797    
 Hartree                     :      10435.1832507    
 Madelung                    :     -41904.6803704    
 xc potential                :     -897.924117935    
 exchange                    :     -668.814653079    
 correlation                 :     -9.23809069819    
 total energy                :     -33447.3492460    
 
Density of states at Fermi energy :    40.74445285    
 (states/Hartree/unit cell)
 
Estimated indirect band gap :   0.3491500964E-03
 from k-point     37 to k-point    285
Estimated direct band gap   :   0.3290371492E-02
 at k-point     18
 
Charges :
 core                        :    92.00000000    
 valence                     :    58.00000000    
 interstitial                :    4.266631237    
 muffin-tins (core leakage)
  species :    1 (Re)
   atom    1                 :    72.86668438     (  0.1110001790E-05)
   atom    2                 :    72.86668438     (  0.1110001790E-05)
 total in muffin-tins        :    145.7333688    
 total calculated charge     :    149.9996526    
 total charge                :    150.0000000    
 error                       :   0.3474079967E-03
 
RMS change in Kohn-Sham potential (target) :   0.3507516417E-04 (   10.00000000    )
Absolute change in total energy (target)   :   0.9985227829E-01 (  0.1000000000E-07)
 
Time (CPU seconds) :       612.49
 
+--------------------+
| Loop number :   12 |
+--------------------+
 
Energies :
 Fermi                       :     0.628364037180    
 sum of eigenvalues          :     -20472.4876536    
 electron kinetic            :      37845.3319370    
 core electron kinetic       :      36458.7259772    
 Coulomb                     :     -70614.6271910    
 Coulomb potential           :     -57419.8954975    
 nuclear-nuclear             :     -2759.54883054    
 electron-nuclear            :     -78290.2612234    
 Hartree                     :      10435.1828630    
 Madelung                    :     -41904.6794422    
 xc potential                :     -897.924093200    
 exchange                    :     -668.814637028    
 correlation                 :     -9.23809049203    
 total energy                :     -33447.3479815    
 
Density of states at Fermi energy :    40.74767419    
 (states/Hartree/unit cell)
 
Estimated indirect band gap :   0.3490700285E-03
 from k-point     37 to k-point    285
Estimated direct band gap   :   0.3290375045E-02
 at k-point     18
 
Charges :
 core                        :    92.00000000    
 valence                     :    58.00000000    
 interstitial                :    4.266632628    
 muffin-tins (core leakage)
  species :    1 (Re)
   atom    1                 :    72.86668369     (  0.1110101216E-05)
   atom    2                 :    72.86668369     (  0.1110101216E-05)
 total in muffin-tins        :    145.7333674    
 total calculated charge     :    149.9996526    
 total charge                :    150.0000000    
 error                       :   0.3474080584E-03
 
Wrote STATE.OUT
 
RMS change in Kohn-Sham potential (target) :   0.1279554366E-04 (   10.00000000    )
Absolute change in total energy (target)   :   0.2622755853E-01 (  0.1000000000E-07)
 
Time (CPU seconds) :       668.07
 
+--------------------+
| Loop number :   13 |
+--------------------+
 
Energies :
 Fermi                       :     0.628365645970    
 sum of eigenvalues          :     -20472.4866373    
 electron kinetic            :      37845.3324155    
 core electron kinetic       :      36458.7256648    
 Coulomb                     :     -70614.6263848    
 Coulomb potential           :     -57419.8949746    
 nuclear-nuclear             :     -2759.54883054    
 electron-nuclear            :     -78290.2601338    
 Hartree                     :      10435.1825796    
 Madelung                    :     -41904.6788975    
 xc potential                :     -897.924078252    
 exchange                    :     -668.814623678    
 correlation                 :     -9.23809077566    
 total energy                :     -33447.3466837    
 
Density of states at Fermi energy :    40.75216628    
 (states/Hartree/unit cell)
 
Estimated indirect band gap :   0.3490231938E-03
 from k-point     37 to k-point    285
Estimated direct band gap   :   0.3290453095E-02
 at k-point     18
 
Charges :
 core                        :    92.00000000    
 valence                     :    58.00000000    
 interstitial                :    4.266639138    
 muffin-tins (core leakage)
  species :    1 (Re)
   atom    1                 :    72.86668043     (  0.1109480763E-05)
   atom    2                 :    72.86668043     (  0.1109480763E-05)
 total in muffin-tins        :    145.7333609    
 total calculated charge     :    149.9996526    
 total charge                :    150.0000000    
 error                       :   0.3474070509E-03
 
RMS change in Kohn-Sham potential (target) :   0.6918676760E-05 (   10.00000000    )
Absolute change in total energy (target)   :   0.7854658768E-02 (  0.1000000000E-07)
 
Time (CPU seconds) :       723.67
 
+--------------------+
| Loop number :   14 |
+--------------------+
 
Energies :
 Fermi                       :     0.628366633644    
 sum of eigenvalues          :     -20472.4861703    
 electron kinetic            :      37845.3326919    
 core electron kinetic       :      36458.7258713    
 Coulomb                     :     -70614.6261006    
 Coulomb potential           :     -57419.8947897    
 nuclear-nuclear             :     -2759.54883054    
 electron-nuclear            :     -78290.2597505    
 Hartree                     :      10435.1824804    
 Madelung                    :     -41904.6787058    
 xc potential                :     -897.924072476    
 exchange                    :     -668.814619231    
 correlation                 :     -9.23809080676    
 total energy                :     -33447.3461188    
 
Density of states at Fermi energy :    40.75353859    
 (states/Hartree/unit cell)
 
Estimated indirect band gap :   0.3490079326E-03
 from k-point     37 to k-point    285
Estimated direct band gap   :   0.3290488037E-02
 at k-point     18
 
Charges :
 core                        :    92.00000000    
 valence                     :    58.00000000    
 interstitial                :    4.266641547    
 muffin-tins (core leakage)
  species :    1 (Re)
   atom    1                 :    72.86667923     (  0.1110072020E-05)
   atom    2                 :    72.86667923     (  0.1110072020E-05)
 total in muffin-tins        :    145.7333585    
 total calculated charge     :    149.9996526    
 total charge                :    150.0000000    
 error                       :   0.3474084005E-03
 
Wrote STATE.OUT
 
RMS change in Kohn-Sham potential (target) :   0.4506860732E-04 (   10.00000000    )
Absolute change in total energy (target)   :   0.2528543147E-02 (  0.1000000000E-07)
 
Time (CPU seconds) :       779.17
 
+--------------------+
| Loop number :   15 |
+--------------------+
 
Energies :
 Fermi                       :     0.628365862420    
 sum of eigenvalues          :     -20472.4863343    
 electron kinetic            :      37845.3325417    
 core electron kinetic       :      36458.7256122    
 Coulomb                     :     -70614.6261175    
 Coulomb potential           :     -57419.8948034    
 nuclear-nuclear             :     -2759.54883054    
 electron-nuclear            :     -78290.2597706    
 Hartree                     :      10435.1824836    
 Madelung                    :     -41904.6787159    
 xc potential                :     -897.924072618    
 exchange                    :     -668.814619284    
 correlation                 :     -9.23809078693    
 total energy                :     -33447.3462860    
 
Density of states at Fermi energy :    40.75280104    
 (states/Hartree/unit cell)
 
Estimated indirect band gap :   0.3490108282E-03
 from k-point     37 to k-point    285
Estimated direct band gap   :   0.3290468304E-02
 at k-point     18
 
Charges :
 core                        :    92.00000000    
 valence                     :    58.00000000    
 interstitial                :    4.266640481    
 muffin-tins (core leakage)
  species :    1 (Re)
   atom    1                 :    72.86667976     (  0.1109956010E-05)
   atom    2                 :    72.86667976     (  0.1109956010E-05)
 total in muffin-tins        :    145.7333595    
 total calculated charge     :    149.9996526    
 total charge                :    150.0000000    
 error                       :   0.3474081722E-03
 
RMS change in Kohn-Sham potential (target) :   0.1363442236E-04 (   10.00000000    )
Absolute change in total energy (target)   :   0.4650015035E-03 (  0.1000000000E-07)
 
Time (CPU seconds) :       835.27
 
+--------------------+
| Loop number :   16 |
+--------------------+
 
Energies :
 Fermi                       :     0.628366441594    
 sum of eigenvalues          :     -20472.4861215    
 electron kinetic            :      37845.3326939    
 core electron kinetic       :      36458.7257436    
 Coulomb                     :     -70614.6260478    
 Coulomb potential           :     -57419.8947446    
 nuclear-nuclear             :     -2759.54883054    
 electron-nuclear            :     -78290.2596899    
 Hartree                     :      10435.1824726    
 Madelung                    :     -41904.6786755    
 xc potential                :     -897.924070822    
 exchange                    :     -668.814619906    
 correlation                 :     -9.23809059993    
 total energy                :     -33447.3460644    
 
Density of states at Fermi energy :    40.75300695    
 (states/Hartree/unit cell)
 
Estimated indirect band gap :   0.3490069825E-03
 from k-point     37 to k-point    285
Estimated direct band gap   :   0.3290480454E-02
 at k-point     18
 
Charges :
 core                        :    92.00000000    
 valence                     :    58.00000000    
 interstitial                :    4.266641214    
 muffin-tins (core leakage)
  species :    1 (Re)
   atom    1                 :    72.86667939     (  0.1109466922E-05)
   atom    2                 :    72.86667939     (  0.1109466922E-05)
 total in muffin-tins        :    145.7333588    
 total calculated charge     :    149.9996526    
 total charge                :    150.0000000    
 error                       :   0.3474072656E-03
 
Wrote STATE.OUT
 
RMS change in Kohn-Sham potential (target) :   0.7173472928E-04 (   10.00000000    )
Absolute change in total energy (target)   :   0.3377877874E-03 (  0.1000000000E-07)
 
Time (CPU seconds) :       891.13
 
+--------------------+
| Loop number :   17 |
+--------------------+
 
Energies :
 Fermi                       :     0.628366305888    
 sum of eigenvalues          :     -20472.4861871    
 electron kinetic            :      37845.3326689    
 core electron kinetic       :      36458.7256265    
 Coulomb                     :     -70614.6260878    
 Coulomb potential           :     -57419.8947843    
 nuclear-nuclear             :     -2759.54883054    
 electron-nuclear            :     -78290.2597303    
 Hartree                     :      10435.1824730    
 Madelung                    :     -41904.6786957    
 xc potential                :     -897.924071764    
 exchange                    :     -668.814618566    
 correlation                 :     -9.23809080010    
 total energy                :     -33447.3461283    
 
Density of states at Fermi energy :    40.75313431    
 (states/Hartree/unit cell)
 
Estimated indirect band gap :   0.3490081137E-03
 from k-point     37 to k-point    285
Estimated direct band gap   :   0.3290484756E-02
 at k-point     18
 
Charges :
 core                        :    92.00000000    
 valence                     :    58.00000000    
 interstitial                :    4.266641347    
 muffin-tins (core leakage)
  species :    1 (Re)
   atom    1                 :    72.86667933     (  0.1110017912E-05)
   atom    2                 :    72.86667933     (  0.1110017912E-05)
 total in muffin-tins        :    145.7333587    
 total calculated charge     :    149.9996526    
 total charge                :    150.0000000    
 error                       :   0.3474083480E-03
 
RMS change in Kohn-Sham potential (target) :   0.1845594547E-04 (   10.00000000    )
Absolute change in total energy (target)   :   0.2058220707E-04 (  0.1000000000E-07)
 
Time (CPU seconds) :       947.36
 
+--------------------+
| Loop number :   18 |
+--------------------+
 
Energies :
 Fermi                       :     0.628366762452    
 sum of eigenvalues          :     -20472.4860451    
 electron kinetic            :      37845.3327784    
 core electron kinetic       :      36458.7256323    
 Coulomb                     :     -70614.6260419    
 Coulomb potential           :     -57419.8947529    
 nuclear-nuclear             :     -2759.54883054    
 electron-nuclear            :     -78290.2596698    
 Hartree                     :      10435.1824585    
 Madelung                    :     -41904.6786654    
 xc potential                :     -897.924070649    
 exchange                    :     -668.814619816    
 correlation                 :     -9.23809060102    
 total energy                :     -33447.3459739    
 
Density of states at Fermi energy :    40.75331304    
 (states/Hartree/unit cell)
 
Estimated indirect band gap :   0.3490048178E-03
 from k-point     37 to k-point    285
Estimated direct band gap   :   0.3290494913E-02
 at k-point     18
 
Charges :
 core                        :    92.00000000    
 valence                     :    58.00000000    
 interstitial                :    4.266641724    
 muffin-tins (core leakage)
  species :    1 (Re)
   atom    1                 :    72.86667914     (  0.1110159687E-05)
   atom    2                 :    72.86667914     (  0.1110159687E-05)
 total in muffin-tins        :    145.7333583    
 total calculated charge     :    149.9996526    
 total charge                :    150.0000000    
 error                       :   0.3474086922E-03
 
Wrote STATE.OUT
 
RMS change in Kohn-Sham potential (target) :   0.2475583386E-04 (   10.00000000    )
Absolute change in total energy (target)   :   0.1595761787E-03 (  0.1000000000E-07)
 
Time (CPU seconds) :      1003.38
 
+--------------------+
| Loop number :   19 |
+--------------------+
 
Energies :
 Fermi                       :     0.628366945845    
 sum of eigenvalues          :     -20472.4859763    
 electron kinetic            :      37845.3328180    
 core electron kinetic       :      36458.7256321    
 Coulomb                     :     -70614.6260073    
 Coulomb potential           :     -57419.8947242    
 nuclear-nuclear             :     -2759.54883054    
 electron-nuclear            :     -78290.2596294    
 Hartree                     :      10435.1824526    
 Madelung                    :     -41904.6786452    
 xc potential                :     -897.924070056    
 exchange                    :     -668.814619380    
 correlation                 :     -9.23809060056    
 total energy                :     -33447.3458994    
 
Density of states at Fermi energy :    40.75335098    
 (states/Hartree/unit cell)
 
Estimated indirect band gap :   0.3490028561E-03
 from k-point     37 to k-point    285
Estimated direct band gap   :   0.3290498031E-02
 at k-point     18
 
Charges :
 core                        :    92.00000000    
 valence                     :    58.00000000    
 interstitial                :    4.266641812    
 muffin-tins (core leakage)
  species :    1 (Re)
   atom    1                 :    72.86667909     (  0.1109431970E-05)
   atom    2                 :    72.86667909     (  0.1109431970E-05)
 total in muffin-tins        :    145.7333582    
 total calculated charge     :    149.9996526    
 total charge                :    150.0000000    
 error                       :   0.3474072392E-03
 
RMS change in Kohn-Sham potential (target) :   0.1769809908E-04 (   10.00000000    )
Absolute change in total energy (target)   :   0.1143840636E-03 (  0.1000000000E-07)
 
Time (CPU seconds) :      1058.51
 
+--------------------+
| Loop number :   20 |
+--------------------+
 
Energies :
 Fermi                       :     0.628367014041    
 sum of eigenvalues          :     -20472.4859552    
 electron kinetic            :      37845.3328326    
 core electron kinetic       :      36458.7256374    
 Coulomb                     :     -70614.6259941    
 Coulomb potential           :     -57419.8947179    
 nuclear-nuclear             :     -2759.54883054    
 electron-nuclear            :     -78290.2596092    
 Hartree                     :      10435.1824457    
 Madelung                    :     -41904.6786352    
 xc potential                :     -897.924069902    
 exchange                    :     -668.814619285    
 correlation                 :     -9.23809059625    
 total energy                :     -33447.3458714    
 
Density of states at Fermi energy :    40.75330178    
 (states/Hartree/unit cell)
 
Estimated indirect band gap :   0.3490020727E-03
 from k-point     37 to k-point    285
Estimated direct band gap   :   0.3290498611E-02
 at k-point     18
 
Charges :
 core                        :    92.00000000    
 valence                     :    58.00000000    
 interstitial                :    4.266641739    
 muffin-tins (core leakage)
  species :    1 (Re)
   atom    1                 :    72.86667913     (  0.1110069526E-05)
   atom    2                 :    72.86667913     (  0.1110069526E-05)
 total in muffin-tins        :    145.7333583    
 total calculated charge     :    149.9996526    
 total charge                :    150.0000000    
 error                       :   0.3474085415E-03
 
Wrote STATE.OUT
 
RMS change in Kohn-Sham potential (target) :   0.1686034902E-04 (   10.00000000    )
Absolute change in total energy (target)   :   0.5655585119E-04 (  0.1000000000E-07)
 
Time (CPU seconds) :      1113.86
 
+--------------------+
| Loop number :   21 |
+--------------------+
 
Energies :
 Fermi                       :     0.628367038287    
 sum of eigenvalues          :     -20472.4859512    
 electron kinetic            :      37845.3328296    
 core electron kinetic       :      36458.7256284    
 Coulomb                     :     -70614.6259905    
 Coulomb potential           :     -57419.8947107    
 nuclear-nuclear             :     -2759.54883054    
 electron-nuclear            :     -78290.2596092    
 Hartree                     :      10435.1824493    
 Madelung                    :     -41904.6786352    
 xc potential                :     -897.924070109    
 exchange                    :     -668.814617359    
 correlation                 :     -9.23809079875    
 total energy                :     -33447.3458691    
 
Density of states at Fermi energy :    40.75331486    
 (states/Hartree/unit cell)
 
Estimated indirect band gap :   0.3490018929E-03
 from k-point     37 to k-point    285
Estimated direct band gap   :   0.3290499158E-02
 at k-point     18
 
Charges :
 core                        :    92.00000000    
 valence                     :    58.00000000    
 interstitial                :    4.266641749    
 muffin-tins (core leakage)
  species :    1 (Re)
   atom    1                 :    72.86667913     (  0.1109949672E-05)
   atom    2                 :    72.86667913     (  0.1109949672E-05)
 total in muffin-tins        :    145.7333583    
 total calculated charge     :    149.9996526    
 total charge                :    150.0000000    
 error                       :   0.3474083311E-03
 
RMS change in Kohn-Sham potential (target) :   0.3166177008E-05 (   10.00000000    )
Absolute change in total energy (target)   :   0.1648863690E-04 (  0.1000000000E-07)
 
Time (CPU seconds) :      1169.94
 
+--------------------+
| Loop number :   22 |
+--------------------+
 
Energies :
 Fermi                       :     0.628367048517    
 sum of eigenvalues          :     -20472.4859485    
 electron kinetic            :      37845.3328305    
 core electron kinetic       :      36458.7256108    
 Coulomb                     :     -70614.6259896    
 Coulomb potential           :     -57419.8947089    
 nuclear-nuclear             :     -2759.54883054    
 electron-nuclear            :     -78290.2596092    
 Hartree                     :      10435.1824501    
 Madelung                    :     -41904.6786352    
 xc potential                :     -897.924070102    
 exchange                    :     -668.814617347    
 correlation                 :     -9.23809079944    
 total energy                :     -33447.3458673    
 
Density of states at Fermi energy :    40.75329928    
 (states/Hartree/unit cell)
 
Estimated indirect band gap :   0.3490017054E-03
 from k-point     37 to k-point    285
Estimated direct band gap   :   0.3290498961E-02
 at k-point     18
 
Charges :
 core                        :    92.00000000    
 valence                     :    58.00000000    
 interstitial                :    4.266641726    
 muffin-tins (core leakage)
  species :    1 (Re)
   atom    1                 :    72.86667914     (  0.1110165435E-05)
   atom    2                 :    72.86667914     (  0.1110165435E-05)
 total in muffin-tins        :    145.7333583    
 total calculated charge     :    149.9996526    
 total charge                :    150.0000000    
 error                       :   0.3474087280E-03
 
Wrote STATE.OUT
 
RMS change in Kohn-Sham potential (target) :   0.1521112660E-04 (   10.00000000    )
Absolute change in total energy (target)   :   0.5897360097E-05 (  0.1000000000E-07)
 
Time (CPU seconds) :      1225.60
 
+--------------------+
| Loop number :   23 |
+--------------------+
 
Energies :
 Fermi                       :     0.628367117782    
 sum of eigenvalues          :     -20472.4859262    
 electron kinetic            :      37845.3328532    
 core electron kinetic       :      36458.7256217    
 Coulomb                     :     -70614.6259900    
 Coulomb potential           :     -57419.8947096    
 nuclear-nuclear             :     -2759.54883054    
 electron-nuclear            :     -78290.2596092    
 Hartree                     :      10435.1824498    
 Madelung                    :     -41904.6786352    
 xc potential                :     -897.924069736    
 exchange                    :     -668.814619162    
 correlation                 :     -9.23809059568    
 total energy                :     -33447.3458465    
 
Density of states at Fermi energy :    40.75328915    
 (states/Hartree/unit cell)
 
Estimated indirect band gap :   0.3490011179E-03
 from k-point     37 to k-point    285
Estimated direct band gap   :   0.3290499692E-02
 at k-point     18
 
Charges :
 core                        :    92.00000000    
 valence                     :    58.00000000    
 interstitial                :    4.266641724    
 muffin-tins (core leakage)
  species :    1 (Re)
   atom    1                 :    72.86667914     (  0.1109984751E-05)
   atom    2                 :    72.86667914     (  0.1109984751E-05)
 total in muffin-tins        :    145.7333583    
 total calculated charge     :    149.9996526    
 total charge                :    150.0000000    
 error                       :   0.3474084126E-03
 
RMS change in Kohn-Sham potential (target) :   0.2732659553E-04 (   10.00000000    )
Absolute change in total energy (target)   :   0.2220982424E-04 (  0.1000000000E-07)
 
Time (CPU seconds) :      1281.35
 
+--------------------+
| Loop number :   24 |
+--------------------+
 
Energies :
 Fermi                       :     0.628367143497    
 sum of eigenvalues          :     -20472.4859173    
 electron kinetic            :      37845.3328590    
 core electron kinetic       :      36458.7256230    
 Coulomb                     :     -70614.6259885    
 Coulomb potential           :     -57419.8947067    
 nuclear-nuclear             :     -2759.54883054    
 electron-nuclear            :     -78290.2596092    
 Hartree                     :      10435.1824513    
 Madelung                    :     -41904.6786352    
 xc potential                :     -897.924069660    
 exchange                    :     -668.814619117    
 correlation                 :     -9.23809059387    
 total energy                :     -33447.3458392    
 
Density of states at Fermi energy :    40.75328047    
 (states/Hartree/unit cell)
 
Estimated indirect band gap :   0.3490008667E-03
 from k-point     37 to k-point    285
Estimated direct band gap   :   0.3290499882E-02
 at k-point     18
 
Charges :
 core                        :    92.00000000    
 valence                     :    58.00000000    
 interstitial                :    4.266641716    
 muffin-tins (core leakage)
  species :    1 (Re)
   atom    1                 :    72.86667914     (  0.1110057717E-05)
   atom    2                 :    72.86667914     (  0.1110057717E-05)
 total in muffin-tins        :    145.7333583    
 total calculated charge     :    149.9996526    
 total charge                :    150.0000000    
 error                       :   0.3474085167E-03
 
Wrote STATE.OUT
 
RMS change in Kohn-Sham potential (target) :   0.1319387505E-04 (   10.00000000    )
Absolute change in total energy (target)   :   0.1292690285E-04 (  0.1000000000E-07)
 
Time (CPU seconds) :      1336.77
 
+--------------------+
| Loop number :   25 |
+--------------------+
 
Energies :
 Fermi                       :     0.628367150572    
 sum of eigenvalues          :     -20472.4859152    
 electron kinetic            :      37845.3328527    
 core electron kinetic       :      36458.7256126    
 Coulomb                     :     -70614.6259741    
 Coulomb potential           :     -57419.8946981    
 nuclear-nuclear             :     -2759.54883054    
 electron-nuclear            :     -78290.2595891    
 Hartree                     :      10435.1824455    
 Madelung                    :     -41904.6786251    
 xc potential                :     -897.924069824    
 exchange                    :     -668.814617157    
 correlation                 :     -9.23809079623    
 total energy                :     -33447.3458294    
 
Density of states at Fermi energy :    40.75327585    
 (states/Hartree/unit cell)
 
Estimated indirect band gap :   0.3490008629E-03
 from k-point     37 to k-point    285
Estimated direct band gap   :   0.3290499800E-02
 at k-point     18
 
Charges :
 core                        :    92.00000000    
 valence                     :    58.00000000    
 interstitial                :    4.266641712    
 muffin-tins (core leakage)
  species :    1 (Re)
   atom    1                 :    72.86667914     (  0.1110253493E-05)
   atom    2                 :    72.86667914     (  0.1110253493E-05)
 total in muffin-tins        :    145.7333583    
 total calculated charge     :    149.9996526    
 total charge                :    150.0000000    
 error                       :   0.3474089220E-03
 
RMS change in Kohn-Sham potential (target) :   0.5275797437E-04 (   10.00000000    )
Absolute change in total energy (target)   :   0.1304631587E-04 (  0.1000000000E-07)
 
Time (CPU seconds) :      1392.03
 
+--------------------+
| Loop number :   26 |
+--------------------+
 
Energies :
 Fermi                       :     0.628367149711    
 sum of eigenvalues          :     -20472.4859151    
 electron kinetic            :      37845.3328525    
 core electron kinetic       :      36458.7256088    
 Coulomb                     :     -70614.6259739    
 Coulomb potential           :     -57419.8946977    
 nuclear-nuclear             :     -2759.54883054    
 electron-nuclear            :     -78290.2595891    
 Hartree                     :      10435.1824457    
 Madelung                    :     -41904.6786251    
 xc potential                :     -897.924069839    
 exchange                    :     -668.814617159    
 correlation                 :     -9.23809079795    
 total energy                :     -33447.3458294    
 
Density of states at Fermi energy :    40.75327067    
 (states/Hartree/unit cell)
 
Estimated indirect band gap :   0.3490008911E-03
 from k-point     37 to k-point    285
Estimated direct band gap   :   0.3290499735E-02
 at k-point     18
 
Charges :
 core                        :    92.00000000    
 valence                     :    58.00000000    
 interstitial                :    4.266641706    
 muffin-tins (core leakage)
  species :    1 (Re)
   atom    1                 :    72.86667915     (  0.1110089919E-05)
   atom    2                 :    72.86667915     (  0.1110089919E-05)
 total in muffin-tins        :    145.7333583    
 total calculated charge     :    149.9996526    
 total charge                :    150.0000000    
 error                       :   0.3474086269E-03
 
Wrote STATE.OUT
 
RMS change in Kohn-Sham potential (target) :   0.7514178399E-05 (   10.00000000    )
Absolute change in total energy (target)   :   0.3215376637E-05 (  0.1000000000E-07)
 
Time (CPU seconds) :      1447.60
 
+--------------------+
| Loop number :   27 |
+--------------------+
 
Energies :
 Fermi                       :     0.628367175465    
 sum of eigenvalues          :     -20472.4859095    
 electron kinetic            :      37845.3328566    
 core electron kinetic       :      36458.7256085    
 Coulomb                     :     -70614.6259732    
 Coulomb potential           :     -57419.8946963    
 nuclear-nuclear             :     -2759.54883054    
 electron-nuclear            :     -78290.2595891    
 Hartree                     :      10435.1824464    
 Madelung                    :     -41904.6786251    
 xc potential                :     -897.924069829    
 exchange                    :     -668.814617153    
 correlation                 :     -9.23809079607    
 total energy                :     -33447.3458246    
 
Density of states at Fermi energy :    40.75326275    
 (states/Hartree/unit cell)
 
Estimated indirect band gap :   0.3490006180E-03
 from k-point     37 to k-point    285
Estimated direct band gap   :   0.3290499897E-02
 at k-point     18
 
Charges :
 core                        :    92.00000000    
 valence                     :    58.00000000    
 interstitial                :    4.266641694    
 muffin-tins (core leakage)
  species :    1 (Re)
   atom    1                 :    72.86667915     (  0.1110034582E-05)
   atom    2                 :    72.86667915     (  0.1110034582E-05)
 total in muffin-tins        :    145.7333583    
 total calculated charge     :    149.9996526    
 total charge                :    150.0000000    
 error                       :   0.3474084750E-03
 
RMS change in Kohn-Sham potential (target) :   0.7293620709E-05 (   10.00000000    )
Absolute change in total energy (target)   :   0.5646208592E-05 (  0.1000000000E-07)
 
Time (CPU seconds) :      1502.37
 
+--------------------+
| Loop number :   28 |
+--------------------+
 
Energies :
 Fermi                       :     0.628367188848    
 sum of eigenvalues          :     -20472.4859061    
 electron kinetic            :      37845.3328598    
 core electron kinetic       :      36458.7256097    
 Coulomb                     :     -70614.6259731    
 Coulomb potential           :     -57419.8946961    
 nuclear-nuclear             :     -2759.54883054    
 electron-nuclear            :     -78290.2595891    
 Hartree                     :      10435.1824465    
 Madelung                    :     -41904.6786251    
 xc potential                :     -897.924069816    
 exchange                    :     -668.814617129    
 correlation                 :     -9.23809079883    
 total energy                :     -33447.3458213    
 
Density of states at Fermi energy :    40.75325976    
 (states/Hartree/unit cell)
 
Estimated indirect band gap :   0.3490004784E-03
 from k-point     37 to k-point    285
Estimated direct band gap   :   0.3290500008E-02
 at k-point     18
 
Charges :
 core                        :    92.00000000    
 valence                     :    58.00000000    
 interstitial                :    4.266641690    
 muffin-tins (core leakage)
  species :    1 (Re)
   atom    1                 :    72.86667916     (  0.1110040934E-05)
   atom    2                 :    72.86667916     (  0.1110040934E-05)
 total in muffin-tins        :    145.7333583    
 total calculated charge     :    149.9996526    
 total charge                :    150.0000000    
 error                       :   0.3474085209E-03
 
Wrote STATE.OUT
 
RMS change in Kohn-Sham potential (target) :   0.3416789190E-05 (   10.00000000    )
Absolute change in total energy (target)   :   0.4695357347E-05 (  0.1000000000E-07)
 
Time (CPU seconds) :      1557.45
 
+--------------------+
| Loop number :   29 |
+--------------------+
 
Energies :
 Fermi                       :     0.628367192885    
 sum of eigenvalues          :     -20472.4859051    
 electron kinetic            :      37845.3328606    
 core electron kinetic       :      36458.7256101    
 Coulomb                     :     -70614.6259730    
 Coulomb potential           :     -57419.8946959    
 nuclear-nuclear             :     -2759.54883054    
 electron-nuclear            :     -78290.2595891    
 Hartree                     :      10435.1824466    
 Madelung                    :     -41904.6786251    
 xc potential                :     -897.924069800    
 exchange                    :     -668.814617129    
 correlation                 :     -9.23809079800    
 total energy                :     -33447.3458203    
 
Density of states at Fermi energy :    40.75325885    
 (states/Hartree/unit cell)
 
Estimated indirect band gap :   0.3490004364E-03
 from k-point     37 to k-point    285
Estimated direct band gap   :   0.3290500040E-02
 at k-point     18
 
Charges :
 core                        :    92.00000000    
 valence                     :    58.00000000    
 interstitial                :    4.266641689    
 muffin-tins (core leakage)
  species :    1 (Re)
   atom    1                 :    72.86667916     (  0.1110145966E-05)
   atom    2                 :    72.86667916     (  0.1110145966E-05)
 total in muffin-tins        :    145.7333583    
 total calculated charge     :    149.9996526    
 total charge                :    150.0000000    
 error                       :   0.3474087040E-03
 
RMS change in Kohn-Sham potential (target) :   0.1858018179E-04 (   10.00000000    )
Absolute change in total energy (target)   :   0.2125867468E-05 (  0.1000000000E-07)
 
Time (CPU seconds) :      1612.71
 
+--------------------+
| Loop number :   30 |
+--------------------+
 
Energies :
 Fermi                       :     0.628367195748    
 sum of eigenvalues          :     -20472.4859048    
 electron kinetic            :      37845.3328613    
 core electron kinetic       :      36458.7256093    
 Coulomb                     :     -70614.6259733    
 Coulomb potential           :     -57419.8946964    
 nuclear-nuclear             :     -2759.54883054    
 electron-nuclear            :     -78290.2595891    
 Hartree                     :      10435.1824463    
 Madelung                    :     -41904.6786251    
 xc potential                :     -897.924069815    
 exchange                    :     -668.814617157    
 correlation                 :     -9.23809079464    
 total energy                :     -33447.3458199    
 
Density of states at Fermi energy :    40.75325788    
 (states/Hartree/unit cell)
 
Estimated indirect band gap :   0.3490004118E-03
 from k-point     37 to k-point    285
Estimated direct band gap   :   0.3290500051E-02
 at k-point     18
 
Charges :
 core                        :    92.00000000    
 valence                     :    58.00000000    
 interstitial                :    4.266641687    
 muffin-tins (core leakage)
  species :    1 (Re)
   atom    1                 :    72.86667916     (  0.1110026709E-05)
   atom    2                 :    72.86667916     (  0.1110026709E-05)
 total in muffin-tins        :    145.7333583    
 total calculated charge     :    149.9996526    
 total charge                :    150.0000000    
 error                       :   0.3474084804E-03
 
Wrote STATE.OUT
 
RMS change in Kohn-Sham potential (target) :   0.5641796554E-05 (   10.00000000    )
Absolute change in total energy (target)   :   0.9820796549E-06 (  0.1000000000E-07)
 
Time (CPU seconds) :      1669.41
 
+--------------------+
| Loop number :   31 |
+--------------------+
 
Energies :
 Fermi                       :     0.628367203977    
 sum of eigenvalues          :     -20472.4859030    
 electron kinetic            :      37845.3328626    
 core electron kinetic       :      36458.7256098    
 Coulomb                     :     -70614.6259730    
 Coulomb potential           :     -57419.8946958    
 nuclear-nuclear             :     -2759.54883054    
 electron-nuclear            :     -78290.2595891    
 Hartree                     :      10435.1824466    
 Madelung                    :     -41904.6786251    
 xc potential                :     -897.924069798    
 exchange                    :     -668.814617138    
 correlation                 :     -9.23809079602    
 total energy                :     -33447.3458183    
 
Density of states at Fermi energy :    40.75325665    
 (states/Hartree/unit cell)
 
Estimated indirect band gap :   0.3490003181E-03
 from k-point     37 to k-point    285
Estimated direct band gap   :   0.3290500134E-02
 at k-point     18
 
Charges :
 core                        :    92.00000000    
 valence                     :    58.00000000    
 interstitial                :    4.266641685    
 muffin-tins (core leakage)
  species :    1 (Re)
   atom    1                 :    72.86667916     (  0.1109843730E-05)
   atom    2                 :    72.86667916     (  0.1109843730E-05)
 total in muffin-tins        :    145.7333583    
 total calculated charge     :    149.9996526    
 total charge                :    150.0000000    
 error                       :   0.3474081048E-03
 
RMS change in Kohn-Sham potential (target) :   0.1785247835E-04 (   10.00000000    )
Absolute change in total energy (target)   :   0.1843043719E-05 (  0.1000000000E-07)
 
Time (CPU seconds) :      1725.18
 
+--------------------+
| Loop number :   32 |
+--------------------+
 
Energies :
 Fermi                       :     0.628367205801    
 sum of eigenvalues          :     -20472.4859027    
 electron kinetic            :      37845.3328622    
 core electron kinetic       :      36458.7256093    
 Coulomb                     :     -70614.6259727    
 Coulomb potential           :     -57419.8946952    
 nuclear-nuclear             :     -2759.54883054    
 electron-nuclear            :     -78290.2595891    
 Hartree                     :      10435.1824469    
 Madelung                    :     -41904.6786251    
 xc potential                :     -897.924069795    
 exchange                    :     -668.814617121    
 correlation                 :     -9.23809079759    
 total energy                :     -33447.3458183    
 
Density of states at Fermi energy :    40.75325664    
 (states/Hartree/unit cell)
 
Estimated indirect band gap :   0.3490002967E-03
 from k-point     37 to k-point    285
Estimated direct band gap   :   0.3290500160E-02
 at k-point     18
 
Charges :
 core                        :    92.00000000    
 valence                     :    58.00000000    
 interstitial                :    4.266641685    
 muffin-tins (core leakage)
  species :    1 (Re)
   atom    1                 :    72.86667916     (  0.1110077299E-05)
   atom    2                 :    72.86667916     (  0.1110077299E-05)
 total in muffin-tins        :    145.7333583    
 total calculated charge     :    149.9996526    
 total charge                :    150.0000000    
 error                       :   0.3474086021E-03
 
Wrote STATE.OUT
 
RMS change in Kohn-Sham potential (target) :   0.1305863233E-04 (   10.00000000    )
Absolute change in total energy (target)   :   0.3848763299E-06 (  0.1000000000E-07)
 
Time (CPU seconds) :      1780.33
 
+--------------------+
| Loop number :   33 |
+--------------------+
 
Energies :
 Fermi                       :     0.628367205408    
 sum of eigenvalues          :     -20472.4859029    
 electron kinetic            :      37845.3328635    
 core electron kinetic       :      36458.7256103    
 Coulomb                     :     -70614.6259734    
 Coulomb potential           :     -57419.8946966    
 nuclear-nuclear             :     -2759.54883054    
 electron-nuclear            :     -78290.2595891    
 Hartree                     :      10435.1824462    
 Madelung                    :     -41904.6786251    
 xc potential                :     -897.924069805    
 exchange                    :     -668.814617137    
 correlation                 :     -9.23809079769    
 total energy                :     -33447.3458178    
 
Density of states at Fermi energy :    40.75325705    
 (states/Hartree/unit cell)
 
Estimated indirect band gap :   0.3490002987E-03
 from k-point     37 to k-point    285
Estimated direct band gap   :   0.3290500163E-02
 at k-point     18
 
Charges :
 core                        :    92.00000000    
 valence                     :    58.00000000    
 interstitial                :    4.266641685    
 muffin-tins (core leakage)
  species :    1 (Re)
   atom    1                 :    72.86667916     (  0.1109965112E-05)
   atom    2                 :    72.86667916     (  0.1109965112E-05)
 total in muffin-tins        :    145.7333583    
 total calculated charge     :    149.9996526    
 total charge                :    150.0000000    
 error                       :   0.3474083441E-03
 
RMS change in Kohn-Sham potential (target) :   0.1734661594E-04 (   10.00000000    )
Absolute change in total energy (target)   :   0.6792688509E-06 (  0.1000000000E-07)
 
Time (CPU seconds) :      1836.62
 
+--------------------+
| Loop number :   34 |
+--------------------+
 
Energies :
 Fermi                       :     0.628367208805    
 sum of eigenvalues          :     -20472.4859021    
 electron kinetic            :      37845.3328635    
 core electron kinetic       :      36458.7256089    
 Coulomb                     :     -70614.6259729    
 Coulomb potential           :     -57419.8946957    
 nuclear-nuclear             :     -2759.54883054    
 electron-nuclear            :     -78290.2595891    
 Hartree                     :      10435.1824467    
 Madelung                    :     -41904.6786251    
 xc potential                :     -897.924069798    
 exchange                    :     -668.814617124    
 correlation                 :     -9.23809079774    
 total energy                :     -33447.3458174    
 
Density of states at Fermi energy :    40.75325639    
 (states/Hartree/unit cell)
 
Estimated indirect band gap :   0.3490002602E-03
 from k-point     37 to k-point    285
Estimated direct band gap   :   0.3290500195E-02
 at k-point     18
 
Charges :
 core                        :    92.00000000    
 valence                     :    58.00000000    
 interstitial                :    4.266641685    
 muffin-tins (core leakage)
  species :    1 (Re)
   atom    1                 :    72.86667916     (  0.1110043790E-05)
   atom    2                 :    72.86667916     (  0.1110043790E-05)
 total in muffin-tins        :    145.7333583    
 total calculated charge     :    149.9996526    
 total charge                :    150.0000000    
 error                       :   0.3474085258E-03
 
Wrote STATE.OUT
 
RMS change in Kohn-Sham potential (target) :   0.5186551382E-04 (   10.00000000    )
Absolute change in total energy (target)   :   0.5281472113E-06 (  0.1000000000E-07)
 
Time (CPU seconds) :      1893.30
 
+--------------------+
| Loop number :   35 |
+--------------------+
 
Energies :
 Fermi                       :     0.628367214197    
 sum of eigenvalues          :     -20472.4859008    
 electron kinetic            :      37845.3328648    
 core electron kinetic       :      36458.7256094    
 Coulomb                     :     -70614.6259730    
 Coulomb potential           :     -57419.8946958    
 nuclear-nuclear             :     -2759.54883054    
 electron-nuclear            :     -78290.2595891    
 Hartree                     :      10435.1824466    
 Madelung                    :     -41904.6786251    
 xc potential                :     -897.924069789    
 exchange                    :     -668.814617123    
 correlation                 :     -9.23809079744    
 total energy                :     -33447.3458161    
 
Density of states at Fermi energy :    40.75325455    
 (states/Hartree/unit cell)
 
Estimated indirect band gap :   0.3490001922E-03
 from k-point     37 to k-point    285
Estimated direct band gap   :   0.3290500244E-02
 at k-point     18
 
Charges :
 core                        :    92.00000000    
 valence                     :    58.00000000    
 interstitial                :    4.266641682    
 muffin-tins (core leakage)
  species :    1 (Re)
   atom    1                 :    72.86667916     (  0.1110081385E-05)
   atom    2                 :    72.86667916     (  0.1110081385E-05)
 total in muffin-tins        :    145.7333583    
 total calculated charge     :    149.9996526    
 total charge                :    150.0000000    
 error                       :   0.3474086112E-03
 
RMS change in Kohn-Sham potential (target) :   0.3878960374E-05 (   10.00000000    )
Absolute change in total energy (target)   :   0.1426298695E-05 (  0.1000000000E-07)
 
Time (CPU seconds) :      1949.21
 
+--------------------+
| Loop number :   36 |
+--------------------+
 
Energies :
 Fermi                       :     0.628367216360    
 sum of eigenvalues          :     -20472.4859004    
 electron kinetic            :      37845.3328646    
 core electron kinetic       :      36458.7256093    
 Coulomb                     :     -70614.6259727    
 Coulomb potential           :     -57419.8946953    
 nuclear-nuclear             :     -2759.54883054    
 electron-nuclear            :     -78290.2595891    
 Hartree                     :      10435.1824469    
 Madelung                    :     -41904.6786251    
 xc potential                :     -897.924069787    
 exchange                    :     -668.814617120    
 correlation                 :     -9.23809079752    
 total energy                :     -33447.3458160    
 
Density of states at Fermi energy :    40.75325423    
 (states/Hartree/unit cell)
 
Estimated indirect band gap :   0.3490001635E-03
 from k-point     37 to k-point    285
Estimated direct band gap   :   0.3290500271E-02
 at k-point     18
 
Charges :
 core                        :    92.00000000    
 valence                     :    58.00000000    
 interstitial                :    4.266641681    
 muffin-tins (core leakage)
  species :    1 (Re)
   atom    1                 :    72.86667916     (  0.1109999218E-05)
   atom    2                 :    72.86667916     (  0.1109999218E-05)
 total in muffin-tins        :    145.7333583    
 total calculated charge     :    149.9996526    
 total charge                :    150.0000000    
 error                       :   0.3474084543E-03
 
Wrote STATE.OUT
 
RMS change in Kohn-Sham potential (target) :   0.5725941402E-05 (   10.00000000    )
Absolute change in total energy (target)   :   0.4622852430E-06 (  0.1000000000E-07)
 
Time (CPU seconds) :      2004.85
 
+--------------------+
| Loop number :   37 |
+--------------------+
 
Energies :
 Fermi                       :     0.628367216209    
 sum of eigenvalues          :     -20472.4859005    
 electron kinetic            :      37845.3328655    
 core electron kinetic       :      36458.7256102    
 Coulomb                     :     -70614.6259731    
 Coulomb potential           :     -57419.8946961    
 nuclear-nuclear             :     -2759.54883054    
 electron-nuclear            :     -78290.2595891    
 Hartree                     :      10435.1824465    
 Madelung                    :     -41904.6786251    
 xc potential                :     -897.924069788    
 exchange                    :     -668.814617120    
 correlation                 :     -9.23809079852    
 total energy                :     -33447.3458156    
 
Density of states at Fermi energy :    40.75325434    
 (states/Hartree/unit cell)
 
Estimated indirect band gap :   0.3490001646E-03
 from k-point     37 to k-point    285
Estimated direct band gap   :   0.3290500271E-02
 at k-point     18
 
Charges :
 core                        :    92.00000000    
 valence                     :    58.00000000    
 interstitial                :    4.266641681    
 muffin-tins (core leakage)
  species :    1 (Re)
   atom    1                 :    72.86667916     (  0.1110178694E-05)
   atom    2                 :    72.86667916     (  0.1110178694E-05)
 total in muffin-tins        :    145.7333583    
 total calculated charge     :    149.9996526    
 total charge                :    150.0000000    
 error                       :   0.3474087887E-03
 
RMS change in Kohn-Sham potential (target) :   0.6923559939E-04 (   10.00000000    )
Absolute change in total energy (target)   :   0.5235124263E-06 (  0.1000000000E-07)
 
Time (CPU seconds) :      2060.10
 
+--------------------+
| Loop number :   38 |
+--------------------+
 
Energies :
 Fermi                       :     0.628367215555    
 sum of eigenvalues          :     -20472.4859006    
 electron kinetic            :      37845.3328655    
 core electron kinetic       :      36458.7256103    
 Coulomb                     :     -70614.6259733    
 Coulomb potential           :     -57419.8946964    
 nuclear-nuclear             :     -2759.54883054    
 electron-nuclear            :     -78290.2595891    
 Hartree                     :      10435.1824464    
 Madelung                    :     -41904.6786251    
 xc potential                :     -897.924069801    
 exchange                    :     -668.814617133    
 correlation                 :     -9.23809079706    
 total energy                :     -33447.3458156    
 
Density of states at Fermi energy :    40.75325437    
 (states/Hartree/unit cell)
 
Estimated indirect band gap :   0.3490001752E-03
 from k-point     37 to k-point    285
Estimated direct band gap   :   0.3290500261E-02
 at k-point     18
 
Charges :
 core                        :    92.00000000    
 valence                     :    58.00000000    
 interstitial                :    4.266641681    
 muffin-tins (core leakage)
  species :    1 (Re)
   atom    1                 :    72.86667916     (  0.1110188066E-05)
   atom    2                 :    72.86667916     (  0.1110188066E-05)
 total in muffin-tins        :    145.7333583    
 total calculated charge     :    149.9996526    
 total charge                :    150.0000000    
 error                       :   0.3474088035E-03
 
Wrote STATE.OUT
 
RMS change in Kohn-Sham potential (target) :   0.5662803340E-05 (   10.00000000    )
Absolute change in total energy (target)   :   0.9507493814E-07 (  0.1000000000E-07)
 
Time (CPU seconds) :      2115.69
 
+--------------------+
| Loop number :   39 |
+--------------------+
 
Energies :
 Fermi                       :     0.628367216043    
 sum of eigenvalues          :     -20472.4859005    
 electron kinetic            :      37845.3328649    
 core electron kinetic       :      36458.7256096    
 Coulomb                     :     -70614.6259729    
 Coulomb potential           :     -57419.8946956    
 nuclear-nuclear             :     -2759.54883054    
 electron-nuclear            :     -78290.2595891    
 Hartree                     :      10435.1824467    
 Madelung                    :     -41904.6786251    
 xc potential                :     -897.924069792    
 exchange                    :     -668.814617128    
 correlation                 :     -9.23809079676    
 total energy                :     -33447.3458159    
 
Density of states at Fermi energy :    40.75325464    
 (states/Hartree/unit cell)
 
Estimated indirect band gap :   0.3490001665E-03
 from k-point     37 to k-point    285
Estimated direct band gap   :   0.3290500274E-02
 at k-point     18
 
Charges :
 core                        :    92.00000000    
 valence                     :    58.00000000    
 interstitial                :    4.266641682    
 muffin-tins (core leakage)
  species :    1 (Re)
   atom    1                 :    72.86667916     (  0.1109966604E-05)
   atom    2                 :    72.86667916     (  0.1109966604E-05)
 total in muffin-tins        :    145.7333583    
 total calculated charge     :    149.9996526    
 total charge                :    150.0000000    
 error                       :   0.3474083593E-03
 
RMS change in Kohn-Sham potential (target) :   0.3824073946E-05 (   10.00000000    )
Absolute change in total energy (target)   :   0.2198794391E-06 (  0.1000000000E-07)
 
Time (CPU seconds) :      2171.04
 
+--------------------+
| Loop number :   40 |
+--------------------+
 
Energies :
 Fermi                       :     0.628367216329    
 sum of eigenvalues          :     -20472.4859004    
 electron kinetic            :      37845.3328653    
 core electron kinetic       :      36458.7256098    
 Coulomb                     :     -70614.6259730    
 Coulomb potential           :     -57419.8946959    
 nuclear-nuclear             :     -2759.54883054    
 electron-nuclear            :     -78290.2595891    
 Hartree                     :      10435.1824466    
 Madelung                    :     -41904.6786251    
 xc potential                :     -897.924069788    
 exchange                    :     -668.814617121    
 correlation                 :     -9.23809079783    
 total energy                :     -33447.3458157    
 
Density of states at Fermi energy :    40.75325480    
 (states/Hartree/unit cell)
 
Estimated indirect band gap :   0.3490001612E-03
 from k-point     37 to k-point    285
Estimated direct band gap   :   0.3290500282E-02
 at k-point     18
 
Charges :
 core                        :    92.00000000    
 valence                     :    58.00000000    
 interstitial                :    4.266641682    
 muffin-tins (core leakage)
  species :    1 (Re)
   atom    1                 :    72.86667916     (  0.1110171112E-05)
   atom    2                 :    72.86667916     (  0.1110171112E-05)
 total in muffin-tins        :    145.7333583    
 total calculated charge     :    149.9996526    
 total charge                :    150.0000000    
 error                       :   0.3474087966E-03
 
Wrote STATE.OUT
 
RMS change in Kohn-Sham potential (target) :   0.2820431585E-04 (   10.00000000    )
Absolute change in total energy (target)   :   0.1409134711E-06 (  0.1000000000E-07)
 
Time (CPU seconds) :      2227.95
 
+--------------------+
| Loop number :   41 |
+--------------------+
 
Energies :
 Fermi                       :     0.628367217105    
 sum of eigenvalues          :     -20472.4859003    
 electron kinetic            :      37845.3328657    
 core electron kinetic       :      36458.7256102    
 Coulomb                     :     -70614.6259731    
 Coulomb potential           :     -57419.8946962    
 nuclear-nuclear             :     -2759.54883054    
 electron-nuclear            :     -78290.2595891    
 Hartree                     :      10435.1824465    
 Madelung                    :     -41904.6786251    
 xc potential                :     -897.924069806    
 exchange                    :     -668.814617129    
 correlation                 :     -9.23809079766    
 total energy                :     -33447.3458154    
 
Density of states at Fermi energy :    40.75325416    
 (states/Hartree/unit cell)
 
Estimated indirect band gap :   0.3490001522E-03
 from k-point     37 to k-point    285
Estimated direct band gap   :   0.3290500284E-02
 at k-point     18
 
Charges :
 core                        :    92.00000000    
 valence                     :    58.00000000    
 interstitial                :    4.266641681    
 muffin-tins (core leakage)
  species :    1 (Re)
   atom    1                 :    72.86667916     (  0.1109613237E-05)
   atom    2                 :    72.86667916     (  0.1109613237E-05)
 total in muffin-tins        :    145.7333583    
 total calculated charge     :    149.9996526    
 total charge                :    150.0000000    
 error                       :   0.3474076816E-03
 
RMS change in Kohn-Sham potential (target) :   0.4237657695E-05 (   10.00000000    )
Absolute change in total energy (target)   :   0.3064633347E-06 (  0.1000000000E-07)
 
Time (CPU seconds) :      2283.67
 
+--------------------+
| Loop number :   42 |
+--------------------+
 
Energies :
 Fermi                       :     0.628367217076    
 sum of eigenvalues          :     -20472.4859003    
 electron kinetic            :      37845.3328648    
 core electron kinetic       :      36458.7256092    
 Coulomb                     :     -70614.6259727    
 Coulomb potential           :     -57419.8946953    
 nuclear-nuclear             :     -2759.54883054    
 electron-nuclear            :     -78290.2595891    
 Hartree                     :      10435.1824469    
 Madelung                    :     -41904.6786251    
 xc potential                :     -897.924069783    
 exchange                    :     -668.814617108    
 correlation                 :     -9.23809079862    
 total energy                :     -33447.3458158    
 
Density of states at Fermi energy :    40.75325525    
 (states/Hartree/unit cell)
 
Estimated indirect band gap :   0.3490001464E-03
 from k-point     37 to k-point    285
Estimated direct band gap   :   0.3290500303E-02
 at k-point     18
 
Charges :
 core                        :    92.00000000    
 valence                     :    58.00000000    
 interstitial                :    4.266641682    
 muffin-tins (core leakage)
  species :    1 (Re)
   atom    1                 :    72.86667916     (  0.1110066059E-05)
   atom    2                 :    72.86667916     (  0.1110066059E-05)
 total in muffin-tins        :    145.7333583    
 total calculated charge     :    149.9996526    
 total charge                :    150.0000000    
 error                       :   0.3474085675E-03
 
Wrote STATE.OUT
 
RMS change in Kohn-Sham potential (target) :   0.3021229409E-04 (   10.00000000    )
Absolute change in total energy (target)   :   0.3236418706E-06 (  0.1000000000E-07)
 
Time (CPU seconds) :      2338.88
 
+--------------------+
| Loop number :   43 |
+--------------------+
 
Energies :
 Fermi                       :     0.628367217383    
 sum of eigenvalues          :     -20472.4859002    
 electron kinetic            :      37845.3328648    
 core electron kinetic       :      36458.7256091    
 Coulomb                     :     -70614.6259727    
 Coulomb potential           :     -57419.8946952    
 nuclear-nuclear             :     -2759.54883054    
 electron-nuclear            :     -78290.2595891    
 Hartree                     :      10435.1824469    
 Madelung                    :     -41904.6786251    
 xc potential                :     -897.924069784    
 exchange                    :     -668.814617121    
 correlation                 :     -9.23809079704    
 total energy                :     -33447.3458158    
 
Density of states at Fermi energy :    40.75325507    
 (states/Hartree/unit cell)
 
Estimated indirect band gap :   0.3490001420E-03
 from k-point     37 to k-point    285
Estimated direct band gap   :   0.3290500307E-02
 at k-point     18
 
Charges :
 core                        :    92.00000000    
 valence                     :    58.00000000    
 interstitial                :    4.266641682    
 muffin-tins (core leakage)
  species :    1 (Re)
   atom    1                 :    72.86667916     (  0.1110193288E-05)
   atom    2                 :    72.86667916     (  0.1110193288E-05)
 total in muffin-tins        :    145.7333583    
 total calculated charge     :    149.9996526    
 total charge                :    150.0000000    
 error                       :   0.3474088416E-03
 
RMS change in Kohn-Sham potential (target) :   0.5374304868E-05 (   10.00000000    )
Absolute change in total energy (target)   :   0.1081571099E-06 (  0.1000000000E-07)
 
Time (CPU seconds) :      2394.93
 
+--------------------+
| Loop number :   44 |
+--------------------+
 
Energies :
 Fermi                       :     0.628367217523    
 sum of eigenvalues          :     -20472.4859002    
 electron kinetic            :      37845.3328659    
 core electron kinetic       :      36458.7256103    
 Coulomb                     :     -70614.6259732    
 Coulomb potential           :     -57419.8946964    
 nuclear-nuclear             :     -2759.54883054    
 electron-nuclear            :     -78290.2595891    
 Hartree                     :      10435.1824464    
 Madelung                    :     -41904.6786251    
 xc potential                :     -897.924069793    
 exchange                    :     -668.814617135    
 correlation                 :     -9.23809079568    
 total energy                :     -33447.3458153    
 
Density of states at Fermi energy :    40.75325488    
 (states/Hartree/unit cell)
 
Estimated indirect band gap :   0.3490001403E-03
 from k-point     37 to k-point    285
Estimated direct band gap   :   0.3290500307E-02
 at k-point     18
 
Charges :
 core                        :    92.00000000    
 valence                     :    58.00000000    
 interstitial                :    4.266641682    
 muffin-tins (core leakage)
  species :    1 (Re)
   atom    1                 :    72.86667916     (  0.1110224531E-05)
   atom    2                 :    72.86667916     (  0.1110224531E-05)
 total in muffin-tins        :    145.7333583    
 total calculated charge     :    149.9996526    
 total charge                :    150.0000000    
 error                       :   0.3474088760E-03
 
Wrote STATE.OUT
 
RMS change in Kohn-Sham potential (target) :   0.3372908546E-05 (   10.00000000    )
Absolute change in total energy (target)   :   0.5583569873E-06 (  0.1000000000E-07)
 
Time (CPU seconds) :      2450.94
 
+--------------------+
| Loop number :   45 |
+--------------------+
 
Energies :
 Fermi                       :     0.628367217673    
 sum of eigenvalues          :     -20472.4859002    
 electron kinetic            :      37845.3328651    
 core electron kinetic       :      36458.7256094    
 Coulomb                     :     -70614.6259728    
 Coulomb potential           :     -57419.8946955    
 nuclear-nuclear             :     -2759.54883054    
 electron-nuclear            :     -78290.2595891    
 Hartree                     :      10435.1824468    
 Madelung                    :     -41904.6786251    
 xc potential                :     -897.924069788    
 exchange                    :     -668.814617120    
 correlation                 :     -9.23809079801    
 total energy                :     -33447.3458157    
 
Density of states at Fermi energy :    40.75325468    
 (states/Hartree/unit cell)
 
Estimated indirect band gap :   0.3490001398E-03
 from k-point     37 to k-point    285
Estimated direct band gap   :   0.3290500307E-02
 at k-point     18
 
Charges :
 core                        :    92.00000000    
 valence                     :    58.00000000    
 interstitial                :    4.266641681    
 muffin-tins (core leakage)
  species :    1 (Re)
   atom    1                 :    72.86667916     (  0.1109985426E-05)
   atom    2                 :    72.86667916     (  0.1109985426E-05)
 total in muffin-tins        :    145.7333583    
 total calculated charge     :    149.9996526    
 total charge                :    150.0000000    
 error                       :   0.3474083889E-03
 
RMS change in Kohn-Sham potential (target) :   0.2537145875E-05 (   10.00000000    )
Absolute change in total energy (target)   :   0.2672386472E-06 (  0.1000000000E-07)
 
Time (CPU seconds) :      2507.39
 
+--------------------+
| Loop number :   46 |
+--------------------+
 
Energies :
 Fermi                       :     0.628367217739    
 sum of eigenvalues          :     -20472.4859002    
 electron kinetic            :      37845.3328645    
 core electron kinetic       :      36458.7256088    
 Coulomb                     :     -70614.6259725    
 Coulomb potential           :     -57419.8946949    
 nuclear-nuclear             :     -2759.54883054    
 electron-nuclear            :     -78290.2595891    
 Hartree                     :      10435.1824471    
 Madelung                    :     -41904.6786251    
 xc potential                :     -897.924069777    
 exchange                    :     -668.814617109    
 correlation                 :     -9.23809079866    
 total energy                :     -33447.3458160    
 
Density of states at Fermi energy :    40.75325451    
 (states/Hartree/unit cell)
 
Estimated indirect band gap :   0.3490001393E-03
 from k-point     37 to k-point    285
Estimated direct band gap   :   0.3290500305E-02
 at k-point     18
 
Charges :
 core                        :    92.00000000    
 valence                     :    58.00000000    
 interstitial                :    4.266641681    
 muffin-tins (core leakage)
  species :    1 (Re)
   atom    1                 :    72.86667916     (  0.1109930238E-05)
   atom    2                 :    72.86667916     (  0.1109930238E-05)
 total in muffin-tins        :    145.7333583    
 total calculated charge     :    149.9996526    
 total charge                :    150.0000000    
 error                       :   0.3474083142E-03
 
Wrote STATE.OUT
 
RMS change in Kohn-Sham potential (target) :   0.7936645882E-05 (   10.00000000    )
Absolute change in total energy (target)   :   0.3727764124E-06 (  0.1000000000E-07)
 
Time (CPU seconds) :      2562.77
 
+--------------------+
| Loop number :   47 |
+--------------------+
 
Energies :
 Fermi                       :     0.628367217869    
 sum of eigenvalues          :     -20472.4859002    
 electron kinetic            :      37845.3328656    
 core electron kinetic       :      36458.7256100    
 Coulomb                     :     -70614.6259731    
 Coulomb potential           :     -57419.8946960    
 nuclear-nuclear             :     -2759.54883054    
 electron-nuclear            :     -78290.2595891    
 Hartree                     :      10435.1824465    
 Madelung                    :     -41904.6786251    
 xc potential                :     -897.924069788    
 exchange                    :     -668.814617142    
 correlation                 :     -9.23809079489    
 total energy                :     -33447.3458154    
 
Density of states at Fermi energy :    40.75325412    
 (states/Hartree/unit cell)
 
Estimated indirect band gap :   0.3490001395E-03
 from k-point     37 to k-point    285
Estimated direct band gap   :   0.3290500299E-02
 at k-point     18
 
Charges :
 core                        :    92.00000000    
 valence                     :    58.00000000    
 interstitial                :    4.266641681    
 muffin-tins (core leakage)
  species :    1 (Re)
   atom    1                 :    72.86667916     (  0.1110101294E-05)
   atom    2                 :    72.86667916     (  0.1110101294E-05)
 total in muffin-tins        :    145.7333583    
 total calculated charge     :    149.9996526    
 total charge                :    150.0000000    
 error                       :   0.3474086184E-03
 
RMS change in Kohn-Sham potential (target) :   0.3168060499E-04 (   10.00000000    )
Absolute change in total energy (target)   :   0.4631583579E-06 (  0.1000000000E-07)
 
Time (CPU seconds) :      2617.82
 
+--------------------+
| Loop number :   48 |
+--------------------+
 
Energies :
 Fermi                       :     0.628367217999    
 sum of eigenvalues          :     -20472.4859002    
 electron kinetic            :      37845.3328653    
 core electron kinetic       :      36458.7256097    
 Coulomb                     :     -70614.6259729    
 Coulomb potential           :     -57419.8946957    
 nuclear-nuclear             :     -2759.54883054    
 electron-nuclear            :     -78290.2595891    
 Hartree                     :      10435.1824467    
 Madelung                    :     -41904.6786251    
 xc potential                :     -897.924069790    
 exchange                    :     -668.814617121    
 correlation                 :     -9.23809079767    
 total energy                :     -33447.3458155    
 
Density of states at Fermi energy :    40.75325423    
 (states/Hartree/unit cell)
 
Estimated indirect band gap :   0.3490001382E-03
 from k-point     37 to k-point    285
Estimated direct band gap   :   0.3290500304E-02
 at k-point     18
 
Charges :
 core                        :    92.00000000    
 valence                     :    58.00000000    
 interstitial                :    4.266641681    
 muffin-tins (core leakage)
  species :    1 (Re)
   atom    1                 :    72.86667916     (  0.1109986030E-05)
   atom    2                 :    72.86667916     (  0.1109986030E-05)
 total in muffin-tins        :    145.7333583    
 total calculated charge     :    149.9996526    
 total charge                :    150.0000000    
 error                       :   0.3474084135E-03
 
Wrote STATE.OUT
 
RMS change in Kohn-Sham potential (target) :   0.5761691010E-05 (   10.00000000    )
Absolute change in total energy (target)   :   0.4816683941E-08 (  0.1000000000E-07)
 
Convergence targets achieved
 
Time (CPU seconds) :      2673.18
 
+--------------------+
| Loop number :   49 |
+--------------------+
 
Energies :
 Fermi                       :     0.628367217945    
 sum of eigenvalues          :     -20472.4859001    
 electron kinetic            :      37845.3328656    
 core electron kinetic       :      36458.7256100    
 Coulomb                     :     -70614.6259731    
 Coulomb potential           :     -57419.8946960    
 nuclear-nuclear             :     -2759.54883054    
 electron-nuclear            :     -78290.2595891    
 Hartree                     :      10435.1824465    
 Madelung                    :     -41904.6786251    
 xc potential                :     -897.924069792    
 exchange                    :     -668.814617132    
 correlation                 :     -9.23809079691    
 total energy                :     -33447.3458154    
 
Density of states at Fermi energy :    40.75325435    
 (states/Hartree/unit cell)
 
Estimated indirect band gap :   0.3490001386E-03
 from k-point     37 to k-point    285
Estimated direct band gap   :   0.3290500305E-02
 at k-point     18
 
Charges :
 core                        :    92.00000000    
 valence                     :    58.00000000    
 interstitial                :    4.266641681    
 muffin-tins (core leakage)
  species :    1 (Re)
   atom    1                 :    72.86667916     (  0.1109970569E-05)
   atom    2                 :    72.86667916     (  0.1109970569E-05)
 total in muffin-tins        :    145.7333583    
 total calculated charge     :    149.9996526    
 total charge                :    150.0000000    
 error                       :   0.3474083706E-03
 
+------------------------------+
| Self-consistent loop stopped |
+------------------------------+
 
Wrote STATE.OUT
 
Timings (CPU seconds) :
 initialisation                        :         0.85
 Hamiltonian and overlap matrix set up :       556.97
 first-variational eigenvalue equation :       811.39
 charge density calculation            :       774.31
 potential calculation                 :       585.79
 total                                 :      2729.32
 
+----------------------------+
| Elk version 8.3.15 stopped |
+----------------------------+
