 
scale
 1.0
 
scale1
 1.0
 
scale2
 1.0
 
scale3
 1.0
 
avec
   6.141198327      -3.545622507       0.000000000    
   0.000000000       7.091245014       0.000000000    
   0.000000000       0.000000000       11.26104651    
 
atoms
   1                                    : nspecies
'Y.in'                                  : spfname
   2                                    : natoms; atpos, bfcmt below
    0.33333333    0.16666667    0.25000000    0.00000000  0.00000000  0.00000000
   -0.33333333   -0.16666667   -0.25000000    0.00000000  0.00000000  0.00000000
