  0.1521577483E-01
  0.1369501631E-01
  0.5883803006E-02
  0.2144291428E-02
  0.1157928349E-02
  0.5756145935E-03
  0.1275088537E-03
  0.1784810339E-04
  0.4474006741E-04
  0.8612757289E-04
  0.3818115362E-04
  0.1653324290E-03
  0.1480390852E-03
  0.1040772531E-03
  0.9866235484E-04
  0.7511660503E-05
  0.6269331448E-04
  0.5445159295E-03
  0.4408768204E-03
  0.2180723708E-03
  0.5057774249E-04
  0.1294075302E-04
  0.8973316688E-04
  0.1284165437E-03
  0.4655474674E-04
  0.5680603084E-05
  0.1573298640E-03
  0.1356070900E-03
  0.5719848800E-04
  0.4088004499E-04
  0.2099918113E-03
  0.3425999467E-04
  0.5892136192E-04
  0.1287845869E-03
  0.1399056658E-03
  0.1688658058E-03
  0.1395432309E-03
  0.1257705878E-03
  0.1809630972E-03
  0.2020872348E-03
  0.1187990525E-03
  0.1944647789E-03
  0.9461818938E-04
  0.9088273697E-04
  0.8889307519E-04
  0.8532970171E-04
  0.1314855415E-03
  0.6599193813E-04
  0.9131905724E-04
