+----------------------------+
| Elk version 8.3.15 started |
+----------------------------+
 
Date (YYYY-MM-DD) : 2022-01-30
Time (hh:mm:ss)   : 15:31:53
 
All units are atomic (Hartree, Bohr, etc.)
 
+-------------------------------------------------+
| Ground-state run starting from atomic densities |
+-------------------------------------------------+
 
Lattice vectors :
   3.611512599       3.611512599       0.000000000    
   3.611512599       0.000000000       3.611512599    
   0.000000000       3.611512599       3.611512599    
 
Reciprocal lattice vectors :
  0.8698827894      0.8698827894     -0.8698827894    
  0.8698827894     -0.8698827894      0.8698827894    
 -0.8698827894      0.8698827894      0.8698827894    
 
Unit cell volume      :    94.21008562    
Brillouin zone volume :    2.632947543    
 
Muffin-tin inner radius fraction :   0.1000000000E-01
 
Species :    1 (Pd)
 parameters loaded from : Pd.in
 name : palladium
 nuclear charge    :   -46.00000000    
 electronic charge :    46.00000000    
 atomic mass :    193991.7925    
 muffin-tin radius :    2.450000000    
 number of radial points in muffin-tin :   1000
 number on inner part of muffin-tin    :    723
 atomic positions (lattice), magnetic fields (Cartesian) :
   1 :   0.00000000  0.00000000  0.00000000    0.00000000  0.00000000  0.00000000
 
Total number of atoms per unit cell :    1
 
Spin treatment :
 spin-unpolarised
 
Number of Bravais lattice symmetries :   48
Number of crystal symmetries         :   48
Crystal has inversion symmetry
Real symmetric eigensolver will be used
 
k-point grid :     17    17    17
k-point offset :    0.000000000       0.000000000       0.000000000    
k-point set is reduced with full crystal symmetry group
Total number of k-points :      165
 
Muffin-tin radius times maximum |G+k| :    8.500000000    
 using gkmax = rgkmax / 2
Maximum |G+k| for APW functions       :    4.250000000    
Maximum (1/2)|G+k|²                   :    9.031250000    
Maximum |G| for potential and density :    34.00000000    
Constant for pseudocharge density :   21
Radial integration step length :    1
 
G-vector grid sizes :     60    60    60
Number of G-vectors :    62487
 
Maximum angular momentum used for
 APW functions                      :   10
 outer part of muffin-tin           :    8
 inner part of muffin-tin           :    1
 
Total nuclear charge    :   -46.00000000    
Total core charge       :    28.00000000    
Total valence charge    :    18.00000000    
Total excess charge     :    0.000000000    
Total electronic charge :    46.00000000    
 
Effective Wigner radius, rₛ :   0.7878018310    
 
Number of empty states         :   20
Total number of valence states :   30
Total number of core states    :   28
 
Conduction state local-orbitals added automatically
Total number of local-orbitals :  126
 
Using Libxc version 05.01.05
Exchange-correlation functional :    100   493   494
 exchange: mgga_x_rscan; correlation: mgga_c_rscan
 
Smearing type :    1
 Methfessel-Paxton order 1, Phys. Rev. B 40, 3616 (1989)
Smearing width :   0.1000000000E-02
Effective electronic temperature (K) :    315.7750248    
 
Mixing type :    1
 Adaptive linear mixing
 
Kohn-Sham potential initialised from atomic data
 
+------------------------------+
| Self-consistent loop started |
+------------------------------+
 
+--------------------+
| Loop number :    1 |
+--------------------+
 
Energies :
 Fermi                       :     0.100363771236    
 sum of eigenvalues          :     -3042.48976388    
 electron kinetic            :      5252.89010136    
 core electron kinetic       :      5113.92959335    
 Coulomb                     :     -10197.8322760    
 Coulomb potential           :     -8100.87465444    
 nuclear-nuclear             :     -523.667501943    
 electron-nuclear            :     -11247.4548937    
 Hartree                     :      1573.29011962    
 Madelung                    :     -6147.39494879    
 xc potential                :     -194.505210799    
 exchange                    :     -144.038268153    
 correlation                 :     -2.46716045968    
 total energy                :     -5091.44760326    
 
Density of states at Fermi energy :    80.84969745    
 (states/Hartree/unit cell)
 
Estimated indirect band gap :   0.2864426122E-03
 from k-point     17 to k-point    128
Estimated direct band gap   :   0.6984678130E-02
 at k-point     81
 
Charges :
 core                        :    28.00000000    
 valence                     :    18.00000000    
 interstitial                :    1.111379946    
 muffin-tins (core leakage)
  species :    1 (Pd)
   atom    1                 :    44.88862005     (  0.1215272860E-07)
 total in muffin-tins        :    44.88862005    
 total calculated charge     :    46.00040572    
 total charge                :    46.00000000    
 error                       :   0.4057199433E-03
 
Time (CPU seconds) :        13.03
 
+--------------------+
| Loop number :    2 |
+--------------------+
 
Energies :
 Fermi                       :     0.142224984265    
 sum of eigenvalues          :     -3038.19945913    
 electron kinetic            :      5256.65253445    
 core electron kinetic       :      5110.84553375    
 Coulomb                     :     -10194.3515850    
 Coulomb potential           :     -8100.53612604    
 nuclear-nuclear             :     -523.667501943    
 electron-nuclear            :     -11240.8320401    
 Hartree                     :      1570.14795704    
 Madelung                    :     -6144.08352201    
 xc potential                :     -194.315867541    
 exchange                    :     -143.894468303    
 correlation                 :     -2.46728712021    
 total energy                :     -5084.06080600    
 
Density of states at Fermi energy :    100.7942382    
 (states/Hartree/unit cell)
 
Estimated indirect band gap :   0.3674902690E-04
 from k-point     46 to k-point     63
Estimated direct band gap   :   0.6577383145E-02
 at k-point     81
 
Charges :
 core                        :    28.00000000    
 valence                     :    18.00000000    
 interstitial                :    1.139215294    
 muffin-tins (core leakage)
  species :    1 (Pd)
   atom    1                 :    44.86078471     (  0.1360319146E-07)
 total in muffin-tins        :    44.86078471    
 total calculated charge     :    46.00041078    
 total charge                :    46.00000000    
 error                       :   0.4107844339E-03
 
Wrote STATE.OUT
 
RMS change in Kohn-Sham potential (target) :   0.8966538817     (   10.00000000    )
Absolute change in total energy (target)   :    7.386797259     (  0.1000000000E-06)
 
Time (CPU seconds) :        23.02
 
+--------------------+
| Loop number :    3 |
+--------------------+
 
Energies :
 Fermi                       :     0.195609916996    
 sum of eigenvalues          :     -3032.87598918    
 electron kinetic            :      5261.13170217    
 core electron kinetic       :      5108.07775563    
 Coulomb                     :     -10190.3273505    
 Coulomb potential           :     -8099.89756528    
 nuclear-nuclear             :     -523.667501943    
 electron-nuclear            :     -11233.4221317    
 Hartree                     :      1566.76228324    
 Madelung                    :     -6140.37856782    
 xc potential                :     -194.110126076    
 exchange                    :     -143.739242811    
 correlation                 :     -2.46729705805    
 total energy                :     -5075.40218815    
 
Density of states at Fermi energy :    117.4460692    
 (states/Hartree/unit cell)
 
Estimated indirect band gap :   0.9362277262E-04
 from k-point    105 to k-point    146
Estimated direct band gap   :   0.6123049652E-02
 at k-point     81
 
Charges :
 core                        :    28.00000000    
 valence                     :    18.00000000    
 interstitial                :    1.164244287    
 muffin-tins (core leakage)
  species :    1 (Pd)
   atom    1                 :    44.83575571     (  0.1549467044E-07)
 total in muffin-tins        :    44.83575571    
 total calculated charge     :    46.00041527    
 total charge                :    46.00000000    
 error                       :   0.4152703428E-03
 
RMS change in Kohn-Sham potential (target) :   0.7630693091     (   10.00000000    )
Absolute change in total energy (target)   :    10.50531716     (  0.1000000000E-06)
 
Time (CPU seconds) :        33.07
 
+--------------------+
| Loop number :    4 |
+--------------------+
 
Energies :
 Fermi                       :     0.251867692166    
 sum of eigenvalues          :     -3027.51350615    
 electron kinetic            :      5265.43306186    
 core electron kinetic       :      5105.95842316    
 Coulomb                     :     -10186.6959500    
 Coulomb potential           :     -8099.00503967    
 nuclear-nuclear             :     -523.667501943    
 electron-nuclear            :     -11227.0518565    
 Hartree                     :      1564.02340840    
 Madelung                    :     -6137.19343017    
 xc potential                :     -193.941528334    
 exchange                    :     -143.613531274    
 correlation                 :     -2.46705892608    
 total energy                :     -5067.34347835    
 
Density of states at Fermi energy :    123.7863787    
 (states/Hartree/unit cell)
 
Estimated indirect band gap :   0.1328353623E-03
 from k-point     76 to k-point    105
Estimated direct band gap   :   0.5805022268E-02
 at k-point     81
 
Charges :
 core                        :    28.00000000    
 valence                     :    18.00000000    
 interstitial                :    1.177271582    
 muffin-tins (core leakage)
  species :    1 (Pd)
   atom    1                 :    44.82272842     (  0.1989213061E-07)
 total in muffin-tins        :    44.82272842    
 total calculated charge     :    46.00041891    
 total charge                :    46.00000000    
 error                       :   0.4189095435E-03
 
Wrote STATE.OUT
 
RMS change in Kohn-Sham potential (target) :   0.6074024306     (   10.00000000    )
Absolute change in total energy (target)   :    10.68503909     (  0.1000000000E-06)
 
Time (CPU seconds) :        43.88
 
+--------------------+
| Loop number :    5 |
+--------------------+
 
Energies :
 Fermi                       :     0.304307051285    
 sum of eigenvalues          :     -3022.82799511    
 electron kinetic            :      5269.07449964    
 core electron kinetic       :      5104.58343333    
 Coulomb                     :     -10183.9612076    
 Coulomb potential           :     -8098.07366924    
 nuclear-nuclear             :     -523.667501943    
 electron-nuclear            :     -11222.5137420    
 Hartree                     :      1562.22003639    
 Madelung                    :     -6134.92437295    
 xc potential                :     -193.828825510    
 exchange                    :     -143.530960766    
 correlation                 :     -2.46666195094    
 total energy                :     -5060.88433065    
 
Density of states at Fermi energy :    120.8996119    
 (states/Hartree/unit cell)
 
Estimated indirect band gap :   0.1833900861E-03
 from k-point     76 to k-point    105
Estimated direct band gap   :   0.5685596983E-02
 at k-point     81
 
Charges :
 core                        :    28.00000000    
 valence                     :    18.00000000    
 interstitial                :    1.179068494    
 muffin-tins (core leakage)
  species :    1 (Pd)
   atom    1                 :    44.82093151     (  0.1589314635E-07)
 total in muffin-tins        :    44.82093151    
 total calculated charge     :    46.00042139    
 total charge                :    46.00000000    
 error                       :   0.4213893119E-03
 
RMS change in Kohn-Sham potential (target) :   0.4491282605     (   10.00000000    )
Absolute change in total energy (target)   :    9.130407475     (  0.1000000000E-06)
 
Time (CPU seconds) :        53.76
 
+--------------------+
| Loop number :    6 |
+--------------------+
 
Energies :
 Fermi                       :     0.349088153557    
 sum of eigenvalues          :     -3019.14509525    
 electron kinetic            :      5271.93174331    
 core electron kinetic       :      5103.87951868    
 Coulomb                     :     -10182.1887390    
 Coulomb potential           :     -8097.31178340    
 nuclear-nuclear             :     -523.667501943    
 electron-nuclear            :     -11219.7306908    
 Hartree                     :      1561.20945370    
 Madelung                    :     -6133.53284734    
 xc potential                :     -193.765055161    
 exchange                    :     -143.485525398    
 correlation                 :     -2.46624697075    
 total energy                :     -5056.20876810    
 
Density of states at Fermi energy :    113.6803717    
 (states/Hartree/unit cell)
 
Estimated indirect band gap :   0.2003598614E-03
 from k-point     76 to k-point    146
Estimated direct band gap   :   0.5687441465E-02
 at k-point     81
 
Charges :
 core                        :    28.00000000    
 valence                     :    18.00000000    
 interstitial                :    1.174798414    
 muffin-tins (core leakage)
  species :    1 (Pd)
   atom    1                 :    44.82520159     (  0.1637157609E-07)
 total in muffin-tins        :    44.82520159    
 total calculated charge     :    46.00042288    
 total charge                :    46.00000000    
 error                       :   0.4228757705E-03
 
Wrote STATE.OUT
 
RMS change in Kohn-Sham potential (target) :   0.3066930916     (   10.00000000    )
Absolute change in total energy (target)   :    6.958164416     (  0.1000000000E-06)
 
Time (CPU seconds) :        63.83
 
+--------------------+
| Loop number :    7 |
+--------------------+
 
Energies :
 Fermi                       :     0.384625593459    
 sum of eigenvalues          :     -3016.48568300    
 electron kinetic            :      5274.07463556    
 core electron kinetic       :      5103.68128798    
 Coulomb                     :     -10181.1778666    
 Coulomb potential           :     -8096.82788558    
 nuclear-nuclear             :     -523.667501943    
 electron-nuclear            :     -11218.1928437    
 Hartree                     :      1560.68247904    
 Madelung                    :     -6132.76392377    
 xc potential                :     -193.732432978    
 exchange                    :     -143.463179002    
 correlation                 :     -2.46592311944    
 total energy                :     -5053.03233313    
 
Density of states at Fermi energy :    110.0499521    
 (states/Hartree/unit cell)
 
Estimated indirect band gap :   0.2606452738E-03
 from k-point    105 to k-point     46
Estimated direct band gap   :   0.5708883967E-02
 at k-point     81
 
Charges :
 core                        :    28.00000000    
 valence                     :    18.00000000    
 interstitial                :    1.169830770    
 muffin-tins (core leakage)
  species :    1 (Pd)
   atom    1                 :    44.83016923     (  0.1675506667E-07)
 total in muffin-tins        :    44.83016923    
 total calculated charge     :    46.00042367    
 total charge                :    46.00000000    
 error                       :   0.4236733969E-03
 
RMS change in Kohn-Sham potential (target) :   0.1926159090     (   10.00000000    )
Absolute change in total energy (target)   :    4.915976081     (  0.1000000000E-06)
 
Time (CPU seconds) :        74.23
 
+--------------------+
| Loop number :    8 |
+--------------------+
 
Energies :
 Fermi                       :     0.410688200325    
 sum of eigenvalues          :     -3014.71366301    
 electron kinetic            :      5275.60691071    
 core electron kinetic       :      5103.79005918    
 Coulomb                     :     -10180.6646838    
 Coulomb potential           :     -8096.60479882    
 nuclear-nuclear             :     -523.667501943    
 electron-nuclear            :     -11217.3895649    
 Hartree                     :      1560.39238306    
 Madelung                    :     -6132.36228441    
 xc potential                :     -193.715774901    
 exchange                    :     -143.452154359    
 correlation                 :     -2.46573521644    
 total energy                :     -5050.97566269    
 
Density of states at Fermi energy :    105.5453386    
 (states/Hartree/unit cell)
 
Estimated indirect band gap :   0.1463466070E-03
 from k-point    105 to k-point     54
Estimated direct band gap   :   0.5706709624E-02
 at k-point     81
 
Charges :
 core                        :    28.00000000    
 valence                     :    18.00000000    
 interstitial                :    1.167064986    
 muffin-tins (core leakage)
  species :    1 (Pd)
   atom    1                 :    44.83293501     (  0.1472701072E-07)
 total in muffin-tins        :    44.83293501    
 total calculated charge     :    46.00042413    
 total charge                :    46.00000000    
 error                       :   0.4241313383E-03
 
Wrote STATE.OUT
 
RMS change in Kohn-Sham potential (target) :   0.1109681684     (   10.00000000    )
Absolute change in total energy (target)   :    3.285664461     (  0.1000000000E-06)
 
Time (CPU seconds) :        84.75
 
+--------------------+
| Loop number :    9 |
+--------------------+
 
Energies :
 Fermi                       :     0.428027632703    
 sum of eigenvalues          :     -3013.64385970    
 electron kinetic            :      5276.61250371    
 core electron kinetic       :      5104.01184791    
 Coulomb                     :     -10180.4562943    
 Coulomb potential           :     -8096.54817268    
 nuclear-nuclear             :     -523.667501943    
 electron-nuclear            :     -11217.0294119    
 Hartree                     :      1560.24061963    
 Madelung                    :     -6132.18220792    
 xc potential                :     -193.708190733    
 exchange                    :     -143.447342262    
 correlation                 :     -2.46565117289    
 total energy                :     -5049.75678398    
 
Density of states at Fermi energy :    103.0009722    
 (states/Hartree/unit cell)
 
Estimated indirect band gap :   0.2556760895E-03
 from k-point    105 to k-point     46
Estimated direct band gap   :   0.5689791926E-02
 at k-point     81
 
Charges :
 core                        :    28.00000000    
 valence                     :    18.00000000    
 interstitial                :    1.166176085    
 muffin-tins (core leakage)
  species :    1 (Pd)
   atom    1                 :    44.83382391     (  0.1457967969E-07)
 total in muffin-tins        :    44.83382391    
 total calculated charge     :    46.00042442    
 total charge                :    46.00000000    
 error                       :   0.4244163018E-03
 
RMS change in Kohn-Sham potential (target) :   0.5830945774E-01 (   10.00000000    )
Absolute change in total energy (target)   :    2.040294821     (  0.1000000000E-06)
 
Time (CPU seconds) :        94.42
 
+--------------------+
| Loop number :   10 |
+--------------------+
 
Energies :
 Fermi                       :     0.438365116509    
 sum of eigenvalues          :     -3013.06547732    
 electron kinetic            :      5277.20438844    
 core electron kinetic       :      5104.21684727    
 Coulomb                     :     -10180.4081811    
 Coulomb potential           :     -8096.56403501    
 nuclear-nuclear             :     -523.667501943    
 electron-nuclear            :     -11216.9173234    
 Hartree                     :      1560.17664419    
 Madelung                    :     -6132.12616363    
 xc potential                :     -193.705830754    
 exchange                    :     -143.446058001    
 correlation                 :     -2.46562068371    
 total energy                :     -5049.11547138    
 
Density of states at Fermi energy :    102.0893998    
 (states/Hartree/unit cell)
 
Estimated indirect band gap :   0.2554494869E-03
 from k-point    105 to k-point     46
Estimated direct band gap   :   0.5672561933E-02
 at k-point     81
 
Charges :
 core                        :    28.00000000    
 valence                     :    18.00000000    
 interstitial                :    1.166061794    
 muffin-tins (core leakage)
  species :    1 (Pd)
   atom    1                 :    44.83393821     (  0.1447848064E-07)
 total in muffin-tins        :    44.83393821    
 total calculated charge     :    46.00042457    
 total charge                :    46.00000000    
 error                       :   0.4245714081E-03
 
Wrote STATE.OUT
 
RMS change in Kohn-Sham potential (target) :   0.2765443643E-01 (   10.00000000    )
Absolute change in total energy (target)   :    1.151386305     (  0.1000000000E-06)
 
Time (CPU seconds) :       104.84
 
+--------------------+
| Loop number :   11 |
+--------------------+
 
Energies :
 Fermi                       :     0.443862822941    
 sum of eigenvalues          :     -3012.78415507    
 electron kinetic            :      5277.51896811    
 core electron kinetic       :      5104.35914377    
 Coulomb                     :     -10180.4169816    
 Coulomb potential           :     -8096.59770214    
 nuclear-nuclear             :     -523.667501943    
 electron-nuclear            :     -11216.9012572    
 Hartree                     :      1560.15177755    
 Madelung                    :     -6132.11813057    
 xc potential                :     -193.705421038    
 exchange                    :     -143.445992924    
 correlation                 :     -2.46561382216    
 total energy                :     -5048.80962028    
 
Density of states at Fermi energy :    101.9188893    
 (states/Hartree/unit cell)
 
Estimated indirect band gap :   0.2556147133E-03
 from k-point    105 to k-point     46
Estimated direct band gap   :   0.5659304391E-02
 at k-point     81
 
Charges :
 core                        :    28.00000000    
 valence                     :    18.00000000    
 interstitial                :    1.166223750    
 muffin-tins (core leakage)
  species :    1 (Pd)
   atom    1                 :    44.83377625     (  0.1433878793E-07)
 total in muffin-tins        :    44.83377625    
 total calculated charge     :    46.00042465    
 total charge                :    46.00000000    
 error                       :   0.4246525201E-03
 
RMS change in Kohn-Sham potential (target) :   0.1177695806E-01 (   10.00000000    )
Absolute change in total energy (target)   :   0.5936976778     (  0.1000000000E-06)
 
Time (CPU seconds) :       115.09
 
+--------------------+
| Loop number :   12 |
+--------------------+
 
Energies :
 Fermi                       :     0.446430411247    
 sum of eigenvalues          :     -3012.66307548    
 electron kinetic            :      5277.66728336    
 core electron kinetic       :      5104.43928959    
 Coulomb                     :     -10180.4359261    
 Coulomb potential           :     -8096.62478127    
 nuclear-nuclear             :     -523.667501943    
 electron-nuclear            :     -11216.9120670    
 Hartree                     :      1560.14364287    
 Madelung                    :     -6132.12353544    
 xc potential                :     -193.705577574    
 exchange                    :     -143.446221702    
 correlation                 :     -2.46561390413    
 total energy                :     -5048.68047833    
 
Density of states at Fermi energy :    101.9371410    
 (states/Hartree/unit cell)
 
Estimated indirect band gap :   0.2557913982E-03
 from k-point    105 to k-point     46
Estimated direct band gap   :   0.5651456509E-02
 at k-point     81
 
Charges :
 core                        :    28.00000000    
 valence                     :    18.00000000    
 interstitial                :    1.166376703    
 muffin-tins (core leakage)
  species :    1 (Pd)
   atom    1                 :    44.83362330     (  0.1430933949E-07)
 total in muffin-tins        :    44.83362330    
 total calculated charge     :    46.00042469    
 total charge                :    46.00000000    
 error                       :   0.4246911760E-03
 
Wrote STATE.OUT
 
RMS change in Kohn-Sham potential (target) :   0.4469536695E-02 (   10.00000000    )
Absolute change in total energy (target)   :   0.2775663706     (  0.1000000000E-06)
 
Time (CPU seconds) :       125.56
 
+--------------------+
| Loop number :   13 |
+--------------------+
 
Energies :
 Fermi                       :     0.447468768849    
 sum of eigenvalues          :     -3012.61771190    
 electron kinetic            :      5277.72926116    
 core electron kinetic       :      5104.47787521    
 Coulomb                     :     -10180.4493230    
 Coulomb potential           :     -8096.64125105    
 nuclear-nuclear             :     -523.667501943    
 electron-nuclear            :     -11216.9223910    
 Hartree                     :      1560.14056999    
 Madelung                    :     -6132.12869746    
 xc potential                :     -193.705722012    
 exchange                    :     -143.446375079    
 correlation                 :     -2.46561519968    
 total energy                :     -5048.63205210    
 
Density of states at Fermi energy :    101.9889782    
 (states/Hartree/unit cell)
 
Estimated indirect band gap :   0.2559121774E-03
 from k-point    105 to k-point     46
Estimated direct band gap   :   0.5647411513E-02
 at k-point     81
 
Charges :
 core                        :    28.00000000    
 valence                     :    18.00000000    
 interstitial                :    1.166476477    
 muffin-tins (core leakage)
  species :    1 (Pd)
   atom    1                 :    44.83352352     (  0.1443012110E-07)
 total in muffin-tins        :    44.83352352    
 total calculated charge     :    46.00042471    
 total charge                :    46.00000000    
 error                       :   0.4247093514E-03
 
RMS change in Kohn-Sham potential (target) :   0.1528496359E-02 (   10.00000000    )
Absolute change in total energy (target)   :   0.1178178222     (  0.1000000000E-06)
 
Time (CPU seconds) :       135.81
 
+--------------------+
| Loop number :   14 |
+--------------------+
 
Energies :
 Fermi                       :     0.447819665908    
 sum of eigenvalues          :     -3012.60401963    
 electron kinetic            :      5277.75134093    
 core electron kinetic       :      5104.49351088    
 Coulomb                     :     -10180.4569208    
 Coulomb potential           :     -8096.64953512    
 nuclear-nuclear             :     -523.667501943    
 electron-nuclear            :     -11216.9293026    
 Hartree                     :      1560.13988374    
 Madelung                    :     -6132.13215324    
 xc potential                :     -193.705825430    
 exchange                    :     -143.446469724    
 correlation                 :     -2.46561590069    
 total energy                :     -5048.61766550    
 
Density of states at Fermi energy :    102.0113700    
 (states/Hartree/unit cell)
 
Estimated indirect band gap :   0.2559621696E-03
 from k-point    105 to k-point     46
Estimated direct band gap   :   0.5645779516E-02
 at k-point     81
 
Charges :
 core                        :    28.00000000    
 valence                     :    18.00000000    
 interstitial                :    1.166517052    
 muffin-tins (core leakage)
  species :    1 (Pd)
   atom    1                 :    44.83348295     (  0.1423375906E-07)
 total in muffin-tins        :    44.83348295    
 total calculated charge     :    46.00042472    
 total charge                :    46.00000000    
 error                       :   0.4247165109E-03
 
Wrote STATE.OUT
 
RMS change in Kohn-Sham potential (target) :   0.7116917143E-03 (   10.00000000    )
Absolute change in total energy (target)   :   0.4384105447E-01 (  0.1000000000E-06)
 
Time (CPU seconds) :       145.97
 
+--------------------+
| Loop number :   15 |
+--------------------+
 
Energies :
 Fermi                       :     0.447916977879    
 sum of eigenvalues          :     -3012.60089977    
 electron kinetic            :      5277.75840613    
 core electron kinetic       :      5104.49940382    
 Coulomb                     :     -10180.4602601    
 Coulomb potential           :     -8096.65345713    
 nuclear-nuclear             :     -523.667501943    
 electron-nuclear            :     -11216.9320592    
 Hartree                     :      1560.13930102    
 Madelung                    :     -6132.13353153    
 xc potential                :     -193.705848773    
 exchange                    :     -143.446491859    
 correlation                 :     -2.46561634094    
 total energy                :     -5048.61396216    
 
Density of states at Fermi energy :    102.0303345    
 (states/Hartree/unit cell)
 
Estimated indirect band gap :   0.2559905464E-03
 from k-point    105 to k-point     46
Estimated direct band gap   :   0.5645079031E-02
 at k-point     81
 
Charges :
 core                        :    28.00000000    
 valence                     :    18.00000000    
 interstitial                :    1.166539241    
 muffin-tins (core leakage)
  species :    1 (Pd)
   atom    1                 :    44.83346076     (  0.1427285312E-07)
 total in muffin-tins        :    44.83346076    
 total calculated charge     :    46.00042472    
 total charge                :    46.00000000    
 error                       :   0.4247196602E-03
 
RMS change in Kohn-Sham potential (target) :   0.3058360624E-03 (   10.00000000    )
Absolute change in total energy (target)   :   0.1466359795E-01 (  0.1000000000E-06)
 
Time (CPU seconds) :       156.00
 
+--------------------+
| Loop number :   16 |
+--------------------+
 
Energies :
 Fermi                       :     0.447934312895    
 sum of eigenvalues          :     -3012.60093277    
 electron kinetic            :      5277.75987778    
 core electron kinetic       :      5104.50086535    
 Coulomb                     :     -10180.4620572    
 Coulomb potential           :     -8096.65492278    
 nuclear-nuclear             :     -523.667501943    
 electron-nuclear            :     -11216.9341877    
 Hartree                     :      1560.13963246    
 Madelung                    :     -6132.13459580    
 xc potential                :     -193.705887764    
 exchange                    :     -143.446523190    
 correlation                 :     -2.46561633065    
 total energy                :     -5048.61431893    
 
Density of states at Fermi energy :    102.0259807    
 (states/Hartree/unit cell)
 
Estimated indirect band gap :   0.2559893271E-03
 from k-point    105 to k-point     46
Estimated direct band gap   :   0.5644992284E-02
 at k-point     81
 
Charges :
 core                        :    28.00000000    
 valence                     :    18.00000000    
 interstitial                :    1.166538292    
 muffin-tins (core leakage)
  species :    1 (Pd)
   atom    1                 :    44.83346171     (  0.1418678153E-07)
 total in muffin-tins        :    44.83346171    
 total calculated charge     :    46.00042472    
 total charge                :    46.00000000    
 error                       :   0.4247199163E-03
 
Wrote STATE.OUT
 
RMS change in Kohn-Sham potential (target) :   0.6657004849E-03 (   10.00000000    )
Absolute change in total energy (target)   :   0.3309132439E-02 (  0.1000000000E-06)
 
Time (CPU seconds) :       166.78
 
+--------------------+
| Loop number :   17 |
+--------------------+
 
Energies :
 Fermi                       :     0.447939060163    
 sum of eigenvalues          :     -3012.60087376    
 electron kinetic            :      5277.76068958    
 core electron kinetic       :      5104.50170571    
 Coulomb                     :     -10180.4622838    
 Coulomb potential           :     -8096.65570086    
 nuclear-nuclear             :     -523.667501943    
 electron-nuclear            :     -11216.9338629    
 Hartree                     :      1560.13908100    
 Madelung                    :     -6132.13443337    
 xc potential                :     -193.705862486    
 exchange                    :     -143.446503477    
 correlation                 :     -2.46561652895    
 total energy                :     -5048.61371422    
 
Density of states at Fermi energy :    102.0392931    
 (states/Hartree/unit cell)
 
Estimated indirect band gap :   0.2560026487E-03
 from k-point    105 to k-point     46
Estimated direct band gap   :   0.5644811324E-02
 at k-point     81
 
Charges :
 core                        :    28.00000000    
 valence                     :    18.00000000    
 interstitial                :    1.166548673    
 muffin-tins (core leakage)
  species :    1 (Pd)
   atom    1                 :    44.83345133     (  0.1425810936E-07)
 total in muffin-tins        :    44.83345133    
 total calculated charge     :    46.00042472    
 total charge                :    46.00000000    
 error                       :   0.4247207677E-03
 
RMS change in Kohn-Sham potential (target) :   0.1081046737E-03 (   10.00000000    )
Absolute change in total energy (target)   :   0.1431989702E-02 (  0.1000000000E-06)
 
Time (CPU seconds) :       177.09
 
+--------------------+
| Loop number :   18 |
+--------------------+
 
Energies :
 Fermi                       :     0.447937076766    
 sum of eigenvalues          :     -3012.60122032    
 electron kinetic            :      5277.76044668    
 core electron kinetic       :      5104.50168976    
 Coulomb                     :     -10180.4628209    
 Coulomb potential           :     -8096.65577571    
 nuclear-nuclear             :     -523.667501943    
 electron-nuclear            :     -11216.9348622    
 Hartree                     :      1560.13954322    
 Madelung                    :     -6132.13493302    
 xc potential                :     -193.705891282    
 exchange                    :     -143.446525953    
 correlation                 :     -2.46561637681    
 total energy                :     -5048.61451653    
 
Density of states at Fermi energy :    102.0290516    
 (states/Hartree/unit cell)
 
Estimated indirect band gap :   0.2559929800E-03
 from k-point    105 to k-point     46
Estimated direct band gap   :   0.5644922462E-02
 at k-point     81
 
Charges :
 core                        :    28.00000000    
 valence                     :    18.00000000    
 interstitial                :    1.166541094    
 muffin-tins (core leakage)
  species :    1 (Pd)
   atom    1                 :    44.83345891     (  0.1438383990E-07)
 total in muffin-tins        :    44.83345891    
 total calculated charge     :    46.00042472    
 total charge                :    46.00000000    
 error                       :   0.4247200984E-03
 
Wrote STATE.OUT
 
RMS change in Kohn-Sham potential (target) :   0.9689691851E-04 (   10.00000000    )
Absolute change in total energy (target)   :   0.4443094649E-03 (  0.1000000000E-06)
 
Time (CPU seconds) :       187.35
 
+--------------------+
| Loop number :   19 |
+--------------------+
 
Energies :
 Fermi                       :     0.447937424505    
 sum of eigenvalues          :     -3012.60120724    
 electron kinetic            :      5277.76054525    
 core electron kinetic       :      5104.50173761    
 Coulomb                     :     -10180.4627942    
 Coulomb potential           :     -8096.65586785    
 nuclear-nuclear             :     -523.667501943    
 electron-nuclear            :     -11216.9347168    
 Hartree                     :      1560.13942445    
 Madelung                    :     -6132.13486032    
 xc potential                :     -193.705884642    
 exchange                    :     -143.446520776    
 correlation                 :     -2.46561643303    
 total energy                :     -5048.61438621    
 
Density of states at Fermi energy :    102.0323650    
 (states/Hartree/unit cell)
 
Estimated indirect band gap :   0.2559962008E-03
 from k-point    105 to k-point     46
Estimated direct band gap   :   0.5644881940E-02
 at k-point     81
 
Charges :
 core                        :    28.00000000    
 valence                     :    18.00000000    
 interstitial                :    1.166543540    
 muffin-tins (core leakage)
  species :    1 (Pd)
   atom    1                 :    44.83345646     (  0.1424172424E-07)
 total in muffin-tins        :    44.83345646    
 total calculated charge     :    46.00042472    
 total charge                :    46.00000000    
 error                       :   0.4247204482E-03
 
RMS change in Kohn-Sham potential (target) :   0.4403619569E-03 (   10.00000000    )
Absolute change in total energy (target)   :   0.1924814842E-04 (  0.1000000000E-06)
 
Time (CPU seconds) :       197.97
 
+--------------------+
| Loop number :   20 |
+--------------------+
 
Energies :
 Fermi                       :     0.447937433881    
 sum of eigenvalues          :     -3012.60121047    
 electron kinetic            :      5277.76056152    
 core electron kinetic       :      5104.50174722    
 Coulomb                     :     -10180.4627982    
 Coulomb potential           :     -8096.65588808    
 nuclear-nuclear             :     -523.667501943    
 electron-nuclear            :     -11216.9347044    
 Hartree                     :      1560.13940815    
 Madelung                    :     -6132.13485413    
 xc potential                :     -193.705883906    
 exchange                    :     -143.446520147    
 correlation                 :     -2.46561644164    
 total energy                :     -5048.61437324    
 
Density of states at Fermi energy :    102.0328286    
 (states/Hartree/unit cell)
 
Estimated indirect band gap :   0.2559966754E-03
 from k-point    105 to k-point     46
Estimated direct band gap   :   0.5644874946E-02
 at k-point     81
 
Charges :
 core                        :    28.00000000    
 valence                     :    18.00000000    
 interstitial                :    1.166543897    
 muffin-tins (core leakage)
  species :    1 (Pd)
   atom    1                 :    44.83345610     (  0.1419615003E-07)
 total in muffin-tins        :    44.83345610    
 total calculated charge     :    46.00042472    
 total charge                :    46.00000000    
 error                       :   0.4247204532E-03
 
Wrote STATE.OUT
 
RMS change in Kohn-Sham potential (target) :   0.1349445400E-03 (   10.00000000    )
Absolute change in total energy (target)   :   0.1777530179E-04 (  0.1000000000E-06)
 
Time (CPU seconds) :       207.85
 
+--------------------+
| Loop number :   21 |
+--------------------+
 
Energies :
 Fermi                       :     0.447937409499    
 sum of eigenvalues          :     -3012.60121078    
 electron kinetic            :      5277.76056339    
 core electron kinetic       :      5104.50174749    
 Coulomb                     :     -10180.4627993    
 Coulomb potential           :     -8096.65589041    
 nuclear-nuclear             :     -523.667501943    
 electron-nuclear            :     -11216.9347044    
 Hartree                     :      1560.13940698    
 Madelung                    :     -6132.13485413    
 xc potential                :     -193.705883755    
 exchange                    :     -143.446520054    
 correlation                 :     -2.46561644385    
 total energy                :     -5048.61437245    
 
Density of states at Fermi energy :    102.0329062    
 (states/Hartree/unit cell)
 
Estimated indirect band gap :   0.2559967637E-03
 from k-point    105 to k-point     46
Estimated direct band gap   :   0.5644873192E-02
 at k-point     81
 
Charges :
 core                        :    28.00000000    
 valence                     :    18.00000000    
 interstitial                :    1.166543966    
 muffin-tins (core leakage)
  species :    1 (Pd)
   atom    1                 :    44.83345603     (  0.1431568109E-07)
 total in muffin-tins        :    44.83345603    
 total calculated charge     :    46.00042472    
 total charge                :    46.00000000    
 error                       :   0.4247204014E-03
 
RMS change in Kohn-Sham potential (target) :   0.8567912825E-04 (   10.00000000    )
Absolute change in total energy (target)   :   0.5236861398E-05 (  0.1000000000E-06)
 
Time (CPU seconds) :       218.15
 
+--------------------+
| Loop number :   22 |
+--------------------+
 
Energies :
 Fermi                       :     0.447937381050    
 sum of eigenvalues          :     -3012.60121035    
 electron kinetic            :      5277.76056204    
 core electron kinetic       :      5104.50174604    
 Coulomb                     :     -10180.4627984    
 Coulomb potential           :     -8096.65588851    
 nuclear-nuclear             :     -523.667501943    
 electron-nuclear            :     -11216.9347044    
 Hartree                     :      1560.13940793    
 Madelung                    :     -6132.13485413    
 xc potential                :     -193.705883880    
 exchange                    :     -143.446520118    
 correlation                 :     -2.46561644372    
 total energy                :     -5048.61437291    
 
Density of states at Fermi energy :    102.0328651    
 (states/Hartree/unit cell)
 
Estimated indirect band gap :   0.2559967317E-03
 from k-point    105 to k-point     46
Estimated direct band gap   :   0.5644873221E-02
 at k-point     81
 
Charges :
 core                        :    28.00000000    
 valence                     :    18.00000000    
 interstitial                :    1.166543948    
 muffin-tins (core leakage)
  species :    1 (Pd)
   atom    1                 :    44.83345605     (  0.1437948427E-07)
 total in muffin-tins        :    44.83345605    
 total calculated charge     :    46.00042472    
 total charge                :    46.00000000    
 error                       :   0.4247202878E-03
 
Wrote STATE.OUT
 
RMS change in Kohn-Sham potential (target) :   0.2738218979E-03 (   10.00000000    )
Absolute change in total energy (target)   :   0.8480337783E-06 (  0.1000000000E-06)
 
Time (CPU seconds) :       228.35
 
+--------------------+
| Loop number :   23 |
+--------------------+
 
Energies :
 Fermi                       :     0.447937360230    
 sum of eigenvalues          :     -3012.60120965    
 electron kinetic            :      5277.76056104    
 core electron kinetic       :      5104.50174506    
 Coulomb                     :     -10180.4627975    
 Coulomb potential           :     -8096.65588674    
 nuclear-nuclear             :     -523.667501943    
 electron-nuclear            :     -11216.9347044    
 Hartree                     :      1560.13940882    
 Madelung                    :     -6132.13485413    
 xc potential                :     -193.705883946    
 exchange                    :     -143.446520142    
 correlation                 :     -2.46561644367    
 total energy                :     -5048.61437305    
 
Density of states at Fermi energy :    102.0328459    
 (states/Hartree/unit cell)
 
Estimated indirect band gap :   0.2559967130E-03
 from k-point    105 to k-point     46
Estimated direct band gap   :   0.5644873340E-02
 at k-point     81
 
Charges :
 core                        :    28.00000000    
 valence                     :    18.00000000    
 interstitial                :    1.166543943    
 muffin-tins (core leakage)
  species :    1 (Pd)
   atom    1                 :    44.83345606     (  0.1431419960E-07)
 total in muffin-tins        :    44.83345606    
 total calculated charge     :    46.00042472    
 total charge                :    46.00000000    
 error                       :   0.4247203787E-03
 
RMS change in Kohn-Sham potential (target) :   0.1332789909E-03 (   10.00000000    )
Absolute change in total energy (target)   :   0.7630205801E-07 (  0.1000000000E-06)
 
Convergence targets achieved
 
Time (CPU seconds) :       238.22
 
+--------------------+
| Loop number :   24 |
+--------------------+
 
Energies :
 Fermi                       :     0.447937345689    
 sum of eigenvalues          :     -3012.60120923    
 electron kinetic            :      5277.76056064    
 core electron kinetic       :      5104.50174492    
 Coulomb                     :     -10180.4627971    
 Coulomb potential           :     -8096.65588595    
 nuclear-nuclear             :     -523.667501943    
 electron-nuclear            :     -11216.9347044    
 Hartree                     :      1560.13940921    
 Madelung                    :     -6132.13485413    
 xc potential                :     -193.705883909    
 exchange                    :     -143.446520149    
 correlation                 :     -2.46561644302    
 total energy                :     -5048.61437306    
 
Density of states at Fermi energy :    102.0328457    
 (states/Hartree/unit cell)
 
Estimated indirect band gap :   0.2559967093E-03
 from k-point    105 to k-point     46
Estimated direct band gap   :   0.5644873395E-02
 at k-point     81
 
Charges :
 core                        :    28.00000000    
 valence                     :    18.00000000    
 interstitial                :    1.166543950    
 muffin-tins (core leakage)
  species :    1 (Pd)
   atom    1                 :    44.83345605     (  0.1424444562E-07)
 total in muffin-tins        :    44.83345605    
 total calculated charge     :    46.00042472    
 total charge                :    46.00000000    
 error                       :   0.4247204150E-03
 
Wrote STATE.OUT
 
+------------------------------+
| Self-consistent loop stopped |
+------------------------------+
 
Wrote STATE.OUT
 
Timings (CPU seconds) :
 initialisation                        :         0.98
 Hamiltonian and overlap matrix set up :        51.66
 first-variational eigenvalue equation :        67.58
 charge density calculation            :        33.81
 potential calculation                 :        95.11
 total                                 :       249.13
 
+----------------------------+
| Elk version 8.3.15 stopped |
+----------------------------+
