 
+----------------------------+
| Real-space lattice vectors |
+----------------------------+
 
vector a1 :    3.611512599       3.611512599       0.000000000    
vector a2 :    3.611512599       0.000000000       3.611512599    
vector a3 :    0.000000000       3.611512599       3.611512599    
 
Stored column-wise as a matrix :
   3.611512599       3.611512599       0.000000000    
   3.611512599       0.000000000       3.611512599    
   0.000000000       3.611512599       3.611512599    
 
Inverse of matrix :
  0.1384461458      0.1384461458     -0.1384461458    
  0.1384461458     -0.1384461458      0.1384461458    
 -0.1384461458      0.1384461458      0.1384461458    
 
Unit cell volume :    94.21008562    
 
 
+----------------------------------+
| Reciprocal-space lattice vectors |
+----------------------------------+
 
vector b1 :   0.8698827894      0.8698827894     -0.8698827894    
vector b2 :   0.8698827894     -0.8698827894      0.8698827894    
vector b3 :  -0.8698827894      0.8698827894      0.8698827894    
 
Stored column-wise as a matrix :
  0.8698827894      0.8698827894     -0.8698827894    
  0.8698827894     -0.8698827894      0.8698827894    
 -0.8698827894      0.8698827894      0.8698827894    
 
Inverse of matrix :
  0.5747900822      0.5747900822       0.000000000    
  0.5747900822       0.000000000      0.5747900822    
   0.000000000      0.5747900822      0.5747900822    
 
Brillouin zone volume :    2.632947543    
