    -17996.8048348    
    -17968.9942605    
    -17937.0970985    
    -17909.0604133    
    -17889.4652220    
    -17878.1775981    
    -17872.1141122    
    -17868.6636030    
    -17866.5812687    
    -17865.4024727    
    -17864.8122943    
    -17864.5537237    
    -17864.4586443    
    -17864.4308415    
    -17864.4257679    
    -17864.4258751    
    -17864.4266133    
    -17864.4268574    
    -17864.4270093    
    -17864.4270066    
    -17864.4270197    
    -17864.4270219    
    -17864.4270229    
    -17864.4270232    
    -17864.4270236    
    -17864.4270235    
    -17864.4270237    
