   1.028286056    
  0.8512588583    
  0.4197177839    
  0.1575007768    
  0.4570090731E-01
  0.1319370454E-02
  0.8288900059E-03
  0.5163110850E-03
  0.3311249852E-03
  0.1366473720E-02
  0.3125803530E-04
  0.7783511328E-04
  0.7482497642E-04
  0.2104031372E-03
  0.2468257400E-04
  0.3188340916E-03
  0.2928831616E-03
  0.5295203541E-04
  0.2606051692E-04
  0.1025589176E-03
  0.8629585951E-03
  0.2719172472E-04
  0.6848225080E-03
  0.2677418477E-04
  0.2866161454E-04
  0.3168314094E-03
  0.1360780340E-03
  0.2948866628E-03
  0.3162217493E-03
  0.6711423608E-04
  0.1760845150E-03
  0.8034948620E-04
  0.5503973861E-04
  0.2192735119E-04
  0.8068981733E-03
  0.1954207812E-03
  0.1771615021E-03
  0.1267050149E-03
  0.6432247544E-03
  0.1523726791E-03
  0.8103185597E-03
  0.5528034947E-04
  0.2601614838E-04
  0.7765666111E-04
