 
+----------------------------+
| Real-space lattice vectors |
+----------------------------+
 
vector a1 :    5.422886076       5.422886076       0.000000000    
vector a2 :    5.422886076       0.000000000       5.422886076    
vector a3 :    0.000000000       5.422886076       5.422886076    
 
Stored column-wise as a matrix :
   5.422886076       5.422886076       0.000000000    
   5.422886076       0.000000000       5.422886076    
   0.000000000       5.422886076       5.422886076    
 
Inverse of matrix :
  0.9220182630E-01  0.9220182630E-01 -0.9220182630E-01
  0.9220182630E-01 -0.9220182630E-01  0.9220182630E-01
 -0.9220182630E-01  0.9220182630E-01  0.9220182630E-01
 
Unit cell volume :    318.9491420    
 
 
+----------------------------------+
| Reciprocal-space lattice vectors |
+----------------------------------+
 
vector b1 :   0.5793211603      0.5793211603     -0.5793211603    
vector b2 :   0.5793211603     -0.5793211603      0.5793211603    
vector b3 :  -0.5793211603      0.5793211603      0.5793211603    
 
Stored column-wise as a matrix :
  0.5793211603      0.5793211603     -0.5793211603    
  0.5793211603     -0.5793211603      0.5793211603    
 -0.5793211603      0.5793211603      0.5793211603    
 
Inverse of matrix :
  0.8630791248      0.8630791248       0.000000000    
  0.8630791248       0.000000000      0.8630791248    
   0.000000000      0.8630791248      0.8630791248    
 
Brillouin zone volume :   0.7777108660    
