 
Species :    1 (Tc), atom :    1
 APW functions :
  l =  0, energy derivative =  0 :   0.4581004962    
  l =  1, energy derivative =  0 :   0.4581004962    
  l =  2, energy derivative =  0 :   0.4581004962    
  l =  3, energy derivative =  0 :   0.4581004962    
  l =  4, energy derivative =  0 :   0.4581004962    
  l =  5, energy derivative =  0 :   0.4581004962    
  l =  6, energy derivative =  0 :   0.4581004962    
  l =  7, energy derivative =  0 :   0.4581004962    
  l =  8, energy derivative =  0 :   0.4581004962    
  l =  9, energy derivative =  0 :   0.4581004962    
  l = 10, energy derivative =  0 :   0.4581004962    
 local-orbital functions :
  l.o. =  1, l =  0, energy derivative =  0 :   0.4581004962    
  l.o. =  1, l =  0, energy derivative =  1 :   0.4581004962    
  l.o. =  2, l =  1, energy derivative =  0 :   0.4581004962    
  l.o. =  2, l =  1, energy derivative =  1 :   0.4581004962    
  l.o. =  3, l =  2, energy derivative =  0 :   0.4581004962    
  l.o. =  3, l =  2, energy derivative =  1 :   0.4581004962    
  l.o. =  4, l =  0, energy derivative =  0 :   0.4581004962    
  l.o. =  4, l =  0, energy derivative =  0 :   -1.899066671    
  l.o. =  5, l =  1, energy derivative =  0 :   0.4581004962    
  l.o. =  5, l =  1, energy derivative =  0 :  -0.8637516107    
  l.o. =  6, l =  2, energy derivative =  0 :   0.4581004962    
  l.o. =  6, l =  2, energy derivative =  0 :   0.6398738940    
  l.o. =  7, l =  3, energy derivative =  0 :   0.4581004962    
  l.o. =  7, l =  3, energy derivative =  1 :   0.4581004962    
  l.o. =  8, l =  4, energy derivative =  0 :   0.4581004962    
  l.o. =  8, l =  4, energy derivative =  1 :   0.4581004962    
  l.o. =  9, l =  5, energy derivative =  0 :   0.4581004962    
  l.o. =  9, l =  5, energy derivative =  1 :   0.4581004962    
  l.o. = 10, l =  0, energy derivative =  0 :    1.621285370    
  l.o. = 10, l =  0, energy derivative =  1 :    1.621285370    
  l.o. = 10, l =  0, energy derivative =  2 :    1.621285370    
  l.o. = 11, l =  1, energy derivative =  0 :    2.229989673    
  l.o. = 11, l =  1, energy derivative =  1 :    2.229989673    
  l.o. = 11, l =  1, energy derivative =  2 :    2.229989673    
  l.o. = 12, l =  2, energy derivative =  0 :   0.6398738940    
  l.o. = 12, l =  2, energy derivative =  1 :   0.6398738940    
  l.o. = 12, l =  2, energy derivative =  2 :   0.6398738940    
  l.o. = 13, l =  3, energy derivative =  0 :    2.092819390    
  l.o. = 13, l =  3, energy derivative =  1 :    2.092819390    
  l.o. = 13, l =  3, energy derivative =  2 :    2.092819390    
  l.o. = 14, l =  4, energy derivative =  0 :    3.847759717    
  l.o. = 14, l =  4, energy derivative =  1 :    3.847759717    
  l.o. = 14, l =  4, energy derivative =  2 :    3.847759717    
  l.o. = 15, l =  5, energy derivative =  0 :    5.530522411    
  l.o. = 15, l =  5, energy derivative =  1 :    5.530522411    
  l.o. = 15, l =  5, energy derivative =  2 :    5.530522411    
  l.o. = 16, l =  6, energy derivative =  0 :    7.340754304    
  l.o. = 16, l =  6, energy derivative =  1 :    7.340754304    
  l.o. = 16, l =  6, energy derivative =  2 :    7.340754304    
  l.o. = 17, l =  7, energy derivative =  0 :    9.315600143    
  l.o. = 17, l =  7, energy derivative =  1 :    9.315600143    
  l.o. = 17, l =  7, energy derivative =  2 :    9.315600143    
  l.o. = 18, l =  8, energy derivative =  0 :    11.46776419    
  l.o. = 18, l =  8, energy derivative =  1 :    11.46776419    
  l.o. = 18, l =  8, energy derivative =  2 :    11.46776419    
 
Species :    1 (Tc), atom :    2
 APW functions :
  l =  0, energy derivative =  0 :   0.4581004962    
  l =  1, energy derivative =  0 :   0.4581004962    
  l =  2, energy derivative =  0 :   0.4581004962    
  l =  3, energy derivative =  0 :   0.4581004962    
  l =  4, energy derivative =  0 :   0.4581004962    
  l =  5, energy derivative =  0 :   0.4581004962    
  l =  6, energy derivative =  0 :   0.4581004962    
  l =  7, energy derivative =  0 :   0.4581004962    
  l =  8, energy derivative =  0 :   0.4581004962    
  l =  9, energy derivative =  0 :   0.4581004962    
  l = 10, energy derivative =  0 :   0.4581004962    
 local-orbital functions :
  l.o. =  1, l =  0, energy derivative =  0 :   0.4581004962    
  l.o. =  1, l =  0, energy derivative =  1 :   0.4581004962    
  l.o. =  2, l =  1, energy derivative =  0 :   0.4581004962    
  l.o. =  2, l =  1, energy derivative =  1 :   0.4581004962    
  l.o. =  3, l =  2, energy derivative =  0 :   0.4581004962    
  l.o. =  3, l =  2, energy derivative =  1 :   0.4581004962    
  l.o. =  4, l =  0, energy derivative =  0 :   0.4581004962    
  l.o. =  4, l =  0, energy derivative =  0 :   -1.899066671    
  l.o. =  5, l =  1, energy derivative =  0 :   0.4581004962    
  l.o. =  5, l =  1, energy derivative =  0 :  -0.8637516107    
  l.o. =  6, l =  2, energy derivative =  0 :   0.4581004962    
  l.o. =  6, l =  2, energy derivative =  0 :   0.6398738940    
  l.o. =  7, l =  3, energy derivative =  0 :   0.4581004962    
  l.o. =  7, l =  3, energy derivative =  1 :   0.4581004962    
  l.o. =  8, l =  4, energy derivative =  0 :   0.4581004962    
  l.o. =  8, l =  4, energy derivative =  1 :   0.4581004962    
  l.o. =  9, l =  5, energy derivative =  0 :   0.4581004962    
  l.o. =  9, l =  5, energy derivative =  1 :   0.4581004962    
  l.o. = 10, l =  0, energy derivative =  0 :    1.621285370    
  l.o. = 10, l =  0, energy derivative =  1 :    1.621285370    
  l.o. = 10, l =  0, energy derivative =  2 :    1.621285370    
  l.o. = 11, l =  1, energy derivative =  0 :    2.229989673    
  l.o. = 11, l =  1, energy derivative =  1 :    2.229989673    
  l.o. = 11, l =  1, energy derivative =  2 :    2.229989673    
  l.o. = 12, l =  2, energy derivative =  0 :   0.6398738940    
  l.o. = 12, l =  2, energy derivative =  1 :   0.6398738940    
  l.o. = 12, l =  2, energy derivative =  2 :   0.6398738940    
  l.o. = 13, l =  3, energy derivative =  0 :    2.092819390    
  l.o. = 13, l =  3, energy derivative =  1 :    2.092819390    
  l.o. = 13, l =  3, energy derivative =  2 :    2.092819390    
  l.o. = 14, l =  4, energy derivative =  0 :    3.847759717    
  l.o. = 14, l =  4, energy derivative =  1 :    3.847759717    
  l.o. = 14, l =  4, energy derivative =  2 :    3.847759717    
  l.o. = 15, l =  5, energy derivative =  0 :    5.530522411    
  l.o. = 15, l =  5, energy derivative =  1 :    5.530522411    
  l.o. = 15, l =  5, energy derivative =  2 :    5.530522411    
  l.o. = 16, l =  6, energy derivative =  0 :    7.340754304    
  l.o. = 16, l =  6, energy derivative =  1 :    7.340754304    
  l.o. = 16, l =  6, energy derivative =  2 :    7.340754304    
  l.o. = 17, l =  7, energy derivative =  0 :    9.315600143    
  l.o. = 17, l =  7, energy derivative =  1 :    9.315600143    
  l.o. = 17, l =  7, energy derivative =  2 :    9.315600143    
  l.o. = 18, l =  8, energy derivative =  0 :    11.46776419    
  l.o. = 18, l =  8, energy derivative =  1 :    11.46776419    
  l.o. = 18, l =  8, energy derivative =  2 :    11.46776419    
