 
+----------------------------+
| Real-space lattice vectors |
+----------------------------+
 
vector a1 :    4.580218303      -2.644390270       0.000000000    
vector a2 :    0.000000000       5.288780540       0.000000000    
vector a3 :    0.000000000       0.000000000       8.615283384    
 
Stored column-wise as a matrix :
   4.580218303       0.000000000       0.000000000    
  -2.644390270       5.288780540       0.000000000    
   0.000000000       0.000000000       8.615283384    
 
Inverse of matrix :
  0.2183302048       0.000000000       0.000000000    
  0.1091651024      0.1890795038       0.000000000    
   0.000000000       0.000000000      0.1160727924    
 
Unit cell volume :    208.6946382    
 
 
+----------------------------------+
| Reciprocal-space lattice vectors |
+----------------------------------+
 
vector b1 :    1.371809135       0.000000000       0.000000000    
vector b2 :   0.6859045676       1.188021560       0.000000000    
vector b3 :    0.000000000       0.000000000      0.7293068640    
 
Stored column-wise as a matrix :
   1.371809135      0.6859045676       0.000000000    
   0.000000000       1.188021560       0.000000000    
   0.000000000       0.000000000      0.7293068640    
 
Inverse of matrix :
  0.7289643833     -0.4208677830       0.000000000    
   0.000000000      0.8417355658       0.000000000    
   0.000000000       0.000000000       1.371164937    
 
Brillouin zone volume :    1.188579714    
