   297 : nkpt; k-point, vkl, wkpt, nmat below
     1   0.000000000       0.000000000       0.000000000      0.2035416243E-03     529
     2  0.5882352941E-01   0.000000000       0.000000000      0.1221249746E-02     523
     3  0.1176470588       0.000000000       0.000000000      0.1221249746E-02     520
     4  0.1764705882       0.000000000       0.000000000      0.1221249746E-02     514
     5  0.2352941176       0.000000000       0.000000000      0.1221249746E-02     518
     6  0.2941176471       0.000000000       0.000000000      0.1221249746E-02     514
     7  0.3529411765       0.000000000       0.000000000      0.1221249746E-02     512
     8  0.4117647059       0.000000000       0.000000000      0.1221249746E-02     516
     9  0.4705882353       0.000000000       0.000000000      0.1221249746E-02     512
    10  0.5882352941E-01  0.5882352941E-01   0.000000000      0.1221249746E-02     519
    11  0.1176470588      0.5882352941E-01   0.000000000      0.2442499491E-02     523
    12  0.1764705882      0.5882352941E-01   0.000000000      0.2442499491E-02     521
    13  0.2352941176      0.5882352941E-01   0.000000000      0.2442499491E-02     518
    14  0.2941176471      0.5882352941E-01   0.000000000      0.2442499491E-02     512
    15  0.3529411765      0.5882352941E-01   0.000000000      0.2442499491E-02     514
    16  0.4117647059      0.5882352941E-01   0.000000000      0.2442499491E-02     515
    17  0.4705882353      0.5882352941E-01   0.000000000      0.1221249746E-02     512
    18  0.1176470588      0.1176470588       0.000000000      0.1221249746E-02     521
    19  0.1764705882      0.1176470588       0.000000000      0.2442499491E-02     521
    20  0.2352941176      0.1176470588       0.000000000      0.2442499491E-02     515
    21  0.2941176471      0.1176470588       0.000000000      0.2442499491E-02     516
    22  0.3529411765      0.1176470588       0.000000000      0.2442499491E-02     517
    23  0.4117647059      0.1176470588       0.000000000      0.2442499491E-02     512
    24  0.1764705882      0.1764705882       0.000000000      0.1221249746E-02     517
    25  0.2352941176      0.1764705882       0.000000000      0.2442499491E-02     513
    26  0.2941176471      0.1764705882       0.000000000      0.2442499491E-02     518
    27  0.3529411765      0.1764705882       0.000000000      0.2442499491E-02     520
    28  0.4117647059      0.1764705882       0.000000000      0.1221249746E-02     514
    29  0.2352941176      0.2352941176       0.000000000      0.1221249746E-02     518
    30  0.2941176471      0.2352941176       0.000000000      0.2442499491E-02     516
    31  0.3529411765      0.2352941176       0.000000000      0.2442499491E-02     517
    32  0.2941176471      0.2941176471       0.000000000      0.1221249746E-02     518
    33  0.3529411765      0.2941176471       0.000000000      0.1221249746E-02     520
    34   0.000000000       0.000000000      0.5882352941E-01  0.4070832485E-03     536
    35  0.5882352941E-01   0.000000000      0.5882352941E-01  0.2442499491E-02     524
    36  0.1176470588       0.000000000      0.5882352941E-01  0.2442499491E-02     521
    37  0.1764705882       0.000000000      0.5882352941E-01  0.2442499491E-02     521
    38  0.2352941176       0.000000000      0.5882352941E-01  0.2442499491E-02     519
    39  0.2941176471       0.000000000      0.5882352941E-01  0.2442499491E-02     515
    40  0.3529411765       0.000000000      0.5882352941E-01  0.2442499491E-02     517
    41  0.4117647059       0.000000000      0.5882352941E-01  0.2442499491E-02     516
    42  0.4705882353       0.000000000      0.5882352941E-01  0.2442499491E-02     514
    43  0.5882352941E-01  0.5882352941E-01  0.5882352941E-01  0.2442499491E-02     522
    44  0.1176470588      0.5882352941E-01  0.5882352941E-01  0.4884998982E-02     522
    45  0.1764705882      0.5882352941E-01  0.5882352941E-01  0.4884998982E-02     520
    46  0.2352941176      0.5882352941E-01  0.5882352941E-01  0.4884998982E-02     518
    47  0.2941176471      0.5882352941E-01  0.5882352941E-01  0.4884998982E-02     517
    48  0.3529411765      0.5882352941E-01  0.5882352941E-01  0.4884998982E-02     518
    49  0.4117647059      0.5882352941E-01  0.5882352941E-01  0.4884998982E-02     514
    50  0.4705882353      0.5882352941E-01  0.5882352941E-01  0.2442499491E-02     512
    51  0.1176470588      0.1176470588      0.5882352941E-01  0.2442499491E-02     522
    52  0.1764705882      0.1176470588      0.5882352941E-01  0.4884998982E-02     521
    53  0.2352941176      0.1176470588      0.5882352941E-01  0.4884998982E-02     515
    54  0.2941176471      0.1176470588      0.5882352941E-01  0.4884998982E-02     515
    55  0.3529411765      0.1176470588      0.5882352941E-01  0.4884998982E-02     515
    56  0.4117647059      0.1176470588      0.5882352941E-01  0.4884998982E-02     513
    57  0.1764705882      0.1764705882      0.5882352941E-01  0.2442499491E-02     520
    58  0.2352941176      0.1764705882      0.5882352941E-01  0.4884998982E-02     518
    59  0.2941176471      0.1764705882      0.5882352941E-01  0.4884998982E-02     518
    60  0.3529411765      0.1764705882      0.5882352941E-01  0.4884998982E-02     515
    61  0.4117647059      0.1764705882      0.5882352941E-01  0.2442499491E-02     512
    62  0.2352941176      0.2352941176      0.5882352941E-01  0.2442499491E-02     518
    63  0.2941176471      0.2352941176      0.5882352941E-01  0.4884998982E-02     516
    64  0.3529411765      0.2352941176      0.5882352941E-01  0.4884998982E-02     514
    65  0.2941176471      0.2941176471      0.5882352941E-01  0.2442499491E-02     516
    66  0.3529411765      0.2941176471      0.5882352941E-01  0.2442499491E-02     516
    67   0.000000000       0.000000000      0.1176470588      0.4070832485E-03     524
    68  0.5882352941E-01   0.000000000      0.1176470588      0.2442499491E-02     528
    69  0.1176470588       0.000000000      0.1176470588      0.2442499491E-02     519
    70  0.1764705882       0.000000000      0.1176470588      0.2442499491E-02     521
    71  0.2352941176       0.000000000      0.1176470588      0.2442499491E-02     524
    72  0.2941176471       0.000000000      0.1176470588      0.2442499491E-02     520
    73  0.3529411765       0.000000000      0.1176470588      0.2442499491E-02     518
    74  0.4117647059       0.000000000      0.1176470588      0.2442499491E-02     518
    75  0.4705882353       0.000000000      0.1176470588      0.2442499491E-02     514
    76  0.5882352941E-01  0.5882352941E-01  0.1176470588      0.2442499491E-02     521
    77  0.1176470588      0.5882352941E-01  0.1176470588      0.4884998982E-02     522
    78  0.1764705882      0.5882352941E-01  0.1176470588      0.4884998982E-02     519
    79  0.2352941176      0.5882352941E-01  0.1176470588      0.4884998982E-02     518
    80  0.2941176471      0.5882352941E-01  0.1176470588      0.4884998982E-02     516
    81  0.3529411765      0.5882352941E-01  0.1176470588      0.4884998982E-02     517
    82  0.4117647059      0.5882352941E-01  0.1176470588      0.4884998982E-02     516
    83  0.4705882353      0.5882352941E-01  0.1176470588      0.2442499491E-02     515
    84  0.1176470588      0.1176470588      0.1176470588      0.2442499491E-02     520
    85  0.1764705882      0.1176470588      0.1176470588      0.4884998982E-02     519
    86  0.2352941176      0.1176470588      0.1176470588      0.4884998982E-02     517
    87  0.2941176471      0.1176470588      0.1176470588      0.4884998982E-02     515
    88  0.3529411765      0.1176470588      0.1176470588      0.4884998982E-02     517
    89  0.4117647059      0.1176470588      0.1176470588      0.4884998982E-02     517
    90  0.1764705882      0.1764705882      0.1176470588      0.2442499491E-02     520
    91  0.2352941176      0.1764705882      0.1176470588      0.4884998982E-02     518
    92  0.2941176471      0.1764705882      0.1176470588      0.4884998982E-02     517
    93  0.3529411765      0.1764705882      0.1176470588      0.4884998982E-02     516
    94  0.4117647059      0.1764705882      0.1176470588      0.2442499491E-02     512
    95  0.2352941176      0.2352941176      0.1176470588      0.2442499491E-02     517
    96  0.2941176471      0.2352941176      0.1176470588      0.4884998982E-02     517
    97  0.3529411765      0.2352941176      0.1176470588      0.4884998982E-02     515
    98  0.2941176471      0.2941176471      0.1176470588      0.2442499491E-02     519
    99  0.3529411765      0.2941176471      0.1176470588      0.2442499491E-02     519
   100   0.000000000       0.000000000      0.1764705882      0.4070832485E-03     524
   101  0.5882352941E-01   0.000000000      0.1764705882      0.2442499491E-02     526
   102  0.1176470588       0.000000000      0.1764705882      0.2442499491E-02     516
   103  0.1764705882       0.000000000      0.1764705882      0.2442499491E-02     520
   104  0.2352941176       0.000000000      0.1764705882      0.2442499491E-02     521
   105  0.2941176471       0.000000000      0.1764705882      0.2442499491E-02     525
   106  0.3529411765       0.000000000      0.1764705882      0.2442499491E-02     519
   107  0.4117647059       0.000000000      0.1764705882      0.2442499491E-02     517
   108  0.4705882353       0.000000000      0.1764705882      0.2442499491E-02     518
   109  0.5882352941E-01  0.5882352941E-01  0.1764705882      0.2442499491E-02     523
   110  0.1176470588      0.5882352941E-01  0.1764705882      0.4884998982E-02     518
   111  0.1764705882      0.5882352941E-01  0.1764705882      0.4884998982E-02     520
   112  0.2352941176      0.5882352941E-01  0.1764705882      0.4884998982E-02     517
   113  0.2941176471      0.5882352941E-01  0.1764705882      0.4884998982E-02     521
   114  0.3529411765      0.5882352941E-01  0.1764705882      0.4884998982E-02     519
   115  0.4117647059      0.5882352941E-01  0.1764705882      0.4884998982E-02     517
   116  0.4705882353      0.5882352941E-01  0.1764705882      0.2442499491E-02     515
   117  0.1176470588      0.1176470588      0.1764705882      0.2442499491E-02     524
   118  0.1764705882      0.1176470588      0.1764705882      0.4884998982E-02     519
   119  0.2352941176      0.1176470588      0.1764705882      0.4884998982E-02     519
   120  0.2941176471      0.1176470588      0.1764705882      0.4884998982E-02     518
   121  0.3529411765      0.1176470588      0.1764705882      0.4884998982E-02     517
   122  0.4117647059      0.1176470588      0.1764705882      0.4884998982E-02     515
   123  0.1764705882      0.1764705882      0.1764705882      0.2442499491E-02     518
   124  0.2352941176      0.1764705882      0.1764705882      0.4884998982E-02     519
   125  0.2941176471      0.1764705882      0.1764705882      0.4884998982E-02     518
   126  0.3529411765      0.1764705882      0.1764705882      0.4884998982E-02     515
   127  0.4117647059      0.1764705882      0.1764705882      0.2442499491E-02     513
   128  0.2352941176      0.2352941176      0.1764705882      0.2442499491E-02     520
   129  0.2941176471      0.2352941176      0.1764705882      0.4884998982E-02     516
   130  0.3529411765      0.2352941176      0.1764705882      0.4884998982E-02     514
   131  0.2941176471      0.2941176471      0.1764705882      0.2442499491E-02     518
   132  0.3529411765      0.2941176471      0.1764705882      0.2442499491E-02     518
   133   0.000000000       0.000000000      0.2352941176      0.4070832485E-03     524
   134  0.5882352941E-01   0.000000000      0.2352941176      0.2442499491E-02     524
   135  0.1176470588       0.000000000      0.2352941176      0.2442499491E-02     524
   136  0.1764705882       0.000000000      0.2352941176      0.2442499491E-02     519
   137  0.2352941176       0.000000000      0.2352941176      0.2442499491E-02     516
   138  0.2941176471       0.000000000      0.2352941176      0.2442499491E-02     523
   139  0.3529411765       0.000000000      0.2352941176      0.2442499491E-02     521
   140  0.4117647059       0.000000000      0.2352941176      0.2442499491E-02     517
   141  0.4705882353       0.000000000      0.2352941176      0.2442499491E-02     515
   142  0.5882352941E-01  0.5882352941E-01  0.2352941176      0.2442499491E-02     522
   143  0.1176470588      0.5882352941E-01  0.2352941176      0.4884998982E-02     522
   144  0.1764705882      0.5882352941E-01  0.2352941176      0.4884998982E-02     521
   145  0.2352941176      0.5882352941E-01  0.2352941176      0.4884998982E-02     519
   146  0.2941176471      0.5882352941E-01  0.2352941176      0.4884998982E-02     521
   147  0.3529411765      0.5882352941E-01  0.2352941176      0.4884998982E-02     518
   148  0.4117647059      0.5882352941E-01  0.2352941176      0.4884998982E-02     518
   149  0.4705882353      0.5882352941E-01  0.2352941176      0.2442499491E-02     518
   150  0.1176470588      0.1176470588      0.2352941176      0.2442499491E-02     527
   151  0.1764705882      0.1176470588      0.2352941176      0.4884998982E-02     522
   152  0.2352941176      0.1176470588      0.2352941176      0.4884998982E-02     520
   153  0.2941176471      0.1176470588      0.2352941176      0.4884998982E-02     520
   154  0.3529411765      0.1176470588      0.2352941176      0.4884998982E-02     518
   155  0.4117647059      0.1176470588      0.2352941176      0.4884998982E-02     513
   156  0.1764705882      0.1764705882      0.2352941176      0.2442499491E-02     524
   157  0.2352941176      0.1764705882      0.2352941176      0.4884998982E-02     520
   158  0.2941176471      0.1764705882      0.2352941176      0.4884998982E-02     518
   159  0.3529411765      0.1764705882      0.2352941176      0.4884998982E-02     514
   160  0.4117647059      0.1764705882      0.2352941176      0.2442499491E-02     511
   161  0.2352941176      0.2352941176      0.2352941176      0.2442499491E-02     520
   162  0.2941176471      0.2352941176      0.2352941176      0.4884998982E-02     515
   163  0.3529411765      0.2352941176      0.2352941176      0.4884998982E-02     513
   164  0.2941176471      0.2941176471      0.2352941176      0.2442499491E-02     516
   165  0.3529411765      0.2941176471      0.2352941176      0.2442499491E-02     516
   166   0.000000000       0.000000000      0.2941176471      0.4070832485E-03     524
   167  0.5882352941E-01   0.000000000      0.2941176471      0.2442499491E-02     523
   168  0.1176470588       0.000000000      0.2941176471      0.2442499491E-02     526
   169  0.1764705882       0.000000000      0.2941176471      0.2442499491E-02     522
   170  0.2352941176       0.000000000      0.2941176471      0.2442499491E-02     522
   171  0.2941176471       0.000000000      0.2941176471      0.2442499491E-02     519
   172  0.3529411765       0.000000000      0.2941176471      0.2442499491E-02     523
   173  0.4117647059       0.000000000      0.2941176471      0.2442499491E-02     519
   174  0.4705882353       0.000000000      0.2941176471      0.2442499491E-02     514
   175  0.5882352941E-01  0.5882352941E-01  0.2941176471      0.2442499491E-02     528
   176  0.1176470588      0.5882352941E-01  0.2941176471      0.4884998982E-02     526
   177  0.1764705882      0.5882352941E-01  0.2941176471      0.4884998982E-02     523
   178  0.2352941176      0.5882352941E-01  0.2941176471      0.4884998982E-02     521
   179  0.2941176471      0.5882352941E-01  0.2941176471      0.4884998982E-02     522
   180  0.3529411765      0.5882352941E-01  0.2941176471      0.4884998982E-02     520
   181  0.4117647059      0.5882352941E-01  0.2941176471      0.4884998982E-02     519
   182  0.4705882353      0.5882352941E-01  0.2941176471      0.2442499491E-02     515
   183  0.1176470588      0.1176470588      0.2941176471      0.2442499491E-02     523
   184  0.1764705882      0.1176470588      0.2941176471      0.4884998982E-02     522
   185  0.2352941176      0.1176470588      0.2941176471      0.4884998982E-02     523
   186  0.2941176471      0.1176470588      0.2941176471      0.4884998982E-02     520
   187  0.3529411765      0.1176470588      0.2941176471      0.4884998982E-02     518
   188  0.4117647059      0.1176470588      0.2941176471      0.4884998982E-02     515
   189  0.1764705882      0.1764705882      0.2941176471      0.2442499491E-02     524
   190  0.2352941176      0.1764705882      0.2941176471      0.4884998982E-02     521
   191  0.2941176471      0.1764705882      0.2941176471      0.4884998982E-02     516
   192  0.3529411765      0.1764705882      0.2941176471      0.4884998982E-02     512
   193  0.4117647059      0.1764705882      0.2941176471      0.2442499491E-02     514
   194  0.2352941176      0.2352941176      0.2941176471      0.2442499491E-02     520
   195  0.2941176471      0.2352941176      0.2941176471      0.4884998982E-02     515
   196  0.3529411765      0.2352941176      0.2941176471      0.4884998982E-02     510
   197  0.2941176471      0.2941176471      0.2941176471      0.2442499491E-02     515
   198  0.3529411765      0.2941176471      0.2941176471      0.2442499491E-02     514
   199   0.000000000       0.000000000      0.3529411765      0.4070832485E-03     530
   200  0.5882352941E-01   0.000000000      0.3529411765      0.2442499491E-02     528
   201  0.1176470588       0.000000000      0.3529411765      0.2442499491E-02     532
   202  0.1764705882       0.000000000      0.3529411765      0.2442499491E-02     524
   203  0.2352941176       0.000000000      0.3529411765      0.2442499491E-02     523
   204  0.2941176471       0.000000000      0.3529411765      0.2442499491E-02     521
   205  0.3529411765       0.000000000      0.3529411765      0.2442499491E-02     521
   206  0.4117647059       0.000000000      0.3529411765      0.2442499491E-02     518
   207  0.4705882353       0.000000000      0.3529411765      0.2442499491E-02     512
   208  0.5882352941E-01  0.5882352941E-01  0.3529411765      0.2442499491E-02     528
   209  0.1176470588      0.5882352941E-01  0.3529411765      0.4884998982E-02     524
   210  0.1764705882      0.5882352941E-01  0.3529411765      0.4884998982E-02     524
   211  0.2352941176      0.5882352941E-01  0.3529411765      0.4884998982E-02     525
   212  0.2941176471      0.5882352941E-01  0.3529411765      0.4884998982E-02     522
   213  0.3529411765      0.5882352941E-01  0.3529411765      0.4884998982E-02     519
   214  0.4117647059      0.5882352941E-01  0.3529411765      0.4884998982E-02     518
   215  0.4705882353      0.5882352941E-01  0.3529411765      0.2442499491E-02     515
   216  0.1176470588      0.1176470588      0.3529411765      0.2442499491E-02     526
   217  0.1764705882      0.1176470588      0.3529411765      0.4884998982E-02     525
   218  0.2352941176      0.1176470588      0.3529411765      0.4884998982E-02     524
   219  0.2941176471      0.1176470588      0.3529411765      0.4884998982E-02     521
   220  0.3529411765      0.1176470588      0.3529411765      0.4884998982E-02     517
   221  0.4117647059      0.1176470588      0.3529411765      0.4884998982E-02     514
   222  0.1764705882      0.1764705882      0.3529411765      0.2442499491E-02     521
   223  0.2352941176      0.1764705882      0.3529411765      0.4884998982E-02     521
   224  0.2941176471      0.1764705882      0.3529411765      0.4884998982E-02     519
   225  0.3529411765      0.1764705882      0.3529411765      0.4884998982E-02     514
   226  0.4117647059      0.1764705882      0.3529411765      0.2442499491E-02     512
   227  0.2352941176      0.2352941176      0.3529411765      0.2442499491E-02     519
   228  0.2941176471      0.2352941176      0.3529411765      0.4884998982E-02     512
   229  0.3529411765      0.2352941176      0.3529411765      0.4884998982E-02     510
   230  0.2941176471      0.2941176471      0.3529411765      0.2442499491E-02     509
   231  0.3529411765      0.2941176471      0.3529411765      0.2442499491E-02     513
   232   0.000000000       0.000000000      0.4117647059      0.4070832485E-03     530
   233  0.5882352941E-01   0.000000000      0.4117647059      0.2442499491E-02     533
   234  0.1176470588       0.000000000      0.4117647059      0.2442499491E-02     531
   235  0.1764705882       0.000000000      0.4117647059      0.2442499491E-02     526
   236  0.2352941176       0.000000000      0.4117647059      0.2442499491E-02     523
   237  0.2941176471       0.000000000      0.4117647059      0.2442499491E-02     521
   238  0.3529411765       0.000000000      0.4117647059      0.2442499491E-02     518
   239  0.4117647059       0.000000000      0.4117647059      0.2442499491E-02     516
   240  0.4705882353       0.000000000      0.4117647059      0.2442499491E-02     513
   241  0.5882352941E-01  0.5882352941E-01  0.4117647059      0.2442499491E-02     528
   242  0.1176470588      0.5882352941E-01  0.4117647059      0.4884998982E-02     526
   243  0.1764705882      0.5882352941E-01  0.4117647059      0.4884998982E-02     528
   244  0.2352941176      0.5882352941E-01  0.4117647059      0.4884998982E-02     522
   245  0.2941176471      0.5882352941E-01  0.4117647059      0.4884998982E-02     522
   246  0.3529411765      0.5882352941E-01  0.4117647059      0.4884998982E-02     517
   247  0.4117647059      0.5882352941E-01  0.4117647059      0.4884998982E-02     514
   248  0.4705882353      0.5882352941E-01  0.4117647059      0.2442499491E-02     510
   249  0.1176470588      0.1176470588      0.4117647059      0.2442499491E-02     526
   250  0.1764705882      0.1176470588      0.4117647059      0.4884998982E-02     525
   251  0.2352941176      0.1176470588      0.4117647059      0.4884998982E-02     527
   252  0.2941176471      0.1176470588      0.4117647059      0.4884998982E-02     517
   253  0.3529411765      0.1176470588      0.4117647059      0.4884998982E-02     515
   254  0.4117647059      0.1176470588      0.4117647059      0.4884998982E-02     513
   255  0.1764705882      0.1764705882      0.4117647059      0.2442499491E-02     525
   256  0.2352941176      0.1764705882      0.4117647059      0.4884998982E-02     523
   257  0.2941176471      0.1764705882      0.4117647059      0.4884998982E-02     518
   258  0.3529411765      0.1764705882      0.4117647059      0.4884998982E-02     513
   259  0.4117647059      0.1764705882      0.4117647059      0.2442499491E-02     512
   260  0.2352941176      0.2352941176      0.4117647059      0.2442499491E-02     519
   261  0.2941176471      0.2352941176      0.4117647059      0.4884998982E-02     512
   262  0.3529411765      0.2352941176      0.4117647059      0.4884998982E-02     511
   263  0.2941176471      0.2941176471      0.4117647059      0.2442499491E-02     509
   264  0.3529411765      0.2941176471      0.4117647059      0.2442499491E-02     507
   265   0.000000000       0.000000000      0.4705882353      0.4070832485E-03     530
   266  0.5882352941E-01   0.000000000      0.4705882353      0.2442499491E-02     532
   267  0.1176470588       0.000000000      0.4705882353      0.2442499491E-02     528
   268  0.1764705882       0.000000000      0.4705882353      0.2442499491E-02     528
   269  0.2352941176       0.000000000      0.4705882353      0.2442499491E-02     525
   270  0.2941176471       0.000000000      0.4705882353      0.2442499491E-02     524
   271  0.3529411765       0.000000000      0.4705882353      0.2442499491E-02     520
   272  0.4117647059       0.000000000      0.4705882353      0.2442499491E-02     514
   273  0.4705882353       0.000000000      0.4705882353      0.2442499491E-02     512
   274  0.5882352941E-01  0.5882352941E-01  0.4705882353      0.2442499491E-02     526
   275  0.1176470588      0.5882352941E-01  0.4705882353      0.4884998982E-02     529
   276  0.1764705882      0.5882352941E-01  0.4705882353      0.4884998982E-02     527
   277  0.2352941176      0.5882352941E-01  0.4705882353      0.4884998982E-02     523
   278  0.2941176471      0.5882352941E-01  0.4705882353      0.4884998982E-02     523
   279  0.3529411765      0.5882352941E-01  0.4705882353      0.4884998982E-02     516
   280  0.4117647059      0.5882352941E-01  0.4705882353      0.4884998982E-02     512
   281  0.4705882353      0.5882352941E-01  0.4705882353      0.2442499491E-02     508
   282  0.1176470588      0.1176470588      0.4705882353      0.2442499491E-02     528
   283  0.1764705882      0.1176470588      0.4705882353      0.4884998982E-02     530
   284  0.2352941176      0.1176470588      0.4705882353      0.4884998982E-02     524
   285  0.2941176471      0.1176470588      0.4705882353      0.4884998982E-02     519
   286  0.3529411765      0.1176470588      0.4705882353      0.4884998982E-02     515
   287  0.4117647059      0.1176470588      0.4705882353      0.4884998982E-02     511
   288  0.1764705882      0.1764705882      0.4705882353      0.2442499491E-02     523
   289  0.2352941176      0.1764705882      0.4705882353      0.4884998982E-02     519
   290  0.2941176471      0.1764705882      0.4705882353      0.4884998982E-02     520
   291  0.3529411765      0.1764705882      0.4705882353      0.4884998982E-02     512
   292  0.4117647059      0.1764705882      0.4705882353      0.2442499491E-02     512
   293  0.2352941176      0.2352941176      0.4705882353      0.2442499491E-02     518
   294  0.2941176471      0.2352941176      0.4705882353      0.4884998982E-02     512
   295  0.3529411765      0.2352941176      0.4705882353      0.4884998982E-02     514
   296  0.2941176471      0.2941176471      0.4705882353      0.2442499491E-02     507
   297  0.3529411765      0.2941176471      0.4705882353      0.2442499491E-02     510
