 
Distance between is =    1 (Sc), ia =    1 and
 is =    1 (Sc), ia =    1 :    0.000000000    
 is =    1 (Sc), ia =    2 :    5.867756157    
 
Distance between is =    1 (Sc), ia =    2 and
 is =    1 (Sc), ia =    1 :    5.867756157    
 is =    1 (Sc), ia =    2 :    0.000000000    
