    -1529.11875371    
    -1529.11982745    
    -1529.12004736    
    -1529.12806792    
    -1529.14090263    
    -1529.14896301    
    -1529.15460246    
    -1529.15559469    
    -1529.15671911    
    -1529.15537297    
    -1529.15536765    
    -1529.15524253    
    -1529.15522377    
    -1529.15526342    
    -1529.15527911    
    -1529.15527909    
    -1529.15527835    
    -1529.15528188    
    -1529.15527201    
    -1529.15527478    
    -1529.15527633    
    -1529.15527713    
    -1529.15527022    
    -1529.15528210    
    -1529.15527774    
    -1529.15527742    
    -1529.15527680    
    -1529.15527606    
    -1529.15527601    
    -1529.15527597    
    -1529.15527619    
    -1529.15527615    
    -1529.15527612    
    -1529.15527613    
    -1529.15527615    
