 
+----------------------------+
| Real-space lattice vectors |
+----------------------------+
 
vector a1 :    3.852012806       3.852012806       0.000000000    
vector a2 :    3.852012806       0.000000000       3.852012806    
vector a3 :    0.000000000       3.852012806       3.852012806    
 
Stored column-wise as a matrix :
   3.852012806       3.852012806       0.000000000    
   3.852012806       0.000000000       3.852012806    
   0.000000000       3.852012806       3.852012806    
 
Inverse of matrix :
  0.1298022684      0.1298022684     -0.1298022684    
  0.1298022684     -0.1298022684      0.1298022684    
 -0.1298022684      0.1298022684      0.1298022684    
 
Unit cell volume :    114.3123525    
 
 
+----------------------------------+
| Reciprocal-space lattice vectors |
+----------------------------------+
 
vector b1 :   0.8155717055      0.8155717055     -0.8155717055    
vector b2 :   0.8155717055     -0.8155717055      0.8155717055    
vector b3 :  -0.8155717055      0.8155717055      0.8155717055    
 
Stored column-wise as a matrix :
  0.8155717055      0.8155717055     -0.8155717055    
  0.8155717055     -0.8155717055      0.8155717055    
 -0.8155717055      0.8155717055      0.8155717055    
 
Inverse of matrix :
  0.6130668789      0.6130668789       0.000000000    
  0.6130668789       0.000000000      0.6130668789    
   0.000000000      0.6130668789      0.6130668789    
 
Brillouin zone volume :    2.169933591    
