   27.33888356    
   28.03763357    
   28.03662734    
   29.37209772    
   35.07720620    
   41.79373129    
   46.18598855    
   47.26286766    
   47.97486975    
   47.84003223    
   47.89712634    
   47.85847726    
   47.85872043    
   47.85598955    
   47.85358147    
   47.85488675    
   47.85647828    
   47.85533753    
   47.85519469    
   47.85507280    
   47.85453905    
   47.85433746    
   47.85467759    
   47.85470450    
   47.85494974    
   47.85502910    
   47.85509445    
   47.85512644    
   47.85513219    
   47.85514564    
   47.85513830    
   47.85514939    
   47.85515332    
   47.85515116    
   47.85514899    
   47.85514697    
