 
Species :    1 (Ti), atom :    1
 n =  1, l =  0, k =  1 :   -178.7678625    
 n =  2, l =  0, k =  1 :   -19.19056320    
 n =  2, l =  1, k =  1 :   -15.91348039    
 n =  2, l =  1, k =  2 :   -15.70030629    
 
Species :    1 (Ti), atom :    2
 n =  1, l =  0, k =  1 :   -178.7678625    
 n =  2, l =  0, k =  1 :   -19.19056320    
 n =  2, l =  1, k =  1 :   -15.91348039    
 n =  2, l =  1, k =  2 :   -15.70030629    
