  0.1447380697E-03
  0.3230502521E-02
  0.4175137963E-02
  0.3898351808E-02
  0.2641991917E-02
  0.1698455311E-02
  0.4657416923E-03
  0.1497742374E-03
  0.4036628454E-04
  0.1222749185E-04
  0.3210053251E-05
  0.7195199885E-06
  0.1651036996E-06
  0.4525881536E-07
