 
Species :    1 (Li), atom :    1
 APW functions :
  l =  0, energy derivative =  0 :  -0.8806055691E-01
  l =  1, energy derivative =  0 :  -0.8806055691E-01
  l =  2, energy derivative =  0 :  -0.8806055691E-01
  l =  3, energy derivative =  0 :  -0.8806055691E-01
  l =  4, energy derivative =  0 :  -0.8806055691E-01
  l =  5, energy derivative =  0 :  -0.8806055691E-01
  l =  6, energy derivative =  0 :  -0.8806055691E-01
  l =  7, energy derivative =  0 :  -0.8806055691E-01
  l =  8, energy derivative =  0 :  -0.8806055691E-01
  l =  9, energy derivative =  0 :  -0.8806055691E-01
  l = 10, energy derivative =  0 :  -0.8806055691E-01
 local-orbital functions :
  l.o. =  1, l =  0, energy derivative =  0 :  -0.8806055691E-01
  l.o. =  1, l =  0, energy derivative =  1 :  -0.8806055691E-01
  l.o. =  2, l =  1, energy derivative =  0 :  -0.8806055691E-01
  l.o. =  2, l =  1, energy derivative =  1 :  -0.8806055691E-01
  l.o. =  3, l =  0, energy derivative =  0 :  -0.8806055691E-01
  l.o. =  3, l =  0, energy derivative =  0 :   -1.774997784    
  l.o. =  4, l =  2, energy derivative =  0 :  -0.8806055691E-01
  l.o. =  4, l =  2, energy derivative =  1 :  -0.8806055691E-01
  l.o. =  5, l =  3, energy derivative =  0 :  -0.8806055691E-01
  l.o. =  5, l =  3, energy derivative =  1 :  -0.8806055691E-01
  l.o. =  6, l =  4, energy derivative =  0 :  -0.8806055691E-01
  l.o. =  6, l =  4, energy derivative =  1 :  -0.8806055691E-01
  l.o. =  7, l =  0, energy derivative =  0 :    1.835621903    
  l.o. =  7, l =  0, energy derivative =  1 :    1.835621903    
  l.o. =  7, l =  0, energy derivative =  2 :    1.835621903    
  l.o. =  8, l =  1, energy derivative =  0 :    1.236580068    
  l.o. =  8, l =  1, energy derivative =  1 :    1.236580068    
  l.o. =  8, l =  1, energy derivative =  2 :    1.236580068    
  l.o. =  9, l =  2, energy derivative =  0 :    3.086517709    
  l.o. =  9, l =  2, energy derivative =  1 :    3.086517709    
  l.o. =  9, l =  2, energy derivative =  2 :    3.086517709    
  l.o. = 10, l =  3, energy derivative =  0 :    5.154584487    
  l.o. = 10, l =  3, energy derivative =  1 :    5.154584487    
  l.o. = 10, l =  3, energy derivative =  2 :    5.154584487    
  l.o. = 11, l =  4, energy derivative =  0 :    7.535571808    
  l.o. = 11, l =  4, energy derivative =  1 :    7.535571808    
  l.o. = 11, l =  4, energy derivative =  2 :    7.535571808    
  l.o. = 12, l =  5, energy derivative =  0 :    10.25177868    
  l.o. = 12, l =  5, energy derivative =  1 :    10.25177868    
  l.o. = 12, l =  5, energy derivative =  2 :    10.25177868    
  l.o. = 13, l =  6, energy derivative =  0 :    13.31012056    
  l.o. = 13, l =  6, energy derivative =  1 :    13.31012056    
  l.o. = 13, l =  6, energy derivative =  2 :    13.31012056    
  l.o. = 14, l =  7, energy derivative =  0 :    16.71238812    
  l.o. = 14, l =  7, energy derivative =  1 :    16.71238812    
  l.o. = 14, l =  7, energy derivative =  2 :    16.71238812    
  l.o. = 15, l =  8, energy derivative =  0 :    20.45830831    
  l.o. = 15, l =  8, energy derivative =  1 :    20.45830831    
  l.o. = 15, l =  8, energy derivative =  2 :    20.45830831    
