 
+----------------------------+
| Real-space lattice vectors |
+----------------------------+
 
vector a1 :    4.544569625      -2.623808497       0.000000000    
vector a2 :    0.000000000       5.247616992       0.000000000    
vector a3 :    0.000000000       0.000000000       7.940428225    
 
Stored column-wise as a matrix :
   4.544569625       0.000000000       0.000000000    
  -2.623808497       5.247616992       0.000000000    
   0.000000000       0.000000000       7.940428225    
 
Inverse of matrix :
  0.2200428385       0.000000000       0.000000000    
  0.1100214193      0.1905626881       0.000000000    
   0.000000000       0.000000000      0.1259377922    
 
Unit cell volume :    189.3646090    
 
 
+----------------------------------+
| Reciprocal-space lattice vectors |
+----------------------------------+
 
vector b1 :    1.382569930       0.000000000       0.000000000    
vector b2 :   0.6912849650       1.197340682       0.000000000    
vector b3 :    0.000000000       0.000000000      0.7912904858    
 
Stored column-wise as a matrix :
   1.382569930      0.6912849650       0.000000000    
   0.000000000       1.197340682       0.000000000    
   0.000000000       0.000000000      0.7912904858    
 
Inverse of matrix :
  0.7232907200     -0.4175920919       0.000000000    
   0.000000000      0.8351841837       0.000000000    
   0.000000000       0.000000000       1.263758402    
 
Brillouin zone volume :    1.309907985    
