 
+----------------------------+
| Real-space lattice vectors |
+----------------------------+
 
vector a1 :    3.685567985       3.685567985       0.000000000    
vector a2 :    3.685567985       0.000000000       3.685567985    
vector a3 :    0.000000000       3.685567985       3.685567985    
 
Stored column-wise as a matrix :
   3.685567985       3.685567985       0.000000000    
   3.685567985       0.000000000       3.685567985    
   0.000000000       3.685567985       3.685567985    
 
Inverse of matrix :
  0.1356642998      0.1356642998     -0.1356642998    
  0.1356642998     -0.1356642998      0.1356642998    
 -0.1356642998      0.1356642998      0.1356642998    
 
Unit cell volume :    100.1251721    
 
 
+----------------------------------+
| Reciprocal-space lattice vectors |
+----------------------------------+
 
vector b1 :   0.8524039352      0.8524039352     -0.8524039352    
vector b2 :   0.8524039352     -0.8524039352      0.8524039352    
vector b3 :  -0.8524039352      0.8524039352      0.8524039352    
 
Stored column-wise as a matrix :
  0.8524039352      0.8524039352     -0.8524039352    
  0.8524039352     -0.8524039352      0.8524039352    
 -0.8524039352      0.8524039352      0.8524039352    
 
Inverse of matrix :
  0.5865763628      0.5865763628       0.000000000    
  0.5865763628       0.000000000      0.5865763628    
   0.000000000      0.5865763628      0.5865763628    
 
Brillouin zone volume :    2.477401119    
