   112.0261467    
   110.2989091    
   130.0090889    
   177.3431841    
   165.4605954    
   161.9714196    
   155.6358518    
   155.0484008    
   155.1567130    
   155.1972847    
   155.1977664    
   155.1925306    
   155.1900738    
   155.1889878    
   155.1881034    
   155.1874103    
   155.1901179    
   155.1880159    
   155.1869378    
   155.1868824    
   155.1867828    
   155.1870959    
   155.1872182    
   155.1869002    
   155.1868390    
   155.1869310    
   155.1868546    
   155.1868302    
   155.1868148    
   155.1868058    
   155.1867819    
   155.1867878    
   155.1868040    
   155.1867961    
   155.1867908    
   155.1867883    
   155.1867918    
   155.1867879    
   155.1867868    
   155.1867867    
   155.1867852    
   155.1867848    
   155.1867847    
   155.1867860    
   155.1867851    
   155.1867858    
   155.1867844    
   155.1867832    
   155.1867832    
   155.1867838    
   155.1867849    
   155.1867839    
   155.1867839    
   155.1867839    
   155.1867834    
   155.1867833    
   155.1867832    
   155.1867833    
   155.1867833    
   155.1867819    
