   54.71521433    
   51.52747647    
   48.06204396    
   58.43850646    
   55.39657075    
   70.12042953    
   71.12725689    
   70.96930778    
   70.84775802    
   70.79478428    
   70.79543294    
   70.79383788    
   70.79357783    
   70.79354267    
   70.79359574    
   70.79360608    
   70.79370084    
   70.79381228    
   70.79385899    
   70.79386145    
   70.79387186    
   70.79386546    
   70.79394130    
   70.79393516    
   70.79393981    
   70.79393702    
   70.79393847    
   70.79393870    
   70.79394183    
   70.79394228    
   70.79394129    
   70.79394199    
   70.79394210    
   70.79394207    
   70.79394230    
   70.79394282    
