   113.3606317    
   113.7792648    
   118.1609526    
   116.4296222    
   109.4440379    
   103.1539407    
   97.46257432    
   97.47836623    
   97.50604863    
   97.50113862    
   97.49755882    
   97.49227849    
   97.48711484    
   97.48621878    
   97.48367560    
   97.48155710    
   97.48124094    
   97.48213828    
   97.48221308    
   97.48250618    
   97.48295888    
   97.48314947    
   97.48324273    
   97.48340463    
   97.48343138    
   97.48334244    
   97.48347242    
   97.48350142    
   97.48353576    
   97.48352837    
   97.48354679    
   97.48355754    
   97.48352472    
   97.48353295    
   97.48353088    
   97.48353140    
   97.48353166    
   97.48352990    
   97.48352958    
   97.48352956    
   97.48352953    
   97.48352947    
   97.48352919    
   97.48352920    
