    -9066.42830606    
    -9066.42947514    
    -9066.42947718    
    -9066.43051086    
    -9066.43435447    
    -9066.43886249    
    -9066.44306049    
    -9066.44913020    
    -9066.44818196    
    -9066.44752827    
    -9066.44757177    
    -9066.44746619    
    -9066.44740121    
    -9066.44737659    
    -9066.44734989    
    -9066.44741581    
    -9066.44733268    
    -9066.44733126    
    -9066.44733941    
    -9066.44734775    
    -9066.44733377    
    -9066.44732271    
    -9066.44732436    
    -9066.44733336    
    -9066.44733080    
    -9066.44734207    
    -9066.44734127    
    -9066.44734167    
    -9066.44734097    
    -9066.44734453    
    -9066.44735048    
    -9066.44733560    
    -9066.44734625    
    -9066.44735240    
    -9066.44735042    
    -9066.44735007    
    -9066.44734523    
    -9066.44734715    
    -9066.44735175    
    -9066.44734871    
    -9066.44734781    
    -9066.44735327    
    -9066.44735097    
    -9066.44735037    
    -9066.44734972    
    -9066.44734836    
    -9066.44734741    
    -9066.44734748    
    -9066.44734793    
    -9066.44734907    
    -9066.44735024    
    -9066.44734938    
    -9066.44734813    
    -9066.44734784    
    -9066.44734822    
    -9066.44734826    
    -9066.44734819    
    -9066.44734791    
    -9066.44734741    
    -9066.44734723    
    -9066.44734700    
    -9066.44734712    
    -9066.44734726    
    -9066.44734713    
    -9066.44734736    
    -9066.44734780    
    -9066.44734782    
    -9066.44734777    
    -9066.44734759    
    -9066.44734765    
    -9066.44734764    
