    0.772896008174E-03
    0.637564052958E-03
    0.159646819474E-03
    0.235683279016E-03
    0.242291432052E-03
    0.400200756146E-03
    0.196364510609E-04
    0.262062182911E-04
    0.231564769654E-03
    0.231080698627E-03
    0.261817508652E-04
    0.262220397971E-04
    0.262172386189E-04
    0.231201837713E-03
    0.231203819056E-03
    0.231249387197E-03
    0.231266489572E-03
    0.231289374513E-03
    0.231295784204E-03
    0.231282801349E-03
    0.231298967613E-03
    0.231297325334E-03
    0.231289939448E-03
    0.231291036881E-03
    0.231288838409E-03
    0.231297647742E-03
    0.231302914696E-03
    0.231298536677E-03
    0.231298601307E-03
    0.231298278157E-03
    0.231298688321E-03
    0.231297969693E-03
    0.231296874795E-03
    0.231297062102E-03
    0.231296771614E-03
    0.231296640530E-03
    0.231296416661E-03
    0.231296505034E-03
