+----------------------------+
| Elk version 8.3.15 started |
+----------------------------+
 
Date (YYYY-MM-DD) : 2022-02-26
Time (hh:mm:ss)   : 09:23:44
 
All units are atomic (Hartree, Bohr, etc.)
 
+------------------------------------------+
| Ground-state run resuming from STATE.OUT |
+------------------------------------------+
 
Lattice vectors :
   4.515556453      -2.607057734       0.000000000    
   0.000000000       5.214115466       0.000000000    
   0.000000000       0.000000000       8.367794277    
 
Reciprocal lattice vectors :
   1.391453163       0.000000000       0.000000000    
  0.6957265815       1.205033787       0.000000000    
   0.000000000       0.000000000      0.7508771247    
 
Unit cell volume      :    197.0166431    
Brillouin zone volume :    1.259031773    
 
Muffin-tin inner radius fraction :   0.1000000000E-01
 
Species :    1 (Tc)
 parameters loaded from : Tc.in
 name : technetium
 nuclear charge    :   -43.00000000    
 electronic charge :    43.00000000    
 atomic mass :    178643.0715    
 muffin-tin radius :    2.400000000    
 number of radial points in muffin-tin :   1200
 number on inner part of muffin-tin    :    866
 atomic positions (lattice), magnetic fields (Cartesian) :
   1 :   0.33333333  0.16666667  0.25000000    0.00000000  0.00000000  0.00000000
   2 :  -0.33333333 -0.16666667 -0.25000000    0.00000000  0.00000000  0.00000000
 
Total number of atoms per unit cell :    2
 
Spin treatment :
 spin-unpolarised
 
Number of Bravais lattice symmetries :   24
Number of crystal symmetries         :   24
Crystal has inversion symmetry
Real symmetric eigensolver will be used
 
k-point grid :     17    17    17
k-point offset :    0.000000000       0.000000000       0.000000000    
k-point set is reduced with full crystal symmetry group
Total number of k-points :      297
 
Muffin-tin radius times maximum |G+k| :    8.500000000    
 using gkmax = rgkmax / 2
Maximum |G+k| for APW functions       :    4.250000000    
Maximum (1/2)|G+k|²                   :    9.031250000    
Maximum |G| for potential and density :    34.00000000    
Constant for pseudocharge density :   20
Radial integration step length :    1
 
G-vector grid sizes :     60    60    96
Number of G-vectors :   130747
 
Maximum angular momentum used for
 APW functions                      :   10
 outer part of muffin-tin           :    8
 inner part of muffin-tin           :    1
 
Total nuclear charge    :   -86.00000000    
Total core charge       :    56.00000000    
Total valence charge    :    30.00000000    
Total excess charge     :    0.000000000    
Total electronic charge :    86.00000000    
 
Effective Wigner radius, rₛ :   0.8177840167    
 
Number of empty states         :   40
Total number of valence states :   56
Total number of core states    :   56
 
Conduction state local-orbitals added automatically
Total number of local-orbitals :  252
 
Using Libxc version 05.01.05
Exchange-correlation functional :    100   493   494
 exchange: mgga_x_rscan; correlation: mgga_c_rscan
 
Smearing type :    1
 Methfessel-Paxton order 1, Phys. Rev. B 40, 3616 (1989)
Smearing width :   0.1000000000E-02
Effective electronic temperature (K) :    315.7750248    
 
Mixing type :    3
 Broyden mixing, J. Phys. A: Math. Gen. 17, L317 (1984)
 
Potential read in from STATE.OUT
 
+------------------------------+
| Self-consistent loop started |
+------------------------------+
 
+--------------------+
| Loop number :    1 |
+--------------------+
 
Energies :
 Fermi                       :     0.572069099507    
 sum of eigenvalues          :     -5093.52085968    
 electron kinetic            :      8916.88415744    
 core electron kinetic       :      8690.81101961    
 Coulomb                     :     -17232.4153437    
 Coulomb potential           :     -13664.6654398    
 nuclear-nuclear             :     -918.664977427    
 electron-nuclear            :     -18962.8352927    
 Hartree                     :      2649.08492647    
 Madelung                    :     -10400.0826238    
 xc potential                :     -345.739577328    
 exchange                    :     -255.920075809    
 correlation                 :     -4.57066112890    
 total energy                :     -8576.02192319    
 
Density of states at Fermi energy :    70.26416618    
 (states/Hartree/unit cell)
 
Estimated indirect band gap :   0.2876436756E-04
 from k-point     37 to k-point     52
Estimated direct band gap   :   0.2048887167E-02
 at k-point     37
 
Charges :
 core                        :    56.00000000    
 valence                     :    30.00000000    
 interstitial                :    3.593828342    
 muffin-tins (core leakage)
  species :    1 (Tc)
   atom    1                 :    41.20308583     (  0.5861553589E-06)
   atom    2                 :    41.20308583     (  0.5861553589E-06)
 total in muffin-tins        :    82.40617166    
 total calculated charge     :    85.99968718    
 total charge                :    86.00000000    
 error                       :   0.3128163743E-03
 
Time (CPU seconds) :        67.31
 
+--------------------+
| Loop number :    2 |
+--------------------+
 
Energies :
 Fermi                       :     0.572067823995    
 sum of eigenvalues          :     -5093.52036283    
 electron kinetic            :      8916.88475970    
 core electron kinetic       :      8690.81085013    
 Coulomb                     :     -17232.4149810    
 Coulomb potential           :     -13664.6655821    
 nuclear-nuclear             :     -918.664977427    
 electron-nuclear            :     -18962.8344251    
 Hartree                     :      2649.08442153    
 Madelung                    :     -10400.0821900    
 xc potential                :     -345.739540465    
 exchange                    :     -255.920046374    
 correlation                 :     -4.57066231913    
 total energy                :     -8576.02093001    
 
Density of states at Fermi energy :    70.39672081    
 (states/Hartree/unit cell)
 
Estimated indirect band gap :   0.4710861697E-04
 from k-point     37 to k-point     52
Estimated direct band gap   :   0.2081018879E-02
 at k-point     37
 
Charges :
 core                        :    56.00000000    
 valence                     :    30.00000000    
 interstitial                :    3.593844092    
 muffin-tins (core leakage)
  species :    1 (Tc)
   atom    1                 :    41.20307795     (  0.5859987589E-06)
   atom    2                 :    41.20307795     (  0.5859987589E-06)
 total in muffin-tins        :    82.40615591    
 total calculated charge     :    85.99968719    
 total charge                :    86.00000000    
 error                       :   0.3128073027E-03
 
Wrote STATE.OUT
 
RMS change in Kohn-Sham potential (target) :   0.2618774391E-01 (   10.00000000    )
Absolute change in total energy (target)   :   0.9931785735E-03 (  0.1000000000E-07)
 
Time (CPU seconds) :       131.66
 
+--------------------+
| Loop number :    3 |
+--------------------+
 
Energies :
 Fermi                       :     0.572065664182    
 sum of eigenvalues          :     -5093.51973114    
 electron kinetic            :      8916.88570088    
 core electron kinetic       :      8690.80218534    
 Coulomb                     :     -17232.4144240    
 Coulomb potential           :     -13664.6659517    
 nuclear-nuclear             :     -918.664977427    
 electron-nuclear            :     -18962.8329415    
 Hartree                     :      2649.08349492    
 Madelung                    :     -10400.0814482    
 xc potential                :     -345.739480365    
 exchange                    :     -255.919997838    
 correlation                 :     -4.57066414049    
 total energy                :     -8576.01938511    
 
Density of states at Fermi energy :    70.60392316    
 (states/Hartree/unit cell)
 
Estimated indirect band gap :   0.7957478395E-04
 from k-point     37 to k-point     52
Estimated direct band gap   :   0.2127660327E-02
 at k-point     37
 
Charges :
 core                        :    56.00000000    
 valence                     :    30.00000000    
 interstitial                :    3.593864872    
 muffin-tins (core leakage)
  species :    1 (Tc)
   atom    1                 :    41.20306756     (  0.5861330834E-06)
   atom    2                 :    41.20306756     (  0.5861330834E-06)
 total in muffin-tins        :    82.40613513    
 total calculated charge     :    85.99968720    
 total charge                :    86.00000000    
 error                       :   0.3127968480E-03
 
RMS change in Kohn-Sham potential (target) :   0.2568152215E-01 (   10.00000000    )
Absolute change in total energy (target)   :   0.1793197041E-02 (  0.1000000000E-07)
 
Time (CPU seconds) :       195.84
 
+--------------------+
| Loop number :    4 |
+--------------------+
 
Energies :
 Fermi                       :     0.572077756416    
 sum of eigenvalues          :     -5093.50749393    
 electron kinetic            :      8916.90371761    
 core electron kinetic       :      8690.80585301    
 Coulomb                     :     -17232.4045188    
 Coulomb potential           :     -13664.6728347    
 nuclear-nuclear             :     -918.664977427    
 electron-nuclear            :     -18962.8062480    
 Hartree                     :      2649.06670664    
 Madelung                    :     -10400.0681014    
 xc potential                :     -345.738376811    
 exchange                    :     -255.919106631    
 correlation                 :     -4.57069693265    
 total energy                :     -8575.99060476    
 
Density of states at Fermi energy :    73.19937817    
 (states/Hartree/unit cell)
 
Estimated indirect band gap :   0.5168848717E-03
 from k-point    106 to k-point    262
Estimated direct band gap   :   0.3217335117E-02
 at k-point     37
 
Charges :
 core                        :    56.00000000    
 valence                     :    30.00000000    
 interstitial                :    3.594095735    
 muffin-tins (core leakage)
  species :    1 (Tc)
   atom    1                 :    41.20295213     (  0.5859902146E-06)
   atom    2                 :    41.20295213     (  0.5859902146E-06)
 total in muffin-tins        :    82.40590426    
 total calculated charge     :    85.99968772    
 total charge                :    86.00000000    
 error                       :   0.3122837060E-03
 
Wrote STATE.OUT
 
RMS change in Kohn-Sham potential (target) :   0.1340419009E-01 (   10.00000000    )
Absolute change in total energy (target)   :   0.2922864848E-01 (  0.1000000000E-07)
 
Time (CPU seconds) :       258.74
 
+--------------------+
| Loop number :    5 |
+--------------------+
 
Energies :
 Fermi                       :     0.572117833659    
 sum of eigenvalues          :     -5093.49883804    
 electron kinetic            :      8916.91671108    
 core electron kinetic       :      8690.81145519    
 Coulomb                     :     -17232.3964450    
 Coulomb potential           :     -13664.6779985    
 nuclear-nuclear             :     -918.664977427    
 electron-nuclear            :     -18962.7849366    
 Hartree                     :      2649.05346904    
 Madelung                    :     -10400.0574457    
 xc potential                :     -345.737550591    
 exchange                    :     -255.918459815    
 correlation                 :     -4.57071260735    
 total energy                :     -8575.96890633    
 
Density of states at Fermi energy :    75.68510571    
 (states/Hartree/unit cell)
 
Estimated indirect band gap :   0.4449510328E-03
 from k-point     19 to k-point    250
Estimated direct band gap   :   0.3628013770E-02
 at k-point     11
 
Charges :
 core                        :    56.00000000    
 valence                     :    30.00000000    
 interstitial                :    3.594330133    
 muffin-tins (core leakage)
  species :    1 (Tc)
   atom    1                 :    41.20283493     (  0.5861743055E-06)
   atom    2                 :    41.20283493     (  0.5861743055E-06)
 total in muffin-tins        :    82.40566987    
 total calculated charge     :    85.99968821    
 total charge                :    86.00000000    
 error                       :   0.3117925258E-03
 
RMS change in Kohn-Sham potential (target) :   0.7584526725E-02 (   10.00000000    )
Absolute change in total energy (target)   :   0.2900558504E-01 (  0.1000000000E-07)
 
Time (CPU seconds) :       322.14
 
+--------------------+
| Loop number :    6 |
+--------------------+
 
Energies :
 Fermi                       :     0.572125513946    
 sum of eigenvalues          :     -5093.49711210    
 electron kinetic            :      8916.91968516    
 core electron kinetic       :      8690.81323117    
 Coulomb                     :     -17232.3947603    
 Coulomb potential           :     -13664.6794414    
 nuclear-nuclear             :     -918.664977427    
 electron-nuclear            :     -18962.7801243    
 Hartree                     :      2649.05034143    
 Madelung                    :     -10400.0550396    
 xc potential                :     -345.737355869    
 exchange                    :     -255.918308210    
 correlation                 :     -4.57071618744    
 total energy                :     -8575.96409949    
 
Density of states at Fermi energy :    76.39790611    
 (states/Hartree/unit cell)
 
Estimated indirect band gap :   0.3237597072E-03
 from k-point     19 to k-point    250
Estimated direct band gap   :   0.3376855157E-02
 at k-point     11
 
Charges :
 core                        :    56.00000000    
 valence                     :    30.00000000    
 interstitial                :    3.594388208    
 muffin-tins (core leakage)
  species :    1 (Tc)
   atom    1                 :    41.20280590     (  0.5860422192E-06)
   atom    2                 :    41.20280590     (  0.5860422192E-06)
 total in muffin-tins        :    82.40561179    
 total calculated charge     :    85.99968839    
 total charge                :    86.00000000    
 error                       :   0.3116097930E-03
 
Wrote STATE.OUT
 
RMS change in Kohn-Sham potential (target) :   0.5231838578E-02 (   10.00000000    )
Absolute change in total energy (target)   :   0.1205823950E-01 (  0.1000000000E-07)
 
Time (CPU seconds) :       385.72
 
+--------------------+
| Loop number :    7 |
+--------------------+
 
Energies :
 Fermi                       :     0.572124992163    
 sum of eigenvalues          :     -5093.49720799    
 electron kinetic            :      8916.91994000    
 core electron kinetic       :      8690.81437858    
 Coulomb                     :     -17232.3947900    
 Coulomb potential           :     -13664.6798190    
 nuclear-nuclear             :     -918.664977427    
 electron-nuclear            :     -18962.7798061    
 Hartree                     :      2649.04999359    
 Madelung                    :     -10400.0548805    
 xc potential                :     -345.737329025    
 exchange                    :     -255.918286580    
 correlation                 :     -4.57071710261    
 total energy                :     -8575.96385366    
 
Density of states at Fermi energy :    76.57257828    
 (states/Hartree/unit cell)
 
Estimated indirect band gap :   0.6510500658E-04
 from k-point    250 to k-point    254
Estimated direct band gap   :   0.3276174332E-02
 at k-point     11
 
Charges :
 core                        :    56.00000000    
 valence                     :    30.00000000    
 interstitial                :    3.594386324    
 muffin-tins (core leakage)
  species :    1 (Tc)
   atom    1                 :    41.20280684     (  0.5863156325E-06)
   atom    2                 :    41.20280684     (  0.5863156325E-06)
 total in muffin-tins        :    82.40561368    
 total calculated charge     :    85.99968853    
 total charge                :    86.00000000    
 error                       :   0.3114712793E-03
 
RMS change in Kohn-Sham potential (target) :   0.3157201804E-02 (   10.00000000    )
Absolute change in total energy (target)   :   0.3260388639E-02 (  0.1000000000E-07)
 
Time (CPU seconds) :       447.13
 
+--------------------+
| Loop number :    8 |
+--------------------+
 
Energies :
 Fermi                       :     0.572119334888    
 sum of eigenvalues          :     -5093.49840797    
 electron kinetic            :      8916.91824111    
 core electron kinetic       :      8690.81311537    
 Coulomb                     :     -17232.3957829    
 Coulomb potential           :     -13664.6792309    
 nuclear-nuclear             :     -918.664977427    
 electron-nuclear            :     -18962.7823801    
 Hartree                     :      2649.05157456    
 Madelung                    :     -10400.0561675    
 xc potential                :     -345.737418162    
 exchange                    :     -255.918354628    
 correlation                 :     -4.57071592387    
 total energy                :     -8575.96661235    
 
Density of states at Fermi energy :    76.27741371    
 (states/Hartree/unit cell)
 
Estimated indirect band gap :   0.8125643500E-04
 from k-point    250 to k-point    114
Estimated direct band gap   :   0.3335469439E-02
 at k-point     11
 
Charges :
 core                        :    56.00000000    
 valence                     :    30.00000000    
 interstitial                :    3.594345305    
 muffin-tins (core leakage)
  species :    1 (Tc)
   atom    1                 :    41.20282735     (  0.5861021535E-06)
   atom    2                 :    41.20282735     (  0.5861021535E-06)
 total in muffin-tins        :    82.40565469    
 total calculated charge     :    85.99968860    
 total charge                :    86.00000000    
 error                       :   0.3113993840E-03
 
Wrote STATE.OUT
 
RMS change in Kohn-Sham potential (target) :   0.2793593433E-03 (   10.00000000    )
Absolute change in total energy (target)   :   0.1943593610E-02 (  0.1000000000E-07)
 
Time (CPU seconds) :       511.38
 
+--------------------+
| Loop number :    9 |
+--------------------+
 
Energies :
 Fermi                       :     0.572119978319    
 sum of eigenvalues          :     -5093.49814525    
 electron kinetic            :      8916.91859122    
 core electron kinetic       :      8690.81328787    
 Coulomb                     :     -17232.3954902    
 Coulomb potential           :     -13664.6793424    
 nuclear-nuclear             :     -918.664977427    
 electron-nuclear            :     -18962.7816831    
 Hartree                     :      2649.05117033    
 Madelung                    :     -10400.0558190    
 xc potential                :     -345.737394049    
 exchange                    :     -255.918336181    
 correlation                 :     -4.57071612542    
 total energy                :     -8575.96595126    
 
Density of states at Fermi energy :    76.27690197    
 (states/Hartree/unit cell)
 
Estimated indirect band gap :   0.8064717934E-04
 from k-point    250 to k-point    114
Estimated direct band gap   :   0.3334696960E-02
 at k-point     11
 
Charges :
 core                        :    56.00000000    
 valence                     :    30.00000000    
 interstitial                :    3.594356091    
 muffin-tins (core leakage)
  species :    1 (Tc)
   atom    1                 :    41.20282195     (  0.5859110530E-06)
   atom    2                 :    41.20282195     (  0.5859110530E-06)
 total in muffin-tins        :    82.40564391    
 total calculated charge     :    85.99968860    
 total charge                :    86.00000000    
 error                       :   0.3113983743E-03
 
RMS change in Kohn-Sham potential (target) :   0.7898122760E-04 (   10.00000000    )
Absolute change in total energy (target)   :   0.1751941854E-03 (  0.1000000000E-07)
 
Time (CPU seconds) :       573.18
 
+--------------------+
| Loop number :   10 |
+--------------------+
 
Energies :
 Fermi                       :     0.572119784440    
 sum of eigenvalues          :     -5093.49817475    
 electron kinetic            :      8916.91856583    
 core electron kinetic       :      8690.81327103    
 Coulomb                     :     -17232.3955023    
 Coulomb potential           :     -13664.6793463    
 nuclear-nuclear             :     -918.664977427    
 electron-nuclear            :     -18962.7817033    
 Hartree                     :      2649.05117849    
 Madelung                    :     -10400.0558291    
 xc potential                :     -345.737394251    
 exchange                    :     -255.918336324    
 correlation                 :     -4.57071611352    
 total energy                :     -8575.96598886    
 
Density of states at Fermi energy :    76.26830979    
 (states/Hartree/unit cell)
 
Estimated indirect band gap :   0.8079698638E-04
 from k-point    250 to k-point    114
Estimated direct band gap   :   0.3336044192E-02
 at k-point     11
 
Charges :
 core                        :    56.00000000    
 valence                     :    30.00000000    
 interstitial                :    3.594356112    
 muffin-tins (core leakage)
  species :    1 (Tc)
   atom    1                 :    41.20282194     (  0.5863415637E-06)
   atom    2                 :    41.20282194     (  0.5863415637E-06)
 total in muffin-tins        :    82.40564389    
 total calculated charge     :    85.99968861    
 total charge                :    86.00000000    
 error                       :   0.3113940856E-03
 
Wrote STATE.OUT
 
RMS change in Kohn-Sham potential (target) :   0.3352274610E-03 (   10.00000000    )
Absolute change in total energy (target)   :   0.6202899385E-05 (  0.1000000000E-07)
 
Time (CPU seconds) :       635.00
 
+--------------------+
| Loop number :   11 |
+--------------------+
 
Energies :
 Fermi                       :     0.572119829576    
 sum of eigenvalues          :     -5093.49817371    
 electron kinetic            :      8916.91858243    
 core electron kinetic       :      8690.81329202    
 Coulomb                     :     -17232.3955088    
 Coulomb potential           :     -13664.6793624    
 nuclear-nuclear             :     -918.664977427    
 electron-nuclear            :     -18962.7817004    
 Hartree                     :      2649.05116902    
 Madelung                    :     -10400.0558276    
 xc potential                :     -345.737393761    
 exchange                    :     -255.918335945    
 correlation                 :     -4.57071613530    
 total energy                :     -8575.96597847    
 
Density of states at Fermi energy :    76.27406892    
 (states/Hartree/unit cell)
 
Estimated indirect band gap :   0.8063293420E-04
 from k-point    250 to k-point    114
Estimated direct band gap   :   0.3334793705E-02
 at k-point     11
 
Charges :
 core                        :    56.00000000    
 valence                     :    30.00000000    
 interstitial                :    3.594356630    
 muffin-tins (core leakage)
  species :    1 (Tc)
   atom    1                 :    41.20282168     (  0.5861497563E-06)
   atom    2                 :    41.20282168     (  0.5861497563E-06)
 total in muffin-tins        :    82.40564337    
 total calculated charge     :    85.99968861    
 total charge                :    86.00000000    
 error                       :   0.3113942098E-03
 
RMS change in Kohn-Sham potential (target) :   0.3804157317E-03 (   10.00000000    )
Absolute change in total energy (target)   :   0.1193206481E-04 (  0.1000000000E-07)
 
Time (CPU seconds) :       698.06
 
+--------------------+
| Loop number :   12 |
+--------------------+
 
Energies :
 Fermi                       :     0.572119853920    
 sum of eigenvalues          :     -5093.49817528    
 electron kinetic            :      8916.91858791    
 core electron kinetic       :      8690.81331657    
 Coulomb                     :     -17232.3955166    
 Coulomb potential           :     -13664.6793692    
 nuclear-nuclear             :     -918.664977427    
 electron-nuclear            :     -18962.7817091    
 Hartree                     :      2649.05116994    
 Madelung                    :     -10400.0558320    
 xc potential                :     -345.737393961    
 exchange                    :     -255.918336102    
 correlation                 :     -4.57071614559    
 total energy                :     -8575.96598092    
 
Density of states at Fermi energy :    76.27743476    
 (states/Hartree/unit cell)
 
Estimated indirect band gap :   0.8055633393E-04
 from k-point    250 to k-point    114
Estimated direct band gap   :   0.3334121285E-02
 at k-point     11
 
Charges :
 core                        :    56.00000000    
 valence                     :    30.00000000    
 interstitial                :    3.594356746    
 muffin-tins (core leakage)
  species :    1 (Tc)
   atom    1                 :    41.20282163     (  0.5862168670E-06)
   atom    2                 :    41.20282163     (  0.5862168670E-06)
 total in muffin-tins        :    82.40564325    
 total calculated charge     :    85.99968860    
 total charge                :    86.00000000    
 error                       :   0.3113952500E-03
 
Wrote STATE.OUT
 
RMS change in Kohn-Sham potential (target) :   0.4339595470E-03 (   10.00000000    )
Absolute change in total energy (target)   :   0.5333786248E-06 (  0.1000000000E-07)
 
Time (CPU seconds) :       760.02
 
+--------------------+
| Loop number :   13 |
+--------------------+
 
Energies :
 Fermi                       :     0.572119721732    
 sum of eigenvalues          :     -5093.49819369    
 electron kinetic            :      8916.91855301    
 core electron kinetic       :      8690.81328534    
 Coulomb                     :     -17232.3955238    
 Coulomb potential           :     -13664.6793517    
 nuclear-nuclear             :     -918.664977427    
 electron-nuclear            :     -18962.7817409    
 Hartree                     :      2649.05119459    
 Madelung                    :     -10400.0558479    
 xc potential                :     -345.737394957    
 exchange                    :     -255.918336854    
 correlation                 :     -4.57071611706    
 total energy                :     -8575.96602371    
 
Density of states at Fermi energy :    76.26821275    
 (states/Hartree/unit cell)
 
Estimated indirect band gap :   0.8079605516E-04
 from k-point    250 to k-point    114
Estimated direct band gap   :   0.3335738563E-02
 at k-point     11
 
Charges :
 core                        :    56.00000000    
 valence                     :    30.00000000    
 interstitial                :    3.594356017    
 muffin-tins (core leakage)
  species :    1 (Tc)
   atom    1                 :    41.20282199     (  0.5863622867E-06)
   atom    2                 :    41.20282199     (  0.5863622867E-06)
 total in muffin-tins        :    82.40564398    
 total calculated charge     :    85.99968861    
 total charge                :    86.00000000    
 error                       :   0.3113914185E-03
 
RMS change in Kohn-Sham potential (target) :   0.3735498641E-03 (   10.00000000    )
Absolute change in total energy (target)   :   0.4265557436E-04 (  0.1000000000E-07)
 
Time (CPU seconds) :       825.29
 
+--------------------+
| Loop number :   14 |
+--------------------+
 
Energies :
 Fermi                       :     0.572119725132    
 sum of eigenvalues          :     -5093.49819213    
 electron kinetic            :      8916.91854824    
 core electron kinetic       :      8690.81327097    
 Coulomb                     :     -17232.3955192    
 Coulomb potential           :     -13664.6793456    
 nuclear-nuclear             :     -918.664977427    
 electron-nuclear            :     -18962.7817380    
 Hartree                     :      2649.05119623    
 Madelung                    :     -10400.0558464    
 xc potential                :     -345.737394819    
 exchange                    :     -255.918336748    
 correlation                 :     -4.57071610923    
 total energy                :     -8575.96602383    
 
Density of states at Fermi energy :    76.26647343    
 (states/Hartree/unit cell)
 
Estimated indirect band gap :   0.8084700933E-04
 from k-point    250 to k-point    114
Estimated direct band gap   :   0.3335895179E-02
 at k-point     11
 
Charges :
 core                        :    56.00000000    
 valence                     :    30.00000000    
 interstitial                :    3.594355847    
 muffin-tins (core leakage)
  species :    1 (Tc)
   atom    1                 :    41.20282208     (  0.5862173005E-06)
   atom    2                 :    41.20282208     (  0.5862173005E-06)
 total in muffin-tins        :    82.40564415    
 total calculated charge     :    85.99968861    
 total charge                :    86.00000000    
 error                       :   0.3113891423E-03
 
Wrote STATE.OUT
 
RMS change in Kohn-Sham potential (target) :   0.5222709810E-04 (   10.00000000    )
Absolute change in total energy (target)   :   0.1077582056E-04 (  0.1000000000E-07)
 
Time (CPU seconds) :       888.34
 
+--------------------+
| Loop number :   15 |
+--------------------+
 
Energies :
 Fermi                       :     0.572119783739    
 sum of eigenvalues          :     -5093.49818314    
 electron kinetic            :      8916.91855953    
 core electron kinetic       :      8690.81327688    
 Coulomb                     :     -17232.3955133    
 Coulomb potential           :     -13664.6793482    
 nuclear-nuclear             :     -918.664977427    
 electron-nuclear            :     -18962.7817236    
 Hartree                     :      2649.05118769    
 Madelung                    :     -10400.0558392    
 xc potential                :     -345.737394502    
 exchange                    :     -255.918336508    
 correlation                 :     -4.57071611470    
 total energy                :     -8575.96600638    
 
Density of states at Fermi energy :    76.26854511    
 (states/Hartree/unit cell)
 
Estimated indirect band gap :   0.8079025932E-04
 from k-point    250 to k-point    114
Estimated direct band gap   :   0.3335578304E-02
 at k-point     11
 
Charges :
 core                        :    56.00000000    
 valence                     :    30.00000000    
 interstitial                :    3.594356011    
 muffin-tins (core leakage)
  species :    1 (Tc)
   atom    1                 :    41.20282199     (  0.5862621464E-06)
   atom    2                 :    41.20282199     (  0.5862621464E-06)
 total in muffin-tins        :    82.40564399    
 total calculated charge     :    85.99968861    
 total charge                :    86.00000000    
 error                       :   0.3113904377E-03
 
RMS change in Kohn-Sham potential (target) :   0.2577753537E-03 (   10.00000000    )
Absolute change in total energy (target)   :   0.1475261888E-04 (  0.1000000000E-07)
 
Time (CPU seconds) :       951.45
 
+--------------------+
| Loop number :   16 |
+--------------------+
 
Energies :
 Fermi                       :     0.572119794388    
 sum of eigenvalues          :     -5093.49818080    
 electron kinetic            :      8916.91855882    
 core electron kinetic       :      8690.81327499    
 Coulomb                     :     -17232.3955118    
 Coulomb potential           :     -13664.6793452    
 nuclear-nuclear             :     -918.664977427    
 electron-nuclear            :     -18962.7817236    
 Hartree                     :      2649.05118919    
 Madelung                    :     -10400.0558392    
 xc potential                :     -345.737394437    
 exchange                    :     -255.918336456    
 correlation                 :     -4.57071611052    
 total energy                :     -8575.96600555    
 
Density of states at Fermi energy :    76.26766172    
 (states/Hartree/unit cell)
 
Estimated indirect band gap :   0.8081537784E-04
 from k-point    250 to k-point    114
Estimated direct band gap   :   0.3335729602E-02
 at k-point     11
 
Charges :
 core                        :    56.00000000    
 valence                     :    30.00000000    
 interstitial                :    3.594355934    
 muffin-tins (core leakage)
  species :    1 (Tc)
   atom    1                 :    41.20282203     (  0.5861371442E-06)
   atom    2                 :    41.20282203     (  0.5861371442E-06)
 total in muffin-tins        :    82.40564407    
 total calculated charge     :    85.99968861    
 total charge                :    86.00000000    
 error                       :   0.3113897332E-03
 
Wrote STATE.OUT
 
RMS change in Kohn-Sham potential (target) :   0.4022166871E-03 (   10.00000000    )
Absolute change in total energy (target)   :   0.4521654773E-05 (  0.1000000000E-07)
 
Time (CPU seconds) :      1013.48
 
+--------------------+
| Loop number :   17 |
+--------------------+
 
Energies :
 Fermi                       :     0.572119800192    
 sum of eigenvalues          :     -5093.49818140    
 electron kinetic            :      8916.91856108    
 core electron kinetic       :      8690.81327769    
 Coulomb                     :     -17232.3955132    
 Coulomb potential           :     -13664.6793480    
 nuclear-nuclear             :     -918.664977427    
 electron-nuclear            :     -18962.7817236    
 Hartree                     :      2649.05118778    
 Madelung                    :     -10400.0558392    
 xc potential                :     -345.737394473    
 exchange                    :     -255.918336488    
 correlation                 :     -4.57071611431    
 total energy                :     -8575.96600473    
 
Density of states at Fermi energy :    76.26873403    
 (states/Hartree/unit cell)
 
Estimated indirect band gap :   0.8078439157E-04
 from k-point    250 to k-point    114
Estimated direct band gap   :   0.3335545838E-02
 at k-point     11
 
Charges :
 core                        :    56.00000000    
 valence                     :    30.00000000    
 interstitial                :    3.594356002    
 muffin-tins (core leakage)
  species :    1 (Tc)
   atom    1                 :    41.20282200     (  0.5860832566E-06)
   atom    2                 :    41.20282200     (  0.5860832566E-06)
 total in muffin-tins        :    82.40564400    
 total calculated charge     :    85.99968861    
 total charge                :    86.00000000    
 error                       :   0.3113900423E-03
 
RMS change in Kohn-Sham potential (target) :   0.3943284861E-04 (   10.00000000    )
Absolute change in total energy (target)   :   0.1946056727E-05 (  0.1000000000E-07)
 
Time (CPU seconds) :      1075.74
 
+--------------------+
| Loop number :   18 |
+--------------------+
 
Energies :
 Fermi                       :     0.572119814010    
 sum of eigenvalues          :     -5093.49818013    
 electron kinetic            :      8916.91856333    
 core electron kinetic       :      8690.81327999    
 Coulomb                     :     -17232.3955137    
 Coulomb potential           :     -13664.6793490    
 nuclear-nuclear             :     -918.664977427    
 electron-nuclear            :     -18962.7817236    
 Hartree                     :      2649.05118729    
 Madelung                    :     -10400.0558392    
 xc potential                :     -345.737394483    
 exchange                    :     -255.918336494    
 correlation                 :     -4.57071611590    
 total energy                :     -8575.96600298    
 
Density of states at Fermi energy :    76.26932114    
 (states/Hartree/unit cell)
 
Estimated indirect band gap :   0.8076724337E-04
 from k-point    250 to k-point    114
Estimated direct band gap   :   0.3335472917E-02
 at k-point     11
 
Charges :
 core                        :    56.00000000    
 valence                     :    30.00000000    
 interstitial                :    3.594356034    
 muffin-tins (core leakage)
  species :    1 (Tc)
   atom    1                 :    41.20282198     (  0.5861099552E-06)
   atom    2                 :    41.20282198     (  0.5861099552E-06)
 total in muffin-tins        :    82.40564397    
 total calculated charge     :    85.99968861    
 total charge                :    86.00000000    
 error                       :   0.3113905008E-03
 
Wrote STATE.OUT
 
RMS change in Kohn-Sham potential (target) :   0.1599598299E-03 (   10.00000000    )
Absolute change in total energy (target)   :   0.2240420145E-05 (  0.1000000000E-07)
 
Time (CPU seconds) :      1138.72
 
+--------------------+
| Loop number :   19 |
+--------------------+
 
Energies :
 Fermi                       :     0.572119812298    
 sum of eigenvalues          :     -5093.49818018    
 electron kinetic            :      8916.91856237    
 core electron kinetic       :      8690.81327913    
 Coulomb                     :     -17232.3955132    
 Coulomb potential           :     -13664.6793481    
 nuclear-nuclear             :     -918.664977427    
 electron-nuclear            :     -18962.7817236    
 Hartree                     :      2649.05118774    
 Madelung                    :     -10400.0558392    
 xc potential                :     -345.737394481    
 exchange                    :     -255.918336494    
 correlation                 :     -4.57071611420    
 total energy                :     -8575.96600348    
 
Density of states at Fermi energy :    76.26882486    
 (states/Hartree/unit cell)
 
Estimated indirect band gap :   0.8077967901E-04
 from k-point    250 to k-point    114
Estimated direct band gap   :   0.3335546989E-02
 at k-point     11
 
Charges :
 core                        :    56.00000000    
 valence                     :    30.00000000    
 interstitial                :    3.594356007    
 muffin-tins (core leakage)
  species :    1 (Tc)
   atom    1                 :    41.20282200     (  0.5861399153E-06)
   atom    2                 :    41.20282200     (  0.5861399153E-06)
 total in muffin-tins        :    82.40564399    
 total calculated charge     :    85.99968861    
 total charge                :    86.00000000    
 error                       :   0.3113902484E-03
 
RMS change in Kohn-Sham potential (target) :   0.1243346779E-03 (   10.00000000    )
Absolute change in total energy (target)   :   0.6063055480E-07 (  0.1000000000E-07)
 
Time (CPU seconds) :      1201.78
 
+--------------------+
| Loop number :   20 |
+--------------------+
 
Energies :
 Fermi                       :     0.572119808026    
 sum of eigenvalues          :     -5093.49818067    
 electron kinetic            :      8916.91856222    
 core electron kinetic       :      8690.81327843    
 Coulomb                     :     -17232.3955134    
 Coulomb potential           :     -13664.6793484    
 nuclear-nuclear             :     -918.664977427    
 electron-nuclear            :     -18962.7817236    
 Hartree                     :      2649.05118758    
 Madelung                    :     -10400.0558392    
 xc potential                :     -345.737394489    
 exchange                    :     -255.918336501    
 correlation                 :     -4.57071611462    
 total energy                :     -8575.96600380    
 
Density of states at Fermi energy :    76.26886829    
 (states/Hartree/unit cell)
 
Estimated indirect band gap :   0.8077811672E-04
 from k-point    250 to k-point    114
Estimated direct band gap   :   0.3335546056E-02
 at k-point     11
 
Charges :
 core                        :    56.00000000    
 valence                     :    30.00000000    
 interstitial                :    3.594356017    
 muffin-tins (core leakage)
  species :    1 (Tc)
   atom    1                 :    41.20282199     (  0.5861725647E-06)
   atom    2                 :    41.20282199     (  0.5861725647E-06)
 total in muffin-tins        :    82.40564398    
 total calculated charge     :    85.99968861    
 total charge                :    86.00000000    
 error                       :   0.3113904368E-03
 
Wrote STATE.OUT
 
RMS change in Kohn-Sham potential (target) :   0.1576769232E-03 (   10.00000000    )
Absolute change in total energy (target)   :   0.3124423529E-06 (  0.1000000000E-07)
 
Time (CPU seconds) :      1263.45
 
+--------------------+
| Loop number :   21 |
+--------------------+
 
Energies :
 Fermi                       :     0.572119815479    
 sum of eigenvalues          :     -5093.49817971    
 electron kinetic            :      8916.91856311    
 core electron kinetic       :      8690.81327911    
 Coulomb                     :     -17232.3955134    
 Coulomb potential           :     -13664.6793483    
 nuclear-nuclear             :     -918.664977427    
 electron-nuclear            :     -18962.7817236    
 Hartree                     :      2649.05118761    
 Madelung                    :     -10400.0558392    
 xc potential                :     -345.737394474    
 exchange                    :     -255.918336490    
 correlation                 :     -4.57071611505    
 total energy                :     -8575.96600287    
 
Density of states at Fermi energy :    76.26900054    
 (states/Hartree/unit cell)
 
Estimated indirect band gap :   0.8077394671E-04
 from k-point    250 to k-point    114
Estimated direct band gap   :   0.3335539400E-02
 at k-point     11
 
Charges :
 core                        :    56.00000000    
 valence                     :    30.00000000    
 interstitial                :    3.594356024    
 muffin-tins (core leakage)
  species :    1 (Tc)
   atom    1                 :    41.20282199     (  0.5862491221E-06)
   atom    2                 :    41.20282199     (  0.5862491221E-06)
 total in muffin-tins        :    82.40564398    
 total calculated charge     :    85.99968861    
 total charge                :    86.00000000    
 error                       :   0.3113907123E-03
 
RMS change in Kohn-Sham potential (target) :   0.1433808254E-03 (   10.00000000    )
Absolute change in total energy (target)   :   0.8512924978E-06 (  0.1000000000E-07)
 
Time (CPU seconds) :      1327.34
 
+--------------------+
| Loop number :   22 |
+--------------------+
 
Energies :
 Fermi                       :     0.572119814504    
 sum of eigenvalues          :     -5093.49817986    
 electron kinetic            :      8916.91856327    
 core electron kinetic       :      8690.81327932    
 Coulomb                     :     -17232.3955135    
 Coulomb potential           :     -13664.6793486    
 nuclear-nuclear             :     -918.664977427    
 electron-nuclear            :     -18962.7817236    
 Hartree                     :      2649.05118746    
 Madelung                    :     -10400.0558392    
 xc potential                :     -345.737394485    
 exchange                    :     -255.918336496    
 correlation                 :     -4.57071611544    
 total energy                :     -8575.96600287    
 
Density of states at Fermi energy :    76.26905992    
 (states/Hartree/unit cell)
 
Estimated indirect band gap :   0.8077181072E-04
 from k-point    250 to k-point    114
Estimated direct band gap   :   0.3335533466E-02
 at k-point     11
 
Charges :
 core                        :    56.00000000    
 valence                     :    30.00000000    
 interstitial                :    3.594356030    
 muffin-tins (core leakage)
  species :    1 (Tc)
   atom    1                 :    41.20282198     (  0.5861368848E-06)
   atom    2                 :    41.20282198     (  0.5861368848E-06)
 total in muffin-tins        :    82.40564397    
 total calculated charge     :    85.99968861    
 total charge                :    86.00000000    
 error                       :   0.3113905372E-03
 
Wrote STATE.OUT
 
RMS change in Kohn-Sham potential (target) :   0.1697902454E-03 (   10.00000000    )
Absolute change in total energy (target)   :   0.2151318768E-06 (  0.1000000000E-07)
 
Time (CPU seconds) :      1393.46
 
+--------------------+
| Loop number :   23 |
+--------------------+
 
Energies :
 Fermi                       :     0.572119814763    
 sum of eigenvalues          :     -5093.49817977    
 electron kinetic            :      8916.91856298    
 core electron kinetic       :      8690.81327877    
 Coulomb                     :     -17232.3955133    
 Coulomb potential           :     -13664.6793483    
 nuclear-nuclear             :     -918.664977427    
 electron-nuclear            :     -18962.7817236    
 Hartree                     :      2649.05118765    
 Madelung                    :     -10400.0558392    
 xc potential                :     -345.737394480    
 exchange                    :     -255.918336491    
 correlation                 :     -4.57071611464    
 total energy                :     -8575.96600297    
 
Density of states at Fermi energy :    76.26891476    
 (states/Hartree/unit cell)
 
Estimated indirect band gap :   0.8077592260E-04
 from k-point    250 to k-point    114
Estimated direct band gap   :   0.3335551467E-02
 at k-point     11
 
Charges :
 core                        :    56.00000000    
 valence                     :    30.00000000    
 interstitial                :    3.594356020    
 muffin-tins (core leakage)
  species :    1 (Tc)
   atom    1                 :    41.20282199     (  0.5862037789E-06)
   atom    2                 :    41.20282199     (  0.5862037789E-06)
 total in muffin-tins        :    82.40564398    
 total calculated charge     :    85.99968861    
 total charge                :    86.00000000    
 error                       :   0.3113905801E-03
 
RMS change in Kohn-Sham potential (target) :   0.3648726280E-03 (   10.00000000    )
Absolute change in total energy (target)   :   0.4158209777E-07 (  0.1000000000E-07)
 
Time (CPU seconds) :      1455.83
 
+--------------------+
| Loop number :   24 |
+--------------------+
 
Energies :
 Fermi                       :     0.572119815997    
 sum of eigenvalues          :     -5093.49817963    
 electron kinetic            :      8916.91856290    
 core electron kinetic       :      8690.81327845    
 Coulomb                     :     -17232.3955132    
 Coulomb potential           :     -13664.6793481    
 nuclear-nuclear             :     -918.664977427    
 electron-nuclear            :     -18962.7817236    
 Hartree                     :      2649.05118775    
 Madelung                    :     -10400.0558392    
 xc potential                :     -345.737394473    
 exchange                    :     -255.918336488    
 correlation                 :     -4.57071611467    
 total energy                :     -8575.96600294    
 
Density of states at Fermi energy :    76.26883885    
 (states/Hartree/unit cell)
 
Estimated indirect band gap :   0.8077757866E-04
 from k-point    250 to k-point    114
Estimated direct band gap   :   0.3335561410E-02
 at k-point     11
 
Charges :
 core                        :    56.00000000    
 valence                     :    30.00000000    
 interstitial                :    3.594356017    
 muffin-tins (core leakage)
  species :    1 (Tc)
   atom    1                 :    41.20282199     (  0.5861243260E-06)
   atom    2                 :    41.20282199     (  0.5861243260E-06)
 total in muffin-tins        :    82.40564398    
 total calculated charge     :    85.99968861    
 total charge                :    86.00000000    
 error                       :   0.3113903602E-03
 
Wrote STATE.OUT
 
RMS change in Kohn-Sham potential (target) :   0.7959726904E-04 (   10.00000000    )
Absolute change in total energy (target)   :   0.1772968972E-07 (  0.1000000000E-07)
 
Time (CPU seconds) :      1519.42
 
+--------------------+
| Loop number :   25 |
+--------------------+
 
Energies :
 Fermi                       :     0.572119818638    
 sum of eigenvalues          :     -5093.49817940    
 electron kinetic            :      8916.91856328    
 core electron kinetic       :      8690.81327883    
 Coulomb                     :     -17232.3955133    
 Coulomb potential           :     -13664.6793482    
 nuclear-nuclear             :     -918.664977427    
 electron-nuclear            :     -18962.7817236    
 Hartree                     :      2649.05118768    
 Madelung                    :     -10400.0558392    
 xc potential                :     -345.737394478    
 exchange                    :     -255.918336490    
 correlation                 :     -4.57071611495    
 total energy                :     -8575.96600263    
 
Density of states at Fermi energy :    76.26895481    
 (states/Hartree/unit cell)
 
Estimated indirect band gap :   0.8077447253E-04
 from k-point    250 to k-point    114
Estimated direct band gap   :   0.3335547278E-02
 at k-point     11
 
Charges :
 core                        :    56.00000000    
 valence                     :    30.00000000    
 interstitial                :    3.594356021    
 muffin-tins (core leakage)
  species :    1 (Tc)
   atom    1                 :    41.20282199     (  0.5861751333E-06)
   atom    2                 :    41.20282199     (  0.5861751333E-06)
 total in muffin-tins        :    82.40564398    
 total calculated charge     :    85.99968861    
 total charge                :    86.00000000    
 error                       :   0.3113905079E-03
 
RMS change in Kohn-Sham potential (target) :   0.1362593106E-03 (   10.00000000    )
Absolute change in total energy (target)   :   0.3118857421E-06 (  0.1000000000E-07)
 
Time (CPU seconds) :      1584.35
 
+--------------------+
| Loop number :   26 |
+--------------------+
 
Energies :
 Fermi                       :     0.572119818761    
 sum of eigenvalues          :     -5093.49817939    
 electron kinetic            :      8916.91856334    
 core electron kinetic       :      8690.81327882    
 Coulomb                     :     -17232.3955133    
 Coulomb potential           :     -13664.6793483    
 nuclear-nuclear             :     -918.664977427    
 electron-nuclear            :     -18962.7817236    
 Hartree                     :      2649.05118765    
 Madelung                    :     -10400.0558392    
 xc potential                :     -345.737394476    
 exchange                    :     -255.918336488    
 correlation                 :     -4.57071611531    
 total energy                :     -8575.96600260    
 
Density of states at Fermi energy :    76.26897824    
 (states/Hartree/unit cell)
 
Estimated indirect band gap :   0.8077369564E-04
 from k-point    250 to k-point    114
Estimated direct band gap   :   0.3335544961E-02
 at k-point     11
 
Charges :
 core                        :    56.00000000    
 valence                     :    30.00000000    
 interstitial                :    3.594356024    
 muffin-tins (core leakage)
  species :    1 (Tc)
   atom    1                 :    41.20282199     (  0.5862422618E-06)
   atom    2                 :    41.20282199     (  0.5862422618E-06)
 total in muffin-tins        :    82.40564398    
 total calculated charge     :    85.99968861    
 total charge                :    86.00000000    
 error                       :   0.3113906701E-03
 
Wrote STATE.OUT
 
RMS change in Kohn-Sham potential (target) :   0.1158613143E-03 (   10.00000000    )
Absolute change in total energy (target)   :   0.1132702891E-06 (  0.1000000000E-07)
 
Time (CPU seconds) :      1646.66
 
+--------------------+
| Loop number :   27 |
+--------------------+
 
Energies :
 Fermi                       :     0.572119819647    
 sum of eigenvalues          :     -5093.49817931    
 electron kinetic            :      8916.91856348    
 core electron kinetic       :      8690.81327894    
 Coulomb                     :     -17232.3955134    
 Coulomb potential           :     -13664.6793483    
 nuclear-nuclear             :     -918.664977427    
 electron-nuclear            :     -18962.7817236    
 Hartree                     :      2649.05118763    
 Madelung                    :     -10400.0558392    
 xc potential                :     -345.737394480    
 exchange                    :     -255.918336492    
 correlation                 :     -4.57071611510    
 total energy                :     -8575.96600249    
 
Density of states at Fermi energy :    76.26900378    
 (states/Hartree/unit cell)
 
Estimated indirect band gap :   0.8077297420E-04
 from k-point    250 to k-point    114
Estimated direct band gap   :   0.3335543185E-02
 at k-point     11
 
Charges :
 core                        :    56.00000000    
 valence                     :    30.00000000    
 interstitial                :    3.594356024    
 muffin-tins (core leakage)
  species :    1 (Tc)
   atom    1                 :    41.20282199     (  0.5861118701E-06)
   atom    2                 :    41.20282199     (  0.5861118701E-06)
 total in muffin-tins        :    82.40564398    
 total calculated charge     :    85.99968861    
 total charge                :    86.00000000    
 error                       :   0.3113904666E-03
 
RMS change in Kohn-Sham potential (target) :   0.2850086914E-04 (   10.00000000    )
Absolute change in total energy (target)   :   0.1384760253E-06 (  0.1000000000E-07)
 
Time (CPU seconds) :      1710.44
 
+--------------------+
| Loop number :   28 |
+--------------------+
 
Energies :
 Fermi                       :     0.572119819979    
 sum of eigenvalues          :     -5093.49817925    
 electron kinetic            :      8916.91856375    
 core electron kinetic       :      8690.81327916    
 Coulomb                     :     -17232.3955135    
 Coulomb potential           :     -13664.6793485    
 nuclear-nuclear             :     -918.664977427    
 electron-nuclear            :     -18962.7817236    
 Hartree                     :      2649.05118752    
 Madelung                    :     -10400.0558392    
 xc potential                :     -345.737394477    
 exchange                    :     -255.918336489    
 correlation                 :     -4.57071611532    
 total energy                :     -8575.96600232    
 
Density of states at Fermi energy :    76.26905774    
 (states/Hartree/unit cell)
 
Estimated indirect band gap :   0.8077117018E-04
 from k-point    250 to k-point    114
Estimated direct band gap   :   0.3335538977E-02
 at k-point     11
 
Charges :
 core                        :    56.00000000    
 valence                     :    30.00000000    
 interstitial                :    3.594356030    
 muffin-tins (core leakage)
  species :    1 (Tc)
   atom    1                 :    41.20282198     (  0.5863308665E-06)
   atom    2                 :    41.20282198     (  0.5863308665E-06)
 total in muffin-tins        :    82.40564397    
 total calculated charge     :    85.99968861    
 total charge                :    86.00000000    
 error                       :   0.3113909820E-03
 
Wrote STATE.OUT
 
RMS change in Kohn-Sham potential (target) :   0.2642242166E-03 (   10.00000000    )
Absolute change in total energy (target)   :   0.1986954885E-06 (  0.1000000000E-07)
 
Time (CPU seconds) :      1777.15
 
+--------------------+
| Loop number :   29 |
+--------------------+
 
Energies :
 Fermi                       :     0.572119819859    
 sum of eigenvalues          :     -5093.49817926    
 electron kinetic            :      8916.91856360    
 core electron kinetic       :      8690.81327899    
 Coulomb                     :     -17232.3955134    
 Coulomb potential           :     -13664.6793484    
 nuclear-nuclear             :     -918.664977427    
 electron-nuclear            :     -18962.7817236    
 Hartree                     :      2649.05118759    
 Madelung                    :     -10400.0558392    
 xc potential                :     -345.737394476    
 exchange                    :     -255.918336487    
 correlation                 :     -4.57071611568    
 total energy                :     -8575.96600240    
 
Density of states at Fermi energy :    76.26904740    
 (states/Hartree/unit cell)
 
Estimated indirect band gap :   0.8077131779E-04
 from k-point    250 to k-point    114
Estimated direct band gap   :   0.3335541141E-02
 at k-point     11
 
Charges :
 core                        :    56.00000000    
 valence                     :    30.00000000    
 interstitial                :    3.594356030    
 muffin-tins (core leakage)
  species :    1 (Tc)
   atom    1                 :    41.20282199     (  0.5862669816E-06)
   atom    2                 :    41.20282199     (  0.5862669816E-06)
 total in muffin-tins        :    82.40564397    
 total calculated charge     :    85.99968861    
 total charge                :    86.00000000    
 error                       :   0.3113908270E-03
 
RMS change in Kohn-Sham potential (target) :   0.1964114580E-03 (   10.00000000    )
Absolute change in total energy (target)   :   0.3327659215E-07 (  0.1000000000E-07)
 
Time (CPU seconds) :      1842.30
 
+--------------------+
| Loop number :   30 |
+--------------------+
 
Energies :
 Fermi                       :     0.572119820100    
 sum of eigenvalues          :     -5093.49817924    
 electron kinetic            :      8916.91856373    
 core electron kinetic       :      8690.81327927    
 Coulomb                     :     -17232.3955135    
 Coulomb potential           :     -13664.6793485    
 nuclear-nuclear             :     -918.664977427    
 electron-nuclear            :     -18962.7817236    
 Hartree                     :      2649.05118753    
 Madelung                    :     -10400.0558392    
 xc potential                :     -345.737394478    
 exchange                    :     -255.918336491    
 correlation                 :     -4.57071611571    
 total energy                :     -8575.96600233    
 
Density of states at Fermi energy :    76.26910168    
 (states/Hartree/unit cell)
 
Estimated indirect band gap :   0.8076964156E-04
 from k-point    250 to k-point    114
Estimated direct band gap   :   0.3335536675E-02
 at k-point     11
 
Charges :
 core                        :    56.00000000    
 valence                     :    30.00000000    
 interstitial                :    3.594356034    
 muffin-tins (core leakage)
  species :    1 (Tc)
   atom    1                 :    41.20282198     (  0.5860788264E-06)
   atom    2                 :    41.20282198     (  0.5860788264E-06)
 total in muffin-tins        :    82.40564397    
 total calculated charge     :    85.99968861    
 total charge                :    86.00000000    
 error                       :   0.3113904600E-03
 
Wrote STATE.OUT
 
RMS change in Kohn-Sham potential (target) :   0.2134882518E-03 (   10.00000000    )
Absolute change in total energy (target)   :   0.6908339856E-07 (  0.1000000000E-07)
 
Time (CPU seconds) :      1908.00
 
+--------------------+
| Loop number :   31 |
+--------------------+
 
Energies :
 Fermi                       :     0.572119819135    
 sum of eigenvalues          :     -5093.49817934    
 electron kinetic            :      8916.91856367    
 core electron kinetic       :      8690.81327920    
 Coulomb                     :     -17232.3955135    
 Coulomb potential           :     -13664.6793485    
 nuclear-nuclear             :     -918.664977427    
 electron-nuclear            :     -18962.7817236    
 Hartree                     :      2649.05118751    
 Madelung                    :     -10400.0558392    
 xc potential                :     -345.737394477    
 exchange                    :     -255.918336490    
 correlation                 :     -4.57071611576    
 total energy                :     -8575.96600241    
 
Density of states at Fermi energy :    76.26910114    
 (states/Hartree/unit cell)
 
Estimated indirect band gap :   0.8076957450E-04
 from k-point    250 to k-point    114
Estimated direct band gap   :   0.3335537334E-02
 at k-point     11
 
Charges :
 core                        :    56.00000000    
 valence                     :    30.00000000    
 interstitial                :    3.594356035    
 muffin-tins (core leakage)
  species :    1 (Tc)
   atom    1                 :    41.20282198     (  0.5862496515E-06)
   atom    2                 :    41.20282198     (  0.5862496515E-06)
 total in muffin-tins        :    82.40564397    
 total calculated charge     :    85.99968861    
 total charge                :    86.00000000    
 error                       :   0.3113908348E-03
 
RMS change in Kohn-Sham potential (target) :   0.2610083585E-03 (   10.00000000    )
Absolute change in total energy (target)   :   0.6199843483E-07 (  0.1000000000E-07)
 
Time (CPU seconds) :      1971.44
 
+--------------------+
| Loop number :   32 |
+--------------------+
 
Energies :
 Fermi                       :     0.572119818940    
 sum of eigenvalues          :     -5093.49817934    
 electron kinetic            :      8916.91856373    
 core electron kinetic       :      8690.81327930    
 Coulomb                     :     -17232.3955135    
 Coulomb potential           :     -13664.6793486    
 nuclear-nuclear             :     -918.664977427    
 electron-nuclear            :     -18962.7817236    
 Hartree                     :      2649.05118748    
 Madelung                    :     -10400.0558392    
 xc potential                :     -345.737394479    
 exchange                    :     -255.918336494    
 correlation                 :     -4.57071611512    
 total energy                :     -8575.96600238    
 
Density of states at Fermi energy :    76.26910768    
 (states/Hartree/unit cell)
 
Estimated indirect band gap :   0.8076932891E-04
 from k-point    250 to k-point    114
Estimated direct band gap   :   0.3335537467E-02
 at k-point     11
 
Charges :
 core                        :    56.00000000    
 valence                     :    30.00000000    
 interstitial                :    3.594356035    
 muffin-tins (core leakage)
  species :    1 (Tc)
   atom    1                 :    41.20282198     (  0.5862208390E-06)
   atom    2                 :    41.20282198     (  0.5862208390E-06)
 total in muffin-tins        :    82.40564396    
 total calculated charge     :    85.99968861    
 total charge                :    86.00000000    
 error                       :   0.3113908140E-03
 
Wrote STATE.OUT
 
RMS change in Kohn-Sham potential (target) :   0.1889114797E-03 (   10.00000000    )
Absolute change in total energy (target)   :   0.1336593414E-07 (  0.1000000000E-07)
 
Time (CPU seconds) :      2033.76
 
+--------------------+
| Loop number :   33 |
+--------------------+
 
Energies :
 Fermi                       :     0.572119818685    
 sum of eigenvalues          :     -5093.49817936    
 electron kinetic            :      8916.91856361    
 core electron kinetic       :      8690.81327917    
 Coulomb                     :     -17232.3955135    
 Coulomb potential           :     -13664.6793485    
 nuclear-nuclear             :     -918.664977427    
 electron-nuclear            :     -18962.7817236    
 Hartree                     :      2649.05118753    
 Madelung                    :     -10400.0558392    
 xc potential                :     -345.737394477    
 exchange                    :     -255.918336490    
 correlation                 :     -4.57071611566    
 total energy                :     -8575.96600245    
 
Density of states at Fermi energy :    76.26910458    
 (states/Hartree/unit cell)
 
Estimated indirect band gap :   0.8076942208E-04
 from k-point    250 to k-point    114
Estimated direct band gap   :   0.3335537736E-02
 at k-point     11
 
Charges :
 core                        :    56.00000000    
 valence                     :    30.00000000    
 interstitial                :    3.594356035    
 muffin-tins (core leakage)
  species :    1 (Tc)
   atom    1                 :    41.20282198     (  0.5861979382E-06)
   atom    2                 :    41.20282198     (  0.5861979382E-06)
 total in muffin-tins        :    82.40564396    
 total calculated charge     :    85.99968861    
 total charge                :    86.00000000    
 error                       :   0.3113907696E-03
 
RMS change in Kohn-Sham potential (target) :   0.3365110687E-03 (   10.00000000    )
Absolute change in total energy (target)   :   0.6543268682E-07 (  0.1000000000E-07)
 
Time (CPU seconds) :      2096.38
 
+--------------------+
| Loop number :   34 |
+--------------------+
 
Energies :
 Fermi                       :     0.572119818522    
 sum of eigenvalues          :     -5093.49817937    
 electron kinetic            :      8916.91856366    
 core electron kinetic       :      8690.81327922    
 Coulomb                     :     -17232.3955135    
 Coulomb potential           :     -13664.6793485    
 nuclear-nuclear             :     -918.664977427    
 electron-nuclear            :     -18962.7817236    
 Hartree                     :      2649.05118751    
 Madelung                    :     -10400.0558392    
 xc potential                :     -345.737394478    
 exchange                    :     -255.918336489    
 correlation                 :     -4.57071611582    
 total energy                :     -8575.96600243    
 
Density of states at Fermi energy :    76.26911392    
 (states/Hartree/unit cell)
 
Estimated indirect band gap :   0.8076908471E-04
 from k-point    250 to k-point    114
Estimated direct band gap   :   0.3335537398E-02
 at k-point     11
 
Charges :
 core                        :    56.00000000    
 valence                     :    30.00000000    
 interstitial                :    3.594356036    
 muffin-tins (core leakage)
  species :    1 (Tc)
   atom    1                 :    41.20282198     (  0.5862785812E-06)
   atom    2                 :    41.20282198     (  0.5862785812E-06)
 total in muffin-tins        :    82.40564396    
 total calculated charge     :    85.99968861    
 total charge                :    86.00000000    
 error                       :   0.3113909601E-03
 
Wrote STATE.OUT
 
RMS change in Kohn-Sham potential (target) :   0.9435509253E-04 (   10.00000000    )
Absolute change in total energy (target)   :   0.1344233169E-08 (  0.1000000000E-07)
 
Convergence targets achieved
 
Time (CPU seconds) :      2163.19
 
+--------------------+
| Loop number :   35 |
+--------------------+
 
Energies :
 Fermi                       :     0.572119818175    
 sum of eigenvalues          :     -5093.49817941    
 electron kinetic            :      8916.91856359    
 core electron kinetic       :      8690.81327918    
 Coulomb                     :     -17232.3955135    
 Coulomb potential           :     -13664.6793485    
 nuclear-nuclear             :     -918.664977427    
 electron-nuclear            :     -18962.7817236    
 Hartree                     :      2649.05118752    
 Madelung                    :     -10400.0558392    
 xc potential                :     -345.737394477    
 exchange                    :     -255.918336489    
 correlation                 :     -4.57071611594    
 total energy                :     -8575.96600248    
 
Density of states at Fermi energy :    76.26911635    
 (states/Hartree/unit cell)
 
Estimated indirect band gap :   0.8076901529E-04
 from k-point    250 to k-point    114
Estimated direct band gap   :   0.3335537002E-02
 at k-point     11
 
Charges :
 core                        :    56.00000000    
 valence                     :    30.00000000    
 interstitial                :    3.594356037    
 muffin-tins (core leakage)
  species :    1 (Tc)
   atom    1                 :    41.20282198     (  0.5862519501E-06)
   atom    2                 :    41.20282198     (  0.5862519501E-06)
 total in muffin-tins        :    82.40564396    
 total calculated charge     :    85.99968861    
 total charge                :    86.00000000    
 error                       :   0.3113908761E-03
 
+------------------------------+
| Self-consistent loop stopped |
+------------------------------+
 
Wrote STATE.OUT
 
Timings (CPU seconds) :
 initialisation                        :         0.92
 Hamiltonian and overlap matrix set up :       557.39
 first-variational eigenvalue equation :       804.92
 charge density calculation            :       463.64
 potential calculation                 :       402.51
 total                                 :      2229.38
 
+----------------------------+
| Elk version 8.3.15 stopped |
+----------------------------+
