 
+----------------------------+
| Real-space lattice vectors |
+----------------------------+
 
vector a1 :    4.515556453      -2.607057734       0.000000000    
vector a2 :    0.000000000       5.214115466       0.000000000    
vector a3 :    0.000000000       0.000000000       8.367794277    
 
Stored column-wise as a matrix :
   4.515556453       0.000000000       0.000000000    
  -2.607057734       5.214115466       0.000000000    
   0.000000000       0.000000000       8.367794277    
 
Inverse of matrix :
  0.2214566489       0.000000000       0.000000000    
  0.1107283245      0.1917870838       0.000000000    
   0.000000000       0.000000000      0.1195058061    
 
Unit cell volume :    197.0166431    
 
 
+----------------------------------+
| Reciprocal-space lattice vectors |
+----------------------------------+
 
vector b1 :    1.391453163       0.000000000       0.000000000    
vector b2 :   0.6957265815       1.205033787       0.000000000    
vector b3 :    0.000000000       0.000000000      0.7508771247    
 
Stored column-wise as a matrix :
   1.391453163      0.6957265815       0.000000000    
   0.000000000       1.205033787       0.000000000    
   0.000000000       0.000000000      0.7508771247    
 
Inverse of matrix :
  0.7186731303     -0.4149261252       0.000000000    
   0.000000000      0.8298522503       0.000000000    
   0.000000000       0.000000000       1.331775822    
 
Brillouin zone volume :    1.259031773    
