 
Species :    1 (Re), atom :    1
 APW functions :
  l =  0, energy derivative =  0 :   0.5210379678    
  l =  1, energy derivative =  0 :   0.5210379678    
  l =  2, energy derivative =  0 :   0.5210379678    
  l =  3, energy derivative =  0 :   0.5210379678    
  l =  4, energy derivative =  0 :   0.5210379678    
  l =  5, energy derivative =  0 :   0.5210379678    
  l =  6, energy derivative =  0 :   0.5210379678    
  l =  7, energy derivative =  0 :   0.5210379678    
  l =  8, energy derivative =  0 :   0.5210379678    
  l =  9, energy derivative =  0 :   0.5210379678    
  l = 10, energy derivative =  0 :   0.5210379678    
 local-orbital functions :
  l.o. =  1, l =  0, energy derivative =  0 :   0.5210379678    
  l.o. =  1, l =  0, energy derivative =  1 :   0.5210379678    
  l.o. =  2, l =  1, energy derivative =  0 :   0.5210379678    
  l.o. =  2, l =  1, energy derivative =  1 :   0.5210379678    
  l.o. =  3, l =  2, energy derivative =  0 :   0.5210379678    
  l.o. =  3, l =  2, energy derivative =  1 :   0.5210379678    
  l.o. =  4, l =  3, energy derivative =  0 :   0.5210379678    
  l.o. =  4, l =  3, energy derivative =  1 :   0.5210379678    
  l.o. =  5, l =  3, energy derivative =  0 :   0.5210379678    
  l.o. =  5, l =  3, energy derivative =  0 :  -0.7318253593    
  l.o. =  6, l =  0, energy derivative =  0 :   0.5210379678    
  l.o. =  6, l =  0, energy derivative =  0 :   -2.319840042    
  l.o. =  7, l =  1, energy derivative =  0 :   0.5210379678    
  l.o. =  7, l =  1, energy derivative =  0 :  -0.9122665475    
  l.o. =  8, l =  2, energy derivative =  0 :   0.5210379678    
  l.o. =  8, l =  2, energy derivative =  0 :   0.7450661802    
  l.o. =  9, l =  4, energy derivative =  0 :   0.5210379678    
  l.o. =  9, l =  4, energy derivative =  1 :   0.5210379678    
  l.o. = 10, l =  5, energy derivative =  0 :   0.5210379678    
  l.o. = 10, l =  5, energy derivative =  1 :   0.5210379678    
  l.o. = 11, l =  6, energy derivative =  0 :   0.5210379678    
  l.o. = 11, l =  6, energy derivative =  1 :   0.5210379678    
  l.o. = 12, l =  0, energy derivative =  0 :    1.475250965    
  l.o. = 12, l =  0, energy derivative =  1 :    1.475250965    
  l.o. = 12, l =  0, energy derivative =  2 :    1.475250965    
  l.o. = 13, l =  1, energy derivative =  0 :    2.289864733    
  l.o. = 13, l =  1, energy derivative =  1 :    2.289864733    
  l.o. = 13, l =  1, energy derivative =  2 :    2.289864733    
  l.o. = 14, l =  2, energy derivative =  0 :   0.7450661802    
  l.o. = 14, l =  2, energy derivative =  1 :   0.7450661802    
  l.o. = 14, l =  2, energy derivative =  2 :   0.7450661802    
  l.o. = 15, l =  3, energy derivative =  0 :    2.376811196    
  l.o. = 15, l =  3, energy derivative =  1 :    2.376811196    
  l.o. = 15, l =  3, energy derivative =  2 :    2.376811196    
  l.o. = 16, l =  4, energy derivative =  0 :    3.689717853    
  l.o. = 16, l =  4, energy derivative =  1 :    3.689717853    
  l.o. = 16, l =  4, energy derivative =  2 :    3.689717853    
  l.o. = 17, l =  5, energy derivative =  0 :    5.392297028    
  l.o. = 17, l =  5, energy derivative =  1 :    5.392297028    
  l.o. = 17, l =  5, energy derivative =  2 :    5.392297028    
  l.o. = 18, l =  6, energy derivative =  0 :    7.189440764    
  l.o. = 18, l =  6, energy derivative =  1 :    7.189440764    
  l.o. = 18, l =  6, energy derivative =  2 :    7.189440764    
  l.o. = 19, l =  7, energy derivative =  0 :    9.140939833    
  l.o. = 19, l =  7, energy derivative =  1 :    9.140939833    
  l.o. = 19, l =  7, energy derivative =  2 :    9.140939833    
  l.o. = 20, l =  8, energy derivative =  0 :    11.26370571    
  l.o. = 20, l =  8, energy derivative =  1 :    11.26370571    
  l.o. = 20, l =  8, energy derivative =  2 :    11.26370571    
 
Species :    1 (Re), atom :    2
 APW functions :
  l =  0, energy derivative =  0 :   0.5210379678    
  l =  1, energy derivative =  0 :   0.5210379678    
  l =  2, energy derivative =  0 :   0.5210379678    
  l =  3, energy derivative =  0 :   0.5210379678    
  l =  4, energy derivative =  0 :   0.5210379678    
  l =  5, energy derivative =  0 :   0.5210379678    
  l =  6, energy derivative =  0 :   0.5210379678    
  l =  7, energy derivative =  0 :   0.5210379678    
  l =  8, energy derivative =  0 :   0.5210379678    
  l =  9, energy derivative =  0 :   0.5210379678    
  l = 10, energy derivative =  0 :   0.5210379678    
 local-orbital functions :
  l.o. =  1, l =  0, energy derivative =  0 :   0.5210379678    
  l.o. =  1, l =  0, energy derivative =  1 :   0.5210379678    
  l.o. =  2, l =  1, energy derivative =  0 :   0.5210379678    
  l.o. =  2, l =  1, energy derivative =  1 :   0.5210379678    
  l.o. =  3, l =  2, energy derivative =  0 :   0.5210379678    
  l.o. =  3, l =  2, energy derivative =  1 :   0.5210379678    
  l.o. =  4, l =  3, energy derivative =  0 :   0.5210379678    
  l.o. =  4, l =  3, energy derivative =  1 :   0.5210379678    
  l.o. =  5, l =  3, energy derivative =  0 :   0.5210379678    
  l.o. =  5, l =  3, energy derivative =  0 :  -0.7318253593    
  l.o. =  6, l =  0, energy derivative =  0 :   0.5210379678    
  l.o. =  6, l =  0, energy derivative =  0 :   -2.319840042    
  l.o. =  7, l =  1, energy derivative =  0 :   0.5210379678    
  l.o. =  7, l =  1, energy derivative =  0 :  -0.9122665475    
  l.o. =  8, l =  2, energy derivative =  0 :   0.5210379678    
  l.o. =  8, l =  2, energy derivative =  0 :   0.7450661802    
  l.o. =  9, l =  4, energy derivative =  0 :   0.5210379678    
  l.o. =  9, l =  4, energy derivative =  1 :   0.5210379678    
  l.o. = 10, l =  5, energy derivative =  0 :   0.5210379678    
  l.o. = 10, l =  5, energy derivative =  1 :   0.5210379678    
  l.o. = 11, l =  6, energy derivative =  0 :   0.5210379678    
  l.o. = 11, l =  6, energy derivative =  1 :   0.5210379678    
  l.o. = 12, l =  0, energy derivative =  0 :    1.475250965    
  l.o. = 12, l =  0, energy derivative =  1 :    1.475250965    
  l.o. = 12, l =  0, energy derivative =  2 :    1.475250965    
  l.o. = 13, l =  1, energy derivative =  0 :    2.289864733    
  l.o. = 13, l =  1, energy derivative =  1 :    2.289864733    
  l.o. = 13, l =  1, energy derivative =  2 :    2.289864733    
  l.o. = 14, l =  2, energy derivative =  0 :   0.7450661802    
  l.o. = 14, l =  2, energy derivative =  1 :   0.7450661802    
  l.o. = 14, l =  2, energy derivative =  2 :   0.7450661802    
  l.o. = 15, l =  3, energy derivative =  0 :    2.376811196    
  l.o. = 15, l =  3, energy derivative =  1 :    2.376811196    
  l.o. = 15, l =  3, energy derivative =  2 :    2.376811196    
  l.o. = 16, l =  4, energy derivative =  0 :    3.689717853    
  l.o. = 16, l =  4, energy derivative =  1 :    3.689717853    
  l.o. = 16, l =  4, energy derivative =  2 :    3.689717853    
  l.o. = 17, l =  5, energy derivative =  0 :    5.392297028    
  l.o. = 17, l =  5, energy derivative =  1 :    5.392297028    
  l.o. = 17, l =  5, energy derivative =  2 :    5.392297028    
  l.o. = 18, l =  6, energy derivative =  0 :    7.189440764    
  l.o. = 18, l =  6, energy derivative =  1 :    7.189440764    
  l.o. = 18, l =  6, energy derivative =  2 :    7.189440764    
  l.o. = 19, l =  7, energy derivative =  0 :    9.140939833    
  l.o. = 19, l =  7, energy derivative =  1 :    9.140939833    
  l.o. = 19, l =  7, energy derivative =  2 :    9.140939833    
  l.o. = 20, l =  8, energy derivative =  0 :    11.26370571    
  l.o. = 20, l =  8, energy derivative =  1 :    11.26370571    
  l.o. = 20, l =  8, energy derivative =  2 :    11.26370571    
