 
Species :    1 (Re), atom :    1
 n =  1, l =  0, k =  1 :   -2632.438603    
 n =  2, l =  0, k =  1 :   -454.9938114    
 n =  2, l =  1, k =  1 :   -435.7134467    
 n =  2, l =  1, k =  2 :   -382.5402293    
 n =  3, l =  0, k =  1 :   -104.6703899    
 n =  3, l =  1, k =  1 :   -95.98673980    
 n =  3, l =  1, k =  2 :   -84.43665905    
 n =  3, l =  2, k =  2 :   -69.63485206    
 n =  3, l =  2, k =  3 :   -67.13822452    
 n =  4, l =  0, k =  1 :   -21.20366936    
 n =  4, l =  1, k =  1 :   -17.56008223    
 n =  4, l =  1, k =  2 :   -14.86368176    
 n =  4, l =  2, k =  2 :   -8.832820742    
 n =  4, l =  2, k =  3 :   -8.336946622    
 
Species :    1 (Re), atom :    2
 n =  1, l =  0, k =  1 :   -2632.438603    
 n =  2, l =  0, k =  1 :   -454.9938114    
 n =  2, l =  1, k =  1 :   -435.7134467    
 n =  2, l =  1, k =  2 :   -382.5402293    
 n =  3, l =  0, k =  1 :   -104.6703899    
 n =  3, l =  1, k =  1 :   -95.98673980    
 n =  3, l =  1, k =  2 :   -84.43665905    
 n =  3, l =  2, k =  2 :   -69.63485206    
 n =  3, l =  2, k =  3 :   -67.13822452    
 n =  4, l =  0, k =  1 :   -21.20366936    
 n =  4, l =  1, k =  1 :   -17.56008223    
 n =  4, l =  1, k =  2 :   -14.86368176    
 n =  4, l =  2, k =  2 :   -8.832820742    
 n =  4, l =  2, k =  3 :   -8.336946622    
