   1.170658970    
   1.109399484    
  0.6161287880    
  0.2346810786    
  0.6783460275E-01
  0.2523120299E-02
  0.7268002049E-03
  0.2504667789E-03
  0.7368211285E-04
  0.3406359519E-04
  0.8329470585E-04
  0.9846973028E-05
  0.4878613777E-05
  0.5333511012E-05
  0.3616699973E-05
  0.3335375118E-04
  0.3212408204E-05
  0.3031320014E-04
  0.1109451638E-04
  0.1109357117E-04
  0.1846991328E-05
  0.2240003738E-04
  0.9308812699E-05
  0.1362400574E-04
  0.1344615836E-04
  0.1016628609E-04
  0.4109871112E-04
  0.5184694630E-05
  0.2275849538E-04
  0.1526601446E-04
  0.3257549269E-04
  0.3235323748E-05
  0.2885361383E-05
  0.1027218632E-04
  0.4823711654E-05
  0.1921473321E-05
  0.3535316073E-05
  0.3546287250E-05
  0.5864038948E-05
  0.9186845808E-05
  0.1385252502E-04
  0.3628993550E-05
  0.6480378486E-05
  0.4497675049E-04
  0.1417298511E-04
  0.1670890745E-04
  0.6218861633E-04
  0.3279030554E-05
  0.5250639779E-05
  0.4897980461E-05
  0.3644840044E-04
  0.2614973030E-05
  0.1646584945E-05
  0.1694775180E-04
  0.1826833319E-04
  0.7911668072E-05
  0.2102098953E-04
  0.1000693126E-04
  0.1980938271E-05
  0.8468860543E-05
  0.1913463116E-05
  0.9085813613E-06
  0.1012795236E-04
  0.6675517737E-05
  0.3488984476E-04
  0.1327705931E-04
  0.4275067114E-05
  0.7721009414E-05
  0.7249656591E-05
  0.7278635087E-05
  0.1590934092E-05
  0.2565066414E-04
  0.1831484056E-05
  0.9223854551E-04
  0.3488791268E-04
  0.9769603106E-05
  0.6334112715E-05
  0.4097949207E-04
  0.2228066630E-04
  0.3393044014E-04
  0.8465316656E-04
  0.2239317070E-04
  0.4069761618E-05
  0.1275033047E-04
  0.2124131881E-05
  0.9248470811E-05
  0.4497063908E-05
  0.4359766871E-04
  0.1419642042E-05
  0.1762236853E-04
  0.6552346745E-04
  0.1716176210E-05
  0.4573900066E-05
  0.2683163743E-05
  0.1171322617E-04
  0.1425040369E-04
  0.6234388262E-05
  0.9388557580E-05
  0.1730348109E-04
  0.2000607595E-04
  0.7063577554E-05
  0.2669001326E-05
  0.1207522452E-04
  0.1495053442E-04
  0.1011233166E-04
  0.3208390723E-05
  0.1530677469E-03
  0.1768413276E-04
  0.7597535180E-04
  0.1517151502E-04
  0.6968535873E-05
  0.9975846686E-05
  0.7693784338E-05
  0.3484912298E-04
  0.5367864903E-04
  0.3096153489E-05
  0.5864965295E-04
  0.1708867228E-04
  0.1156253333E-04
  0.7856399614E-04
  0.2971413996E-04
  0.1736696465E-04
  0.3940723041E-05
  0.3187799788E-04
  0.1534367700E-04
  0.1188255927E-04
  0.1206609817E-04
  0.2060791208E-04
  0.6601134371E-05
  0.6045724582E-04
  0.1490636548E-04
  0.1689220312E-04
  0.1992339640E-04
  0.8212671140E-04
  0.1503782505E-04
  0.5279094986E-05
