 
+----------------------------+
| Real-space lattice vectors |
+----------------------------+
 
vector a1 :    2.874140641       2.874140641      -2.874140641    
vector a2 :    2.874140641      -2.874140641       2.874140641    
vector a3 :   -2.874140641       2.874140641       2.874140641    
 
Stored column-wise as a matrix :
   2.874140641       2.874140641      -2.874140641    
   2.874140641      -2.874140641       2.874140641    
  -2.874140641       2.874140641       2.874140641    
 
Inverse of matrix :
  0.1739650429      0.1739650429       0.000000000    
  0.1739650429       0.000000000      0.1739650429    
   0.000000000      0.1739650429      0.1739650429    
 
Unit cell volume :    94.96947534    
 
 
+----------------------------------+
| Reciprocal-space lattice vectors |
+----------------------------------+
 
vector b1 :    1.093054602       1.093054602       0.000000000    
vector b2 :    1.093054602       0.000000000       1.093054602    
vector b3 :    0.000000000       1.093054602       1.093054602    
 
Stored column-wise as a matrix :
   1.093054602       1.093054602       0.000000000    
   1.093054602       0.000000000       1.093054602    
   0.000000000       1.093054602       1.093054602    
 
Inverse of matrix :
  0.4574336902      0.4574336902     -0.4574336902    
  0.4574336902     -0.4574336902      0.4574336902    
 -0.4574336902      0.4574336902      0.4574336902    
 
Brillouin zone volume :    2.611894112    
