 
Species :    1 (Os), atom :    1
 n =  1, l =  0, k =  1 :   -2713.588694    
 n =  2, l =  0, k =  1 :   -471.1339953    
 n =  2, l =  1, k =  1 :   -451.4237399    
 n =  2, l =  1, k =  2 :   -394.8718565    
 n =  3, l =  0, k =  1 :   -108.9575378    
 n =  3, l =  1, k =  1 :   -100.0629616    
 n =  3, l =  1, k =  2 :   -87.72778008    
 n =  3, l =  2, k =  2 :   -72.60952908    
 n =  3, l =  2, k =  3 :   -69.94867535    
 n =  4, l =  0, k =  1 :   -22.34224946    
 n =  4, l =  1, k =  1 :   -18.58869879    
 n =  4, l =  1, k =  2 :   -15.68931831    
 n =  4, l =  2, k =  2 :   -9.480745390    
 n =  4, l =  2, k =  3 :   -8.946177346    
 
Species :    1 (Os), atom :    2
 n =  1, l =  0, k =  1 :   -2713.588694    
 n =  2, l =  0, k =  1 :   -471.1339953    
 n =  2, l =  1, k =  1 :   -451.4237399    
 n =  2, l =  1, k =  2 :   -394.8718565    
 n =  3, l =  0, k =  1 :   -108.9575378    
 n =  3, l =  1, k =  1 :   -100.0629616    
 n =  3, l =  1, k =  2 :   -87.72778008    
 n =  3, l =  2, k =  2 :   -72.60952908    
 n =  3, l =  2, k =  3 :   -69.94867535    
 n =  4, l =  0, k =  1 :   -22.34224946    
 n =  4, l =  1, k =  1 :   -18.58869879    
 n =  4, l =  1, k =  2 :   -15.68931831    
 n =  4, l =  2, k =  2 :   -9.480745390    
 n =  4, l =  2, k =  3 :   -8.946177346    
