   297 : nkpt; k-point, vkl, wkpt, nmat below
     1   0.000000000       0.000000000       0.000000000      0.2035416243E-03     543
     2  0.5882352941E-01   0.000000000       0.000000000      0.1221249746E-02     545
     3  0.1176470588       0.000000000       0.000000000      0.1221249746E-02     539
     4  0.1764705882       0.000000000       0.000000000      0.1221249746E-02     534
     5  0.2352941176       0.000000000       0.000000000      0.1221249746E-02     532
     6  0.2941176471       0.000000000       0.000000000      0.1221249746E-02     536
     7  0.3529411765       0.000000000       0.000000000      0.1221249746E-02     532
     8  0.4117647059       0.000000000       0.000000000      0.1221249746E-02     532
     9  0.4705882353       0.000000000       0.000000000      0.1221249746E-02     534
    10  0.5882352941E-01  0.5882352941E-01   0.000000000      0.1221249746E-02     541
    11  0.1176470588      0.5882352941E-01   0.000000000      0.2442499491E-02     532
    12  0.1764705882      0.5882352941E-01   0.000000000      0.2442499491E-02     531
    13  0.2352941176      0.5882352941E-01   0.000000000      0.2442499491E-02     531
    14  0.2941176471      0.5882352941E-01   0.000000000      0.2442499491E-02     533
    15  0.3529411765      0.5882352941E-01   0.000000000      0.2442499491E-02     529
    16  0.4117647059      0.5882352941E-01   0.000000000      0.2442499491E-02     536
    17  0.4705882353      0.5882352941E-01   0.000000000      0.1221249746E-02     536
    18  0.1176470588      0.1176470588       0.000000000      0.1221249746E-02     527
    19  0.1764705882      0.1176470588       0.000000000      0.2442499491E-02     527
    20  0.2352941176      0.1176470588       0.000000000      0.2442499491E-02     537
    21  0.2941176471      0.1176470588       0.000000000      0.2442499491E-02     534
    22  0.3529411765      0.1176470588       0.000000000      0.2442499491E-02     533
    23  0.4117647059      0.1176470588       0.000000000      0.2442499491E-02     535
    24  0.1764705882      0.1764705882       0.000000000      0.1221249746E-02     531
    25  0.2352941176      0.1764705882       0.000000000      0.2442499491E-02     532
    26  0.2941176471      0.1764705882       0.000000000      0.2442499491E-02     536
    27  0.3529411765      0.1764705882       0.000000000      0.2442499491E-02     531
    28  0.4117647059      0.1764705882       0.000000000      0.1221249746E-02     532
    29  0.2352941176      0.2352941176       0.000000000      0.1221249746E-02     534
    30  0.2941176471      0.2352941176       0.000000000      0.2442499491E-02     528
    31  0.3529411765      0.2352941176       0.000000000      0.2442499491E-02     531
    32  0.2941176471      0.2941176471       0.000000000      0.1221249746E-02     528
    33  0.3529411765      0.2941176471       0.000000000      0.1221249746E-02     534
    34   0.000000000       0.000000000      0.5882352941E-01  0.4070832485E-03     543
    35  0.5882352941E-01   0.000000000      0.5882352941E-01  0.2442499491E-02     545
    36  0.1176470588       0.000000000      0.5882352941E-01  0.2442499491E-02     539
    37  0.1764705882       0.000000000      0.5882352941E-01  0.2442499491E-02     535
    38  0.2352941176       0.000000000      0.5882352941E-01  0.2442499491E-02     531
    39  0.2941176471       0.000000000      0.5882352941E-01  0.2442499491E-02     533
    40  0.3529411765       0.000000000      0.5882352941E-01  0.2442499491E-02     530
    41  0.4117647059       0.000000000      0.5882352941E-01  0.2442499491E-02     530
    42  0.4705882353       0.000000000      0.5882352941E-01  0.2442499491E-02     532
    43  0.5882352941E-01  0.5882352941E-01  0.5882352941E-01  0.2442499491E-02     542
    44  0.1176470588      0.5882352941E-01  0.5882352941E-01  0.4884998982E-02     531
    45  0.1764705882      0.5882352941E-01  0.5882352941E-01  0.4884998982E-02     530
    46  0.2352941176      0.5882352941E-01  0.5882352941E-01  0.4884998982E-02     532
    47  0.2941176471      0.5882352941E-01  0.5882352941E-01  0.4884998982E-02     535
    48  0.3529411765      0.5882352941E-01  0.5882352941E-01  0.4884998982E-02     531
    49  0.4117647059      0.5882352941E-01  0.5882352941E-01  0.4884998982E-02     532
    50  0.4705882353      0.5882352941E-01  0.5882352941E-01  0.2442499491E-02     532
    51  0.1176470588      0.1176470588      0.5882352941E-01  0.2442499491E-02     531
    52  0.1764705882      0.1176470588      0.5882352941E-01  0.4884998982E-02     528
    53  0.2352941176      0.1176470588      0.5882352941E-01  0.4884998982E-02     535
    54  0.2941176471      0.1176470588      0.5882352941E-01  0.4884998982E-02     533
    55  0.3529411765      0.1176470588      0.5882352941E-01  0.4884998982E-02     532
    56  0.4117647059      0.1176470588      0.5882352941E-01  0.4884998982E-02     532
    57  0.1764705882      0.1764705882      0.5882352941E-01  0.2442499491E-02     533
    58  0.2352941176      0.1764705882      0.5882352941E-01  0.4884998982E-02     533
    59  0.2941176471      0.1764705882      0.5882352941E-01  0.4884998982E-02     535
    60  0.3529411765      0.1764705882      0.5882352941E-01  0.4884998982E-02     531
    61  0.4117647059      0.1764705882      0.5882352941E-01  0.2442499491E-02     531
    62  0.2352941176      0.2352941176      0.5882352941E-01  0.2442499491E-02     535
    63  0.2941176471      0.2352941176      0.5882352941E-01  0.4884998982E-02     532
    64  0.3529411765      0.2352941176      0.5882352941E-01  0.4884998982E-02     530
    65  0.2941176471      0.2941176471      0.5882352941E-01  0.2442499491E-02     529
    66  0.3529411765      0.2941176471      0.5882352941E-01  0.2442499491E-02     533
    67   0.000000000       0.000000000      0.1176470588      0.4070832485E-03     536
    68  0.5882352941E-01   0.000000000      0.1176470588      0.2442499491E-02     542
    69  0.1176470588       0.000000000      0.1176470588      0.2442499491E-02     539
    70  0.1764705882       0.000000000      0.1176470588      0.2442499491E-02     531
    71  0.2352941176       0.000000000      0.1176470588      0.2442499491E-02     532
    72  0.2941176471       0.000000000      0.1176470588      0.2442499491E-02     531
    73  0.3529411765       0.000000000      0.1176470588      0.2442499491E-02     533
    74  0.4117647059       0.000000000      0.1176470588      0.2442499491E-02     531
    75  0.4705882353       0.000000000      0.1176470588      0.2442499491E-02     530
    76  0.5882352941E-01  0.5882352941E-01  0.1176470588      0.2442499491E-02     539
    77  0.1176470588      0.5882352941E-01  0.1176470588      0.4884998982E-02     532
    78  0.1764705882      0.5882352941E-01  0.1176470588      0.4884998982E-02     531
    79  0.2352941176      0.5882352941E-01  0.1176470588      0.4884998982E-02     534
    80  0.2941176471      0.5882352941E-01  0.1176470588      0.4884998982E-02     531
    81  0.3529411765      0.5882352941E-01  0.1176470588      0.4884998982E-02     531
    82  0.4117647059      0.5882352941E-01  0.1176470588      0.4884998982E-02     533
    83  0.4705882353      0.5882352941E-01  0.1176470588      0.2442499491E-02     533
    84  0.1176470588      0.1176470588      0.1176470588      0.2442499491E-02     530
    85  0.1764705882      0.1176470588      0.1176470588      0.4884998982E-02     533
    86  0.2352941176      0.1176470588      0.1176470588      0.4884998982E-02     533
    87  0.2941176471      0.1176470588      0.1176470588      0.4884998982E-02     535
    88  0.3529411765      0.1176470588      0.1176470588      0.4884998982E-02     534
    89  0.4117647059      0.1176470588      0.1176470588      0.4884998982E-02     532
    90  0.1764705882      0.1764705882      0.1176470588      0.2442499491E-02     532
    91  0.2352941176      0.1764705882      0.1176470588      0.4884998982E-02     533
    92  0.2941176471      0.1764705882      0.1176470588      0.4884998982E-02     535
    93  0.3529411765      0.1764705882      0.1176470588      0.4884998982E-02     532
    94  0.4117647059      0.1764705882      0.1176470588      0.2442499491E-02     532
    95  0.2352941176      0.2352941176      0.1176470588      0.2442499491E-02     535
    96  0.2941176471      0.2352941176      0.1176470588      0.4884998982E-02     532
    97  0.3529411765      0.2352941176      0.1176470588      0.4884998982E-02     530
    98  0.2941176471      0.2941176471      0.1176470588      0.2442499491E-02     526
    99  0.3529411765      0.2941176471      0.1176470588      0.2442499491E-02     532
   100   0.000000000       0.000000000      0.1764705882      0.4070832485E-03     542
   101  0.5882352941E-01   0.000000000      0.1764705882      0.2442499491E-02     535
   102  0.1176470588       0.000000000      0.1764705882      0.2442499491E-02     538
   103  0.1764705882       0.000000000      0.1764705882      0.2442499491E-02     537
   104  0.2352941176       0.000000000      0.1764705882      0.2442499491E-02     534
   105  0.2941176471       0.000000000      0.1764705882      0.2442499491E-02     533
   106  0.3529411765       0.000000000      0.1764705882      0.2442499491E-02     533
   107  0.4117647059       0.000000000      0.1764705882      0.2442499491E-02     535
   108  0.4705882353       0.000000000      0.1764705882      0.2442499491E-02     532
   109  0.5882352941E-01  0.5882352941E-01  0.1764705882      0.2442499491E-02     539
   110  0.1176470588      0.5882352941E-01  0.1764705882      0.4884998982E-02     535
   111  0.1764705882      0.5882352941E-01  0.1764705882      0.4884998982E-02     533
   112  0.2352941176      0.5882352941E-01  0.1764705882      0.4884998982E-02     534
   113  0.2941176471      0.5882352941E-01  0.1764705882      0.4884998982E-02     534
   114  0.3529411765      0.5882352941E-01  0.1764705882      0.4884998982E-02     534
   115  0.4117647059      0.5882352941E-01  0.1764705882      0.4884998982E-02     533
   116  0.4705882353      0.5882352941E-01  0.1764705882      0.2442499491E-02     534
   117  0.1176470588      0.1176470588      0.1764705882      0.2442499491E-02     534
   118  0.1764705882      0.1176470588      0.1764705882      0.4884998982E-02     534
   119  0.2352941176      0.1176470588      0.1764705882      0.4884998982E-02     531
   120  0.2941176471      0.1176470588      0.1764705882      0.4884998982E-02     533
   121  0.3529411765      0.1176470588      0.1764705882      0.4884998982E-02     531
   122  0.4117647059      0.1176470588      0.1764705882      0.4884998982E-02     531
   123  0.1764705882      0.1764705882      0.1764705882      0.2442499491E-02     532
   124  0.2352941176      0.1764705882      0.1764705882      0.4884998982E-02     533
   125  0.2941176471      0.1764705882      0.1764705882      0.4884998982E-02     534
   126  0.3529411765      0.1764705882      0.1764705882      0.4884998982E-02     533
   127  0.4117647059      0.1764705882      0.1764705882      0.2442499491E-02     533
   128  0.2352941176      0.2352941176      0.1764705882      0.2442499491E-02     535
   129  0.2941176471      0.2352941176      0.1764705882      0.4884998982E-02     531
   130  0.3529411765      0.2352941176      0.1764705882      0.4884998982E-02     530
   131  0.2941176471      0.2941176471      0.1764705882      0.2442499491E-02     526
   132  0.3529411765      0.2941176471      0.1764705882      0.2442499491E-02     530
   133   0.000000000       0.000000000      0.2352941176      0.4070832485E-03     548
   134  0.5882352941E-01   0.000000000      0.2352941176      0.2442499491E-02     539
   135  0.1176470588       0.000000000      0.2352941176      0.2442499491E-02     539
   136  0.1764705882       0.000000000      0.2352941176      0.2442499491E-02     537
   137  0.2352941176       0.000000000      0.2352941176      0.2442499491E-02     538
   138  0.2941176471       0.000000000      0.2352941176      0.2442499491E-02     531
   139  0.3529411765       0.000000000      0.2352941176      0.2442499491E-02     532
   140  0.4117647059       0.000000000      0.2352941176      0.2442499491E-02     535
   141  0.4705882353       0.000000000      0.2352941176      0.2442499491E-02     533
   142  0.5882352941E-01  0.5882352941E-01  0.2352941176      0.2442499491E-02     540
   143  0.1176470588      0.5882352941E-01  0.2352941176      0.4884998982E-02     536
   144  0.1764705882      0.5882352941E-01  0.2352941176      0.4884998982E-02     538
   145  0.2352941176      0.5882352941E-01  0.2352941176      0.4884998982E-02     536
   146  0.2941176471      0.5882352941E-01  0.2352941176      0.4884998982E-02     531
   147  0.3529411765      0.5882352941E-01  0.2352941176      0.4884998982E-02     533
   148  0.4117647059      0.5882352941E-01  0.2352941176      0.4884998982E-02     533
   149  0.4705882353      0.5882352941E-01  0.2352941176      0.2442499491E-02     534
   150  0.1176470588      0.1176470588      0.2352941176      0.2442499491E-02     537
   151  0.1764705882      0.1176470588      0.2352941176      0.4884998982E-02     537
   152  0.2352941176      0.1176470588      0.2352941176      0.4884998982E-02     532
   153  0.2941176471      0.1176470588      0.2352941176      0.4884998982E-02     532
   154  0.3529411765      0.1176470588      0.2352941176      0.4884998982E-02     532
   155  0.4117647059      0.1176470588      0.2352941176      0.4884998982E-02     533
   156  0.1764705882      0.1764705882      0.2352941176      0.2442499491E-02     532
   157  0.2352941176      0.1764705882      0.2352941176      0.4884998982E-02     534
   158  0.2941176471      0.1764705882      0.2352941176      0.4884998982E-02     533
   159  0.3529411765      0.1764705882      0.2352941176      0.4884998982E-02     534
   160  0.4117647059      0.1764705882      0.2352941176      0.2442499491E-02     530
   161  0.2352941176      0.2352941176      0.2352941176      0.2442499491E-02     531
   162  0.2941176471      0.2352941176      0.2352941176      0.4884998982E-02     532
   163  0.3529411765      0.2352941176      0.2352941176      0.4884998982E-02     531
   164  0.2941176471      0.2941176471      0.2352941176      0.2442499491E-02     530
   165  0.3529411765      0.2941176471      0.2352941176      0.2442499491E-02     528
   166   0.000000000       0.000000000      0.2941176471      0.4070832485E-03     554
   167  0.5882352941E-01   0.000000000      0.2941176471      0.2442499491E-02     542
   168  0.1176470588       0.000000000      0.2941176471      0.2442499491E-02     541
   169  0.1764705882       0.000000000      0.2941176471      0.2442499491E-02     539
   170  0.2352941176       0.000000000      0.2941176471      0.2442499491E-02     537
   171  0.2941176471       0.000000000      0.2941176471      0.2442499491E-02     533
   172  0.3529411765       0.000000000      0.2941176471      0.2442499491E-02     529
   173  0.4117647059       0.000000000      0.2941176471      0.2442499491E-02     532
   174  0.4705882353       0.000000000      0.2941176471      0.2442499491E-02     535
   175  0.5882352941E-01  0.5882352941E-01  0.2941176471      0.2442499491E-02     542
   176  0.1176470588      0.5882352941E-01  0.2941176471      0.4884998982E-02     539
   177  0.1764705882      0.5882352941E-01  0.2941176471      0.4884998982E-02     538
   178  0.2352941176      0.5882352941E-01  0.2941176471      0.4884998982E-02     535
   179  0.2941176471      0.5882352941E-01  0.2941176471      0.4884998982E-02     532
   180  0.3529411765      0.5882352941E-01  0.2941176471      0.4884998982E-02     530
   181  0.4117647059      0.5882352941E-01  0.2941176471      0.4884998982E-02     532
   182  0.4705882353      0.5882352941E-01  0.2941176471      0.2442499491E-02     533
   183  0.1176470588      0.1176470588      0.2941176471      0.2442499491E-02     537
   184  0.1764705882      0.1176470588      0.2941176471      0.4884998982E-02     538
   185  0.2352941176      0.1176470588      0.2941176471      0.4884998982E-02     534
   186  0.2941176471      0.1176470588      0.2941176471      0.4884998982E-02     532
   187  0.3529411765      0.1176470588      0.2941176471      0.4884998982E-02     531
   188  0.4117647059      0.1176470588      0.2941176471      0.4884998982E-02     531
   189  0.1764705882      0.1764705882      0.2941176471      0.2442499491E-02     534
   190  0.2352941176      0.1764705882      0.2941176471      0.4884998982E-02     536
   191  0.2941176471      0.1764705882      0.2941176471      0.4884998982E-02     533
   192  0.3529411765      0.1764705882      0.2941176471      0.4884998982E-02     533
   193  0.4117647059      0.1764705882      0.2941176471      0.2442499491E-02     528
   194  0.2352941176      0.2352941176      0.2941176471      0.2442499491E-02     531
   195  0.2941176471      0.2352941176      0.2941176471      0.4884998982E-02     533
   196  0.3529411765      0.2352941176      0.2941176471      0.4884998982E-02     532
   197  0.2941176471      0.2941176471      0.2941176471      0.2442499491E-02     529
   198  0.3529411765      0.2941176471      0.2941176471      0.2442499491E-02     530
   199   0.000000000       0.000000000      0.3529411765      0.4070832485E-03     542
   200  0.5882352941E-01   0.000000000      0.3529411765      0.2442499491E-02     542
   201  0.1176470588       0.000000000      0.3529411765      0.2442499491E-02     542
   202  0.1764705882       0.000000000      0.3529411765      0.2442499491E-02     543
   203  0.2352941176       0.000000000      0.3529411765      0.2442499491E-02     541
   204  0.2941176471       0.000000000      0.3529411765      0.2442499491E-02     535
   205  0.3529411765       0.000000000      0.3529411765      0.2442499491E-02     529
   206  0.4117647059       0.000000000      0.3529411765      0.2442499491E-02     532
   207  0.4705882353       0.000000000      0.3529411765      0.2442499491E-02     530
   208  0.5882352941E-01  0.5882352941E-01  0.3529411765      0.2442499491E-02     542
   209  0.1176470588      0.5882352941E-01  0.3529411765      0.4884998982E-02     542
   210  0.1764705882      0.5882352941E-01  0.3529411765      0.4884998982E-02     536
   211  0.2352941176      0.5882352941E-01  0.3529411765      0.4884998982E-02     536
   212  0.2941176471      0.5882352941E-01  0.3529411765      0.4884998982E-02     532
   213  0.3529411765      0.5882352941E-01  0.3529411765      0.4884998982E-02     531
   214  0.4117647059      0.5882352941E-01  0.3529411765      0.4884998982E-02     530
   215  0.4705882353      0.5882352941E-01  0.3529411765      0.2442499491E-02     535
   216  0.1176470588      0.1176470588      0.3529411765      0.2442499491E-02     544
   217  0.1764705882      0.1176470588      0.3529411765      0.4884998982E-02     537
   218  0.2352941176      0.1176470588      0.3529411765      0.4884998982E-02     535
   219  0.2941176471      0.1176470588      0.3529411765      0.4884998982E-02     535
   220  0.3529411765      0.1176470588      0.3529411765      0.4884998982E-02     528
   221  0.4117647059      0.1176470588      0.3529411765      0.4884998982E-02     532
   222  0.1764705882      0.1764705882      0.3529411765      0.2442499491E-02     536
   223  0.2352941176      0.1764705882      0.3529411765      0.4884998982E-02     535
   224  0.2941176471      0.1764705882      0.3529411765      0.4884998982E-02     534
   225  0.3529411765      0.1764705882      0.3529411765      0.4884998982E-02     532
   226  0.4117647059      0.1764705882      0.3529411765      0.2442499491E-02     526
   227  0.2352941176      0.2352941176      0.3529411765      0.2442499491E-02     531
   228  0.2941176471      0.2352941176      0.3529411765      0.4884998982E-02     534
   229  0.3529411765      0.2352941176      0.3529411765      0.4884998982E-02     530
   230  0.2941176471      0.2941176471      0.3529411765      0.2442499491E-02     531
   231  0.3529411765      0.2941176471      0.3529411765      0.2442499491E-02     531
   232   0.000000000       0.000000000      0.4117647059      0.4070832485E-03     542
   233  0.5882352941E-01   0.000000000      0.4117647059      0.2442499491E-02     544
   234  0.1176470588       0.000000000      0.4117647059      0.2442499491E-02     542
   235  0.1764705882       0.000000000      0.4117647059      0.2442499491E-02     540
   236  0.2352941176       0.000000000      0.4117647059      0.2442499491E-02     538
   237  0.2941176471       0.000000000      0.4117647059      0.2442499491E-02     531
   238  0.3529411765       0.000000000      0.4117647059      0.2442499491E-02     533
   239  0.4117647059       0.000000000      0.4117647059      0.2442499491E-02     534
   240  0.4705882353       0.000000000      0.4117647059      0.2442499491E-02     530
   241  0.5882352941E-01  0.5882352941E-01  0.4117647059      0.2442499491E-02     540
   242  0.1176470588      0.5882352941E-01  0.4117647059      0.4884998982E-02     544
   243  0.1764705882      0.5882352941E-01  0.4117647059      0.4884998982E-02     540
   244  0.2352941176      0.5882352941E-01  0.4117647059      0.4884998982E-02     535
   245  0.2941176471      0.5882352941E-01  0.4117647059      0.4884998982E-02     532
   246  0.3529411765      0.5882352941E-01  0.4117647059      0.4884998982E-02     531
   247  0.4117647059      0.5882352941E-01  0.4117647059      0.4884998982E-02     530
   248  0.4705882353      0.5882352941E-01  0.4117647059      0.2442499491E-02     529
   249  0.1176470588      0.1176470588      0.4117647059      0.2442499491E-02     544
   250  0.1764705882      0.1176470588      0.4117647059      0.4884998982E-02     539
   251  0.2352941176      0.1176470588      0.4117647059      0.4884998982E-02     535
   252  0.2941176471      0.1176470588      0.4117647059      0.4884998982E-02     534
   253  0.3529411765      0.1176470588      0.4117647059      0.4884998982E-02     529
   254  0.4117647059      0.1176470588      0.4117647059      0.4884998982E-02     530
   255  0.1764705882      0.1764705882      0.4117647059      0.2442499491E-02     537
   256  0.2352941176      0.1764705882      0.4117647059      0.4884998982E-02     537
   257  0.2941176471      0.1764705882      0.4117647059      0.4884998982E-02     532
   258  0.3529411765      0.1764705882      0.4117647059      0.4884998982E-02     529
   259  0.4117647059      0.1764705882      0.4117647059      0.2442499491E-02     526
   260  0.2352941176      0.2352941176      0.4117647059      0.2442499491E-02     537
   261  0.2941176471      0.2352941176      0.4117647059      0.4884998982E-02     531
   262  0.3529411765      0.2352941176      0.4117647059      0.4884998982E-02     529
   263  0.2941176471      0.2941176471      0.4117647059      0.2442499491E-02     534
   264  0.3529411765      0.2941176471      0.4117647059      0.2442499491E-02     529
   265   0.000000000       0.000000000      0.4705882353      0.4070832485E-03     542
   266  0.5882352941E-01   0.000000000      0.4705882353      0.2442499491E-02     540
   267  0.1176470588       0.000000000      0.4705882353      0.2442499491E-02     543
   268  0.1764705882       0.000000000      0.4705882353      0.2442499491E-02     542
   269  0.2352941176       0.000000000      0.4705882353      0.2442499491E-02     538
   270  0.2941176471       0.000000000      0.4705882353      0.2442499491E-02     528
   271  0.3529411765       0.000000000      0.4705882353      0.2442499491E-02     529
   272  0.4117647059       0.000000000      0.4705882353      0.2442499491E-02     532
   273  0.4705882353       0.000000000      0.4705882353      0.2442499491E-02     528
   274  0.5882352941E-01  0.5882352941E-01  0.4705882353      0.2442499491E-02     544
   275  0.1176470588      0.5882352941E-01  0.4705882353      0.4884998982E-02     543
   276  0.1764705882      0.5882352941E-01  0.4705882353      0.4884998982E-02     541
   277  0.2352941176      0.5882352941E-01  0.4705882353      0.4884998982E-02     536
   278  0.2941176471      0.5882352941E-01  0.4705882353      0.4884998982E-02     532
   279  0.3529411765      0.5882352941E-01  0.4705882353      0.4884998982E-02     532
   280  0.4117647059      0.5882352941E-01  0.4705882353      0.4884998982E-02     531
   281  0.4705882353      0.5882352941E-01  0.4705882353      0.2442499491E-02     530
   282  0.1176470588      0.1176470588      0.4705882353      0.2442499491E-02     542
   283  0.1764705882      0.1176470588      0.4705882353      0.4884998982E-02     540
   284  0.2352941176      0.1176470588      0.4705882353      0.4884998982E-02     536
   285  0.2941176471      0.1176470588      0.4705882353      0.4884998982E-02     536
   286  0.3529411765      0.1176470588      0.4705882353      0.4884998982E-02     526
   287  0.4117647059      0.1176470588      0.4705882353      0.4884998982E-02     529
   288  0.1764705882      0.1764705882      0.4705882353      0.2442499491E-02     542
   289  0.2352941176      0.1764705882      0.4705882353      0.4884998982E-02     539
   290  0.2941176471      0.1764705882      0.4705882353      0.4884998982E-02     531
   291  0.3529411765      0.1764705882      0.4705882353      0.4884998982E-02     530
   292  0.4117647059      0.1764705882      0.4705882353      0.2442499491E-02     526
   293  0.2352941176      0.2352941176      0.4705882353      0.2442499491E-02     536
   294  0.2941176471      0.2352941176      0.4705882353      0.4884998982E-02     532
   295  0.3529411765      0.2352941176      0.4705882353      0.4884998982E-02     528
   296  0.2941176471      0.2941176471      0.4705882353      0.2442499491E-02     536
   297  0.3529411765      0.2941176471      0.4705882353      0.2442499491E-02     536
