+----------------------------+
| Elk version 8.3.15 started |
+----------------------------+
 
Date (YYYY-MM-DD) : 2022-01-26
Time (hh:mm:ss)   : 19:15:57
 
All units are atomic (Hartree, Bohr, etc.)
 
+-------------------------------------------------+
| Ground-state run starting from atomic densities |
+-------------------------------------------------+
 
Lattice vectors :
   4.989490184       4.989490184      -4.989490184    
   4.989490184      -4.989490184       4.989490184    
  -4.989490184       4.989490184       4.989490184    
 
Reciprocal lattice vectors :
  0.6296420150      0.6296420150       0.000000000    
  0.6296420150       0.000000000      0.6296420150    
   0.000000000      0.6296420150      0.6296420150    
 
Unit cell volume      :    496.8536781    
Brillouin zone volume :   0.4992419789    
 
Muffin-tin inner radius fraction :   0.1000000000E-01
 
Species :    1 (K)
 parameters loaded from : K.in
 name : potassium
 nuclear charge    :   -19.00000000    
 electronic charge :    19.00000000    
 atomic mass :    71271.84084    
 muffin-tin radius :    2.400000000    
 number of radial points in muffin-tin :   1000
 number on inner part of muffin-tin    :    715
 atomic positions (lattice), magnetic fields (Cartesian) :
   1 :   0.00000000  0.00000000  0.00000000    0.00000000  0.00000000  0.00000000
 
Total number of atoms per unit cell :    1
 
Spin treatment :
 spin-unpolarised
 
Number of Bravais lattice symmetries :   48
Number of crystal symmetries         :   48
Crystal has inversion symmetry
Real symmetric eigensolver will be used
 
k-point grid :     17    17    17
k-point offset :    0.000000000       0.000000000       0.000000000    
k-point set is reduced with full crystal symmetry group
Total number of k-points :      165
 
Muffin-tin radius times maximum |G+k| :    8.500000000    
 using gkmax = rgkmax / 2
Maximum |G+k| for APW functions       :    4.250000000    
Maximum (1/2)|G+k|²                   :    9.031250000    
Maximum |G| for potential and density :    34.00000000    
Constant for pseudocharge density :   20
Radial integration step length :    1
 
G-vector grid sizes :     96    96    96
Number of G-vectors :   329605
 
Maximum angular momentum used for
 APW functions                      :   10
 outer part of muffin-tin           :    8
 inner part of muffin-tin           :    1
 
Total nuclear charge    :   -19.00000000    
Total core charge       :    10.00000000    
Total valence charge    :    9.000000000    
Total excess charge     :    0.000000000    
Total electronic charge :    19.00000000    
 
Effective Wigner radius, rₛ :    1.841317863    
 
Number of empty states         :   20
Total number of valence states :   25
Total number of core states    :   10
 
Conduction state local-orbitals added automatically
Total number of local-orbitals :  110
 
Using Libxc version 05.01.05
Exchange-correlation functional :    100   493   494
 exchange: mgga_x_rscan; correlation: mgga_c_rscan
 
Smearing type :    1
 Methfessel-Paxton order 1, Phys. Rev. B 40, 3616 (1989)
Smearing width :   0.1000000000E-02
Effective electronic temperature (K) :    315.7750248    
 
Mixing type :    3
 Broyden mixing, J. Phys. A: Math. Gen. 17, L317 (1984)
 
Kohn-Sham potential initialised from atomic data
 
+------------------------------+
| Self-consistent loop started |
+------------------------------+
 
+--------------------+
| Loop number :    1 |
+--------------------+
 
Energies :
 Fermi                       :    -0.166126970502E-01
 sum of eigenvalues          :     -356.010933856    
 electron kinetic            :      603.580801235    
 core electron kinetic       :      574.049984284    
 Coulomb                     :     -1179.57449422    
 Coulomb potential           :     -914.816999801    
 nuclear-nuclear             :     -61.2284125849    
 electron-nuclear            :     -1321.87516347    
 Hartree                     :      203.529081835    
 Madelung                    :     -722.165994320    
 xc potential                :     -44.7747352893    
 exchange                    :     -33.2444678733    
 correlation                 :    -0.747294372766    
 total energy                :     -609.985455232    
 
Density of states at Fermi energy :    38.13677782    
 (states/Hartree/unit cell)
 
Estimated indirect band gap :   0.1622264412E-02
 from k-point     89 to k-point     16
Estimated direct band gap   :   0.5660715287E-01
 at k-point     73
 
Charges :
 core                        :    10.00000000    
 valence                     :    9.000000000    
 interstitial                :    1.359539126    
 muffin-tins (core leakage)
  species :    1 (K)
   atom    1                 :    17.64046087     (  0.8714400046E-07)
 total in muffin-tins        :    17.64046087    
 total calculated charge     :    18.99999990    
 total charge                :    19.00000000    
 error                       :   0.1018452380E-06
 
Time (CPU seconds) :        46.97
 
+--------------------+
| Loop number :    2 |
+--------------------+
 
Energies :
 Fermi                       :    -0.160531379985E-01
 sum of eigenvalues          :     -355.944248414    
 electron kinetic            :      603.637268156    
 core electron kinetic       :      572.325312294    
 Coulomb                     :     -1179.53015932    
 Coulomb potential           :     -914.810846625    
 nuclear-nuclear             :     -61.2284125849    
 electron-nuclear            :     -1321.79264686    
 Hartree                     :      203.490900115    
 Madelung                    :     -722.124736012    
 xc potential                :     -44.7706699449    
 exchange                    :     -33.2414960869    
 correlation                 :    -0.747252228713    
 total energy                :     -609.881639485    
 
Density of states at Fermi energy :    38.14135381    
 (states/Hartree/unit cell)
 
Estimated indirect band gap :   0.1629435552E-02
 from k-point     89 to k-point     16
Estimated direct band gap   :   0.5663596775E-01
 at k-point     73
 
Charges :
 core                        :    10.00000000    
 valence                     :    9.000000000    
 interstitial                :    1.360465783    
 muffin-tins (core leakage)
  species :    1 (K)
   atom    1                 :    17.63953422     (  0.8752554415E-07)
 total in muffin-tins        :    17.63953422    
 total calculated charge     :    18.99999990    
 total charge                :    19.00000000    
 error                       :   0.1021839289E-06
 
Wrote STATE.OUT
 
RMS change in Kohn-Sham potential (target) :   0.4355950251     (   10.00000000    )
Absolute change in total energy (target)   :   0.1038157474     (  0.1000000000E-07)
 
Time (CPU seconds) :        87.02
 
+--------------------+
| Loop number :    3 |
+--------------------+
 
Energies :
 Fermi                       :     0.693639865181E-02
 sum of eigenvalues          :     -353.760363759    
 electron kinetic            :      605.544476936    
 core electron kinetic       :      572.221390512    
 Coulomb                     :     -1178.22626976    
 Coulomb potential           :     -914.654601331    
 nuclear-nuclear             :     -61.2284125849    
 electron-nuclear            :     -1319.34111302    
 Hartree                     :      202.343255847    
 Madelung                    :     -720.898969097    
 xc potential                :     -44.6502393640    
 exchange                    :     -33.1541060724    
 correlation                 :    -0.745991328353    
 total energy                :     -606.581890227    
 
Density of states at Fermi energy :    38.54439762    
 (states/Hartree/unit cell)
 
Estimated indirect band gap :   0.1864827460E-02
 from k-point     89 to k-point     16
Estimated direct band gap   :   0.5734373227E-01
 at k-point     73
 
Charges :
 core                        :    10.00000000    
 valence                     :    9.000000000    
 interstitial                :    1.385143049    
 muffin-tins (core leakage)
  species :    1 (K)
   atom    1                 :    17.61485695     (  0.9895923370E-07)
 total in muffin-tins        :    17.61485695    
 total calculated charge     :    18.99999989    
 total charge                :    19.00000000    
 error                       :   0.1137018977E-06
 
RMS change in Kohn-Sham potential (target) :   0.2731540581     (   10.00000000    )
Absolute change in total energy (target)   :    3.325703195     (  0.1000000000E-07)
 
Time (CPU seconds) :       127.08
 
+--------------------+
| Loop number :    4 |
+--------------------+
 
Energies :
 Fermi                       :     0.268030122675E-01
 sum of eigenvalues          :     -352.138008578    
 electron kinetic            :      607.012317106    
 core electron kinetic       :      572.527102695    
 Coulomb                     :     -1177.37637794    
 Coulomb potential           :     -914.579790873    
 nuclear-nuclear             :     -61.2284125849    
 electron-nuclear            :     -1317.71613984    
 Hartree                     :      201.568174481    
 Madelung                    :     -720.086482503    
 xc potential                :     -44.5705348103    
 exchange                    :     -33.0966571890    
 correlation                 :    -0.745143132848    
 total energy                :     -604.205861156    
 
Density of states at Fermi energy :    38.86608164    
 (states/Hartree/unit cell)
 
Estimated indirect band gap :   0.2025572289E-02
 from k-point     89 to k-point     16
Estimated direct band gap   :   0.5774018247E-01
 at k-point     73
 
Charges :
 core                        :    10.00000000    
 valence                     :    9.000000000    
 interstitial                :    1.399963902    
 muffin-tins (core leakage)
  species :    1 (K)
   atom    1                 :    17.60003610     (  0.1087870132E-06)
 total in muffin-tins        :    17.60003610    
 total calculated charge     :    18.99999988    
 total charge                :    19.00000000    
 error                       :   0.1234785110E-06
 
Wrote STATE.OUT
 
RMS change in Kohn-Sham potential (target) :   0.1263169137     (   10.00000000    )
Absolute change in total energy (target)   :    3.207454870     (  0.1000000000E-07)
 
Time (CPU seconds) :       169.50
 
+--------------------+
| Loop number :    5 |
+--------------------+
 
Energies :
 Fermi                       :     0.376783985335E-01
 sum of eigenvalues          :     -351.310362404    
 electron kinetic            :      607.784329112    
 core electron kinetic       :      572.813215886    
 Coulomb                     :     -1176.98522169    
 Coulomb potential           :     -914.561722426    
 nuclear-nuclear             :     -61.2284125849    
 electron-nuclear            :     -1316.95189578    
 Hartree                     :      201.195086678    
 Madelung                    :     -719.704360476    
 xc potential                :     -44.5329690905    
 exchange                    :     -33.0697287260    
 correlation                 :    -0.744729005142    
 total energy                :     -603.015350308    
 
Density of states at Fermi energy :    38.98261372    
 (states/Hartree/unit cell)
 
Estimated indirect band gap :   0.2104860417E-02
 from k-point     89 to k-point     16
Estimated direct band gap   :   0.5793040183E-01
 at k-point     73
 
Charges :
 core                        :    10.00000000    
 valence                     :    9.000000000    
 interstitial                :    1.406664657    
 muffin-tins (core leakage)
  species :    1 (K)
   atom    1                 :    17.59333534     (  0.1147119590E-06)
 total in muffin-tins        :    17.59333534    
 total calculated charge     :    18.99999987    
 total charge                :    19.00000000    
 error                       :   0.1293053415E-06
 
RMS change in Kohn-Sham potential (target) :   0.4385760619E-01 (   10.00000000    )
Absolute change in total energy (target)   :    1.992374565     (  0.1000000000E-07)
 
Time (CPU seconds) :       211.35
 
+--------------------+
| Loop number :    6 |
+--------------------+
 
Energies :
 Fermi                       :     0.417638629545E-01
 sum of eigenvalues          :     -351.008956123    
 electron kinetic            :      608.075119719    
 core electron kinetic       :      572.932331962    
 Coulomb                     :     -1176.85557498    
 Coulomb potential           :     -914.564054340    
 nuclear-nuclear             :     -61.2284125849    
 electron-nuclear            :     -1316.69027045    
 Hartree                     :      201.063108054    
 Madelung                    :     -719.573547809    
 xc potential                :     -44.5200215024    
 exchange                    :     -33.0605049141    
 correlation                 :    -0.744576426991    
 total energy                :     -602.585536600    
 
Density of states at Fermi energy :    39.01840269    
 (states/Hartree/unit cell)
 
Estimated indirect band gap :   0.2135796065E-02
 from k-point     89 to k-point     16
Estimated direct band gap   :   0.5800706400E-01
 at k-point     73
 
Charges :
 core                        :    10.00000000    
 valence                     :    9.000000000    
 interstitial                :    1.409052718    
 muffin-tins (core leakage)
  species :    1 (K)
   atom    1                 :    17.59094728     (  0.1169768424E-06)
 total in muffin-tins        :    17.59094728    
 total calculated charge     :    18.99999987    
 total charge                :    19.00000000    
 error                       :   0.1313920670E-06
 
Wrote STATE.OUT
 
RMS change in Kohn-Sham potential (target) :   0.1233446632E-01 (   10.00000000    )
Absolute change in total energy (target)   :   0.9279073487     (  0.1000000000E-07)
 
Time (CPU seconds) :       253.51
 
+--------------------+
| Loop number :    7 |
+--------------------+
 
Energies :
 Fermi                       :     0.432156167196E-01
 sum of eigenvalues          :     -350.900649649    
 electron kinetic            :      608.183914677    
 core electron kinetic       :      573.020131559    
 Coulomb                     :     -1176.81329478    
 Coulomb potential           :     -914.569019701    
 nuclear-nuclear             :     -61.2284125849    
 electron-nuclear            :     -1316.60074468    
 Hartree                     :      201.015862490    
 Madelung                    :     -719.528784925    
 xc potential                :     -44.5155446256    
 exchange                    :     -33.0573407684    
 correlation                 :    -0.744517756229    
 total energy                :     -602.431238623    
 
Density of states at Fermi energy :    39.03249172    
 (states/Hartree/unit cell)
 
Estimated indirect band gap :   0.2148998970E-02
 from k-point     89 to k-point     16
Estimated direct band gap   :   0.5804151254E-01
 at k-point     73
 
Charges :
 core                        :    10.00000000    
 valence                     :    9.000000000    
 interstitial                :    1.409985138    
 muffin-tins (core leakage)
  species :    1 (K)
   atom    1                 :    17.59001486     (  0.1179752740E-06)
 total in muffin-tins        :    17.59001486    
 total calculated charge     :    18.99999987    
 total charge                :    19.00000000    
 error                       :   0.1323266794E-06
 
RMS change in Kohn-Sham potential (target) :   0.2164508171E-02 (   10.00000000    )
Absolute change in total energy (target)   :   0.3862748145     (  0.1000000000E-07)
 
Time (CPU seconds) :       294.35
 
+--------------------+
| Loop number :    8 |
+--------------------+
 
Energies :
 Fermi                       :     0.431413470227E-01
 sum of eigenvalues          :     -350.910501240    
 electron kinetic            :      608.180638114    
 core electron kinetic       :      573.022144523    
 Coulomb                     :     -1176.82537855    
 Coulomb potential           :     -914.574726421    
 nuclear-nuclear             :     -61.2284125849    
 electron-nuclear            :     -1316.61920552    
 Hartree                     :      201.022239549    
 Madelung                    :     -719.538015344    
 xc potential                :     -44.5164129333    
 exchange                    :     -33.0580084219    
 correlation                 :    -0.744519649733    
 total energy                :     -602.447268512    
 
Density of states at Fermi energy :    39.03711116    
 (states/Hartree/unit cell)
 
Estimated indirect band gap :   0.2151826705E-02
 from k-point     89 to k-point     16
Estimated direct band gap   :   0.5804733317E-01
 at k-point     73
 
Charges :
 core                        :    10.00000000    
 valence                     :    9.000000000    
 interstitial                :    1.409881567    
 muffin-tins (core leakage)
  species :    1 (K)
   atom    1                 :    17.59011843     (  0.1176370343E-06)
 total in muffin-tins        :    17.59011843    
 total calculated charge     :    18.99999987    
 total charge                :    19.00000000    
 error                       :   0.1318634233E-06
 
Wrote STATE.OUT
 
RMS change in Kohn-Sham potential (target) :   0.6261862132E-03 (   10.00000000    )
Absolute change in total energy (target)   :   0.8053881483E-01 (  0.1000000000E-07)
 
Time (CPU seconds) :       338.25
 
+--------------------+
| Loop number :    9 |
+--------------------+
 
Energies :
 Fermi                       :     0.431130122899E-01
 sum of eigenvalues          :     -350.910670309    
 electron kinetic            :      608.181367765    
 core electron kinetic       :      573.021822464    
 Coulomb                     :     -1176.82636735    
 Coulomb potential           :     -914.575561913    
 nuclear-nuclear             :     -61.2284125849    
 electron-nuclear            :     -1316.62034762    
 Hartree                     :      201.022392853    
 Madelung                    :     -719.538586395    
 xc potential                :     -44.5164761609    
 exchange                    :     -33.0580630296    
 correlation                 :    -0.744518315651    
 total energy                :     -602.447580932    
 
Density of states at Fermi energy :    39.03862899    
 (states/Hartree/unit cell)
 
Estimated indirect band gap :   0.2153012447E-02
 from k-point     89 to k-point     16
Estimated direct band gap   :   0.5805007835E-01
 at k-point     73
 
Charges :
 core                        :    10.00000000    
 valence                     :    9.000000000    
 interstitial                :    1.409892088    
 muffin-tins (core leakage)
  species :    1 (K)
   atom    1                 :    17.59010791     (  0.1176287263E-06)
 total in muffin-tins        :    17.59010791    
 total calculated charge     :    18.99999987    
 total charge                :    19.00000000    
 error                       :   0.1318361385E-06
 
RMS change in Kohn-Sham potential (target) :   0.6037837050E-04 (   10.00000000    )
Absolute change in total energy (target)   :   0.1982228401E-01 (  0.1000000000E-07)
 
Time (CPU seconds) :       381.00
 
+--------------------+
| Loop number :   10 |
+--------------------+
 
Energies :
 Fermi                       :     0.431139395825E-01
 sum of eigenvalues          :     -350.909103677    
 electron kinetic            :      608.182099297    
 core electron kinetic       :      573.021639463    
 Coulomb                     :     -1176.82474257    
 Coulomb potential           :     -914.574836146    
 nuclear-nuclear             :     -61.2284125849    
 electron-nuclear            :     -1316.61782381    
 Hartree                     :      201.021493834    
 Madelung                    :     -719.537324492    
 xc potential                :     -44.5163668273    
 exchange                    :     -33.0579814751    
 correlation                 :    -0.744517592469    
 total energy                :     -602.445142336    
 
Density of states at Fermi energy :    39.03856310    
 (states/Hartree/unit cell)
 
Estimated indirect band gap :   0.2153091901E-02
 from k-point     89 to k-point     16
Estimated direct band gap   :   0.5805013845E-01
 at k-point     73
 
Charges :
 core                        :    10.00000000    
 valence                     :    9.000000000    
 interstitial                :    1.409903786    
 muffin-tins (core leakage)
  species :    1 (K)
   atom    1                 :    17.59009621     (  0.1159771124E-06)
 total in muffin-tins        :    17.59009621    
 total calculated charge     :    18.99999987    
 total charge                :    19.00000000    
 error                       :   0.1301953141E-06
 
Wrote STATE.OUT
 
RMS change in Kohn-Sham potential (target) :   0.3806885039E-04 (   10.00000000    )
Absolute change in total energy (target)   :   0.7394166712E-02 (  0.1000000000E-07)
 
Time (CPU seconds) :       422.52
 
+--------------------+
| Loop number :   11 |
+--------------------+
 
Energies :
 Fermi                       :     0.431135610492E-01
 sum of eigenvalues          :     -350.908779656    
 electron kinetic            :      608.182188613    
 core electron kinetic       :      573.021368455    
 Coulomb                     :     -1176.82437770    
 Coulomb potential           :     -914.574621078    
 nuclear-nuclear             :     -61.2284125849    
 electron-nuclear            :     -1316.61730915    
 Hartree                     :      201.021344036    
 Madelung                    :     -719.537067160    
 xc potential                :     -44.5163471909    
 exchange                    :     -33.0579668852    
 correlation                 :    -0.744517499470    
 total energy                :     -602.444673471    
 
Density of states at Fermi energy :    39.03857799    
 (states/Hartree/unit cell)
 
Estimated indirect band gap :   0.2153137548E-02
 from k-point     89 to k-point     16
Estimated direct band gap   :   0.5805010824E-01
 at k-point     73
 
Charges :
 core                        :    10.00000000    
 valence                     :    9.000000000    
 interstitial                :    1.409902007    
 muffin-tins (core leakage)
  species :    1 (K)
   atom    1                 :    17.59009799     (  0.1176623865E-06)
 total in muffin-tins        :    17.59009799    
 total calculated charge     :    18.99999987    
 total charge                :    19.00000000    
 error                       :   0.1319129197E-06
 
RMS change in Kohn-Sham potential (target) :   0.4245027877E-04 (   10.00000000    )
Absolute change in total energy (target)   :   0.2317406596E-02 (  0.1000000000E-07)
 
Time (CPU seconds) :       463.21
 
+--------------------+
| Loop number :   12 |
+--------------------+
 
Energies :
 Fermi                       :     0.431133437621E-01
 sum of eigenvalues          :     -350.908530696    
 electron kinetic            :      608.182266418    
 core electron kinetic       :      573.021354494    
 Coulomb                     :     -1176.82410582    
 Coulomb potential           :     -914.574464839    
 nuclear-nuclear             :     -61.2284125849    
 electron-nuclear            :     -1316.61692163    
 Hartree                     :      201.021228398    
 Madelung                    :     -719.536873402    
 xc potential                :     -44.5163322751    
 exchange                    :     -33.0579558249    
 correlation                 :    -0.744517422431    
 total energy                :     -602.444312651    
 
Density of states at Fermi energy :    39.03859154    
 (states/Hartree/unit cell)
 
Estimated indirect band gap :   0.2153174289E-02
 from k-point     89 to k-point     16
Estimated direct band gap   :   0.5805009311E-01
 at k-point     73
 
Charges :
 core                        :    10.00000000    
 valence                     :    9.000000000    
 interstitial                :    1.409900826    
 muffin-tins (core leakage)
  species :    1 (K)
   atom    1                 :    17.59009917     (  0.1176589386E-06)
 total in muffin-tins        :    17.59009917    
 total calculated charge     :    18.99999987    
 total charge                :    19.00000000    
 error                       :   0.1318519587E-06
 
Wrote STATE.OUT
 
RMS change in Kohn-Sham potential (target) :   0.1231146394E-04 (   10.00000000    )
Absolute change in total energy (target)   :   0.9401716526E-03 (  0.1000000000E-07)
 
Time (CPU seconds) :       502.54
 
+--------------------+
| Loop number :   13 |
+--------------------+
 
Energies :
 Fermi                       :     0.431129252389E-01
 sum of eigenvalues          :     -350.908534358    
 electron kinetic            :      608.182246405    
 core electron kinetic       :      573.021333546    
 Coulomb                     :     -1176.82411215    
 Coulomb potential           :     -914.574445547    
 nuclear-nuclear             :     -61.2284125849    
 electron-nuclear            :     -1316.61695358    
 Hartree                     :      201.021254017    
 Madelung                    :     -719.536889376    
 xc potential                :     -44.5163352162    
 exchange                    :     -33.0579581493    
 correlation                 :    -0.744517441732    
 total energy                :     -602.444341335    
 
Density of states at Fermi energy :    39.03862416    
 (states/Hartree/unit cell)
 
Estimated indirect band gap :   0.2153204973E-02
 from k-point     89 to k-point     16
Estimated direct band gap   :   0.5805009542E-01
 at k-point     73
 
Charges :
 core                        :    10.00000000    
 valence                     :    9.000000000    
 interstitial                :    1.409898328    
 muffin-tins (core leakage)
  species :    1 (K)
   atom    1                 :    17.59010167     (  0.1158636707E-06)
 total in muffin-tins        :    17.59010167    
 total calculated charge     :    18.99999987    
 total charge                :    19.00000000    
 error                       :   0.1300612453E-06
 
RMS change in Kohn-Sham potential (target) :   0.4134156644E-05 (   10.00000000    )
Absolute change in total energy (target)   :   0.2063586724E-03 (  0.1000000000E-07)
 
Time (CPU seconds) :       542.23
 
+--------------------+
| Loop number :   14 |
+--------------------+
 
Energies :
 Fermi                       :     0.431126123803E-01
 sum of eigenvalues          :     -350.908525467    
 electron kinetic            :      608.182246820    
 core electron kinetic       :      573.021333187    
 Coulomb                     :     -1176.82411037    
 Coulomb potential           :     -914.574435928    
 nuclear-nuclear             :     -61.2284125849    
 electron-nuclear            :     -1316.61695965    
 Hartree                     :      201.021261862    
 Madelung                    :     -719.536892410    
 xc potential                :     -44.5163363598    
 exchange                    :     -33.0579591120    
 correlation                 :    -0.744517440249    
 total energy                :     -602.444340107    
 
Density of states at Fermi energy :    39.03864778    
 (states/Hartree/unit cell)
 
Estimated indirect band gap :   0.2153228547E-02
 from k-point     89 to k-point     16
Estimated direct band gap   :   0.5805010749E-01
 at k-point     73
 
Charges :
 core                        :    10.00000000    
 valence                     :    9.000000000    
 interstitial                :    1.409896999    
 muffin-tins (core leakage)
  species :    1 (K)
   atom    1                 :    17.59010300     (  0.1175719451E-06)
 total in muffin-tins        :    17.59010300    
 total calculated charge     :    18.99999987    
 total charge                :    19.00000000    
 error                       :   0.1317955203E-06
 
Wrote STATE.OUT
 
RMS change in Kohn-Sham potential (target) :   0.5301376265E-04 (   10.00000000    )
Absolute change in total energy (target)   :   0.5281827953E-04 (  0.1000000000E-07)
 
Time (CPU seconds) :       584.88
 
+--------------------+
| Loop number :   15 |
+--------------------+
 
Energies :
 Fermi                       :     0.431122878588E-01
 sum of eigenvalues          :     -350.908523753    
 electron kinetic            :      608.182245545    
 core electron kinetic       :      573.021331136    
 Coulomb                     :     -1176.82411524    
 Coulomb potential           :     -914.574431599    
 nuclear-nuclear             :     -61.2284125849    
 electron-nuclear            :     -1316.61697371    
 Hartree                     :      201.021271055    
 Madelung                    :     -719.536899439    
 xc potential                :     -44.5163376995    
 exchange                    :     -33.0579602086    
 correlation                 :    -0.744517439325    
 total energy                :     -602.444347341    
 
Density of states at Fermi energy :    39.03866900    
 (states/Hartree/unit cell)
 
Estimated indirect band gap :   0.2153249344E-02
 from k-point     89 to k-point     16
Estimated direct band gap   :   0.5805012066E-01
 at k-point     73
 
Charges :
 core                        :    10.00000000    
 valence                     :    9.000000000    
 interstitial                :    1.409895887    
 muffin-tins (core leakage)
  species :    1 (K)
   atom    1                 :    17.59010411     (  0.1176541193E-06)
 total in muffin-tins        :    17.59010411    
 total calculated charge     :    18.99999987    
 total charge                :    19.00000000    
 error                       :   0.1318679566E-06
 
RMS change in Kohn-Sham potential (target) :   0.7205235627E-05 (   10.00000000    )
Absolute change in total energy (target)   :   0.5969878202E-05 (  0.1000000000E-07)
 
Time (CPU seconds) :       625.67
 
+--------------------+
| Loop number :   16 |
+--------------------+
 
Energies :
 Fermi                       :     0.431122775466E-01
 sum of eigenvalues          :     -350.908516380    
 electron kinetic            :      608.182254852    
 core electron kinetic       :      573.021334077    
 Coulomb                     :     -1176.82411124    
 Coulomb potential           :     -914.574434140    
 nuclear-nuclear             :     -61.2284125849    
 electron-nuclear            :     -1316.61696317    
 Hartree                     :      201.021264513    
 Madelung                    :     -719.536894168    
 xc potential                :     -44.5163370923    
 exchange                    :     -33.0579597655    
 correlation                 :    -0.744517429857    
 total energy                :     -602.444333581    
 
Density of states at Fermi energy :    39.03866908    
 (states/Hartree/unit cell)
 
Estimated indirect band gap :   0.2153250326E-02
 from k-point     89 to k-point     16
Estimated direct band gap   :   0.5805012721E-01
 at k-point     73
 
Charges :
 core                        :    10.00000000    
 valence                     :    9.000000000    
 interstitial                :    1.409896176    
 muffin-tins (core leakage)
  species :    1 (K)
   atom    1                 :    17.59010382     (  0.1158286675E-06)
 total in muffin-tins        :    17.59010382    
 total calculated charge     :    18.99999987    
 total charge                :    19.00000000    
 error                       :   0.1300480506E-06
 
Wrote STATE.OUT
 
RMS change in Kohn-Sham potential (target) :   0.8570744089E-05 (   10.00000000    )
Absolute change in total energy (target)   :   0.1525298012E-04 (  0.1000000000E-07)
 
Time (CPU seconds) :       668.29
 
+--------------------+
| Loop number :   17 |
+--------------------+
 
Energies :
 Fermi                       :     0.431123112316E-01
 sum of eigenvalues          :     -350.908512017    
 electron kinetic            :      608.182258373    
 core electron kinetic       :      573.021332878    
 Coulomb                     :     -1176.82410630    
 Coulomb potential           :     -914.574433842    
 nuclear-nuclear             :     -61.2284125849    
 electron-nuclear            :     -1316.61695358    
 Hartree                     :      201.021259870    
 Madelung                    :     -719.536889376    
 xc potential                :     -44.5163365485    
 exchange                    :     -33.0579593480    
 correlation                 :    -0.744517426450    
 total energy                :     -602.444324698    
 
Density of states at Fermi energy :    39.03866602    
 (states/Hartree/unit cell)
 
Estimated indirect band gap :   0.2153247998E-02
 from k-point     89 to k-point     16
Estimated direct band gap   :   0.5805012689E-01
 at k-point     73
 
Charges :
 core                        :    10.00000000    
 valence                     :    9.000000000    
 interstitial                :    1.409896410    
 muffin-tins (core leakage)
  species :    1 (K)
   atom    1                 :    17.59010359     (  0.1176442215E-06)
 total in muffin-tins        :    17.59010359    
 total calculated charge     :    18.99999987    
 total charge                :    19.00000000    
 error                       :   0.1318667877E-06
 
RMS change in Kohn-Sham potential (target) :   0.6222138409E-04 (   10.00000000    )
Absolute change in total energy (target)   :   0.1269643144E-04 (  0.1000000000E-07)
 
Time (CPU seconds) :       707.74
 
+--------------------+
| Loop number :   18 |
+--------------------+
 
Energies :
 Fermi                       :     0.431121433222E-01
 sum of eigenvalues          :     -350.908510516    
 electron kinetic            :      608.182257420    
 core electron kinetic       :      573.021335016    
 Coulomb                     :     -1176.82410778    
 Coulomb potential           :     -914.574430736    
 nuclear-nuclear             :     -61.2284125849    
 electron-nuclear            :     -1316.61695965    
 Hartree                     :      201.021264458    
 Madelung                    :     -719.536892410    
 xc potential                :     -44.5163372007    
 exchange                    :     -33.0579598837    
 correlation                 :    -0.744517426261    
 total energy                :     -602.444327668    
 
Density of states at Fermi energy :    39.03867692    
 (states/Hartree/unit cell)
 
Estimated indirect band gap :   0.2153258669E-02
 from k-point     89 to k-point     16
Estimated direct band gap   :   0.5805013331E-01
 at k-point     73
 
Charges :
 core                        :    10.00000000    
 valence                     :    9.000000000    
 interstitial                :    1.409895826    
 muffin-tins (core leakage)
  species :    1 (K)
   atom    1                 :    17.59010417     (  0.1176376951E-06)
 total in muffin-tins        :    17.59010417    
 total calculated charge     :    18.99999987    
 total charge                :    19.00000000    
 error                       :   0.1318566518E-06
 
Wrote STATE.OUT
 
RMS change in Kohn-Sham potential (target) :   0.9004661805E-05 (   10.00000000    )
Absolute change in total energy (target)   :   0.2035824309E-06 (  0.1000000000E-07)
 
Time (CPU seconds) :       747.65
 
+--------------------+
| Loop number :   19 |
+--------------------+
 
Energies :
 Fermi                       :     0.431121985078E-01
 sum of eigenvalues          :     -350.908510732    
 electron kinetic            :      608.182259820    
 core electron kinetic       :      573.021337439    
 Coulomb                     :     -1176.82410767    
 Coulomb potential           :     -914.574433708    
 nuclear-nuclear             :     -61.2284125849    
 electron-nuclear            :     -1316.61695646    
 Hartree                     :      201.021261374    
 Madelung                    :     -719.536890813    
 xc potential                :     -44.5163368435    
 exchange                    :     -33.0579596000    
 correlation                 :    -0.744517423689    
 total energy                :     -602.444324871    
 
Density of states at Fermi energy :    39.03867233    
 (states/Hartree/unit cell)
 
Estimated indirect band gap :   0.2153254425E-02
 from k-point     89 to k-point     16
Estimated direct band gap   :   0.5805013279E-01
 at k-point     73
 
Charges :
 core                        :    10.00000000    
 valence                     :    9.000000000    
 interstitial                :    1.409896159    
 muffin-tins (core leakage)
  species :    1 (K)
   atom    1                 :    17.59010384     (  0.1178016120E-06)
 total in muffin-tins        :    17.59010384    
 total calculated charge     :    18.99999987    
 total charge                :    19.00000000    
 error                       :   0.1319852281E-06
 
RMS change in Kohn-Sham potential (target) :   0.3769863981E-04 (   10.00000000    )
Absolute change in total energy (target)   :   0.2848048553E-05 (  0.1000000000E-07)
 
Time (CPU seconds) :       788.92
 
+--------------------+
| Loop number :   20 |
+--------------------+
 
Energies :
 Fermi                       :     0.431122493788E-01
 sum of eigenvalues          :     -350.908511497    
 electron kinetic            :      608.182260430    
 core electron kinetic       :      573.021337352    
 Coulomb                     :     -1176.82410765    
 Coulomb potential           :     -914.574435281    
 nuclear-nuclear             :     -61.2284125849    
 electron-nuclear            :     -1316.61695486    
 Hartree                     :      201.021259789    
 Madelung                    :     -719.536890014    
 xc potential                :     -44.5163366465    
 exchange                    :     -33.0579594378    
 correlation                 :    -0.744517423499    
 total energy                :     -602.444324086    
 
Density of states at Fermi energy :    39.03866887    
 (states/Hartree/unit cell)
 
Estimated indirect band gap :   0.2153251065E-02
 from k-point     89 to k-point     16
Estimated direct band gap   :   0.5805013110E-01
 at k-point     73
 
Charges :
 core                        :    10.00000000    
 valence                     :    9.000000000    
 interstitial                :    1.409896358    
 muffin-tins (core leakage)
  species :    1 (K)
   atom    1                 :    17.59010364     (  0.1176278772E-06)
 total in muffin-tins        :    17.59010364    
 total calculated charge     :    18.99999987    
 total charge                :    19.00000000    
 error                       :   0.1318542786E-06
 
Wrote STATE.OUT
 
RMS change in Kohn-Sham potential (target) :   0.4804396797E-04 (   10.00000000    )
Absolute change in total energy (target)   :   0.1496897767E-05 (  0.1000000000E-07)
 
Time (CPU seconds) :       829.47
 
+--------------------+
| Loop number :   21 |
+--------------------+
 
Energies :
 Fermi                       :     0.431122404558E-01
 sum of eigenvalues          :     -350.908511315    
 electron kinetic            :      608.182260577    
 core electron kinetic       :      573.021337473    
 Coulomb                     :     -1176.82410763    
 Coulomb potential           :     -914.574435228    
 nuclear-nuclear             :     -61.2284125849    
 electron-nuclear            :     -1316.61695486    
 Hartree                     :      201.021259816    
 Madelung                    :     -719.536890014    
 xc potential                :     -44.5163366641    
 exchange                    :     -33.0579594523    
 correlation                 :    -0.744517423552    
 total energy                :     -602.444323927    
 
Density of states at Fermi energy :    39.03866937    
 (states/Hartree/unit cell)
 
Estimated indirect band gap :   0.2153251605E-02
 from k-point     89 to k-point     16
Estimated direct band gap   :   0.5805013157E-01
 at k-point     73
 
Charges :
 core                        :    10.00000000    
 valence                     :    9.000000000    
 interstitial                :    1.409896337    
 muffin-tins (core leakage)
  species :    1 (K)
   atom    1                 :    17.59010366     (  0.1177904991E-06)
 total in muffin-tins        :    17.59010366    
 total calculated charge     :    18.99999987    
 total charge                :    19.00000000    
 error                       :   0.1320085659E-06
 
RMS change in Kohn-Sham potential (target) :   0.4807528162E-04 (   10.00000000    )
Absolute change in total energy (target)   :   0.5331040711E-06 (  0.1000000000E-07)
 
Time (CPU seconds) :       870.48
 
+--------------------+
| Loop number :   22 |
+--------------------+
 
Energies :
 Fermi                       :     0.431122366786E-01
 sum of eigenvalues          :     -350.908511313    
 electron kinetic            :      608.182260477    
 core electron kinetic       :      573.021338606    
 Coulomb                     :     -1176.82410773    
 Coulomb potential           :     -914.574435106    
 nuclear-nuclear             :     -61.2284125849    
 electron-nuclear            :     -1316.61695518    
 Hartree                     :      201.021260037    
 Madelung                    :     -719.536890174    
 xc potential                :     -44.5163366845    
 exchange                    :     -33.0579594698    
 correlation                 :    -0.744517423334    
 total energy                :     -602.444324143    
 
Density of states at Fermi energy :    39.03866966    
 (states/Hartree/unit cell)
 
Estimated indirect band gap :   0.2153251846E-02
 from k-point     89 to k-point     16
Estimated direct band gap   :   0.5805013163E-01
 at k-point     73
 
Charges :
 core                        :    10.00000000    
 valence                     :    9.000000000    
 interstitial                :    1.409896320    
 muffin-tins (core leakage)
  species :    1 (K)
   atom    1                 :    17.59010368     (  0.1177166489E-06)
 total in muffin-tins        :    17.59010368    
 total calculated charge     :    18.99999987    
 total charge                :    19.00000000    
 error                       :   0.1319561704E-06
 
Wrote STATE.OUT
 
RMS change in Kohn-Sham potential (target) :   0.4788323244E-05 (   10.00000000    )
Absolute change in total energy (target)   :   0.8268978036E-07 (  0.1000000000E-07)
 
Time (CPU seconds) :       911.27
 
+--------------------+
| Loop number :   23 |
+--------------------+
 
Energies :
 Fermi                       :     0.431122522758E-01
 sum of eigenvalues          :     -350.908512354    
 electron kinetic            :      608.182260530    
 core electron kinetic       :      573.021338478    
 Coulomb                     :     -1176.82410845    
 Coulomb potential           :     -914.574436233    
 nuclear-nuclear             :     -61.2284125849    
 electron-nuclear            :     -1316.61695550    
 Hartree                     :      201.021259633    
 Madelung                    :     -719.536890334    
 xc potential                :     -44.5163366518    
 exchange                    :     -33.0579594398    
 correlation                 :    -0.744517423347    
 total energy                :     -602.444324783    
 
Density of states at Fermi energy :    39.03866829    
 (states/Hartree/unit cell)
 
Estimated indirect band gap :   0.2153250544E-02
 from k-point     89 to k-point     16
Estimated direct band gap   :   0.5805013116E-01
 at k-point     73
 
Charges :
 core                        :    10.00000000    
 valence                     :    9.000000000    
 interstitial                :    1.409896400    
 muffin-tins (core leakage)
  species :    1 (K)
   atom    1                 :    17.59010360     (  0.1176550253E-06)
 total in muffin-tins        :    17.59010360    
 total calculated charge     :    18.99999987    
 total charge                :    19.00000000    
 error                       :   0.1318768810E-06
 
RMS change in Kohn-Sham potential (target) :   0.2151429787E-04 (   10.00000000    )
Absolute change in total energy (target)   :   0.6607432397E-06 (  0.1000000000E-07)
 
Time (CPU seconds) :       951.03
 
+--------------------+
| Loop number :   24 |
+--------------------+
 
Energies :
 Fermi                       :     0.431122388527E-01
 sum of eigenvalues          :     -350.908512180    
 electron kinetic            :      608.182260447    
 core electron kinetic       :      573.021335204    
 Coulomb                     :     -1176.82410862    
 Coulomb potential           :     -914.574435928    
 nuclear-nuclear             :     -61.2284125849    
 electron-nuclear            :     -1316.61695614    
 Hartree                     :      201.021260105    
 Madelung                    :     -719.536890653    
 xc potential                :     -44.5163366990    
 exchange                    :     -33.0579594784    
 correlation                 :    -0.744517423428    
 total energy                :     -602.444325072    
 
Density of states at Fermi energy :    39.03866913    
 (states/Hartree/unit cell)
 
Estimated indirect band gap :   0.2153251394E-02
 from k-point     89 to k-point     16
Estimated direct band gap   :   0.5805013168E-01
 at k-point     73
 
Charges :
 core                        :    10.00000000    
 valence                     :    9.000000000    
 interstitial                :    1.409896354    
 muffin-tins (core leakage)
  species :    1 (K)
   atom    1                 :    17.59010365     (  0.1177741300E-06)
 total in muffin-tins        :    17.59010365    
 total calculated charge     :    18.99999987    
 total charge                :    19.00000000    
 error                       :   0.1319672123E-06
 
Wrote STATE.OUT
 
RMS change in Kohn-Sham potential (target) :   0.1582102888E-03 (   10.00000000    )
Absolute change in total energy (target)   :   0.4540939926E-06 (  0.1000000000E-07)
 
Time (CPU seconds) :       991.54
 
+--------------------+
| Loop number :   25 |
+--------------------+
 
Energies :
 Fermi                       :     0.431121318544E-01
 sum of eigenvalues          :     -350.908508773    
 electron kinetic            :      608.182261931    
 core electron kinetic       :      573.021338410    
 Coulomb                     :     -1176.82410740    
 Coulomb potential           :     -914.574433812    
 nuclear-nuclear             :     -61.2284125849    
 electron-nuclear            :     -1316.61695582    
 Hartree                     :      201.021261003    
 Madelung                    :     -719.536890494    
 xc potential                :     -44.5163368919    
 exchange                    :     -33.0579596540    
 correlation                 :    -0.744517420884    
 total energy                :     -602.444322544    
 
Density of states at Fermi energy :    39.03867584    
 (states/Hartree/unit cell)
 
Estimated indirect band gap :   0.2153258053E-02
 from k-point     89 to k-point     16
Estimated direct band gap   :   0.5805013703E-01
 at k-point     73
 
Charges :
 core                        :    10.00000000    
 valence                     :    9.000000000    
 interstitial                :    1.409896072    
 muffin-tins (core leakage)
  species :    1 (K)
   atom    1                 :    17.59010393     (  0.1177077742E-06)
 total in muffin-tins        :    17.59010393    
 total calculated charge     :    18.99999987    
 total charge                :    19.00000000    
 error                       :   0.1319440912E-06
 
RMS change in Kohn-Sham potential (target) :   0.2486659672E-04 (   10.00000000    )
Absolute change in total energy (target)   :   0.2414911819E-05 (  0.1000000000E-07)
 
Time (CPU seconds) :      1031.05
 
+--------------------+
| Loop number :   26 |
+--------------------+
 
Energies :
 Fermi                       :     0.431121664514E-01
 sum of eigenvalues          :     -350.908510041    
 electron kinetic            :      608.182262157    
 core electron kinetic       :      573.021338254    
 Coulomb                     :     -1176.82410805    
 Coulomb potential           :     -914.574435423    
 nuclear-nuclear             :     -61.2284125849    
 electron-nuclear            :     -1316.61695550    
 Hartree                     :      201.021260037    
 Madelung                    :     -719.536890334    
 xc potential                :     -44.5163367746    
 exchange                    :     -33.0579595548    
 correlation                 :    -0.744517420767    
 total energy                :     -602.444322864    
 
Density of states at Fermi energy :    39.03867310    
 (states/Hartree/unit cell)
 
Estimated indirect band gap :   0.2153255426E-02
 from k-point     89 to k-point     16
Estimated direct band gap   :   0.5805013582E-01
 at k-point     73
 
Charges :
 core                        :    10.00000000    
 valence                     :    9.000000000    
 interstitial                :    1.409896228    
 muffin-tins (core leakage)
  species :    1 (K)
   atom    1                 :    17.59010377     (  0.1177561941E-06)
 total in muffin-tins        :    17.59010377    
 total calculated charge     :    18.99999987    
 total charge                :    19.00000000    
 error                       :   0.1319853027E-06
 
Wrote STATE.OUT
 
RMS change in Kohn-Sham potential (target) :   0.1715519037E-03 (   10.00000000    )
Absolute change in total energy (target)   :   0.2829400501E-06 (  0.1000000000E-07)
 
Time (CPU seconds) :      1071.10
 
+--------------------+
| Loop number :   27 |
+--------------------+
 
Energies :
 Fermi                       :     0.431121649257E-01
 sum of eigenvalues          :     -350.908509846    
 electron kinetic            :      608.182262207    
 core electron kinetic       :      573.021339446    
 Coulomb                     :     -1176.82410782    
 Coulomb potential           :     -914.574435291    
 nuclear-nuclear             :     -61.2284125849    
 electron-nuclear            :     -1316.61695518    
 Hartree                     :      201.021259944    
 Madelung                    :     -719.536890174    
 xc potential                :     -44.5163367619    
 exchange                    :     -33.0579595447    
 correlation                 :    -0.744517420847    
 total energy                :     -602.444322578    
 
Density of states at Fermi energy :    39.03867314    
 (states/Hartree/unit cell)
 
Estimated indirect band gap :   0.2153255479E-02
 from k-point     89 to k-point     16
Estimated direct band gap   :   0.5805013591E-01
 at k-point     73
 
Charges :
 core                        :    10.00000000    
 valence                     :    9.000000000    
 interstitial                :    1.409896229    
 muffin-tins (core leakage)
  species :    1 (K)
   atom    1                 :    17.59010377     (  0.1177661151E-06)
 total in muffin-tins        :    17.59010377    
 total calculated charge     :    18.99999987    
 total charge                :    19.00000000    
 error                       :   0.1319807375E-06
 
RMS change in Kohn-Sham potential (target) :   0.3309005847E-04 (   10.00000000    )
Absolute change in total energy (target)   :   0.3569678029E-06 (  0.1000000000E-07)
 
Time (CPU seconds) :      1112.35
 
+--------------------+
| Loop number :   28 |
+--------------------+
 
Energies :
 Fermi                       :     0.431121933786E-01
 sum of eigenvalues          :     -350.908511094    
 electron kinetic            :      608.182261720    
 core electron kinetic       :      573.021339615    
 Coulomb                     :     -1176.82410854    
 Coulomb potential           :     -914.574436086    
 nuclear-nuclear             :     -61.2284125849    
 electron-nuclear            :     -1316.61695582    
 Hartree                     :      201.021259866    
 Madelung                    :     -719.536890494    
 xc potential                :     -44.5163367273    
 exchange                    :     -33.0579595107    
 correlation                 :    -0.744517421521    
 total energy                :     -602.444323749    
 
Density of states at Fermi energy :    39.03867122    
 (states/Hartree/unit cell)
 
Estimated indirect band gap :   0.2153253564E-02
 from k-point     89 to k-point     16
Estimated direct band gap   :   0.5805013441E-01
 at k-point     73
 
Charges :
 core                        :    10.00000000    
 valence                     :    9.000000000    
 interstitial                :    1.409896309    
 muffin-tins (core leakage)
  species :    1 (K)
   atom    1                 :    17.59010369     (  0.1158752791E-06)
 total in muffin-tins        :    17.59010369    
 total calculated charge     :    18.99999987    
 total charge                :    19.00000000    
 error                       :   0.1300951631E-06
 
Wrote STATE.OUT
 
RMS change in Kohn-Sham potential (target) :   0.6422315514E-04 (   10.00000000    )
Absolute change in total energy (target)   :   0.1081502774E-05 (  0.1000000000E-07)
 
Time (CPU seconds) :      1154.39
 
+--------------------+
| Loop number :   29 |
+--------------------+
 
Energies :
 Fermi                       :     0.431122080375E-01
 sum of eigenvalues          :     -350.908511723    
 electron kinetic            :      608.182261350    
 core electron kinetic       :      573.021339888    
 Coulomb                     :     -1176.82410868    
 Coulomb potential           :     -914.574436369    
 nuclear-nuclear             :     -61.2284125849    
 electron-nuclear            :     -1316.61695582    
 Hartree                     :      201.021259725    
 Madelung                    :     -719.536890494    
 xc potential                :     -44.5163367053    
 exchange                    :     -33.0579594898    
 correlation                 :    -0.744517421878    
 total energy                :     -602.444324239    
 
Density of states at Fermi energy :    39.03867028    
 (states/Hartree/unit cell)
 
Estimated indirect band gap :   0.2153252620E-02
 from k-point     89 to k-point     16
Estimated direct band gap   :   0.5805013357E-01
 at k-point     73
 
Charges :
 core                        :    10.00000000    
 valence                     :    9.000000000    
 interstitial                :    1.409896346    
 muffin-tins (core leakage)
  species :    1 (K)
   atom    1                 :    17.59010365     (  0.1177854561E-06)
 total in muffin-tins        :    17.59010365    
 total calculated charge     :    18.99999987    
 total charge                :    19.00000000    
 error                       :   0.1319986964E-06
 
RMS change in Kohn-Sham potential (target) :   0.6544441029E-05 (   10.00000000    )
Absolute change in total energy (target)   :   0.7605106020E-06 (  0.1000000000E-07)
 
Time (CPU seconds) :      1195.63
 
+--------------------+
| Loop number :   30 |
+--------------------+
 
Energies :
 Fermi                       :     0.431122277077E-01
 sum of eigenvalues          :     -350.908512470    
 electron kinetic            :      608.182260884    
 core electron kinetic       :      573.021339753    
 Coulomb                     :     -1176.82410915    
 Coulomb potential           :     -914.574436668    
 nuclear-nuclear             :     -61.2284125849    
 electron-nuclear            :     -1316.61695646    
 Hartree                     :      201.021259894    
 Madelung                    :     -719.536890813    
 xc potential                :     -44.5163366864    
 exchange                    :     -33.0579594700    
 correlation                 :    -0.744517422573    
 total energy                :     -602.444325156    
 
Density of states at Fermi energy :    39.03866907    
 (states/Hartree/unit cell)
 
Estimated indirect band gap :   0.2153251430E-02
 from k-point     89 to k-point     16
Estimated direct band gap   :   0.5805013244E-01
 at k-point     73
 
Charges :
 core                        :    10.00000000    
 valence                     :    9.000000000    
 interstitial                :    1.409896387    
 muffin-tins (core leakage)
  species :    1 (K)
   atom    1                 :    17.59010361     (  0.1177274740E-06)
 total in muffin-tins        :    17.59010361    
 total calculated charge     :    18.99999987    
 total charge                :    19.00000000    
 error                       :   0.1319167637E-06
 
Wrote STATE.OUT
 
RMS change in Kohn-Sham potential (target) :   0.9152742998E-04 (   10.00000000    )
Absolute change in total energy (target)   :   0.1106866421E-05 (  0.1000000000E-07)
 
Time (CPU seconds) :      1236.55
 
+--------------------+
| Loop number :   31 |
+--------------------+
 
Energies :
 Fermi                       :     0.431122372536E-01
 sum of eigenvalues          :     -350.908512804    
 electron kinetic            :      608.182260680    
 core electron kinetic       :      573.021339943    
 Coulomb                     :     -1176.82410906    
 Coulomb potential           :     -914.574436810    
 nuclear-nuclear             :     -61.2284125849    
 electron-nuclear            :     -1316.61695614    
 Hartree                     :      201.021259663    
 Madelung                    :     -719.536890653    
 xc potential                :     -44.5163366739    
 exchange                    :     -33.0579594573    
 correlation                 :    -0.744517423053    
 total energy                :     -602.444325259    
 
Density of states at Fermi energy :    39.03866853    
 (states/Hartree/unit cell)
 
Estimated indirect band gap :   0.2153250856E-02
 from k-point     89 to k-point     16
Estimated direct band gap   :   0.5805013192E-01
 at k-point     73
 
Charges :
 core                        :    10.00000000    
 valence                     :    9.000000000    
 interstitial                :    1.409896408    
 muffin-tins (core leakage)
  species :    1 (K)
   atom    1                 :    17.59010359     (  0.1177537765E-06)
 total in muffin-tins        :    17.59010359    
 total calculated charge     :    18.99999987    
 total charge                :    19.00000000    
 error                       :   0.1319673046E-06
 
RMS change in Kohn-Sham potential (target) :   0.4558207392E-04 (   10.00000000    )
Absolute change in total energy (target)   :   0.3794377790E-06 (  0.1000000000E-07)
 
Time (CPU seconds) :      1277.93
 
+--------------------+
| Loop number :   32 |
+--------------------+
 
Energies :
 Fermi                       :     0.431122525318E-01
 sum of eigenvalues          :     -350.908513287    
 electron kinetic            :      608.182260258    
 core electron kinetic       :      573.021339529    
 Coulomb                     :     -1176.82410925    
 Coulomb potential           :     -914.574436883    
 nuclear-nuclear             :     -61.2284125849    
 electron-nuclear            :     -1316.61695646    
 Hartree                     :      201.021259787    
 Madelung                    :     -719.536890813    
 xc potential                :     -44.5163366622    
 exchange                    :     -33.0579594437    
 correlation                 :    -0.744517423888    
 total energy                :     -602.444325865    
 
Density of states at Fermi energy :    39.03866772    
 (states/Hartree/unit cell)
 
Estimated indirect band gap :   0.2153250018E-02
 from k-point     89 to k-point     16
Estimated direct band gap   :   0.5805013100E-01
 at k-point     73
 
Charges :
 core                        :    10.00000000    
 valence                     :    9.000000000    
 interstitial                :    1.409896431    
 muffin-tins (core leakage)
  species :    1 (K)
   atom    1                 :    17.59010357     (  0.1177222337E-06)
 total in muffin-tins        :    17.59010357    
 total calculated charge     :    18.99999987    
 total charge                :    19.00000000    
 error                       :   0.1319485676E-06
 
Wrote STATE.OUT
 
RMS change in Kohn-Sham potential (target) :   0.1255922137E-04 (   10.00000000    )
Absolute change in total energy (target)   :   0.7007856766E-06 (  0.1000000000E-07)
 
Time (CPU seconds) :      1318.09
 
+--------------------+
| Loop number :   33 |
+--------------------+
 
Energies :
 Fermi                       :     0.431122559944E-01
 sum of eigenvalues          :     -350.908513306    
 electron kinetic            :      608.182260229    
 core electron kinetic       :      573.021339743    
 Coulomb                     :     -1176.82410941    
 Coulomb potential           :     -914.574436869    
 nuclear-nuclear             :     -61.2284125849    
 electron-nuclear            :     -1316.61695678    
 Hartree                     :      201.021259954    
 Madelung                    :     -719.536890973    
 xc potential                :     -44.5163366658    
 exchange                    :     -33.0579594467    
 correlation                 :    -0.744517423840    
 total energy                :     -602.444326049    
 
Density of states at Fermi energy :    39.03866761    
 (states/Hartree/unit cell)
 
Estimated indirect band gap :   0.2153249892E-02
 from k-point     89 to k-point     16
Estimated direct band gap   :   0.5805013080E-01
 at k-point     73
 
Charges :
 core                        :    10.00000000    
 valence                     :    9.000000000    
 interstitial                :    1.409896431    
 muffin-tins (core leakage)
  species :    1 (K)
   atom    1                 :    17.59010357     (  0.1159358387E-06)
 total in muffin-tins        :    17.59010357    
 total calculated charge     :    18.99999987    
 total charge                :    19.00000000    
 error                       :   0.1301693757E-06
 
RMS change in Kohn-Sham potential (target) :   0.1472887013E-04 (   10.00000000    )
Absolute change in total energy (target)   :   0.3595744147E-06 (  0.1000000000E-07)
 
Time (CPU seconds) :      1358.01
 
+--------------------+
| Loop number :   34 |
+--------------------+
 
Energies :
 Fermi                       :     0.431122647716E-01
 sum of eigenvalues          :     -350.908513548    
 electron kinetic            :      608.182260051    
 core electron kinetic       :      573.021339601    
 Coulomb                     :     -1176.82410944    
 Coulomb potential           :     -914.574436942    
 nuclear-nuclear             :     -61.2284125849    
 electron-nuclear            :     -1316.61695678    
 Hartree                     :      201.021259917    
 Madelung                    :     -719.536890973    
 xc potential                :     -44.5163366566    
 exchange                    :     -33.0579594377    
 correlation                 :    -0.744517424091    
 total energy                :     -602.444326255    
 
Density of states at Fermi energy :    39.03866714    
 (states/Hartree/unit cell)
 
Estimated indirect band gap :   0.2153249413E-02
 from k-point     89 to k-point     16
Estimated direct band gap   :   0.5805013031E-01
 at k-point     73
 
Charges :
 core                        :    10.00000000    
 valence                     :    9.000000000    
 interstitial                :    1.409896446    
 muffin-tins (core leakage)
  species :    1 (K)
   atom    1                 :    17.59010355     (  0.1158804110E-06)
 total in muffin-tins        :    17.59010355    
 total calculated charge     :    18.99999987    
 total charge                :    19.00000000    
 error                       :   0.1301082087E-06
 
Wrote STATE.OUT
 
RMS change in Kohn-Sham potential (target) :   0.1306859411E-04 (   10.00000000    )
Absolute change in total energy (target)   :   0.2955168839E-06 (  0.1000000000E-07)
 
Time (CPU seconds) :      1398.97
 
+--------------------+
| Loop number :   35 |
+--------------------+
 
Energies :
 Fermi                       :     0.431122669346E-01
 sum of eigenvalues          :     -350.908513597    
 electron kinetic            :      608.182259960    
 core electron kinetic       :      573.021339526    
 Coulomb                     :     -1176.82410927    
 Coulomb potential           :     -914.574436909    
 nuclear-nuclear             :     -61.2284125849    
 electron-nuclear            :     -1316.61695646    
 Hartree                     :      201.021259774    
 Madelung                    :     -719.536890813    
 xc potential                :     -44.5163366478    
 exchange                    :     -33.0579594295    
 correlation                 :    -0.744517424388    
 total energy                :     -602.444326162    
 
Density of states at Fermi energy :    39.03866704    
 (states/Hartree/unit cell)
 
Estimated indirect band gap :   0.2153249304E-02
 from k-point     89 to k-point     16
Estimated direct band gap   :   0.5805013019E-01
 at k-point     73
 
Charges :
 core                        :    10.00000000    
 valence                     :    9.000000000    
 interstitial                :    1.409896451    
 muffin-tins (core leakage)
  species :    1 (K)
   atom    1                 :    17.59010355     (  0.1177432019E-06)
 total in muffin-tins        :    17.59010355    
 total calculated charge     :    18.99999987    
 total charge                :    19.00000000    
 error                       :   0.1319825351E-06
 
RMS change in Kohn-Sham potential (target) :   0.1047467303E-04 (   10.00000000    )
Absolute change in total energy (target)   :   0.1912599146E-07 (  0.1000000000E-07)
 
Time (CPU seconds) :      1440.92
 
+--------------------+
| Loop number :   36 |
+--------------------+
 
Energies :
 Fermi                       :     0.431122701396E-01
 sum of eigenvalues          :     -350.908513683    
 electron kinetic            :      608.182259954    
 core electron kinetic       :      573.021340602    
 Coulomb                     :     -1176.82410947    
 Coulomb potential           :     -914.574436985    
 nuclear-nuclear             :     -61.2284125849    
 electron-nuclear            :     -1316.61695678    
 Hartree                     :      201.021259896    
 Madelung                    :     -719.536890973    
 xc potential                :     -44.5163366526    
 exchange                    :     -33.0579594345    
 correlation                 :    -0.744517423998    
 total energy                :     -602.444326369    
 
Density of states at Fermi energy :    39.03866685    
 (states/Hartree/unit cell)
 
Estimated indirect band gap :   0.2153249145E-02
 from k-point     89 to k-point     16
Estimated direct band gap   :   0.5805013001E-01
 at k-point     73
 
Charges :
 core                        :    10.00000000    
 valence                     :    9.000000000    
 interstitial                :    1.409896453    
 muffin-tins (core leakage)
  species :    1 (K)
   atom    1                 :    17.59010355     (  0.1159517922E-06)
 total in muffin-tins        :    17.59010355    
 total calculated charge     :    18.99999987    
 total charge                :    19.00000000    
 error                       :   0.1301528911E-06
 
Wrote STATE.OUT
 
RMS change in Kohn-Sham potential (target) :   0.1456892789E-03 (   10.00000000    )
Absolute change in total energy (target)   :   0.2031900976E-06 (  0.1000000000E-07)
 
Time (CPU seconds) :      1484.12
 
+--------------------+
| Loop number :   37 |
+--------------------+
 
Energies :
 Fermi                       :     0.431123171392E-01
 sum of eigenvalues          :     -350.908514950    
 electron kinetic            :      608.182258819    
 core electron kinetic       :      573.021339318    
 Coulomb                     :     -1176.82410971    
 Coulomb potential           :     -914.574437151    
 nuclear-nuclear             :     -61.2284125849    
 electron-nuclear            :     -1316.61695710    
 Hartree                     :      201.021259972    
 Madelung                    :     -719.536891133    
 xc potential                :     -44.5163366184    
 exchange                    :     -33.0579593974    
 correlation                 :    -0.744517425772    
 total energy                :     -602.444327712    
 
Density of states at Fermi energy :    39.03866463    
 (states/Hartree/unit cell)
 
Estimated indirect band gap :   0.2153246785E-02
 from k-point     89 to k-point     16
Estimated direct band gap   :   0.5805012733E-01
 at k-point     73
 
Charges :
 core                        :    10.00000000    
 valence                     :    9.000000000    
 interstitial                :    1.409896515    
 muffin-tins (core leakage)
  species :    1 (K)
   atom    1                 :    17.59010348     (  0.1177011040E-06)
 total in muffin-tins        :    17.59010348    
 total calculated charge     :    18.99999987    
 total charge                :    19.00000000    
 error                       :   0.1319405847E-06
 
RMS change in Kohn-Sham potential (target) :   0.2445340419E-04 (   10.00000000    )
Absolute change in total energy (target)   :   0.1393425919E-05 (  0.1000000000E-07)
 
Time (CPU seconds) :      1526.39
 
+--------------------+
| Loop number :   38 |
+--------------------+
 
Energies :
 Fermi                       :     0.431123213934E-01
 sum of eigenvalues          :     -350.908514819    
 electron kinetic            :      608.182258854    
 core electron kinetic       :      573.021339262    
 Coulomb                     :     -1176.82410967    
 Coulomb potential           :     -914.574437065    
 nuclear-nuclear             :     -61.2284125849    
 electron-nuclear            :     -1316.61695710    
 Hartree                     :      201.021260015    
 Madelung                    :     -719.536891133    
 xc potential                :     -44.5163366081    
 exchange                    :     -33.0579593890    
 correlation                 :    -0.744517425894    
 total energy                :     -602.444327626    
 
Density of states at Fermi energy :    39.03866453    
 (states/Hartree/unit cell)
 
Estimated indirect band gap :   0.2153246686E-02
 from k-point     89 to k-point     16
Estimated direct band gap   :   0.5805012719E-01
 at k-point     73
 
Charges :
 core                        :    10.00000000    
 valence                     :    9.000000000    
 interstitial                :    1.409896517    
 muffin-tins (core leakage)
  species :    1 (K)
   atom    1                 :    17.59010348     (  0.1177245323E-06)
 total in muffin-tins        :    17.59010348    
 total calculated charge     :    18.99999987    
 total charge                :    19.00000000    
 error                       :   0.1319584442E-06
 
Wrote STATE.OUT
 
RMS change in Kohn-Sham potential (target) :   0.3808714963E-04 (   10.00000000    )
Absolute change in total energy (target)   :   0.2619253792E-06 (  0.1000000000E-07)
 
Time (CPU seconds) :      1567.47
 
+--------------------+
| Loop number :   39 |
+--------------------+
 
Energies :
 Fermi                       :     0.431123221533E-01
 sum of eigenvalues          :     -350.908514783    
 electron kinetic            :      608.182258856    
 core electron kinetic       :      573.021339093    
 Coulomb                     :     -1176.82410949    
 Coulomb potential           :     -914.574437032    
 nuclear-nuclear             :     -61.2284125849    
 electron-nuclear            :     -1316.61695678    
 Hartree                     :      201.021259872    
 Madelung                    :     -719.536890973    
 xc potential                :     -44.5163366072    
 exchange                    :     -33.0579593878    
 correlation                 :    -0.744517426064    
 total energy                :     -602.444327447    
 
Density of states at Fermi energy :    39.03866450    
 (states/Hartree/unit cell)
 
Estimated indirect band gap :   0.2153246689E-02
 from k-point     89 to k-point     16
Estimated direct band gap   :   0.5805012717E-01
 at k-point     73
 
Charges :
 core                        :    10.00000000    
 valence                     :    9.000000000    
 interstitial                :    1.409896517    
 muffin-tins (core leakage)
  species :    1 (K)
   atom    1                 :    17.59010348     (  0.1177160378E-06)
 total in muffin-tins        :    17.59010348    
 total calculated charge     :    18.99999987    
 total charge                :    19.00000000    
 error                       :   0.1319187817E-06
 
RMS change in Kohn-Sham potential (target) :   0.3901641861E-04 (   10.00000000    )
Absolute change in total energy (target)   :   0.1132384568E-06 (  0.1000000000E-07)
 
Time (CPU seconds) :      1607.46
 
+--------------------+
| Loop number :   40 |
+--------------------+
 
Energies :
 Fermi                       :     0.431123126823E-01
 sum of eigenvalues          :     -350.908514585    
 electron kinetic            :      608.182259028    
 core electron kinetic       :      573.021339378    
 Coulomb                     :     -1176.82410963    
 Coulomb potential           :     -914.574436997    
 nuclear-nuclear             :     -61.2284125849    
 electron-nuclear            :     -1316.61695710    
 Hartree                     :      201.021260049    
 Madelung                    :     -719.536891133    
 xc potential                :     -44.5163366148    
 exchange                    :     -33.0579593951    
 correlation                 :    -0.744517425863    
 total energy                :     -602.444327425    
 
Density of states at Fermi energy :    39.03866492    
 (states/Hartree/unit cell)
 
Estimated indirect band gap :   0.2153247138E-02
 from k-point     89 to k-point     16
Estimated direct band gap   :   0.5805012768E-01
 at k-point     73
 
Charges :
 core                        :    10.00000000    
 valence                     :    9.000000000    
 interstitial                :    1.409896505    
 muffin-tins (core leakage)
  species :    1 (K)
   atom    1                 :    17.59010350     (  0.1177525437E-06)
 total in muffin-tins        :    17.59010350    
 total calculated charge     :    18.99999987    
 total charge                :    19.00000000    
 error                       :   0.1319481839E-06
 
Wrote STATE.OUT
 
RMS change in Kohn-Sham potential (target) :   0.1629387249E-03 (   10.00000000    )
Absolute change in total energy (target)   :   0.5070285169E-07 (  0.1000000000E-07)
 
Time (CPU seconds) :      1647.96
 
+--------------------+
| Loop number :   41 |
+--------------------+
 
Energies :
 Fermi                       :     0.431123093355E-01
 sum of eigenvalues          :     -350.908514696    
 electron kinetic            :      608.182258981    
 core electron kinetic       :      573.021339048    
 Coulomb                     :     -1176.82410966    
 Coulomb potential           :     -914.574437058    
 nuclear-nuclear             :     -61.2284125849    
 electron-nuclear            :     -1316.61695710    
 Hartree                     :      201.021260019    
 Madelung                    :     -719.536891133    
 xc potential                :     -44.5163366194    
 exchange                    :     -33.0579593987    
 correlation                 :    -0.744517425831    
 total energy                :     -602.444327505    
 
Density of states at Fermi energy :    39.03866500    
 (states/Hartree/unit cell)
 
Estimated indirect band gap :   0.2153247178E-02
 from k-point     89 to k-point     16
Estimated direct band gap   :   0.5805012777E-01
 at k-point     73
 
Charges :
 core                        :    10.00000000    
 valence                     :    9.000000000    
 interstitial                :    1.409896505    
 muffin-tins (core leakage)
  species :    1 (K)
   atom    1                 :    17.59010349     (  0.1177355866E-06)
 total in muffin-tins        :    17.59010349    
 total calculated charge     :    18.99999987    
 total charge                :    19.00000000    
 error                       :   0.1319754723E-06
 
RMS change in Kohn-Sham potential (target) :   0.3219724591E-05 (   10.00000000    )
Absolute change in total energy (target)   :   0.6783670869E-07 (  0.1000000000E-07)
 
Time (CPU seconds) :      1689.53
 
+--------------------+
| Loop number :   42 |
+--------------------+
 
Energies :
 Fermi                       :     0.431123004981E-01
 sum of eigenvalues          :     -350.908514316    
 electron kinetic            :      608.182259266    
 core electron kinetic       :      573.021339252    
 Coulomb                     :     -1176.82410945    
 Coulomb potential           :     -914.574436961    
 nuclear-nuclear             :     -61.2284125849    
 electron-nuclear            :     -1316.61695678    
 Hartree                     :      201.021259907    
 Madelung                    :     -719.536890973    
 xc potential                :     -44.5163366211    
 exchange                    :     -33.0579594021    
 correlation                 :    -0.744517425534    
 total energy                :     -602.444327015    
 
Density of states at Fermi energy :    39.03866549    
 (states/Hartree/unit cell)
 
Estimated indirect band gap :   0.2153247698E-02
 from k-point     89 to k-point     16
Estimated direct band gap   :   0.5805012833E-01
 at k-point     73
 
Charges :
 core                        :    10.00000000    
 valence                     :    9.000000000    
 interstitial                :    1.409896491    
 muffin-tins (core leakage)
  species :    1 (K)
   atom    1                 :    17.59010351     (  0.1177619797E-06)
 total in muffin-tins        :    17.59010351    
 total calculated charge     :    18.99999987    
 total charge                :    19.00000000    
 error                       :   0.1319899710E-06
 
Wrote STATE.OUT
 
RMS change in Kohn-Sham potential (target) :   0.6231569652E-04 (   10.00000000    )
Absolute change in total energy (target)   :   0.4729205330E-06 (  0.1000000000E-07)
 
Time (CPU seconds) :      1729.97
 
+--------------------+
| Loop number :   43 |
+--------------------+
 
Energies :
 Fermi                       :     0.431122952893E-01
 sum of eigenvalues          :     -350.908514255    
 electron kinetic            :      608.182259373    
 core electron kinetic       :      573.021339201    
 Coulomb                     :     -1176.82410947    
 Coulomb potential           :     -914.574437001    
 nuclear-nuclear             :     -61.2284125849    
 electron-nuclear            :     -1316.61695678    
 Hartree                     :      201.021259887    
 Madelung                    :     -719.536890973    
 xc potential                :     -44.5163366266    
 exchange                    :     -33.0579594085    
 correlation                 :    -0.744517425011    
 total energy                :     -602.444326934    
 
Density of states at Fermi energy :    39.03866572    
 (states/Hartree/unit cell)
 
Estimated indirect band gap :   0.2153247914E-02
 from k-point     89 to k-point     16
Estimated direct band gap   :   0.5805012859E-01
 at k-point     73
 
Charges :
 core                        :    10.00000000    
 valence                     :    9.000000000    
 interstitial                :    1.409896486    
 muffin-tins (core leakage)
  species :    1 (K)
   atom    1                 :    17.59010351     (  0.1177498117E-06)
 total in muffin-tins        :    17.59010351    
 total calculated charge     :    18.99999987    
 total charge                :    19.00000000    
 error                       :   0.1319999683E-06
 
RMS change in Kohn-Sham potential (target) :   0.4818605486E-04 (   10.00000000    )
Absolute change in total energy (target)   :   0.1991114686E-06 (  0.1000000000E-07)
 
Time (CPU seconds) :      1768.08
 
+--------------------+
| Loop number :   44 |
+--------------------+
 
Energies :
 Fermi                       :     0.431122901800E-01
 sum of eigenvalues          :     -350.908514044    
 electron kinetic            :      608.182259537    
 core electron kinetic       :      573.021339317    
 Coulomb                     :     -1176.82410945    
 Coulomb potential           :     -914.574436951    
 nuclear-nuclear             :     -61.2284125849    
 electron-nuclear            :     -1316.61695678    
 Hartree                     :      201.021259912    
 Madelung                    :     -719.536890973    
 xc potential                :     -44.5163366288    
 exchange                    :     -33.0579594113    
 correlation                 :    -0.744517424834    
 total energy                :     -602.444326748    
 
Density of states at Fermi energy :    39.03866595    
 (states/Hartree/unit cell)
 
Estimated indirect band gap :   0.2153248219E-02
 from k-point     89 to k-point     16
Estimated direct band gap   :   0.5805012892E-01
 at k-point     73
 
Charges :
 core                        :    10.00000000    
 valence                     :    9.000000000    
 interstitial                :    1.409896478    
 muffin-tins (core leakage)
  species :    1 (K)
   atom    1                 :    17.59010352     (  0.1177542561E-06)
 total in muffin-tins        :    17.59010352    
 total calculated charge     :    18.99999987    
 total charge                :    19.00000000    
 error                       :   0.1319511398E-06
 
Wrote STATE.OUT
 
RMS change in Kohn-Sham potential (target) :   0.3747717880E-04 (   10.00000000    )
Absolute change in total energy (target)   :   0.2358970050E-06 (  0.1000000000E-07)
 
Time (CPU seconds) :      1810.78
 
+--------------------+
| Loop number :   45 |
+--------------------+
 
Energies :
 Fermi                       :     0.431122891913E-01
 sum of eigenvalues          :     -350.908514004    
 electron kinetic            :      608.182259584    
 core electron kinetic       :      573.021339362    
 Coulomb                     :     -1176.82410945    
 Coulomb potential           :     -914.574436953    
 nuclear-nuclear             :     -61.2284125849    
 electron-nuclear            :     -1316.61695678    
 Hartree                     :      201.021259912    
 Madelung                    :     -719.536890973    
 xc potential                :     -44.5163366350    
 exchange                    :     -33.0579594160    
 correlation                 :    -0.744517424967    
 total energy                :     -602.444326707    
 
Density of states at Fermi energy :    39.03866601    
 (states/Hartree/unit cell)
 
Estimated indirect band gap :   0.2153248282E-02
 from k-point     89 to k-point     16
Estimated direct band gap   :   0.5805012899E-01
 at k-point     73
 
Charges :
 core                        :    10.00000000    
 valence                     :    9.000000000    
 interstitial                :    1.409896474    
 muffin-tins (core leakage)
  species :    1 (K)
   atom    1                 :    17.59010353     (  0.1159604466E-06)
 total in muffin-tins        :    17.59010353    
 total calculated charge     :    18.99999987    
 total charge                :    19.00000000    
 error                       :   0.1301553496E-06
 
RMS change in Kohn-Sham potential (target) :   0.1910250210E-04 (   10.00000000    )
Absolute change in total energy (target)   :   0.1005806780E-06 (  0.1000000000E-07)
 
Time (CPU seconds) :      1851.92
 
+--------------------+
| Loop number :   46 |
+--------------------+
 
Energies :
 Fermi                       :     0.431122879767E-01
 sum of eigenvalues          :     -350.908513947    
 electron kinetic            :      608.182259617    
 core electron kinetic       :      573.021339335    
 Coulomb                     :     -1176.82410928    
 Coulomb potential           :     -914.574436935    
 nuclear-nuclear             :     -61.2284125849    
 electron-nuclear            :     -1316.61695646    
 Hartree                     :      201.021259761    
 Madelung                    :     -719.536890813    
 xc potential                :     -44.5163366294    
 exchange                    :     -33.0579594122    
 correlation                 :    -0.744517424775    
 total energy                :     -602.444326501    
 
Density of states at Fermi energy :    39.03866611    
 (states/Hartree/unit cell)
 
Estimated indirect band gap :   0.2153248353E-02
 from k-point     89 to k-point     16
Estimated direct band gap   :   0.5805012908E-01
 at k-point     73
 
Charges :
 core                        :    10.00000000    
 valence                     :    9.000000000    
 interstitial                :    1.409896475    
 muffin-tins (core leakage)
  species :    1 (K)
   atom    1                 :    17.59010353     (  0.1177451256E-06)
 total in muffin-tins        :    17.59010353    
 total calculated charge     :    18.99999987    
 total charge                :    19.00000000    
 error                       :   0.1319628815E-06
 
Wrote STATE.OUT
 
RMS change in Kohn-Sham potential (target) :   0.3240702282E-04 (   10.00000000    )
Absolute change in total energy (target)   :   0.2311356866E-06 (  0.1000000000E-07)
 
Time (CPU seconds) :      1894.84
 
+--------------------+
| Loop number :   47 |
+--------------------+
 
Energies :
 Fermi                       :     0.431122874394E-01
 sum of eigenvalues          :     -350.908513935    
 electron kinetic            :      608.182259629    
 core electron kinetic       :      573.021339328    
 Coulomb                     :     -1176.82410928    
 Coulomb potential           :     -914.574436934    
 nuclear-nuclear             :     -61.2284125849    
 electron-nuclear            :     -1316.61695646    
 Hartree                     :      201.021259761    
 Madelung                    :     -719.536890813    
 xc potential                :     -44.5163366300    
 exchange                    :     -33.0579594128    
 correlation                 :    -0.744517424765    
 total energy                :     -602.444326489    
 
Density of states at Fermi energy :    39.03866610    
 (states/Hartree/unit cell)
 
Estimated indirect band gap :   0.2153248383E-02
 from k-point     89 to k-point     16
Estimated direct band gap   :   0.5805012911E-01
 at k-point     73
 
Charges :
 core                        :    10.00000000    
 valence                     :    9.000000000    
 interstitial                :    1.409896474    
 muffin-tins (core leakage)
  species :    1 (K)
   atom    1                 :    17.59010353     (  0.1177608855E-06)
 total in muffin-tins        :    17.59010353    
 total calculated charge     :    18.99999987    
 total charge                :    19.00000000    
 error                       :   0.1319491822E-06
 
RMS change in Kohn-Sham potential (target) :   0.4220580322E-05 (   10.00000000    )
Absolute change in total energy (target)   :   0.6950540410E-07 (  0.1000000000E-07)
 
Time (CPU seconds) :      1936.76
 
+--------------------+
| Loop number :   48 |
+--------------------+
 
Energies :
 Fermi                       :     0.431122863320E-01
 sum of eigenvalues          :     -350.908513911    
 electron kinetic            :      608.182259664    
 core electron kinetic       :      573.021339366    
 Coulomb                     :     -1176.82410928    
 Coulomb potential           :     -914.574436943    
 nuclear-nuclear             :     -61.2284125849    
 electron-nuclear            :     -1316.61695646    
 Hartree                     :      201.021259757    
 Madelung                    :     -719.536890813    
 xc potential                :     -44.5163366320    
 exchange                    :     -33.0579594150    
 correlation                 :    -0.744517424603    
 total energy                :     -602.444326461    
 
Density of states at Fermi energy :    39.03866616    
 (states/Hartree/unit cell)
 
Estimated indirect band gap :   0.2153248443E-02
 from k-point     89 to k-point     16
Estimated direct band gap   :   0.5805012918E-01
 at k-point     73
 
Charges :
 core                        :    10.00000000    
 valence                     :    9.000000000    
 interstitial                :    1.409896472    
 muffin-tins (core leakage)
  species :    1 (K)
   atom    1                 :    17.59010353     (  0.1177346451E-06)
 total in muffin-tins        :    17.59010353    
 total calculated charge     :    18.99999987    
 total charge                :    19.00000000    
 error                       :   0.1319194425E-06
 
Wrote STATE.OUT
 
RMS change in Kohn-Sham potential (target) :   0.9421140463E-05 (   10.00000000    )
Absolute change in total energy (target)   :   0.4571552381E-07 (  0.1000000000E-07)
 
Time (CPU seconds) :      1974.31
 
+--------------------+
| Loop number :   49 |
+--------------------+
 
Energies :
 Fermi                       :     0.431122861121E-01
 sum of eigenvalues          :     -350.908513906    
 electron kinetic            :      608.182259658    
 core electron kinetic       :      573.021339351    
 Coulomb                     :     -1176.82410928    
 Coulomb potential           :     -914.574436932    
 nuclear-nuclear             :     -61.2284125849    
 electron-nuclear            :     -1316.61695646    
 Hartree                     :      201.021259762    
 Madelung                    :     -719.536890813    
 xc potential                :     -44.5163366319    
 exchange                    :     -33.0579594146    
 correlation                 :    -0.744517424713    
 total energy                :     -602.444326461    
 
Density of states at Fermi energy :    39.03866618    
 (states/Hartree/unit cell)
 
Estimated indirect band gap :   0.2153248455E-02
 from k-point     89 to k-point     16
Estimated direct band gap   :   0.5805012919E-01
 at k-point     73
 
Charges :
 core                        :    10.00000000    
 valence                     :    9.000000000    
 interstitial                :    1.409896472    
 muffin-tins (core leakage)
  species :    1 (K)
   atom    1                 :    17.59010353     (  0.1177406705E-06)
 total in muffin-tins        :    17.59010353    
 total calculated charge     :    18.99999987    
 total charge                :    19.00000000    
 error                       :   0.1319338239E-06
 
RMS change in Kohn-Sham potential (target) :   0.1208809220E-04 (   10.00000000    )
Absolute change in total energy (target)   :   0.1137607342E-07 (  0.1000000000E-07)
 
Time (CPU seconds) :      2014.17
 
+--------------------+
| Loop number :   50 |
+--------------------+
 
Energies :
 Fermi                       :     0.431122852196E-01
 sum of eigenvalues          :     -350.908513896    
 electron kinetic            :      608.182259646    
 core electron kinetic       :      573.021339359    
 Coulomb                     :     -1176.82410927    
 Coulomb potential           :     -914.574436909    
 nuclear-nuclear             :     -61.2284125849    
 electron-nuclear            :     -1316.61695646    
 Hartree                     :      201.021259774    
 Madelung                    :     -719.536890813    
 xc potential                :     -44.5163366335    
 exchange                    :     -33.0579594148    
 correlation                 :    -0.744517425020    
 total energy                :     -602.444326461    
 
Density of states at Fermi energy :    39.03866625    
 (states/Hartree/unit cell)
 
Estimated indirect band gap :   0.2153248499E-02
 from k-point     89 to k-point     16
Estimated direct band gap   :   0.5805012924E-01
 at k-point     73
 
Charges :
 core                        :    10.00000000    
 valence                     :    9.000000000    
 interstitial                :    1.409896470    
 muffin-tins (core leakage)
  species :    1 (K)
   atom    1                 :    17.59010353     (  0.1176831894E-06)
 total in muffin-tins        :    17.59010353    
 total calculated charge     :    18.99999987    
 total charge                :    19.00000000    
 error                       :   0.1319029082E-06
 
Wrote STATE.OUT
 
RMS change in Kohn-Sham potential (target) :   0.5193307124E-04 (   10.00000000    )
Absolute change in total energy (target)   :   0.2231672624E-08 (  0.1000000000E-07)
 
Convergence targets achieved
 
Time (CPU seconds) :      2055.79
 
+--------------------+
| Loop number :   51 |
+--------------------+
 
Energies :
 Fermi                       :     0.431122864360E-01
 sum of eigenvalues          :     -350.908513915    
 electron kinetic            :      608.182259641    
 core electron kinetic       :      573.021339339    
 Coulomb                     :     -1176.82410928    
 Coulomb potential           :     -914.574436924    
 nuclear-nuclear             :     -61.2284125849    
 electron-nuclear            :     -1316.61695646    
 Hartree                     :      201.021259766    
 Madelung                    :     -719.536890813    
 xc potential                :     -44.5163366311    
 exchange                    :     -33.0579594135    
 correlation                 :    -0.744517424867    
 total energy                :     -602.444326473    
 
Density of states at Fermi energy :    39.03866622    
 (states/Hartree/unit cell)
 
Estimated indirect band gap :   0.2153248435E-02
 from k-point     89 to k-point     16
Estimated direct band gap   :   0.5805012917E-01
 at k-point     73
 
Charges :
 core                        :    10.00000000    
 valence                     :    9.000000000    
 interstitial                :    1.409896472    
 muffin-tins (core leakage)
  species :    1 (K)
   atom    1                 :    17.59010353     (  0.1177085931E-06)
 total in muffin-tins        :    17.59010353    
 total calculated charge     :    18.99999987    
 total charge                :    19.00000000    
 error                       :   0.1319540424E-06
 
+------------------------------+
| Self-consistent loop stopped |
+------------------------------+
 
Wrote STATE.OUT
 
Timings (CPU seconds) :
 initialisation                        :         1.64
 Hamiltonian and overlap matrix set up :       637.79
 first-variational eigenvalue equation :      1077.58
 charge density calculation            :        57.76
 potential calculation                 :       321.15
 total                                 :      2095.92
 
+----------------------------+
| Elk version 8.3.15 stopped |
+----------------------------+
