   15.83913916    
   26.96108263    
   10.41491395    
   18.59461350    
   17.84455444    
   16.41707723    
   15.51110888    
   15.00339617    
   15.00867886    
   15.02158153    
   15.28759152    
   15.12684507    
   15.68427702    
   14.94297312    
   15.33694712    
   15.38147168    
   15.37441026    
   15.37319080    
   15.37107918    
   15.37165165    
   15.37165320    
   15.37244562    
   15.37210720    
   15.37302297    
   15.37200761    
   15.37268227    
   15.37263534    
   15.37262094    
   15.37261614    
   15.37261294    
   15.37261169    
   15.37261066    
   15.37261020    
   15.37260964    
   15.37260977    
   15.37260897    
   15.37261009    
