    0.131293647557E-03
    0.597119704690E-04
    0.336742698295E-03
    0.124261127003E-03
    0.247805209750E-04
    0.398605188566E-04
    0.776078875783E-04
    0.792897571013E-04
    0.816007717208E-04
    0.814195831481E-04
    0.816153422514E-04
    0.816405225352E-04
    0.816545297593E-04
    0.816557272561E-04
    0.816435361993E-04
    0.816607377453E-04
    0.816623252872E-04
    0.816637525527E-04
    0.816704294287E-04
    0.816769789957E-04
    0.816751381426E-04
    0.816736591114E-04
    0.816697304267E-04
    0.816716774394E-04
    0.816697546408E-04
    0.816692616718E-04
    0.816684115135E-04
    0.816692311931E-04
    0.816676727889E-04
    0.816672118584E-04
    0.816675874066E-04
    0.816674136067E-04
    0.816672113882E-04
    0.816669984067E-04
    0.816671089642E-04
    0.816671333688E-04
    0.816673269137E-04
    0.816673023006E-04
    0.816674819018E-04
    0.816674336993E-04
    0.816673954330E-04
    0.816673652830E-04
    0.816673775904E-04
    0.816673820210E-04
    0.816673759351E-04
    0.816673729773E-04
    0.816673712564E-04
