 
Distance between is =    1 (Y), ia =    1 and
 is =    1 (Y), ia =    1 :    0.000000000    
 is =    1 (Y), ia =    2 :    6.577573165    
 
Distance between is =    1 (Y), ia =    2 and
 is =    1 (Y), ia =    1 :    6.577573165    
 is =    1 (Y), ia =    2 :    0.000000000    
