  0.7694156514    
  0.6478206972    
  0.3678646063    
  0.1371166894    
  0.3765499068E-01
  0.1775232360E-02
  0.1151161324E-02
  0.4031300662E-03
  0.2202437662E-03
  0.1817163015E-03
  0.2310830176E-04
  0.1672744825E-03
  0.1279555065E-02
  0.2903518165E-03
  0.7689101211E-04
  0.2356589445E-04
  0.8112034982E-03
  0.6644099937E-03
  0.2030303790E-03
  0.2165090753E-03
  0.7669155956E-04
  0.3867865948E-03
  0.9796973227E-04
  0.1181037511E-03
  0.1818875776E-03
  0.5076588018E-03
  0.1510335949E-03
  0.6098787586E-04
  0.4786310163E-04
  0.9367736066E-04
  0.1579093141E-03
  0.4227047304E-04
  0.7490501485E-04
  0.1724003631E-03
  0.1532730601E-03
  0.1419163457E-04
  0.2986025071E-03
  0.6297954163E-04
  0.1567997807E-03
  0.3924730349E-04
  0.1034026320E-03
  0.1705778326E-03
  0.6211252827E-03
  0.2949897005E-03
  0.7974497649E-04
