 
scale
 1.0
 
scale1
 1.0
 
scale2
 1.0
 
scale3
 1.0
 
avec
   5.344330815      -3.085550834       0.000000000    
   0.000000000       6.171101669       0.000000000    
   0.000000000       0.000000000       9.927768509    
 
atoms
   1                                    : nspecies
'Zr.in'                                 : spfname
   2                                    : natoms; atpos, bfcmt below
    0.33333333    0.16666667    0.25000000    0.00000000  0.00000000  0.00000000
   -0.33333333   -0.16666667   -0.25000000    0.00000000  0.00000000  0.00000000
