  0.1681872633E-02
  0.1274575148E-01
  0.4207559895E-01
  0.3234321884E-01
  0.1292511021E-01
  0.6233204520E-02
  0.1420734443E-02
  0.6434875122E-03
  0.2155632792E-03
  0.1220287377E-03
  0.9395588495E-04
  0.6786010272E-04
  0.2922859858E-04
  0.1626175072E-04
  0.6191268767E-05
  0.1287772830E-04
  0.1189630893E-04
  0.7311282388E-06
  0.3570086847E-05
  0.5981974027E-05
  0.2857952495E-05
  0.3654913598E-06
  0.6313530321E-06
  0.1111744496E-05
  0.5741076166E-06
  0.3083132469E-06
  0.8110146155E-06
  0.2255201252E-06
  0.2218203008E-06
  0.2750621206E-06
  0.1602056727E-06
  0.1008593244E-06
  0.5024412530E-07
  0.4957109923E-07
  0.1298758434E-07
  0.2005072020E-07
  0.9913492249E-08
