+----------------------------+
| Elk version 8.3.15 started |
+----------------------------+
 
Date (YYYY-MM-DD) : 2022-02-14
Time (hh:mm:ss)   : 11:49:36
 
All units are atomic (Hartree, Bohr, etc.)
 
+------------------------------------------+
| Ground-state run resuming from STATE.OUT |
+------------------------------------------+
 
Lattice vectors :
   4.315285087      -2.491431007       0.000000000    
   0.000000000       4.982862013       0.000000000    
   0.000000000       0.000000000       7.618192563    
 
Reciprocal lattice vectors :
   1.456030177       0.000000000       0.000000000    
  0.7280150883       1.260959122       0.000000000    
   0.000000000       0.000000000      0.8247606312    
 
Unit cell volume      :    163.8099581    
Brillouin zone volume :    1.514256010    
 
Muffin-tin inner radius fraction :   0.1000000000E-01
 
Species :    1 (Ru)
 parameters loaded from : Ru.in
 name : ruthenium
 nuclear charge    :   -44.00000000    
 electronic charge :    44.00000000    
 atomic mass :    184239.3392    
 muffin-tin radius :    2.320000000    
 number of radial points in muffin-tin :   1200
 number on inner part of muffin-tin    :    866
 atomic positions (lattice), magnetic fields (Cartesian) :
   1 :   0.33333333  0.16666667  0.25000000    0.00000000  0.00000000  0.00000000
   2 :  -0.33333333 -0.16666667 -0.25000000    0.00000000  0.00000000  0.00000000
 
Total number of atoms per unit cell :    2
 
Spin treatment :
 spin-unpolarised
 
Number of Bravais lattice symmetries :   24
Number of crystal symmetries         :   24
Crystal has inversion symmetry
Real symmetric eigensolver will be used
 
k-point grid :     17    17    17
k-point offset :    0.000000000       0.000000000       0.000000000    
k-point set is reduced with full crystal symmetry group
Total number of k-points :      297
 
Muffin-tin radius times maximum |G+k| :    8.500000000    
 using gkmax = rgkmax / 2
Maximum |G+k| for APW functions       :    4.250000000    
Maximum (1/2)|G+k|²                   :    9.031250000    
Maximum |G| for potential and density :    34.00000000    
Constant for pseudocharge density :   20
Radial integration step length :    1
 
G-vector grid sizes :     54    54    90
Number of G-vectors :   108719
 
Maximum angular momentum used for
 APW functions                      :   10
 outer part of muffin-tin           :    8
 inner part of muffin-tin           :    1
 
Total nuclear charge    :   -88.00000000    
Total core charge       :    56.00000000    
Total valence charge    :    32.00000000    
Total excess charge     :    0.000000000    
Total electronic charge :    88.00000000    
 
Effective Wigner radius, rₛ :   0.7631144418    
 
Number of empty states         :   40
Total number of valence states :   57
Total number of core states    :   56
 
Conduction state local-orbitals added automatically
Total number of local-orbitals :  252
 
Using Libxc version 05.01.05
Exchange-correlation functional :    100   493   494
 exchange: mgga_x_rscan; correlation: mgga_c_rscan
 
Smearing type :    1
 Methfessel-Paxton order 1, Phys. Rev. B 40, 3616 (1989)
Smearing width :   0.1000000000E-02
Effective electronic temperature (K) :    315.7750248    
 
Mixing type :    3
 Broyden mixing, J. Phys. A: Math. Gen. 17, L317 (1984)
 
Potential read in from STATE.OUT
 
+------------------------------+
| Self-consistent loop started |
+------------------------------+
 
+--------------------+
| Loop number :    1 |
+--------------------+
 
Energies :
 Fermi                       :     0.698828095892    
 sum of eigenvalues          :     -5382.72991572    
 electron kinetic            :      9444.40659533    
 core electron kinetic       :      9180.97988702    
 Coulomb                     :     -18240.0281192    
 Coulomb potential           :     -14467.7270510    
 nuclear-nuclear             :     -1007.20582178    
 electron-nuclear            :     -19997.9175438    
 Hartree                     :      2765.09524637    
 Madelung                    :     -11006.1645937    
 xc potential                :     -359.409459999    
 exchange                    :     -266.106192936    
 correlation                 :     -4.72710144614    
 total energy                :     -9066.45481825    
 
Density of states at Fermi energy :    63.04103942    
 (states/Hartree/unit cell)
 
Estimated indirect band gap :   0.2823659987E-03
 from k-point     53 to k-point    192
Estimated direct band gap   :   0.2682982526E-02
 at k-point     47
 
Charges :
 core                        :    56.00000000    
 valence                     :    32.00000000    
 interstitial                :    3.226429188    
 muffin-tins (core leakage)
  species :    1 (Ru)
   atom    1                 :    42.38678541     (  0.4493942605E-06)
   atom    2                 :    42.38678541     (  0.4493942605E-06)
 total in muffin-tins        :    84.77357081    
 total calculated charge     :    87.99957599    
 total charge                :    88.00000000    
 error                       :   0.4240094295E-03
 
Time (CPU seconds) :        69.88
 
+--------------------+
| Loop number :    2 |
+--------------------+
 
Energies :
 Fermi                       :     0.698832354240    
 sum of eigenvalues          :     -5382.72977009    
 electron kinetic            :      9444.40634208    
 core electron kinetic       :      9180.97979165    
 Coulomb                     :     -18240.0278351    
 Coulomb potential           :     -14467.7266545    
 nuclear-nuclear             :     -1007.20582178    
 electron-nuclear            :     -19997.9173721    
 Hartree                     :      2765.09535884    
 Madelung                    :     -11006.1645079    
 xc potential                :     -359.409457691    
 exchange                    :     -266.106191500    
 correlation                 :     -4.72710108220    
 total energy                :     -9066.45478560    
 
Density of states at Fermi energy :    63.61061447    
 (states/Hartree/unit cell)
 
Estimated indirect band gap :   0.2589682203E-03
 from k-point     53 to k-point    192
Estimated direct band gap   :   0.2678979589E-02
 at k-point     47
 
Charges :
 core                        :    56.00000000    
 valence                     :    32.00000000    
 interstitial                :    3.226375765    
 muffin-tins (core leakage)
  species :    1 (Ru)
   atom    1                 :    42.38681212     (  0.4492698835E-06)
   atom    2                 :    42.38681212     (  0.4492698835E-06)
 total in muffin-tins        :    84.77362423    
 total calculated charge     :    87.99957600    
 total charge                :    88.00000000    
 error                       :   0.4240044215E-03
 
Wrote STATE.OUT
 
RMS change in Kohn-Sham potential (target) :   0.2912778191E-01 (   10.00000000    )
Absolute change in total energy (target)   :   0.3265413579E-04 (  0.1000000000E-07)
 
Time (CPU seconds) :       135.77
 
+--------------------+
| Loop number :    3 |
+--------------------+
 
Energies :
 Fermi                       :     0.698834774229    
 sum of eigenvalues          :     -5382.72964392    
 electron kinetic            :      9444.40626380    
 core electron kinetic       :      9180.97557972    
 Coulomb                     :     -18240.0276912    
 Coulomb potential           :     -14467.7264525    
 nuclear-nuclear             :     -1007.20582178    
 electron-nuclear            :     -19997.9172863    
 Hartree                     :      2765.09541692    
 Madelung                    :     -11006.1644649    
 xc potential                :     -359.409455230    
 exchange                    :     -266.106189773    
 correlation                 :     -4.72710096719    
 total energy                :     -9066.45471813    
 
Density of states at Fermi energy :    63.91256115    
 (states/Hartree/unit cell)
 
Estimated indirect band gap :   0.2474584023E-03
 from k-point     53 to k-point    192
Estimated direct band gap   :   0.2677967883E-02
 at k-point     47
 
Charges :
 core                        :    56.00000000    
 valence                     :    32.00000000    
 interstitial                :    3.226346986    
 muffin-tins (core leakage)
  species :    1 (Ru)
   atom    1                 :    42.38682651     (  0.4492222274E-06)
   atom    2                 :    42.38682651     (  0.4492222274E-06)
 total in muffin-tins        :    84.77365301    
 total calculated charge     :    87.99957600    
 total charge                :    88.00000000    
 error                       :   0.4239988002E-03
 
RMS change in Kohn-Sham potential (target) :   0.2894085357E-01 (   10.00000000    )
Absolute change in total energy (target)   :   0.7562905375E-04 (  0.1000000000E-07)
 
Time (CPU seconds) :       201.55
 
+--------------------+
| Loop number :    4 |
+--------------------+
 
Energies :
 Fermi                       :     0.698897779783    
 sum of eigenvalues          :     -5382.72549482    
 electron kinetic            :      9444.40473204    
 core electron kinetic       :      9180.96984566    
 Coulomb                     :     -18240.0227733    
 Coulomb potential           :     -14467.7209166    
 nuclear-nuclear             :     -1007.20582178    
 electron-nuclear            :     -19997.9129865    
 Hartree                     :      2765.09603492    
 Madelung                    :     -11006.1623150    
 xc potential                :     -359.409310218    
 exchange                    :     -266.106081840    
 correlation                 :     -4.72709937833    
 total energy                :     -9066.45122252    
 
Density of states at Fermi energy :    72.90475885    
 (states/Hartree/unit cell)
 
Estimated indirect band gap :   0.8644432118E-04
 from k-point    192 to k-point     47
Estimated direct band gap   :   0.3917636707E-02
 at k-point     14
 
Charges :
 core                        :    56.00000000    
 valence                     :    32.00000000    
 interstitial                :    3.225503093    
 muffin-tins (core leakage)
  species :    1 (Ru)
   atom    1                 :    42.38724845     (  0.4492506456E-06)
   atom    2                 :    42.38724845     (  0.4492506456E-06)
 total in muffin-tins        :    84.77449691    
 total calculated charge     :    87.99957620    
 total charge                :    88.00000000    
 error                       :   0.4237970302E-03
 
Wrote STATE.OUT
 
RMS change in Kohn-Sham potential (target) :   0.2315358161E-01 (   10.00000000    )
Absolute change in total energy (target)   :   0.3514520147E-02 (  0.1000000000E-07)
 
Time (CPU seconds) :       268.51
 
+--------------------+
| Loop number :    5 |
+--------------------+
 
Energies :
 Fermi                       :     0.698986711612    
 sum of eigenvalues          :     -5382.71697253    
 electron kinetic            :      9444.40444713    
 core electron kinetic       :      9180.97325595    
 Coulomb                     :     -18240.0123709    
 Coulomb potential           :     -14467.7125821    
 nuclear-nuclear             :     -1007.20582178    
 electron-nuclear            :     -19997.9005160    
 Hartree                     :      2765.09396695    
 Madelung                    :     -11006.1560798    
 xc potential                :     -359.408837525    
 exchange                    :     -266.105723701    
 correlation                 :     -4.72710104181    
 total energy                :     -9066.44074847    
 
Density of states at Fermi energy :    83.88041916    
 (states/Hartree/unit cell)
 
Estimated indirect band gap :   0.1615011592E-03
 from k-point    201 to k-point     79
Estimated direct band gap   :   0.3968676453E-02
 at k-point     14
 
Charges :
 core                        :    56.00000000    
 valence                     :    32.00000000    
 interstitial                :    3.223963866    
 muffin-tins (core leakage)
  species :    1 (Ru)
   atom    1                 :    42.38801807     (  0.4492872492E-06)
   atom    2                 :    42.38801807     (  0.4492872492E-06)
 total in muffin-tins        :    84.77603613    
 total calculated charge     :    87.99957671    
 total charge                :    88.00000000    
 error                       :   0.4232861292E-03
 
RMS change in Kohn-Sham potential (target) :   0.1114140556E-01 (   10.00000000    )
Absolute change in total energy (target)   :   0.1135267386E-01 (  0.1000000000E-07)
 
Time (CPU seconds) :       334.01
 
+--------------------+
| Loop number :    6 |
+--------------------+
 
Energies :
 Fermi                       :     0.699030188883    
 sum of eigenvalues          :     -5382.71409875    
 electron kinetic            :      9444.40127335    
 core electron kinetic       :      9180.97347288    
 Coulomb                     :     -18240.0100226    
 Coulomb potential           :     -14467.7064917    
 nuclear-nuclear             :     -1007.20582178    
 electron-nuclear            :     -19997.9019098    
 Hartree                     :      2765.09770908    
 Madelung                    :     -11006.1567767    
 xc potential                :     -359.408880415    
 exchange                    :     -266.105769742    
 correlation                 :     -4.72709361457    
 total energy                :     -9066.44161255    
 
Density of states at Fermi energy :    84.94517416    
 (states/Hartree/unit cell)
 
Estimated indirect band gap :   0.3721871706E-03
 from k-point    112 to k-point    120
Estimated direct band gap   :   0.4020714682E-02
 at k-point     14
 
Charges :
 core                        :    56.00000000    
 valence                     :    32.00000000    
 interstitial                :    3.222969370    
 muffin-tins (core leakage)
  species :    1 (Ru)
   atom    1                 :    42.38851532     (  0.4495034140E-06)
   atom    2                 :    42.38851532     (  0.4495034140E-06)
 total in muffin-tins        :    84.77703063    
 total calculated charge     :    87.99957704    
 total charge                :    88.00000000    
 error                       :   0.4229567152E-03
 
Wrote STATE.OUT
 
RMS change in Kohn-Sham potential (target) :   0.6062736825E-02 (   10.00000000    )
Absolute change in total energy (target)   :   0.1974089031E-02 (  0.1000000000E-07)
 
Time (CPU seconds) :       399.58
 
+--------------------+
| Loop number :    7 |
+--------------------+
 
Energies :
 Fermi                       :     0.699060695559    
 sum of eigenvalues          :     -5382.71144640    
 electron kinetic            :      9444.40084500    
 core electron kinetic       :      9180.97520597    
 Coulomb                     :     -18240.0079467    
 Coulomb potential           :     -14467.7034467    
 nuclear-nuclear             :     -1007.20582178    
 electron-nuclear            :     -19997.9008031    
 Hartree                     :      2765.09867818    
 Madelung                    :     -11006.1562233    
 xc potential                :     -359.408844690    
 exchange                    :     -266.105749985    
 correlation                 :     -4.72708962851    
 total energy                :     -9066.43994128    
 
Density of states at Fermi energy :    84.27363740    
 (states/Hartree/unit cell)
 
Estimated indirect band gap :   0.2919656337E-03
 from k-point     14 to k-point    128
Estimated direct band gap   :   0.4051001247E-02
 at k-point     14
 
Charges :
 core                        :    56.00000000    
 valence                     :    32.00000000    
 interstitial                :    3.222473680    
 muffin-tins (core leakage)
  species :    1 (Ru)
   atom    1                 :    42.38876316     (  0.4495636894E-06)
   atom    2                 :    42.38876316     (  0.4495636894E-06)
 total in muffin-tins        :    84.77752632    
 total calculated charge     :    87.99957724    
 total charge                :    88.00000000    
 error                       :   0.4227624905E-03
 
RMS change in Kohn-Sham potential (target) :   0.5007355894E-02 (   10.00000000    )
Absolute change in total energy (target)   :   0.2164792246E-02 (  0.1000000000E-07)
 
Time (CPU seconds) :       466.70
 
+--------------------+
| Loop number :    8 |
+--------------------+
 
Energies :
 Fermi                       :     0.699069568433    
 sum of eigenvalues          :     -5382.71098803    
 electron kinetic            :      9444.40147873    
 core electron kinetic       :      9180.97439453    
 Coulomb                     :     -18240.0085142    
 Coulomb potential           :     -14467.7035963    
 nuclear-nuclear             :     -1007.20582178    
 electron-nuclear            :     -19997.9017885    
 Hartree                     :      2765.09909612    
 Madelung                    :     -11006.1567160    
 xc potential                :     -359.408870481    
 exchange                    :     -266.105767693    
 correlation                 :     -4.72708977567    
 total energy                :     -9066.43989292    
 
Density of states at Fermi energy :    84.47555618    
 (states/Hartree/unit cell)
 
Estimated indirect band gap :   0.3258496067E-03
 from k-point     85 to k-point    128
Estimated direct band gap   :   0.4065062907E-02
 at k-point     14
 
Charges :
 core                        :    56.00000000    
 valence                     :    32.00000000    
 interstitial                :    3.222486138    
 muffin-tins (core leakage)
  species :    1 (Ru)
   atom    1                 :    42.38875693     (  0.4494596944E-06)
   atom    2                 :    42.38875693     (  0.4494596944E-06)
 total in muffin-tins        :    84.77751386    
 total calculated charge     :    87.99957724    
 total charge                :    88.00000000    
 error                       :   0.4227569506E-03
 
Wrote STATE.OUT
 
RMS change in Kohn-Sham potential (target) :   0.4096026430E-02 (   10.00000000    )
Absolute change in total energy (target)   :   0.5895650283E-03 (  0.1000000000E-07)
 
Time (CPU seconds) :       534.25
 
+--------------------+
| Loop number :    9 |
+--------------------+
 
Energies :
 Fermi                       :     0.699097842682    
 sum of eigenvalues          :     -5382.70885281    
 electron kinetic            :      9444.40365981    
 core electron kinetic       :      9180.97512229    
 Coulomb                     :     -18240.0091967    
 Coulomb potential           :     -14467.7036118    
 nuclear-nuclear             :     -1007.20582178    
 electron-nuclear            :     -19997.9031380    
 Hartree                     :      2765.09976306    
 Madelung                    :     -11006.1573908    
 xc potential                :     -359.408900793    
 exchange                    :     -266.105785554    
 correlation                 :     -4.72709051706    
 total energy                :     -9066.43841293    
 
Density of states at Fermi energy :    84.77238293    
 (states/Hartree/unit cell)
 
Estimated indirect band gap :   0.3370525498E-03
 from k-point    112 to k-point    120
Estimated direct band gap   :   0.4081396053E-02
 at k-point     14
 
Charges :
 core                        :    56.00000000    
 valence                     :    32.00000000    
 interstitial                :    3.222520577    
 muffin-tins (core leakage)
  species :    1 (Ru)
   atom    1                 :    42.38873971     (  0.4495663148E-06)
   atom    2                 :    42.38873971     (  0.4495663148E-06)
 total in muffin-tins        :    84.77747942    
 total calculated charge     :    87.99957729    
 total charge                :    88.00000000    
 error                       :   0.4227073198E-03
 
RMS change in Kohn-Sham potential (target) :   0.3769188543E-03 (   10.00000000    )
Absolute change in total energy (target)   :   0.1627374353E-02 (  0.1000000000E-07)
 
Time (CPU seconds) :       600.35
 
+--------------------+
| Loop number :   10 |
+--------------------+
 
Energies :
 Fermi                       :     0.699092013029    
 sum of eigenvalues          :     -5382.70902797    
 electron kinetic            :      9444.40332062    
 core electron kinetic       :      9180.97517542    
 Coulomb                     :     -18240.0086126    
 Coulomb potential           :     -14467.7034764    
 nuclear-nuclear             :     -1007.20582178    
 electron-nuclear            :     -19997.9021052    
 Hartree                     :      2765.09931436    
 Madelung                    :     -11006.1568744    
 xc potential                :     -359.408872148    
 exchange                    :     -266.105765308    
 correlation                 :     -4.72709043636    
 total energy                :     -9066.43814771    
 
Density of states at Fermi energy :    84.60821441    
 (states/Hartree/unit cell)
 
Estimated indirect band gap :   0.3380017153E-03
 from k-point    112 to k-point    128
Estimated direct band gap   :   0.4067979371E-02
 at k-point     14
 
Charges :
 core                        :    56.00000000    
 valence                     :    32.00000000    
 interstitial                :    3.222509817    
 muffin-tins (core leakage)
  species :    1 (Ru)
   atom    1                 :    42.38874509     (  0.4493376871E-06)
   atom    2                 :    42.38874509     (  0.4493376871E-06)
 total in muffin-tins        :    84.77749018    
 total calculated charge     :    87.99957729    
 total charge                :    88.00000000    
 error                       :   0.4227058121E-03
 
Wrote STATE.OUT
 
RMS change in Kohn-Sham potential (target) :   0.3202802552E-03 (   10.00000000    )
Absolute change in total energy (target)   :   0.6720711572E-03 (  0.1000000000E-07)
 
Time (CPU seconds) :       667.29
 
+--------------------+
| Loop number :   11 |
+--------------------+
 
Energies :
 Fermi                       :     0.699084275527    
 sum of eigenvalues          :     -5382.70948608    
 electron kinetic            :      9444.40283299    
 core electron kinetic       :      9180.97527565    
 Coulomb                     :     -18240.0082395    
 Coulomb potential           :     -14467.7034671    
 nuclear-nuclear             :     -1007.20582178    
 electron-nuclear            :     -19997.9013683    
 Hartree                     :      2765.09895060    
 Madelung                    :     -11006.1565059    
 xc potential                :     -359.408851967    
 exchange                    :     -266.105751720    
 correlation                 :     -4.72709024067    
 total energy                :     -9066.43824845    
 
Density of states at Fermi energy :    84.48218064    
 (states/Hartree/unit cell)
 
Estimated indirect band gap :   0.3278393343E-03
 from k-point     85 to k-point    128
Estimated direct band gap   :   0.4060576532E-02
 at k-point     14
 
Charges :
 core                        :    56.00000000    
 valence                     :    32.00000000    
 interstitial                :    3.222496642    
 muffin-tins (core leakage)
  species :    1 (Ru)
   atom    1                 :    42.38875168     (  0.4494521555E-06)
   atom    2                 :    42.38875168     (  0.4494521555E-06)
 total in muffin-tins        :    84.77750336    
 total calculated charge     :    87.99957728    
 total charge                :    88.00000000    
 error                       :   0.4227170566E-03
 
RMS change in Kohn-Sham potential (target) :   0.6335277326E-03 (   10.00000000    )
Absolute change in total energy (target)   :   0.6727448272E-04 (  0.1000000000E-07)
 
Time (CPU seconds) :       731.67
 
+--------------------+
| Loop number :   12 |
+--------------------+
 
Energies :
 Fermi                       :     0.699081439698    
 sum of eigenvalues          :     -5382.70977397    
 electron kinetic            :      9444.40260283    
 core electron kinetic       :      9180.97528758    
 Coulomb                     :     -18240.0082767    
 Coulomb potential           :     -14467.7035237    
 nuclear-nuclear             :     -1007.20582178    
 electron-nuclear            :     -19997.9013861    
 Hartree                     :      2765.09893117    
 Madelung                    :     -11006.1565148    
 xc potential                :     -359.408853096    
 exchange                    :     -266.105752941    
 correlation                 :     -4.72709017196    
 total energy                :     -9066.43851694    
 
Density of states at Fermi energy :    84.48425158    
 (states/Hartree/unit cell)
 
Estimated indirect band gap :   0.3277469981E-03
 from k-point     85 to k-point    128
Estimated direct band gap   :   0.4062207379E-02
 at k-point     14
 
Charges :
 core                        :    56.00000000    
 valence                     :    32.00000000    
 interstitial                :    3.222494792    
 muffin-tins (core leakage)
  species :    1 (Ru)
   atom    1                 :    42.38875260     (  0.4494573957E-06)
   atom    2                 :    42.38875260     (  0.4494573957E-06)
 total in muffin-tins        :    84.77750521    
 total calculated charge     :    87.99957727    
 total charge                :    88.00000000    
 error                       :   0.4227259654E-03
 
Wrote STATE.OUT
 
RMS change in Kohn-Sham potential (target) :   0.2577202260E-03 (   10.00000000    )
Absolute change in total energy (target)   :   0.2516743298E-03 (  0.1000000000E-07)
 
Time (CPU seconds) :       796.65
 
+--------------------+
| Loop number :   13 |
+--------------------+
 
Energies :
 Fermi                       :     0.699080429764    
 sum of eigenvalues          :     -5382.70990491    
 electron kinetic            :      9444.40251405    
 core electron kinetic       :      9180.97524423    
 Coulomb                     :     -18240.0083364    
 Coulomb potential           :     -14467.7035633    
 nuclear-nuclear             :     -1007.20582178    
 electron-nuclear            :     -19997.9014660    
 Hartree                     :      2765.09895133    
 Madelung                    :     -11006.1565548    
 xc potential                :     -359.408855673    
 exchange                    :     -266.105754932    
 correlation                 :     -4.72709016401    
 total energy                :     -9066.43866745    
 
Density of states at Fermi energy :    84.49749529    
 (states/Hartree/unit cell)
 
Estimated indirect band gap :   0.3293793029E-03
 from k-point     85 to k-point    128
Estimated direct band gap   :   0.4063427887E-02
 at k-point     14
 
Charges :
 core                        :    56.00000000    
 valence                     :    32.00000000    
 interstitial                :    3.222496440    
 muffin-tins (core leakage)
  species :    1 (Ru)
   atom    1                 :    42.38875178     (  0.4494099848E-06)
   atom    2                 :    42.38875178     (  0.4494099848E-06)
 total in muffin-tins        :    84.77750356    
 total calculated charge     :    87.99957727    
 total charge                :    88.00000000    
 error                       :   0.4227303418E-03
 
RMS change in Kohn-Sham potential (target) :   0.1169098255E-03 (   10.00000000    )
Absolute change in total energy (target)   :   0.2134249698E-03 (  0.1000000000E-07)
 
Time (CPU seconds) :       862.99
 
+--------------------+
| Loop number :   14 |
+--------------------+
 
Energies :
 Fermi                       :     0.699081174961    
 sum of eigenvalues          :     -5382.70988059    
 electron kinetic            :      9444.40255297    
 core electron kinetic       :      9180.97528453    
 Coulomb                     :     -18240.0083941    
 Coulomb potential           :     -14467.7035751    
 nuclear-nuclear             :     -1007.20582178    
 electron-nuclear            :     -19997.9015695    
 Hartree                     :      2765.09899721    
 Madelung                    :     -11006.1566065    
 xc potential                :     -359.408858444    
 exchange                    :     -266.105756846    
 correlation                 :     -4.72709017988    
 total energy                :     -9066.43868816    
 
Density of states at Fermi energy :    84.51581752    
 (states/Hartree/unit cell)
 
Estimated indirect band gap :   0.3310664040E-03
 from k-point    112 to k-point    128
Estimated direct band gap   :   0.4064939254E-02
 at k-point     14
 
Charges :
 core                        :    56.00000000    
 valence                     :    32.00000000    
 interstitial                :    3.222497429    
 muffin-tins (core leakage)
  species :    1 (Ru)
   atom    1                 :    42.38875129     (  0.4496349426E-06)
   atom    2                 :    42.38875129     (  0.4496349426E-06)
 total in muffin-tins        :    84.77750257    
 total calculated charge     :    87.99957727    
 total charge                :    88.00000000    
 error                       :   0.4227305278E-03
 
Wrote STATE.OUT
 
RMS change in Kohn-Sham potential (target) :   0.5021449167E-04 (   10.00000000    )
Absolute change in total energy (target)   :   0.7406635996E-04 (  0.1000000000E-07)
 
Time (CPU seconds) :       928.95
 
+--------------------+
| Loop number :   15 |
+--------------------+
 
Energies :
 Fermi                       :     0.699080534546    
 sum of eigenvalues          :     -5382.70993748    
 electron kinetic            :      9444.40250170    
 core electron kinetic       :      9180.97527009    
 Coulomb                     :     -18240.0083868    
 Coulomb potential           :     -14467.7035812    
 nuclear-nuclear             :     -1007.20582178    
 electron-nuclear            :     -19997.9015488    
 Hartree                     :      2765.09898382    
 Madelung                    :     -11006.1565962    
 xc potential                :     -359.408858004    
 exchange                    :     -266.105756599    
 correlation                 :     -4.72709017048    
 total energy                :     -9066.43873185    
 
Density of states at Fermi energy :    84.51186160    
 (states/Hartree/unit cell)
 
Estimated indirect band gap :   0.3307786239E-03
 from k-point    112 to k-point    128
Estimated direct band gap   :   0.4064841085E-02
 at k-point     14
 
Charges :
 core                        :    56.00000000    
 valence                     :    32.00000000    
 interstitial                :    3.222497084    
 muffin-tins (core leakage)
  species :    1 (Ru)
   atom    1                 :    42.38875146     (  0.4494532888E-06)
   atom    2                 :    42.38875146     (  0.4494532888E-06)
 total in muffin-tins        :    84.77750292    
 total calculated charge     :    87.99957727    
 total charge                :    88.00000000    
 error                       :   0.4227316716E-03
 
RMS change in Kohn-Sham potential (target) :   0.1678909343E-03 (   10.00000000    )
Absolute change in total energy (target)   :   0.6220323849E-04 (  0.1000000000E-07)
 
Time (CPU seconds) :       995.35
 
+--------------------+
| Loop number :   16 |
+--------------------+
 
Energies :
 Fermi                       :     0.699080555709    
 sum of eigenvalues          :     -5382.70994500    
 electron kinetic            :      9444.40249636    
 core electron kinetic       :      9180.97525339    
 Coulomb                     :     -18240.0083950    
 Coulomb potential           :     -14467.7035829    
 nuclear-nuclear             :     -1007.20582178    
 electron-nuclear            :     -19997.9015636    
 Hartree                     :      2765.09899036    
 Madelung                    :     -11006.1566036    
 xc potential                :     -359.408858469    
 exchange                    :     -266.105756922    
 correlation                 :     -4.72709017436    
 total energy                :     -9066.43874577    
 
Density of states at Fermi energy :    84.51477163    
 (states/Hartree/unit cell)
 
Estimated indirect band gap :   0.3309386910E-03
 from k-point    112 to k-point    128
Estimated direct band gap   :   0.4065132806E-02
 at k-point     14
 
Charges :
 core                        :    56.00000000    
 valence                     :    32.00000000    
 interstitial                :    3.222497241    
 muffin-tins (core leakage)
  species :    1 (Ru)
   atom    1                 :    42.38875138     (  0.4494152996E-06)
   atom    2                 :    42.38875138     (  0.4494152996E-06)
 total in muffin-tins        :    84.77750276    
 total calculated charge     :    87.99957727    
 total charge                :    88.00000000    
 error                       :   0.4227317874E-03
 
Wrote STATE.OUT
 
RMS change in Kohn-Sham potential (target) :   0.1473174135E-03 (   10.00000000    )
Absolute change in total energy (target)   :   0.2947182838E-04 (  0.1000000000E-07)
 
Time (CPU seconds) :      1059.42
 
+--------------------+
| Loop number :   17 |
+--------------------+
 
Energies :
 Fermi                       :     0.699080695002    
 sum of eigenvalues          :     -5382.70993249    
 electron kinetic            :      9444.40250430    
 core electron kinetic       :      9180.97526598    
 Coulomb                     :     -18240.0083928    
 Coulomb potential           :     -14467.7035785    
 nuclear-nuclear             :     -1007.20582178    
 electron-nuclear            :     -19997.9015636    
 Hartree                     :      2765.09899258    
 Madelung                    :     -11006.1566036    
 xc potential                :     -359.408858329    
 exchange                    :     -266.105756782    
 correlation                 :     -4.72709018088    
 total energy                :     -9066.43873548    
 
Density of states at Fermi energy :    84.51429653    
 (states/Hartree/unit cell)
 
Estimated indirect band gap :   0.3309238310E-03
 from k-point    112 to k-point    128
Estimated direct band gap   :   0.4065089039E-02
 at k-point     14
 
Charges :
 core                        :    56.00000000    
 valence                     :    32.00000000    
 interstitial                :    3.222497153    
 muffin-tins (core leakage)
  species :    1 (Ru)
   atom    1                 :    42.38875142     (  0.4495352073E-06)
   atom    2                 :    42.38875142     (  0.4495352073E-06)
 total in muffin-tins        :    84.77750285    
 total calculated charge     :    87.99957727    
 total charge                :    88.00000000    
 error                       :   0.4227314862E-03
 
RMS change in Kohn-Sham potential (target) :   0.4563285523E-03 (   10.00000000    )
Absolute change in total energy (target)   :   0.2917879101E-05 (  0.1000000000E-07)
 
Time (CPU seconds) :      1124.96
 
+--------------------+
| Loop number :   18 |
+--------------------+
 
Energies :
 Fermi                       :     0.699080513606    
 sum of eigenvalues          :     -5382.70995030    
 electron kinetic            :      9444.40248860    
 core electron kinetic       :      9180.97527823    
 Coulomb                     :     -18240.0083910    
 Coulomb potential           :     -14467.7035807    
 nuclear-nuclear             :     -1007.20582178    
 electron-nuclear            :     -19997.9015577    
 Hartree                     :      2765.09898852    
 Madelung                    :     -11006.1566006    
 xc potential                :     -359.408858237    
 exchange                    :     -266.105756743    
 correlation                 :     -4.72709017613    
 total energy                :     -9066.43874927    
 
Density of states at Fermi energy :    84.51340476    
 (states/Hartree/unit cell)
 
Estimated indirect band gap :   0.3308436796E-03
 from k-point    112 to k-point    128
Estimated direct band gap   :   0.4065126076E-02
 at k-point     14
 
Charges :
 core                        :    56.00000000    
 valence                     :    32.00000000    
 interstitial                :    3.222496944    
 muffin-tins (core leakage)
  species :    1 (Ru)
   atom    1                 :    42.38875153     (  0.4495458334E-06)
   atom    2                 :    42.38875153     (  0.4495458334E-06)
 total in muffin-tins        :    84.77750306    
 total calculated charge     :    87.99957727    
 total charge                :    88.00000000    
 error                       :   0.4227318960E-03
 
Wrote STATE.OUT
 
RMS change in Kohn-Sham potential (target) :   0.4486068249E-03 (   10.00000000    )
Absolute change in total energy (target)   :   0.1306497870E-04 (  0.1000000000E-07)
 
Time (CPU seconds) :      1190.62
 
+--------------------+
| Loop number :   19 |
+--------------------+
 
Energies :
 Fermi                       :     0.699080309343    
 sum of eigenvalues          :     -5382.70997597    
 electron kinetic            :      9444.40246804    
 core electron kinetic       :      9180.97528208    
 Coulomb                     :     -18240.0083978    
 Coulomb potential           :     -14467.7035855    
 nuclear-nuclear             :     -1007.20582178    
 electron-nuclear            :     -19997.9015666    
 Hartree                     :      2765.09899054    
 Madelung                    :     -11006.1566051    
 xc potential                :     -359.408858519    
 exchange                    :     -266.105756963    
 correlation                 :     -4.72709017538    
 total energy                :     -9066.43877691    
 
Density of states at Fermi energy :    84.51465995    
 (states/Hartree/unit cell)
 
Estimated indirect band gap :   0.3308903734E-03
 from k-point    112 to k-point    128
Estimated direct band gap   :   0.4065325654E-02
 at k-point     14
 
Charges :
 core                        :    56.00000000    
 valence                     :    32.00000000    
 interstitial                :    3.222497014    
 muffin-tins (core leakage)
  species :    1 (Ru)
   atom    1                 :    42.38875149     (  0.4496870325E-06)
   atom    2                 :    42.38875149     (  0.4496870325E-06)
 total in muffin-tins        :    84.77750299    
 total calculated charge     :    87.99957727    
 total charge                :    88.00000000    
 error                       :   0.4227328543E-03
 
RMS change in Kohn-Sham potential (target) :   0.3672326172E-03 (   10.00000000    )
Absolute change in total energy (target)   :   0.3089854727E-04 (  0.1000000000E-07)
 
Time (CPU seconds) :      1257.12
 
+--------------------+
| Loop number :   20 |
+--------------------+
 
Energies :
 Fermi                       :     0.699079954938    
 sum of eigenvalues          :     -5382.71000530    
 electron kinetic            :      9444.40244151    
 core electron kinetic       :      9180.97524909    
 Coulomb                     :     -18240.0083934    
 Coulomb potential           :     -14467.7035886    
 nuclear-nuclear             :     -1007.20582178    
 electron-nuclear            :     -19997.9015547    
 Hartree                     :      2765.09898309    
 Madelung                    :     -11006.1565991    
 xc potential                :     -359.408858250    
 exchange                    :     -266.105756813    
 correlation                 :     -4.72709016917    
 total energy                :     -9066.43879890    
 
Density of states at Fermi energy :    84.51231493    
 (states/Hartree/unit cell)
 
Estimated indirect band gap :   0.3307326788E-03
 from k-point    112 to k-point    128
Estimated direct band gap   :   0.4065203537E-02
 at k-point     14
 
Charges :
 core                        :    56.00000000    
 valence                     :    32.00000000    
 interstitial                :    3.222496898    
 muffin-tins (core leakage)
  species :    1 (Ru)
   atom    1                 :    42.38875155     (  0.4495126831E-06)
   atom    2                 :    42.38875155     (  0.4495126831E-06)
 total in muffin-tins        :    84.77750310    
 total calculated charge     :    87.99957727    
 total charge                :    88.00000000    
 error                       :   0.4227333498E-03
 
Wrote STATE.OUT
 
RMS change in Kohn-Sham potential (target) :   0.2439205947E-03 (   10.00000000    )
Absolute change in total energy (target)   :   0.2972066977E-04 (  0.1000000000E-07)
 
Time (CPU seconds) :      1323.21
 
+--------------------+
| Loop number :   21 |
+--------------------+
 
Energies :
 Fermi                       :     0.699080267798    
 sum of eigenvalues          :     -5382.70997342    
 electron kinetic            :      9444.40246843    
 core electron kinetic       :      9180.97526652    
 Coulomb                     :     -18240.0083910    
 Coulomb potential           :     -14467.7035836    
 nuclear-nuclear             :     -1007.20582178    
 electron-nuclear            :     -19997.9015547    
 Hartree                     :      2765.09898556    
 Madelung                    :     -11006.1565991    
 xc potential                :     -359.408858238    
 exchange                    :     -266.105756767    
 correlation                 :     -4.72709017449    
 total energy                :     -9066.43876947    
 
Density of states at Fermi energy :    84.51290668    
 (states/Hartree/unit cell)
 
Estimated indirect band gap :   0.3308080055E-03
 from k-point    112 to k-point    128
Estimated direct band gap   :   0.4065106802E-02
 at k-point     14
 
Charges :
 core                        :    56.00000000    
 valence                     :    32.00000000    
 interstitial                :    3.222497051    
 muffin-tins (core leakage)
  species :    1 (Ru)
   atom    1                 :    42.38875147     (  0.4493865937E-06)
   atom    2                 :    42.38875147     (  0.4493865937E-06)
 total in muffin-tins        :    84.77750295    
 total calculated charge     :    87.99957727    
 total charge                :    88.00000000    
 error                       :   0.4227321461E-03
 
RMS change in Kohn-Sham potential (target) :   0.7047712353E-04 (   10.00000000    )
Absolute change in total energy (target)   :   0.2200399285E-04 (  0.1000000000E-07)
 
Time (CPU seconds) :      1390.31
 
+--------------------+
| Loop number :   22 |
+--------------------+
 
Energies :
 Fermi                       :     0.699080196576    
 sum of eigenvalues          :     -5382.70998033    
 electron kinetic            :      9444.40246228    
 core electron kinetic       :      9180.97525892    
 Coulomb                     :     -18240.0083913    
 Coulomb potential           :     -14467.7035844    
 nuclear-nuclear             :     -1007.20582178    
 electron-nuclear            :     -19997.9015547    
 Hartree                     :      2765.09898517    
 Madelung                    :     -11006.1565991    
 xc potential                :     -359.408858221    
 exchange                    :     -266.105756761    
 correlation                 :     -4.72709017345    
 total energy                :     -9066.43877600    
 
Density of states at Fermi energy :    84.51276101    
 (states/Hartree/unit cell)
 
Estimated indirect band gap :   0.3307932348E-03
 from k-point    112 to k-point    128
Estimated direct band gap   :   0.4065116306E-02
 at k-point     14
 
Charges :
 core                        :    56.00000000    
 valence                     :    32.00000000    
 interstitial                :    3.222497037    
 muffin-tins (core leakage)
  species :    1 (Ru)
   atom    1                 :    42.38875148     (  0.4496329602E-06)
   atom    2                 :    42.38875148     (  0.4496329602E-06)
 total in muffin-tins        :    84.77750296    
 total calculated charge     :    87.99957727    
 total charge                :    88.00000000    
 error                       :   0.4227328971E-03
 
Wrote STATE.OUT
 
RMS change in Kohn-Sham potential (target) :   0.2414060698E-04 (   10.00000000    )
Absolute change in total energy (target)   :   0.1026452082E-05 (  0.1000000000E-07)
 
Time (CPU seconds) :      1456.84
 
+--------------------+
| Loop number :   23 |
+--------------------+
 
Energies :
 Fermi                       :     0.699080260912    
 sum of eigenvalues          :     -5382.70997392    
 electron kinetic            :      9444.40246791    
 core electron kinetic       :      9180.97525313    
 Coulomb                     :     -18240.0083909    
 Coulomb potential           :     -14467.7035836    
 nuclear-nuclear             :     -1007.20582178    
 electron-nuclear            :     -19997.9015547    
 Hartree                     :      2765.09898558    
 Madelung                    :     -11006.1565991    
 xc potential                :     -359.408858246    
 exchange                    :     -266.105756771    
 correlation                 :     -4.72709017489    
 total energy                :     -9066.43876998    
 
Density of states at Fermi energy :    84.51299903    
 (states/Hartree/unit cell)
 
Estimated indirect band gap :   0.3308166024E-03
 from k-point    112 to k-point    128
Estimated direct band gap   :   0.4065100335E-02
 at k-point     14
 
Charges :
 core                        :    56.00000000    
 valence                     :    32.00000000    
 interstitial                :    3.222497093    
 muffin-tins (core leakage)
  species :    1 (Ru)
   atom    1                 :    42.38875145     (  0.4494552712E-06)
   atom    2                 :    42.38875145     (  0.4494552712E-06)
 total in muffin-tins        :    84.77750291    
 total calculated charge     :    87.99957727    
 total charge                :    88.00000000    
 error                       :   0.4227322977E-03
 
RMS change in Kohn-Sham potential (target) :   0.1792339020E-03 (   10.00000000    )
Absolute change in total energy (target)   :   0.5762263754E-05 (  0.1000000000E-07)
 
Time (CPU seconds) :      1523.21
 
+--------------------+
| Loop number :   24 |
+--------------------+
 
Energies :
 Fermi                       :     0.699080375248    
 sum of eigenvalues          :     -5382.70996167    
 electron kinetic            :      9444.40247869    
 core electron kinetic       :      9180.97526084    
 Coulomb                     :     -18240.0083902    
 Coulomb potential           :     -14467.7035822    
 nuclear-nuclear             :     -1007.20582178    
 electron-nuclear            :     -19997.9015547    
 Hartree                     :      2765.09898629    
 Madelung                    :     -11006.1565991    
 xc potential                :     -359.408858210    
 exchange                    :     -266.105756734    
 correlation                 :     -4.72709017683    
 total energy                :     -9066.43875844    
 
Density of states at Fermi energy :    84.51302066    
 (states/Hartree/unit cell)
 
Estimated indirect band gap :   0.3308293483E-03
 from k-point    112 to k-point    128
Estimated direct band gap   :   0.4065057148E-02
 at k-point     14
 
Charges :
 core                        :    56.00000000    
 valence                     :    32.00000000    
 interstitial                :    3.222497104    
 muffin-tins (core leakage)
  species :    1 (Ru)
   atom    1                 :    42.38875145     (  0.4495418082E-06)
   atom    2                 :    42.38875145     (  0.4495418082E-06)
 total in muffin-tins        :    84.77750290    
 total calculated charge     :    87.99957727    
 total charge                :    88.00000000    
 error                       :   0.4227321534E-03
 
Wrote STATE.OUT
 
RMS change in Kohn-Sham potential (target) :   0.2174868050E-03 (   10.00000000    )
Absolute change in total energy (target)   :   0.1297525159E-04 (  0.1000000000E-07)
 
Time (CPU seconds) :      1589.42
 
+--------------------+
| Loop number :   25 |
+--------------------+
 
Energies :
 Fermi                       :     0.699080365648    
 sum of eigenvalues          :     -5382.70996330    
 electron kinetic            :      9444.40247716    
 core electron kinetic       :      9180.97525954    
 Coulomb                     :     -18240.0083917    
 Coulomb potential           :     -14467.7035822    
 nuclear-nuclear             :     -1007.20582178    
 electron-nuclear            :     -19997.9015577    
 Hartree                     :      2765.09898773    
 Madelung                    :     -11006.1566006    
 xc potential                :     -359.408858231    
 exchange                    :     -266.105756751    
 correlation                 :     -4.72709017586    
 total energy                :     -9066.43876151    
 
Density of states at Fermi energy :    84.51316588    
 (states/Hartree/unit cell)
 
Estimated indirect band gap :   0.3308362647E-03
 from k-point    112 to k-point    128
Estimated direct band gap   :   0.4065077110E-02
 at k-point     14
 
Charges :
 core                        :    56.00000000    
 valence                     :    32.00000000    
 interstitial                :    3.222497111    
 muffin-tins (core leakage)
  species :    1 (Ru)
   atom    1                 :    42.38875144     (  0.4497514965E-06)
   atom    2                 :    42.38875144     (  0.4497514965E-06)
 total in muffin-tins        :    84.77750289    
 total calculated charge     :    87.99957727    
 total charge                :    88.00000000    
 error                       :   0.4227326482E-03
 
RMS change in Kohn-Sham potential (target) :   0.1161133690E-03 (   10.00000000    )
Absolute change in total energy (target)   :   0.1758962753E-06 (  0.1000000000E-07)
 
Time (CPU seconds) :      1654.94
 
+--------------------+
| Loop number :   26 |
+--------------------+
 
Energies :
 Fermi                       :     0.699080361876    
 sum of eigenvalues          :     -5382.70996351    
 electron kinetic            :      9444.40247704    
 core electron kinetic       :      9180.97525889    
 Coulomb                     :     -18240.0083918    
 Coulomb potential           :     -14467.7035823    
 nuclear-nuclear             :     -1007.20582178    
 electron-nuclear            :     -19997.9015577    
 Hartree                     :      2765.09898769    
 Madelung                    :     -11006.1566006    
 xc potential                :     -359.408858231    
 exchange                    :     -266.105756753    
 correlation                 :     -4.72709017551    
 total energy                :     -9066.43876167    
 
Density of states at Fermi energy :    84.51311746    
 (states/Hartree/unit cell)
 
Estimated indirect band gap :   0.3308333254E-03
 from k-point    112 to k-point    128
Estimated direct band gap   :   0.4065072559E-02
 at k-point     14
 
Charges :
 core                        :    56.00000000    
 valence                     :    32.00000000    
 interstitial                :    3.222497107    
 muffin-tins (core leakage)
  species :    1 (Ru)
   atom    1                 :    42.38875145     (  0.4496579606E-06)
   atom    2                 :    42.38875145     (  0.4496579606E-06)
 total in muffin-tins        :    84.77750289    
 total calculated charge     :    87.99957727    
 total charge                :    88.00000000    
 error                       :   0.4227324667E-03
 
Wrote STATE.OUT
 
RMS change in Kohn-Sham potential (target) :   0.4462383870E-04 (   10.00000000    )
Absolute change in total energy (target)   :   0.1168955350E-06 (  0.1000000000E-07)
 
Time (CPU seconds) :      1720.40
 
+--------------------+
| Loop number :   27 |
+--------------------+
 
Energies :
 Fermi                       :     0.699080374447    
 sum of eigenvalues          :     -5382.70996227    
 electron kinetic            :      9444.40247815    
 core electron kinetic       :      9180.97525977    
 Coulomb                     :     -18240.0083917    
 Coulomb potential           :     -14467.7035822    
 nuclear-nuclear             :     -1007.20582178    
 electron-nuclear            :     -19997.9015577    
 Hartree                     :      2765.09898775    
 Madelung                    :     -11006.1566006    
 xc potential                :     -359.408858232    
 exchange                    :     -266.105756748    
 correlation                 :     -4.72709017662    
 total energy                :     -9066.43876050    
 
Density of states at Fermi energy :    84.51314897    
 (states/Hartree/unit cell)
 
Estimated indirect band gap :   0.3308360401E-03
 from k-point    112 to k-point    128
Estimated direct band gap   :   0.4065071808E-02
 at k-point     14
 
Charges :
 core                        :    56.00000000    
 valence                     :    32.00000000    
 interstitial                :    3.222497110    
 muffin-tins (core leakage)
  species :    1 (Ru)
   atom    1                 :    42.38875144     (  0.4496473593E-06)
   atom    2                 :    42.38875144     (  0.4496473593E-06)
 total in muffin-tins        :    84.77750289    
 total calculated charge     :    87.99957727    
 total charge                :    88.00000000    
 error                       :   0.4227324645E-03
 
RMS change in Kohn-Sham potential (target) :   0.1013499446E-03 (   10.00000000    )
Absolute change in total energy (target)   :   0.1145814167E-05 (  0.1000000000E-07)
 
Time (CPU seconds) :      1785.84
 
+--------------------+
| Loop number :   28 |
+--------------------+
 
Energies :
 Fermi                       :     0.699080369818    
 sum of eigenvalues          :     -5382.70996271    
 electron kinetic            :      9444.40247768    
 core electron kinetic       :      9180.97525721    
 Coulomb                     :     -18240.0083917    
 Coulomb potential           :     -14467.7035822    
 nuclear-nuclear             :     -1007.20582178    
 electron-nuclear            :     -19997.9015577    
 Hartree                     :      2765.09898777    
 Madelung                    :     -11006.1566006    
 xc potential                :     -359.408858237    
 exchange                    :     -266.105756753    
 correlation                 :     -4.72709017585    
 total energy                :     -9066.43876095    
 
Density of states at Fermi energy :    84.51312771    
 (states/Hartree/unit cell)
 
Estimated indirect band gap :   0.3308339777E-03
 from k-point    112 to k-point    128
Estimated direct band gap   :   0.4065072233E-02
 at k-point     14
 
Charges :
 core                        :    56.00000000    
 valence                     :    32.00000000    
 interstitial                :    3.222497103    
 muffin-tins (core leakage)
  species :    1 (Ru)
   atom    1                 :    42.38875145     (  0.4494515053E-06)
   atom    2                 :    42.38875145     (  0.4494515053E-06)
 total in muffin-tins        :    84.77750290    
 total calculated charge     :    87.99957727    
 total charge                :    88.00000000    
 error                       :   0.4227320609E-03
 
Wrote STATE.OUT
 
RMS change in Kohn-Sham potential (target) :   0.3829314896E-04 (   10.00000000    )
Absolute change in total energy (target)   :   0.1686548785E-06 (  0.1000000000E-07)
 
Time (CPU seconds) :      1852.82
 
+--------------------+
| Loop number :   29 |
+--------------------+
 
Energies :
 Fermi                       :     0.699080403982    
 sum of eigenvalues          :     -5382.70995912    
 electron kinetic            :      9444.40248100    
 core electron kinetic       :      9180.97526127    
 Coulomb                     :     -18240.0083916    
 Coulomb potential           :     -14467.7035819    
 nuclear-nuclear             :     -1007.20582178    
 electron-nuclear            :     -19997.9015577    
 Hartree                     :      2765.09898790    
 Madelung                    :     -11006.1566006    
 xc potential                :     -359.408858232    
 exchange                    :     -266.105756752    
 correlation                 :     -4.72709017550    
 total energy                :     -9066.43875749    
 
Density of states at Fermi energy :    84.51316647    
 (states/Hartree/unit cell)
 
Estimated indirect band gap :   0.3308394525E-03
 from k-point    112 to k-point    128
Estimated direct band gap   :   0.4065062223E-02
 at k-point     14
 
Charges :
 core                        :    56.00000000    
 valence                     :    32.00000000    
 interstitial                :    3.222497109    
 muffin-tins (core leakage)
  species :    1 (Ru)
   atom    1                 :    42.38875145     (  0.4494165218E-06)
   atom    2                 :    42.38875145     (  0.4494165218E-06)
 total in muffin-tins        :    84.77750289    
 total calculated charge     :    87.99957727    
 total charge                :    88.00000000    
 error                       :   0.4227318694E-03
 
RMS change in Kohn-Sham potential (target) :   0.4230499870E-04 (   10.00000000    )
Absolute change in total energy (target)   :   0.3414887033E-05 (  0.1000000000E-07)
 
Time (CPU seconds) :      1920.38
 
+--------------------+
| Loop number :   30 |
+--------------------+
 
Energies :
 Fermi                       :     0.699080374230    
 sum of eigenvalues          :     -5382.70996210    
 electron kinetic            :      9444.40247842    
 core electron kinetic       :      9180.97526174    
 Coulomb                     :     -18240.0083918    
 Coulomb potential           :     -14467.7035823    
 nuclear-nuclear             :     -1007.20582178    
 electron-nuclear            :     -19997.9015577    
 Hartree                     :      2765.09898770    
 Madelung                    :     -11006.1566006    
 xc potential                :     -359.408858231    
 exchange                    :     -266.105756751    
 correlation                 :     -4.72709017586    
 total energy                :     -9066.43876028    
 
Density of states at Fermi energy :    84.51312949    
 (states/Hartree/unit cell)
 
Estimated indirect band gap :   0.3308348491E-03
 from k-point    112 to k-point    128
Estimated direct band gap   :   0.4065068334E-02
 at k-point     14
 
Charges :
 core                        :    56.00000000    
 valence                     :    32.00000000    
 interstitial                :    3.222497109    
 muffin-tins (core leakage)
  species :    1 (Ru)
   atom    1                 :    42.38875145     (  0.4495613091E-06)
   atom    2                 :    42.38875145     (  0.4495613091E-06)
 total in muffin-tins        :    84.77750289    
 total calculated charge     :    87.99957727    
 total charge                :    88.00000000    
 error                       :   0.4227322553E-03
 
Wrote STATE.OUT
 
RMS change in Kohn-Sham potential (target) :   0.2949869671E-03 (   10.00000000    )
Absolute change in total energy (target)   :   0.1931244697E-05 (  0.1000000000E-07)
 
Time (CPU seconds) :      1988.30
 
+--------------------+
| Loop number :   31 |
+--------------------+
 
Energies :
 Fermi                       :     0.699080347104    
 sum of eigenvalues          :     -5382.70996499    
 electron kinetic            :      9444.40247587    
 core electron kinetic       :      9180.97526078    
 Coulomb                     :     -18240.0083919    
 Coulomb potential           :     -14467.7035826    
 nuclear-nuclear             :     -1007.20582178    
 electron-nuclear            :     -19997.9015577    
 Hartree                     :      2765.09898753    
 Madelung                    :     -11006.1566006    
 xc potential                :     -359.408858239    
 exchange                    :     -266.105756760    
 correlation                 :     -4.72709017527    
 total energy                :     -9066.43876300    
 
Density of states at Fermi energy :    84.51311138    
 (states/Hartree/unit cell)
 
Estimated indirect band gap :   0.3308318622E-03
 from k-point    112 to k-point    128
Estimated direct band gap   :   0.4065075645E-02
 at k-point     14
 
Charges :
 core                        :    56.00000000    
 valence                     :    32.00000000    
 interstitial                :    3.222497111    
 muffin-tins (core leakage)
  species :    1 (Ru)
   atom    1                 :    42.38875144     (  0.4495938803E-06)
   atom    2                 :    42.38875144     (  0.4495938803E-06)
 total in muffin-tins        :    84.77750289    
 total calculated charge     :    87.99957727    
 total charge                :    88.00000000    
 error                       :   0.4227323972E-03
 
RMS change in Kohn-Sham potential (target) :   0.9480122457E-04 (   10.00000000    )
Absolute change in total energy (target)   :   0.3203640517E-05 (  0.1000000000E-07)
 
Time (CPU seconds) :      2054.63
 
+--------------------+
| Loop number :   32 |
+--------------------+
 
Energies :
 Fermi                       :     0.699080336851    
 sum of eigenvalues          :     -5382.70996598    
 electron kinetic            :      9444.40247493    
 core electron kinetic       :      9180.97526023    
 Coulomb                     :     -18240.0083920    
 Coulomb potential           :     -14467.7035827    
 nuclear-nuclear             :     -1007.20582178    
 electron-nuclear            :     -19997.9015577    
 Hartree                     :      2765.09898751    
 Madelung                    :     -11006.1566006    
 xc potential                :     -359.408858237    
 exchange                    :     -266.105756757    
 correlation                 :     -4.72709017590    
 total energy                :     -9066.43876397    
 
Density of states at Fermi energy :    84.51309782    
 (states/Hartree/unit cell)
 
Estimated indirect band gap :   0.3308306119E-03
 from k-point    112 to k-point    128
Estimated direct band gap   :   0.4065076339E-02
 at k-point     14
 
Charges :
 core                        :    56.00000000    
 valence                     :    32.00000000    
 interstitial                :    3.222497114    
 muffin-tins (core leakage)
  species :    1 (Ru)
   atom    1                 :    42.38875144     (  0.4495650323E-06)
   atom    2                 :    42.38875144     (  0.4495650323E-06)
 total in muffin-tins        :    84.77750289    
 total calculated charge     :    87.99957727    
 total charge                :    88.00000000    
 error                       :   0.4227323620E-03
 
Wrote STATE.OUT
 
RMS change in Kohn-Sham potential (target) :   0.3093850438E-04 (   10.00000000    )
Absolute change in total energy (target)   :   0.1766629794E-05 (  0.1000000000E-07)
 
Time (CPU seconds) :      2120.07
 
+--------------------+
| Loop number :   33 |
+--------------------+
 
Energies :
 Fermi                       :     0.699080335261    
 sum of eigenvalues          :     -5382.70996611    
 electron kinetic            :      9444.40247473    
 core electron kinetic       :      9180.97526022    
 Coulomb                     :     -18240.0083919    
 Coulomb potential           :     -14467.7035826    
 nuclear-nuclear             :     -1007.20582178    
 electron-nuclear            :     -19997.9015577    
 Hartree                     :      2765.09898755    
 Madelung                    :     -11006.1566006    
 xc potential                :     -359.408858235    
 exchange                    :     -266.105756755    
 correlation                 :     -4.72709017587    
 total energy                :     -9066.43876413    
 
Density of states at Fermi energy :    84.51309526    
 (states/Hartree/unit cell)
 
Estimated indirect band gap :   0.3308305254E-03
 from k-point    112 to k-point    128
Estimated direct band gap   :   0.4065075642E-02
 at k-point     14
 
Charges :
 core                        :    56.00000000    
 valence                     :    32.00000000    
 interstitial                :    3.222497115    
 muffin-tins (core leakage)
  species :    1 (Ru)
   atom    1                 :    42.38875144     (  0.4496502548E-06)
   atom    2                 :    42.38875144     (  0.4496502548E-06)
 total in muffin-tins        :    84.77750288    
 total calculated charge     :    87.99957727    
 total charge                :    88.00000000    
 error                       :   0.4227325641E-03
 
RMS change in Kohn-Sham potential (target) :   0.1098346761E-03 (   10.00000000    )
Absolute change in total energy (target)   :   0.6024092727E-06 (  0.1000000000E-07)
 
Time (CPU seconds) :      2187.71
 
+--------------------+
| Loop number :   34 |
+--------------------+
 
Energies :
 Fermi                       :     0.699080332915    
 sum of eigenvalues          :     -5382.70996633    
 electron kinetic            :      9444.40247465    
 core electron kinetic       :      9180.97526014    
 Coulomb                     :     -18240.0083920    
 Coulomb potential           :     -14467.7035827    
 nuclear-nuclear             :     -1007.20582178    
 electron-nuclear            :     -19997.9015577    
 Hartree                     :      2765.09898748    
 Madelung                    :     -11006.1566006    
 xc potential                :     -359.408858241    
 exchange                    :     -266.105756761    
 correlation                 :     -4.72709017523    
 total energy                :     -9066.43876428    
 
Density of states at Fermi energy :    84.51309249    
 (states/Hartree/unit cell)
 
Estimated indirect band gap :   0.3308302515E-03
 from k-point    112 to k-point    128
Estimated direct band gap   :   0.4065075821E-02
 at k-point     14
 
Charges :
 core                        :    56.00000000    
 valence                     :    32.00000000    
 interstitial                :    3.222497116    
 muffin-tins (core leakage)
  species :    1 (Ru)
   atom    1                 :    42.38875144     (  0.4495243218E-06)
   atom    2                 :    42.38875144     (  0.4495243218E-06)
 total in muffin-tins        :    84.77750288    
 total calculated charge     :    87.99957727    
 total charge                :    88.00000000    
 error                       :   0.4227322507E-03
 
Wrote STATE.OUT
 
RMS change in Kohn-Sham potential (target) :   0.5215214754E-04 (   10.00000000    )
Absolute change in total energy (target)   :   0.3046370693E-06 (  0.1000000000E-07)
 
Time (CPU seconds) :      2251.89
 
+--------------------+
| Loop number :   35 |
+--------------------+
 
Energies :
 Fermi                       :     0.699080334607    
 sum of eigenvalues          :     -5382.70996615    
 electron kinetic            :      9444.40247473    
 core electron kinetic       :      9180.97525904    
 Coulomb                     :     -18240.0083919    
 Coulomb potential           :     -14467.7035826    
 nuclear-nuclear             :     -1007.20582178    
 electron-nuclear            :     -19997.9015577    
 Hartree                     :      2765.09898753    
 Madelung                    :     -11006.1566006    
 xc potential                :     -359.408858238    
 exchange                    :     -266.105756756    
 correlation                 :     -4.72709017579    
 total energy                :     -9066.43876415    
 
Density of states at Fermi energy :    84.51309431    
 (states/Hartree/unit cell)
 
Estimated indirect band gap :   0.3308304702E-03
 from k-point    112 to k-point    128
Estimated direct band gap   :   0.4065075472E-02
 at k-point     14
 
Charges :
 core                        :    56.00000000    
 valence                     :    32.00000000    
 interstitial                :    3.222497116    
 muffin-tins (core leakage)
  species :    1 (Ru)
   atom    1                 :    42.38875144     (  0.4495248405E-06)
   atom    2                 :    42.38875144     (  0.4495248405E-06)
 total in muffin-tins        :    84.77750288    
 total calculated charge     :    87.99957727    
 total charge                :    88.00000000    
 error                       :   0.4227322625E-03
 
RMS change in Kohn-Sham potential (target) :   0.3991624677E-03 (   10.00000000    )
Absolute change in total energy (target)   :   0.5536094250E-07 (  0.1000000000E-07)
 
Time (CPU seconds) :      2317.60
 
+--------------------+
| Loop number :   36 |
+--------------------+
 
Energies :
 Fermi                       :     0.699080349984    
 sum of eigenvalues          :     -5382.70996454    
 electron kinetic            :      9444.40247623    
 core electron kinetic       :      9180.97526053    
 Coulomb                     :     -18240.0083919    
 Coulomb potential           :     -14467.7035825    
 nuclear-nuclear             :     -1007.20582178    
 electron-nuclear            :     -19997.9015577    
 Hartree                     :      2765.09898758    
 Madelung                    :     -11006.1566006    
 xc potential                :     -359.408858240    
 exchange                    :     -266.105756759    
 correlation                 :     -4.72709017524    
 total energy                :     -9066.43876260    
 
Density of states at Fermi energy :    84.51310698    
 (states/Hartree/unit cell)
 
Estimated indirect band gap :   0.3308321067E-03
 from k-point    112 to k-point    128
Estimated direct band gap   :   0.4065072181E-02
 at k-point     14
 
Charges :
 core                        :    56.00000000    
 valence                     :    32.00000000    
 interstitial                :    3.222497114    
 muffin-tins (core leakage)
  species :    1 (Ru)
   atom    1                 :    42.38875144     (  0.4493939869E-06)
   atom    2                 :    42.38875144     (  0.4493939869E-06)
 total in muffin-tins        :    84.77750289    
 total calculated charge     :    87.99957727    
 total charge                :    88.00000000    
 error                       :   0.4227319532E-03
 
Wrote STATE.OUT
 
RMS change in Kohn-Sham potential (target) :   0.3700511425E-04 (   10.00000000    )
Absolute change in total energy (target)   :   0.1562742909E-05 (  0.1000000000E-07)
 
Time (CPU seconds) :      2383.42
 
+--------------------+
| Loop number :   37 |
+--------------------+
 
Energies :
 Fermi                       :     0.699080343422    
 sum of eigenvalues          :     -5382.70996520    
 electron kinetic            :      9444.40247550    
 core electron kinetic       :      9180.97526015    
 Coulomb                     :     -18240.0083919    
 Coulomb potential           :     -14467.7035825    
 nuclear-nuclear             :     -1007.20582178    
 electron-nuclear            :     -19997.9015577    
 Hartree                     :      2765.09898761    
 Madelung                    :     -11006.1566006    
 xc potential                :     -359.408858235    
 exchange                    :     -266.105756754    
 correlation                 :     -4.72709017567    
 total energy                :     -9066.43876329    
 
Density of states at Fermi energy :    84.51310036    
 (states/Hartree/unit cell)
 
Estimated indirect band gap :   0.3308313437E-03
 from k-point    112 to k-point    128
Estimated direct band gap   :   0.4065073203E-02
 at k-point     14
 
Charges :
 core                        :    56.00000000    
 valence                     :    32.00000000    
 interstitial                :    3.222497115    
 muffin-tins (core leakage)
  species :    1 (Ru)
   atom    1                 :    42.38875144     (  0.4495736796E-06)
   atom    2                 :    42.38875144     (  0.4495736796E-06)
 total in muffin-tins        :    84.77750288    
 total calculated charge     :    87.99957727    
 total charge                :    88.00000000    
 error                       :   0.4227323661E-03
 
RMS change in Kohn-Sham potential (target) :   0.7554498665E-04 (   10.00000000    )
Absolute change in total energy (target)   :   0.2971246431E-06 (  0.1000000000E-07)
 
Time (CPU seconds) :      2448.47
 
+--------------------+
| Loop number :   38 |
+--------------------+
 
Energies :
 Fermi                       :     0.699080341176    
 sum of eigenvalues          :     -5382.70996544    
 electron kinetic            :      9444.40247536    
 core electron kinetic       :      9180.97526037    
 Coulomb                     :     -18240.0083919    
 Coulomb potential           :     -14467.7035826    
 nuclear-nuclear             :     -1007.20582178    
 electron-nuclear            :     -19997.9015577    
 Hartree                     :      2765.09898757    
 Madelung                    :     -11006.1566006    
 xc potential                :     -359.408858237    
 exchange                    :     -266.105756756    
 correlation                 :     -4.72709017575    
 total energy                :     -9066.43876348    
 
Density of states at Fermi energy :    84.51309811    
 (states/Hartree/unit cell)
 
Estimated indirect band gap :   0.3308310611E-03
 from k-point    112 to k-point    128
Estimated direct band gap   :   0.4065073713E-02
 at k-point     14
 
Charges :
 core                        :    56.00000000    
 valence                     :    32.00000000    
 interstitial                :    3.222497115    
 muffin-tins (core leakage)
  species :    1 (Ru)
   atom    1                 :    42.38875144     (  0.4495147365E-06)
   atom    2                 :    42.38875144     (  0.4495147365E-06)
 total in muffin-tins        :    84.77750288    
 total calculated charge     :    87.99957727    
 total charge                :    88.00000000    
 error                       :   0.4227322420E-03
 
Wrote STATE.OUT
 
RMS change in Kohn-Sham potential (target) :   0.3298195152E-03 (   10.00000000    )
Absolute change in total energy (target)   :   0.2670385584E-06 (  0.1000000000E-07)
 
Time (CPU seconds) :      2513.37
 
+--------------------+
| Loop number :   39 |
+--------------------+
 
Energies :
 Fermi                       :     0.699080336670    
 sum of eigenvalues          :     -5382.70996587    
 electron kinetic            :      9444.40247510    
 core electron kinetic       :      9180.97526048    
 Coulomb                     :     -18240.0083920    
 Coulomb potential           :     -14467.7035827    
 nuclear-nuclear             :     -1007.20582178    
 electron-nuclear            :     -19997.9015577    
 Hartree                     :      2765.09898748    
 Madelung                    :     -11006.1566006    
 xc potential                :     -359.408858234    
 exchange                    :     -266.105756757    
 correlation                 :     -4.72709017530    
 total energy                :     -9066.43876383    
 
Density of states at Fermi energy :    84.51309370    
 (states/Hartree/unit cell)
 
Estimated indirect band gap :   0.3308306081E-03
 from k-point    112 to k-point    128
Estimated direct band gap   :   0.4065074183E-02
 at k-point     14
 
Charges :
 core                        :    56.00000000    
 valence                     :    32.00000000    
 interstitial                :    3.222497117    
 muffin-tins (core leakage)
  species :    1 (Ru)
   atom    1                 :    42.38875144     (  0.4496363211E-06)
   atom    2                 :    42.38875144     (  0.4496363211E-06)
 total in muffin-tins        :    84.77750288    
 total calculated charge     :    87.99957727    
 total charge                :    88.00000000    
 error                       :   0.4227324605E-03
 
RMS change in Kohn-Sham potential (target) :   0.2820285941E-03 (   10.00000000    )
Absolute change in total energy (target)   :   0.4105277185E-06 (  0.1000000000E-07)
 
Time (CPU seconds) :      2580.68
 
+--------------------+
| Loop number :   40 |
+--------------------+
 
Energies :
 Fermi                       :     0.699080333079    
 sum of eigenvalues          :     -5382.70996625    
 electron kinetic            :      9444.40247472    
 core electron kinetic       :      9180.97526018    
 Coulomb                     :     -18240.0083920    
 Coulomb potential           :     -14467.7035827    
 nuclear-nuclear             :     -1007.20582178    
 electron-nuclear            :     -19997.9015577    
 Hartree                     :      2765.09898748    
 Madelung                    :     -11006.1566006    
 xc potential                :     -359.408858238    
 exchange                    :     -266.105756759    
 correlation                 :     -4.72709017572    
 total energy                :     -9066.43876421    
 
Density of states at Fermi energy :    84.51308961    
 (states/Hartree/unit cell)
 
Estimated indirect band gap :   0.3308302212E-03
 from k-point    112 to k-point    128
Estimated direct band gap   :   0.4065074483E-02
 at k-point     14
 
Charges :
 core                        :    56.00000000    
 valence                     :    32.00000000    
 interstitial                :    3.222497117    
 muffin-tins (core leakage)
  species :    1 (Ru)
   atom    1                 :    42.38875144     (  0.4495188932E-06)
   atom    2                 :    42.38875144     (  0.4495188932E-06)
 total in muffin-tins        :    84.77750288    
 total calculated charge     :    87.99957727    
 total charge                :    88.00000000    
 error                       :   0.4227322439E-03
 
Wrote STATE.OUT
 
RMS change in Kohn-Sham potential (target) :   0.1728443852E-03 (   10.00000000    )
Absolute change in total energy (target)   :   0.4843568604E-06 (  0.1000000000E-07)
 
Time (CPU seconds) :      2646.64
 
+--------------------+
| Loop number :   41 |
+--------------------+
 
Energies :
 Fermi                       :     0.699080334065    
 sum of eigenvalues          :     -5382.70996613    
 electron kinetic            :      9444.40247481    
 core electron kinetic       :      9180.97526022    
 Coulomb                     :     -18240.0083920    
 Coulomb potential           :     -14467.7035827    
 nuclear-nuclear             :     -1007.20582178    
 electron-nuclear            :     -19997.9015577    
 Hartree                     :      2765.09898749    
 Madelung                    :     -11006.1566006    
 xc potential                :     -359.408858240    
 exchange                    :     -266.105756759    
 correlation                 :     -4.72709017585    
 total energy                :     -9066.43876410    
 
Density of states at Fermi energy :    84.51309037    
 (states/Hartree/unit cell)
 
Estimated indirect band gap :   0.3308303329E-03
 from k-point    112 to k-point    128
Estimated direct band gap   :   0.4065074223E-02
 at k-point     14
 
Charges :
 core                        :    56.00000000    
 valence                     :    32.00000000    
 interstitial                :    3.222497117    
 muffin-tins (core leakage)
  species :    1 (Ru)
   atom    1                 :    42.38875144     (  0.4494081089E-06)
   atom    2                 :    42.38875144     (  0.4494081089E-06)
 total in muffin-tins        :    84.77750288    
 total calculated charge     :    87.99957727    
 total charge                :    88.00000000    
 error                       :   0.4227319909E-03
 
RMS change in Kohn-Sham potential (target) :   0.3990657423E-03 (   10.00000000    )
Absolute change in total energy (target)   :   0.1579974196E-07 (  0.1000000000E-07)
 
Time (CPU seconds) :      2713.28
 
+--------------------+
| Loop number :   42 |
+--------------------+
 
Energies :
 Fermi                       :     0.699080334492    
 sum of eigenvalues          :     -5382.70996608    
 electron kinetic            :      9444.40247480    
 core electron kinetic       :      9180.97526026    
 Coulomb                     :     -18240.0083920    
 Coulomb potential           :     -14467.7035826    
 nuclear-nuclear             :     -1007.20582178    
 electron-nuclear            :     -19997.9015577    
 Hartree                     :      2765.09898752    
 Madelung                    :     -11006.1566006    
 xc potential                :     -359.408858238    
 exchange                    :     -266.105756760    
 correlation                 :     -4.72709017469    
 total energy                :     -9066.43876408    
 
Density of states at Fermi energy :    84.51309104    
 (states/Hartree/unit cell)
 
Estimated indirect band gap :   0.3308304146E-03
 from k-point    112 to k-point    128
Estimated direct band gap   :   0.4065074114E-02
 at k-point     14
 
Charges :
 core                        :    56.00000000    
 valence                     :    32.00000000    
 interstitial                :    3.222497118    
 muffin-tins (core leakage)
  species :    1 (Ru)
   atom    1                 :    42.38875144     (  0.4496253752E-06)
   atom    2                 :    42.38875144     (  0.4496253752E-06)
 total in muffin-tins        :    84.77750288    
 total calculated charge     :    87.99957727    
 total charge                :    88.00000000    
 error                       :   0.4227324327E-03
 
Wrote STATE.OUT
 
RMS change in Kohn-Sham potential (target) :   0.9981386481E-04 (   10.00000000    )
Absolute change in total energy (target)   :   0.1460102794E-07 (  0.1000000000E-07)
 
Time (CPU seconds) :      2778.76
 
+--------------------+
| Loop number :   43 |
+--------------------+
 
Energies :
 Fermi                       :     0.699080333184    
 sum of eigenvalues          :     -5382.70996621    
 electron kinetic            :      9444.40247476    
 core electron kinetic       :      9180.97526019    
 Coulomb                     :     -18240.0083920    
 Coulomb potential           :     -14467.7035827    
 nuclear-nuclear             :     -1007.20582178    
 electron-nuclear            :     -19997.9015577    
 Hartree                     :      2765.09898748    
 Madelung                    :     -11006.1566006    
 xc potential                :     -359.408858239    
 exchange                    :     -266.105756760    
 correlation                 :     -4.72709017491    
 total energy                :     -9066.43876416    
 
Density of states at Fermi energy :    84.51308977    
 (states/Hartree/unit cell)
 
Estimated indirect band gap :   0.3308302816E-03
 from k-point    112 to k-point    128
Estimated direct band gap   :   0.4065074281E-02
 at k-point     14
 
Charges :
 core                        :    56.00000000    
 valence                     :    32.00000000    
 interstitial                :    3.222497118    
 muffin-tins (core leakage)
  species :    1 (Ru)
   atom    1                 :    42.38875144     (  0.4496505852E-06)
   atom    2                 :    42.38875144     (  0.4496505852E-06)
 total in muffin-tins        :    84.77750288    
 total calculated charge     :    87.99957727    
 total charge                :    88.00000000    
 error                       :   0.4227324826E-03
 
RMS change in Kohn-Sham potential (target) :   0.4103098710E-03 (   10.00000000    )
Absolute change in total energy (target)   :   0.7789822121E-07 (  0.1000000000E-07)
 
Time (CPU seconds) :      2844.36
 
+--------------------+
| Loop number :   44 |
+--------------------+
 
Energies :
 Fermi                       :     0.699080333910    
 sum of eigenvalues          :     -5382.70996614    
 electron kinetic            :      9444.40247484    
 core electron kinetic       :      9180.97526029    
 Coulomb                     :     -18240.0083920    
 Coulomb potential           :     -14467.7035827    
 nuclear-nuclear             :     -1007.20582178    
 electron-nuclear            :     -19997.9015577    
 Hartree                     :      2765.09898747    
 Madelung                    :     -11006.1566006    
 xc potential                :     -359.408858235    
 exchange                    :     -266.105756758    
 correlation                 :     -4.72709017538    
 total energy                :     -9066.43876409    
 
Density of states at Fermi energy :    84.51309056    
 (states/Hartree/unit cell)
 
Estimated indirect band gap :   0.3308303597E-03
 from k-point    112 to k-point    128
Estimated direct band gap   :   0.4065074195E-02
 at k-point     14
 
Charges :
 core                        :    56.00000000    
 valence                     :    32.00000000    
 interstitial                :    3.222497118    
 muffin-tins (core leakage)
  species :    1 (Ru)
   atom    1                 :    42.38875144     (  0.4495503703E-06)
   atom    2                 :    42.38875144     (  0.4495503703E-06)
 total in muffin-tins        :    84.77750288    
 total calculated charge     :    87.99957727    
 total charge                :    88.00000000    
 error                       :   0.4227322790E-03
 
Wrote STATE.OUT
 
RMS change in Kohn-Sham potential (target) :   0.9481810018E-04 (   10.00000000    )
Absolute change in total energy (target)   :   0.5583024176E-07 (  0.1000000000E-07)
 
Time (CPU seconds) :      2909.85
 
+--------------------+
| Loop number :   45 |
+--------------------+
 
Energies :
 Fermi                       :     0.699080333298    
 sum of eigenvalues          :     -5382.70996620    
 electron kinetic            :      9444.40247486    
 core electron kinetic       :      9180.97526037    
 Coulomb                     :     -18240.0083920    
 Coulomb potential           :     -14467.7035828    
 nuclear-nuclear             :     -1007.20582178    
 electron-nuclear            :     -19997.9015577    
 Hartree                     :      2765.09898743    
 Madelung                    :     -11006.1566006    
 xc potential                :     -359.408858238    
 exchange                    :     -266.105756763    
 correlation                 :     -4.72709017499    
 total energy                :     -9066.43876412    
 
Density of states at Fermi energy :    84.51308989    
 (states/Hartree/unit cell)
 
Estimated indirect band gap :   0.3308303011E-03
 from k-point    112 to k-point    128
Estimated direct band gap   :   0.4065074248E-02
 at k-point     14
 
Charges :
 core                        :    56.00000000    
 valence                     :    32.00000000    
 interstitial                :    3.222497118    
 muffin-tins (core leakage)
  species :    1 (Ru)
   atom    1                 :    42.38875144     (  0.4495655723E-06)
   atom    2                 :    42.38875144     (  0.4495655723E-06)
 total in muffin-tins        :    84.77750288    
 total calculated charge     :    87.99957727    
 total charge                :    88.00000000    
 error                       :   0.4227323502E-03
 
RMS change in Kohn-Sham potential (target) :   0.1714018898E-03 (   10.00000000    )
Absolute change in total energy (target)   :   0.1277294359E-07 (  0.1000000000E-07)
 
Time (CPU seconds) :      2976.16
 
+--------------------+
| Loop number :   46 |
+--------------------+
 
Energies :
 Fermi                       :     0.699080333188    
 sum of eigenvalues          :     -5382.70996621    
 electron kinetic            :      9444.40247461    
 core electron kinetic       :      9180.97526009    
 Coulomb                     :     -18240.0083919    
 Coulomb potential           :     -14467.7035826    
 nuclear-nuclear             :     -1007.20582178    
 electron-nuclear            :     -19997.9015577    
 Hartree                     :      2765.09898755    
 Madelung                    :     -11006.1566006    
 xc potential                :     -359.408858235    
 exchange                    :     -266.105756754    
 correlation                 :     -4.72709017599    
 total energy                :     -9066.43876424    
 
Density of states at Fermi energy :    84.51308972    
 (states/Hartree/unit cell)
 
Estimated indirect band gap :   0.3308302884E-03
 from k-point    112 to k-point    128
Estimated direct band gap   :   0.4065074255E-02
 at k-point     14
 
Charges :
 core                        :    56.00000000    
 valence                     :    32.00000000    
 interstitial                :    3.222497118    
 muffin-tins (core leakage)
  species :    1 (Ru)
   atom    1                 :    42.38875144     (  0.4495939585E-06)
   atom    2                 :    42.38875144     (  0.4495939585E-06)
 total in muffin-tins        :    84.77750288    
 total calculated charge     :    87.99957727    
 total charge                :    88.00000000    
 error                       :   0.4227323769E-03
 
Wrote STATE.OUT
 
RMS change in Kohn-Sham potential (target) :   0.7758850865E-04 (   10.00000000    )
Absolute change in total energy (target)   :   0.1280568540E-06 (  0.1000000000E-07)
 
Time (CPU seconds) :      3041.86
 
+--------------------+
| Loop number :   47 |
+--------------------+
 
Energies :
 Fermi                       :     0.699080333054    
 sum of eigenvalues          :     -5382.70996623    
 electron kinetic            :      9444.40247450    
 core electron kinetic       :      9180.97526002    
 Coulomb                     :     -18240.0083919    
 Coulomb potential           :     -14467.7035825    
 nuclear-nuclear             :     -1007.20582178    
 electron-nuclear            :     -19997.9015577    
 Hartree                     :      2765.09898760    
 Madelung                    :     -11006.1566006    
 xc potential                :     -359.408858234    
 exchange                    :     -266.105756752    
 correlation                 :     -4.72709017621    
 total energy                :     -9066.43876430    
 
Density of states at Fermi energy :    84.51308958    
 (states/Hartree/unit cell)
 
Estimated indirect band gap :   0.3308302763E-03
 from k-point    112 to k-point    128
Estimated direct band gap   :   0.4065074272E-02
 at k-point     14
 
Charges :
 core                        :    56.00000000    
 valence                     :    32.00000000    
 interstitial                :    3.222497118    
 muffin-tins (core leakage)
  species :    1 (Ru)
   atom    1                 :    42.38875144     (  0.4495903312E-06)
   atom    2                 :    42.38875144     (  0.4495903312E-06)
 total in muffin-tins        :    84.77750288    
 total calculated charge     :    87.99957727    
 total charge                :    88.00000000    
 error                       :   0.4227324435E-03
 
RMS change in Kohn-Sham potential (target) :   0.1152227928E-02 (   10.00000000    )
Absolute change in total energy (target)   :   0.9458381101E-07 (  0.1000000000E-07)
 
Time (CPU seconds) :      3107.71
 
+--------------------+
| Loop number :   48 |
+--------------------+
 
Energies :
 Fermi                       :     0.699080332476    
 sum of eigenvalues          :     -5382.70996630    
 electron kinetic            :      9444.40247447    
 core electron kinetic       :      9180.97526000    
 Coulomb                     :     -18240.0083919    
 Coulomb potential           :     -14467.7035825    
 nuclear-nuclear             :     -1007.20582178    
 electron-nuclear            :     -19997.9015577    
 Hartree                     :      2765.09898758    
 Madelung                    :     -11006.1566006    
 xc potential                :     -359.408858232    
 exchange                    :     -266.105756750    
 correlation                 :     -4.72709017624    
 total energy                :     -9066.43876435    
 
Density of states at Fermi energy :    84.51308922    
 (states/Hartree/unit cell)
 
Estimated indirect band gap :   0.3308302311E-03
 from k-point    112 to k-point    128
Estimated direct band gap   :   0.4065074331E-02
 at k-point     14
 
Charges :
 core                        :    56.00000000    
 valence                     :    32.00000000    
 interstitial                :    3.222497119    
 muffin-tins (core leakage)
  species :    1 (Ru)
   atom    1                 :    42.38875144     (  0.4496885317E-06)
   atom    2                 :    42.38875144     (  0.4496885317E-06)
 total in muffin-tins        :    84.77750288    
 total calculated charge     :    87.99957727    
 total charge                :    88.00000000    
 error                       :   0.4227325946E-03
 
Wrote STATE.OUT
 
RMS change in Kohn-Sham potential (target) :   0.1457787762E-03 (   10.00000000    )
Absolute change in total energy (target)   :   0.7305243344E-07 (  0.1000000000E-07)
 
Time (CPU seconds) :      3173.67
 
+--------------------+
| Loop number :   49 |
+--------------------+
 
Energies :
 Fermi                       :     0.699080332454    
 sum of eigenvalues          :     -5382.70996632    
 electron kinetic            :      9444.40247453    
 core electron kinetic       :      9180.97526014    
 Coulomb                     :     -18240.0083919    
 Coulomb potential           :     -14467.7035826    
 nuclear-nuclear             :     -1007.20582178    
 electron-nuclear            :     -19997.9015577    
 Hartree                     :      2765.09898754    
 Madelung                    :     -11006.1566006    
 xc potential                :     -359.408858239    
 exchange                    :     -266.105756759    
 correlation                 :     -4.72709017531    
 total energy                :     -9066.43876433    
 
Density of states at Fermi energy :    84.51308918    
 (states/Hartree/unit cell)
 
Estimated indirect band gap :   0.3308302352E-03
 from k-point    112 to k-point    128
Estimated direct band gap   :   0.4065074314E-02
 at k-point     14
 
Charges :
 core                        :    56.00000000    
 valence                     :    32.00000000    
 interstitial                :    3.222497118    
 muffin-tins (core leakage)
  species :    1 (Ru)
   atom    1                 :    42.38875144     (  0.4495087786E-06)
   atom    2                 :    42.38875144     (  0.4495087786E-06)
 total in muffin-tins        :    84.77750288    
 total calculated charge     :    87.99957727    
 total charge                :    88.00000000    
 error                       :   0.4227322248E-03
 
RMS change in Kohn-Sham potential (target) :   0.9788690548E-04 (   10.00000000    )
Absolute change in total energy (target)   :   0.1355147106E-08 (  0.1000000000E-07)
 
Convergence targets achieved
 
Time (CPU seconds) :      3237.50
 
+--------------------+
| Loop number :   50 |
+--------------------+
 
Energies :
 Fermi                       :     0.699080332485    
 sum of eigenvalues          :     -5382.70996629    
 electron kinetic            :      9444.40247460    
 core electron kinetic       :      9180.97526014    
 Coulomb                     :     -18240.0083920    
 Coulomb potential           :     -14467.7035827    
 nuclear-nuclear             :     -1007.20582178    
 electron-nuclear            :     -19997.9015577    
 Hartree                     :      2765.09898752    
 Madelung                    :     -11006.1566006    
 xc potential                :     -359.408858237    
 exchange                    :     -266.105756753    
 correlation                 :     -4.72709017651    
 total energy                :     -9066.43876428    
 
Density of states at Fermi energy :    84.51308920    
 (states/Hartree/unit cell)
 
Estimated indirect band gap :   0.3308302363E-03
 from k-point    112 to k-point    128
Estimated direct band gap   :   0.4065074310E-02
 at k-point     14
 
Charges :
 core                        :    56.00000000    
 valence                     :    32.00000000    
 interstitial                :    3.222497118    
 muffin-tins (core leakage)
  species :    1 (Ru)
   atom    1                 :    42.38875144     (  0.4496116404E-06)
   atom    2                 :    42.38875144     (  0.4496116404E-06)
 total in muffin-tins        :    84.77750288    
 total calculated charge     :    87.99957727    
 total charge                :    88.00000000    
 error                       :   0.4227324317E-03
 
Wrote STATE.OUT
 
+------------------------------+
| Self-consistent loop stopped |
+------------------------------+
 
Wrote STATE.OUT
 
Timings (CPU seconds) :
 initialisation                        :         1.48
 Hamiltonian and overlap matrix set up :       691.17
 first-variational eigenvalue equation :      1061.13
 charge density calculation            :       553.81
 potential calculation                 :       996.42
 total                                 :      3304.01
 
+----------------------------+
| Elk version 8.3.15 stopped |
+----------------------------+
