   1.121847702    
   13.06335675    
   36.60104337    
   29.31405035    
   15.63416507    
   7.213674350    
   1.744957516    
  0.3941573544    
  0.9810216042E-01
  0.2383431507E-01
  0.6522357337E-02
  0.1228025701E-02
  0.2857008112E-03
  0.3057389167E-03
  0.2343082360E-03
  0.1053084998E-03
  0.5672785119E-04
  0.8238277587E-05
  0.3272922004E-04
  0.3225691762E-04
  0.1502685518E-04
  0.6989848771E-06
  0.4868699762E-05
  0.1364869968E-04
  0.9483399481E-05
  0.6576097803E-05
  0.5144956958E-05
  0.1324093319E-05
  0.2718961696E-05
  0.1835072908E-05
  0.1404758223E-05
  0.2781791409E-05
  0.7790731615E-06
  0.8909973985E-06
  0.1456555765E-06
  0.7398812158E-06
  0.5264628271E-06
  0.7062772056E-07
  0.1932057785E-06
  0.2021279215E-06
  0.5966230674E-06
  0.2393899194E-06
  0.2910692274E-06
  0.4242247087E-06
  0.3373952495E-06
  0.2663982741E-06
  0.1196185622E-06
  0.2071010385E-06
  0.4486373655E-06
  0.7952621672E-08
