 
Species :    1 (Re), atom :    1
 n =  1, l =  0, k =  1 :   -2632.324568    
 n =  2, l =  0, k =  1 :   -454.8805580    
 n =  2, l =  1, k =  1 :   -435.6000139    
 n =  2, l =  1, k =  2 :   -382.4269061    
 n =  3, l =  0, k =  1 :   -104.5583211    
 n =  3, l =  1, k =  1 :   -95.87459926    
 n =  3, l =  1, k =  2 :   -84.32460258    
 n =  3, l =  2, k =  2 :   -69.52263550    
 n =  3, l =  2, k =  3 :   -67.02604188    
 n =  4, l =  0, k =  1 :   -21.09206758    
 n =  4, l =  1, k =  1 :   -17.44847963    
 n =  4, l =  1, k =  2 :   -14.75210619    
 n =  4, l =  2, k =  2 :   -8.721285951    
 n =  4, l =  2, k =  3 :   -8.225430303    
 
Species :    1 (Re), atom :    2
 n =  1, l =  0, k =  1 :   -2632.324568    
 n =  2, l =  0, k =  1 :   -454.8805580    
 n =  2, l =  1, k =  1 :   -435.6000139    
 n =  2, l =  1, k =  2 :   -382.4269061    
 n =  3, l =  0, k =  1 :   -104.5583211    
 n =  3, l =  1, k =  1 :   -95.87459926    
 n =  3, l =  1, k =  2 :   -84.32460258    
 n =  3, l =  2, k =  2 :   -69.52263550    
 n =  3, l =  2, k =  3 :   -67.02604188    
 n =  4, l =  0, k =  1 :   -21.09206758    
 n =  4, l =  1, k =  1 :   -17.44847963    
 n =  4, l =  1, k =  2 :   -14.75210619    
 n =  4, l =  2, k =  2 :   -8.721285951    
 n =  4, l =  2, k =  3 :   -8.225430303    
