+----------------------------+
| Elk version 8.3.15 started |
+----------------------------+
 
Date (YYYY-MM-DD) : 2022-02-14
Time (hh:mm:ss)   : 15:54:14
 
All units are atomic (Hartree, Bohr, etc.)
 
+-------------------------------------------------+
| Ground-state run starting from atomic densities |
+-------------------------------------------------+
 
Lattice vectors :
   5.796219578       5.796219578       0.000000000    
   5.796219578       0.000000000       5.796219578    
   0.000000000       5.796219578       5.796219578    
 
Reciprocal lattice vectors :
  0.5420071844      0.5420071844     -0.5420071844    
  0.5420071844     -0.5420071844      0.5420071844    
 -0.5420071844      0.5420071844      0.5420071844    
 
Unit cell volume      :    389.4614569    
Brillouin zone volume :   0.6369056784    
 
Muffin-tin inner radius fraction :   0.1000000000E-01
 
Species :    1 (Sr)
 parameters loaded from : Sr.in
 name : strontium
 nuclear charge    :   -38.00000000    
 electronic charge :    38.00000000    
 atomic mass :    159721.4890    
 muffin-tin radius :    2.600000000    
 number of radial points in muffin-tin :   1200
 number on inner part of muffin-tin    :    867
 atomic positions (lattice), magnetic fields (Cartesian) :
   1 :   0.00000000  0.00000000  0.00000000    0.00000000  0.00000000  0.00000000
 
Total number of atoms per unit cell :    1
 
Spin treatment :
 spin-unpolarised
 
Number of Bravais lattice symmetries :   48
Number of crystal symmetries         :   48
Crystal has inversion symmetry
Real symmetric eigensolver will be used
 
k-point grid :     17    17    17
k-point offset :    0.000000000       0.000000000       0.000000000    
k-point set is reduced with full crystal symmetry group
Total number of k-points :      165
 
Muffin-tin radius times maximum |G+k| :    8.500000000    
 using gkmax = rgkmax / 2
Maximum |G+k| for APW functions       :    4.250000000    
Maximum (1/2)|G+k|²                   :    9.031250000    
Maximum |G| for potential and density :    34.00000000    
Constant for pseudocharge density :   22
Radial integration step length :    1
 
G-vector grid sizes :     90    90    90
Number of G-vectors :   258307
 
Maximum angular momentum used for
 APW functions                      :   10
 outer part of muffin-tin           :    8
 inner part of muffin-tin           :    1
 
Total nuclear charge    :   -38.00000000    
Total core charge       :    28.00000000    
Total valence charge    :    10.00000000    
Total excess charge     :    0.000000000    
Total electronic charge :    38.00000000    
 
Effective Wigner radius, rₛ :    1.347506161    
 
Number of empty states         :   20
Total number of valence states :   26
Total number of core states    :   28
 
Conduction state local-orbitals added automatically
Total number of local-orbitals :  110
 
Using Libxc version 05.01.05
Exchange-correlation functional :    100   493   494
 exchange: mgga_x_rscan; correlation: mgga_c_rscan
 
Smearing type :    1
 Methfessel-Paxton order 1, Phys. Rev. B 40, 3616 (1989)
Smearing width :   0.1000000000E-02
Effective electronic temperature (K) :    315.7750248    
 
Mixing type :    3
 Broyden mixing, J. Phys. A: Math. Gen. 17, L317 (1984)
 
Kohn-Sham potential initialised from atomic data
 
+------------------------------+
| Self-consistent loop started |
+------------------------------+
 
+--------------------+
| Loop number :    1 |
+--------------------+
 
Energies :
 Fermi                       :     0.456467019490E-01
 sum of eigenvalues          :     -1897.57372990    
 electron kinetic            :      3265.51042210    
 core electron kinetic       :      3245.84785579    
 Coulomb                     :     -6369.76699121    
 Coulomb potential           :     -5021.08883485    
 nuclear-nuclear             :     -258.095967035    
 electron-nuclear            :     -7202.25321350    
 Hartree                     :      1090.58218933    
 Madelung                    :     -3859.22257379    
 xc potential                :     -141.995317148    
 exchange                    :     -105.092580090    
 correlation                 :     -1.89692007318    
 total energy                :     -3211.24606928    
 
Density of states at Fermi energy :    66.84114528    
 (states/Hartree/unit cell)
 
Estimated indirect band gap :   0.7523651116E-03
 from k-point    153 to k-point    106
Estimated direct band gap   :   0.2347026000E-02
 at k-point    123
 
Charges :
 core                        :    28.00000000    
 valence                     :    10.00000000    
 interstitial                :    2.008857011    
 muffin-tins (core leakage)
  species :    1 (Sr)
   atom    1                 :    35.99114299     (  0.1858532858E-04)
 total in muffin-tins        :    35.99114299    
 total calculated charge     :    37.99998036    
 total charge                :    38.00000000    
 error                       :   0.1963788713E-04
 
Time (CPU seconds) :        46.65
 
+--------------------+
| Loop number :    2 |
+--------------------+
 
Energies :
 Fermi                       :     0.466391044370E-01
 sum of eigenvalues          :     -1897.30596739    
 electron kinetic            :      3265.72790304    
 core electron kinetic       :      3242.67237903    
 Coulomb                     :     -6369.51402979    
 Coulomb potential           :     -5021.05327266    
 nuclear-nuclear             :     -258.095967035    
 electron-nuclear            :     -7201.78285285    
 Hartree                     :      1090.36479010    
 Madelung                    :     -3858.98739346    
 xc potential                :     -141.980597779    
 exchange                    :     -105.081640568    
 correlation                 :     -1.89682410172    
 total energy                :     -3210.76459141    
 
Density of states at Fermi energy :    66.37765260    
 (states/Hartree/unit cell)
 
Estimated indirect band gap :   0.7074990362E-03
 from k-point    153 to k-point    106
Estimated direct band gap   :   0.2383848840E-02
 at k-point    123
 
Charges :
 core                        :    28.00000000    
 valence                     :    10.00000000    
 interstitial                :    2.010715602    
 muffin-tins (core leakage)
  species :    1 (Sr)
   atom    1                 :    35.98928440     (  0.1872173816E-04)
 total in muffin-tins        :    35.98928440    
 total calculated charge     :    37.99998023    
 total charge                :    38.00000000    
 error                       :   0.1977131301E-04
 
Wrote STATE.OUT
 
RMS change in Kohn-Sham potential (target) :   0.5997546563     (   10.00000000    )
Absolute change in total energy (target)   :   0.4814778662     (  0.1000000000E-07)
 
Time (CPU seconds) :        80.24
 
+--------------------+
| Loop number :    3 |
+--------------------+
 
Energies :
 Fermi                       :     0.641842935492E-01
 sum of eigenvalues          :     -1893.83135047    
 electron kinetic            :      3268.62843961    
 core electron kinetic       :      3237.49838102    
 Coulomb                     :     -6366.51324572    
 Coulomb potential           :     -5020.65434420    
 nuclear-nuclear             :     -258.095967035    
 electron-nuclear            :     -7196.18021317    
 Hartree                     :      1087.76293449    
 Madelung                    :     -3856.18607362    
 xc potential                :     -141.805445879    
 exchange                    :     -104.952012150    
 correlation                 :     -1.89568718323    
 total energy                :     -3204.73250545    
 
Density of states at Fermi energy :    73.57978339    
 (states/Hartree/unit cell)
 
Estimated indirect band gap :   0.4489779184E-03
 from k-point    106 to k-point     58
Estimated direct band gap   :   0.2991484187E-02
 at k-point    123
 
Charges :
 core                        :    28.00000000    
 valence                     :    10.00000000    
 interstitial                :    2.032164775    
 muffin-tins (core leakage)
  species :    1 (Sr)
   atom    1                 :    35.96783522     (  0.2042580357E-04)
 total in muffin-tins        :    35.96783522    
 total calculated charge     :    37.99997856    
 total charge                :    38.00000000    
 error                       :   0.2144185597E-04
 
RMS change in Kohn-Sham potential (target) :   0.4950781933     (   10.00000000    )
Absolute change in total energy (target)   :    6.152455435     (  0.1000000000E-07)
 
Time (CPU seconds) :       113.04
 
+--------------------+
| Loop number :    4 |
+--------------------+
 
Energies :
 Fermi                       :     0.999739460579E-01
 sum of eigenvalues          :     -1887.56854172    
 electron kinetic            :      3273.97935320    
 core electron kinetic       :      3234.28851719    
 Coulomb                     :     -6361.40817584    
 Coulomb potential           :     -5020.04281779    
 nuclear-nuclear             :     -258.095967035    
 electron-nuclear            :     -7186.58159982    
 Hartree                     :      1083.26939102    
 Madelung                    :     -3851.38676695    
 xc potential                :     -141.505077141    
 exchange                    :     -104.730367872    
 correlation                 :     -1.89369022682    
 total energy                :     -3194.05288073    
 
Density of states at Fermi energy :    86.73371300    
 (states/Hartree/unit cell)
 
Estimated indirect band gap :   0.2457849358E-03
 from k-point     18 to k-point     58
Estimated direct band gap   :   0.4307650437E-02
 at k-point    147
 
Charges :
 core                        :    28.00000000    
 valence                     :    10.00000000    
 interstitial                :    2.069055200    
 muffin-tins (core leakage)
  species :    1 (Sr)
   atom    1                 :    35.93094480     (  0.2374720255E-04)
 total in muffin-tins        :    35.93094480    
 total calculated charge     :    37.99997527    
 total charge                :    38.00000000    
 error                       :   0.2473437235E-04
 
Wrote STATE.OUT
 
RMS change in Kohn-Sham potential (target) :   0.2757095302     (   10.00000000    )
Absolute change in total energy (target)   :    12.21773857     (  0.1000000000E-07)
 
Time (CPU seconds) :       143.85
 
+--------------------+
| Loop number :    5 |
+--------------------+
 
Energies :
 Fermi                       :     0.128391497488    
 sum of eigenvalues          :     -1882.65935119    
 electron kinetic            :      3278.20629316    
 core electron kinetic       :      3233.47009046    
 Coulomb                     :     -6357.47382864    
 Coulomb potential           :     -5019.59282699    
 nuclear-nuclear             :     -258.095967035    
 electron-nuclear            :     -7179.16289623    
 Hartree                     :      1079.78503462    
 Madelung                    :     -3847.67741515    
 xc potential                :     -141.272817356    
 exchange                    :     -104.558953807    
 correlation                 :     -1.89213514698    
 total energy                :     -3185.71862444    
 
Density of states at Fermi energy :    66.94098225    
 (states/Hartree/unit cell)
 
Estimated indirect band gap :   0.6974143778E-03
 from k-point    147 to k-point     58
Estimated direct band gap   :   0.4164187832E-02
 at k-point     67
 
Charges :
 core                        :    28.00000000    
 valence                     :    10.00000000    
 interstitial                :    2.096495563    
 muffin-tins (core leakage)
  species :    1 (Sr)
   atom    1                 :    35.90350444     (  0.2673195840E-04)
 total in muffin-tins        :    35.90350444    
 total calculated charge     :    37.99997232    
 total charge                :    38.00000000    
 error                       :   0.2768052077E-04
 
RMS change in Kohn-Sham potential (target) :   0.1002807908     (   10.00000000    )
Absolute change in total energy (target)   :    11.38869093     (  0.1000000000E-07)
 
Time (CPU seconds) :       172.31
 
+--------------------+
| Loop number :    6 |
+--------------------+
 
Energies :
 Fermi                       :     0.140359687684    
 sum of eigenvalues          :     -1880.58840598    
 electron kinetic            :      3280.01151865    
 core electron kinetic       :      3233.25835954    
 Coulomb                     :     -6355.84104427    
 Coulomb potential           :     -5019.42424349    
 nuclear-nuclear             :     -258.095967035    
 electron-nuclear            :     -7176.06591099    
 Hartree                     :      1078.32083375    
 Madelung                    :     -3846.12892253    
 xc potential                :     -141.175681134    
 exchange                    :     -104.487266517    
 correlation                 :     -1.89147942889    
 total energy                :     -3182.20827157    
 
Density of states at Fermi energy :    66.28867053    
 (states/Hartree/unit cell)
 
Estimated indirect band gap :   0.4431520939E-03
 from k-point    147 to k-point     58
Estimated direct band gap   :   0.4055389942E-02
 at k-point     67
 
Charges :
 core                        :    28.00000000    
 valence                     :    10.00000000    
 interstitial                :    2.108082069    
 muffin-tins (core leakage)
  species :    1 (Sr)
   atom    1                 :    35.89191793     (  0.2809050087E-04)
 total in muffin-tins        :    35.89191793    
 total calculated charge     :    37.99997098    
 total charge                :    38.00000000    
 error                       :   0.2901874014E-04
 
Wrote STATE.OUT
 
RMS change in Kohn-Sham potential (target) :   0.2666030046E-01 (   10.00000000    )
Absolute change in total energy (target)   :    6.357525603     (  0.1000000000E-07)
 
Time (CPU seconds) :       201.88
 
+--------------------+
| Loop number :    7 |
+--------------------+
 
Energies :
 Fermi                       :     0.144720995840    
 sum of eigenvalues          :     -1879.82392246    
 electron kinetic            :      3280.68951832    
 core electron kinetic       :      3233.45999317    
 Coulomb                     :     -6355.24966609    
 Coulomb potential           :     -5019.37335570    
 nuclear-nuclear             :     -258.095967035    
 electron-nuclear            :     -7174.93404241    
 Hartree                     :      1077.78034335    
 Madelung                    :     -3845.56298824    
 xc potential                :     -141.140085073    
 exchange                    :     -104.461017780    
 correlation                 :     -1.89123342071    
 total energy                :     -3180.91239898    
 
Density of states at Fermi energy :    66.56353999    
 (states/Hartree/unit cell)
 
Estimated indirect band gap :   0.3469363540E-03
 from k-point    147 to k-point     58
Estimated direct band gap   :   0.4025516704E-02
 at k-point     67
 
Charges :
 core                        :    28.00000000    
 valence                     :    10.00000000    
 interstitial                :    2.112580065    
 muffin-tins (core leakage)
  species :    1 (Sr)
   atom    1                 :    35.88741993     (  0.2861498318E-04)
 total in muffin-tins        :    35.88741993    
 total calculated charge     :    37.99997046    
 total charge                :    38.00000000    
 error                       :   0.2953612018E-04
 
RMS change in Kohn-Sham potential (target) :   0.1988591975E-02 (   10.00000000    )
Absolute change in total energy (target)   :    2.885253996     (  0.1000000000E-07)
 
Time (CPU seconds) :       231.93
 
+--------------------+
| Loop number :    8 |
+--------------------+
 
Energies :
 Fermi                       :     0.144740304237    
 sum of eigenvalues          :     -1879.83002132    
 electron kinetic            :      3280.70040309    
 core electron kinetic       :      3233.48157388    
 Coulomb                     :     -6355.27424648    
 Coulomb potential           :     -5019.38941694    
 nuclear-nuclear             :     -258.095967035    
 electron-nuclear            :     -7174.96714196    
 Hartree                     :      1077.78886251    
 Madelung                    :     -3845.57953801    
 xc potential                :     -141.141007476    
 exchange                    :     -104.461753253    
 correlation                 :     -1.89123085052    
 total energy                :     -3180.92682749    
 
Density of states at Fermi energy :    66.61993928    
 (states/Hartree/unit cell)
 
Estimated indirect band gap :   0.3349431446E-03
 from k-point    147 to k-point      9
Estimated direct band gap   :   0.4018781959E-02
 at k-point     67
 
Charges :
 core                        :    28.00000000    
 valence                     :    10.00000000    
 interstitial                :    2.112801872    
 muffin-tins (core leakage)
  species :    1 (Sr)
   atom    1                 :    35.88719813     (  0.2860596785E-04)
 total in muffin-tins        :    35.88719813    
 total calculated charge     :    37.99997047    
 total charge                :    38.00000000    
 error                       :   0.2952710204E-04
 
Wrote STATE.OUT
 
RMS change in Kohn-Sham potential (target) :   0.1074510899E-02 (   10.00000000    )
Absolute change in total energy (target)   :   0.7068849826     (  0.1000000000E-07)
 
Time (CPU seconds) :       261.13
 
+--------------------+
| Loop number :    9 |
+--------------------+
 
Energies :
 Fermi                       :     0.144744868869    
 sum of eigenvalues          :     -1879.82909003    
 electron kinetic            :      3280.71442235    
 core electron kinetic       :      3233.49630250    
 Coulomb                     :     -6355.28811930    
 Coulomb potential           :     -5019.40211814    
 nuclear-nuclear             :     -258.095967035    
 electron-nuclear            :     -7174.98218639    
 Hartree                     :      1077.79003413    
 Madelung                    :     -3845.58706023    
 xc potential                :     -141.141394240    
 exchange                    :     -104.462086643    
 correlation                 :     -1.89122646241    
 total energy                :     -3180.92701006    
 
Density of states at Fermi energy :    66.67735355    
 (states/Hartree/unit cell)
 
Estimated indirect band gap :   0.3077018486E-03
 from k-point    147 to k-point      9
Estimated direct band gap   :   0.4010928493E-02
 at k-point     67
 
Charges :
 core                        :    28.00000000    
 valence                     :    10.00000000    
 interstitial                :    2.113025093    
 muffin-tins (core leakage)
  species :    1 (Sr)
   atom    1                 :    35.88697491     (  0.2860459719E-04)
 total in muffin-tins        :    35.88697491    
 total calculated charge     :    37.99997047    
 total charge                :    38.00000000    
 error                       :   0.2952559322E-04
 
RMS change in Kohn-Sham potential (target) :   0.2564248145E-03 (   10.00000000    )
Absolute change in total energy (target)   :   0.1765386815     (  0.1000000000E-07)
 
Time (CPU seconds) :       289.87
 
+--------------------+
| Loop number :   10 |
+--------------------+
 
Energies :
 Fermi                       :     0.144735776343    
 sum of eigenvalues          :     -1879.82623502    
 electron kinetic            :      3280.71753132    
 core electron kinetic       :      3233.49673366    
 Coulomb                     :     -6355.28573808    
 Coulomb potential           :     -5019.40252726    
 nuclear-nuclear             :     -258.095967035    
 electron-nuclear            :     -7174.97701483    
 Hartree                     :      1077.78724378    
 Madelung                    :     -3845.58447445    
 xc potential                :     -141.141239085    
 exchange                    :     -104.461979424    
 correlation                 :     -1.89122522713    
 total energy                :     -3180.92141141    
 
Density of states at Fermi energy :    66.69516136    
 (states/Hartree/unit cell)
 
Estimated indirect band gap :   0.3016327005E-03
 from k-point    147 to k-point      9
Estimated direct band gap   :   0.4008446522E-02
 at k-point     67
 
Charges :
 core                        :    28.00000000    
 valence                     :    10.00000000    
 interstitial                :    2.113048226    
 muffin-tins (core leakage)
  species :    1 (Sr)
   atom    1                 :    35.88695177     (  0.2860776505E-04)
 total in muffin-tins        :    35.88695177    
 total calculated charge     :    37.99997047    
 total charge                :    38.00000000    
 error                       :   0.2952859089E-04
 
Wrote STATE.OUT
 
RMS change in Kohn-Sham potential (target) :   0.7088183876E-04 (   10.00000000    )
Absolute change in total energy (target)   :   0.4973331853E-01 (  0.1000000000E-07)
 
Time (CPU seconds) :       318.99
 
+--------------------+
| Loop number :   11 |
+--------------------+
 
Energies :
 Fermi                       :     0.144731264054    
 sum of eigenvalues          :     -1879.82600290    
 electron kinetic            :      3280.71696562    
 core electron kinetic       :      3233.49590229    
 Coulomb                     :     -6355.28458806    
 Coulomb potential           :     -5019.40176706    
 nuclear-nuclear             :     -258.095967035    
 electron-nuclear            :     -7174.97547499    
 Hartree                     :      1077.78685397    
 Madelung                    :     -3845.58370453    
 xc potential                :     -141.141201463    
 exchange                    :     -104.461951410    
 correlation                 :     -1.89122542351    
 total energy                :     -3180.92079927    
 
Density of states at Fermi energy :    66.69833294    
 (states/Hartree/unit cell)
 
Estimated indirect band gap :   0.3014954407E-03
 from k-point    147 to k-point      9
Estimated direct band gap   :   0.4008060722E-02
 at k-point     67
 
Charges :
 core                        :    28.00000000    
 valence                     :    10.00000000    
 interstitial                :    2.113032734    
 muffin-tins (core leakage)
  species :    1 (Sr)
   atom    1                 :    35.88696727     (  0.2860833454E-04)
 total in muffin-tins        :    35.88696727    
 total calculated charge     :    37.99997047    
 total charge                :    38.00000000    
 error                       :   0.2952910949E-04
 
RMS change in Kohn-Sham potential (target) :   0.9820832243E-04 (   10.00000000    )
Absolute change in total energy (target)   :   0.1304546840E-01 (  0.1000000000E-07)
 
Time (CPU seconds) :       347.67
 
+--------------------+
| Loop number :   12 |
+--------------------+
 
Energies :
 Fermi                       :     0.144731677038    
 sum of eigenvalues          :     -1879.82621989    
 electron kinetic            :      3280.71721745    
 core electron kinetic       :      3233.49641109    
 Coulomb                     :     -6355.28531607    
 Coulomb potential           :     -5019.40220717    
 nuclear-nuclear             :     -258.095967035    
 electron-nuclear            :     -7174.97649090    
 Hartree                     :      1077.78714187    
 Madelung                    :     -3845.58421249    
 xc potential                :     -141.141230172    
 exchange                    :     -104.461973997    
 correlation                 :     -1.89122536763    
 total energy                :     -3180.92129798    
 
Density of states at Fermi energy :    66.69920553    
 (states/Hartree/unit cell)
 
Estimated indirect band gap :   0.3008480990E-03
 from k-point    147 to k-point      9
Estimated direct band gap   :   0.4007908527E-02
 at k-point     67
 
Charges :
 core                        :    28.00000000    
 valence                     :    10.00000000    
 interstitial                :    2.113038768    
 muffin-tins (core leakage)
  species :    1 (Sr)
   atom    1                 :    35.88696123     (  0.2860801250E-04)
 total in muffin-tins        :    35.88696123    
 total calculated charge     :    37.99997047    
 total charge                :    38.00000000    
 error                       :   0.2952881118E-04
 
Wrote STATE.OUT
 
RMS change in Kohn-Sham potential (target) :   0.9389114922E-04 (   10.00000000    )
Absolute change in total energy (target)   :   0.2762655730E-02 (  0.1000000000E-07)
 
Time (CPU seconds) :       378.59
 
+--------------------+
| Loop number :   13 |
+--------------------+
 
Energies :
 Fermi                       :     0.144732291488    
 sum of eigenvalues          :     -1879.82613608    
 electron kinetic            :      3280.71728118    
 core electron kinetic       :      3233.49638836    
 Coulomb                     :     -6355.28524591    
 Coulomb potential           :     -5019.40219080    
 nuclear-nuclear             :     -258.095967035    
 electron-nuclear            :     -7174.97636695    
 Hartree                     :      1077.78708807    
 Madelung                    :     -3845.58415051    
 xc potential                :     -141.141226460    
 exchange                    :     -104.461971295    
 correlation                 :     -1.89122535079    
 total energy                :     -3180.92116137    
 
Density of states at Fermi energy :    66.69929176    
 (states/Hartree/unit cell)
 
Estimated indirect band gap :   0.3008174079E-03
 from k-point    147 to k-point      9
Estimated direct band gap   :   0.4007894684E-02
 at k-point     67
 
Charges :
 core                        :    28.00000000    
 valence                     :    10.00000000    
 interstitial                :    2.113038786    
 muffin-tins (core leakage)
  species :    1 (Sr)
   atom    1                 :    35.88696121     (  0.2860793436E-04)
 total in muffin-tins        :    35.88696121    
 total calculated charge     :    37.99997047    
 total charge                :    38.00000000    
 error                       :   0.2952867598E-04
 
RMS change in Kohn-Sham potential (target) :   0.3248308088E-03 (   10.00000000    )
Absolute change in total energy (target)   :   0.8272707632E-03 (  0.1000000000E-07)
 
Time (CPU seconds) :       409.34
 
+--------------------+
| Loop number :   14 |
+--------------------+
 
Energies :
 Fermi                       :     0.144732866490    
 sum of eigenvalues          :     -1879.82608821    
 electron kinetic            :      3280.71738763    
 core electron kinetic       :      3233.49647610    
 Coulomb                     :     -6355.28527445    
 Coulomb potential           :     -5019.40225044    
 nuclear-nuclear             :     -258.095967035    
 electron-nuclear            :     -7174.97636439    
 Hartree                     :      1077.78705697    
 Madelung                    :     -3845.58414923    
 xc potential                :     -141.141225393    
 exchange                    :     -104.461970518    
 correlation                 :     -1.89122531168    
 total energy                :     -3180.92108265    
 
Density of states at Fermi energy :    66.69908009    
 (states/Hartree/unit cell)
 
Estimated indirect band gap :   0.3008094401E-03
 from k-point    147 to k-point      9
Estimated direct band gap   :   0.4007920697E-02
 at k-point     67
 
Charges :
 core                        :    28.00000000    
 valence                     :    10.00000000    
 interstitial                :    2.113040483    
 muffin-tins (core leakage)
  species :    1 (Sr)
   atom    1                 :    35.88695952     (  0.2860810618E-04)
 total in muffin-tins        :    35.88695952    
 total calculated charge     :    37.99997047    
 total charge                :    38.00000000    
 error                       :   0.2952888788E-04
 
Wrote STATE.OUT
 
RMS change in Kohn-Sham potential (target) :   0.1178643327E-03 (   10.00000000    )
Absolute change in total energy (target)   :   0.2855394746E-03 (  0.1000000000E-07)
 
Time (CPU seconds) :       438.51
 
+--------------------+
| Loop number :   15 |
+--------------------+
 
Energies :
 Fermi                       :     0.144732320113    
 sum of eigenvalues          :     -1879.82610292    
 electron kinetic            :      3280.71726627    
 core electron kinetic       :      3233.49633883    
 Coulomb                     :     -6355.28517208    
 Coulomb potential           :     -5019.40214537    
 nuclear-nuclear             :     -258.095967035    
 electron-nuclear            :     -7174.97626472    
 Hartree                     :      1077.78705967    
 Madelung                    :     -3845.58409939    
 xc potential                :     -141.141223830    
 exchange                    :     -104.461969311    
 correlation                 :     -1.89122535644    
 total energy                :     -3180.92110047    
 
Density of states at Fermi energy :    66.69937364    
 (states/Hartree/unit cell)
 
Estimated indirect band gap :   0.3008269468E-03
 from k-point    147 to k-point      9
Estimated direct band gap   :   0.4007884264E-02
 at k-point     67
 
Charges :
 core                        :    28.00000000    
 valence                     :    10.00000000    
 interstitial                :    2.113038018    
 muffin-tins (core leakage)
  species :    1 (Sr)
   atom    1                 :    35.88696198     (  0.2860789711E-04)
 total in muffin-tins        :    35.88696198    
 total calculated charge     :    37.99997047    
 total charge                :    38.00000000    
 error                       :   0.2952865361E-04
 
RMS change in Kohn-Sham potential (target) :   0.8843843387E-04 (   10.00000000    )
Absolute change in total energy (target)   :   0.5356678002E-04 (  0.1000000000E-07)
 
Time (CPU seconds) :       468.17
 
+--------------------+
| Loop number :   16 |
+--------------------+
 
Energies :
 Fermi                       :     0.144731171231    
 sum of eigenvalues          :     -1879.82614249    
 electron kinetic            :      3280.71708587    
 core electron kinetic       :      3233.49613701    
 Coulomb                     :     -6355.28504974    
 Coulomb potential           :     -5019.40200547    
 nuclear-nuclear             :     -258.095967035    
 electron-nuclear            :     -7174.97615993    
 Hartree                     :      1077.78707723    
 Madelung                    :     -3845.58404700    
 xc potential                :     -141.141222887    
 exchange                    :     -104.461968589    
 correlation                 :     -1.89122541583    
 total energy                :     -3180.92115787    
 
Density of states at Fermi energy :    66.69986012    
 (states/Hartree/unit cell)
 
Estimated indirect band gap :   0.3008085773E-03
 from k-point    147 to k-point      9
Estimated direct band gap   :   0.4007819531E-02
 at k-point     67
 
Charges :
 core                        :    28.00000000    
 valence                     :    10.00000000    
 interstitial                :    2.113034750    
 muffin-tins (core leakage)
  species :    1 (Sr)
   atom    1                 :    35.88696525     (  0.2860810245E-04)
 total in muffin-tins        :    35.88696525    
 total calculated charge     :    37.99997047    
 total charge                :    38.00000000    
 error                       :   0.2952881862E-04
 
Wrote STATE.OUT
 
RMS change in Kohn-Sham potential (target) :   0.3973059495E-04 (   10.00000000    )
Absolute change in total energy (target)   :   0.4400648322E-04 (  0.1000000000E-07)
 
Time (CPU seconds) :       498.52
 
+--------------------+
| Loop number :   17 |
+--------------------+
 
Energies :
 Fermi                       :     0.144730891487    
 sum of eigenvalues          :     -1879.82614182    
 electron kinetic            :      3280.71705543    
 core electron kinetic       :      3233.49609251    
 Coulomb                     :     -6355.28500798    
 Coulomb potential           :     -5019.40197563    
 nuclear-nuclear             :     -258.095967035    
 electron-nuclear            :     -7174.97610626    
 Hartree                     :      1077.78706531    
 Madelung                    :     -3845.58402016    
 xc potential                :     -141.141221620    
 exchange                    :     -104.461967604    
 correlation                 :     -1.89122542239    
 total energy                :     -3180.92114557    
 
Density of states at Fermi energy :    66.69990896    
 (states/Hartree/unit cell)
 
Estimated indirect band gap :   0.3008211730E-03
 from k-point    147 to k-point      9
Estimated direct band gap   :   0.4007814440E-02
 at k-point     67
 
Charges :
 core                        :    28.00000000    
 valence                     :    10.00000000    
 interstitial                :    2.113034239    
 muffin-tins (core leakage)
  species :    1 (Sr)
   atom    1                 :    35.88696576     (  0.2860780964E-04)
 total in muffin-tins        :    35.88696576    
 total calculated charge     :    37.99997047    
 total charge                :    38.00000000    
 error                       :   0.2952858270E-04
 
RMS change in Kohn-Sham potential (target) :   0.2218524030E-04 (   10.00000000    )
Absolute change in total energy (target)   :   0.1292834440E-05 (  0.1000000000E-07)
 
Time (CPU seconds) :       528.50
 
+--------------------+
| Loop number :   18 |
+--------------------+
 
Energies :
 Fermi                       :     0.144730390659    
 sum of eigenvalues          :     -1879.82615293    
 electron kinetic            :      3280.71700002    
 core electron kinetic       :      3233.49602630    
 Coulomb                     :     -6355.28496382    
 Coulomb potential           :     -5019.40193204    
 nuclear-nuclear             :     -258.095967035    
 electron-nuclear            :     -7174.97606153    
 Hartree                     :      1077.78706475    
 Madelung                    :     -3845.58399780    
 xc potential                :     -141.141220903    
 exchange                    :     -104.461967045    
 correlation                 :     -1.89122543661    
 total energy                :     -3180.92115629    
 
Density of states at Fermi energy :    66.70004192    
 (states/Hartree/unit cell)
 
Estimated indirect band gap :   0.3008156297E-03
 from k-point    147 to k-point      9
Estimated direct band gap   :   0.4007796465E-02
 at k-point     67
 
Charges :
 core                        :    28.00000000    
 valence                     :    10.00000000    
 interstitial                :    2.113033370    
 muffin-tins (core leakage)
  species :    1 (Sr)
   atom    1                 :    35.88696663     (  0.2860803110E-04)
 total in muffin-tins        :    35.88696663    
 total calculated charge     :    37.99997047    
 total charge                :    38.00000000    
 error                       :   0.2952877993E-04
 
Wrote STATE.OUT
 
RMS change in Kohn-Sham potential (target) :   0.1231637185E-03 (   10.00000000    )
Absolute change in total energy (target)   :   0.1038988330E-04 (  0.1000000000E-07)
 
Time (CPU seconds) :       560.99
 
+--------------------+
| Loop number :   19 |
+--------------------+
 
Energies :
 Fermi                       :     0.144730050988    
 sum of eigenvalues          :     -1879.82615752    
 electron kinetic            :      3280.71696397    
 core electron kinetic       :      3233.49598558    
 Coulomb                     :     -6355.28493234    
 Coulomb potential           :     -5019.40190103    
 nuclear-nuclear             :     -258.095967035    
 electron-nuclear            :     -7174.97602959    
 Hartree                     :      1077.78706428    
 Madelung                    :     -3845.58398183    
 xc potential                :     -141.141220471    
 exchange                    :     -104.461966724    
 correlation                 :     -1.89122544537    
 total energy                :     -3180.92116054    
 
Density of states at Fermi energy :    66.70016470    
 (states/Hartree/unit cell)
 
Estimated indirect band gap :   0.3007991233E-03
 from k-point    147 to k-point      9
Estimated direct band gap   :   0.4007778775E-02
 at k-point     67
 
Charges :
 core                        :    28.00000000    
 valence                     :    10.00000000    
 interstitial                :    2.113032748    
 muffin-tins (core leakage)
  species :    1 (Sr)
   atom    1                 :    35.88696725     (  0.2860787630E-04)
 total in muffin-tins        :    35.88696725    
 total calculated charge     :    37.99997047    
 total charge                :    38.00000000    
 error                       :   0.2952861888E-04
 
RMS change in Kohn-Sham potential (target) :   0.6037800791E-04 (   10.00000000    )
Absolute change in total energy (target)   :   0.6847594705E-05 (  0.1000000000E-07)
 
Time (CPU seconds) :       590.74
 
+--------------------+
| Loop number :   20 |
+--------------------+
 
Energies :
 Fermi                       :     0.144729803042    
 sum of eigenvalues          :     -1879.82616213    
 electron kinetic            :      3280.71694856    
 core electron kinetic       :      3233.49597075    
 Coulomb                     :     -6355.28492187    
 Coulomb potential           :     -5019.40189032    
 nuclear-nuclear             :     -258.095967035    
 electron-nuclear            :     -7174.97601936    
 Hartree                     :      1077.78706452    
 Madelung                    :     -3845.58397672    
 xc potential                :     -141.141220375    
 exchange                    :     -104.461966656    
 correlation                 :     -1.89122544692    
 total energy                :     -3180.92116542    
 
Density of states at Fermi energy :    66.70022601    
 (states/Hartree/unit cell)
 
Estimated indirect band gap :   0.3007834798E-03
 from k-point    147 to k-point      9
Estimated direct band gap   :   0.4007769282E-02
 at k-point     67
 
Charges :
 core                        :    28.00000000    
 valence                     :    10.00000000    
 interstitial                :    2.113032579    
 muffin-tins (core leakage)
  species :    1 (Sr)
   atom    1                 :    35.88696742     (  0.2860817651E-04)
 total in muffin-tins        :    35.88696742    
 total calculated charge     :    37.99997047    
 total charge                :    38.00000000    
 error                       :   0.2952887138E-04
 
Wrote STATE.OUT
 
RMS change in Kohn-Sham potential (target) :   0.7462613742E-04 (   10.00000000    )
Absolute change in total energy (target)   :   0.6595812010E-05 (  0.1000000000E-07)
 
Time (CPU seconds) :       620.70
 
+--------------------+
| Loop number :   21 |
+--------------------+
 
Energies :
 Fermi                       :     0.144729808072    
 sum of eigenvalues          :     -1879.82616142    
 electron kinetic            :      3280.71696028    
 core electron kinetic       :      3233.49598695    
 Coulomb                     :     -6355.28493178    
 Coulomb potential           :     -5019.40190117    
 nuclear-nuclear             :     -258.095967035    
 electron-nuclear            :     -7174.97602831    
 Hartree                     :      1077.78706357    
 Madelung                    :     -3845.58398119    
 xc potential                :     -141.141220529    
 exchange                    :     -104.461966779    
 correlation                 :     -1.89122544092    
 total energy                :     -3180.92116371    
 
Density of states at Fermi energy :    66.70020453    
 (states/Hartree/unit cell)
 
Estimated indirect band gap :   0.3007773092E-03
 from k-point    147 to k-point      9
Estimated direct band gap   :   0.4007771518E-02
 at k-point     67
 
Charges :
 core                        :    28.00000000    
 valence                     :    10.00000000    
 interstitial                :    2.113032854    
 muffin-tins (core leakage)
  species :    1 (Sr)
   atom    1                 :    35.88696715     (  0.2860798681E-04)
 total in muffin-tins        :    35.88696715    
 total calculated charge     :    37.99997047    
 total charge                :    38.00000000    
 error                       :   0.2952868015E-04
 
RMS change in Kohn-Sham potential (target) :   0.2446349176E-04 (   10.00000000    )
Absolute change in total energy (target)   :   0.6110349204E-07 (  0.1000000000E-07)
 
Time (CPU seconds) :       650.47
 
+--------------------+
| Loop number :   22 |
+--------------------+
 
Energies :
 Fermi                       :     0.144729665110    
 sum of eigenvalues          :     -1879.82616418    
 electron kinetic            :      3280.71695942    
 core electron kinetic       :      3233.49598842    
 Coulomb                     :     -6355.28493208    
 Coulomb potential           :     -5019.40190306    
 nuclear-nuclear             :     -258.095967035    
 electron-nuclear            :     -7174.97602703    
 Hartree                     :      1077.78706198    
 Madelung                    :     -3845.58398055    
 xc potential                :     -141.141220537    
 exchange                    :     -104.461966790    
 correlation                 :     -1.89122543724    
 total energy                :     -3180.92116489    
 
Density of states at Fermi energy :    66.70021816    
 (states/Hartree/unit cell)
 
Estimated indirect band gap :   0.3007668084E-03
 from k-point    147 to k-point      9
Estimated direct band gap   :   0.4007768796E-02
 at k-point     67
 
Charges :
 core                        :    28.00000000    
 valence                     :    10.00000000    
 interstitial                :    2.113032959    
 muffin-tins (core leakage)
  species :    1 (Sr)
   atom    1                 :    35.88696704     (  0.2860813693E-04)
 total in muffin-tins        :    35.88696704    
 total calculated charge     :    37.99997047    
 total charge                :    38.00000000    
 error                       :   0.2952883698E-04
 
Wrote STATE.OUT
 
RMS change in Kohn-Sham potential (target) :   0.3049869402E-04 (   10.00000000    )
Absolute change in total energy (target)   :   0.1160135980E-05 (  0.1000000000E-07)
 
Time (CPU seconds) :       679.89
 
+--------------------+
| Loop number :   23 |
+--------------------+
 
Energies :
 Fermi                       :     0.144729607855    
 sum of eigenvalues          :     -1879.82616555    
 electron kinetic            :      3280.71695916    
 core electron kinetic       :      3233.49598912    
 Coulomb                     :     -6355.28493327    
 Coulomb potential           :     -5019.40190416    
 nuclear-nuclear             :     -258.095967035    
 electron-nuclear            :     -7174.97602831    
 Hartree                     :      1077.78706207    
 Madelung                    :     -3845.58398119    
 xc potential                :     -141.141220548    
 exchange                    :     -104.461966796    
 correlation                 :     -1.89122543668    
 total energy                :     -3180.92116635    
 
Density of states at Fermi energy :    66.70022252    
 (states/Hartree/unit cell)
 
Estimated indirect band gap :   0.3007627215E-03
 from k-point    147 to k-point      9
Estimated direct band gap   :   0.4007767885E-02
 at k-point     67
 
Charges :
 core                        :    28.00000000    
 valence                     :    10.00000000    
 interstitial                :    2.113033010    
 muffin-tins (core leakage)
  species :    1 (Sr)
   atom    1                 :    35.88696699     (  0.2860780427E-04)
 total in muffin-tins        :    35.88696699    
 total calculated charge     :    37.99997047    
 total charge                :    38.00000000    
 error                       :   0.2952852359E-04
 
RMS change in Kohn-Sham potential (target) :   0.6135921231E-04 (   10.00000000    )
Absolute change in total energy (target)   :   0.1748759132E-05 (  0.1000000000E-07)
 
Time (CPU seconds) :       710.81
 
+--------------------+
| Loop number :   24 |
+--------------------+
 
Energies :
 Fermi                       :     0.144729480871    
 sum of eigenvalues          :     -1879.82616779    
 electron kinetic            :      3280.71695125    
 core electron kinetic       :      3233.49598323    
 Coulomb                     :     -6355.28492727    
 Coulomb potential           :     -5019.40189856    
 nuclear-nuclear             :     -258.095967035    
 electron-nuclear            :     -7174.97602192    
 Hartree                     :      1077.78706168    
 Madelung                    :     -3845.58397799    
 xc potential                :     -141.141220476    
 exchange                    :     -104.461966743    
 correlation                 :     -1.89122543769    
 total energy                :     -3180.92116821    
 
Density of states at Fermi energy :    66.70025296    
 (states/Hartree/unit cell)
 
Estimated indirect band gap :   0.3007552452E-03
 from k-point    147 to k-point      9
Estimated direct band gap   :   0.4007763194E-02
 at k-point     67
 
Charges :
 core                        :    28.00000000    
 valence                     :    10.00000000    
 interstitial                :    2.113032923    
 muffin-tins (core leakage)
  species :    1 (Sr)
   atom    1                 :    35.88696708     (  0.2860814569E-04)
 total in muffin-tins        :    35.88696708    
 total calculated charge     :    37.99997047    
 total charge                :    38.00000000    
 error                       :   0.2952884458E-04
 
Wrote STATE.OUT
 
RMS change in Kohn-Sham potential (target) :   0.1103503342E-03 (   10.00000000    )
Absolute change in total energy (target)   :   0.2299042990E-05 (  0.1000000000E-07)
 
Time (CPU seconds) :       742.13
 
+--------------------+
| Loop number :   25 |
+--------------------+
 
Energies :
 Fermi                       :     0.144729535766    
 sum of eigenvalues          :     -1879.82616873    
 electron kinetic            :      3280.71695771    
 core electron kinetic       :      3233.49599124    
 Coulomb                     :     -6355.28493478    
 Coulomb potential           :     -5019.40190590    
 nuclear-nuclear             :     -258.095967035    
 electron-nuclear            :     -7174.97602959    
 Hartree                     :      1077.78706185    
 Madelung                    :     -3845.58398183    
 xc potential                :     -141.141220542    
 exchange                    :     -104.461966788    
 correlation                 :     -1.89122543512    
 total energy                :     -3180.92116929    
 
Density of states at Fermi energy :    66.70021832    
 (states/Hartree/unit cell)
 
Estimated indirect band gap :   0.3007625823E-03
 from k-point    147 to k-point      9
Estimated direct band gap   :   0.4007768533E-02
 at k-point     67
 
Charges :
 core                        :    28.00000000    
 valence                     :    10.00000000    
 interstitial                :    2.113033071    
 muffin-tins (core leakage)
  species :    1 (Sr)
   atom    1                 :    35.88696693     (  0.2860804591E-04)
 total in muffin-tins        :    35.88696693    
 total calculated charge     :    37.99997047    
 total charge                :    38.00000000    
 error                       :   0.2952875578E-04
 
RMS change in Kohn-Sham potential (target) :   0.1280121793E-03 (   10.00000000    )
Absolute change in total energy (target)   :   0.1659669579E-05 (  0.1000000000E-07)
 
Time (CPU seconds) :       771.62
 
+--------------------+
| Loop number :   26 |
+--------------------+
 
Energies :
 Fermi                       :     0.144729517741    
 sum of eigenvalues          :     -1879.82616913    
 electron kinetic            :      3280.71695742    
 core electron kinetic       :      3233.49599153    
 Coulomb                     :     -6355.28493483    
 Coulomb potential           :     -5019.40190600    
 nuclear-nuclear             :     -258.095967035    
 electron-nuclear            :     -7174.97602959    
 Hartree                     :      1077.78706179    
 Madelung                    :     -3845.58398183    
 xc potential                :     -141.141220551    
 exchange                    :     -104.461966795    
 correlation                 :     -1.89122543489    
 total energy                :     -3180.92116963    
 
Density of states at Fermi energy :    66.70022064    
 (states/Hartree/unit cell)
 
Estimated indirect band gap :   0.3007611006E-03
 from k-point    147 to k-point      9
Estimated direct band gap   :   0.4007768092E-02
 at k-point     67
 
Charges :
 core                        :    28.00000000    
 valence                     :    10.00000000    
 interstitial                :    2.113033081    
 muffin-tins (core leakage)
  species :    1 (Sr)
   atom    1                 :    35.88696692     (  0.2860804901E-04)
 total in muffin-tins        :    35.88696692    
 total calculated charge     :    37.99997047    
 total charge                :    38.00000000    
 error                       :   0.2952874989E-04
 
Wrote STATE.OUT
 
RMS change in Kohn-Sham potential (target) :   0.2690819277E-04 (   10.00000000    )
Absolute change in total energy (target)   :   0.7570574780E-06 (  0.1000000000E-07)
 
Time (CPU seconds) :       800.52
 
+--------------------+
| Loop number :   27 |
+--------------------+
 
Energies :
 Fermi                       :     0.144729542886    
 sum of eigenvalues          :     -1879.82616914    
 electron kinetic            :      3280.71695801    
 core electron kinetic       :      3233.49599169    
 Coulomb                     :     -6355.28493577    
 Coulomb potential           :     -5019.40190660    
 nuclear-nuclear             :     -258.095967035    
 electron-nuclear            :     -7174.97603086    
 Hartree                     :      1077.78706213    
 Madelung                    :     -3845.58398247    
 xc potential                :     -141.141220555    
 exchange                    :     -104.461966796    
 correlation                 :     -1.89122543521    
 total energy                :     -3180.92116998    
 
Density of states at Fermi energy :    66.70021292    
 (states/Hartree/unit cell)
 
Estimated indirect band gap :   0.3007642475E-03
 from k-point    147 to k-point      9
Estimated direct band gap   :   0.4007769408E-02
 at k-point     67
 
Charges :
 core                        :    28.00000000    
 valence                     :    10.00000000    
 interstitial                :    2.113033084    
 muffin-tins (core leakage)
  species :    1 (Sr)
   atom    1                 :    35.88696692     (  0.2860817062E-04)
 total in muffin-tins        :    35.88696692    
 total calculated charge     :    37.99997047    
 total charge                :    38.00000000    
 error                       :   0.2952892150E-04
 
RMS change in Kohn-Sham potential (target) :   0.9040974320E-04 (   10.00000000    )
Absolute change in total energy (target)   :   0.5380184120E-06 (  0.1000000000E-07)
 
Time (CPU seconds) :       828.15
 
+--------------------+
| Loop number :   28 |
+--------------------+
 
Energies :
 Fermi                       :     0.144729575920    
 sum of eigenvalues          :     -1879.82616848    
 electron kinetic            :      3280.71695832    
 core electron kinetic       :      3233.49599160    
 Coulomb                     :     -6355.28493559    
 Coulomb potential           :     -5019.40190625    
 nuclear-nuclear             :     -258.095967035    
 electron-nuclear            :     -7174.97603086    
 Hartree                     :      1077.78706231    
 Madelung                    :     -3845.58398247    
 xc potential                :     -141.141220554    
 exchange                    :     -104.461966794    
 correlation                 :     -1.89122543577    
 total energy                :     -3180.92116950    
 
Density of states at Fermi energy :    66.70020895    
 (states/Hartree/unit cell)
 
Estimated indirect band gap :   0.3007668549E-03
 from k-point    147 to k-point      9
Estimated direct band gap   :   0.4007770154E-02
 at k-point     67
 
Charges :
 core                        :    28.00000000    
 valence                     :    10.00000000    
 interstitial                :    2.113033062    
 muffin-tins (core leakage)
  species :    1 (Sr)
   atom    1                 :    35.88696694     (  0.2860822443E-04)
 total in muffin-tins        :    35.88696694    
 total calculated charge     :    37.99997047    
 total charge                :    38.00000000    
 error                       :   0.2952891676E-04
 
Wrote STATE.OUT
 
RMS change in Kohn-Sham potential (target) :   0.8680739675E-05 (   10.00000000    )
Absolute change in total energy (target)   :   0.3469208423E-06 (  0.1000000000E-07)
 
Time (CPU seconds) :       855.20
 
+--------------------+
| Loop number :   29 |
+--------------------+
 
Energies :
 Fermi                       :     0.144729600555    
 sum of eigenvalues          :     -1879.82616813    
 electron kinetic            :      3280.71695860    
 core electron kinetic       :      3233.49599173    
 Coulomb                     :     -6355.28493555    
 Coulomb potential           :     -5019.40190617    
 nuclear-nuclear             :     -258.095967035    
 electron-nuclear            :     -7174.97603086    
 Hartree                     :      1077.78706235    
 Madelung                    :     -3845.58398247    
 xc potential                :     -141.141220552    
 exchange                    :     -104.461966789    
 correlation                 :     -1.89122543676    
 total energy                :     -3180.92116918    
 
Density of states at Fermi energy :    66.70020407    
 (states/Hartree/unit cell)
 
Estimated indirect band gap :   0.3007691724E-03
 from k-point    147 to k-point      9
Estimated direct band gap   :   0.4007770999E-02
 at k-point     67
 
Charges :
 core                        :    28.00000000    
 valence                     :    10.00000000    
 interstitial                :    2.113033054    
 muffin-tins (core leakage)
  species :    1 (Sr)
   atom    1                 :    35.88696695     (  0.2860790990E-04)
 total in muffin-tins        :    35.88696695    
 total calculated charge     :    37.99997047    
 total charge                :    38.00000000    
 error                       :   0.2952861192E-04
 
RMS change in Kohn-Sham potential (target) :   0.4902759983E-04 (   10.00000000    )
Absolute change in total energy (target)   :   0.4064759196E-06 (  0.1000000000E-07)
 
Time (CPU seconds) :       883.29
 
+--------------------+
| Loop number :   30 |
+--------------------+
 
Energies :
 Fermi                       :     0.144729622707    
 sum of eigenvalues          :     -1879.82616784    
 electron kinetic            :      3280.71695934    
 core electron kinetic       :      3233.49599258    
 Coulomb                     :     -6355.28493578    
 Coulomb potential           :     -5019.40190663    
 nuclear-nuclear             :     -258.095967035    
 electron-nuclear            :     -7174.97603086    
 Hartree                     :      1077.78706212    
 Madelung                    :     -3845.58398247    
 xc potential                :     -141.141220556    
 exchange                    :     -104.461966792    
 correlation                 :     -1.89122543667    
 total energy                :     -3180.92116867    
 
Density of states at Fermi energy :    66.70019877    
 (states/Hartree/unit cell)
 
Estimated indirect band gap :   0.3007712358E-03
 from k-point    147 to k-point      9
Estimated direct band gap   :   0.4007771880E-02
 at k-point     67
 
Charges :
 core                        :    28.00000000    
 valence                     :    10.00000000    
 interstitial                :    2.113033055    
 muffin-tins (core leakage)
  species :    1 (Sr)
   atom    1                 :    35.88696694     (  0.2860803841E-04)
 total in muffin-tins        :    35.88696694    
 total calculated charge     :    37.99997047    
 total charge                :    38.00000000    
 error                       :   0.2952874006E-04
 
Wrote STATE.OUT
 
RMS change in Kohn-Sham potential (target) :   0.2660918211E-03 (   10.00000000    )
Absolute change in total energy (target)   :   0.6188829502E-06 (  0.1000000000E-07)
 
Time (CPU seconds) :       910.77
 
+--------------------+
| Loop number :   31 |
+--------------------+
 
Energies :
 Fermi                       :     0.144729605495    
 sum of eigenvalues          :     -1879.82616814    
 electron kinetic            :      3280.71695906    
 core electron kinetic       :      3233.49599217    
 Coulomb                     :     -6355.28493579    
 Coulomb potential           :     -5019.40190664    
 nuclear-nuclear             :     -258.095967035    
 electron-nuclear            :     -7174.97603086    
 Hartree                     :      1077.78706211    
 Madelung                    :     -3845.58398247    
 xc potential                :     -141.141220556    
 exchange                    :     -104.461966794    
 correlation                 :     -1.89122543624    
 total energy                :     -3180.92116896    
 
Density of states at Fermi energy :    66.70020218    
 (states/Hartree/unit cell)
 
Estimated indirect band gap :   0.3007696781E-03
 from k-point    147 to k-point      9
Estimated direct band gap   :   0.4007771301E-02
 at k-point     67
 
Charges :
 core                        :    28.00000000    
 valence                     :    10.00000000    
 interstitial                :    2.113033060    
 muffin-tins (core leakage)
  species :    1 (Sr)
   atom    1                 :    35.88696694     (  0.2860816301E-04)
 total in muffin-tins        :    35.88696694    
 total calculated charge     :    37.99997047    
 total charge                :    38.00000000    
 error                       :   0.2952887709E-04
 
RMS change in Kohn-Sham potential (target) :   0.7313165513E-04 (   10.00000000    )
Absolute change in total energy (target)   :   0.1397070264E-06 (  0.1000000000E-07)
 
Time (CPU seconds) :       937.76
 
+--------------------+
| Loop number :   32 |
+--------------------+
 
Energies :
 Fermi                       :     0.144729644158    
 sum of eigenvalues          :     -1879.82616756    
 electron kinetic            :      3280.71695980    
 core electron kinetic       :      3233.49599244    
 Coulomb                     :     -6355.28493587    
 Coulomb potential           :     -5019.40190681    
 nuclear-nuclear             :     -258.095967035    
 electron-nuclear            :     -7174.97603086    
 Hartree                     :      1077.78706203    
 Madelung                    :     -3845.58398247    
 xc potential                :     -141.141220556    
 exchange                    :     -104.461966789    
 correlation                 :     -1.89122543741    
 total energy                :     -3180.92116830    
 
Density of states at Fermi energy :    66.70019394    
 (states/Hartree/unit cell)
 
Estimated indirect band gap :   0.3007733687E-03
 from k-point    147 to k-point      9
Estimated direct band gap   :   0.4007772699E-02
 at k-point     67
 
Charges :
 core                        :    28.00000000    
 valence                     :    10.00000000    
 interstitial                :    2.113033051    
 muffin-tins (core leakage)
  species :    1 (Sr)
   atom    1                 :    35.88696695     (  0.2860819081E-04)
 total in muffin-tins        :    35.88696695    
 total calculated charge     :    37.99997047    
 total charge                :    38.00000000    
 error                       :   0.2952893459E-04
 
Wrote STATE.OUT
 
RMS change in Kohn-Sham potential (target) :   0.1641563867E-03 (   10.00000000    )
Absolute change in total energy (target)   :   0.6285563359E-06 (  0.1000000000E-07)
 
Time (CPU seconds) :       964.42
 
+--------------------+
| Loop number :   33 |
+--------------------+
 
Energies :
 Fermi                       :     0.144729663148    
 sum of eigenvalues          :     -1879.82616711    
 electron kinetic            :      3280.71696017    
 core electron kinetic       :      3233.49599269    
 Coulomb                     :     -6355.28493647    
 Coulomb potential           :     -5019.40190672    
 nuclear-nuclear             :     -258.095967035    
 electron-nuclear            :     -7174.97603214    
 Hartree                     :      1077.78706271    
 Madelung                    :     -3845.58398311    
 xc potential                :     -141.141220557    
 exchange                    :     -104.461966793    
 correlation                 :     -1.89122543675    
 total energy                :     -3180.92116853    
 
Density of states at Fermi energy :    66.70019111    
 (states/Hartree/unit cell)
 
Estimated indirect band gap :   0.3007748013E-03
 from k-point    147 to k-point      9
Estimated direct band gap   :   0.4007773184E-02
 at k-point     67
 
Charges :
 core                        :    28.00000000    
 valence                     :    10.00000000    
 interstitial                :    2.113033043    
 muffin-tins (core leakage)
  species :    1 (Sr)
   atom    1                 :    35.88696696     (  0.2860809931E-04)
 total in muffin-tins        :    35.88696696    
 total calculated charge     :    37.99997047    
 total charge                :    38.00000000    
 error                       :   0.2952878658E-04
 
RMS change in Kohn-Sham potential (target) :   0.2168476809E-03 (   10.00000000    )
Absolute change in total energy (target)   :   0.7728885976E-07 (  0.1000000000E-07)
 
Time (CPU seconds) :       991.28
 
+--------------------+
| Loop number :   34 |
+--------------------+
 
Energies :
 Fermi                       :     0.144729655149    
 sum of eigenvalues          :     -1879.82616717    
 electron kinetic            :      3280.71696001    
 core electron kinetic       :      3233.49599248    
 Coulomb                     :     -6355.28493578    
 Coulomb potential           :     -5019.40190663    
 nuclear-nuclear             :     -258.095967035    
 electron-nuclear            :     -7174.97603086    
 Hartree                     :      1077.78706212    
 Madelung                    :     -3845.58398247    
 xc potential                :     -141.141220555    
 exchange                    :     -104.461966791    
 correlation                 :     -1.89122543690    
 total energy                :     -3180.92116800    
 
Density of states at Fermi energy :    66.70019275    
 (states/Hartree/unit cell)
 
Estimated indirect band gap :   0.3007739864E-03
 from k-point    147 to k-point      9
Estimated direct band gap   :   0.4007772889E-02
 at k-point     67
 
Charges :
 core                        :    28.00000000    
 valence                     :    10.00000000    
 interstitial                :    2.113033045    
 muffin-tins (core leakage)
  species :    1 (Sr)
   atom    1                 :    35.88696696     (  0.2860815345E-04)
 total in muffin-tins        :    35.88696696    
 total calculated charge     :    37.99997047    
 total charge                :    38.00000000    
 error                       :   0.2952886184E-04
 
Wrote STATE.OUT
 
RMS change in Kohn-Sham potential (target) :   0.6461983805E-04 (   10.00000000    )
Absolute change in total energy (target)   :   0.5115498425E-06 (  0.1000000000E-07)
 
Time (CPU seconds) :      1019.30
 
+--------------------+
| Loop number :   35 |
+--------------------+
 
Energies :
 Fermi                       :     0.144729658098    
 sum of eigenvalues          :     -1879.82616708    
 electron kinetic            :      3280.71696010    
 core electron kinetic       :      3233.49599252    
 Coulomb                     :     -6355.28493578    
 Coulomb potential           :     -5019.40190663    
 nuclear-nuclear             :     -258.095967035    
 electron-nuclear            :     -7174.97603086    
 Hartree                     :      1077.78706212    
 Madelung                    :     -3845.58398247    
 xc potential                :     -141.141220556    
 exchange                    :     -104.461966792    
 correlation                 :     -1.89122543662    
 total energy                :     -3180.92116791    
 
Density of states at Fermi energy :    66.70019227    
 (states/Hartree/unit cell)
 
Estimated indirect band gap :   0.3007741869E-03
 from k-point    147 to k-point      9
Estimated direct band gap   :   0.4007772965E-02
 at k-point     67
 
Charges :
 core                        :    28.00000000    
 valence                     :    10.00000000    
 interstitial                :    2.113033044    
 muffin-tins (core leakage)
  species :    1 (Sr)
   atom    1                 :    35.88696696     (  0.2860810669E-04)
 total in muffin-tins        :    35.88696696    
 total calculated charge     :    37.99997047    
 total charge                :    38.00000000    
 error                       :   0.2952881082E-04
 
RMS change in Kohn-Sham potential (target) :   0.3296938525E-04 (   10.00000000    )
Absolute change in total energy (target)   :   0.2164947546E-06 (  0.1000000000E-07)
 
Time (CPU seconds) :      1047.06
 
+--------------------+
| Loop number :   36 |
+--------------------+
 
Energies :
 Fermi                       :     0.144729660053    
 sum of eigenvalues          :     -1879.82616703    
 electron kinetic            :      3280.71696014    
 core electron kinetic       :      3233.49599258    
 Coulomb                     :     -6355.28493577    
 Coulomb potential           :     -5019.40190661    
 nuclear-nuclear             :     -258.095967035    
 electron-nuclear            :     -7174.97603086    
 Hartree                     :      1077.78706213    
 Madelung                    :     -3845.58398247    
 xc potential                :     -141.141220555    
 exchange                    :     -104.461966792    
 correlation                 :     -1.89122543651    
 total energy                :     -3180.92116786    
 
Density of states at Fermi energy :    66.70019192    
 (states/Hartree/unit cell)
 
Estimated indirect band gap :   0.3007743195E-03
 from k-point    147 to k-point      9
Estimated direct band gap   :   0.4007773018E-02
 at k-point     67
 
Charges :
 core                        :    28.00000000    
 valence                     :    10.00000000    
 interstitial                :    2.113033043    
 muffin-tins (core leakage)
  species :    1 (Sr)
   atom    1                 :    35.88696696     (  0.2860808150E-04)
 total in muffin-tins        :    35.88696696    
 total calculated charge     :    37.99997047    
 total charge                :    38.00000000    
 error                       :   0.2952881195E-04
 
Wrote STATE.OUT
 
RMS change in Kohn-Sham potential (target) :   0.2026469632E-03 (   10.00000000    )
Absolute change in total energy (target)   :   0.1030120984E-06 (  0.1000000000E-07)
 
Time (CPU seconds) :      1074.04
 
+--------------------+
| Loop number :   37 |
+--------------------+
 
Energies :
 Fermi                       :     0.144729652523    
 sum of eigenvalues          :     -1879.82616712    
 electron kinetic            :      3280.71696000    
 core electron kinetic       :      3233.49599243    
 Coulomb                     :     -6355.28493575    
 Coulomb potential           :     -5019.40190657    
 nuclear-nuclear             :     -258.095967035    
 electron-nuclear            :     -7174.97603086    
 Hartree                     :      1077.78706215    
 Madelung                    :     -3845.58398247    
 xc potential                :     -141.141220555    
 exchange                    :     -104.461966791    
 correlation                 :     -1.89122543677    
 total energy                :     -3180.92116798    
 
Density of states at Fermi energy :    66.70019350    
 (states/Hartree/unit cell)
 
Estimated indirect band gap :   0.3007735773E-03
 from k-point    147 to k-point      9
Estimated direct band gap   :   0.4007772746E-02
 at k-point     67
 
Charges :
 core                        :    28.00000000    
 valence                     :    10.00000000    
 interstitial                :    2.113033046    
 muffin-tins (core leakage)
  species :    1 (Sr)
   atom    1                 :    35.88696695     (  0.2860795134E-04)
 total in muffin-tins        :    35.88696695    
 total calculated charge     :    37.99997047    
 total charge                :    38.00000000    
 error                       :   0.2952866013E-04
 
RMS change in Kohn-Sham potential (target) :   0.5275614701E-04 (   10.00000000    )
Absolute change in total energy (target)   :   0.9112181942E-07 (  0.1000000000E-07)
 
Time (CPU seconds) :      1100.71
 
+--------------------+
| Loop number :   38 |
+--------------------+
 
Energies :
 Fermi                       :     0.144729658370    
 sum of eigenvalues          :     -1879.82616702    
 electron kinetic            :      3280.71696018    
 core electron kinetic       :      3233.49599254    
 Coulomb                     :     -6355.28493579    
 Coulomb potential           :     -5019.40190665    
 nuclear-nuclear             :     -258.095967035    
 electron-nuclear            :     -7174.97603086    
 Hartree                     :      1077.78706211    
 Madelung                    :     -3845.58398247    
 xc potential                :     -141.141220555    
 exchange                    :     -104.461966791    
 correlation                 :     -1.89122543694    
 total energy                :     -3180.92116784    
 
Density of states at Fermi energy :    66.70019229    
 (states/Hartree/unit cell)
 
Estimated indirect band gap :   0.3007741070E-03
 from k-point    147 to k-point      9
Estimated direct band gap   :   0.4007772948E-02
 at k-point     67
 
Charges :
 core                        :    28.00000000    
 valence                     :    10.00000000    
 interstitial                :    2.113033044    
 muffin-tins (core leakage)
  species :    1 (Sr)
   atom    1                 :    35.88696696     (  0.2860798335E-04)
 total in muffin-tins        :    35.88696696    
 total calculated charge     :    37.99997047    
 total charge                :    38.00000000    
 error                       :   0.2952871871E-04
 
Wrote STATE.OUT
 
RMS change in Kohn-Sham potential (target) :   0.3268165990E-04 (   10.00000000    )
Absolute change in total energy (target)   :   0.1168568815E-06 (  0.1000000000E-07)
 
Time (CPU seconds) :      1127.42
 
+--------------------+
| Loop number :   39 |
+--------------------+
 
Energies :
 Fermi                       :     0.144729662518    
 sum of eigenvalues          :     -1879.82616695    
 electron kinetic            :      3280.71696026    
 core electron kinetic       :      3233.49599260    
 Coulomb                     :     -6355.28493579    
 Coulomb potential           :     -5019.40190665    
 nuclear-nuclear             :     -258.095967035    
 electron-nuclear            :     -7174.97603086    
 Hartree                     :      1077.78706210    
 Madelung                    :     -3845.58398247    
 xc potential                :     -141.141220555    
 exchange                    :     -104.461966791    
 correlation                 :     -1.89122543688    
 total energy                :     -3180.92116776    
 
Density of states at Fermi energy :    66.70019148    
 (states/Hartree/unit cell)
 
Estimated indirect band gap :   0.3007744807E-03
 from k-point    147 to k-point      9
Estimated direct band gap   :   0.4007773087E-02
 at k-point     67
 
Charges :
 core                        :    28.00000000    
 valence                     :    10.00000000    
 interstitial                :    2.113033043    
 muffin-tins (core leakage)
  species :    1 (Sr)
   atom    1                 :    35.88696696     (  0.2860809487E-04)
 total in muffin-tins        :    35.88696696    
 total calculated charge     :    37.99997047    
 total charge                :    38.00000000    
 error                       :   0.2952879399E-04
 
RMS change in Kohn-Sham potential (target) :   0.2422024192E-04 (   10.00000000    )
Absolute change in total energy (target)   :   0.1040571078E-06 (  0.1000000000E-07)
 
Time (CPU seconds) :      1153.90
 
+--------------------+
| Loop number :   40 |
+--------------------+
 
Energies :
 Fermi                       :     0.144729662318    
 sum of eigenvalues          :     -1879.82616696    
 electron kinetic            :      3280.71696019    
 core electron kinetic       :      3233.49599249    
 Coulomb                     :     -6355.28493576    
 Coulomb potential           :     -5019.40190659    
 nuclear-nuclear             :     -258.095967035    
 electron-nuclear            :     -7174.97603086    
 Hartree                     :      1077.78706214    
 Madelung                    :     -3845.58398247    
 xc potential                :     -141.141220554    
 exchange                    :     -104.461966788    
 correlation                 :     -1.89122543728    
 total energy                :     -3180.92116780    
 
Density of states at Fermi energy :    66.70019152    
 (states/Hartree/unit cell)
 
Estimated indirect band gap :   0.3007744621E-03
 from k-point    147 to k-point      9
Estimated direct band gap   :   0.4007773080E-02
 at k-point     67
 
Charges :
 core                        :    28.00000000    
 valence                     :    10.00000000    
 interstitial                :    2.113033043    
 muffin-tins (core leakage)
  species :    1 (Sr)
   atom    1                 :    35.88696696     (  0.2860806710E-04)
 total in muffin-tins        :    35.88696696    
 total calculated charge     :    37.99997047    
 total charge                :    38.00000000    
 error                       :   0.2952876882E-04
 
Wrote STATE.OUT
 
RMS change in Kohn-Sham potential (target) :   0.5817746680E-04 (   10.00000000    )
Absolute change in total energy (target)   :   0.9351424524E-08 (  0.1000000000E-07)
 
Convergence targets achieved
 
Time (CPU seconds) :      1181.81
 
+--------------------+
| Loop number :   41 |
+--------------------+
 
Energies :
 Fermi                       :     0.144729665489    
 sum of eigenvalues          :     -1879.82616690    
 electron kinetic            :      3280.71696026    
 core electron kinetic       :      3233.49599255    
 Coulomb                     :     -6355.28493577    
 Coulomb potential           :     -5019.40190660    
 nuclear-nuclear             :     -258.095967035    
 electron-nuclear            :     -7174.97603086    
 Hartree                     :      1077.78706213    
 Madelung                    :     -3845.58398247    
 xc potential                :     -141.141220554    
 exchange                    :     -104.461966789    
 correlation                 :     -1.89122543715    
 total energy                :     -3180.92116774    
 
Density of states at Fermi energy :    66.70019088    
 (states/Hartree/unit cell)
 
Estimated indirect band gap :   0.3007747443E-03
 from k-point    147 to k-point      9
Estimated direct band gap   :   0.4007773187E-02
 at k-point     67
 
Charges :
 core                        :    28.00000000    
 valence                     :    10.00000000    
 interstitial                :    2.113033042    
 muffin-tins (core leakage)
  species :    1 (Sr)
   atom    1                 :    35.88696696     (  0.2860810838E-04)
 total in muffin-tins        :    35.88696696    
 total calculated charge     :    37.99997047    
 total charge                :    38.00000000    
 error                       :   0.2952881242E-04
 
+------------------------------+
| Self-consistent loop stopped |
+------------------------------+
 
Wrote STATE.OUT
 
Timings (CPU seconds) :
 initialisation                        :         3.59
 Hamiltonian and overlap matrix set up :       304.90
 first-variational eigenvalue equation :       404.37
 charge density calculation            :        57.52
 potential calculation                 :       438.31
 total                                 :      1208.70
 
+----------------------------+
| Elk version 8.3.15 stopped |
+----------------------------+
