   297 : nkpt; k-point, vkl, wkpt, nmat below
     1   0.000000000       0.000000000       0.000000000      0.2035416243E-03     485
     2  0.5882352941E-01   0.000000000       0.000000000      0.1221249746E-02     483
     3  0.1176470588       0.000000000       0.000000000      0.1221249746E-02     484
     4  0.1764705882       0.000000000       0.000000000      0.1221249746E-02     484
     5  0.2352941176       0.000000000       0.000000000      0.1221249746E-02     478
     6  0.2941176471       0.000000000       0.000000000      0.1221249746E-02     468
     7  0.3529411765       0.000000000       0.000000000      0.1221249746E-02     476
     8  0.4117647059       0.000000000       0.000000000      0.1221249746E-02     476
     9  0.4705882353       0.000000000       0.000000000      0.1221249746E-02     474
    10  0.5882352941E-01  0.5882352941E-01   0.000000000      0.1221249746E-02     481
    11  0.1176470588      0.5882352941E-01   0.000000000      0.2442499491E-02     481
    12  0.1764705882      0.5882352941E-01   0.000000000      0.2442499491E-02     479
    13  0.2352941176      0.5882352941E-01   0.000000000      0.2442499491E-02     480
    14  0.2941176471      0.5882352941E-01   0.000000000      0.2442499491E-02     475
    15  0.3529411765      0.5882352941E-01   0.000000000      0.2442499491E-02     476
    16  0.4117647059      0.5882352941E-01   0.000000000      0.2442499491E-02     474
    17  0.4705882353      0.5882352941E-01   0.000000000      0.1221249746E-02     474
    18  0.1176470588      0.1176470588       0.000000000      0.1221249746E-02     479
    19  0.1764705882      0.1176470588       0.000000000      0.2442499491E-02     477
    20  0.2352941176      0.1176470588       0.000000000      0.2442499491E-02     477
    21  0.2941176471      0.1176470588       0.000000000      0.2442499491E-02     474
    22  0.3529411765      0.1176470588       0.000000000      0.2442499491E-02     471
    23  0.4117647059      0.1176470588       0.000000000      0.2442499491E-02     470
    24  0.1764705882      0.1764705882       0.000000000      0.1221249746E-02     471
    25  0.2352941176      0.1764705882       0.000000000      0.2442499491E-02     474
    26  0.2941176471      0.1764705882       0.000000000      0.2442499491E-02     472
    27  0.3529411765      0.1764705882       0.000000000      0.2442499491E-02     468
    28  0.4117647059      0.1764705882       0.000000000      0.1221249746E-02     470
    29  0.2352941176      0.2352941176       0.000000000      0.1221249746E-02     477
    30  0.2941176471      0.2352941176       0.000000000      0.2442499491E-02     471
    31  0.3529411765      0.2352941176       0.000000000      0.2442499491E-02     464
    32  0.2941176471      0.2941176471       0.000000000      0.1221249746E-02     469
    33  0.3529411765      0.2941176471       0.000000000      0.1221249746E-02     464
    34   0.000000000       0.000000000      0.5882352941E-01  0.4070832485E-03     491
    35  0.5882352941E-01   0.000000000      0.5882352941E-01  0.2442499491E-02     484
    36  0.1176470588       0.000000000      0.5882352941E-01  0.2442499491E-02     481
    37  0.1764705882       0.000000000      0.5882352941E-01  0.2442499491E-02     483
    38  0.2352941176       0.000000000      0.5882352941E-01  0.2442499491E-02     478
    39  0.2941176471       0.000000000      0.5882352941E-01  0.2442499491E-02     475
    40  0.3529411765       0.000000000      0.5882352941E-01  0.2442499491E-02     478
    41  0.4117647059       0.000000000      0.5882352941E-01  0.2442499491E-02     475
    42  0.4705882353       0.000000000      0.5882352941E-01  0.2442499491E-02     474
    43  0.5882352941E-01  0.5882352941E-01  0.5882352941E-01  0.2442499491E-02     479
    44  0.1176470588      0.5882352941E-01  0.5882352941E-01  0.4884998982E-02     481
    45  0.1764705882      0.5882352941E-01  0.5882352941E-01  0.4884998982E-02     481
    46  0.2352941176      0.5882352941E-01  0.5882352941E-01  0.4884998982E-02     478
    47  0.2941176471      0.5882352941E-01  0.5882352941E-01  0.4884998982E-02     477
    48  0.3529411765      0.5882352941E-01  0.5882352941E-01  0.4884998982E-02     475
    49  0.4117647059      0.5882352941E-01  0.5882352941E-01  0.4884998982E-02     474
    50  0.4705882353      0.5882352941E-01  0.5882352941E-01  0.2442499491E-02     474
    51  0.1176470588      0.1176470588      0.5882352941E-01  0.2442499491E-02     480
    52  0.1764705882      0.1176470588      0.5882352941E-01  0.4884998982E-02     479
    53  0.2352941176      0.1176470588      0.5882352941E-01  0.4884998982E-02     475
    54  0.2941176471      0.1176470588      0.5882352941E-01  0.4884998982E-02     473
    55  0.3529411765      0.1176470588      0.5882352941E-01  0.4884998982E-02     472
    56  0.4117647059      0.1176470588      0.5882352941E-01  0.4884998982E-02     472
    57  0.1764705882      0.1764705882      0.5882352941E-01  0.2442499491E-02     473
    58  0.2352941176      0.1764705882      0.5882352941E-01  0.4884998982E-02     471
    59  0.2941176471      0.1764705882      0.5882352941E-01  0.4884998982E-02     472
    60  0.3529411765      0.1764705882      0.5882352941E-01  0.4884998982E-02     467
    61  0.4117647059      0.1764705882      0.5882352941E-01  0.2442499491E-02     466
    62  0.2352941176      0.2352941176      0.5882352941E-01  0.2442499491E-02     473
    63  0.2941176471      0.2352941176      0.5882352941E-01  0.4884998982E-02     470
    64  0.3529411765      0.2352941176      0.5882352941E-01  0.4884998982E-02     466
    65  0.2941176471      0.2941176471      0.5882352941E-01  0.2442499491E-02     465
    66  0.3529411765      0.2941176471      0.5882352941E-01  0.2442499491E-02     464
    67   0.000000000       0.000000000      0.1176470588      0.4070832485E-03     485
    68  0.5882352941E-01   0.000000000      0.1176470588      0.2442499491E-02     483
    69  0.1176470588       0.000000000      0.1176470588      0.2442499491E-02     479
    70  0.1764705882       0.000000000      0.1176470588      0.2442499491E-02     479
    71  0.2352941176       0.000000000      0.1176470588      0.2442499491E-02     479
    72  0.2941176471       0.000000000      0.1176470588      0.2442499491E-02     479
    73  0.3529411765       0.000000000      0.1176470588      0.2442499491E-02     476
    74  0.4117647059       0.000000000      0.1176470588      0.2442499491E-02     477
    75  0.4705882353       0.000000000      0.1176470588      0.2442499491E-02     474
    76  0.5882352941E-01  0.5882352941E-01  0.1176470588      0.2442499491E-02     477
    77  0.1176470588      0.5882352941E-01  0.1176470588      0.4884998982E-02     480
    78  0.1764705882      0.5882352941E-01  0.1176470588      0.4884998982E-02     482
    79  0.2352941176      0.5882352941E-01  0.1176470588      0.4884998982E-02     477
    80  0.2941176471      0.5882352941E-01  0.1176470588      0.4884998982E-02     476
    81  0.3529411765      0.5882352941E-01  0.1176470588      0.4884998982E-02     475
    82  0.4117647059      0.5882352941E-01  0.1176470588      0.4884998982E-02     476
    83  0.4705882353      0.5882352941E-01  0.1176470588      0.2442499491E-02     474
    84  0.1176470588      0.1176470588      0.1176470588      0.2442499491E-02     482
    85  0.1764705882      0.1176470588      0.1176470588      0.4884998982E-02     478
    86  0.2352941176      0.1176470588      0.1176470588      0.4884998982E-02     475
    87  0.2941176471      0.1176470588      0.1176470588      0.4884998982E-02     475
    88  0.3529411765      0.1176470588      0.1176470588      0.4884998982E-02     472
    89  0.4117647059      0.1176470588      0.1176470588      0.4884998982E-02     470
    90  0.1764705882      0.1764705882      0.1176470588      0.2442499491E-02     475
    91  0.2352941176      0.1764705882      0.1176470588      0.4884998982E-02     471
    92  0.2941176471      0.1764705882      0.1176470588      0.4884998982E-02     471
    93  0.3529411765      0.1764705882      0.1176470588      0.4884998982E-02     470
    94  0.4117647059      0.1764705882      0.1176470588      0.2442499491E-02     468
    95  0.2352941176      0.2352941176      0.1176470588      0.2442499491E-02     471
    96  0.2941176471      0.2352941176      0.1176470588      0.4884998982E-02     471
    97  0.3529411765      0.2352941176      0.1176470588      0.4884998982E-02     467
    98  0.2941176471      0.2941176471      0.1176470588      0.2442499491E-02     468
    99  0.3529411765      0.2941176471      0.1176470588      0.2442499491E-02     464
   100   0.000000000       0.000000000      0.1764705882      0.4070832485E-03     485
   101  0.5882352941E-01   0.000000000      0.1764705882      0.2442499491E-02     481
   102  0.1176470588       0.000000000      0.1764705882      0.2442499491E-02     476
   103  0.1764705882       0.000000000      0.1764705882      0.2442499491E-02     477
   104  0.2352941176       0.000000000      0.1764705882      0.2442499491E-02     479
   105  0.2941176471       0.000000000      0.1764705882      0.2442499491E-02     476
   106  0.3529411765       0.000000000      0.1764705882      0.2442499491E-02     478
   107  0.4117647059       0.000000000      0.1764705882      0.2442499491E-02     477
   108  0.4705882353       0.000000000      0.1764705882      0.2442499491E-02     477
   109  0.5882352941E-01  0.5882352941E-01  0.1764705882      0.2442499491E-02     475
   110  0.1176470588      0.5882352941E-01  0.1764705882      0.4884998982E-02     479
   111  0.1764705882      0.5882352941E-01  0.1764705882      0.4884998982E-02     479
   112  0.2352941176      0.5882352941E-01  0.1764705882      0.4884998982E-02     476
   113  0.2941176471      0.5882352941E-01  0.1764705882      0.4884998982E-02     476
   114  0.3529411765      0.5882352941E-01  0.1764705882      0.4884998982E-02     474
   115  0.4117647059      0.5882352941E-01  0.1764705882      0.4884998982E-02     475
   116  0.4705882353      0.5882352941E-01  0.1764705882      0.2442499491E-02     475
   117  0.1176470588      0.1176470588      0.1764705882      0.2442499491E-02     482
   118  0.1764705882      0.1176470588      0.1764705882      0.4884998982E-02     477
   119  0.2352941176      0.1176470588      0.1764705882      0.4884998982E-02     476
   120  0.2941176471      0.1176470588      0.1764705882      0.4884998982E-02     475
   121  0.3529411765      0.1176470588      0.1764705882      0.4884998982E-02     473
   122  0.4117647059      0.1176470588      0.1764705882      0.4884998982E-02     471
   123  0.1764705882      0.1764705882      0.1764705882      0.2442499491E-02     476
   124  0.2352941176      0.1764705882      0.1764705882      0.4884998982E-02     474
   125  0.2941176471      0.1764705882      0.1764705882      0.4884998982E-02     472
   126  0.3529411765      0.1764705882      0.1764705882      0.4884998982E-02     468
   127  0.4117647059      0.1764705882      0.1764705882      0.2442499491E-02     468
   128  0.2352941176      0.2352941176      0.1764705882      0.2442499491E-02     472
   129  0.2941176471      0.2352941176      0.1764705882      0.4884998982E-02     471
   130  0.3529411765      0.2352941176      0.1764705882      0.4884998982E-02     469
   131  0.2941176471      0.2941176471      0.1764705882      0.2442499491E-02     472
   132  0.3529411765      0.2941176471      0.1764705882      0.2442499491E-02     466
   133   0.000000000       0.000000000      0.2352941176      0.4070832485E-03     485
   134  0.5882352941E-01   0.000000000      0.2352941176      0.2442499491E-02     479
   135  0.1176470588       0.000000000      0.2352941176      0.2442499491E-02     475
   136  0.1764705882       0.000000000      0.2352941176      0.2442499491E-02     477
   137  0.2352941176       0.000000000      0.2352941176      0.2442499491E-02     477
   138  0.2941176471       0.000000000      0.2352941176      0.2442499491E-02     474
   139  0.3529411765       0.000000000      0.2352941176      0.2442499491E-02     473
   140  0.4117647059       0.000000000      0.2352941176      0.2442499491E-02     473
   141  0.4705882353       0.000000000      0.2352941176      0.2442499491E-02     477
   142  0.5882352941E-01  0.5882352941E-01  0.2352941176      0.2442499491E-02     478
   143  0.1176470588      0.5882352941E-01  0.2352941176      0.4884998982E-02     476
   144  0.1764705882      0.5882352941E-01  0.2352941176      0.4884998982E-02     478
   145  0.2352941176      0.5882352941E-01  0.2352941176      0.4884998982E-02     473
   146  0.2941176471      0.5882352941E-01  0.2352941176      0.4884998982E-02     474
   147  0.3529411765      0.5882352941E-01  0.2352941176      0.4884998982E-02     474
   148  0.4117647059      0.5882352941E-01  0.2352941176      0.4884998982E-02     473
   149  0.4705882353      0.5882352941E-01  0.2352941176      0.2442499491E-02     473
   150  0.1176470588      0.1176470588      0.2352941176      0.2442499491E-02     476
   151  0.1764705882      0.1176470588      0.2352941176      0.4884998982E-02     475
   152  0.2352941176      0.1176470588      0.2352941176      0.4884998982E-02     475
   153  0.2941176471      0.1176470588      0.2352941176      0.4884998982E-02     474
   154  0.3529411765      0.1176470588      0.2352941176      0.4884998982E-02     473
   155  0.4117647059      0.1176470588      0.2352941176      0.4884998982E-02     472
   156  0.1764705882      0.1764705882      0.2352941176      0.2442499491E-02     476
   157  0.2352941176      0.1764705882      0.2352941176      0.4884998982E-02     477
   158  0.2941176471      0.1764705882      0.2352941176      0.4884998982E-02     473
   159  0.3529411765      0.1764705882      0.2352941176      0.4884998982E-02     470
   160  0.4117647059      0.1764705882      0.2352941176      0.2442499491E-02     468
   161  0.2352941176      0.2352941176      0.2352941176      0.2442499491E-02     472
   162  0.2941176471      0.2352941176      0.2352941176      0.4884998982E-02     471
   163  0.3529411765      0.2352941176      0.2352941176      0.4884998982E-02     470
   164  0.2941176471      0.2941176471      0.2352941176      0.2442499491E-02     470
   165  0.3529411765      0.2941176471      0.2352941176      0.2442499491E-02     469
   166   0.000000000       0.000000000      0.2941176471      0.4070832485E-03     473
   167  0.5882352941E-01   0.000000000      0.2941176471      0.2442499491E-02     475
   168  0.1176470588       0.000000000      0.2941176471      0.2442499491E-02     476
   169  0.1764705882       0.000000000      0.2941176471      0.2442499491E-02     478
   170  0.2352941176       0.000000000      0.2941176471      0.2442499491E-02     476
   171  0.2941176471       0.000000000      0.2941176471      0.2442499491E-02     475
   172  0.3529411765       0.000000000      0.2941176471      0.2442499491E-02     473
   173  0.4117647059       0.000000000      0.2941176471      0.2442499491E-02     478
   174  0.4705882353       0.000000000      0.2941176471      0.2442499491E-02     471
   175  0.5882352941E-01  0.5882352941E-01  0.2941176471      0.2442499491E-02     476
   176  0.1176470588      0.5882352941E-01  0.2941176471      0.4884998982E-02     477
   177  0.1764705882      0.5882352941E-01  0.2941176471      0.4884998982E-02     474
   178  0.2352941176      0.5882352941E-01  0.2941176471      0.4884998982E-02     471
   179  0.2941176471      0.5882352941E-01  0.2941176471      0.4884998982E-02     470
   180  0.3529411765      0.5882352941E-01  0.2941176471      0.4884998982E-02     474
   181  0.4117647059      0.5882352941E-01  0.2941176471      0.4884998982E-02     475
   182  0.4705882353      0.5882352941E-01  0.2941176471      0.2442499491E-02     473
   183  0.1176470588      0.1176470588      0.2941176471      0.2442499491E-02     476
   184  0.1764705882      0.1176470588      0.2941176471      0.4884998982E-02     474
   185  0.2352941176      0.1176470588      0.2941176471      0.4884998982E-02     476
   186  0.2941176471      0.1176470588      0.2941176471      0.4884998982E-02     474
   187  0.3529411765      0.1176470588      0.2941176471      0.4884998982E-02     473
   188  0.4117647059      0.1176470588      0.2941176471      0.4884998982E-02     473
   189  0.1764705882      0.1764705882      0.2941176471      0.2442499491E-02     475
   190  0.2352941176      0.1764705882      0.2941176471      0.4884998982E-02     474
   191  0.2941176471      0.1764705882      0.2941176471      0.4884998982E-02     474
   192  0.3529411765      0.1764705882      0.2941176471      0.4884998982E-02     471
   193  0.4117647059      0.1764705882      0.2941176471      0.2442499491E-02     472
   194  0.2352941176      0.2352941176      0.2941176471      0.2442499491E-02     470
   195  0.2941176471      0.2352941176      0.2941176471      0.4884998982E-02     474
   196  0.3529411765      0.2352941176      0.2941176471      0.4884998982E-02     472
   197  0.2941176471      0.2941176471      0.2941176471      0.2442499491E-02     470
   198  0.3529411765      0.2941176471      0.2941176471      0.2442499491E-02     473
   199   0.000000000       0.000000000      0.3529411765      0.4070832485E-03     473
   200  0.5882352941E-01   0.000000000      0.3529411765      0.2442499491E-02     475
   201  0.1176470588       0.000000000      0.3529411765      0.2442499491E-02     478
   202  0.1764705882       0.000000000      0.3529411765      0.2442499491E-02     474
   203  0.2352941176       0.000000000      0.3529411765      0.2442499491E-02     476
   204  0.2941176471       0.000000000      0.3529411765      0.2442499491E-02     474
   205  0.3529411765       0.000000000      0.3529411765      0.2442499491E-02     470
   206  0.4117647059       0.000000000      0.3529411765      0.2442499491E-02     473
   207  0.4705882353       0.000000000      0.3529411765      0.2442499491E-02     474
   208  0.5882352941E-01  0.5882352941E-01  0.3529411765      0.2442499491E-02     476
   209  0.1176470588      0.5882352941E-01  0.3529411765      0.4884998982E-02     478
   210  0.1764705882      0.5882352941E-01  0.3529411765      0.4884998982E-02     476
   211  0.2352941176      0.5882352941E-01  0.3529411765      0.4884998982E-02     473
   212  0.2941176471      0.5882352941E-01  0.3529411765      0.4884998982E-02     471
   213  0.3529411765      0.5882352941E-01  0.3529411765      0.4884998982E-02     471
   214  0.4117647059      0.5882352941E-01  0.3529411765      0.4884998982E-02     473
   215  0.4705882353      0.5882352941E-01  0.3529411765      0.2442499491E-02     473
   216  0.1176470588      0.1176470588      0.3529411765      0.2442499491E-02     476
   217  0.1764705882      0.1176470588      0.3529411765      0.4884998982E-02     476
   218  0.2352941176      0.1176470588      0.3529411765      0.4884998982E-02     471
   219  0.2941176471      0.1176470588      0.3529411765      0.4884998982E-02     473
   220  0.3529411765      0.1176470588      0.3529411765      0.4884998982E-02     472
   221  0.4117647059      0.1176470588      0.3529411765      0.4884998982E-02     474
   222  0.1764705882      0.1764705882      0.3529411765      0.2442499491E-02     475
   223  0.2352941176      0.1764705882      0.3529411765      0.4884998982E-02     473
   224  0.2941176471      0.1764705882      0.3529411765      0.4884998982E-02     473
   225  0.3529411765      0.1764705882      0.3529411765      0.4884998982E-02     470
   226  0.4117647059      0.1764705882      0.3529411765      0.2442499491E-02     472
   227  0.2352941176      0.2352941176      0.3529411765      0.2442499491E-02     471
   228  0.2941176471      0.2352941176      0.3529411765      0.4884998982E-02     471
   229  0.3529411765      0.2352941176      0.3529411765      0.4884998982E-02     472
   230  0.2941176471      0.2941176471      0.3529411765      0.2442499491E-02     474
   231  0.3529411765      0.2941176471      0.3529411765      0.2442499491E-02     470
   232   0.000000000       0.000000000      0.4117647059      0.4070832485E-03     467
   233  0.5882352941E-01   0.000000000      0.4117647059      0.2442499491E-02     473
   234  0.1176470588       0.000000000      0.4117647059      0.2442499491E-02     477
   235  0.1764705882       0.000000000      0.4117647059      0.2442499491E-02     473
   236  0.2352941176       0.000000000      0.4117647059      0.2442499491E-02     476
   237  0.2941176471       0.000000000      0.4117647059      0.2442499491E-02     473
   238  0.3529411765       0.000000000      0.4117647059      0.2442499491E-02     467
   239  0.4117647059       0.000000000      0.4117647059      0.2442499491E-02     472
   240  0.4705882353       0.000000000      0.4117647059      0.2442499491E-02     474
   241  0.5882352941E-01  0.5882352941E-01  0.4117647059      0.2442499491E-02     476
   242  0.1176470588      0.5882352941E-01  0.4117647059      0.4884998982E-02     480
   243  0.1764705882      0.5882352941E-01  0.4117647059      0.4884998982E-02     478
   244  0.2352941176      0.5882352941E-01  0.4117647059      0.4884998982E-02     473
   245  0.2941176471      0.5882352941E-01  0.4117647059      0.4884998982E-02     470
   246  0.3529411765      0.5882352941E-01  0.4117647059      0.4884998982E-02     470
   247  0.4117647059      0.5882352941E-01  0.4117647059      0.4884998982E-02     472
   248  0.4705882353      0.5882352941E-01  0.4117647059      0.2442499491E-02     474
   249  0.1176470588      0.1176470588      0.4117647059      0.2442499491E-02     479
   250  0.1764705882      0.1176470588      0.4117647059      0.4884998982E-02     476
   251  0.2352941176      0.1176470588      0.4117647059      0.4884998982E-02     470
   252  0.2941176471      0.1176470588      0.4117647059      0.4884998982E-02     470
   253  0.3529411765      0.1176470588      0.4117647059      0.4884998982E-02     470
   254  0.4117647059      0.1176470588      0.4117647059      0.4884998982E-02     474
   255  0.1764705882      0.1764705882      0.4117647059      0.2442499491E-02     472
   256  0.2352941176      0.1764705882      0.4117647059      0.4884998982E-02     471
   257  0.2941176471      0.1764705882      0.4117647059      0.4884998982E-02     473
   258  0.3529411765      0.1764705882      0.4117647059      0.4884998982E-02     470
   259  0.4117647059      0.1764705882      0.4117647059      0.2442499491E-02     474
   260  0.2352941176      0.2352941176      0.4117647059      0.2442499491E-02     470
   261  0.2941176471      0.2352941176      0.4117647059      0.4884998982E-02     471
   262  0.3529411765      0.2352941176      0.4117647059      0.4884998982E-02     473
   263  0.2941176471      0.2941176471      0.4117647059      0.2442499491E-02     475
   264  0.3529411765      0.2941176471      0.4117647059      0.2442499491E-02     476
   265   0.000000000       0.000000000      0.4705882353      0.4070832485E-03     466
   266  0.5882352941E-01   0.000000000      0.4705882353      0.2442499491E-02     466
   267  0.1176470588       0.000000000      0.4705882353      0.2442499491E-02     478
   268  0.1764705882       0.000000000      0.4705882353      0.2442499491E-02     476
   269  0.2352941176       0.000000000      0.4705882353      0.2442499491E-02     475
   270  0.2941176471       0.000000000      0.4705882353      0.2442499491E-02     472
   271  0.3529411765       0.000000000      0.4705882353      0.2442499491E-02     469
   272  0.4117647059       0.000000000      0.4705882353      0.2442499491E-02     468
   273  0.4705882353       0.000000000      0.4705882353      0.2442499491E-02     474
   274  0.5882352941E-01  0.5882352941E-01  0.4705882353      0.2442499491E-02     473
   275  0.1176470588      0.5882352941E-01  0.4705882353      0.4884998982E-02     478
   276  0.1764705882      0.5882352941E-01  0.4705882353      0.4884998982E-02     479
   277  0.2352941176      0.5882352941E-01  0.4705882353      0.4884998982E-02     474
   278  0.2941176471      0.5882352941E-01  0.4705882353      0.4884998982E-02     469
   279  0.3529411765      0.5882352941E-01  0.4705882353      0.4884998982E-02     470
   280  0.4117647059      0.5882352941E-01  0.4705882353      0.4884998982E-02     472
   281  0.4705882353      0.5882352941E-01  0.4705882353      0.2442499491E-02     474
   282  0.1176470588      0.1176470588      0.4705882353      0.2442499491E-02     480
   283  0.1764705882      0.1176470588      0.4705882353      0.4884998982E-02     473
   284  0.2352941176      0.1176470588      0.4705882353      0.4884998982E-02     468
   285  0.2941176471      0.1176470588      0.4705882353      0.4884998982E-02     469
   286  0.3529411765      0.1176470588      0.4705882353      0.4884998982E-02     469
   287  0.4117647059      0.1176470588      0.4705882353      0.4884998982E-02     474
   288  0.1764705882      0.1764705882      0.4705882353      0.2442499491E-02     476
   289  0.2352941176      0.1764705882      0.4705882353      0.4884998982E-02     470
   290  0.2941176471      0.1764705882      0.4705882353      0.4884998982E-02     471
   291  0.3529411765      0.1764705882      0.4705882353      0.4884998982E-02     472
   292  0.4117647059      0.1764705882      0.4705882353      0.2442499491E-02     470
   293  0.2352941176      0.2352941176      0.4705882353      0.2442499491E-02     468
   294  0.2941176471      0.2352941176      0.4705882353      0.4884998982E-02     475
   295  0.3529411765      0.2352941176      0.4705882353      0.4884998982E-02     472
   296  0.2941176471      0.2941176471      0.4705882353      0.2442499491E-02     476
   297  0.3529411765      0.2941176471      0.4705882353      0.2442499491E-02     476
