   41.30585723    
   41.30529305    
   41.26446783    
   41.22419398    
   41.20418978    
   41.19694152    
   41.19410837    
   41.19302344    
   41.19238727    
   41.19233723    
   41.19225517    
   41.19224323    
   41.19224051    
   41.19223980    
   41.19223900    
   41.19223899    
   41.19223897    
   41.19223895    
   41.19223897    
   41.19223893    
