   1.154716977    
   1.095239840    
  0.6001837139    
  0.2273643076    
  0.6578828066E-01
  0.2511535928E-02
  0.7173250355E-03
  0.2450142119E-03
  0.7251331330E-04
  0.2948276702E-04
  0.2478854384E-04
  0.4195885779E-04
  0.1550827800E-04
  0.5861584007E-05
  0.1585512922E-04
  0.2276022381E-05
  0.7258656330E-04
  0.2573944318E-04
  0.8610119443E-05
  0.4602136300E-05
  0.1932972629E-04
  0.1346150393E-04
  0.4840074602E-05
  0.8110655197E-05
  0.4530030344E-05
  0.2605788819E-04
  0.3342783084E-05
  0.1265990996E-05
  0.1833561084E-05
  0.5228741263E-04
  0.2399742680E-04
  0.2215506260E-04
  0.2766588677E-04
  0.8055356559E-04
  0.4454533898E-05
  0.4831426070E-05
  0.3883392614E-04
  0.4409505997E-05
  0.3902543841E-05
  0.1433454911E-05
  0.7908576008E-05
  0.3245291091E-04
  0.7876988625E-05
  0.1522272523E-04
  0.1059334153E-04
  0.5443169577E-05
  0.6489522549E-05
  0.3742044669E-05
  0.3292867053E-05
  0.6220250272E-05
  0.7857618222E-05
  0.1943056161E-05
  0.7862845485E-05
  0.2300486579E-05
  0.2451802043E-04
  0.5160502061E-04
  0.7274525553E-05
  0.4800149165E-05
  0.4039661365E-05
  0.4147290397E-05
  0.2071125083E-05
  0.3802516044E-05
  0.6151940362E-05
  0.6496381318E-04
  0.5368136044E-05
  0.1471749125E-05
  0.6632893573E-05
  0.5065648049E-04
  0.2654777932E-05
  0.1503265027E-04
  0.6751819742E-04
  0.9903453441E-05
  0.4674706039E-05
  0.5410182819E-05
  0.1204715774E-04
  0.1939037505E-05
  0.4090900465E-04
  0.3989452805E-04
  0.1356059319E-04
  0.5995135872E-05
  0.2774642838E-04
  0.5271188933E-04
  0.2742378671E-04
  0.2345428679E-04
  0.9382283649E-05
  0.5004160619E-04
  0.2889357164E-04
  0.7523993294E-05
  0.2583381490E-05
  0.6967716085E-05
  0.1332590778E-04
  0.2467370416E-04
  0.1685344995E-04
  0.1170478415E-04
  0.2905185300E-04
  0.7728538769E-04
  0.7925307697E-05
  0.3212911121E-05
  0.2256912120E-05
  0.3112561642E-05
  0.7047985385E-05
  0.3172390868E-05
  0.2466905636E-04
  0.1047118855E-04
  0.1593582692E-04
  0.9284791776E-05
  0.5364844198E-04
  0.2467289507E-04
  0.1597693922E-04
  0.1423795474E-04
  0.7848233206E-05
  0.7902613912E-04
  0.1596010200E-04
  0.8953607777E-05
  0.4181934625E-05
  0.2887963533E-04
  0.1634658648E-04
  0.1273688214E-04
  0.2711359935E-04
  0.4143335403E-05
  0.5512580149E-04
  0.3977989806E-05
  0.6223978423E-05
  0.1288852105E-05
  0.5199744302E-05
  0.4255865180E-05
  0.5687000467E-05
  0.1528486345E-04
  0.1712408205E-04
  0.9631529116E-05
  0.1648627613E-04
  0.9791325694E-05
  0.2828875153E-04
  0.6837523987E-05
  0.2975067958E-04
  0.2600589602E-05
  0.1044869848E-04
  0.7396799832E-05
  0.3896660967E-04
  0.2107433127E-04
  0.4539139420E-05
  0.4726348207E-05
  0.1681773081E-04
  0.8328482238E-05
  0.1173822509E-04
  0.3974914507E-05
  0.1084180449E-04
  0.1595992582E-04
  0.2282652114E-04
  0.1155023604E-04
  0.3599213432E-05
  0.4493405629E-04
  0.1701475931E-04
  0.3972714778E-05
  0.1707567714E-04
  0.6627915543E-05
  0.1226666350E-04
  0.2930519103E-04
  0.2108483167E-04
  0.3082853031E-05
  0.9637568908E-05
  0.1806517002E-05
  0.2110401444E-04
  0.2049430407E-04
  0.2854186795E-04
  0.1524163315E-04
  0.6591017512E-05
  0.1448436442E-04
  0.9909883665E-05
  0.1568319210E-04
  0.9050205721E-04
  0.9284219765E-05
  0.5792982200E-05
  0.2290825599E-04
  0.4065718757E-05
  0.1565733195E-04
  0.3215970481E-04
  0.6293913161E-05
  0.1362573410E-05
  0.3431836897E-05
  0.1974397786E-04
  0.2488047401E-04
  0.1736417572E-04
  0.1299820389E-04
  0.5438377657E-05
  0.1109767531E-04
  0.7070001325E-05
  0.6687033961E-05
  0.2062399995E-04
  0.1555566304E-04
  0.3521230000E-05
  0.7008644202E-04
  0.7860938774E-05
  0.6601075148E-05
  0.4787623695E-05
  0.8503842791E-05
  0.4297564234E-05
  0.1980614562E-04
