    -4085.25484904    
    -4084.78823445    
    -4071.47463745    
    -4059.27325137    
    -4053.42414150    
    -4051.43730902    
    -4050.81128295    
    -4050.84099944    
    -4050.85754834    
    -4050.85767819    
    -4050.85133056    
    -4050.85098604    
    -4050.85096538    
    -4050.85099775    
    -4050.85092841    
    -4050.85097925    
    -4050.85100871    
    -4050.85102731    
    -4050.85105041    
    -4050.85104627    
    -4050.85106080    
    -4050.85104781    
    -4050.85105463    
    -4050.85104703    
    -4050.85104653    
    -4050.85104418    
    -4050.85104497    
    -4050.85104437    
    -4050.85104441    
    -4050.85104344    
    -4050.85104352    
    -4050.85104341    
    -4050.85104337    
    -4050.85104352    
    -4050.85104362    
    -4050.85104376    
    -4050.85104372    
    -4050.85104372    
