+----------------------------+
| Elk version 8.3.15 started |
+----------------------------+
 
Date (YYYY-MM-DD) : 2022-02-26
Time (hh:mm:ss)   : 14:05:43
 
All units are atomic (Hartree, Bohr, etc.)
 
+------------------------------------------+
| Ground-state run resuming from STATE.OUT |
+------------------------------------------+
 
Lattice vectors :
   4.573280815      -2.640384910       0.000000000    
   0.000000000       5.280769819       0.000000000    
   0.000000000       0.000000000       8.474763506    
 
Reciprocal lattice vectors :
   1.373890115       0.000000000       0.000000000    
  0.6869450578       1.189823742       0.000000000    
   0.000000000       0.000000000      0.7413994860    
 
Unit cell volume      :    204.6692956    
Brillouin zone volume :    1.211956160    
 
Muffin-tin inner radius fraction :   0.1000000000E-01
 
Species :    1 (Tc)
 parameters loaded from : Tc.in
 name : technetium
 nuclear charge    :   -43.00000000    
 electronic charge :    43.00000000    
 atomic mass :    178643.0715    
 muffin-tin radius :    2.400000000    
 number of radial points in muffin-tin :   1200
 number on inner part of muffin-tin    :    866
 atomic positions (lattice), magnetic fields (Cartesian) :
   1 :   0.33333333  0.16666667  0.25000000    0.00000000  0.00000000  0.00000000
   2 :  -0.33333333 -0.16666667 -0.25000000    0.00000000  0.00000000  0.00000000
 
Total number of atoms per unit cell :    2
 
Spin treatment :
 spin-unpolarised
 
Number of Bravais lattice symmetries :   24
Number of crystal symmetries         :   24
Crystal has inversion symmetry
Real symmetric eigensolver will be used
 
k-point grid :     17    17    17
k-point offset :    0.000000000       0.000000000       0.000000000    
k-point set is reduced with full crystal symmetry group
Total number of k-points :      297
 
Muffin-tin radius times maximum |G+k| :    8.500000000    
 using gkmax = rgkmax / 2
Maximum |G+k| for APW functions       :    4.250000000    
Maximum (1/2)|G+k|²                   :    9.031250000    
Maximum |G| for potential and density :    34.00000000    
Constant for pseudocharge density :   20
Radial integration step length :    1
 
G-vector grid sizes :     60    60    96
Number of G-vectors :   135859
 
Maximum angular momentum used for
 APW functions                      :   10
 outer part of muffin-tin           :    8
 inner part of muffin-tin           :    1
 
Total nuclear charge    :   -86.00000000    
Total core charge       :    56.00000000    
Total valence charge    :    30.00000000    
Total excess charge     :    0.000000000    
Total electronic charge :    86.00000000    
 
Effective Wigner radius, rₛ :   0.8282381128    
 
Number of empty states         :   40
Total number of valence states :   56
Total number of core states    :   56
 
Conduction state local-orbitals added automatically
Total number of local-orbitals :  252
 
Using Libxc version 05.01.05
Exchange-correlation functional :    100   493   494
 exchange: mgga_x_rscan; correlation: mgga_c_rscan
 
Smearing type :    1
 Methfessel-Paxton order 1, Phys. Rev. B 40, 3616 (1989)
Smearing width :   0.1000000000E-02
Effective electronic temperature (K) :    315.7750248    
 
Mixing type :    3
 Broyden mixing, J. Phys. A: Math. Gen. 17, L317 (1984)
 
Potential read in from STATE.OUT
 
+------------------------------+
| Self-consistent loop started |
+------------------------------+
 
+--------------------+
| Loop number :    1 |
+--------------------+
 
Energies :
 Fermi                       :     0.544503922380    
 sum of eigenvalues          :     -5095.95646313    
 electron kinetic            :      8916.67924012    
 core electron kinetic       :      8690.85619663    
 Coulomb                     :     -17232.2490750    
 Coulomb potential           :     -13666.9621675    
 nuclear-nuclear             :     -912.953745242    
 electron-nuclear            :     -18971.6284920    
 Hartree                     :      2652.33316221    
 Madelung                    :     -10398.7679912    
 xc potential                :     -345.673535717    
 exchange                    :     -255.875682212    
 correlation                 :     -4.56411417152    
 total energy                :     -8576.00963125    
 
Density of states at Fermi energy :    64.89486602    
 (states/Hartree/unit cell)
 
Estimated indirect band gap :   0.7969890417E-04
 from k-point     37 to k-point    272
Estimated direct band gap   :   0.2213735790E-02
 at k-point     37
 
Charges :
 core                        :    56.00000000    
 valence                     :    30.00000000    
 interstitial                :    3.742777961    
 muffin-tins (core leakage)
  species :    1 (Tc)
   atom    1                 :    41.12861102     (  0.5830489584E-06)
   atom    2                 :    41.12861102     (  0.5830489584E-06)
 total in muffin-tins        :    82.25722204    
 total calculated charge     :    85.99973125    
 total charge                :    86.00000000    
 error                       :   0.2687481720E-03
 
Time (CPU seconds) :        68.90
 
+--------------------+
| Loop number :    2 |
+--------------------+
 
Energies :
 Fermi                       :     0.544503803823    
 sum of eigenvalues          :     -5095.95604344    
 electron kinetic            :      8916.67959103    
 core electron kinetic       :      8690.84888127    
 Coulomb                     :     -17232.2488723    
 Coulomb potential           :     -13666.9621150    
 nuclear-nuclear             :     -912.953745242    
 electron-nuclear            :     -18971.6281391    
 Hartree                     :      2652.33301208    
 Madelung                    :     -10398.7678148    
 xc potential                :     -345.673519514    
 exchange                    :     -255.875668944    
 correlation                 :     -4.56411479660    
 total energy                :     -8576.00906499    
 
Density of states at Fermi energy :    65.05095447    
 (states/Hartree/unit cell)
 
Estimated indirect band gap :   0.7828228840E-04
 from k-point     37 to k-point    272
Estimated direct band gap   :   0.2244700989E-02
 at k-point     37
 
Charges :
 core                        :    56.00000000    
 valence                     :    30.00000000    
 interstitial                :    3.742775053    
 muffin-tins (core leakage)
  species :    1 (Tc)
   atom    1                 :    41.12861247     (  0.5829182541E-06)
   atom    2                 :    41.12861247     (  0.5829182541E-06)
 total in muffin-tins        :    82.25722495    
 total calculated charge     :    85.99973126    
 total charge                :    86.00000000    
 error                       :   0.2687427767E-03
 
Wrote STATE.OUT
 
RMS change in Kohn-Sham potential (target) :   0.2561189084E-01 (   10.00000000    )
Absolute change in total energy (target)   :   0.5662588810E-03 (  0.1000000000E-07)
 
Time (CPU seconds) :       133.82
 
+--------------------+
| Loop number :    3 |
+--------------------+
 
Energies :
 Fermi                       :     0.544521466469    
 sum of eigenvalues          :     -5095.94638885    
 electron kinetic            :      8916.69094076    
 core electron kinetic       :      8690.84631672    
 Coulomb                     :     -17232.2415409    
 Coulomb potential           :     -13666.9644516    
 nuclear-nuclear             :     -912.953745242    
 electron-nuclear            :     -18971.6111397    
 Hartree                     :      2652.32334408    
 Madelung                    :     -10398.7593151    
 xc potential                :     -345.672878021    
 exchange                    :     -255.875155316    
 correlation                 :     -4.56412835253    
 total energy                :     -8575.98988382    
 
Density of states at Fermi energy :    66.68341099    
 (states/Hartree/unit cell)
 
Estimated indirect band gap :   0.3383357763E-03
 from k-point     34 to k-point    154
Estimated direct band gap   :   0.2819944854E-02
 at k-point     37
 
Charges :
 core                        :    56.00000000    
 valence                     :    30.00000000    
 interstitial                :    3.742816014    
 muffin-tins (core leakage)
  species :    1 (Tc)
   atom    1                 :    41.12859199     (  0.5831416097E-06)
   atom    2                 :    41.12859199     (  0.5831416097E-06)
 total in muffin-tins        :    82.25718399    
 total calculated charge     :    85.99973133    
 total charge                :    86.00000000    
 error                       :   0.2686674538E-03
 
RMS change in Kohn-Sham potential (target) :   0.1919010568E-01 (   10.00000000    )
Absolute change in total energy (target)   :   0.1932273975E-01 (  0.1000000000E-07)
 
Time (CPU seconds) :       198.09
 
+--------------------+
| Loop number :    4 |
+--------------------+
 
Energies :
 Fermi                       :     0.544595857238    
 sum of eigenvalues          :     -5095.93375065    
 electron kinetic            :      8916.70854577    
 core electron kinetic       :      8690.85566147    
 Coulomb                     :     -17232.2317455    
 Coulomb potential           :     -13666.9704322    
 nuclear-nuclear             :     -912.953745242    
 electron-nuclear            :     -18971.5855684    
 Hartree                     :      2652.30756810    
 Madelung                    :     -10398.7465294    
 xc potential                :     -345.671864257    
 exchange                    :     -255.874351992    
 correlation                 :     -4.56414963825    
 total energy                :     -8575.96170136    
 
Density of states at Fermi energy :    65.84156693    
 (states/Hartree/unit cell)
 
Estimated indirect band gap :   0.9008134857E-04
 from k-point    294 to k-point    254
Estimated direct band gap   :   0.3197772994E-02
 at k-point     11
 
Charges :
 core                        :    56.00000000    
 valence                     :    30.00000000    
 interstitial                :    3.743009099    
 muffin-tins (core leakage)
  species :    1 (Tc)
   atom    1                 :    41.12849545     (  0.5832026524E-06)
   atom    2                 :    41.12849545     (  0.5832026524E-06)
 total in muffin-tins        :    82.25699090    
 total calculated charge     :    85.99973171    
 total charge                :    86.00000000    
 error                       :   0.2682883442E-03
 
Wrote STATE.OUT
 
RMS change in Kohn-Sham potential (target) :   0.7148518462E-02 (   10.00000000    )
Absolute change in total energy (target)   :   0.3301313990E-01 (  0.1000000000E-07)
 
Time (CPU seconds) :       261.86
 
+--------------------+
| Loop number :    5 |
+--------------------+
 
Energies :
 Fermi                       :     0.544620666475    
 sum of eigenvalues          :     -5095.93189499    
 electron kinetic            :      8916.71199297    
 core electron kinetic       :      8690.85816861    
 Coulomb                     :     -17232.2305254    
 Coulomb potential           :     -13666.9722231    
 nuclear-nuclear             :     -912.953745242    
 electron-nuclear            :     -18971.5813373    
 Hartree                     :      2652.30455712    
 Madelung                    :     -10398.7444139    
 xc potential                :     -345.671664894    
 exchange                    :     -255.874194911    
 correlation                 :     -4.56415458831    
 total energy                :     -8575.95688196    
 
Density of states at Fermi energy :    66.11854557    
 (states/Hartree/unit cell)
 
Estimated indirect band gap :   0.7443889605E-04
 from k-point    254 to k-point    294
Estimated direct band gap   :   0.2736163127E-02
 at k-point     11
 
Charges :
 core                        :    56.00000000    
 valence                     :    30.00000000    
 interstitial                :    3.743041349    
 muffin-tins (core leakage)
  species :    1 (Tc)
   atom    1                 :    41.12847933     (  0.5829971741E-06)
   atom    2                 :    41.12847933     (  0.5829971741E-06)
 total in muffin-tins        :    82.25695865    
 total calculated charge     :    85.99973199    
 total charge                :    86.00000000    
 error                       :   0.2680109139E-03
 
RMS change in Kohn-Sham potential (target) :   0.2640424452E-02 (   10.00000000    )
Absolute change in total energy (target)   :   0.1307268602E-01 (  0.1000000000E-07)
 
Time (CPU seconds) :       327.15
 
+--------------------+
| Loop number :    6 |
+--------------------+
 
Energies :
 Fermi                       :     0.544621639193    
 sum of eigenvalues          :     -5095.93218677    
 electron kinetic            :      8916.71156142    
 core electron kinetic       :      8690.85803302    
 Coulomb                     :     -17232.2308941    
 Coulomb potential           :     -13666.9720609    
 nuclear-nuclear             :     -912.953745242    
 electron-nuclear            :     -18971.5822367    
 Hartree                     :      2652.30508789    
 Madelung                    :     -10398.7448636    
 xc potential                :     -345.671687245    
 exchange                    :     -255.874211693    
 correlation                 :     -4.56415471772    
 total energy                :     -8575.95769907    
 
Density of states at Fermi energy :    66.12666275    
 (states/Hartree/unit cell)
 
Estimated indirect band gap :   0.6272669455E-04
 from k-point     19 to k-point    294
Estimated direct band gap   :   0.2633883233E-02
 at k-point     11
 
Charges :
 core                        :    56.00000000    
 valence                     :    30.00000000    
 interstitial                :    3.743007395    
 muffin-tins (core leakage)
  species :    1 (Tc)
   atom    1                 :    41.12849630     (  0.5831185987E-06)
   atom    2                 :    41.12849630     (  0.5831185987E-06)
 total in muffin-tins        :    82.25699260    
 total calculated charge     :    85.99973209    
 total charge                :    86.00000000    
 error                       :   0.2679055943E-03
 
Wrote STATE.OUT
 
RMS change in Kohn-Sham potential (target) :   0.2378240664E-02 (   10.00000000    )
Absolute change in total energy (target)   :   0.2451061369E-02 (  0.1000000000E-07)
 
Time (CPU seconds) :       393.04
 
+--------------------+
| Loop number :    7 |
+--------------------+
 
Energies :
 Fermi                       :     0.544625735015    
 sum of eigenvalues          :     -5095.93209320    
 electron kinetic            :      8916.71220266    
 core electron kinetic       :      8690.86067235    
 Coulomb                     :     -17232.2309565    
 Coulomb potential           :     -13666.9726369    
 nuclear-nuclear             :     -912.953745242    
 electron-nuclear            :     -18971.5817856    
 Hartree                     :      2652.30457434    
 Madelung                    :     -10398.7446380    
 xc potential                :     -345.671658965    
 exchange                    :     -255.874189581    
 correlation                 :     -4.56415557813    
 total energy                :     -8575.95709898    
 
Density of states at Fermi energy :    66.23007671    
 (states/Hartree/unit cell)
 
Estimated indirect band gap :   0.8444549708E-04
 from k-point    254 to k-point     19
Estimated direct band gap   :   0.2569390038E-02
 at k-point     11
 
Charges :
 core                        :    56.00000000    
 valence                     :    30.00000000    
 interstitial                :    3.743025415    
 muffin-tins (core leakage)
  species :    1 (Tc)
   atom    1                 :    41.12848729     (  0.5830228282E-06)
   atom    2                 :    41.12848729     (  0.5830228282E-06)
 total in muffin-tins        :    82.25697458    
 total calculated charge     :    85.99973212    
 total charge                :    86.00000000    
 error                       :   0.2678792258E-03
 
RMS change in Kohn-Sham potential (target) :   0.1256828874E-02 (   10.00000000    )
Absolute change in total energy (target)   :   0.1212855779E-02 (  0.1000000000E-07)
 
Time (CPU seconds) :       457.80
 
+--------------------+
| Loop number :    8 |
+--------------------+
 
Energies :
 Fermi                       :     0.544612378924    
 sum of eigenvalues          :     -5095.93460123    
 electron kinetic            :      8916.70862490    
 core electron kinetic       :      8690.85885875    
 Coulomb                     :     -17232.2334824    
 Coulomb potential           :     -13666.9713465    
 nuclear-nuclear             :     -912.953745242    
 electron-nuclear            :     -18971.5881278    
 Hartree                     :      2652.30839067    
 Madelung                    :     -10398.7478091    
 xc potential                :     -345.671879664    
 exchange                    :     -255.874358515    
 correlation                 :     -4.56415340673    
 total energy                :     -8575.96336940    
 
Density of states at Fermi energy :    65.80209829    
 (states/Hartree/unit cell)
 
Estimated indirect band gap :   0.8134344530E-04
 from k-point    254 to k-point     19
Estimated direct band gap   :   0.2627604075E-02
 at k-point     11
 
Charges :
 core                        :    56.00000000    
 valence                     :    30.00000000    
 interstitial                :    3.742915835    
 muffin-tins (core leakage)
  species :    1 (Tc)
   atom    1                 :    41.12854208     (  0.5829432439E-06)
   atom    2                 :    41.12854208     (  0.5829432439E-06)
 total in muffin-tins        :    82.25708416    
 total calculated charge     :    85.99973219    
 total charge                :    86.00000000    
 error                       :   0.2678127233E-03
 
Wrote STATE.OUT
 
RMS change in Kohn-Sham potential (target) :   0.1811286657E-02 (   10.00000000    )
Absolute change in total energy (target)   :   0.5967206380E-02 (  0.1000000000E-07)
 
Time (CPU seconds) :       522.56
 
+--------------------+
| Loop number :    9 |
+--------------------+
 
Energies :
 Fermi                       :     0.544610776455    
 sum of eigenvalues          :     -5095.93451712    
 electron kinetic            :      8916.70859934    
 core electron kinetic       :      8690.85861784    
 Coulomb                     :     -17232.2332811    
 Coulomb potential           :     -13666.9712446    
 nuclear-nuclear             :     -912.953745242    
 electron-nuclear            :     -18971.5878270    
 Hartree                     :      2652.30829120    
 Madelung                    :     -10398.7476588    
 xc potential                :     -345.671871823    
 exchange                    :     -255.874352511    
 correlation                 :     -4.56415329665    
 total energy                :     -8575.96318755    
 
Density of states at Fermi energy :    65.67751596    
 (states/Hartree/unit cell)
 
Estimated indirect band gap :   0.7974394090E-04
 from k-point    254 to k-point     19
Estimated direct band gap   :   0.2645960414E-02
 at k-point     11
 
Charges :
 core                        :    56.00000000    
 valence                     :    30.00000000    
 interstitial                :    3.742916967    
 muffin-tins (core leakage)
  species :    1 (Tc)
   atom    1                 :    41.12854152     (  0.5830867309E-06)
   atom    2                 :    41.12854152     (  0.5830867309E-06)
 total in muffin-tins        :    82.25708303    
 total calculated charge     :    85.99973221    
 total charge                :    86.00000000    
 error                       :   0.2677924898E-03
 
RMS change in Kohn-Sham potential (target) :   0.2841273584E-02 (   10.00000000    )
Absolute change in total energy (target)   :   0.1309949577E-02 (  0.1000000000E-07)
 
Time (CPU seconds) :       587.18
 
+--------------------+
| Loop number :   10 |
+--------------------+
 
Energies :
 Fermi                       :     0.544610677071    
 sum of eigenvalues          :     -5095.93443091    
 electron kinetic            :      8916.70864994    
 core electron kinetic       :      8690.85841538    
 Coulomb                     :     -17232.2331789    
 Coulomb potential           :     -13666.9712139    
 nuclear-nuclear             :     -912.953745242    
 electron-nuclear            :     -18971.5876535    
 Hartree                     :      2652.30821982    
 Madelung                    :     -10398.7475720    
 xc potential                :     -345.671866982    
 exchange                    :     -255.874348868    
 correlation                 :     -4.56415326605    
 total energy                :     -8575.96303113    
 
Density of states at Fermi energy :    65.66567386    
 (states/Hartree/unit cell)
 
Estimated indirect band gap :   0.7947579087E-04
 from k-point    254 to k-point     19
Estimated direct band gap   :   0.2647649321E-02
 at k-point     11
 
Charges :
 core                        :    56.00000000    
 valence                     :    30.00000000    
 interstitial                :    3.742917247    
 muffin-tins (core leakage)
  species :    1 (Tc)
   atom    1                 :    41.12854138     (  0.5830744776E-06)
   atom    2                 :    41.12854138     (  0.5830744776E-06)
 total in muffin-tins        :    82.25708275    
 total calculated charge     :    85.99973221    
 total charge                :    86.00000000    
 error                       :   0.2677895302E-03
 
Wrote STATE.OUT
 
RMS change in Kohn-Sham potential (target) :   0.2034756373E-02 (   10.00000000    )
Absolute change in total energy (target)   :   0.1710701672E-03 (  0.1000000000E-07)
 
Time (CPU seconds) :       651.96
 
+--------------------+
| Loop number :   11 |
+--------------------+
 
Energies :
 Fermi                       :     0.544609299111    
 sum of eigenvalues          :     -5095.93425474    
 electron kinetic            :      8916.70858861    
 core electron kinetic       :      8690.85800671    
 Coulomb                     :     -17232.2328819    
 Coulomb potential           :     -13666.9709842    
 nuclear-nuclear             :     -912.953745242    
 electron-nuclear            :     -18971.5872891    
 Hartree                     :      2652.30815247    
 Madelung                    :     -10398.7473898    
 xc potential                :     -345.671859160    
 exchange                    :     -255.874343075    
 correlation                 :     -4.56415298711    
 total energy                :     -8575.96278935    
 
Density of states at Fermi energy :    65.59350464    
 (states/Hartree/unit cell)
 
Estimated indirect band gap :   0.7558162393E-04
 from k-point    254 to k-point     19
Estimated direct band gap   :   0.2660290108E-02
 at k-point     11
 
Charges :
 core                        :    56.00000000    
 valence                     :    30.00000000    
 interstitial                :    3.742912400    
 muffin-tins (core leakage)
  species :    1 (Tc)
   atom    1                 :    41.12854380     (  0.5830940069E-06)
   atom    2                 :    41.12854380     (  0.5830940069E-06)
 total in muffin-tins        :    82.25708760    
 total calculated charge     :    85.99973223    
 total charge                :    86.00000000    
 error                       :   0.2677689321E-03
 
RMS change in Kohn-Sham potential (target) :   0.1573809789E-02 (   10.00000000    )
Absolute change in total energy (target)   :   0.1990151177E-03 (  0.1000000000E-07)
 
Time (CPU seconds) :       717.21
 
+--------------------+
| Loop number :   12 |
+--------------------+
 
Energies :
 Fermi                       :     0.544609923213    
 sum of eigenvalues          :     -5095.93402731    
 electron kinetic            :      8916.70873723    
 core electron kinetic       :      8690.85809628    
 Coulomb                     :     -17232.2326155    
 Coulomb potential           :     -13666.9709200    
 nuclear-nuclear             :     -912.953745242    
 electron-nuclear            :     -18971.5868206    
 Hartree                     :      2652.30795033    
 Madelung                    :     -10398.7471555    
 xc potential                :     -345.671844583    
 exchange                    :     -255.874332079    
 correlation                 :     -4.56415289071    
 total energy                :     -8575.96236326    
 
Density of states at Fermi energy :    65.63662441    
 (states/Hartree/unit cell)
 
Estimated indirect band gap :   0.7174530417E-04
 from k-point    254 to k-point     19
Estimated direct band gap   :   0.2656155574E-02
 at k-point     11
 
Charges :
 core                        :    56.00000000    
 valence                     :    30.00000000    
 interstitial                :    3.742913183    
 muffin-tins (core leakage)
  species :    1 (Tc)
   atom    1                 :    41.12854341     (  0.5830339411E-06)
   atom    2                 :    41.12854341     (  0.5830339411E-06)
 total in muffin-tins        :    82.25708682    
 total calculated charge     :    85.99973224    
 total charge                :    86.00000000    
 error                       :   0.2677603662E-03
 
Wrote STATE.OUT
 
RMS change in Kohn-Sham potential (target) :   0.1468504293E-02 (   10.00000000    )
Absolute change in total energy (target)   :   0.4758380637E-03 (  0.1000000000E-07)
 
Time (CPU seconds) :       783.03
 
+--------------------+
| Loop number :   13 |
+--------------------+
 
Energies :
 Fermi                       :     0.544609121932    
 sum of eigenvalues          :     -5095.93409226    
 electron kinetic            :      8916.70860999    
 core electron kinetic       :      8690.85796743    
 Coulomb                     :     -17232.2326443    
 Coulomb potential           :     -13666.9708531    
 nuclear-nuclear             :     -912.953745242    
 electron-nuclear            :     -18971.5869450    
 Hartree                     :      2652.30804595    
 Madelung                    :     -10398.7472177    
 xc potential                :     -345.671849194    
 exchange                    :     -255.874335593    
 correlation                 :     -4.56415279294    
 total energy                :     -8575.96252265    
 
Density of states at Fermi energy :    65.58590593    
 (states/Hartree/unit cell)
 
Estimated indirect band gap :   0.7170126282E-04
 from k-point    254 to k-point     19
Estimated direct band gap   :   0.2662385367E-02
 at k-point     11
 
Charges :
 core                        :    56.00000000    
 valence                     :    30.00000000    
 interstitial                :    3.742910061    
 muffin-tins (core leakage)
  species :    1 (Tc)
   atom    1                 :    41.12854497     (  0.5830946854E-06)
   atom    2                 :    41.12854497     (  0.5830946854E-06)
 total in muffin-tins        :    82.25708994    
 total calculated charge     :    85.99973225    
 total charge                :    86.00000000    
 error                       :   0.2677491252E-03
 
RMS change in Kohn-Sham potential (target) :   0.8403908541E-03 (   10.00000000    )
Absolute change in total energy (target)   :   0.4042673390E-04 (  0.1000000000E-07)
 
Time (CPU seconds) :       849.20
 
+--------------------+
| Loop number :   14 |
+--------------------+
 
Energies :
 Fermi                       :     0.544609749957    
 sum of eigenvalues          :     -5095.93406310    
 electron kinetic            :      8916.70867353    
 core electron kinetic       :      8690.85803514    
 Coulomb                     :     -17232.2326492    
 Coulomb potential           :     -13666.9708890    
 nuclear-nuclear             :     -912.953745242    
 electron-nuclear            :     -18971.5869189    
 Hartree                     :      2652.30801499    
 Madelung                    :     -10398.7472047    
 xc potential                :     -345.671847679    
 exchange                    :     -255.874334455    
 correlation                 :     -4.56415282157    
 total energy                :     -8575.96246293    
 
Density of states at Fermi energy :    65.62028154    
 (states/Hartree/unit cell)
 
Estimated indirect band gap :   0.7131647130E-04
 from k-point    254 to k-point     19
Estimated direct band gap   :   0.2657843531E-02
 at k-point     11
 
Charges :
 core                        :    56.00000000    
 valence                     :    30.00000000    
 interstitial                :    3.742910924    
 muffin-tins (core leakage)
  species :    1 (Tc)
   atom    1                 :    41.12854454     (  0.5831316265E-06)
   atom    2                 :    41.12854454     (  0.5831316265E-06)
 total in muffin-tins        :    82.25708908    
 total calculated charge     :    85.99973225    
 total charge                :    86.00000000    
 error                       :   0.2677528620E-03
 
Wrote STATE.OUT
 
RMS change in Kohn-Sham potential (target) :   0.6808489251E-03 (   10.00000000    )
Absolute change in total energy (target)   :   0.4961014201E-04 (  0.1000000000E-07)
 
Time (CPU seconds) :       913.51
 
+--------------------+
| Loop number :   15 |
+--------------------+
 
Energies :
 Fermi                       :     0.544609721018    
 sum of eigenvalues          :     -5095.93406083    
 electron kinetic            :      8916.70866813    
 core electron kinetic       :      8690.85802493    
 Coulomb                     :     -17232.2326454    
 Coulomb potential           :     -13666.9708814    
 nuclear-nuclear             :     -912.953745242    
 electron-nuclear            :     -18971.5869189    
 Hartree                     :      2652.30801877    
 Madelung                    :     -10398.7472047    
 xc potential                :     -345.671847559    
 exchange                    :     -255.874334365    
 correlation                 :     -4.56415280500    
 total energy                :     -8575.96246445    
 
Density of states at Fermi energy :    65.61432615    
 (states/Hartree/unit cell)
 
Estimated indirect band gap :   0.7098161192E-04
 from k-point    254 to k-point     19
Estimated direct band gap   :   0.2658781395E-02
 at k-point     11
 
Charges :
 core                        :    56.00000000    
 valence                     :    30.00000000    
 interstitial                :    3.742910734    
 muffin-tins (core leakage)
  species :    1 (Tc)
   atom    1                 :    41.12854463     (  0.5830762326E-06)
   atom    2                 :    41.12854463     (  0.5830762326E-06)
 total in muffin-tins        :    82.25708927    
 total calculated charge     :    85.99973225    
 total charge                :    86.00000000    
 error                       :   0.2677503482E-03
 
RMS change in Kohn-Sham potential (target) :   0.3771447862E-03 (   10.00000000    )
Absolute change in total energy (target)   :   0.1088410318E-04 (  0.1000000000E-07)
 
Time (CPU seconds) :       980.66
 
+--------------------+
| Loop number :   16 |
+--------------------+
 
Energies :
 Fermi                       :     0.544609868009    
 sum of eigenvalues          :     -5095.93405727    
 electron kinetic            :      8916.70867845    
 core electron kinetic       :      8690.85804274    
 Coulomb                     :     -17232.2326531    
 Coulomb potential           :     -13666.9708880    
 nuclear-nuclear             :     -912.953745242    
 electron-nuclear            :     -18971.5869276    
 Hartree                     :      2652.30801979    
 Madelung                    :     -10398.7472091    
 xc potential                :     -345.671847682    
 exchange                    :     -255.874334458    
 correlation                 :     -4.56415280690    
 total energy                :     -8575.96246188    
 
Density of states at Fermi energy :    65.62027230    
 (states/Hartree/unit cell)
 
Estimated indirect band gap :   0.7076887033E-04
 from k-point    254 to k-point     19
Estimated direct band gap   :   0.2658132570E-02
 at k-point     11
 
Charges :
 core                        :    56.00000000    
 valence                     :    30.00000000    
 interstitial                :    3.742910738    
 muffin-tins (core leakage)
  species :    1 (Tc)
   atom    1                 :    41.12854463     (  0.5830735574E-06)
   atom    2                 :    41.12854463     (  0.5830735574E-06)
 total in muffin-tins        :    82.25708926    
 total calculated charge     :    85.99973225    
 total charge                :    86.00000000    
 error                       :   0.2677507857E-03
 
Wrote STATE.OUT
 
RMS change in Kohn-Sham potential (target) :   0.5793394063E-03 (   10.00000000    )
Absolute change in total energy (target)   :   0.5289010005E-05 (  0.1000000000E-07)
 
Time (CPU seconds) :      1044.77
 
+--------------------+
| Loop number :   17 |
+--------------------+
 
Energies :
 Fermi                       :     0.544609933637    
 sum of eigenvalues          :     -5095.93405841    
 electron kinetic            :      8916.70868320    
 core electron kinetic       :      8690.85805427    
 Coulomb                     :     -17232.2326617    
 Coulomb potential           :     -13666.9708937    
 nuclear-nuclear             :     -912.953745242    
 electron-nuclear            :     -18971.5869392    
 Hartree                     :      2652.30802273    
 Madelung                    :     -10398.7472148    
 xc potential                :     -345.671847887    
 exchange                    :     -255.874334614    
 correlation                 :     -4.56415281107    
 total energy                :     -8575.96246592    
 
Density of states at Fermi energy :    65.62303635    
 (states/Hartree/unit cell)
 
Estimated indirect band gap :   0.7075567602E-04
 from k-point    254 to k-point     19
Estimated direct band gap   :   0.2657815808E-02
 at k-point     11
 
Charges :
 core                        :    56.00000000    
 valence                     :    30.00000000    
 interstitial                :    3.742910814    
 muffin-tins (core leakage)
  species :    1 (Tc)
   atom    1                 :    41.12854459     (  0.5830575383E-06)
   atom    2                 :    41.12854459     (  0.5830575383E-06)
 total in muffin-tins        :    82.25708919    
 total calculated charge     :    85.99973225    
 total charge                :    86.00000000    
 error                       :   0.2677513890E-03
 
RMS change in Kohn-Sham potential (target) :   0.1456703799E-02 (   10.00000000    )
Absolute change in total energy (target)   :   0.2714981747E-05 (  0.1000000000E-07)
 
Time (CPU seconds) :      1107.47
 
+--------------------+
| Loop number :   18 |
+--------------------+
 
Energies :
 Fermi                       :     0.544609942171    
 sum of eigenvalues          :     -5095.93406170    
 electron kinetic            :      8916.70868533    
 core electron kinetic       :      8690.85806240    
 Coulomb                     :     -17232.2326658    
 Coulomb potential           :     -13666.9708990    
 nuclear-nuclear             :     -912.953745242    
 electron-nuclear            :     -18971.5869421    
 Hartree                     :      2652.30802153    
 Madelung                    :     -10398.7472163    
 xc potential                :     -345.671848012    
 exchange                    :     -255.874334706    
 correlation                 :     -4.56415282066    
 total energy                :     -8575.96246799    
 
Density of states at Fermi energy :    65.62505097    
 (states/Hartree/unit cell)
 
Estimated indirect band gap :   0.7088756317E-04
 from k-point    254 to k-point     19
Estimated direct band gap   :   0.2657559802E-02
 at k-point     11
 
Charges :
 core                        :    56.00000000    
 valence                     :    30.00000000    
 interstitial                :    3.742910989    
 muffin-tins (core leakage)
  species :    1 (Tc)
   atom    1                 :    41.12854451     (  0.5831129997E-06)
   atom    2                 :    41.12854451     (  0.5831129997E-06)
 total in muffin-tins        :    82.25708901    
 total calculated charge     :    85.99973225    
 total charge                :    86.00000000    
 error                       :   0.2677526938E-03
 
Wrote STATE.OUT
 
RMS change in Kohn-Sham potential (target) :   0.1306707690E-02 (   10.00000000    )
Absolute change in total energy (target)   :   0.2742919605E-05 (  0.1000000000E-07)
 
Time (CPU seconds) :      1173.13
 
+--------------------+
| Loop number :   19 |
+--------------------+
 
Energies :
 Fermi                       :     0.544609892502    
 sum of eigenvalues          :     -5095.93406676    
 electron kinetic            :      8916.70868225    
 core electron kinetic       :      8690.85805793    
 Coulomb                     :     -17232.2326667    
 Coulomb potential           :     -13666.9709009    
 nuclear-nuclear             :     -912.953745242    
 electron-nuclear            :     -18971.5869421    
 Hartree                     :      2652.30802058    
 Madelung                    :     -10398.7472163    
 xc potential                :     -345.671848092    
 exchange                    :     -255.874334760    
 correlation                 :     -4.56415282815    
 total energy                :     -8575.96247207    
 
Density of states at Fermi energy :    65.62430372    
 (states/Hartree/unit cell)
 
Estimated indirect band gap :   0.7106556110E-04
 from k-point    254 to k-point     19
Estimated direct band gap   :   0.2657607953E-02
 at k-point     11
 
Charges :
 core                        :    56.00000000    
 valence                     :    30.00000000    
 interstitial                :    3.742911129    
 muffin-tins (core leakage)
  species :    1 (Tc)
   atom    1                 :    41.12854444     (  0.5830833061E-06)
   atom    2                 :    41.12854444     (  0.5830833061E-06)
 total in muffin-tins        :    82.25708887    
 total calculated charge     :    85.99973225    
 total charge                :    86.00000000    
 error                       :   0.2677533732E-03
 
RMS change in Kohn-Sham potential (target) :   0.5891848002E-04 (   10.00000000    )
Absolute change in total energy (target)   :   0.4774683475E-05 (  0.1000000000E-07)
 
Time (CPU seconds) :      1238.45
 
+--------------------+
| Loop number :   20 |
+--------------------+
 
Energies :
 Fermi                       :     0.544609901152    
 sum of eigenvalues          :     -5095.93406474    
 electron kinetic            :      8916.70868103    
 core electron kinetic       :      8690.85805433    
 Coulomb                     :     -17232.2326666    
 Coulomb potential           :     -13666.9708977    
 nuclear-nuclear             :     -912.953745242    
 electron-nuclear            :     -18971.5869450    
 Hartree                     :      2652.30802363    
 Madelung                    :     -10398.7472177    
 xc potential                :     -345.671848062    
 exchange                    :     -255.874334739    
 correlation                 :     -4.56415282230    
 total energy                :     -8575.96247311    
 
Density of states at Fermi energy :    65.62214772    
 (states/Hartree/unit cell)
 
Estimated indirect band gap :   0.7096452825E-04
 from k-point    254 to k-point     19
Estimated direct band gap   :   0.2657890871E-02
 at k-point     11
 
Charges :
 core                        :    56.00000000    
 valence                     :    30.00000000    
 interstitial                :    3.742911025    
 muffin-tins (core leakage)
  species :    1 (Tc)
   atom    1                 :    41.12854449     (  0.5831457948E-06)
   atom    2                 :    41.12854449     (  0.5831457948E-06)
 total in muffin-tins        :    82.25708898    
 total calculated charge     :    85.99973225    
 total charge                :    86.00000000    
 error                       :   0.2677524321E-03
 
Wrote STATE.OUT
 
RMS change in Kohn-Sham potential (target) :   0.1199324741E-03 (   10.00000000    )
Absolute change in total energy (target)   :   0.2232987754E-05 (  0.1000000000E-07)
 
Time (CPU seconds) :      1301.86
 
+--------------------+
| Loop number :   21 |
+--------------------+
 
Energies :
 Fermi                       :     0.544609900673    
 sum of eigenvalues          :     -5095.93406320    
 electron kinetic            :      8916.70867940    
 core electron kinetic       :      8690.85805054    
 Coulomb                     :     -17232.2326636    
 Coulomb potential           :     -13666.9708946    
 nuclear-nuclear             :     -912.953745242    
 electron-nuclear            :     -18971.5869421    
 Hartree                     :      2652.30802374    
 Madelung                    :     -10398.7472163    
 xc potential                :     -345.671847998    
 exchange                    :     -255.874334693    
 correlation                 :     -4.56415281708    
 total energy                :     -8575.96247169    
 
Density of states at Fermi energy :    65.62030242    
 (states/Hartree/unit cell)
 
Estimated indirect band gap :   0.7092752881E-04
 from k-point    254 to k-point     19
Estimated direct band gap   :   0.2658075999E-02
 at k-point     11
 
Charges :
 core                        :    56.00000000    
 valence                     :    30.00000000    
 interstitial                :    3.742910945    
 muffin-tins (core leakage)
  species :    1 (Tc)
   atom    1                 :    41.12854453     (  0.5831294487E-06)
   atom    2                 :    41.12854453     (  0.5831294487E-06)
 total in muffin-tins        :    82.25708906    
 total calculated charge     :    85.99973225    
 total charge                :    86.00000000    
 error                       :   0.2677515649E-03
 
RMS change in Kohn-Sham potential (target) :   0.3045234728E-03 (   10.00000000    )
Absolute change in total energy (target)   :   0.8654224075E-06 (  0.1000000000E-07)
 
Time (CPU seconds) :      1367.18
 
+--------------------+
| Loop number :   22 |
+--------------------+
 
Energies :
 Fermi                       :     0.544609941592    
 sum of eigenvalues          :     -5095.93406198    
 electron kinetic            :      8916.70868231    
 core electron kinetic       :      8690.85805947    
 Coulomb                     :     -17232.2326658    
 Coulomb potential           :     -13666.9708962    
 nuclear-nuclear             :     -912.953745242    
 electron-nuclear            :     -18971.5869450    
 Hartree                     :      2652.30802437    
 Madelung                    :     -10398.7472177    
 xc potential                :     -345.671848071    
 exchange                    :     -255.874334748    
 correlation                 :     -4.56415281715    
 total energy                :     -8575.96247109    
 
Density of states at Fermi energy :    65.62152133    
 (states/Hartree/unit cell)
 
Estimated indirect band gap :   0.7087150882E-04
 from k-point    254 to k-point     19
Estimated direct band gap   :   0.2657969854E-02
 at k-point     11
 
Charges :
 core                        :    56.00000000    
 valence                     :    30.00000000    
 interstitial                :    3.742910941    
 muffin-tins (core leakage)
  species :    1 (Tc)
   atom    1                 :    41.12854453     (  0.5831253915E-06)
   atom    2                 :    41.12854453     (  0.5831253915E-06)
 total in muffin-tins        :    82.25708906    
 total calculated charge     :    85.99973225    
 total charge                :    86.00000000    
 error                       :   0.2677516251E-03
 
Wrote STATE.OUT
 
RMS change in Kohn-Sham potential (target) :   0.1078825808E-02 (   10.00000000    )
Absolute change in total energy (target)   :   0.8128336049E-06 (  0.1000000000E-07)
 
Time (CPU seconds) :      1433.39
 
+--------------------+
| Loop number :   23 |
+--------------------+
 
Energies :
 Fermi                       :     0.544609922296    
 sum of eigenvalues          :     -5095.93406768    
 electron kinetic            :      8916.70868433    
 core electron kinetic       :      8690.85806157    
 Coulomb                     :     -17232.2326711    
 Coulomb potential           :     -13666.9709038    
 nuclear-nuclear             :     -912.953745242    
 electron-nuclear            :     -18971.5869479    
 Hartree                     :      2652.30802205    
 Madelung                    :     -10398.7472192    
 xc potential                :     -345.671848234    
 exchange                    :     -255.874334866    
 correlation                 :     -4.56415283187    
 total energy                :     -8575.96247443    
 
Density of states at Fermi energy :    65.62475561    
 (states/Hartree/unit cell)
 
Estimated indirect band gap :   0.7102889785E-04
 from k-point    254 to k-point     19
Estimated direct band gap   :   0.2657666351E-02
 at k-point     11
 
Charges :
 core                        :    56.00000000    
 valence                     :    30.00000000    
 interstitial                :    3.742911216    
 muffin-tins (core leakage)
  species :    1 (Tc)
   atom    1                 :    41.12854439     (  0.5832156411E-06)
   atom    2                 :    41.12854439     (  0.5832156411E-06)
 total in muffin-tins        :    82.25708878    
 total calculated charge     :    85.99973225    
 total charge                :    86.00000000    
 error                       :   0.2677540054E-03
 
RMS change in Kohn-Sham potential (target) :   0.5153416194E-04 (   10.00000000    )
Absolute change in total energy (target)   :   0.3132356142E-05 (  0.1000000000E-07)
 
Time (CPU seconds) :      1500.18
 
+--------------------+
| Loop number :   24 |
+--------------------+
 
Energies :
 Fermi                       :     0.544609954127    
 sum of eigenvalues          :     -5095.93406372    
 electron kinetic            :      8916.70868476    
 core electron kinetic       :      8690.85805816    
 Coulomb                     :     -17232.2326693    
 Coulomb potential           :     -13666.9709003    
 nuclear-nuclear             :     -912.953745242    
 electron-nuclear            :     -18971.5869479    
 Hartree                     :      2652.30802378    
 Madelung                    :     -10398.7472192    
 xc potential                :     -345.671848184    
 exchange                    :     -255.874334833    
 correlation                 :     -4.56415282380    
 total energy                :     -8575.96247222    
 
Density of states at Fermi energy :    65.62308641    
 (states/Hartree/unit cell)
 
Estimated indirect band gap :   0.7088954727E-04
 from k-point    254 to k-point     19
Estimated direct band gap   :   0.2657888907E-02
 at k-point     11
 
Charges :
 core                        :    56.00000000    
 valence                     :    30.00000000    
 interstitial                :    3.742911080    
 muffin-tins (core leakage)
  species :    1 (Tc)
   atom    1                 :    41.12854446     (  0.5830431213E-06)
   atom    2                 :    41.12854446     (  0.5830431213E-06)
 total in muffin-tins        :    82.25708892    
 total calculated charge     :    85.99973225    
 total charge                :    86.00000000    
 error                       :   0.2677525170E-03
 
Wrote STATE.OUT
 
RMS change in Kohn-Sham potential (target) :   0.9104319159E-04 (   10.00000000    )
Absolute change in total energy (target)   :   0.1428632459E-05 (  0.1000000000E-07)
 
Time (CPU seconds) :      1563.64
 
+--------------------+
| Loop number :   25 |
+--------------------+
 
Energies :
 Fermi                       :     0.544609990293    
 sum of eigenvalues          :     -5095.93406013    
 electron kinetic            :      8916.70868583    
 core electron kinetic       :      8690.85805731    
 Coulomb                     :     -17232.2326681    
 Coulomb potential           :     -13666.9708978    
 nuclear-nuclear             :     -912.953745242    
 electron-nuclear            :     -18971.5869479    
 Hartree                     :      2652.30802502    
 Madelung                    :     -10398.7472192    
 xc potential                :     -345.671848145    
 exchange                    :     -255.874334802    
 correlation                 :     -4.56415281924    
 total energy                :     -8575.96246987    
 
Density of states at Fermi energy :    65.62227292    
 (states/Hartree/unit cell)
 
Estimated indirect band gap :   0.7080854688E-04
 from k-point    254 to k-point     19
Estimated direct band gap   :   0.2657970151E-02
 at k-point     11
 
Charges :
 core                        :    56.00000000    
 valence                     :    30.00000000    
 interstitial                :    3.742910980    
 muffin-tins (core leakage)
  species :    1 (Tc)
   atom    1                 :    41.12854451     (  0.5832299017E-06)
   atom    2                 :    41.12854451     (  0.5832299017E-06)
 total in muffin-tins        :    82.25708902    
 total calculated charge     :    85.99973225    
 total charge                :    86.00000000    
 error                       :   0.2677520232E-03
 
RMS change in Kohn-Sham potential (target) :   0.8464285882E-04 (   10.00000000    )
Absolute change in total energy (target)   :   0.2707665772E-05 (  0.1000000000E-07)
 
Time (CPU seconds) :      1625.59
 
+--------------------+
| Loop number :   26 |
+--------------------+
 
Energies :
 Fermi                       :     0.544610006518    
 sum of eigenvalues          :     -5095.93405881    
 electron kinetic            :      8916.70868694    
 core electron kinetic       :      8690.85805826    
 Coulomb                     :     -17232.2326680    
 Coulomb potential           :     -13666.9708976    
 nuclear-nuclear             :     -912.953745242    
 electron-nuclear            :     -18971.5869479    
 Hartree                     :      2652.30802513    
 Madelung                    :     -10398.7472192    
 xc potential                :     -345.671848147    
 exchange                    :     -255.874334805    
 correlation                 :     -4.56415281801    
 total energy                :     -8575.96246866    
 
Density of states at Fermi energy :    65.62233359    
 (states/Hartree/unit cell)
 
Estimated indirect band gap :   0.7078980583E-04
 from k-point    254 to k-point     19
Estimated direct band gap   :   0.2657960962E-02
 at k-point     11
 
Charges :
 core                        :    56.00000000    
 valence                     :    30.00000000    
 interstitial                :    3.742910959    
 muffin-tins (core leakage)
  species :    1 (Tc)
   atom    1                 :    41.12854452     (  0.5831035566E-06)
   atom    2                 :    41.12854452     (  0.5831035566E-06)
 total in muffin-tins        :    82.25708904    
 total calculated charge     :    85.99973225    
 total charge                :    86.00000000    
 error                       :   0.2677516543E-03
 
Wrote STATE.OUT
 
RMS change in Kohn-Sham potential (target) :   0.1958319169E-04 (   10.00000000    )
Absolute change in total energy (target)   :   0.1886002792E-05 (  0.1000000000E-07)
 
Time (CPU seconds) :      1688.31
 
+--------------------+
| Loop number :   27 |
+--------------------+
 
Energies :
 Fermi                       :     0.544610009471    
 sum of eigenvalues          :     -5095.93405865    
 electron kinetic            :      8916.70868745    
 core electron kinetic       :      8690.85805842    
 Coulomb                     :     -17232.2326681    
 Coulomb potential           :     -13666.9708980    
 nuclear-nuclear             :     -912.953745242    
 electron-nuclear            :     -18971.5869479    
 Hartree                     :      2652.30802495    
 Madelung                    :     -10398.7472192    
 xc potential                :     -345.671848154    
 exchange                    :     -255.874334810    
 correlation                 :     -4.56415281878    
 total energy                :     -8575.96246833    
 
Density of states at Fermi energy :    65.62250957    
 (states/Hartree/unit cell)
 
Estimated indirect band gap :   0.7080420179E-04
 from k-point    254 to k-point     19
Estimated direct band gap   :   0.2657933740E-02
 at k-point     11
 
Charges :
 core                        :    56.00000000    
 valence                     :    30.00000000    
 interstitial                :    3.742910968    
 muffin-tins (core leakage)
  species :    1 (Tc)
   atom    1                 :    41.12854452     (  0.5830580783E-06)
   atom    2                 :    41.12854452     (  0.5830580783E-06)
 total in muffin-tins        :    82.25708903    
 total calculated charge     :    85.99973225    
 total charge                :    86.00000000    
 error                       :   0.2677517054E-03
 
RMS change in Kohn-Sham potential (target) :   0.9439466693E-04 (   10.00000000    )
Absolute change in total energy (target)   :   0.8040588000E-06 (  0.1000000000E-07)
 
Time (CPU seconds) :      1754.68
 
+--------------------+
| Loop number :   28 |
+--------------------+
 
Energies :
 Fermi                       :     0.544610015930    
 sum of eigenvalues          :     -5095.93405806    
 electron kinetic            :      8916.70868787    
 core electron kinetic       :      8690.85805822    
 Coulomb                     :     -17232.2326681    
 Coulomb potential           :     -13666.9708978    
 nuclear-nuclear             :     -912.953745242    
 electron-nuclear            :     -18971.5869479    
 Hartree                     :      2652.30802504    
 Madelung                    :     -10398.7472192    
 xc potential                :     -345.671848149    
 exchange                    :     -255.874334807    
 correlation                 :     -4.56415281842    
 total energy                :     -8575.96246782    
 
Density of states at Fermi energy :    65.62243508    
 (states/Hartree/unit cell)
 
Estimated indirect band gap :   0.7079477792E-04
 from k-point    254 to k-point     19
Estimated direct band gap   :   0.2657943563E-02
 at k-point     11
 
Charges :
 core                        :    56.00000000    
 valence                     :    30.00000000    
 interstitial                :    3.742910959    
 muffin-tins (core leakage)
  species :    1 (Tc)
   atom    1                 :    41.12854452     (  0.5831271359E-06)
   atom    2                 :    41.12854452     (  0.5831271359E-06)
 total in muffin-tins        :    82.25708904    
 total calculated charge     :    85.99973225    
 total charge                :    86.00000000    
 error                       :   0.2677517509E-03
 
Wrote STATE.OUT
 
RMS change in Kohn-Sham potential (target) :   0.8459867697E-04 (   10.00000000    )
Absolute change in total energy (target)   :   0.7105063560E-06 (  0.1000000000E-07)
 
Time (CPU seconds) :      1818.91
 
+--------------------+
| Loop number :   29 |
+--------------------+
 
Energies :
 Fermi                       :     0.544610023830    
 sum of eigenvalues          :     -5095.93405736    
 electron kinetic            :      8916.70868839    
 core electron kinetic       :      8690.85805872    
 Coulomb                     :     -17232.2326680    
 Coulomb potential           :     -13666.9708976    
 nuclear-nuclear             :     -912.953745242    
 electron-nuclear            :     -18971.5869479    
 Hartree                     :      2652.30802513    
 Madelung                    :     -10398.7472192    
 xc potential                :     -345.671848154    
 exchange                    :     -255.874334808    
 correlation                 :     -4.56415281800    
 total energy                :     -8575.96246720    
 
Density of states at Fermi energy :    65.62238684    
 (states/Hartree/unit cell)
 
Estimated indirect band gap :   0.7079159067E-04
 from k-point    254 to k-point     19
Estimated direct band gap   :   0.2657942240E-02
 at k-point     11
 
Charges :
 core                        :    56.00000000    
 valence                     :    30.00000000    
 interstitial                :    3.742910948    
 muffin-tins (core leakage)
  species :    1 (Tc)
   atom    1                 :    41.12854453     (  0.5830605261E-06)
   atom    2                 :    41.12854453     (  0.5830605261E-06)
 total in muffin-tins        :    82.25708905    
 total calculated charge     :    85.99973225    
 total charge                :    86.00000000    
 error                       :   0.2677515318E-03
 
RMS change in Kohn-Sham potential (target) :   0.1425598632E-04 (   10.00000000    )
Absolute change in total energy (target)   :   0.7886628737E-06 (  0.1000000000E-07)
 
Time (CPU seconds) :      1886.66
 
+--------------------+
| Loop number :   30 |
+--------------------+
 
Energies :
 Fermi                       :     0.544610021912    
 sum of eigenvalues          :     -5095.93405752    
 electron kinetic            :      8916.70868830    
 core electron kinetic       :      8690.85805871    
 Coulomb                     :     -17232.2326680    
 Coulomb potential           :     -13666.9708977    
 nuclear-nuclear             :     -912.953745242    
 electron-nuclear            :     -18971.5869479    
 Hartree                     :      2652.30802510    
 Madelung                    :     -10398.7472192    
 xc potential                :     -345.671848151    
 exchange                    :     -255.874334810    
 correlation                 :     -4.56415281760    
 total energy                :     -8575.96246734    
 
Density of states at Fermi energy :    65.62242198    
 (states/Hartree/unit cell)
 
Estimated indirect band gap :   0.7079706361E-04
 from k-point    254 to k-point     19
Estimated direct band gap   :   0.2657938593E-02
 at k-point     11
 
Charges :
 core                        :    56.00000000    
 valence                     :    30.00000000    
 interstitial                :    3.742910955    
 muffin-tins (core leakage)
  species :    1 (Tc)
   atom    1                 :    41.12854452     (  0.5830492178E-06)
   atom    2                 :    41.12854452     (  0.5830492178E-06)
 total in muffin-tins        :    82.25708905    
 total calculated charge     :    85.99973225    
 total charge                :    86.00000000    
 error                       :   0.2677515521E-03
 
Wrote STATE.OUT
 
RMS change in Kohn-Sham potential (target) :   0.2852915010E-03 (   10.00000000    )
Absolute change in total energy (target)   :   0.6530535757E-07 (  0.1000000000E-07)
 
Time (CPU seconds) :      1950.27
 
+--------------------+
| Loop number :   31 |
+--------------------+
 
Energies :
 Fermi                       :     0.544610021354    
 sum of eigenvalues          :     -5095.93405756    
 electron kinetic            :      8916.70868828    
 core electron kinetic       :      8690.85805849    
 Coulomb                     :     -17232.2326680    
 Coulomb potential           :     -13666.9708977    
 nuclear-nuclear             :     -912.953745242    
 electron-nuclear            :     -18971.5869479    
 Hartree                     :      2652.30802508    
 Madelung                    :     -10398.7472192    
 xc potential                :     -345.671848152    
 exchange                    :     -255.874334810    
 correlation                 :     -4.56415281755    
 total energy                :     -8575.96246737    
 
Density of states at Fermi energy :    65.62238703    
 (states/Hartree/unit cell)
 
Estimated indirect band gap :   0.7079274953E-04
 from k-point    254 to k-point     19
Estimated direct band gap   :   0.2657944646E-02
 at k-point     11
 
Charges :
 core                        :    56.00000000    
 valence                     :    30.00000000    
 interstitial                :    3.742910951    
 muffin-tins (core leakage)
  species :    1 (Tc)
   atom    1                 :    41.12854452     (  0.5831631285E-06)
   atom    2                 :    41.12854452     (  0.5831631285E-06)
 total in muffin-tins        :    82.25708905    
 total calculated charge     :    85.99973225    
 total charge                :    86.00000000    
 error                       :   0.2677517788E-03
 
RMS change in Kohn-Sham potential (target) :   0.5915681501E-04 (   10.00000000    )
Absolute change in total energy (target)   :   0.1281659934E-07 (  0.1000000000E-07)
 
Time (CPU seconds) :      2015.43
 
+--------------------+
| Loop number :   32 |
+--------------------+
 
Energies :
 Fermi                       :     0.544610024305    
 sum of eigenvalues          :     -5095.93405730    
 electron kinetic            :      8916.70868851    
 core electron kinetic       :      8690.85805859    
 Coulomb                     :     -17232.2326680    
 Coulomb potential           :     -13666.9708977    
 nuclear-nuclear             :     -912.953745242    
 electron-nuclear            :     -18971.5869479    
 Hartree                     :      2652.30802510    
 Madelung                    :     -10398.7472192    
 xc potential                :     -345.671848149    
 exchange                    :     -255.874334807    
 correlation                 :     -4.56415281808    
 total energy                :     -8575.96246712    
 
Density of states at Fermi energy :    65.62241097    
 (states/Hartree/unit cell)
 
Estimated indirect band gap :   0.7079504397E-04
 from k-point    254 to k-point     19
Estimated direct band gap   :   0.2657939371E-02
 at k-point     11
 
Charges :
 core                        :    56.00000000    
 valence                     :    30.00000000    
 interstitial                :    3.742910952    
 muffin-tins (core leakage)
  species :    1 (Tc)
   atom    1                 :    41.12854452     (  0.5831817482E-06)
   atom    2                 :    41.12854452     (  0.5831817482E-06)
 total in muffin-tins        :    82.25708905    
 total calculated charge     :    85.99973225    
 total charge                :    86.00000000    
 error                       :   0.2677517871E-03
 
Wrote STATE.OUT
 
RMS change in Kohn-Sham potential (target) :   0.5893676957E-04 (   10.00000000    )
Absolute change in total energy (target)   :   0.2444248821E-06 (  0.1000000000E-07)
 
Time (CPU seconds) :      2079.64
 
+--------------------+
| Loop number :   33 |
+--------------------+
 
Energies :
 Fermi                       :     0.544610025566    
 sum of eigenvalues          :     -5095.93405720    
 electron kinetic            :      8916.70868861    
 core electron kinetic       :      8690.85805867    
 Coulomb                     :     -17232.2326680    
 Coulomb potential           :     -13666.9708977    
 nuclear-nuclear             :     -912.953745242    
 electron-nuclear            :     -18971.5869479    
 Hartree                     :      2652.30802510    
 Madelung                    :     -10398.7472192    
 xc potential                :     -345.671848153    
 exchange                    :     -255.874334811    
 correlation                 :     -4.56415281722    
 total energy                :     -8575.96246702    
 
Density of states at Fermi energy :    65.62241278    
 (states/Hartree/unit cell)
 
Estimated indirect band gap :   0.7079497995E-04
 from k-point    254 to k-point     19
Estimated direct band gap   :   0.2657939012E-02
 at k-point     11
 
Charges :
 core                        :    56.00000000    
 valence                     :    30.00000000    
 interstitial                :    3.742910951    
 muffin-tins (core leakage)
  species :    1 (Tc)
   atom    1                 :    41.12854452     (  0.5832401264E-06)
   atom    2                 :    41.12854452     (  0.5832401264E-06)
 total in muffin-tins        :    82.25708905    
 total calculated charge     :    85.99973225    
 total charge                :    86.00000000    
 error                       :   0.2677518750E-03
 
RMS change in Kohn-Sham potential (target) :   0.6395838183E-04 (   10.00000000    )
Absolute change in total energy (target)   :   0.1562220859E-06 (  0.1000000000E-07)
 
Time (CPU seconds) :      2144.99
 
+--------------------+
| Loop number :   34 |
+--------------------+
 
Energies :
 Fermi                       :     0.544610025686    
 sum of eigenvalues          :     -5095.93405718    
 electron kinetic            :      8916.70868873    
 core electron kinetic       :      8690.85805875    
 Coulomb                     :     -17232.2326681    
 Coulomb potential           :     -13666.9708978    
 nuclear-nuclear             :     -912.953745242    
 electron-nuclear            :     -18971.5869479    
 Hartree                     :      2652.30802505    
 Madelung                    :     -10398.7472192    
 xc potential                :     -345.671848156    
 exchange                    :     -255.874334811    
 correlation                 :     -4.56415281797    
 total energy                :     -8575.96246695    
 
Density of states at Fermi energy :    65.62241548    
 (states/Hartree/unit cell)
 
Estimated indirect band gap :   0.7079543562E-04
 from k-point    254 to k-point     19
Estimated direct band gap   :   0.2657938514E-02
 at k-point     11
 
Charges :
 core                        :    56.00000000    
 valence                     :    30.00000000    
 interstitial                :    3.742910951    
 muffin-tins (core leakage)
  species :    1 (Tc)
   atom    1                 :    41.12854452     (  0.5829942040E-06)
   atom    2                 :    41.12854452     (  0.5829942040E-06)
 total in muffin-tins        :    82.25708905    
 total calculated charge     :    85.99973225    
 total charge                :    86.00000000    
 error                       :   0.2677513931E-03
 
Wrote STATE.OUT
 
RMS change in Kohn-Sham potential (target) :   0.1835207702E-03 (   10.00000000    )
Absolute change in total energy (target)   :   0.1112839527E-06 (  0.1000000000E-07)
 
Time (CPU seconds) :      2209.50
 
+--------------------+
| Loop number :   35 |
+--------------------+
 
Energies :
 Fermi                       :     0.544610026604    
 sum of eigenvalues          :     -5095.93405709    
 electron kinetic            :      8916.70868861    
 core electron kinetic       :      8690.85805851    
 Coulomb                     :     -17232.2326679    
 Coulomb potential           :     -13666.9708975    
 nuclear-nuclear             :     -912.953745242    
 electron-nuclear            :     -18971.5869479    
 Hartree                     :      2652.30802516    
 Madelung                    :     -10398.7472192    
 xc potential                :     -345.671848153    
 exchange                    :     -255.874334806    
 correlation                 :     -4.56415281822    
 total energy                :     -8575.96246696    
 
Density of states at Fermi energy :    65.62241006    
 (states/Hartree/unit cell)
 
Estimated indirect band gap :   0.7079489886E-04
 from k-point    254 to k-point     19
Estimated direct band gap   :   0.2657938906E-02
 at k-point     11
 
Charges :
 core                        :    56.00000000    
 valence                     :    30.00000000    
 interstitial                :    3.742910951    
 muffin-tins (core leakage)
  species :    1 (Tc)
   atom    1                 :    41.12854452     (  0.5830058960E-06)
   atom    2                 :    41.12854452     (  0.5830058960E-06)
 total in muffin-tins        :    82.25708905    
 total calculated charge     :    85.99973225    
 total charge                :    86.00000000    
 error                       :   0.2677514491E-03
 
RMS change in Kohn-Sham potential (target) :   0.4870206262E-04 (   10.00000000    )
Absolute change in total energy (target)   :   0.1573789632E-07 (  0.1000000000E-07)
 
Time (CPU seconds) :      2275.18
 
+--------------------+
| Loop number :   36 |
+--------------------+
 
Energies :
 Fermi                       :     0.544610027871    
 sum of eigenvalues          :     -5095.93405697    
 electron kinetic            :      8916.70868890    
 core electron kinetic       :      8690.85805881    
 Coulomb                     :     -17232.2326680    
 Coulomb potential           :     -13666.9708977    
 nuclear-nuclear             :     -912.953745242    
 electron-nuclear            :     -18971.5869479    
 Hartree                     :      2652.30802507    
 Madelung                    :     -10398.7472192    
 xc potential                :     -345.671848150    
 exchange                    :     -255.874334810    
 correlation                 :     -4.56415281768    
 total energy                :     -8575.96246676    
 
Density of states at Fermi energy :    65.62241538    
 (states/Hartree/unit cell)
 
Estimated indirect band gap :   0.7079586873E-04
 from k-point    254 to k-point     19
Estimated direct band gap   :   0.2657937643E-02
 at k-point     11
 
Charges :
 core                        :    56.00000000    
 valence                     :    30.00000000    
 interstitial                :    3.742910952    
 muffin-tins (core leakage)
  species :    1 (Tc)
   atom    1                 :    41.12854452     (  0.5830600571E-06)
   atom    2                 :    41.12854452     (  0.5830600571E-06)
 total in muffin-tins        :    82.25708905    
 total calculated charge     :    85.99973225    
 total charge                :    86.00000000    
 error                       :   0.2677515696E-03
 
Wrote STATE.OUT
 
RMS change in Kohn-Sham potential (target) :   0.1936182614E-03 (   10.00000000    )
Absolute change in total energy (target)   :   0.2076594683E-06 (  0.1000000000E-07)
 
Time (CPU seconds) :      2337.27
 
+--------------------+
| Loop number :   37 |
+--------------------+
 
Energies :
 Fermi                       :     0.544610027469    
 sum of eigenvalues          :     -5095.93405702    
 electron kinetic            :      8916.70868870    
 core electron kinetic       :      8690.85805855    
 Coulomb                     :     -17232.2326680    
 Coulomb potential           :     -13666.9708976    
 nuclear-nuclear             :     -912.953745242    
 electron-nuclear            :     -18971.5869479    
 Hartree                     :      2652.30802515    
 Madelung                    :     -10398.7472192    
 xc potential                :     -345.671848148    
 exchange                    :     -255.874334805    
 correlation                 :     -4.56415281826    
 total energy                :     -8575.96246688    
 
Density of states at Fermi energy :    65.62240983    
 (states/Hartree/unit cell)
 
Estimated indirect band gap :   0.7079518859E-04
 from k-point    254 to k-point     19
Estimated direct band gap   :   0.2657938742E-02
 at k-point     11
 
Charges :
 core                        :    56.00000000    
 valence                     :    30.00000000    
 interstitial                :    3.742910951    
 muffin-tins (core leakage)
  species :    1 (Tc)
   atom    1                 :    41.12854452     (  0.5831728664E-06)
   atom    2                 :    41.12854452     (  0.5831728664E-06)
 total in muffin-tins        :    82.25708905    
 total calculated charge     :    85.99973225    
 total charge                :    86.00000000    
 error                       :   0.2677517495E-03
 
RMS change in Kohn-Sham potential (target) :   0.1556665372E-04 (   10.00000000    )
Absolute change in total energy (target)   :   0.6738991942E-07 (  0.1000000000E-07)
 
Time (CPU seconds) :      2401.47
 
+--------------------+
| Loop number :   38 |
+--------------------+
 
Energies :
 Fermi                       :     0.544610028138    
 sum of eigenvalues          :     -5095.93405697    
 electron kinetic            :      8916.70868882    
 core electron kinetic       :      8690.85805865    
 Coulomb                     :     -17232.2326680    
 Coulomb potential           :     -13666.9708976    
 nuclear-nuclear             :     -912.953745242    
 electron-nuclear            :     -18971.5869479    
 Hartree                     :      2652.30802511    
 Madelung                    :     -10398.7472192    
 xc potential                :     -345.671848151    
 exchange                    :     -255.874334811    
 correlation                 :     -4.56415281743    
 total energy                :     -8575.96246680    
 
Density of states at Fermi energy :    65.62241244    
 (states/Hartree/unit cell)
 
Estimated indirect band gap :   0.7079561831E-04
 from k-point    254 to k-point     19
Estimated direct band gap   :   0.2657938104E-02
 at k-point     11
 
Charges :
 core                        :    56.00000000    
 valence                     :    30.00000000    
 interstitial                :    3.742910951    
 muffin-tins (core leakage)
  species :    1 (Tc)
   atom    1                 :    41.12854452     (  0.5831698395E-06)
   atom    2                 :    41.12854452     (  0.5831698395E-06)
 total in muffin-tins        :    82.25708905    
 total calculated charge     :    85.99973225    
 total charge                :    86.00000000    
 error                       :   0.2677517875E-03
 
Wrote STATE.OUT
 
RMS change in Kohn-Sham potential (target) :   0.5581293310E-03 (   10.00000000    )
Absolute change in total energy (target)   :   0.6192203728E-07 (  0.1000000000E-07)
 
Time (CPU seconds) :      2465.39
 
+--------------------+
| Loop number :   39 |
+--------------------+
 
Energies :
 Fermi                       :     0.544610028711    
 sum of eigenvalues          :     -5095.93405690    
 electron kinetic            :      8916.70868905    
 core electron kinetic       :      8690.85805887    
 Coulomb                     :     -17232.2326681    
 Coulomb potential           :     -13666.9708978    
 nuclear-nuclear             :     -912.953745242    
 electron-nuclear            :     -18971.5869479    
 Hartree                     :      2652.30802503    
 Madelung                    :     -10398.7472192    
 xc potential                :     -345.671848156    
 exchange                    :     -255.874334815    
 correlation                 :     -4.56415281747    
 total energy                :     -8575.96246665    
 
Density of states at Fermi energy :    65.62241563    
 (states/Hartree/unit cell)
 
Estimated indirect band gap :   0.7079619819E-04
 from k-point    254 to k-point     19
Estimated direct band gap   :   0.2657937519E-02
 at k-point     11
 
Charges :
 core                        :    56.00000000    
 valence                     :    30.00000000    
 interstitial                :    3.742910950    
 muffin-tins (core leakage)
  species :    1 (Tc)
   atom    1                 :    41.12854452     (  0.5829895464E-06)
   atom    2                 :    41.12854452     (  0.5829895464E-06)
 total in muffin-tins        :    82.25708905    
 total calculated charge     :    85.99973225    
 total charge                :    86.00000000    
 error                       :   0.2677514007E-03
 
RMS change in Kohn-Sham potential (target) :   0.3854071257E-03 (   10.00000000    )
Absolute change in total energy (target)   :   0.1622083801E-06 (  0.1000000000E-07)
 
Time (CPU seconds) :      2527.83
 
+--------------------+
| Loop number :   40 |
+--------------------+
 
Energies :
 Fermi                       :     0.544610028978    
 sum of eigenvalues          :     -5095.93405684    
 electron kinetic            :      8916.70868910    
 core electron kinetic       :      8690.85805888    
 Coulomb                     :     -17232.2326681    
 Coulomb potential           :     -13666.9708978    
 nuclear-nuclear             :     -912.953745242    
 electron-nuclear            :     -18971.5869479    
 Hartree                     :      2652.30802504    
 Madelung                    :     -10398.7472192    
 xc potential                :     -345.671848152    
 exchange                    :     -255.874334812    
 correlation                 :     -4.56415281748    
 total energy                :     -8575.96246660    
 
Density of states at Fermi energy :    65.62241792    
 (states/Hartree/unit cell)
 
Estimated indirect band gap :   0.7079660550E-04
 from k-point    254 to k-point     19
Estimated direct band gap   :   0.2657937256E-02
 at k-point     11
 
Charges :
 core                        :    56.00000000    
 valence                     :    30.00000000    
 interstitial                :    3.742910951    
 muffin-tins (core leakage)
  species :    1 (Tc)
   atom    1                 :    41.12854452     (  0.5831320351E-06)
   atom    2                 :    41.12854452     (  0.5831320351E-06)
 total in muffin-tins        :    82.25708905    
 total calculated charge     :    85.99973225    
 total charge                :    86.00000000    
 error                       :   0.2677517137E-03
 
Wrote STATE.OUT
 
RMS change in Kohn-Sham potential (target) :   0.1327805149E-03 (   10.00000000    )
Absolute change in total energy (target)   :   0.9353061614E-07 (  0.1000000000E-07)
 
Time (CPU seconds) :      2591.05
 
+--------------------+
| Loop number :   41 |
+--------------------+
 
Energies :
 Fermi                       :     0.544610028714    
 sum of eigenvalues          :     -5095.93405689    
 electron kinetic            :      8916.70868901    
 core electron kinetic       :      8690.85805878    
 Coulomb                     :     -17232.2326680    
 Coulomb potential           :     -13666.9708977    
 nuclear-nuclear             :     -912.953745242    
 electron-nuclear            :     -18971.5869479    
 Hartree                     :      2652.30802506    
 Madelung                    :     -10398.7472192    
 xc potential                :     -345.671848151    
 exchange                    :     -255.874334808    
 correlation                 :     -4.56415281814    
 total energy                :     -8575.96246666    
 
Density of states at Fermi energy :    65.62241558    
 (states/Hartree/unit cell)
 
Estimated indirect band gap :   0.7079622123E-04
 from k-point    254 to k-point     19
Estimated direct band gap   :   0.2657937662E-02
 at k-point     11
 
Charges :
 core                        :    56.00000000    
 valence                     :    30.00000000    
 interstitial                :    3.742910951    
 muffin-tins (core leakage)
  species :    1 (Tc)
   atom    1                 :    41.12854452     (  0.5831508147E-06)
   atom    2                 :    41.12854452     (  0.5831508147E-06)
 total in muffin-tins        :    82.25708905    
 total calculated charge     :    85.99973225    
 total charge                :    86.00000000    
 error                       :   0.2677517107E-03
 
RMS change in Kohn-Sham potential (target) :   0.2056926163E-03 (   10.00000000    )
Absolute change in total energy (target)   :   0.4073081072E-07 (  0.1000000000E-07)
 
Time (CPU seconds) :      2657.23
 
+--------------------+
| Loop number :   42 |
+--------------------+
 
Energies :
 Fermi                       :     0.544610028813    
 sum of eigenvalues          :     -5095.93405688    
 electron kinetic            :      8916.70868893    
 core electron kinetic       :      8690.85805875    
 Coulomb                     :     -17232.2326680    
 Coulomb potential           :     -13666.9708977    
 nuclear-nuclear             :     -912.953745242    
 electron-nuclear            :     -18971.5869479    
 Hartree                     :      2652.30802510    
 Madelung                    :     -10398.7472192    
 xc potential                :     -345.671848153    
 exchange                    :     -255.874334810    
 correlation                 :     -4.56415281796    
 total energy                :     -8575.96246670    
 
Density of states at Fermi energy :    65.62241603    
 (states/Hartree/unit cell)
 
Estimated indirect band gap :   0.7079629837E-04
 from k-point    254 to k-point     19
Estimated direct band gap   :   0.2657937578E-02
 at k-point     11
 
Charges :
 core                        :    56.00000000    
 valence                     :    30.00000000    
 interstitial                :    3.742910951    
 muffin-tins (core leakage)
  species :    1 (Tc)
   atom    1                 :    41.12854452     (  0.5830732448E-06)
   atom    2                 :    41.12854452     (  0.5830732448E-06)
 total in muffin-tins        :    82.25708905    
 total calculated charge     :    85.99973225    
 total charge                :    86.00000000    
 error                       :   0.2677515597E-03
 
Wrote STATE.OUT
 
RMS change in Kohn-Sham potential (target) :   0.4395533961E-04 (   10.00000000    )
Absolute change in total energy (target)   :   0.4423964128E-07 (  0.1000000000E-07)
 
Time (CPU seconds) :      2721.10
 
+--------------------+
| Loop number :   43 |
+--------------------+
 
Energies :
 Fermi                       :     0.544610028686    
 sum of eigenvalues          :     -5095.93405690    
 electron kinetic            :      8916.70868885    
 core electron kinetic       :      8690.85805864    
 Coulomb                     :     -17232.2326680    
 Coulomb potential           :     -13666.9708976    
 nuclear-nuclear             :     -912.953745242    
 electron-nuclear            :     -18971.5869479    
 Hartree                     :      2652.30802513    
 Madelung                    :     -10398.7472192    
 xc potential                :     -345.671848148    
 exchange                    :     -255.874334806    
 correlation                 :     -4.56415281818    
 total energy                :     -8575.96246675    
 
Density of states at Fermi energy :    65.62241496    
 (states/Hartree/unit cell)
 
Estimated indirect band gap :   0.7079612881E-04
 from k-point    254 to k-point     19
Estimated direct band gap   :   0.2657937727E-02
 at k-point     11
 
Charges :
 core                        :    56.00000000    
 valence                     :    30.00000000    
 interstitial                :    3.742910951    
 muffin-tins (core leakage)
  species :    1 (Tc)
   atom    1                 :    41.12854452     (  0.5831717012E-06)
   atom    2                 :    41.12854452     (  0.5831717012E-06)
 total in muffin-tins        :    82.25708905    
 total calculated charge     :    85.99973225    
 total charge                :    86.00000000    
 error                       :   0.2677517933E-03
 
RMS change in Kohn-Sham potential (target) :   0.4363844091E-04 (   10.00000000    )
Absolute change in total energy (target)   :   0.6245863915E-07 (  0.1000000000E-07)
 
Time (CPU seconds) :      2786.36
 
+--------------------+
| Loop number :   44 |
+--------------------+
 
Energies :
 Fermi                       :     0.544610028654    
 sum of eigenvalues          :     -5095.93405691    
 electron kinetic            :      8916.70868886    
 core electron kinetic       :      8690.85805864    
 Coulomb                     :     -17232.2326680    
 Coulomb potential           :     -13666.9708976    
 nuclear-nuclear             :     -912.953745242    
 electron-nuclear            :     -18971.5869479    
 Hartree                     :      2652.30802512    
 Madelung                    :     -10398.7472192    
 xc potential                :     -345.671848150    
 exchange                    :     -255.874334806    
 correlation                 :     -4.56415281832    
 total energy                :     -8575.96246675    
 
Density of states at Fermi energy :    65.62241466    
 (states/Hartree/unit cell)
 
Estimated indirect band gap :   0.7079607200E-04
 from k-point    254 to k-point     19
Estimated direct band gap   :   0.2657937767E-02
 at k-point     11
 
Charges :
 core                        :    56.00000000    
 valence                     :    30.00000000    
 interstitial                :    3.742910951    
 muffin-tins (core leakage)
  species :    1 (Tc)
   atom    1                 :    41.12854452     (  0.5831936143E-06)
   atom    2                 :    41.12854452     (  0.5831936143E-06)
 total in muffin-tins        :    82.25708905    
 total calculated charge     :    85.99973225    
 total charge                :    86.00000000    
 error                       :   0.2677518319E-03
 
Wrote STATE.OUT
 
RMS change in Kohn-Sham potential (target) :   0.2711635015E-04 (   10.00000000    )
Absolute change in total energy (target)   :   0.1625085133E-07 (  0.1000000000E-07)
 
Time (CPU seconds) :      2851.61
 
+--------------------+
| Loop number :   45 |
+--------------------+
 
Energies :
 Fermi                       :     0.544610028705    
 sum of eigenvalues          :     -5095.93405691    
 electron kinetic            :      8916.70868883    
 core electron kinetic       :      8690.85805863    
 Coulomb                     :     -17232.2326680    
 Coulomb potential           :     -13666.9708976    
 nuclear-nuclear             :     -912.953745242    
 electron-nuclear            :     -18971.5869479    
 Hartree                     :      2652.30802514    
 Madelung                    :     -10398.7472192    
 xc potential                :     -345.671848151    
 exchange                    :     -255.874334807    
 correlation                 :     -4.56415281838    
 total energy                :     -8575.96246676    
 
Density of states at Fermi energy :    65.62241482    
 (states/Hartree/unit cell)
 
Estimated indirect band gap :   0.7079611131E-04
 from k-point    254 to k-point     19
Estimated direct band gap   :   0.2657937736E-02
 at k-point     11
 
Charges :
 core                        :    56.00000000    
 valence                     :    30.00000000    
 interstitial                :    3.742910951    
 muffin-tins (core leakage)
  species :    1 (Tc)
   atom    1                 :    41.12854452     (  0.5831312322E-06)
   atom    2                 :    41.12854452     (  0.5831312322E-06)
 total in muffin-tins        :    82.25708905    
 total calculated charge     :    85.99973225    
 total charge                :    86.00000000    
 error                       :   0.2677517052E-03
 
RMS change in Kohn-Sham potential (target) :   0.4086406977E-04 (   10.00000000    )
Absolute change in total energy (target)   :   0.1677108230E-07 (  0.1000000000E-07)
 
Time (CPU seconds) :      2914.14
 
+--------------------+
| Loop number :   46 |
+--------------------+
 
Energies :
 Fermi                       :     0.544610028724    
 sum of eigenvalues          :     -5095.93405690    
 electron kinetic            :      8916.70868882    
 core electron kinetic       :      8690.85805862    
 Coulomb                     :     -17232.2326680    
 Coulomb potential           :     -13666.9708976    
 nuclear-nuclear             :     -912.953745242    
 electron-nuclear            :     -18971.5869479    
 Hartree                     :      2652.30802514    
 Madelung                    :     -10398.7472192    
 xc potential                :     -345.671848150    
 exchange                    :     -255.874334807    
 correlation                 :     -4.56415281821    
 total energy                :     -8575.96246676    
 
Density of states at Fermi energy :    65.62241470    
 (states/Hartree/unit cell)
 
Estimated indirect band gap :   0.7079610979E-04
 from k-point    254 to k-point     19
Estimated direct band gap   :   0.2657937734E-02
 at k-point     11
 
Charges :
 core                        :    56.00000000    
 valence                     :    30.00000000    
 interstitial                :    3.742910951    
 muffin-tins (core leakage)
  species :    1 (Tc)
   atom    1                 :    41.12854452     (  0.5831086121E-06)
   atom    2                 :    41.12854452     (  0.5831086121E-06)
 total in muffin-tins        :    82.25708905    
 total calculated charge     :    85.99973225    
 total charge                :    86.00000000    
 error                       :   0.2677516235E-03
 
Wrote STATE.OUT
 
RMS change in Kohn-Sham potential (target) :   0.1716875577E-03 (   10.00000000    )
Absolute change in total energy (target)   :   0.2999513526E-08 (  0.1000000000E-07)
 
Convergence targets achieved
 
Time (CPU seconds) :      2977.21
 
+--------------------+
| Loop number :   47 |
+--------------------+
 
Energies :
 Fermi                       :     0.544610028743    
 sum of eigenvalues          :     -5095.93405689    
 electron kinetic            :      8916.70868901    
 core electron kinetic       :      8690.85805882    
 Coulomb                     :     -17232.2326680    
 Coulomb potential           :     -13666.9708977    
 nuclear-nuclear             :     -912.953745242    
 electron-nuclear            :     -18971.5869479    
 Hartree                     :      2652.30802506    
 Madelung                    :     -10398.7472192    
 xc potential                :     -345.671848150    
 exchange                    :     -255.874334808    
 correlation                 :     -4.56415281801    
 total energy                :     -8575.96246667    
 
Density of states at Fermi energy :    65.62241475    
 (states/Hartree/unit cell)
 
Estimated indirect band gap :   0.7079612761E-04
 from k-point    254 to k-point     19
Estimated direct band gap   :   0.2657937721E-02
 at k-point     11
 
Charges :
 core                        :    56.00000000    
 valence                     :    30.00000000    
 interstitial                :    3.742910952    
 muffin-tins (core leakage)
  species :    1 (Tc)
   atom    1                 :    41.12854452     (  0.5832051215E-06)
   atom    2                 :    41.12854452     (  0.5832051215E-06)
 total in muffin-tins        :    82.25708905    
 total calculated charge     :    85.99973225    
 total charge                :    86.00000000    
 error                       :   0.2677518104E-03
 
+------------------------------+
| Self-consistent loop stopped |
+------------------------------+
 
Wrote STATE.OUT
 
Timings (CPU seconds) :
 initialisation                        :         0.93
 Hamiltonian and overlap matrix set up :       770.03
 first-variational eigenvalue equation :      1093.90
 charge density calculation            :       636.72
 potential calculation                 :       539.84
 total                                 :      3041.42
 
+----------------------------+
| Elk version 8.3.15 stopped |
+----------------------------+
