   297 : nkpt; k-point, vkl, wkpt, nmat below
     1   0.000000000       0.000000000       0.000000000      0.2035416243E-03     515
     2  0.5882352941E-01   0.000000000       0.000000000      0.1221249746E-02     525
     3  0.1176470588       0.000000000       0.000000000      0.1221249746E-02     522
     4  0.1764705882       0.000000000       0.000000000      0.1221249746E-02     522
     5  0.2352941176       0.000000000       0.000000000      0.1221249746E-02     522
     6  0.2941176471       0.000000000       0.000000000      0.1221249746E-02     522
     7  0.3529411765       0.000000000       0.000000000      0.1221249746E-02     518
     8  0.4117647059       0.000000000       0.000000000      0.1221249746E-02     516
     9  0.4705882353       0.000000000       0.000000000      0.1221249746E-02     516
    10  0.5882352941E-01  0.5882352941E-01   0.000000000      0.1221249746E-02     523
    11  0.1176470588      0.5882352941E-01   0.000000000      0.2442499491E-02     525
    12  0.1764705882      0.5882352941E-01   0.000000000      0.2442499491E-02     521
    13  0.2352941176      0.5882352941E-01   0.000000000      0.2442499491E-02     518
    14  0.2941176471      0.5882352941E-01   0.000000000      0.2442499491E-02     516
    15  0.3529411765      0.5882352941E-01   0.000000000      0.2442499491E-02     516
    16  0.4117647059      0.5882352941E-01   0.000000000      0.2442499491E-02     515
    17  0.4705882353      0.5882352941E-01   0.000000000      0.1221249746E-02     516
    18  0.1176470588      0.1176470588       0.000000000      0.1221249746E-02     525
    19  0.1764705882      0.1176470588       0.000000000      0.2442499491E-02     523
    20  0.2352941176      0.1176470588       0.000000000      0.2442499491E-02     517
    21  0.2941176471      0.1176470588       0.000000000      0.2442499491E-02     514
    22  0.3529411765      0.1176470588       0.000000000      0.2442499491E-02     513
    23  0.4117647059      0.1176470588       0.000000000      0.2442499491E-02     514
    24  0.1764705882      0.1764705882       0.000000000      0.1221249746E-02     519
    25  0.2352941176      0.1764705882       0.000000000      0.2442499491E-02     515
    26  0.2941176471      0.1764705882       0.000000000      0.2442499491E-02     518
    27  0.3529411765      0.1764705882       0.000000000      0.2442499491E-02     514
    28  0.4117647059      0.1764705882       0.000000000      0.1221249746E-02     512
    29  0.2352941176      0.2352941176       0.000000000      0.1221249746E-02     512
    30  0.2941176471      0.2352941176       0.000000000      0.2442499491E-02     519
    31  0.3529411765      0.2352941176       0.000000000      0.2442499491E-02     515
    32  0.2941176471      0.2941176471       0.000000000      0.1221249746E-02     518
    33  0.3529411765      0.2941176471       0.000000000      0.1221249746E-02     514
    34   0.000000000       0.000000000      0.5882352941E-01  0.4070832485E-03     527
    35  0.5882352941E-01   0.000000000      0.5882352941E-01  0.2442499491E-02     523
    36  0.1176470588       0.000000000      0.5882352941E-01  0.2442499491E-02     520
    37  0.1764705882       0.000000000      0.5882352941E-01  0.2442499491E-02     520
    38  0.2352941176       0.000000000      0.5882352941E-01  0.2442499491E-02     523
    39  0.2941176471       0.000000000      0.5882352941E-01  0.2442499491E-02     520
    40  0.3529411765       0.000000000      0.5882352941E-01  0.2442499491E-02     517
    41  0.4117647059       0.000000000      0.5882352941E-01  0.2442499491E-02     518
    42  0.4705882353       0.000000000      0.5882352941E-01  0.2442499491E-02     514
    43  0.5882352941E-01  0.5882352941E-01  0.5882352941E-01  0.2442499491E-02     523
    44  0.1176470588      0.5882352941E-01  0.5882352941E-01  0.4884998982E-02     524
    45  0.1764705882      0.5882352941E-01  0.5882352941E-01  0.4884998982E-02     522
    46  0.2352941176      0.5882352941E-01  0.5882352941E-01  0.4884998982E-02     517
    47  0.2941176471      0.5882352941E-01  0.5882352941E-01  0.4884998982E-02     516
    48  0.3529411765      0.5882352941E-01  0.5882352941E-01  0.4884998982E-02     516
    49  0.4117647059      0.5882352941E-01  0.5882352941E-01  0.4884998982E-02     515
    50  0.4705882353      0.5882352941E-01  0.5882352941E-01  0.2442499491E-02     513
    51  0.1176470588      0.1176470588      0.5882352941E-01  0.2442499491E-02     526
    52  0.1764705882      0.1176470588      0.5882352941E-01  0.4884998982E-02     522
    53  0.2352941176      0.1176470588      0.5882352941E-01  0.4884998982E-02     517
    54  0.2941176471      0.1176470588      0.5882352941E-01  0.4884998982E-02     515
    55  0.3529411765      0.1176470588      0.5882352941E-01  0.4884998982E-02     513
    56  0.4117647059      0.1176470588      0.5882352941E-01  0.4884998982E-02     512
    57  0.1764705882      0.1764705882      0.5882352941E-01  0.2442499491E-02     519
    58  0.2352941176      0.1764705882      0.5882352941E-01  0.4884998982E-02     517
    59  0.2941176471      0.1764705882      0.5882352941E-01  0.4884998982E-02     516
    60  0.3529411765      0.1764705882      0.5882352941E-01  0.4884998982E-02     515
    61  0.4117647059      0.1764705882      0.5882352941E-01  0.2442499491E-02     514
    62  0.2352941176      0.2352941176      0.5882352941E-01  0.2442499491E-02     516
    63  0.2941176471      0.2352941176      0.5882352941E-01  0.4884998982E-02     516
    64  0.3529411765      0.2352941176      0.5882352941E-01  0.4884998982E-02     515
    65  0.2941176471      0.2941176471      0.5882352941E-01  0.2442499491E-02     517
    66  0.3529411765      0.2941176471      0.5882352941E-01  0.2442499491E-02     518
    67   0.000000000       0.000000000      0.1176470588      0.4070832485E-03     527
    68  0.5882352941E-01   0.000000000      0.1176470588      0.2442499491E-02     523
    69  0.1176470588       0.000000000      0.1176470588      0.2442499491E-02     521
    70  0.1764705882       0.000000000      0.1176470588      0.2442499491E-02     523
    71  0.2352941176       0.000000000      0.1176470588      0.2442499491E-02     521
    72  0.2941176471       0.000000000      0.1176470588      0.2442499491E-02     516
    73  0.3529411765       0.000000000      0.1176470588      0.2442499491E-02     515
    74  0.4117647059       0.000000000      0.1176470588      0.2442499491E-02     516
    75  0.4705882353       0.000000000      0.1176470588      0.2442499491E-02     512
    76  0.5882352941E-01  0.5882352941E-01  0.1176470588      0.2442499491E-02     523
    77  0.1176470588      0.5882352941E-01  0.1176470588      0.4884998982E-02     525
    78  0.1764705882      0.5882352941E-01  0.1176470588      0.4884998982E-02     523
    79  0.2352941176      0.5882352941E-01  0.1176470588      0.4884998982E-02     519
    80  0.2941176471      0.5882352941E-01  0.1176470588      0.4884998982E-02     515
    81  0.3529411765      0.5882352941E-01  0.1176470588      0.4884998982E-02     517
    82  0.4117647059      0.5882352941E-01  0.1176470588      0.4884998982E-02     515
    83  0.4705882353      0.5882352941E-01  0.1176470588      0.2442499491E-02     513
    84  0.1176470588      0.1176470588      0.1176470588      0.2442499491E-02     524
    85  0.1764705882      0.1176470588      0.1176470588      0.4884998982E-02     521
    86  0.2352941176      0.1176470588      0.1176470588      0.4884998982E-02     516
    87  0.2941176471      0.1176470588      0.1176470588      0.4884998982E-02     515
    88  0.3529411765      0.1176470588      0.1176470588      0.4884998982E-02     515
    89  0.4117647059      0.1176470588      0.1176470588      0.4884998982E-02     511
    90  0.1764705882      0.1764705882      0.1176470588      0.2442499491E-02     522
    91  0.2352941176      0.1764705882      0.1176470588      0.4884998982E-02     519
    92  0.2941176471      0.1764705882      0.1176470588      0.4884998982E-02     515
    93  0.3529411765      0.1764705882      0.1176470588      0.4884998982E-02     514
    94  0.4117647059      0.1764705882      0.1176470588      0.2442499491E-02     510
    95  0.2352941176      0.2352941176      0.1176470588      0.2442499491E-02     520
    96  0.2941176471      0.2352941176      0.1176470588      0.4884998982E-02     515
    97  0.3529411765      0.2352941176      0.1176470588      0.4884998982E-02     514
    98  0.2941176471      0.2941176471      0.1176470588      0.2442499491E-02     519
    99  0.3529411765      0.2941176471      0.1176470588      0.2442499491E-02     518
   100   0.000000000       0.000000000      0.1764705882      0.4070832485E-03     527
   101  0.5882352941E-01   0.000000000      0.1764705882      0.2442499491E-02     522
   102  0.1176470588       0.000000000      0.1764705882      0.2442499491E-02     525
   103  0.1764705882       0.000000000      0.1764705882      0.2442499491E-02     523
   104  0.2352941176       0.000000000      0.1764705882      0.2442499491E-02     517
   105  0.2941176471       0.000000000      0.1764705882      0.2442499491E-02     515
   106  0.3529411765       0.000000000      0.1764705882      0.2442499491E-02     515
   107  0.4117647059       0.000000000      0.1764705882      0.2442499491E-02     513
   108  0.4705882353       0.000000000      0.1764705882      0.2442499491E-02     510
   109  0.5882352941E-01  0.5882352941E-01  0.1764705882      0.2442499491E-02     524
   110  0.1176470588      0.5882352941E-01  0.1764705882      0.4884998982E-02     523
   111  0.1764705882      0.5882352941E-01  0.1764705882      0.4884998982E-02     523
   112  0.2352941176      0.5882352941E-01  0.1764705882      0.4884998982E-02     520
   113  0.2941176471      0.5882352941E-01  0.1764705882      0.4884998982E-02     516
   114  0.3529411765      0.5882352941E-01  0.1764705882      0.4884998982E-02     515
   115  0.4117647059      0.5882352941E-01  0.1764705882      0.4884998982E-02     515
   116  0.4705882353      0.5882352941E-01  0.1764705882      0.2442499491E-02     511
   117  0.1176470588      0.1176470588      0.1764705882      0.2442499491E-02     524
   118  0.1764705882      0.1176470588      0.1764705882      0.4884998982E-02     522
   119  0.2352941176      0.1176470588      0.1764705882      0.4884998982E-02     518
   120  0.2941176471      0.1176470588      0.1764705882      0.4884998982E-02     516
   121  0.3529411765      0.1176470588      0.1764705882      0.4884998982E-02     513
   122  0.4117647059      0.1176470588      0.1764705882      0.4884998982E-02     510
   123  0.1764705882      0.1764705882      0.1764705882      0.2442499491E-02     522
   124  0.2352941176      0.1764705882      0.1764705882      0.4884998982E-02     519
   125  0.2941176471      0.1764705882      0.1764705882      0.4884998982E-02     517
   126  0.3529411765      0.1764705882      0.1764705882      0.4884998982E-02     514
   127  0.4117647059      0.1764705882      0.1764705882      0.2442499491E-02     512
   128  0.2352941176      0.2352941176      0.1764705882      0.2442499491E-02     522
   129  0.2941176471      0.2352941176      0.1764705882      0.4884998982E-02     515
   130  0.3529411765      0.2352941176      0.1764705882      0.4884998982E-02     512
   131  0.2941176471      0.2941176471      0.1764705882      0.2442499491E-02     517
   132  0.3529411765      0.2941176471      0.1764705882      0.2442499491E-02     520
   133   0.000000000       0.000000000      0.2352941176      0.4070832485E-03     527
   134  0.5882352941E-01   0.000000000      0.2352941176      0.2442499491E-02     527
   135  0.1176470588       0.000000000      0.2352941176      0.2442499491E-02     524
   136  0.1764705882       0.000000000      0.2352941176      0.2442499491E-02     521
   137  0.2352941176       0.000000000      0.2352941176      0.2442499491E-02     519
   138  0.2941176471       0.000000000      0.2352941176      0.2442499491E-02     516
   139  0.3529411765       0.000000000      0.2352941176      0.2442499491E-02     517
   140  0.4117647059       0.000000000      0.2352941176      0.2442499491E-02     511
   141  0.4705882353       0.000000000      0.2352941176      0.2442499491E-02     512
   142  0.5882352941E-01  0.5882352941E-01  0.2352941176      0.2442499491E-02     524
   143  0.1176470588      0.5882352941E-01  0.2352941176      0.4884998982E-02     521
   144  0.1764705882      0.5882352941E-01  0.2352941176      0.4884998982E-02     522
   145  0.2352941176      0.5882352941E-01  0.2352941176      0.4884998982E-02     518
   146  0.2941176471      0.5882352941E-01  0.2352941176      0.4884998982E-02     520
   147  0.3529411765      0.5882352941E-01  0.2352941176      0.4884998982E-02     514
   148  0.4117647059      0.5882352941E-01  0.2352941176      0.4884998982E-02     511
   149  0.4705882353      0.5882352941E-01  0.2352941176      0.2442499491E-02     511
   150  0.1176470588      0.1176470588      0.2352941176      0.2442499491E-02     524
   151  0.1764705882      0.1176470588      0.2352941176      0.4884998982E-02     522
   152  0.2352941176      0.1176470588      0.2352941176      0.4884998982E-02     521
   153  0.2941176471      0.1176470588      0.2352941176      0.4884998982E-02     516
   154  0.3529411765      0.1176470588      0.2352941176      0.4884998982E-02     515
   155  0.4117647059      0.1176470588      0.2352941176      0.4884998982E-02     512
   156  0.1764705882      0.1764705882      0.2352941176      0.2442499491E-02     516
   157  0.2352941176      0.1764705882      0.2352941176      0.4884998982E-02     520
   158  0.2941176471      0.1764705882      0.2352941176      0.4884998982E-02     515
   159  0.3529411765      0.1764705882      0.2352941176      0.4884998982E-02     512
   160  0.4117647059      0.1764705882      0.2352941176      0.2442499491E-02     512
   161  0.2352941176      0.2352941176      0.2352941176      0.2442499491E-02     519
   162  0.2941176471      0.2352941176      0.2352941176      0.4884998982E-02     513
   163  0.3529411765      0.2352941176      0.2352941176      0.4884998982E-02     512
   164  0.2941176471      0.2941176471      0.2352941176      0.2442499491E-02     513
   165  0.3529411765      0.2941176471      0.2352941176      0.2442499491E-02     515
   166   0.000000000       0.000000000      0.2941176471      0.4070832485E-03     534
   167  0.5882352941E-01   0.000000000      0.2941176471      0.2442499491E-02     529
   168  0.1176470588       0.000000000      0.2941176471      0.2442499491E-02     523
   169  0.1764705882       0.000000000      0.2941176471      0.2442499491E-02     524
   170  0.2352941176       0.000000000      0.2941176471      0.2442499491E-02     522
   171  0.2941176471       0.000000000      0.2941176471      0.2442499491E-02     521
   172  0.3529411765       0.000000000      0.2941176471      0.2442499491E-02     514
   173  0.4117647059       0.000000000      0.2941176471      0.2442499491E-02     511
   174  0.4705882353       0.000000000      0.2941176471      0.2442499491E-02     510
   175  0.5882352941E-01  0.5882352941E-01  0.2941176471      0.2442499491E-02     525
   176  0.1176470588      0.5882352941E-01  0.2941176471      0.4884998982E-02     524
   177  0.1764705882      0.5882352941E-01  0.2941176471      0.4884998982E-02     521
   178  0.2352941176      0.5882352941E-01  0.2941176471      0.4884998982E-02     519
   179  0.2941176471      0.5882352941E-01  0.2941176471      0.4884998982E-02     518
   180  0.3529411765      0.5882352941E-01  0.2941176471      0.4884998982E-02     513
   181  0.4117647059      0.5882352941E-01  0.2941176471      0.4884998982E-02     511
   182  0.4705882353      0.5882352941E-01  0.2941176471      0.2442499491E-02     512
   183  0.1176470588      0.1176470588      0.2941176471      0.2442499491E-02     525
   184  0.1764705882      0.1176470588      0.2941176471      0.4884998982E-02     520
   185  0.2352941176      0.1176470588      0.2941176471      0.4884998982E-02     521
   186  0.2941176471      0.1176470588      0.2941176471      0.4884998982E-02     519
   187  0.3529411765      0.1176470588      0.2941176471      0.4884998982E-02     516
   188  0.4117647059      0.1176470588      0.2941176471      0.4884998982E-02     513
   189  0.1764705882      0.1764705882      0.2941176471      0.2442499491E-02     520
   190  0.2352941176      0.1764705882      0.2941176471      0.4884998982E-02     520
   191  0.2941176471      0.1764705882      0.2941176471      0.4884998982E-02     517
   192  0.3529411765      0.1764705882      0.2941176471      0.4884998982E-02     512
   193  0.4117647059      0.1764705882      0.2941176471      0.2442499491E-02     510
   194  0.2352941176      0.2352941176      0.2941176471      0.2442499491E-02     517
   195  0.2941176471      0.2352941176      0.2941176471      0.4884998982E-02     514
   196  0.3529411765      0.2352941176      0.2941176471      0.4884998982E-02     509
   197  0.2941176471      0.2941176471      0.2941176471      0.2442499491E-02     512
   198  0.3529411765      0.2941176471      0.2941176471      0.2442499491E-02     514
   199   0.000000000       0.000000000      0.3529411765      0.4070832485E-03     534
   200  0.5882352941E-01   0.000000000      0.3529411765      0.2442499491E-02     529
   201  0.1176470588       0.000000000      0.3529411765      0.2442499491E-02     524
   202  0.1764705882       0.000000000      0.3529411765      0.2442499491E-02     520
   203  0.2352941176       0.000000000      0.3529411765      0.2442499491E-02     518
   204  0.2941176471       0.000000000      0.3529411765      0.2442499491E-02     521
   205  0.3529411765       0.000000000      0.3529411765      0.2442499491E-02     517
   206  0.4117647059       0.000000000      0.3529411765      0.2442499491E-02     514
   207  0.4705882353       0.000000000      0.3529411765      0.2442499491E-02     515
   208  0.5882352941E-01  0.5882352941E-01  0.3529411765      0.2442499491E-02     525
   209  0.1176470588      0.5882352941E-01  0.3529411765      0.4884998982E-02     521
   210  0.1764705882      0.5882352941E-01  0.3529411765      0.4884998982E-02     521
   211  0.2352941176      0.5882352941E-01  0.3529411765      0.4884998982E-02     520
   212  0.2941176471      0.5882352941E-01  0.3529411765      0.4884998982E-02     519
   213  0.3529411765      0.5882352941E-01  0.3529411765      0.4884998982E-02     516
   214  0.4117647059      0.5882352941E-01  0.3529411765      0.4884998982E-02     514
   215  0.4705882353      0.5882352941E-01  0.3529411765      0.2442499491E-02     514
   216  0.1176470588      0.1176470588      0.3529411765      0.2442499491E-02     517
   217  0.1764705882      0.1176470588      0.3529411765      0.4884998982E-02     520
   218  0.2352941176      0.1176470588      0.3529411765      0.4884998982E-02     524
   219  0.2941176471      0.1176470588      0.3529411765      0.4884998982E-02     518
   220  0.3529411765      0.1176470588      0.3529411765      0.4884998982E-02     516
   221  0.4117647059      0.1176470588      0.3529411765      0.4884998982E-02     513
   222  0.1764705882      0.1764705882      0.3529411765      0.2442499491E-02     520
   223  0.2352941176      0.1764705882      0.3529411765      0.4884998982E-02     520
   224  0.2941176471      0.1764705882      0.3529411765      0.4884998982E-02     516
   225  0.3529411765      0.1764705882      0.3529411765      0.4884998982E-02     512
   226  0.4117647059      0.1764705882      0.3529411765      0.2442499491E-02     514
   227  0.2352941176      0.2352941176      0.3529411765      0.2442499491E-02     518
   228  0.2941176471      0.2352941176      0.3529411765      0.4884998982E-02     512
   229  0.3529411765      0.2352941176      0.3529411765      0.4884998982E-02     510
   230  0.2941176471      0.2941176471      0.3529411765      0.2442499491E-02     508
   231  0.3529411765      0.2941176471      0.3529411765      0.2442499491E-02     507
   232   0.000000000       0.000000000      0.4117647059      0.4070832485E-03     522
   233  0.5882352941E-01   0.000000000      0.4117647059      0.2442499491E-02     528
   234  0.1176470588       0.000000000      0.4117647059      0.2442499491E-02     526
   235  0.1764705882       0.000000000      0.4117647059      0.2442499491E-02     517
   236  0.2352941176       0.000000000      0.4117647059      0.2442499491E-02     518
   237  0.2941176471       0.000000000      0.4117647059      0.2442499491E-02     519
   238  0.3529411765       0.000000000      0.4117647059      0.2442499491E-02     522
   239  0.4117647059       0.000000000      0.4117647059      0.2442499491E-02     520
   240  0.4705882353       0.000000000      0.4117647059      0.2442499491E-02     515
   241  0.5882352941E-01  0.5882352941E-01  0.4117647059      0.2442499491E-02     522
   242  0.1176470588      0.5882352941E-01  0.4117647059      0.4884998982E-02     519
   243  0.1764705882      0.5882352941E-01  0.4117647059      0.4884998982E-02     520
   244  0.2352941176      0.5882352941E-01  0.4117647059      0.4884998982E-02     519
   245  0.2941176471      0.5882352941E-01  0.4117647059      0.4884998982E-02     522
   246  0.3529411765      0.5882352941E-01  0.4117647059      0.4884998982E-02     519
   247  0.4117647059      0.5882352941E-01  0.4117647059      0.4884998982E-02     517
   248  0.4705882353      0.5882352941E-01  0.4117647059      0.2442499491E-02     514
   249  0.1176470588      0.1176470588      0.4117647059      0.2442499491E-02     517
   250  0.1764705882      0.1176470588      0.4117647059      0.4884998982E-02     520
   251  0.2352941176      0.1176470588      0.4117647059      0.4884998982E-02     521
   252  0.2941176471      0.1176470588      0.4117647059      0.4884998982E-02     518
   253  0.3529411765      0.1176470588      0.4117647059      0.4884998982E-02     516
   254  0.4117647059      0.1176470588      0.4117647059      0.4884998982E-02     515
   255  0.1764705882      0.1764705882      0.4117647059      0.2442499491E-02     518
   256  0.2352941176      0.1764705882      0.4117647059      0.4884998982E-02     517
   257  0.2941176471      0.1764705882      0.4117647059      0.4884998982E-02     518
   258  0.3529411765      0.1764705882      0.4117647059      0.4884998982E-02     513
   259  0.4117647059      0.1764705882      0.4117647059      0.2442499491E-02     515
   260  0.2352941176      0.2352941176      0.4117647059      0.2442499491E-02     520
   261  0.2941176471      0.2352941176      0.4117647059      0.4884998982E-02     511
   262  0.3529411765      0.2352941176      0.4117647059      0.4884998982E-02     511
   263  0.2941176471      0.2941176471      0.4117647059      0.2442499491E-02     508
   264  0.3529411765      0.2941176471      0.4117647059      0.2442499491E-02     508
   265   0.000000000       0.000000000      0.4705882353      0.4070832485E-03     516
   266  0.5882352941E-01   0.000000000      0.4705882353      0.2442499491E-02     522
   267  0.1176470588       0.000000000      0.4705882353      0.2442499491E-02     523
   268  0.1764705882       0.000000000      0.4705882353      0.2442499491E-02     515
   269  0.2352941176       0.000000000      0.4705882353      0.2442499491E-02     520
   270  0.2941176471       0.000000000      0.4705882353      0.2442499491E-02     524
   271  0.3529411765       0.000000000      0.4705882353      0.2442499491E-02     522
   272  0.4117647059       0.000000000      0.4705882353      0.2442499491E-02     520
   273  0.4705882353       0.000000000      0.4705882353      0.2442499491E-02     514
   274  0.5882352941E-01  0.5882352941E-01  0.4705882353      0.2442499491E-02     520
   275  0.1176470588      0.5882352941E-01  0.4705882353      0.4884998982E-02     521
   276  0.1764705882      0.5882352941E-01  0.4705882353      0.4884998982E-02     520
   277  0.2352941176      0.5882352941E-01  0.4705882353      0.4884998982E-02     520
   278  0.2941176471      0.5882352941E-01  0.4705882353      0.4884998982E-02     521
   279  0.3529411765      0.5882352941E-01  0.4705882353      0.4884998982E-02     518
   280  0.4117647059      0.5882352941E-01  0.4705882353      0.4884998982E-02     518
   281  0.4705882353      0.5882352941E-01  0.4705882353      0.2442499491E-02     515
   282  0.1176470588      0.1176470588      0.4705882353      0.2442499491E-02     517
   283  0.1764705882      0.1176470588      0.4705882353      0.4884998982E-02     520
   284  0.2352941176      0.1176470588      0.4705882353      0.4884998982E-02     522
   285  0.2941176471      0.1176470588      0.4705882353      0.4884998982E-02     517
   286  0.3529411765      0.1176470588      0.4705882353      0.4884998982E-02     519
   287  0.4117647059      0.1176470588      0.4705882353      0.4884998982E-02     515
   288  0.1764705882      0.1764705882      0.4705882353      0.2442499491E-02     522
   289  0.2352941176      0.1764705882      0.4705882353      0.4884998982E-02     516
   290  0.2941176471      0.1764705882      0.4705882353      0.4884998982E-02     518
   291  0.3529411765      0.1764705882      0.4705882353      0.4884998982E-02     512
   292  0.4117647059      0.1764705882      0.4705882353      0.2442499491E-02     511
   293  0.2352941176      0.2352941176      0.4705882353      0.2442499491E-02     516
   294  0.2941176471      0.2352941176      0.4705882353      0.4884998982E-02     511
   295  0.3529411765      0.2352941176      0.4705882353      0.4884998982E-02     509
   296  0.2941176471      0.2941176471      0.4705882353      0.2442499491E-02     508
   297  0.3529411765      0.2941176471      0.4705882353      0.2442499491E-02     508
