 
Species :    1 (Y), atom :    1
 n =  1, l =  0, k =  1 :   -620.4096712    
 n =  2, l =  0, k =  1 :   -84.45409644    
 n =  2, l =  1, k =  1 :   -77.02597566    
 n =  2, l =  1, k =  2 :   -74.19312873    
 n =  3, l =  0, k =  1 :   -13.04788061    
 n =  3, l =  1, k =  1 :   -10.31963281    
 n =  3, l =  1, k =  2 :   -9.876315106    
 n =  3, l =  2, k =  2 :   -5.074476820    
 n =  3, l =  2, k =  3 :   -4.995676380    
 
Species :    1 (Y), atom :    2
 n =  1, l =  0, k =  1 :   -620.4096712    
 n =  2, l =  0, k =  1 :   -84.45409644    
 n =  2, l =  1, k =  1 :   -77.02597566    
 n =  2, l =  1, k =  2 :   -74.19312873    
 n =  3, l =  0, k =  1 :   -13.04788061    
 n =  3, l =  1, k =  1 :   -10.31963281    
 n =  3, l =  1, k =  2 :   -9.876315106    
 n =  3, l =  2, k =  2 :   -5.074476820    
 n =  3, l =  2, k =  3 :   -4.995676380    
