 
Species :    1 (Re), atom :    1
 n =  1, l =  0, k =  1 :   -2632.346705    
 n =  2, l =  0, k =  1 :   -454.9026926    
 n =  2, l =  1, k =  1 :   -435.6221673    
 n =  2, l =  1, k =  2 :   -382.4490493    
 n =  3, l =  0, k =  1 :   -104.5801887    
 n =  3, l =  1, k =  1 :   -95.89648184    
 n =  3, l =  1, k =  2 :   -84.34646629    
 n =  3, l =  2, k =  2 :   -69.54454697    
 n =  3, l =  2, k =  3 :   -67.04794522    
 n =  4, l =  0, k =  1 :   -21.11382837    
 n =  4, l =  1, k =  1 :   -17.47024159    
 n =  4, l =  1, k =  2 :   -14.77386525    
 n =  4, l =  2, k =  2 :   -8.743042620    
 n =  4, l =  2, k =  3 :   -8.247184333    
 
Species :    1 (Re), atom :    2
 n =  1, l =  0, k =  1 :   -2632.346705    
 n =  2, l =  0, k =  1 :   -454.9026926    
 n =  2, l =  1, k =  1 :   -435.6221673    
 n =  2, l =  1, k =  2 :   -382.4490493    
 n =  3, l =  0, k =  1 :   -104.5801887    
 n =  3, l =  1, k =  1 :   -95.89648184    
 n =  3, l =  1, k =  2 :   -84.34646629    
 n =  3, l =  2, k =  2 :   -69.54454697    
 n =  3, l =  2, k =  3 :   -67.04794522    
 n =  4, l =  0, k =  1 :   -21.11382837    
 n =  4, l =  1, k =  1 :   -17.47024159    
 n =  4, l =  1, k =  2 :   -14.77386525    
 n =  4, l =  2, k =  2 :   -8.743042620    
 n =  4, l =  2, k =  3 :   -8.247184333    
