 
+----------------------------+
| Real-space lattice vectors |
+----------------------------+
 
vector a1 :    5.906645625       5.906645625       0.000000000    
vector a2 :    5.906645625       0.000000000       5.906645625    
vector a3 :    0.000000000       5.906645625       5.906645625    
 
Stored column-wise as a matrix :
   5.906645625       5.906645625       0.000000000    
   5.906645625       0.000000000       5.906645625    
   0.000000000       5.906645625       5.906645625    
 
Inverse of matrix :
  0.8465041442E-01  0.8465041442E-01 -0.8465041442E-01
  0.8465041442E-01 -0.8465041442E-01  0.8465041442E-01
 -0.8465041442E-01  0.8465041442E-01  0.8465041442E-01
 
Unit cell volume :    412.1475693    
 
 
+----------------------------------+
| Reciprocal-space lattice vectors |
+----------------------------------+
 
vector b1 :   0.5318742401      0.5318742401     -0.5318742401    
vector b2 :   0.5318742401     -0.5318742401      0.5318742401    
vector b3 :  -0.5318742401      0.5318742401      0.5318742401    
 
Stored column-wise as a matrix :
  0.5318742401      0.5318742401     -0.5318742401    
  0.5318742401     -0.5318742401      0.5318742401    
 -0.5318742401      0.5318742401      0.5318742401    
 
Inverse of matrix :
  0.9400718483      0.9400718483       0.000000000    
  0.9400718483       0.000000000      0.9400718483    
   0.000000000      0.9400718483      0.9400718483    
 
Brillouin zone volume :   0.6018480562    
