  0.9136588714    
  0.7768091387    
  0.6183087067    
  0.4569344142    
  0.3115586203    
  0.1955999899    
  0.1124874903    
  0.5888689543E-01
  0.2781793214E-01
  0.1172957117E-01
  0.4392955009E-02
  0.1489595033E-02
  0.5008316156E-03
  0.1973155780E-03
  0.9131095797E-04
  0.6534343456E-04
  0.1526198036E-04
  0.1262554664E-03
  0.6543123703E-04
  0.6198087386E-04
  0.2118854155E-03
  0.1476554145E-04
  0.1507585520E-03
  0.4001419065E-03
  0.5991261218E-04
  0.1647100028E-03
  0.2774584705E-03
  0.4930405886E-03
  0.3231846461E-03
