  0.5413056580    
  0.4299681765    
  0.1936125179    
  0.6900699931E-01
  0.2136561817E-01
  0.3790583985E-02
  0.9290680300E-03
  0.2522417981E-03
  0.1746790527E-03
  0.5280812959E-04
  0.8920572960E-04
  0.1229056052E-03
  0.5046777070E-04
  0.3147291343E-04
  0.3086996637E-04
  0.2803710361E-03
  0.2462265329E-04
  0.7851463593E-04
  0.1864247391E-04
  0.1017318227E-03
  0.5056870869E-04
  0.7563576974E-04
  0.5440866387E-04
  0.7073373278E-04
  0.2629139041E-04
  0.8896874903E-04
  0.1654923356E-04
  0.1282579851E-03
  0.1032853201E-03
  0.5442464877E-04
  0.6928538362E-04
  0.2676664716E-04
  0.3860602509E-04
  0.1904365498E-04
  0.6985859423E-04
  0.2069993649E-04
  0.1471477670E-03
  0.9805810128E-04
  0.5406732900E-04
  0.3220209665E-04
  0.1031565295E-04
  0.5018463037E-04
  0.5031584292E-04
  0.3508754617E-04
  0.5887171495E-04
  0.3970179277E-03
  0.8773279858E-04
  0.6510644418E-04
  0.1188834742E-04
  0.4767617422E-04
