 
Species :    1 (Ti), atom :    1
 n =  1, l =  0, k =  1 :   -178.7780112    
 n =  2, l =  0, k =  1 :   -19.20055336    
 n =  2, l =  1, k =  1 :   -15.92348829    
 n =  2, l =  1, k =  2 :   -15.71031281    
 
Species :    1 (Ti), atom :    2
 n =  1, l =  0, k =  1 :   -178.7780112    
 n =  2, l =  0, k =  1 :   -19.20055336    
 n =  2, l =  1, k =  1 :   -15.92348829    
 n =  2, l =  1, k =  2 :   -15.71031281    
