   90.39247975    
   88.44870152    
   89.60314972    
   46.58653883    
   47.63829781    
   50.18794894    
   47.95764184    
   47.90655188    
   47.92815311    
   47.93189824    
   47.93605825    
   47.93772914    
   47.93841008    
   47.93848345    
   47.93879253    
   47.93896965    
   47.93911251    
   47.93909562    
   47.93907341    
   47.93910786    
   47.93909041    
   47.93906812    
   47.93907284    
   47.93906968    
   47.93907205    
   47.93906254    
   47.93907021    
   47.93906576    
   47.93906571    
   47.93906625    
   47.93906462    
   47.93906285    
   47.93906409    
   47.93906475    
   47.93906544    
   47.93906557    
   47.93906622    
   47.93906601    
