   47.43425161    
   47.91520847    
   48.50904312    
   55.49530823    
   51.59639066    
   52.59000231    
   53.36469877    
   52.49790085    
   52.53438359    
   52.50394129    
   52.46310702    
   52.45865186    
   52.45609886    
   52.46814569    
   52.47138766    
   52.47034768    
   52.46953169    
   52.46777719    
   52.46699145    
   52.46703811    
   52.46680944    
   52.46661029    
   52.46655785    
   52.46665370    
   52.46645206    
   52.46649055    
   52.46667879    
   52.46664261    
   52.46662512    
   52.46663755    
   52.46661990    
   52.46661752    
   52.46661392    
   52.46662047    
   52.46662482    
   52.46662805    
   52.46661406    
   52.46661401    
   52.46661134    
   52.46660610    
   52.46660957    
   52.46661163    
   52.46661094    
   52.46661063    
