 
 
! Atomic position optimisation step :      1
 
scale
 1.0
 
scale1
 1.0
 
scale2
 1.0
 
scale3
 1.0
 
avec
   4.464707367      -2.577700000       0.000000000    
   0.000000000       5.155400000       0.000000000    
   0.000000000       0.000000000       8.279572400    
 
atoms
   1                                    : nspecies
'Tc.in'                                 : spfname
   2                                    : natoms; atpos, bfcmt below
    0.33333333    0.16666667    0.25000000    0.00000000  0.00000000  0.00000000
   -0.33333333   -0.16666667   -0.25000000    0.00000000  0.00000000  0.00000000
 
 
! Lattice optimisation step :      1
 
scale
 1.0
 
scale1
 1.0
 
scale2
 1.0
 
scale3
 1.0
 
avec
   4.464794762      -2.577750458       0.000000000    
   0.000000000       5.155500915       0.000000000    
   0.000000000       0.000000000       8.279645327    
 
atoms
   1                                    : nspecies
'Tc.in'                                 : spfname
   2                                    : natoms; atpos, bfcmt below
    0.33333333    0.16666667    0.25000000    0.00000000  0.00000000  0.00000000
   -0.33333333   -0.16666667   -0.25000000    0.00000000  0.00000000  0.00000000
 
 
! Atomic position optimisation step :      1
 
scale
 1.0
 
scale1
 1.0
 
scale2
 1.0
 
scale3
 1.0
 
avec
   4.464794762      -2.577750458       0.000000000    
   0.000000000       5.155500915       0.000000000    
   0.000000000       0.000000000       8.279645327    
 
atoms
   1                                    : nspecies
'Tc.in'                                 : spfname
   2                                    : natoms; atpos, bfcmt below
    0.33333333    0.16666667    0.25000000    0.00000000  0.00000000  0.00000000
   -0.33333333   -0.16666667   -0.25000000    0.00000000  0.00000000  0.00000000
 
 
! Lattice optimisation step :      2
 
scale
 1.0
 
scale1
 1.0
 
scale2
 1.0
 
scale3
 1.0
 
avec
   4.465262546      -2.578020533       0.000000000    
   0.000000000       5.156041066       0.000000000    
   0.000000000       0.000000000       8.279970661    
 
atoms
   1                                    : nspecies
'Tc.in'                                 : spfname
   2                                    : natoms; atpos, bfcmt below
    0.33333333    0.16666667    0.25000000    0.00000000  0.00000000  0.00000000
   -0.33333333   -0.16666667   -0.25000000    0.00000000  0.00000000  0.00000000
 
 
! Atomic position optimisation step :      1
 
scale
 1.0
 
scale1
 1.0
 
scale2
 1.0
 
scale3
 1.0
 
avec
   4.465262546      -2.578020533       0.000000000    
   0.000000000       5.156041066       0.000000000    
   0.000000000       0.000000000       8.279970661    
 
atoms
   1                                    : nspecies
'Tc.in'                                 : spfname
   2                                    : natoms; atpos, bfcmt below
    0.33333333    0.16666667    0.25000000    0.00000000  0.00000000  0.00000000
   -0.33333333   -0.16666667   -0.25000000    0.00000000  0.00000000  0.00000000
 
 
! Lattice optimisation step :      3
 
scale
 1.0
 
scale1
 1.0
 
scale2
 1.0
 
scale3
 1.0
 
avec
   4.466243936      -2.578587139       0.000000000    
   0.000000000       5.157174278       0.000000000    
   0.000000000       0.000000000       8.280659959    
 
atoms
   1                                    : nspecies
'Tc.in'                                 : spfname
   2                                    : natoms; atpos, bfcmt below
    0.33333333    0.16666667    0.25000000    0.00000000  0.00000000  0.00000000
   -0.33333333   -0.16666667   -0.25000000    0.00000000  0.00000000  0.00000000
 
 
! Atomic position optimisation step :      1
 
scale
 1.0
 
scale1
 1.0
 
scale2
 1.0
 
scale3
 1.0
 
avec
   4.466243936      -2.578587139       0.000000000    
   0.000000000       5.157174278       0.000000000    
   0.000000000       0.000000000       8.280659959    
 
atoms
   1                                    : nspecies
'Tc.in'                                 : spfname
   2                                    : natoms; atpos, bfcmt below
    0.33333333    0.16666667    0.25000000    0.00000000  0.00000000  0.00000000
   -0.33333333   -0.16666667   -0.25000000    0.00000000  0.00000000  0.00000000
 
 
! Lattice optimisation step :      4
 
scale
 1.0
 
scale1
 1.0
 
scale2
 1.0
 
scale3
 1.0
 
avec
   4.467585987      -2.579361972       0.000000000    
   0.000000000       5.158723944       0.000000000    
   0.000000000       0.000000000       8.281724352    
 
atoms
   1                                    : nspecies
'Tc.in'                                 : spfname
   2                                    : natoms; atpos, bfcmt below
    0.33333333    0.16666667    0.25000000    0.00000000  0.00000000  0.00000000
   -0.33333333   -0.16666667   -0.25000000    0.00000000  0.00000000  0.00000000
 
 
! Atomic position optimisation step :      1
 
scale
 1.0
 
scale1
 1.0
 
scale2
 1.0
 
scale3
 1.0
 
avec
   4.467585987      -2.579361972       0.000000000    
   0.000000000       5.158723944       0.000000000    
   0.000000000       0.000000000       8.281724352    
 
atoms
   1                                    : nspecies
'Tc.in'                                 : spfname
   2                                    : natoms; atpos, bfcmt below
    0.33333333    0.16666667    0.25000000    0.00000000  0.00000000  0.00000000
   -0.33333333   -0.16666667   -0.25000000    0.00000000  0.00000000  0.00000000
 
 
! Lattice optimisation step :      5
 
scale
 1.0
 
scale1
 1.0
 
scale2
 1.0
 
scale3
 1.0
 
avec
   4.469089393      -2.580229964       0.000000000    
   0.000000000       5.160459928       0.000000000    
   0.000000000       0.000000000       8.282954198    
 
atoms
   1                                    : nspecies
'Tc.in'                                 : spfname
   2                                    : natoms; atpos, bfcmt below
    0.33333333    0.16666667    0.25000000    0.00000000  0.00000000  0.00000000
   -0.33333333   -0.16666667   -0.25000000    0.00000000  0.00000000  0.00000000
 
 
! Atomic position optimisation step :      1
 
scale
 1.0
 
scale1
 1.0
 
scale2
 1.0
 
scale3
 1.0
 
avec
   4.469089393      -2.580229964       0.000000000    
   0.000000000       5.160459928       0.000000000    
   0.000000000       0.000000000       8.282954198    
 
atoms
   1                                    : nspecies
'Tc.in'                                 : spfname
   2                                    : natoms; atpos, bfcmt below
    0.33333333    0.16666667    0.25000000    0.00000000  0.00000000  0.00000000
   -0.33333333   -0.16666667   -0.25000000    0.00000000  0.00000000  0.00000000
 
 
! Lattice optimisation step :      6
 
scale
 1.0
 
scale1
 1.0
 
scale2
 1.0
 
scale3
 1.0
 
avec
   4.470447544      -2.581014093       0.000000000    
   0.000000000       5.162028185       0.000000000    
   0.000000000       0.000000000       8.284230915    
 
atoms
   1                                    : nspecies
'Tc.in'                                 : spfname
   2                                    : natoms; atpos, bfcmt below
    0.33333333    0.16666667    0.25000000    0.00000000  0.00000000  0.00000000
   -0.33333333   -0.16666667   -0.25000000    0.00000000  0.00000000  0.00000000
 
 
! Atomic position optimisation step :      1
 
scale
 1.0
 
scale1
 1.0
 
scale2
 1.0
 
scale3
 1.0
 
avec
   4.470447544      -2.581014093       0.000000000    
   0.000000000       5.162028185       0.000000000    
   0.000000000       0.000000000       8.284230915    
 
atoms
   1                                    : nspecies
'Tc.in'                                 : spfname
   2                                    : natoms; atpos, bfcmt below
    0.33333333    0.16666667    0.25000000    0.00000000  0.00000000  0.00000000
   -0.33333333   -0.16666667   -0.25000000    0.00000000  0.00000000  0.00000000
 
 
! Lattice optimisation step :      7
 
scale
 1.0
 
scale1
 1.0
 
scale2
 1.0
 
scale3
 1.0
 
avec
   4.471050794      -2.581362380       0.000000000    
   0.000000000       5.162724759       0.000000000    
   0.000000000       0.000000000       8.285315467    
 
atoms
   1                                    : nspecies
'Tc.in'                                 : spfname
   2                                    : natoms; atpos, bfcmt below
    0.33333333    0.16666667    0.25000000    0.00000000  0.00000000  0.00000000
   -0.33333333   -0.16666667   -0.25000000    0.00000000  0.00000000  0.00000000
 
 
! Atomic position optimisation step :      1
 
scale
 1.0
 
scale1
 1.0
 
scale2
 1.0
 
scale3
 1.0
 
avec
   4.471050794      -2.581362380       0.000000000    
   0.000000000       5.162724759       0.000000000    
   0.000000000       0.000000000       8.285315467    
 
atoms
   1                                    : nspecies
'Tc.in'                                 : spfname
   2                                    : natoms; atpos, bfcmt below
    0.33333333    0.16666667    0.25000000    0.00000000  0.00000000  0.00000000
   -0.33333333   -0.16666667   -0.25000000    0.00000000  0.00000000  0.00000000
 
 
! Lattice optimisation step :      8
 
scale
 1.0
 
scale1
 1.0
 
scale2
 1.0
 
scale3
 1.0
 
avec
   4.471290675      -2.581500875       0.000000000    
   0.000000000       5.163001749       0.000000000    
   0.000000000       0.000000000       8.285765202    
 
atoms
   1                                    : nspecies
'Tc.in'                                 : spfname
   2                                    : natoms; atpos, bfcmt below
    0.33333333    0.16666667    0.25000000    0.00000000  0.00000000  0.00000000
   -0.33333333   -0.16666667   -0.25000000    0.00000000  0.00000000  0.00000000
