 
Species :    1 (Pt), atom :    1
 n =  1, l =  0, k =  1 :   -2880.966980    
 n =  2, l =  0, k =  1 :   -504.8101412    
 n =  2, l =  1, k =  1 :   -484.2909947    
 n =  2, l =  1, k =  2 :   -420.4208386    
 n =  3, l =  0, k =  1 :   -118.0985062    
 n =  3, l =  1, k =  1 :   -108.7840163    
 n =  3, l =  1, k =  2 :   -94.74383964    
 n =  3, l =  2, k =  2 :   -78.97014685    
 n =  3, l =  2, k =  3 :   -75.95638894    
 n =  4, l =  0, k =  1 :   -24.93806249    
 n =  4, l =  1, k =  1 :   -20.96134249    
 n =  4, l =  1, k =  2 :   -17.61531054    
 n =  4, l =  2, k =  2 :   -11.04194708    
 n =  4, l =  2, k =  3 :   -10.42247375    
 n =  5, l =  0, k =  1 :   -3.157666847    
