+----------------------------+
| Elk version 8.3.15 started |
+----------------------------+
 
Date (YYYY-MM-DD) : 2022-01-30
Time (hh:mm:ss)   : 17:18:22
 
All units are atomic (Hartree, Bohr, etc.)
 
+-------------------------------------------------+
| Ground-state run starting from atomic densities |
+-------------------------------------------------+
 
Lattice vectors :
   3.842201158       3.842201158       0.000000000    
   3.842201158       0.000000000       3.842201158    
   0.000000000       3.842201158       3.842201158    
 
Reciprocal lattice vectors :
  0.8176543925      0.8176543925     -0.8176543925    
  0.8176543925     -0.8176543925      0.8176543925    
 -0.8176543925      0.8176543925      0.8176543925    
 
Unit cell volume      :    113.4410640    
Brillouin zone volume :    2.186599849    
 
Muffin-tin inner radius fraction :   0.1000000000E-01
 
Species :    1 (Pt)
 parameters loaded from : Pt.in
 name : platinum
 nuclear charge    :   -78.00000000    
 electronic charge :    78.00000000    
 atomic mass :    355605.4398    
 muffin-tin radius :    2.500000000    
 number of radial points in muffin-tin :   1400
 number on inner part of muffin-tin    :   1019
 atomic positions (lattice), magnetic fields (Cartesian) :
   1 :   0.00000000  0.00000000  0.00000000    0.00000000  0.00000000  0.00000000
 
Total number of atoms per unit cell :    1
 
Spin treatment :
 spin-unpolarised
 
Number of Bravais lattice symmetries :   48
Number of crystal symmetries         :   48
Crystal has inversion symmetry
Real symmetric eigensolver will be used
 
k-point grid :     17    17    17
k-point offset :    0.000000000       0.000000000       0.000000000    
k-point set is reduced with full crystal symmetry group
Total number of k-points :      165
 
Muffin-tin radius times maximum |G+k| :    8.500000000    
 using gkmax = rgkmax / 2
Maximum |G+k| for APW functions       :    4.250000000    
Maximum (1/2)|G+k|²                   :    9.031250000    
Maximum |G| for potential and density :    34.00000000    
Constant for pseudocharge density :   21
Radial integration step length :    1
 
G-vector grid sizes :     60    60    60
Number of G-vectors :    75121
 
Maximum angular momentum used for
 APW functions                      :   10
 outer part of muffin-tin           :    8
 inner part of muffin-tin           :    1
 
Total nuclear charge    :   -78.00000000    
Total core charge       :    48.00000000    
Total valence charge    :    30.00000000    
Total excess charge     :    0.000000000    
Total electronic charge :    78.00000000    
 
Effective Wigner radius, rₛ :   0.7028495316    
 
Number of empty states         :   20
Total number of valence states :   36
Total number of core states    :   48
 
Conduction state local-orbitals added automatically
Total number of local-orbitals :  145
 
Using Libxc version 05.01.05
Exchange-correlation functional :    100   493   494
 exchange: mgga_x_rscan; correlation: mgga_c_rscan
 
Smearing type :    1
 Methfessel-Paxton order 1, Phys. Rev. B 40, 3616 (1989)
Smearing width :   0.1000000000E-02
Effective electronic temperature (K) :    315.7750248    
 
Mixing type :    1
 Adaptive linear mixing
 
Kohn-Sham potential initialised from atomic data
 
+------------------------------+
| Self-consistent loop started |
+------------------------------+
 
+--------------------+
| Loop number :    1 |
+--------------------+
 
Energies :
 Fermi                       :     0.908780757040E-01
 sum of eigenvalues          :     -11404.8331561    
 electron kinetic            :      21065.0039152    
 core electron kinetic       :      20329.7459617    
 Coulomb                     :     -39280.5825239    
 Coulomb potential           :     -31985.5599685    
 nuclear-nuclear             :     -1447.26323814    
 electron-nuclear            :     -43681.0786029    
 Hartree                     :      5847.75931723    
 Madelung                    :     -23287.8025396    
 xc potential                :     -484.277102829    
 exchange                    :     -361.202071259    
 correlation                 :     -4.81117489435    
 total energy                :     -18581.5918548    
 
Density of states at Fermi energy :    116.9717720    
 (states/Hartree/unit cell)
 
Estimated indirect band gap :   0.5240795116E-04
 from k-point    150 to k-point      9
Estimated direct band gap   :   0.4755129552E-02
 at k-point     76
 
Charges :
 core                        :    48.00000000    
 valence                     :    30.00000000    
 interstitial                :    1.490312746    
 muffin-tins (core leakage)
  species :    1 (Pt)
   atom    1                 :    76.50968725     (  0.6436732402E-03)
 total in muffin-tins        :    76.50968725    
 total calculated charge     :    77.99965562    
 total charge                :    78.00000000    
 error                       :   0.3443803121E-03
 
Time (CPU seconds) :        20.16
 
+--------------------+
| Loop number :    2 |
+--------------------+
 
Energies :
 Fermi                       :     0.138989934739    
 sum of eigenvalues          :     -11391.9976804    
 electron kinetic            :      21077.7901088    
 core electron kinetic       :      20320.6844546    
 Coulomb                     :     -39266.2453040    
 Coulomb potential           :     -31986.1053972    
 nuclear-nuclear             :     -1447.26323814    
 electron-nuclear            :     -43651.8587345    
 Hartree                     :      5832.87666865    
 Madelung                    :     -23273.1926054    
 xc potential                :     -483.682392010    
 exchange                    :     -360.749728235    
 correlation                 :     -4.81031813405    
 total energy                :     -18554.0152416    
 
Density of states at Fermi energy :    115.5678102    
 (states/Hartree/unit cell)
 
Estimated indirect band gap :   0.4182654293E-04
 from k-point     33 to k-point    125
Estimated direct band gap   :   0.4367961018E-02
 at k-point     81
 
Charges :
 core                        :    48.00000000    
 valence                     :    30.00000000    
 interstitial                :    1.546171398    
 muffin-tins (core leakage)
  species :    1 (Pt)
   atom    1                 :    76.45382860     (  0.6719229690E-03)
 total in muffin-tins        :    76.45382860    
 total calculated charge     :    77.99963278    
 total charge                :    78.00000000    
 error                       :   0.3672232512E-03
 
Wrote STATE.OUT
 
RMS change in Kohn-Sham potential (target) :   0.9452837564     (   10.00000000    )
Absolute change in total energy (target)   :    27.57661325     (  0.1000000000E-06)
 
Time (CPU seconds) :        37.58
 
+--------------------+
| Loop number :    3 |
+--------------------+
 
Energies :
 Fermi                       :     0.198589678735    
 sum of eigenvalues          :     -11376.8986138    
 electron kinetic            :      21092.4045075    
 core electron kinetic       :      20313.2839251    
 Coulomb                     :     -39249.8392553    
 Coulomb potential           :     -31986.2863140    
 nuclear-nuclear             :     -1447.26323814    
 electron-nuclear            :     -43618.8657202    
 Hartree                     :      5816.28970310    
 Madelung                    :     -23256.6960983    
 xc potential                :     -483.016807326    
 exchange                    :     -360.244440482    
 correlation                 :     -4.80937858400    
 total energy                :     -18522.4885668    
 
Density of states at Fermi energy :    120.9930125    
 (states/Hartree/unit cell)
 
Estimated indirect band gap :   0.1295172153E-03
 from k-point    150 to k-point     18
Estimated direct band gap   :   0.2617106646E-02
 at k-point      9
 
Charges :
 core                        :    48.00000000    
 valence                     :    30.00000000    
 interstitial                :    1.604448363    
 muffin-tins (core leakage)
  species :    1 (Pt)
   atom    1                 :    76.39555164     (  0.7023838582E-03)
 total in muffin-tins        :    76.39555164    
 total calculated charge     :    77.99961016    
 total charge                :    78.00000000    
 error                       :   0.3898417614E-03
 
RMS change in Kohn-Sham potential (target) :   0.7790644270     (   10.00000000    )
Absolute change in total energy (target)   :    38.42082807     (  0.1000000000E-06)
 
Time (CPU seconds) :        55.04
 
+--------------------+
| Loop number :    4 |
+--------------------+
 
Energies :
 Fermi                       :     0.259056748540    
 sum of eigenvalues          :     -11363.0862229    
 electron kinetic            :      21104.9856614    
 core electron kinetic       :      20308.4330724    
 Coulomb                     :     -39235.7890779    
 Coulomb potential           :     -31985.5969169    
 nuclear-nuclear             :     -1447.26323814    
 electron-nuclear            :     -43591.4547627    
 Hartree                     :      5802.92892291    
 Madelung                    :     -23242.9906195    
 xc potential                :     -482.474967496    
 exchange                    :     -359.835153780    
 correlation                 :     -4.80835817131    
 total energy                :     -18495.4469285    
 
Density of states at Fermi energy :    110.5899715    
 (states/Hartree/unit cell)
 
Estimated indirect band gap :   0.4909885717E-04
 from k-point    125 to k-point     76
Estimated direct band gap   :   0.4246589022E-02
 at k-point     76
 
Charges :
 core                        :    48.00000000    
 valence                     :    30.00000000    
 interstitial                :    1.638915464    
 muffin-tins (core leakage)
  species :    1 (Pt)
   atom    1                 :    76.36108454     (  0.7242004452E-03)
 total in muffin-tins        :    76.36108454    
 total calculated charge     :    77.99959312    
 total charge                :    78.00000000    
 error                       :   0.4068763005E-03
 
Wrote STATE.OUT
 
RMS change in Kohn-Sham potential (target) :   0.6082500673     (   10.00000000    )
Absolute change in total energy (target)   :    36.64684538     (  0.1000000000E-06)
 
Time (CPU seconds) :        72.43
 
+--------------------+
| Loop number :    5 |
+--------------------+
 
Energies :
 Fermi                       :     0.313105062681    
 sum of eigenvalues          :     -11352.5885535    
 electron kinetic            :      21113.8526973    
 core electron kinetic       :      20305.8509583    
 Coulomb                     :     -39226.3987924    
 Coulomb potential           :     -31984.3002741    
 nuclear-nuclear             :     -1447.26323814    
 electron-nuclear            :     -43573.9708344    
 Hartree                     :      5794.83528013    
 Madelung                    :     -23234.2486553    
 xc potential                :     -482.140976693    
 exchange                    :     -359.584986192    
 correlation                 :     -4.80747967907    
 total energy                :     -18476.9385610    
 
Density of states at Fermi energy :    108.7331992    
 (states/Hartree/unit cell)
 
Estimated indirect band gap :   0.1347015715E-03
 from k-point     76 to k-point    146
Estimated direct band gap   :   0.7995217042E-02
 at k-point     76
 
Charges :
 core                        :    48.00000000    
 valence                     :    30.00000000    
 interstitial                :    1.648405445    
 muffin-tins (core leakage)
  species :    1 (Pt)
   atom    1                 :    76.35159455     (  0.7332813662E-03)
 total in muffin-tins        :    76.35159455    
 total calculated charge     :    77.99958689    
 total charge                :    78.00000000    
 error                       :   0.4131062376E-03
 
RMS change in Kohn-Sham potential (target) :   0.4471669577     (   10.00000000    )
Absolute change in total energy (target)   :    27.67007884     (  0.1000000000E-06)
 
Time (CPU seconds) :        88.92
 
+--------------------+
| Loop number :    6 |
+--------------------+
 
Energies :
 Fermi                       :     0.357875797883    
 sum of eigenvalues          :     -11345.5461309    
 electron kinetic            :      21119.3799276    
 core electron kinetic       :      20304.7153324    
 Coulomb                     :     -39221.4325971    
 Coulomb potential           :     -31982.9384919    
 nuclear-nuclear             :     -1447.26323814    
 electron-nuclear            :     -43565.4002261    
 Hartree                     :      5791.23086711    
 Madelung                    :     -23229.9633512    
 xc potential                :     -481.987566664    
 exchange                    :     -359.472153795    
 correlation                 :     -4.80687595989    
 total energy                :     -18466.3316993    
 
Density of states at Fermi energy :    108.2795980    
 (states/Hartree/unit cell)
 
Estimated indirect band gap :   0.1410282303E-03
 from k-point     76 to k-point    146
Estimated direct band gap   :   0.9290254028E-02
 at k-point     76
 
Charges :
 core                        :    48.00000000    
 valence                     :    30.00000000    
 interstitial                :    1.643454318    
 muffin-tins (core leakage)
  species :    1 (Pt)
   atom    1                 :    76.35654568     (  0.7333139611E-03)
 total in muffin-tins        :    76.35654568    
 total calculated charge     :    77.99958829    
 total charge                :    78.00000000    
 error                       :   0.4117112089E-03
 
Wrote STATE.OUT
 
RMS change in Kohn-Sham potential (target) :   0.3054868277     (   10.00000000    )
Absolute change in total energy (target)   :    17.52438141     (  0.1000000000E-06)
 
Time (CPU seconds) :       106.00
 
+--------------------+
| Loop number :    7 |
+--------------------+
 
Energies :
 Fermi                       :     0.393125229485    
 sum of eigenvalues          :     -11341.0094204    
 electron kinetic            :      21122.8507832    
 core electron kinetic       :      20304.4002568    
 Coulomb                     :     -39219.2060647    
 Coulomb potential           :     -31981.9269407    
 nuclear-nuclear             :     -1447.26323814    
 electron-nuclear            :     -43561.9587125    
 Hartree                     :      5790.01588588    
 Madelung                    :     -23228.2425944    
 xc potential                :     -481.933262903    
 exchange                    :     -359.433825566    
 correlation                 :     -4.80656148723    
 total energy                :     -18460.5956686    
 
Density of states at Fermi energy :    108.4131610    
 (states/Hartree/unit cell)
 
Estimated indirect band gap :   0.1439371281E-03
 from k-point     76 to k-point    146
Estimated direct band gap   :   0.7648762434E-02
 at k-point      9
 
Charges :
 core                        :    48.00000000    
 valence                     :    30.00000000    
 interstitial                :    1.636853736    
 muffin-tins (core leakage)
  species :    1 (Pt)
   atom    1                 :    76.36314626     (  0.7305721543E-03)
 total in muffin-tins        :    76.36314626    
 total calculated charge     :    77.99959179    
 total charge                :    78.00000000    
 error                       :   0.4082080295E-03
 
RMS change in Kohn-Sham potential (target) :   0.1925850482     (   10.00000000    )
Absolute change in total energy (target)   :    10.11712603     (  0.1000000000E-06)
 
Time (CPU seconds) :       123.59
 
+--------------------+
| Loop number :    8 |
+--------------------+
 
Energies :
 Fermi                       :     0.419190743966    
 sum of eigenvalues          :     -11338.1145335    
 electron kinetic            :      21125.2133561    
 core electron kinetic       :      20304.5376936    
 Coulomb                     :     -39218.2995432    
 Coulomb potential           :     -31981.4121611    
 nuclear-nuclear             :     -1447.26323814    
 electron-nuclear            :     -43560.6604489    
 Hartree                     :      5789.62414393    
 Madelung                    :     -23227.5934626    
 xc potential                :     -481.915728493    
 exchange                    :     -359.422394140    
 correlation                 :     -4.80644639772    
 total energy                :     -18457.3150276    
 
Density of states at Fermi energy :    108.5486168    
 (states/Hartree/unit cell)
 
Estimated indirect band gap :   0.1478507643E-03
 from k-point     76 to k-point    146
Estimated direct band gap   :   0.6864752088E-02
 at k-point      9
 
Charges :
 core                        :    48.00000000    
 valence                     :    30.00000000    
 interstitial                :    1.634028310    
 muffin-tins (core leakage)
  species :    1 (Pt)
   atom    1                 :    76.36597169     (  0.7284937146E-03)
 total in muffin-tins        :    76.36597169    
 total calculated charge     :    77.99959441    
 total charge                :    78.00000000    
 error                       :   0.4055891252E-03
 
Wrote STATE.OUT
 
RMS change in Kohn-Sham potential (target) :   0.1121443677     (   10.00000000    )
Absolute change in total energy (target)   :    5.809922502     (  0.1000000000E-06)
 
Time (CPU seconds) :       140.63
 
+--------------------+
| Loop number :    9 |
+--------------------+
 
Energies :
 Fermi                       :     0.436731451172    
 sum of eigenvalues          :     -11336.3440587    
 electron kinetic            :      21126.8082570    
 core electron kinetic       :      20304.8502035    
 Coulomb                     :     -39217.9679977    
 Coulomb potential           :     -31981.2427205    
 nuclear-nuclear             :     -1447.26323814    
 electron-nuclear            :     -43560.1667987    
 Hartree                     :      5789.46203909    
 Madelung                    :     -23227.3466375    
 xc potential                :     -481.909595248    
 exchange                    :     -359.418828906    
 correlation                 :     -4.80642104765    
 total energy                :     -18455.3849906    
 
Density of states at Fermi energy :    108.3702944    
 (states/Hartree/unit cell)
 
Estimated indirect band gap :   0.1518502881E-03
 from k-point     76 to k-point    146
Estimated direct band gap   :   0.6758859561E-02
 at k-point      9
 
Charges :
 core                        :    48.00000000    
 valence                     :    30.00000000    
 interstitial                :    1.633846941    
 muffin-tins (core leakage)
  species :    1 (Pt)
   atom    1                 :    76.36615306     (  0.7274312594E-03)
 total in muffin-tins        :    76.36615306    
 total calculated charge     :    77.99959589    
 total charge                :    78.00000000    
 error                       :   0.4041120273E-03
 
RMS change in Kohn-Sham potential (target) :   0.6029809151E-01 (   10.00000000    )
Absolute change in total energy (target)   :    3.382517570     (  0.1000000000E-06)
 
Time (CPU seconds) :       157.53
 
+--------------------+
| Loop number :   10 |
+--------------------+
 
Energies :
 Fermi                       :     0.447248736826    
 sum of eigenvalues          :     -11335.3555581    
 electron kinetic            :      21127.7826627    
 core electron kinetic       :      20305.1512163    
 Coulomb                     :     -39217.8859170    
 Coulomb potential           :     -31981.2304103    
 nuclear-nuclear             :     -1447.26323814    
 electron-nuclear            :     -43560.0149474    
 Hartree                     :      5789.39226859    
 Madelung                    :     -23227.2707119    
 xc potential                :     -481.907810534    
 exchange                    :     -359.418083447    
 correlation                 :     -4.80641948880    
 total energy                :     -18454.3277572    
 
Density of states at Fermi energy :    108.1649140    
 (states/Hartree/unit cell)
 
Estimated indirect band gap :   0.1545802397E-03
 from k-point     76 to k-point    146
Estimated direct band gap   :   0.6819309683E-02
 at k-point      9
 
Charges :
 core                        :    48.00000000    
 valence                     :    30.00000000    
 interstitial                :    1.634252741    
 muffin-tins (core leakage)
  species :    1 (Pt)
   atom    1                 :    76.36574726     (  0.7268620787E-03)
 total in muffin-tins        :    76.36574726    
 total calculated charge     :    77.99959674    
 total charge                :    78.00000000    
 error                       :   0.4032639849E-03
 
Wrote STATE.OUT
 
RMS change in Kohn-Sham potential (target) :   0.2985124060E-01 (   10.00000000    )
Absolute change in total energy (target)   :    1.902862808     (  0.1000000000E-06)
 
Time (CPU seconds) :       175.01
 
+--------------------+
| Loop number :   11 |
+--------------------+
 
Energies :
 Fermi                       :     0.452836041713    
 sum of eigenvalues          :     -11334.8626735    
 electron kinetic            :      21128.3147095    
 core electron kinetic       :      20305.3695713    
 Coulomb                     :     -39217.8952649    
 Coulomb potential           :     -31981.2698383    
 nuclear-nuclear             :     -1447.26323814    
 electron-nuclear            :     -43559.9942152    
 Hartree                     :      5789.36218841    
 Madelung                    :     -23227.2603457    
 xc potential                :     -481.907544610    
 exchange                    :     -359.418204177    
 correlation                 :     -4.80642027192    
 total energy                :     -18453.8051799    
 
Density of states at Fermi energy :    108.0487878    
 (states/Hartree/unit cell)
 
Estimated indirect band gap :   0.1560290459E-03
 from k-point     76 to k-point    146
Estimated direct band gap   :   0.6871891959E-02
 at k-point      9
 
Charges :
 core                        :    48.00000000    
 valence                     :    30.00000000    
 interstitial                :    1.634558318    
 muffin-tins (core leakage)
  species :    1 (Pt)
   atom    1                 :    76.36544168     (  0.7265354216E-03)
 total in muffin-tins        :    76.36544168    
 total calculated charge     :    77.99959723    
 total charge                :    78.00000000    
 error                       :   0.4027739854E-03
 
RMS change in Kohn-Sham potential (target) :   0.1366766709E-01 (   10.00000000    )
Absolute change in total energy (target)   :   0.9982930631     (  0.1000000000E-06)
 
Time (CPU seconds) :       192.32
 
+--------------------+
| Loop number :   12 |
+--------------------+
 
Energies :
 Fermi                       :     0.455446859387    
 sum of eigenvalues          :     -11334.6488963    
 electron kinetic            :      21128.5731470    
 core electron kinetic       :      20305.5016838    
 Coulomb                     :     -39217.9270250    
 Coulomb potential           :     -31981.3143470    
 nuclear-nuclear             :     -1447.26323814    
 electron-nuclear            :     -43560.0132267    
 Hartree                     :      5789.34943988    
 Madelung                    :     -23227.2698515    
 xc potential                :     -481.907696303    
 exchange                    :     -359.418474429    
 correlation                 :     -4.80642055365    
 total energy                :     -18453.5787730    
 
Density of states at Fermi energy :    107.9980368    
 (states/Hartree/unit cell)
 
Estimated indirect band gap :   0.1566781627E-03
 from k-point     76 to k-point    146
Estimated direct band gap   :   0.6900454080E-02
 at k-point      9
 
Charges :
 core                        :    48.00000000    
 valence                     :    30.00000000    
 interstitial                :    1.634721517    
 muffin-tins (core leakage)
  species :    1 (Pt)
   atom    1                 :    76.36527848     (  0.7263549501E-03)
 total in muffin-tins        :    76.36527848    
 total calculated charge     :    77.99959749    
 total charge                :    78.00000000    
 error                       :   0.4025082702E-03
 
Wrote STATE.OUT
 
RMS change in Kohn-Sham potential (target) :   0.5901303959E-02 (   10.00000000    )
Absolute change in total energy (target)   :   0.4759801373     (  0.1000000000E-06)
 
Time (CPU seconds) :       208.61
 
+--------------------+
| Loop number :   13 |
+--------------------+
 
Energies :
 Fermi                       :     0.456503268975    
 sum of eigenvalues          :     -11334.5717552    
 electron kinetic            :      21128.6833214    
 core electron kinetic       :      20305.5697742    
 Coulomb                     :     -39217.9553544    
 Coulomb potential           :     -31981.3471678    
 nuclear-nuclear             :     -1447.26323814    
 electron-nuclear            :     -43560.0370646    
 Hartree                     :      5789.34494843    
 Madelung                    :     -23227.2817705    
 xc potential                :     -481.907908826    
 exchange                    :     -359.418701634    
 correlation                 :     -4.80642068786    
 total energy                :     -18453.4971553    
 
Density of states at Fermi energy :    107.9793744    
 (states/Hartree/unit cell)
 
Estimated indirect band gap :   0.1569274142E-03
 from k-point     76 to k-point    146
Estimated direct band gap   :   0.6914099038E-02
 at k-point      9
 
Charges :
 core                        :    48.00000000    
 valence                     :    30.00000000    
 interstitial                :    1.634798165    
 muffin-tins (core leakage)
  species :    1 (Pt)
   atom    1                 :    76.36520183     (  0.7262632920E-03)
 total in muffin-tins        :    76.36520183    
 total calculated charge     :    77.99959762    
 total charge                :    78.00000000    
 error                       :   0.4023772663E-03
 
RMS change in Kohn-Sham potential (target) :   0.2470761675E-02 (   10.00000000    )
Absolute change in total energy (target)   :   0.2006127382     (  0.1000000000E-06)
 
Time (CPU seconds) :       225.73
 
+--------------------+
| Loop number :   14 |
+--------------------+
 
Energies :
 Fermi                       :     0.456864242998    
 sum of eigenvalues          :     -11334.5503871    
 electron kinetic            :      21128.7241781    
 core electron kinetic       :      20305.5999956    
 Coulomb                     :     -39217.9732477    
 Coulomb potential           :     -31981.3665134    
 nuclear-nuclear             :     -1447.26323814    
 electron-nuclear            :     -43560.0535057    
 Hartree                     :      5789.34349611    
 Madelung                    :     -23227.2899910    
 xc potential                :     -481.908051825    
 exchange                    :     -359.418834319    
 correlation                 :     -4.80642080737    
 total energy                :     -18453.4743247    
 
Density of states at Fermi energy :    107.9732690    
 (states/Hartree/unit cell)
 
Estimated indirect band gap :   0.1570091472E-03
 from k-point     76 to k-point    146
Estimated direct band gap   :   0.6920410230E-02
 at k-point      9
 
Charges :
 core                        :    48.00000000    
 valence                     :    30.00000000    
 interstitial                :    1.634832236    
 muffin-tins (core leakage)
  species :    1 (Pt)
   atom    1                 :    76.36516776     (  0.7262218591E-03)
 total in muffin-tins        :    76.36516776    
 total calculated charge     :    77.99959768    
 total charge                :    78.00000000    
 error                       :   0.4023197044E-03
 
Wrote STATE.OUT
 
RMS change in Kohn-Sham potential (target) :   0.1005826776E-02 (   10.00000000    )
Absolute change in total energy (target)   :   0.7298378005E-01 (  0.1000000000E-06)
 
Time (CPU seconds) :       243.17
 
+--------------------+
| Loop number :   15 |
+--------------------+
 
Energies :
 Fermi                       :     0.456963413550    
 sum of eigenvalues          :     -11334.5471734    
 electron kinetic            :      21128.7369939    
 core electron kinetic       :      20305.6114202    
 Coulomb                     :     -39217.9825311    
 Coulomb potential           :     -31981.3760362    
 nuclear-nuclear             :     -1447.26323814    
 electron-nuclear            :     -43560.0625498    
 Hartree                     :      5789.34325678    
 Madelung                    :     -23227.2945130    
 xc potential                :     -481.908131020    
 exchange                    :     -359.418901949    
 correlation                 :     -4.80642088130    
 total energy                :     -18453.4708601    
 
Density of states at Fermi energy :    107.9719487    
 (states/Hartree/unit cell)
 
Estimated indirect band gap :   0.1570287793E-03
 from k-point     76 to k-point    146
Estimated direct band gap   :   0.6922735079E-02
 at k-point      9
 
Charges :
 core                        :    48.00000000    
 valence                     :    30.00000000    
 interstitial                :    1.634844516    
 muffin-tins (core leakage)
  species :    1 (Pt)
   atom    1                 :    76.36515548     (  0.7262051678E-03)
 total in muffin-tins        :    76.36515548    
 total calculated charge     :    77.99959770    
 total charge                :    78.00000000    
 error                       :   0.4022973103E-03
 
RMS change in Kohn-Sham potential (target) :   0.3870490515E-03 (   10.00000000    )
Absolute change in total energy (target)   :   0.2171054143E-01 (  0.1000000000E-06)
 
Time (CPU seconds) :       259.85
 
+--------------------+
| Loop number :   16 |
+--------------------+
 
Energies :
 Fermi                       :     0.456983613980    
 sum of eigenvalues          :     -11334.5477849    
 electron kinetic            :      21128.7404936    
 core electron kinetic       :      20305.6152401    
 Coulomb                     :     -39217.9864919    
 Coulomb potential           :     -31981.3801177    
 nuclear-nuclear             :     -1447.26323814    
 electron-nuclear            :     -43560.0663899    
 Hartree                     :      5789.34313609    
 Madelung                    :     -23227.2964331    
 xc potential                :     -481.908160850    
 exchange                    :     -359.418926542    
 correlation                 :     -4.80642091204    
 total energy                :     -18453.4713458    
 
Density of states at Fermi energy :    107.9716799    
 (states/Hartree/unit cell)
 
Estimated indirect band gap :   0.1570315508E-03
 from k-point     76 to k-point    146
Estimated direct band gap   :   0.6923704450E-02
 at k-point      9
 
Charges :
 core                        :    48.00000000    
 valence                     :    30.00000000    
 interstitial                :    1.634849338    
 muffin-tins (core leakage)
  species :    1 (Pt)
   atom    1                 :    76.36515066     (  0.7261994912E-03)
 total in muffin-tins        :    76.36515066    
 total calculated charge     :    77.99959771    
 total charge                :    78.00000000    
 error                       :   0.4022898902E-03
 
Wrote STATE.OUT
 
RMS change in Kohn-Sham potential (target) :   0.1343283630E-03 (   10.00000000    )
Absolute change in total energy (target)   :   0.4941964053E-02 (  0.1000000000E-06)
 
Time (CPU seconds) :       277.12
 
+--------------------+
| Loop number :   17 |
+--------------------+
 
Energies :
 Fermi                       :     0.456985562067    
 sum of eigenvalues          :     -11334.5485626    
 electron kinetic            :      21128.7411795    
 core electron kinetic       :      20305.6162468    
 Coulomb                     :     -39217.9880344    
 Coulomb potential           :     -31981.3815660    
 nuclear-nuclear             :     -1447.26323814    
 electron-nuclear            :     -43560.0680266    
 Hartree                     :      5789.34323034    
 Madelung                    :     -23227.2972515    
 xc potential                :     -481.908176168    
 exchange                    :     -359.418938601    
 correlation                 :     -4.80642090643    
 total energy                :     -18453.4722145    
 
Density of states at Fermi energy :    107.9720678    
 (states/Hartree/unit cell)
 
Estimated indirect band gap :   0.1570288681E-03
 from k-point     76 to k-point    146
Estimated direct band gap   :   0.6923695055E-02
 at k-point      9
 
Charges :
 core                        :    48.00000000    
 valence                     :    30.00000000    
 interstitial                :    1.634849442    
 muffin-tins (core leakage)
  species :    1 (Pt)
   atom    1                 :    76.36515056     (  0.7261974800E-03)
 total in muffin-tins        :    76.36515056    
 total calculated charge     :    77.99959771    
 total charge                :    78.00000000    
 error                       :   0.4022877525E-03
 
RMS change in Kohn-Sham potential (target) :   0.3999920407E-04 (   10.00000000    )
Absolute change in total energy (target)   :   0.3668016288E-03 (  0.1000000000E-06)
 
Time (CPU seconds) :       294.87
 
+--------------------+
| Loop number :   18 |
+--------------------+
 
Energies :
 Fermi                       :     0.456985605921    
 sum of eigenvalues          :     -11334.5488314    
 electron kinetic            :      21128.7414159    
 core electron kinetic       :      20305.6165766    
 Coulomb                     :     -39217.9884701    
 Coulomb potential           :     -31981.3820701    
 nuclear-nuclear             :     -1447.26323814    
 electron-nuclear            :     -43560.0683939    
 Hartree                     :      5789.34316190    
 Madelung                    :     -23227.2974351    
 xc potential                :     -481.908177263    
 exchange                    :     -359.418939446    
 correlation                 :     -4.80642091186    
 total energy                :     -18453.4724145    
 
Density of states at Fermi energy :    107.9720068    
 (states/Hartree/unit cell)
 
Estimated indirect band gap :   0.1570282415E-03
 from k-point     76 to k-point    146
Estimated direct band gap   :   0.6923914779E-02
 at k-point      9
 
Charges :
 core                        :    48.00000000    
 valence                     :    30.00000000    
 interstitial                :    1.634850402    
 muffin-tins (core leakage)
  species :    1 (Pt)
   atom    1                 :    76.36514960     (  0.7261975603E-03)
 total in muffin-tins        :    76.36514960    
 total calculated charge     :    77.99959771    
 total charge                :    78.00000000    
 error                       :   0.4022877115E-03
 
Wrote STATE.OUT
 
RMS change in Kohn-Sham potential (target) :   0.1089253353E-04 (   10.00000000    )
Absolute change in total energy (target)   :   0.1083504831E-03 (  0.1000000000E-06)
 
Time (CPU seconds) :       311.95
 
+--------------------+
| Loop number :   19 |
+--------------------+
 
Energies :
 Fermi                       :     0.456985380447    
 sum of eigenvalues          :     -11334.5489631    
 electron kinetic            :      21128.7414078    
 core electron kinetic       :      20305.6166184    
 Coulomb                     :     -39217.9886510    
 Coulomb potential           :     -31981.3821906    
 nuclear-nuclear             :     -1447.26323814    
 electron-nuclear            :     -43560.0686352    
 Hartree                     :      5789.34322231    
 Madelung                    :     -23227.2975557    
 xc potential                :     -481.908180358    
 exchange                    :     -359.418941820    
 correlation                 :     -4.80642091482    
 total energy                :     -18453.4726060    
 
Density of states at Fermi energy :    107.9720853    
 (states/Hartree/unit cell)
 
Estimated indirect band gap :   0.1570277941E-03
 from k-point     76 to k-point    146
Estimated direct band gap   :   0.6923866808E-02
 at k-point      9
 
Charges :
 core                        :    48.00000000    
 valence                     :    30.00000000    
 interstitial                :    1.634850193    
 muffin-tins (core leakage)
  species :    1 (Pt)
   atom    1                 :    76.36514981     (  0.7261973336E-03)
 total in muffin-tins        :    76.36514981    
 total calculated charge     :    77.99959771    
 total charge                :    78.00000000    
 error                       :   0.4022873700E-03
 
RMS change in Kohn-Sham potential (target) :   0.1135453716E-04 (   10.00000000    )
Absolute change in total energy (target)   :   0.2185359663E-03 (  0.1000000000E-06)
 
Time (CPU seconds) :       328.99
 
+--------------------+
| Loop number :   20 |
+--------------------+
 
Energies :
 Fermi                       :     0.456985291642    
 sum of eigenvalues          :     -11334.5489770    
 electron kinetic            :      21128.7414183    
 core electron kinetic       :      20305.6166272    
 Coulomb                     :     -39217.9886530    
 Coulomb potential           :     -31981.3822155    
 nuclear-nuclear             :     -1447.26323814    
 electron-nuclear            :     -43560.0686142    
 Hartree                     :      5789.34319936    
 Madelung                    :     -23227.2975452    
 xc potential                :     -481.908179837    
 exchange                    :     -359.418941399    
 correlation                 :     -4.80642092020    
 total energy                :     -18453.4725969    
 
Density of states at Fermi energy :    107.9720526    
 (states/Hartree/unit cell)
 
Estimated indirect band gap :   0.1570279219E-03
 from k-point     76 to k-point    146
Estimated direct band gap   :   0.6923908292E-02
 at k-point      9
 
Charges :
 core                        :    48.00000000    
 valence                     :    30.00000000    
 interstitial                :    1.634850383    
 muffin-tins (core leakage)
  species :    1 (Pt)
   atom    1                 :    76.36514962     (  0.7261973786E-03)
 total in muffin-tins        :    76.36514962    
 total calculated charge     :    77.99959771    
 total charge                :    78.00000000    
 error                       :   0.4022874785E-03
 
Wrote STATE.OUT
 
RMS change in Kohn-Sham potential (target) :   0.3812241446E-05 (   10.00000000    )
Absolute change in total energy (target)   :   0.4561377500E-04 (  0.1000000000E-06)
 
Time (CPU seconds) :       345.85
 
+--------------------+
| Loop number :   21 |
+--------------------+
 
Energies :
 Fermi                       :     0.456985197738    
 sum of eigenvalues          :     -11334.5489878    
 electron kinetic            :      21128.7414113    
 core electron kinetic       :      20305.6166256    
 Coulomb                     :     -39217.9886600    
 Coulomb potential           :     -31981.3822190    
 nuclear-nuclear             :     -1447.26323814    
 electron-nuclear            :     -43560.0686247    
 Hartree                     :      5789.34320282    
 Madelung                    :     -23227.2975505    
 xc potential                :     -481.908179991    
 exchange                    :     -359.418941517    
 correlation                 :     -4.80642091695    
 total energy                :     -18453.4726112    
 
Density of states at Fermi energy :    107.9720649    
 (states/Hartree/unit cell)
 
Estimated indirect band gap :   0.1570278766E-03
 from k-point     76 to k-point    146
Estimated direct band gap   :   0.6923897173E-02
 at k-point      9
 
Charges :
 core                        :    48.00000000    
 valence                     :    30.00000000    
 interstitial                :    1.634850341    
 muffin-tins (core leakage)
  species :    1 (Pt)
   atom    1                 :    76.36514966     (  0.7261972385E-03)
 total in muffin-tins        :    76.36514966    
 total calculated charge     :    77.99959771    
 total charge                :    78.00000000    
 error                       :   0.4022872415E-03
 
RMS change in Kohn-Sham potential (target) :   0.1094660909E-04 (   10.00000000    )
Absolute change in total energy (target)   :   0.2562221925E-04 (  0.1000000000E-06)
 
Time (CPU seconds) :       363.01
 
+--------------------+
| Loop number :   22 |
+--------------------+
 
Energies :
 Fermi                       :     0.456985157193    
 sum of eigenvalues          :     -11334.5489906    
 electron kinetic            :      21128.7414105    
 core electron kinetic       :      20305.6166259    
 Coulomb                     :     -39217.9886558    
 Coulomb potential           :     -31981.3822212    
 nuclear-nuclear             :     -1447.26323814    
 electron-nuclear            :     -43560.0686142    
 Hartree                     :      5789.34319648    
 Madelung                    :     -23227.2975452    
 xc potential                :     -481.908179926    
 exchange                    :     -359.418941462    
 correlation                 :     -4.80642091862    
 total energy                :     -18453.4726077    
 
Density of states at Fermi energy :    107.9720554    
 (states/Hartree/unit cell)
 
Estimated indirect band gap :   0.1570279192E-03
 from k-point     76 to k-point    146
Estimated direct band gap   :   0.6923908665E-02
 at k-point      9
 
Charges :
 core                        :    48.00000000    
 valence                     :    30.00000000    
 interstitial                :    1.634850391    
 muffin-tins (core leakage)
  species :    1 (Pt)
   atom    1                 :    76.36514961     (  0.7261973305E-03)
 total in muffin-tins        :    76.36514961    
 total calculated charge     :    77.99959771    
 total charge                :    78.00000000    
 error                       :   0.4022874389E-03
 
Wrote STATE.OUT
 
RMS change in Kohn-Sham potential (target) :   0.1334642727E-04 (   10.00000000    )
Absolute change in total energy (target)   :   0.2956585377E-05 (  0.1000000000E-06)
 
Time (CPU seconds) :       380.22
 
+--------------------+
| Loop number :   23 |
+--------------------+
 
Energies :
 Fermi                       :     0.456985129975    
 sum of eigenvalues          :     -11334.5489931    
 electron kinetic            :      21128.7414072    
 core electron kinetic       :      20305.6166245    
 Coulomb                     :     -39217.9886606    
 Coulomb potential           :     -31981.3822203    
 nuclear-nuclear             :     -1447.26323814    
 electron-nuclear            :     -43560.0686247    
 Hartree                     :      5789.34320220    
 Madelung                    :     -23227.2975505    
 xc potential                :     -481.908179981    
 exchange                    :     -359.418941517    
 correlation                 :     -4.80642091865    
 total energy                :     -18453.4726159    
 
Density of states at Fermi energy :    107.9720596    
 (states/Hartree/unit cell)
 
Estimated indirect band gap :   0.1570279015E-03
 from k-point     76 to k-point    146
Estimated direct band gap   :   0.6923905130E-02
 at k-point      9
 
Charges :
 core                        :    48.00000000    
 valence                     :    30.00000000    
 interstitial                :    1.634850377    
 muffin-tins (core leakage)
  species :    1 (Pt)
   atom    1                 :    76.36514962     (  0.7261972865E-03)
 total in muffin-tins        :    76.36514962    
 total calculated charge     :    77.99959771    
 total charge                :    78.00000000    
 error                       :   0.4022873704E-03
 
RMS change in Kohn-Sham potential (target) :   0.6742338731E-05 (   10.00000000    )
Absolute change in total energy (target)   :   0.8926013834E-05 (  0.1000000000E-06)
 
Time (CPU seconds) :       397.37
 
+--------------------+
| Loop number :   24 |
+--------------------+
 
Energies :
 Fermi                       :     0.456985124941    
 sum of eigenvalues          :     -11334.5489933    
 electron kinetic            :      21128.7414071    
 core electron kinetic       :      20305.6166246    
 Coulomb                     :     -39217.9886607    
 Coulomb potential           :     -31981.3822205    
 nuclear-nuclear             :     -1447.26323814    
 electron-nuclear            :     -43560.0686247    
 Hartree                     :      5789.34320210    
 Madelung                    :     -23227.2975505    
 xc potential                :     -481.908179970    
 exchange                    :     -359.418941527    
 correlation                 :     -4.80642091886    
 total energy                :     -18453.4726160    
 
Density of states at Fermi energy :    107.9720577    
 (states/Hartree/unit cell)
 
Estimated indirect band gap :   0.1570279117E-03
 from k-point     76 to k-point    146
Estimated direct band gap   :   0.6923907191E-02
 at k-point      9
 
Charges :
 core                        :    48.00000000    
 valence                     :    30.00000000    
 interstitial                :    1.634850386    
 muffin-tins (core leakage)
  species :    1 (Pt)
   atom    1                 :    76.36514961     (  0.7261973064E-03)
 total in muffin-tins        :    76.36514961    
 total calculated charge     :    77.99959771    
 total charge                :    78.00000000    
 error                       :   0.4022874009E-03
 
Wrote STATE.OUT
 
RMS change in Kohn-Sham potential (target) :   0.5973180907E-04 (   10.00000000    )
Absolute change in total energy (target)   :   0.2363412932E-05 (  0.1000000000E-06)
 
Time (CPU seconds) :       415.07
 
+--------------------+
| Loop number :   25 |
+--------------------+
 
Energies :
 Fermi                       :     0.456985121328    
 sum of eigenvalues          :     -11334.5489934    
 electron kinetic            :      21128.7414067    
 core electron kinetic       :      20305.6166245    
 Coulomb                     :     -39217.9886605    
 Coulomb potential           :     -31981.3822201    
 nuclear-nuclear             :     -1447.26323814    
 electron-nuclear            :     -43560.0686247    
 Hartree                     :      5789.34320228    
 Madelung                    :     -23227.2975505    
 xc potential                :     -481.908180042    
 exchange                    :     -359.418941564    
 correlation                 :     -4.80642091826    
 total energy                :     -18453.4726163    
 
Density of states at Fermi energy :    107.9720599    
 (states/Hartree/unit cell)
 
Estimated indirect band gap :   0.1570279076E-03
 from k-point     76 to k-point    146
Estimated direct band gap   :   0.6923903971E-02
 at k-point      9
 
Charges :
 core                        :    48.00000000    
 valence                     :    30.00000000    
 interstitial                :    1.634850372    
 muffin-tins (core leakage)
  species :    1 (Pt)
   atom    1                 :    76.36514963     (  0.7261972270E-03)
 total in muffin-tins        :    76.36514963    
 total calculated charge     :    77.99959771    
 total charge                :    78.00000000    
 error                       :   0.4022873304E-03
 
RMS change in Kohn-Sham potential (target) :   0.5263868248E-05 (   10.00000000    )
Absolute change in total energy (target)   :   0.8514252841E-06 (  0.1000000000E-06)
 
Time (CPU seconds) :       431.73
 
+--------------------+
| Loop number :   26 |
+--------------------+
 
Energies :
 Fermi                       :     0.456985121568    
 sum of eigenvalues          :     -11334.5489931    
 electron kinetic            :      21128.7414076    
 core electron kinetic       :      20305.6166250    
 Coulomb                     :     -39217.9886608    
 Coulomb potential           :     -31981.3822207    
 nuclear-nuclear             :     -1447.26323814    
 electron-nuclear            :     -43560.0686247    
 Hartree                     :      5789.34320199    
 Madelung                    :     -23227.2975505    
 xc potential                :     -481.908180012    
 exchange                    :     -359.418941543    
 correlation                 :     -4.80642091863    
 total energy                :     -18453.4726157    
 
Density of states at Fermi energy :    107.9720574    
 (states/Hartree/unit cell)
 
Estimated indirect band gap :   0.1570279169E-03
 from k-point     76 to k-point    146
Estimated direct band gap   :   0.6923907216E-02
 at k-point      9
 
Charges :
 core                        :    48.00000000    
 valence                     :    30.00000000    
 interstitial                :    1.634850386    
 muffin-tins (core leakage)
  species :    1 (Pt)
   atom    1                 :    76.36514961     (  0.7261974096E-03)
 total in muffin-tins        :    76.36514961    
 total calculated charge     :    77.99959771    
 total charge                :    78.00000000    
 error                       :   0.4022874619E-03
 
Wrote STATE.OUT
 
RMS change in Kohn-Sham potential (target) :   0.2262216721E-04 (   10.00000000    )
Absolute change in total energy (target)   :   0.4223038559E-06 (  0.1000000000E-06)
 
Time (CPU seconds) :       450.11
 
+--------------------+
| Loop number :   27 |
+--------------------+
 
Energies :
 Fermi                       :     0.456985120615    
 sum of eigenvalues          :     -11334.5489932    
 electron kinetic            :      21128.7414071    
 core electron kinetic       :      20305.6166247    
 Coulomb                     :     -39217.9886606    
 Coulomb potential           :     -31981.3822203    
 nuclear-nuclear             :     -1447.26323814    
 electron-nuclear            :     -43560.0686247    
 Hartree                     :      5789.34320219    
 Madelung                    :     -23227.2975505    
 xc potential                :     -481.908180040    
 exchange                    :     -359.418941554    
 correlation                 :     -4.80642091860    
 total energy                :     -18453.4726160    
 
Density of states at Fermi energy :    107.9720580    
 (states/Hartree/unit cell)
 
Estimated indirect band gap :   0.1570279126E-03
 from k-point     76 to k-point    146
Estimated direct band gap   :   0.6923906784E-02
 at k-point      9
 
Charges :
 core                        :    48.00000000    
 valence                     :    30.00000000    
 interstitial                :    1.634850384    
 muffin-tins (core leakage)
  species :    1 (Pt)
   atom    1                 :    76.36514962     (  0.7261972021E-03)
 total in muffin-tins        :    76.36514962    
 total calculated charge     :    77.99959771    
 total charge                :    78.00000000    
 error                       :   0.4022872695E-03
 
RMS change in Kohn-Sham potential (target) :   0.2243084762E-04 (   10.00000000    )
Absolute change in total energy (target)   :   0.2181186574E-06 (  0.1000000000E-06)
 
Time (CPU seconds) :       467.03
 
+--------------------+
| Loop number :   28 |
+--------------------+
 
Energies :
 Fermi                       :     0.456985120261    
 sum of eigenvalues          :     -11334.5489931    
 electron kinetic            :      21128.7414073    
 core electron kinetic       :      20305.6166248    
 Coulomb                     :     -39217.9886607    
 Coulomb potential           :     -31981.3822205    
 nuclear-nuclear             :     -1447.26323814    
 electron-nuclear            :     -43560.0686247    
 Hartree                     :      5789.34320211    
 Madelung                    :     -23227.2975505    
 xc potential                :     -481.908180018    
 exchange                    :     -359.418941547    
 correlation                 :     -4.80642091830    
 total energy                :     -18453.4726158    
 
Density of states at Fermi energy :    107.9720576    
 (states/Hartree/unit cell)
 
Estimated indirect band gap :   0.1570279117E-03
 from k-point     76 to k-point    146
Estimated direct band gap   :   0.6923907673E-02
 at k-point      9
 
Charges :
 core                        :    48.00000000    
 valence                     :    30.00000000    
 interstitial                :    1.634850387    
 muffin-tins (core leakage)
  species :    1 (Pt)
   atom    1                 :    76.36514961     (  0.7261972393E-03)
 total in muffin-tins        :    76.36514961    
 total calculated charge     :    77.99959771    
 total charge                :    78.00000000    
 error                       :   0.4022873268E-03
 
Wrote STATE.OUT
 
RMS change in Kohn-Sham potential (target) :   0.5354185777E-05 (   10.00000000    )
Absolute change in total energy (target)   :   0.8510687621E-07 (  0.1000000000E-06)
 
Convergence targets achieved
 
Time (CPU seconds) :       484.12
 
+--------------------+
| Loop number :   29 |
+--------------------+
 
Energies :
 Fermi                       :     0.456985119998    
 sum of eigenvalues          :     -11334.5489932    
 electron kinetic            :      21128.7414067    
 core electron kinetic       :      20305.6166242    
 Coulomb                     :     -39217.9886604    
 Coulomb potential           :     -31981.3822198    
 nuclear-nuclear             :     -1447.26323814    
 electron-nuclear            :     -43560.0686247    
 Hartree                     :      5789.34320243    
 Madelung                    :     -23227.2975505    
 xc potential                :     -481.908180037    
 exchange                    :     -359.418941543    
 correlation                 :     -4.80642091930    
 total energy                :     -18453.4726162    
 
Density of states at Fermi energy :    107.9720582    
 (states/Hartree/unit cell)
 
Estimated indirect band gap :   0.1570279093E-03
 from k-point     76 to k-point    146
Estimated direct band gap   :   0.6923906992E-02
 at k-point      9
 
Charges :
 core                        :    48.00000000    
 valence                     :    30.00000000    
 interstitial                :    1.634850384    
 muffin-tins (core leakage)
  species :    1 (Pt)
   atom    1                 :    76.36514962     (  0.7261972534E-03)
 total in muffin-tins        :    76.36514962    
 total calculated charge     :    77.99959771    
 total charge                :    78.00000000    
 error                       :   0.4022872537E-03
 
+------------------------------+
| Self-consistent loop stopped |
+------------------------------+
 
Wrote STATE.OUT
 
Timings (CPU seconds) :
 initialisation                        :         1.61
 Hamiltonian and overlap matrix set up :        62.50
 first-variational eigenvalue equation :       136.26
 charge density calculation            :        99.06
 potential calculation                 :       203.19
 total                                 :       502.63
 
+----------------------------+
| Elk version 8.3.15 stopped |
+----------------------------+
