 
scale
 1.0
 
scale1
 1.0
 
scale2
 1.0
 
scale3
 1.0
 
avec
   4.434832943      -2.560451994       0.000000000    
   0.000000000       5.120903986       0.000000000    
   0.000000000       0.000000000       7.748692523    
 
atoms
   1                                    : nspecies
'Tc.in'                                 : spfname
   2                                    : natoms; atpos, bfcmt below
    0.33333333    0.16666667    0.25000000    0.00000000  0.00000000  0.00000000
   -0.33333333   -0.16666667   -0.25000000    0.00000000  0.00000000  0.00000000
