   21.75098701    
   22.89211364    
   22.57376265    
   22.49218316    
   22.15185536    
   21.08859719    
   20.58765635    
   20.56352463    
   20.55567443    
   20.55981091    
   20.56126895    
   20.56179836    
   20.56165651    
   20.56160246    
   20.56159865    
   20.56158394    
   20.56161186    
   20.56158363    
   20.56158554    
   20.56158471    
   20.56158356    
   20.56158694    
   20.56159245    
   20.56158946    
   20.56158906    
   20.56158649    
   20.56158434    
   20.56158381    
   20.56158283    
   20.56158217    
   20.56158260    
   20.56158211    
   20.56158190    
   20.56158231    
   20.56158196    
   20.56158183    
   20.56158163    
   20.56158151    
   20.56158144    
   20.56158130    
   20.56158125    
   20.56158124    
   20.56158129    
   20.56158122    
   20.56158118    
   20.56158114    
   20.56158124    
   20.56158127    
   20.56158126    
   20.56158125    
   20.56158125    
   20.56158122    
   20.56158122    
   20.56158118    
   20.56158116    
   20.56158116    
