   165 : nkpt; k-point, vkl, wkpt, nmat below
     1   0.000000000       0.000000000       0.000000000      0.2035416243E-03     239
     2  0.5882352941E-01   0.000000000       0.000000000      0.1628332994E-02     239
     3  0.1176470588       0.000000000       0.000000000      0.1628332994E-02     242
     4  0.1764705882       0.000000000       0.000000000      0.1628332994E-02     248
     5  0.2352941176       0.000000000       0.000000000      0.1628332994E-02     242
     6  0.2941176471       0.000000000       0.000000000      0.1628332994E-02     240
     7  0.3529411765       0.000000000       0.000000000      0.1628332994E-02     240
     8  0.4117647059       0.000000000       0.000000000      0.1628332994E-02     240
     9  0.4705882353       0.000000000       0.000000000      0.1628332994E-02     240
    10  0.5882352941E-01  0.5882352941E-01   0.000000000      0.1221249746E-02     239
    11  0.1176470588      0.5882352941E-01   0.000000000      0.4884998982E-02     244
    12  0.1764705882      0.5882352941E-01   0.000000000      0.4884998982E-02     246
    13  0.2352941176      0.5882352941E-01   0.000000000      0.4884998982E-02     242
    14  0.2941176471      0.5882352941E-01   0.000000000      0.4884998982E-02     238
    15  0.3529411765      0.5882352941E-01   0.000000000      0.4884998982E-02     239
    16  0.4117647059      0.5882352941E-01   0.000000000      0.4884998982E-02     238
    17  0.4705882353      0.5882352941E-01   0.000000000      0.4884998982E-02     240
    18  0.5294117647      0.5882352941E-01   0.000000000      0.4884998982E-02     240
    19  0.5882352941      0.5882352941E-01   0.000000000      0.4884998982E-02     240
    20  0.6470588235      0.5882352941E-01   0.000000000      0.4884998982E-02     239
    21  0.7058823529      0.5882352941E-01   0.000000000      0.4884998982E-02     241
    22  0.7647058824      0.5882352941E-01   0.000000000      0.4884998982E-02     240
    23  0.8235294118      0.5882352941E-01   0.000000000      0.4884998982E-02     242
    24  0.8823529412      0.5882352941E-01   0.000000000      0.4884998982E-02     244
    25  0.9411764706      0.5882352941E-01   0.000000000      0.2442499491E-02     243
    26  0.1176470588      0.1176470588       0.000000000      0.1221249746E-02     243
    27  0.1764705882      0.1176470588       0.000000000      0.4884998982E-02     247
    28  0.2352941176      0.1176470588       0.000000000      0.4884998982E-02     245
    29  0.2941176471      0.1176470588       0.000000000      0.4884998982E-02     241
    30  0.3529411765      0.1176470588       0.000000000      0.4884998982E-02     238
    31  0.4117647059      0.1176470588       0.000000000      0.4884998982E-02     238
    32  0.4705882353      0.1176470588       0.000000000      0.4884998982E-02     239
    33  0.5294117647      0.1176470588       0.000000000      0.4884998982E-02     240
    34  0.5882352941      0.1176470588       0.000000000      0.4884998982E-02     238
    35  0.6470588235      0.1176470588       0.000000000      0.4884998982E-02     240
    36  0.7058823529      0.1176470588       0.000000000      0.4884998982E-02     238
    37  0.7647058824      0.1176470588       0.000000000      0.4884998982E-02     240
    38  0.8235294118      0.1176470588       0.000000000      0.4884998982E-02     240
    39  0.8823529412      0.1176470588       0.000000000      0.2442499491E-02     243
    40  0.1764705882      0.1764705882       0.000000000      0.1221249746E-02     239
    41  0.2352941176      0.1764705882       0.000000000      0.4884998982E-02     243
    42  0.2941176471      0.1764705882       0.000000000      0.4884998982E-02     242
    43  0.3529411765      0.1764705882       0.000000000      0.4884998982E-02     241
    44  0.4117647059      0.1764705882       0.000000000      0.4884998982E-02     239
    45  0.4705882353      0.1764705882       0.000000000      0.4884998982E-02     239
    46  0.5294117647      0.1764705882       0.000000000      0.4884998982E-02     241
    47  0.5882352941      0.1764705882       0.000000000      0.4884998982E-02     237
    48  0.6470588235      0.1764705882       0.000000000      0.4884998982E-02     235
    49  0.7058823529      0.1764705882       0.000000000      0.4884998982E-02     241
    50  0.7647058824      0.1764705882       0.000000000      0.4884998982E-02     242
    51  0.8235294118      0.1764705882       0.000000000      0.2442499491E-02     237
    52  0.2352941176      0.2352941176       0.000000000      0.1221249746E-02     251
    53  0.2941176471      0.2352941176       0.000000000      0.4884998982E-02     243
    54  0.3529411765      0.2352941176       0.000000000      0.4884998982E-02     244
    55  0.4117647059      0.2352941176       0.000000000      0.4884998982E-02     243
    56  0.4705882353      0.2352941176       0.000000000      0.4884998982E-02     237
    57  0.5294117647      0.2352941176       0.000000000      0.4884998982E-02     236
    58  0.5882352941      0.2352941176       0.000000000      0.4884998982E-02     238
    59  0.6470588235      0.2352941176       0.000000000      0.4884998982E-02     235
    60  0.7058823529      0.2352941176       0.000000000      0.4884998982E-02     241
    61  0.7647058824      0.2352941176       0.000000000      0.2442499491E-02     243
    62  0.2941176471      0.2941176471       0.000000000      0.1221249746E-02     239
    63  0.3529411765      0.2941176471       0.000000000      0.4884998982E-02     241
    64  0.4117647059      0.2941176471       0.000000000      0.4884998982E-02     240
    65  0.4705882353      0.2941176471       0.000000000      0.4884998982E-02     236
    66  0.5294117647      0.2941176471       0.000000000      0.4884998982E-02     236
    67  0.5882352941      0.2941176471       0.000000000      0.4884998982E-02     240
    68  0.6470588235      0.2941176471       0.000000000      0.4884998982E-02     238
    69  0.7058823529      0.2941176471       0.000000000      0.2442499491E-02     237
    70  0.3529411765      0.3529411765       0.000000000      0.1221249746E-02     239
    71  0.4117647059      0.3529411765       0.000000000      0.4884998982E-02     239
    72  0.4705882353      0.3529411765       0.000000000      0.4884998982E-02     236
    73  0.5294117647      0.3529411765       0.000000000      0.4884998982E-02     236
    74  0.5882352941      0.3529411765       0.000000000      0.4884998982E-02     236
    75  0.6470588235      0.3529411765       0.000000000      0.2442499491E-02     238
    76  0.4117647059      0.4117647059       0.000000000      0.1221249746E-02     238
    77  0.4705882353      0.4117647059       0.000000000      0.4884998982E-02     241
    78  0.5294117647      0.4117647059       0.000000000      0.4884998982E-02     240
    79  0.5882352941      0.4117647059       0.000000000      0.2442499491E-02     236
    80  0.4705882353      0.4705882353       0.000000000      0.1221249746E-02     242
    81  0.5294117647      0.4705882353       0.000000000      0.2442499491E-02     240
    82  0.1764705882      0.1176470588      0.5882352941E-01  0.4884998982E-02     247
    83  0.2352941176      0.1176470588      0.5882352941E-01  0.9769997965E-02     242
    84  0.2941176471      0.1176470588      0.5882352941E-01  0.9769997965E-02     241
    85  0.3529411765      0.1176470588      0.5882352941E-01  0.9769997965E-02     237
    86  0.4117647059      0.1176470588      0.5882352941E-01  0.9769997965E-02     238
    87  0.4705882353      0.1176470588      0.5882352941E-01  0.9769997965E-02     239
    88  0.5294117647      0.1176470588      0.5882352941E-01  0.9769997965E-02     240
    89  0.2352941176      0.1764705882      0.5882352941E-01  0.4884998982E-02     244
    90  0.2941176471      0.1764705882      0.5882352941E-01  0.9769997965E-02     242
    91  0.3529411765      0.1764705882      0.5882352941E-01  0.9769997965E-02     242
    92  0.4117647059      0.1764705882      0.5882352941E-01  0.9769997965E-02     239
    93  0.4705882353      0.1764705882      0.5882352941E-01  0.9769997965E-02     240
    94  0.5294117647      0.1764705882      0.5882352941E-01  0.9769997965E-02     240
    95  0.5882352941      0.1764705882      0.5882352941E-01  0.9769997965E-02     240
    96  0.6470588235      0.1764705882      0.5882352941E-01  0.9769997965E-02     241
    97  0.7058823529      0.1764705882      0.5882352941E-01  0.9769997965E-02     241
    98  0.7647058824      0.1764705882      0.5882352941E-01  0.9769997965E-02     238
    99  0.8235294118      0.1764705882      0.5882352941E-01  0.9769997965E-02     243
   100  0.8823529412      0.1764705882      0.5882352941E-01  0.4884998982E-02     241
   101  0.2941176471      0.2352941176      0.5882352941E-01  0.4884998982E-02     242
   102  0.3529411765      0.2352941176      0.5882352941E-01  0.9769997965E-02     243
   103  0.4117647059      0.2352941176      0.5882352941E-01  0.9769997965E-02     240
   104  0.4705882353      0.2352941176      0.5882352941E-01  0.9769997965E-02     239
   105  0.5294117647      0.2352941176      0.5882352941E-01  0.9769997965E-02     240
   106  0.5882352941      0.2352941176      0.5882352941E-01  0.9769997965E-02     240
   107  0.6470588235      0.2352941176      0.5882352941E-01  0.9769997965E-02     240
   108  0.7058823529      0.2352941176      0.5882352941E-01  0.9769997965E-02     238
   109  0.7647058824      0.2352941176      0.5882352941E-01  0.9769997965E-02     240
   110  0.8235294118      0.2352941176      0.5882352941E-01  0.4884998982E-02     240
   111  0.3529411765      0.2941176471      0.5882352941E-01  0.4884998982E-02     242
   112  0.4117647059      0.2941176471      0.5882352941E-01  0.9769997965E-02     242
   113  0.4705882353      0.2941176471      0.5882352941E-01  0.9769997965E-02     241
   114  0.5294117647      0.2941176471      0.5882352941E-01  0.9769997965E-02     238
   115  0.5882352941      0.2941176471      0.5882352941E-01  0.9769997965E-02     238
   116  0.6470588235      0.2941176471      0.5882352941E-01  0.9769997965E-02     239
   117  0.7058823529      0.2941176471      0.5882352941E-01  0.9769997965E-02     238
   118  0.7647058824      0.2941176471      0.5882352941E-01  0.4884998982E-02     240
   119  0.4117647059      0.3529411765      0.5882352941E-01  0.4884998982E-02     242
   120  0.4705882353      0.3529411765      0.5882352941E-01  0.9769997965E-02     238
   121  0.5294117647      0.3529411765      0.5882352941E-01  0.9769997965E-02     236
   122  0.5882352941      0.3529411765      0.5882352941E-01  0.9769997965E-02     235
   123  0.6470588235      0.3529411765      0.5882352941E-01  0.9769997965E-02     235
   124  0.7058823529      0.3529411765      0.5882352941E-01  0.4884998982E-02     236
   125  0.4705882353      0.4117647059      0.5882352941E-01  0.4884998982E-02     240
   126  0.5294117647      0.4117647059      0.5882352941E-01  0.9769997965E-02     238
   127  0.5882352941      0.4117647059      0.5882352941E-01  0.9769997965E-02     235
   128  0.6470588235      0.4117647059      0.5882352941E-01  0.4884998982E-02     232
   129  0.5294117647      0.4705882353      0.5882352941E-01  0.4884998982E-02     240
   130  0.5882352941      0.4705882353      0.5882352941E-01  0.4884998982E-02     238
   131  0.3529411765      0.2352941176      0.1176470588      0.4884998982E-02     242
   132  0.4117647059      0.2352941176      0.1176470588      0.9769997965E-02     240
   133  0.4705882353      0.2352941176      0.1176470588      0.9769997965E-02     240
   134  0.5294117647      0.2352941176      0.1176470588      0.9769997965E-02     241
   135  0.5882352941      0.2352941176      0.1176470588      0.9769997965E-02     241
   136  0.4117647059      0.2941176471      0.1176470588      0.4884998982E-02     242
   137  0.4705882353      0.2941176471      0.1176470588      0.9769997965E-02     241
   138  0.5294117647      0.2941176471      0.1176470588      0.9769997965E-02     240
   139  0.5882352941      0.2941176471      0.1176470588      0.9769997965E-02     239
   140  0.6470588235      0.2941176471      0.1176470588      0.9769997965E-02     240
   141  0.7058823529      0.2941176471      0.1176470588      0.9769997965E-02     239
   142  0.7647058824      0.2941176471      0.1176470588      0.9769997965E-02     238
   143  0.8235294118      0.2941176471      0.1176470588      0.4884998982E-02     238
   144  0.4705882353      0.3529411765      0.1176470588      0.4884998982E-02     242
   145  0.5294117647      0.3529411765      0.1176470588      0.9769997965E-02     237
   146  0.5882352941      0.3529411765      0.1176470588      0.9769997965E-02     235
   147  0.6470588235      0.3529411765      0.1176470588      0.9769997965E-02     237
   148  0.7058823529      0.3529411765      0.1176470588      0.9769997965E-02     237
   149  0.7647058824      0.3529411765      0.1176470588      0.4884998982E-02     238
   150  0.5294117647      0.4117647059      0.1176470588      0.4884998982E-02     237
   151  0.5882352941      0.4117647059      0.1176470588      0.9769997965E-02     234
   152  0.6470588235      0.4117647059      0.1176470588      0.9769997965E-02     235
   153  0.7058823529      0.4117647059      0.1176470588      0.4884998982E-02     236
   154  0.5882352941      0.4705882353      0.1176470588      0.4884998982E-02     234
   155  0.6470588235      0.4705882353      0.1176470588      0.4884998982E-02     232
   156  0.5294117647      0.3529411765      0.1764705882      0.4884998982E-02     238
   157  0.5882352941      0.3529411765      0.1764705882      0.9769997965E-02     236
   158  0.6470588235      0.3529411765      0.1764705882      0.9769997965E-02     238
   159  0.5882352941      0.4117647059      0.1764705882      0.4884998982E-02     237
   160  0.6470588235      0.4117647059      0.1764705882      0.9769997965E-02     237
   161  0.7058823529      0.4117647059      0.1764705882      0.9769997965E-02     236
   162  0.7647058824      0.4117647059      0.1764705882      0.4884998982E-02     236
   163  0.6470588235      0.4705882353      0.1764705882      0.4884998982E-02     238
   164  0.7058823529      0.4705882353      0.1764705882      0.4884998982E-02     236
   165  0.7058823529      0.4705882353      0.2352941176      0.4884998982E-02     234
