 
Species :    1 (Ir), atom :    1
 APW functions :
  l =  0, energy derivative =  0 :   0.5018083902    
  l =  1, energy derivative =  0 :   0.5018083902    
  l =  2, energy derivative =  0 :   0.5018083902    
  l =  3, energy derivative =  0 :   0.5018083902    
  l =  4, energy derivative =  0 :   0.5018083902    
  l =  5, energy derivative =  0 :   0.5018083902    
  l =  6, energy derivative =  0 :   0.5018083902    
  l =  7, energy derivative =  0 :   0.5018083902    
  l =  8, energy derivative =  0 :   0.5018083902    
  l =  9, energy derivative =  0 :   0.5018083902    
  l = 10, energy derivative =  0 :   0.5018083902    
 local-orbital functions :
  l.o. =  1, l =  0, energy derivative =  0 :   0.5018083902    
  l.o. =  1, l =  0, energy derivative =  1 :   0.5018083902    
  l.o. =  2, l =  1, energy derivative =  0 :   0.5018083902    
  l.o. =  2, l =  1, energy derivative =  1 :   0.5018083902    
  l.o. =  3, l =  2, energy derivative =  0 :   0.5018083902    
  l.o. =  3, l =  2, energy derivative =  1 :   0.5018083902    
  l.o. =  4, l =  3, energy derivative =  0 :   0.5018083902    
  l.o. =  4, l =  3, energy derivative =  1 :   0.5018083902    
  l.o. =  5, l =  3, energy derivative =  0 :   0.5018083902    
  l.o. =  5, l =  3, energy derivative =  0 :   -1.481255796    
  l.o. =  6, l =  1, energy derivative =  0 :   0.5018083902    
  l.o. =  6, l =  1, energy derivative =  0 :   -1.221477305    
  l.o. =  7, l =  2, energy derivative =  0 :   0.5018083902    
  l.o. =  7, l =  2, energy derivative =  0 :   0.6006586755    
  l.o. =  8, l =  4, energy derivative =  0 :   0.5018083902    
  l.o. =  8, l =  4, energy derivative =  1 :   0.5018083902    
  l.o. =  9, l =  5, energy derivative =  0 :   0.5018083902    
  l.o. =  9, l =  5, energy derivative =  1 :   0.5018083902    
  l.o. = 10, l =  6, energy derivative =  0 :   0.5018083902    
  l.o. = 10, l =  6, energy derivative =  1 :   0.5018083902    
  l.o. = 11, l =  0, energy derivative =  0 :    1.235825735    
  l.o. = 11, l =  0, energy derivative =  1 :    1.235825735    
  l.o. = 11, l =  0, energy derivative =  2 :    1.235825735    
  l.o. = 12, l =  1, energy derivative =  0 :    2.013520362    
  l.o. = 12, l =  1, energy derivative =  1 :    2.013520362    
  l.o. = 12, l =  1, energy derivative =  2 :    2.013520362    
  l.o. = 13, l =  2, energy derivative =  0 :   0.6006586755    
  l.o. = 13, l =  2, energy derivative =  1 :   0.6006586755    
  l.o. = 13, l =  2, energy derivative =  2 :   0.6006586755    
  l.o. = 14, l =  3, energy derivative =  0 :    2.265662817    
  l.o. = 14, l =  3, energy derivative =  1 :    2.265662817    
  l.o. = 14, l =  3, energy derivative =  2 :    2.265662817    
  l.o. = 15, l =  4, energy derivative =  0 :    3.627406107    
  l.o. = 15, l =  4, energy derivative =  1 :    3.627406107    
  l.o. = 15, l =  4, energy derivative =  2 :    3.627406107    
  l.o. = 16, l =  5, energy derivative =  0 :    5.292493231    
  l.o. = 16, l =  5, energy derivative =  1 :    5.292493231    
  l.o. = 16, l =  5, energy derivative =  2 :    5.292493231    
  l.o. = 17, l =  6, energy derivative =  0 :    7.045945169    
  l.o. = 17, l =  6, energy derivative =  1 :    7.045945169    
  l.o. = 17, l =  6, energy derivative =  2 :    7.045945169    
  l.o. = 18, l =  7, energy derivative =  0 :    8.949456058    
  l.o. = 18, l =  7, energy derivative =  1 :    8.949456058    
  l.o. = 18, l =  7, energy derivative =  2 :    8.949456058    
  l.o. = 19, l =  8, energy derivative =  0 :    11.02000588    
  l.o. = 19, l =  8, energy derivative =  1 :    11.02000588    
  l.o. = 19, l =  8, energy derivative =  2 :    11.02000588    
