  0.6045239355    
  0.5011188111    
  0.2230215266    
  0.8509831598E-01
  0.2877472110E-01
  0.3839035498E-02
  0.1026986206E-02
  0.2934945512E-03
  0.1491454948E-03
  0.5198502353E-04
  0.1242415443E-03
  0.4245488024E-04
  0.1778455579E-03
  0.1774321096E-04
  0.2259680876E-03
  0.9654601029E-05
  0.1036384340E-03
  0.1228347111E-04
  0.1319837633E-04
  0.1098478393E-03
  0.7238416619E-04
  0.1096240695E-03
  0.9189246832E-04
  0.6318019329E-04
  0.1921782817E-03
  0.5991544755E-04
  0.6271430797E-05
  0.1379777874E-04
  0.4644946963E-04
  0.3803296477E-05
  0.4441013326E-05
  0.5280766642E-04
  0.1672150511E-04
  0.7985434489E-04
  0.1128506761E-04
  0.3949380961E-03
