+----------------------------+
| Elk version 8.3.15 started |
+----------------------------+
 
Date (YYYY-MM-DD) : 2022-02-27
Time (hh:mm:ss)   : 04:15:55
 
All units are atomic (Hartree, Bohr, etc.)
 
+------------------------------------------+
| Ground-state run resuming from STATE.OUT |
+------------------------------------------+
 
Lattice vectors :
   4.410002708      -2.546116250       0.000000000    
   0.000000000       5.092232500       0.000000000    
   0.000000000       0.000000000       8.255087038    
 
Reciprocal lattice vectors :
   1.424757698       0.000000000       0.000000000    
  0.7123788491       1.233876361       0.000000000    
   0.000000000       0.000000000      0.7611288989    
 
Unit cell volume      :    185.3825011    
Brillouin zone volume :    1.338045457    
 
Muffin-tin inner radius fraction :   0.1000000000E-01
 
Species :    1 (Os)
 parameters loaded from : Os.in
 name : osmium
 nuclear charge    :   -76.00000000    
 electronic charge :    76.00000000    
 atomic mass :    346768.0765    
 muffin-tin radius :    2.370000000    
 number of radial points in muffin-tin :   1400
 number on inner part of muffin-tin    :   1017
 atomic positions (lattice), magnetic fields (Cartesian) :
   1 :   0.33333333  0.16666667  0.25000000    0.00000000  0.00000000  0.00000000
   2 :  -0.33333333 -0.16666667 -0.25000000    0.00000000  0.00000000  0.00000000
 
Total number of atoms per unit cell :    2
 
Spin treatment :
 spin-unpolarised
 
Number of Bravais lattice symmetries :   24
Number of crystal symmetries         :   24
Crystal has inversion symmetry
Real symmetric eigensolver will be used
 
k-point grid :     17    17    17
k-point offset :    0.000000000       0.000000000       0.000000000    
k-point set is reduced with full crystal symmetry group
Total number of k-points :      297
 
Muffin-tin radius times maximum |G+k| :    8.500000000    
 using gkmax = rgkmax / 2
Maximum |G+k| for APW functions       :    4.250000000    
Maximum (1/2)|G+k|²                   :    9.031250000    
Maximum |G| for potential and density :    34.00000000    
Constant for pseudocharge density :   20
Radial integration step length :    1
 
G-vector grid sizes :     60    60    90
Number of G-vectors :   123089
 
Maximum angular momentum used for
 APW functions                      :   10
 outer part of muffin-tin           :    8
 inner part of muffin-tin           :    1
 
Total nuclear charge    :   -152.0000000    
Total core charge       :    92.00000000    
Total valence charge    :    60.00000000    
Total excess charge     :    0.000000000    
Total electronic charge :    152.0000000    
 
Effective Wigner radius, rₛ :   0.6627944248    
 
Number of empty states         :   40
Total number of valence states :   71
Total number of core states    :   92
 
Conduction state local-orbitals added automatically
Total number of local-orbitals :  292
 
Using Libxc version 05.01.05
Exchange-correlation functional :    100   493   494
 exchange: mgga_x_rscan; correlation: mgga_c_rscan
 
Smearing type :    1
 Methfessel-Paxton order 1, Phys. Rev. B 40, 3616 (1989)
Smearing width :   0.1000000000E-02
Effective electronic temperature (K) :    315.7750248    
 
Mixing type :    3
 Broyden mixing, J. Phys. A: Math. Gen. 17, L317 (1984)
 
Potential read in from STATE.OUT
 
+------------------------------+
| Self-consistent loop started |
+------------------------------+
 
+--------------------+
| Loop number :    1 |
+--------------------+
 
Energies :
 Fermi                       :     0.724629510864    
 sum of eigenvalues          :     -21169.5225876    
 electron kinetic            :      39271.8043741    
 core electron kinetic       :      37772.7501662    
 Coulomb                     :     -73152.6216947    
 Coulomb potential           :     -59521.9524727    
 nuclear-nuclear             :     -2916.96536807    
 electron-nuclear            :     -80949.3601806    
 Hartree                     :      10713.7038539    
 Madelung                    :     -43391.6454583    
 xc potential                :     -919.374489016    
 exchange                    :     -684.911255933    
 correlation                 :     -9.40299891096    
 total energy                :     -34575.1315754    
 
Density of states at Fermi energy :    55.83515072    
 (states/Hartree/unit cell)
 
Estimated indirect band gap :   0.9568040565E-04
 from k-point    161 to k-point     87
Estimated direct band gap   :   0.5045432461E-02
 at k-point    145
 
Charges :
 core                        :    92.00000000    
 valence                     :    60.00000000    
 interstitial                :    4.054226947    
 muffin-tins (core leakage)
  species :    1 (Os)
   atom    1                 :    73.97288653     (  0.9451003677E-06)
   atom    2                 :    73.97288653     (  0.9451003677E-06)
 total in muffin-tins        :    147.9457731    
 total calculated charge     :    151.9995439    
 total charge                :    152.0000000    
 error                       :   0.4561014867E-03
 
Time (CPU seconds) :        92.98
 
+--------------------+
| Loop number :    2 |
+--------------------+
 
Energies :
 Fermi                       :     0.724620372041    
 sum of eigenvalues          :     -21169.5260566    
 electron kinetic            :      39271.7975922    
 core electron kinetic       :      37772.7657268    
 Coulomb                     :     -73152.6237125    
 Coulomb potential           :     -59521.9490251    
 nuclear-nuclear             :     -2916.96536807    
 electron-nuclear            :     -80949.3676638    
 Hartree                     :      10713.7093193    
 Madelung                    :     -43391.6492000    
 xc potential                :     -919.374623682    
 exchange                    :     -684.911358989    
 correlation                 :     -9.40299846312    
 total energy                :     -34575.1404777    
 
Density of states at Fermi energy :    55.74774558    
 (states/Hartree/unit cell)
 
Estimated indirect band gap :   0.1173858926E-03
 from k-point    161 to k-point     87
Estimated direct band gap   :   0.5035076917E-02
 at k-point    145
 
Charges :
 core                        :    92.00000000    
 valence                     :    60.00000000    
 interstitial                :    4.054164264    
 muffin-tins (core leakage)
  species :    1 (Os)
   atom    1                 :    73.97291787     (  0.9449650662E-06)
   atom    2                 :    73.97291787     (  0.9449650662E-06)
 total in muffin-tins        :    147.9458357    
 total calculated charge     :    151.9995439    
 total charge                :    152.0000000    
 error                       :   0.4560757707E-03
 
Wrote STATE.OUT
 
RMS change in Kohn-Sham potential (target) :   0.3557975261E-01 (   10.00000000    )
Absolute change in total energy (target)   :   0.8902297421E-02 (  0.1000000000E-07)
 
Time (CPU seconds) :       181.88
 
+--------------------+
| Loop number :    3 |
+--------------------+
 
Energies :
 Fermi                       :     0.724550527368    
 sum of eigenvalues          :     -21169.5555313    
 electron kinetic            :      39271.7059293    
 core electron kinetic       :      37772.7570377    
 Coulomb                     :     -73152.6283366    
 Coulomb potential           :     -59521.8860580    
 nuclear-nuclear             :     -2916.96536807    
 electron-nuclear            :     -80949.4398791    
 Hartree                     :      10713.7769106    
 Madelung                    :     -43391.6853076    
 xc potential                :     -919.375402627    
 exchange                    :     -684.911960974    
 correlation                 :     -9.40298871520    
 total energy                :     -34575.2373571    
 
Density of states at Fermi energy :    51.80433470    
 (states/Hartree/unit cell)
 
Estimated indirect band gap :   0.2887257701E-03
 from k-point    208 to k-point    151
Estimated direct band gap   :   0.4778252927E-02
 at k-point    208
 
Charges :
 core                        :    92.00000000    
 valence                     :    60.00000000    
 interstitial                :    4.053259457    
 muffin-tins (core leakage)
  species :    1 (Os)
   atom    1                 :    73.97337027     (  0.9447808154E-06)
   atom    2                 :    73.97337027     (  0.9447808154E-06)
 total in muffin-tins        :    147.9467405    
 total calculated charge     :    151.9995445    
 total charge                :    152.0000000    
 error                       :   0.4555109962E-03
 
RMS change in Kohn-Sham potential (target) :   0.2841295345E-01 (   10.00000000    )
Absolute change in total energy (target)   :   0.9910488271E-01 (  0.1000000000E-07)
 
Time (CPU seconds) :       276.12
 
+--------------------+
| Loop number :    4 |
+--------------------+
 
Energies :
 Fermi                       :     0.724595942493    
 sum of eigenvalues          :     -21169.5739016    
 electron kinetic            :      39271.6246853    
 core electron kinetic       :      37772.7490841    
 Coulomb                     :     -73152.6461595    
 Coulomb potential           :     -59521.8219272    
 nuclear-nuclear             :     -2916.96536807    
 electron-nuclear            :     -80949.5396557    
 Hartree                     :      10713.8588643    
 Madelung                    :     -43391.7351959    
 xc potential                :     -919.376659731    
 exchange                    :     -684.912929487    
 correlation                 :     -9.40297920690    
 total energy                :     -34575.3373829    
 
Density of states at Fermi energy :    45.66037002    
 (states/Hartree/unit cell)
 
Estimated indirect band gap :   0.5155003936E-03
 from k-point    153 to k-point    151
Estimated direct band gap   :   0.4737708962E-02
 at k-point    208
 
Charges :
 core                        :    92.00000000    
 valence                     :    60.00000000    
 interstitial                :    4.052451848    
 muffin-tins (core leakage)
  species :    1 (Os)
   atom    1                 :    73.97377408     (  0.9449275211E-06)
   atom    2                 :    73.97377408     (  0.9449275211E-06)
 total in muffin-tins        :    147.9475482    
 total calculated charge     :    151.9995451    
 total charge                :    152.0000000    
 error                       :   0.4548934183E-03
 
Wrote STATE.OUT
 
RMS change in Kohn-Sham potential (target) :   0.2060840035E-01 (   10.00000000    )
Absolute change in total energy (target)   :   0.1248020611     (  0.1000000000E-07)
 
Time (CPU seconds) :       366.12
 
+--------------------+
| Loop number :    5 |
+--------------------+
 
Energies :
 Fermi                       :     0.724766133511    
 sum of eigenvalues          :     -21169.5738651    
 electron kinetic            :      39271.5568482    
 core electron kinetic       :      37772.7472352    
 Coulomb                     :     -73152.6649381    
 Coulomb potential           :     -59521.7527357    
 nuclear-nuclear             :     -2916.96536807    
 electron-nuclear            :     -80949.6464044    
 Hartree                     :      10713.9468343    
 Madelung                    :     -43391.7885703    
 xc potential                :     -919.377977639    
 exchange                    :     -684.913949868    
 correlation                 :     -9.40296690160    
 total energy                :     -34575.4250067    
 
Density of states at Fermi energy :    38.76149338    
 (states/Hartree/unit cell)
 
Estimated indirect band gap :   0.5445415881E-03
 from k-point    145 to k-point    170
Estimated direct band gap   :   0.4700140036E-02
 at k-point    208
 
Charges :
 core                        :    92.00000000    
 valence                     :    60.00000000    
 interstitial                :    4.051643722    
 muffin-tins (core leakage)
  species :    1 (Os)
   atom    1                 :    73.97417814     (  0.9454080967E-06)
   atom    2                 :    73.97417814     (  0.9454080967E-06)
 total in muffin-tins        :    147.9483563    
 total calculated charge     :    151.9995458    
 total charge                :    152.0000000    
 error                       :   0.4542179412E-03
 
RMS change in Kohn-Sham potential (target) :   0.1187922855E-01 (   10.00000000    )
Absolute change in total energy (target)   :   0.1188242762     (  0.1000000000E-07)
 
Time (CPU seconds) :       457.52
 
+--------------------+
| Loop number :    6 |
+--------------------+
 
Energies :
 Fermi                       :     0.724956661868    
 sum of eigenvalues          :     -21169.5668141    
 electron kinetic            :      39271.5047746    
 core electron kinetic       :      37772.7491050    
 Coulomb                     :     -73152.6780316    
 Coulomb potential           :     -59521.6925588    
 nuclear-nuclear             :     -2916.96536807    
 electron-nuclear            :     -80949.7327683    
 Hartree                     :      10714.0201048    
 Madelung                    :     -43391.8317522    
 xc potential                :     -919.379029868    
 exchange                    :     -684.914770499    
 correlation                 :     -9.40295342717    
 total energy                :     -34575.4909810    
 
Density of states at Fermi energy :    33.75712641    
 (states/Hartree/unit cell)
 
Estimated indirect band gap :   0.4132428503E-03
 from k-point    170 to k-point    120
Estimated direct band gap   :   0.4657377522E-02
 at k-point    145
 
Charges :
 core                        :    92.00000000    
 valence                     :    60.00000000    
 interstitial                :    4.050927746    
 muffin-tins (core leakage)
  species :    1 (Os)
   atom    1                 :    73.97453613     (  0.9449997123E-06)
   atom    2                 :    73.97453613     (  0.9449997123E-06)
 total in muffin-tins        :    147.9490723    
 total calculated charge     :    151.9995464    
 total charge                :    152.0000000    
 error                       :   0.4536447439E-03
 
Wrote STATE.OUT
 
RMS change in Kohn-Sham potential (target) :   0.4434561011E-02 (   10.00000000    )
Absolute change in total energy (target)   :   0.9568041371E-01 (  0.1000000000E-07)
 
Time (CPU seconds) :       544.66
 
+--------------------+
| Loop number :    7 |
+--------------------+
 
Energies :
 Fermi                       :     0.725081353574    
 sum of eigenvalues          :     -21169.5626989    
 electron kinetic            :      39271.4728923    
 core electron kinetic       :      37772.7487349    
 Coulomb                     :     -73152.6854562    
 Coulomb potential           :     -59521.6559248    
 nuclear-nuclear             :     -2916.96536807    
 electron-nuclear            :     -80949.7842514    
 Hartree                     :      10714.0641633    
 Madelung                    :     -43391.8574938    
 xc potential                :     -919.379666332    
 exchange                    :     -684.915269055    
 correlation                 :     -9.40294396733    
 total energy                :     -34575.5307769    
 
Density of states at Fermi energy :    31.41382733    
 (states/Hartree/unit cell)
 
Estimated indirect band gap :   0.5777581910E-03
 from k-point    170 to k-point    120
Estimated direct band gap   :   0.4601589667E-02
 at k-point    145
 
Charges :
 core                        :    92.00000000    
 valence                     :    60.00000000    
 interstitial                :    4.050477819    
 muffin-tins (core leakage)
  species :    1 (Os)
   atom    1                 :    73.97476109     (  0.9448960441E-06)
   atom    2                 :    73.97476109     (  0.9448960441E-06)
 total in muffin-tins        :    147.9495222    
 total calculated charge     :    151.9995467    
 total charge                :    152.0000000    
 error                       :   0.4533124299E-03
 
RMS change in Kohn-Sham potential (target) :   0.2076185460E-03 (   10.00000000    )
Absolute change in total energy (target)   :   0.6371604896E-01 (  0.1000000000E-07)
 
Time (CPU seconds) :       633.37
 
+--------------------+
| Loop number :    8 |
+--------------------+
 
Energies :
 Fermi                       :     0.725106675048    
 sum of eigenvalues          :     -21169.5591586    
 electron kinetic            :      39271.4763999    
 core electron kinetic       :      37772.7501951    
 Coulomb                     :     -73152.6854414    
 Coulomb potential           :     -59521.6558748    
 nuclear-nuclear             :     -2916.96536807    
 electron-nuclear            :     -80949.7842719    
 Hartree                     :      10714.0641985    
 Madelung                    :     -43391.8575040    
 xc potential                :     -919.379683722    
 exchange                    :     -684.915282446    
 correlation                 :     -9.40294367645    
 total energy                :     -34575.5272677    
 
Density of states at Fermi energy :    31.39510687    
 (states/Hartree/unit cell)
 
Estimated indirect band gap :   0.5807651472E-03
 from k-point    170 to k-point    120
Estimated direct band gap   :   0.4596420081E-02
 at k-point    145
 
Charges :
 core                        :    92.00000000    
 valence                     :    60.00000000    
 interstitial                :    4.050459609    
 muffin-tins (core leakage)
  species :    1 (Os)
   atom    1                 :    73.97477020     (  0.9448699529E-06)
   atom    2                 :    73.97477020     (  0.9448699529E-06)
 total in muffin-tins        :    147.9495404    
 total calculated charge     :    151.9995467    
 total charge                :    152.0000000    
 error                       :   0.4533115299E-03
 
Wrote STATE.OUT
 
RMS change in Kohn-Sham potential (target) :   0.5661968768E-04 (   10.00000000    )
Absolute change in total energy (target)   :   0.1241972640E-01 (  0.1000000000E-07)
 
Time (CPU seconds) :       723.30
 
+--------------------+
| Loop number :    9 |
+--------------------+
 
Energies :
 Fermi                       :     0.725111726536    
 sum of eigenvalues          :     -21169.5584210    
 electron kinetic            :      39271.4773554    
 core electron kinetic       :      37772.7505490    
 Coulomb                     :     -73152.6851967    
 Coulomb potential           :     -59521.6561010    
 nuclear-nuclear             :     -2916.96536807    
 electron-nuclear            :     -80949.7835563    
 Hartree                     :      10714.0637276    
 Madelung                    :     -43391.8571462    
 xc potential                :     -919.379675446    
 exchange                    :     -684.915276168    
 correlation                 :     -9.40294358389    
 total energy                :     -34575.5260610    
 
Density of states at Fermi energy :    31.37091997    
 (states/Hartree/unit cell)
 
Estimated indirect band gap :   0.5835280661E-03
 from k-point    170 to k-point    120
Estimated direct band gap   :   0.4593368152E-02
 at k-point    145
 
Charges :
 core                        :    92.00000000    
 valence                     :    60.00000000    
 interstitial                :    4.050455115    
 muffin-tins (core leakage)
  species :    1 (Os)
   atom    1                 :    73.97477244     (  0.9449021974E-06)
   atom    2                 :    73.97477244     (  0.9449021974E-06)
 total in muffin-tins        :    147.9495449    
 total calculated charge     :    151.9995467    
 total charge                :    152.0000000    
 error                       :   0.4533120509E-03
 
RMS change in Kohn-Sham potential (target) :   0.5168095273E-04 (   10.00000000    )
Absolute change in total energy (target)   :   0.1898293784E-02 (  0.1000000000E-07)
 
Time (CPU seconds) :       815.19
 
+--------------------+
| Loop number :   10 |
+--------------------+
 
Energies :
 Fermi                       :     0.725111792176    
 sum of eigenvalues          :     -21169.5584078    
 electron kinetic            :      39271.4773651    
 core electron kinetic       :      37772.7505557    
 Coulomb                     :     -73152.6851949    
 Coulomb potential           :     -59521.6560973    
 nuclear-nuclear             :     -2916.96536807    
 electron-nuclear            :     -80949.7835563    
 Hartree                     :      10714.0637295    
 Madelung                    :     -43391.8571462    
 xc potential                :     -919.379675664    
 exchange                    :     -684.915276324    
 correlation                 :     -9.40294358659    
 total energy                :     -34575.5260496    
 
Density of states at Fermi energy :    31.37223649    
 (states/Hartree/unit cell)
 
Estimated indirect band gap :   0.5834068529E-03
 from k-point    170 to k-point    120
Estimated direct band gap   :   0.4593440737E-02
 at k-point    145
 
Charges :
 core                        :    92.00000000    
 valence                     :    60.00000000    
 interstitial                :    4.050455173    
 muffin-tins (core leakage)
  species :    1 (Os)
   atom    1                 :    73.97477241     (  0.9448562110E-06)
   atom    2                 :    73.97477241     (  0.9448562110E-06)
 total in muffin-tins        :    147.9495448    
 total calculated charge     :    151.9995467    
 total charge                :    152.0000000    
 error                       :   0.4533120172E-03
 
Wrote STATE.OUT
 
RMS change in Kohn-Sham potential (target) :   0.4936107454E-04 (   10.00000000    )
Absolute change in total energy (target)   :   0.4631846969E-03 (  0.1000000000E-07)
 
Time (CPU seconds) :       906.27
 
+--------------------+
| Loop number :   11 |
+--------------------+
 
Energies :
 Fermi                       :     0.725111814013    
 sum of eigenvalues          :     -21169.5584077    
 electron kinetic            :      39271.4773676    
 core electron kinetic       :      37772.7506177    
 Coulomb                     :     -73152.6851960    
 Coulomb potential           :     -59521.6560996    
 nuclear-nuclear             :     -2916.96536807    
 electron-nuclear            :     -80949.7835563    
 Hartree                     :      10714.0637283    
 Madelung                    :     -43391.8571462    
 xc potential                :     -919.379675650    
 exchange                    :     -684.915276314    
 correlation                 :     -9.40294358619    
 total energy                :     -34575.5260483    
 
Density of states at Fermi energy :    31.37162448    
 (states/Hartree/unit cell)
 
Estimated indirect band gap :   0.5834640286E-03
 from k-point    170 to k-point    120
Estimated direct band gap   :   0.4593404617E-02
 at k-point    145
 
Charges :
 core                        :    92.00000000    
 valence                     :    60.00000000    
 interstitial                :    4.050455137    
 muffin-tins (core leakage)
  species :    1 (Os)
   atom    1                 :    73.97477243     (  0.9447942872E-06)
   atom    2                 :    73.97477243     (  0.9447942872E-06)
 total in muffin-tins        :    147.9495449    
 total calculated charge     :    151.9995467    
 total charge                :    152.0000000    
 error                       :   0.4533118612E-03
 
RMS change in Kohn-Sham potential (target) :   0.3193422288E-04 (   10.00000000    )
Absolute change in total energy (target)   :   0.1145037822E-03 (  0.1000000000E-07)
 
Time (CPU seconds) :       996.54
 
+--------------------+
| Loop number :   12 |
+--------------------+
 
Energies :
 Fermi                       :     0.725111892354    
 sum of eigenvalues          :     -21169.5585074    
 electron kinetic            :      39271.4773124    
 core electron kinetic       :      37772.7505630    
 Coulomb                     :     -73152.6851977    
 Coulomb potential           :     -59521.6561439    
 nuclear-nuclear             :     -2916.96536807    
 electron-nuclear            :     -80949.7835154    
 Hartree                     :      10714.0636857    
 Madelung                    :     -43391.8571258    
 xc potential                :     -919.379675839    
 exchange                    :     -684.915276437    
 correlation                 :     -9.40294355465    
 total energy                :     -34575.5261054    
 
Density of states at Fermi energy :    31.34998718    
 (states/Hartree/unit cell)
 
Estimated indirect band gap :   0.5854719002E-03
 from k-point    170 to k-point    120
Estimated direct band gap   :   0.4592175227E-02
 at k-point    145
 
Charges :
 core                        :    92.00000000    
 valence                     :    60.00000000    
 interstitial                :    4.050453124    
 muffin-tins (core leakage)
  species :    1 (Os)
   atom    1                 :    73.97477344     (  0.9448421991E-06)
   atom    2                 :    73.97477344     (  0.9448421991E-06)
 total in muffin-tins        :    147.9495469    
 total calculated charge     :    151.9995467    
 total charge                :    152.0000000    
 error                       :   0.4533115102E-03
 
Wrote STATE.OUT
 
RMS change in Kohn-Sham potential (target) :   0.7421828697E-04 (   10.00000000    )
Absolute change in total energy (target)   :   0.8563932352E-04 (  0.1000000000E-07)
 
Time (CPU seconds) :      1085.62
 
+--------------------+
| Loop number :   13 |
+--------------------+
 
Energies :
 Fermi                       :     0.725112068163    
 sum of eigenvalues          :     -21169.5584731    
 electron kinetic            :      39271.4773528    
 core electron kinetic       :      37772.7505845    
 Coulomb                     :     -73152.6852111    
 Coulomb potential           :     -59521.6561502    
 nuclear-nuclear             :     -2916.96536807    
 electron-nuclear            :     -80949.7835358    
 Hartree                     :      10714.0636928    
 Madelung                    :     -43391.8571360    
 xc potential                :     -919.379675713    
 exchange                    :     -684.915276326    
 correlation                 :     -9.40294355878    
 total energy                :     -34575.5260781    
 
Density of states at Fermi energy :    31.35020833    
 (states/Hartree/unit cell)
 
Estimated indirect band gap :   0.5854073204E-03
 from k-point    170 to k-point    120
Estimated direct band gap   :   0.4592342141E-02
 at k-point    145
 
Charges :
 core                        :    92.00000000    
 valence                     :    60.00000000    
 interstitial                :    4.050453303    
 muffin-tins (core leakage)
  species :    1 (Os)
   atom    1                 :    73.97477335     (  0.9447473630E-06)
   atom    2                 :    73.97477335     (  0.9447473630E-06)
 total in muffin-tins        :    147.9495467    
 total calculated charge     :    151.9995467    
 total charge                :    152.0000000    
 error                       :   0.4533114450E-03
 
RMS change in Kohn-Sham potential (target) :   0.1088870134E-03 (   10.00000000    )
Absolute change in total energy (target)   :   0.5813271855E-05 (  0.1000000000E-07)
 
Time (CPU seconds) :      1174.94
 
+--------------------+
| Loop number :   14 |
+--------------------+
 
Energies :
 Fermi                       :     0.725112121976    
 sum of eigenvalues          :     -21169.5584681    
 electron kinetic            :      39271.4773581    
 core electron kinetic       :      37772.7505767    
 Coulomb                     :     -73152.6852010    
 Coulomb potential           :     -59521.6561506    
 nuclear-nuclear             :     -2916.96536807    
 electron-nuclear            :     -80949.7835154    
 Hartree                     :      10714.0636824    
 Madelung                    :     -43391.8571258    
 xc potential                :     -919.379675639    
 exchange                    :     -684.915276304    
 correlation                 :     -9.40294355344    
 total energy                :     -34575.5260628    
 
Density of states at Fermi energy :    31.34944549    
 (states/Hartree/unit cell)
 
Estimated indirect band gap :   0.5854806682E-03
 from k-point    170 to k-point    120
Estimated direct band gap   :   0.4592289432E-02
 at k-point    145
 
Charges :
 core                        :    92.00000000    
 valence                     :    60.00000000    
 interstitial                :    4.050453220    
 muffin-tins (core leakage)
  species :    1 (Os)
   atom    1                 :    73.97477339     (  0.9447935057E-06)
   atom    2                 :    73.97477339     (  0.9447935057E-06)
 total in muffin-tins        :    147.9495468    
 total calculated charge     :    151.9995467    
 total charge                :    152.0000000    
 error                       :   0.4533114824E-03
 
Wrote STATE.OUT
 
RMS change in Kohn-Sham potential (target) :   0.2849152597E-04 (   10.00000000    )
Absolute change in total energy (target)   :   0.1678780973E-04 (  0.1000000000E-07)
 
Time (CPU seconds) :      1264.80
 
+--------------------+
| Loop number :   15 |
+--------------------+
 
Energies :
 Fermi                       :     0.725112265122    
 sum of eigenvalues          :     -21169.5584499    
 electron kinetic            :      39271.4773840    
 core electron kinetic       :      37772.7505925    
 Coulomb                     :     -73152.6852049    
 Coulomb potential           :     -59521.6561583    
 nuclear-nuclear             :     -2916.96536807    
 electron-nuclear            :     -80949.7835154    
 Hartree                     :      10714.0636785    
 Madelung                    :     -43391.8571258    
 xc potential                :     -919.379675673    
 exchange                    :     -684.915276316    
 correlation                 :     -9.40294355382    
 total energy                :     -34575.5260407    
 
Density of states at Fermi energy :    31.34811338    
 (states/Hartree/unit cell)
 
Estimated indirect band gap :   0.5855791378E-03
 from k-point    170 to k-point    120
Estimated direct band gap   :   0.4592302907E-02
 at k-point    145
 
Charges :
 core                        :    92.00000000    
 valence                     :    60.00000000    
 interstitial                :    4.050453147    
 muffin-tins (core leakage)
  species :    1 (Os)
   atom    1                 :    73.97477343     (  0.9449212826E-06)
   atom    2                 :    73.97477343     (  0.9449212826E-06)
 total in muffin-tins        :    147.9495469    
 total calculated charge     :    151.9995467    
 total charge                :    152.0000000    
 error                       :   0.4533118276E-03
 
RMS change in Kohn-Sham potential (target) :   0.1210669331E-04 (   10.00000000    )
Absolute change in total energy (target)   :   0.2625404159E-04 (  0.1000000000E-07)
 
Time (CPU seconds) :      1354.28
 
+--------------------+
| Loop number :   16 |
+--------------------+
 
Energies :
 Fermi                       :     0.725112230246    
 sum of eigenvalues          :     -21169.5584512    
 electron kinetic            :      39271.4773813    
 core electron kinetic       :      37772.7505870    
 Coulomb                     :     -73152.6852042    
 Coulomb potential           :     -59521.6561569    
 nuclear-nuclear             :     -2916.96536807    
 electron-nuclear            :     -80949.7835154    
 Hartree                     :      10714.0636792    
 Madelung                    :     -43391.8571258    
 xc potential                :     -919.379675608    
 exchange                    :     -684.915276276    
 correlation                 :     -9.40294355287    
 total energy                :     -34575.5260427    
 
Density of states at Fermi energy :    31.34851871    
 (states/Hartree/unit cell)
 
Estimated indirect band gap :   0.5855347970E-03
 from k-point    170 to k-point    120
Estimated direct band gap   :   0.4592348304E-02
 at k-point    145
 
Charges :
 core                        :    92.00000000    
 valence                     :    60.00000000    
 interstitial                :    4.050453199    
 muffin-tins (core leakage)
  species :    1 (Os)
   atom    1                 :    73.97477340     (  0.9448890594E-06)
   atom    2                 :    73.97477340     (  0.9448890594E-06)
 total in muffin-tins        :    147.9495468    
 total calculated charge     :    151.9995467    
 total charge                :    152.0000000    
 error                       :   0.4533118171E-03
 
Wrote STATE.OUT
 
RMS change in Kohn-Sham potential (target) :   0.3986205442E-04 (   10.00000000    )
Absolute change in total energy (target)   :   0.4557165084E-05 (  0.1000000000E-07)
 
Time (CPU seconds) :      1442.58
 
+--------------------+
| Loop number :   17 |
+--------------------+
 
Energies :
 Fermi                       :     0.725112263447    
 sum of eigenvalues          :     -21169.5584451    
 electron kinetic            :      39271.4773885    
 core electron kinetic       :      37772.7505921    
 Coulomb                     :     -73152.6852048    
 Coulomb potential           :     -59521.6561580    
 nuclear-nuclear             :     -2916.96536807    
 electron-nuclear            :     -80949.7835154    
 Hartree                     :      10714.0636787    
 Madelung                    :     -43391.8571258    
 xc potential                :     -919.379675632    
 exchange                    :     -684.915276292    
 correlation                 :     -9.40294355357    
 total energy                :     -34575.5260361    
 
Density of states at Fermi energy :    31.34850696    
 (states/Hartree/unit cell)
 
Estimated indirect band gap :   0.5855274375E-03
 from k-point    170 to k-point    120
Estimated direct band gap   :   0.4592376605E-02
 at k-point    145
 
Charges :
 core                        :    92.00000000    
 valence                     :    60.00000000    
 interstitial                :    4.050453209    
 muffin-tins (core leakage)
  species :    1 (Os)
   atom    1                 :    73.97477340     (  0.9447661569E-06)
   atom    2                 :    73.97477340     (  0.9447661569E-06)
 total in muffin-tins        :    147.9495468    
 total calculated charge     :    151.9995467    
 total charge                :    152.0000000    
 error                       :   0.4533115937E-03
 
RMS change in Kohn-Sham potential (target) :   0.3165088014E-04 (   10.00000000    )
Absolute change in total energy (target)   :   0.7825445209E-05 (  0.1000000000E-07)
 
Time (CPU seconds) :      1533.47
 
+--------------------+
| Loop number :   18 |
+--------------------+
 
Energies :
 Fermi                       :     0.725112263649    
 sum of eigenvalues          :     -21169.5584456    
 electron kinetic            :      39271.4773885    
 core electron kinetic       :      37772.7505885    
 Coulomb                     :     -73152.6852050    
 Coulomb potential           :     -59521.6561584    
 nuclear-nuclear             :     -2916.96536807    
 electron-nuclear            :     -80949.7835154    
 Hartree                     :      10714.0636785    
 Madelung                    :     -43391.8571258    
 xc potential                :     -919.379675627    
 exchange                    :     -684.915276295    
 correlation                 :     -9.40294355299    
 total energy                :     -34575.5260363    
 
Density of states at Fermi energy :    31.34832400    
 (states/Hartree/unit cell)
 
Estimated indirect band gap :   0.5855420863E-03
 from k-point    170 to k-point    120
Estimated direct band gap   :   0.4592374053E-02
 at k-point    145
 
Charges :
 core                        :    92.00000000    
 valence                     :    60.00000000    
 interstitial                :    4.050453197    
 muffin-tins (core leakage)
  species :    1 (Os)
   atom    1                 :    73.97477340     (  0.9448319673E-06)
   atom    2                 :    73.97477340     (  0.9448319673E-06)
 total in muffin-tins        :    147.9495468    
 total calculated charge     :    151.9995467    
 total charge                :    152.0000000    
 error                       :   0.4533117269E-03
 
Wrote STATE.OUT
 
RMS change in Kohn-Sham potential (target) :   0.2845779633E-04 (   10.00000000    )
Absolute change in total energy (target)   :   0.1680542482E-05 (  0.1000000000E-07)
 
Time (CPU seconds) :      1621.14
 
+--------------------+
| Loop number :   19 |
+--------------------+
 
Energies :
 Fermi                       :     0.725112301539    
 sum of eigenvalues          :     -21169.5584393    
 electron kinetic            :      39271.4773945    
 core electron kinetic       :      37772.7505921    
 Coulomb                     :     -73152.6852049    
 Coulomb potential           :     -59521.6561582    
 nuclear-nuclear             :     -2916.96536807    
 electron-nuclear            :     -80949.7835154    
 Hartree                     :      10714.0636786    
 Madelung                    :     -43391.8571258    
 xc potential                :     -919.379675639    
 exchange                    :     -684.915276310    
 correlation                 :     -9.40294355078    
 total energy                :     -34575.5260302    
 
Density of states at Fermi energy :    31.34826551    
 (states/Hartree/unit cell)
 
Estimated indirect band gap :   0.5855405139E-03
 from k-point    170 to k-point    120
Estimated direct band gap   :   0.4592394897E-02
 at k-point    145
 
Charges :
 core                        :    92.00000000    
 valence                     :    60.00000000    
 interstitial                :    4.050453201    
 muffin-tins (core leakage)
  species :    1 (Os)
   atom    1                 :    73.97477340     (  0.9448763691E-06)
   atom    2                 :    73.97477340     (  0.9448763691E-06)
 total in muffin-tins        :    147.9495468    
 total calculated charge     :    151.9995467    
 total charge                :    152.0000000    
 error                       :   0.4533118214E-03
 
RMS change in Kohn-Sham potential (target) :   0.6465324463E-05 (   10.00000000    )
Absolute change in total energy (target)   :   0.6581460184E-05 (  0.1000000000E-07)
 
Time (CPU seconds) :      1708.95
 
+--------------------+
| Loop number :   20 |
+--------------------+
 
Energies :
 Fermi                       :     0.725112301753    
 sum of eigenvalues          :     -21169.5584389    
 electron kinetic            :      39271.4773949    
 core electron kinetic       :      37772.7505915    
 Coulomb                     :     -73152.6852048    
 Coulomb potential           :     -59521.6561581    
 nuclear-nuclear             :     -2916.96536807    
 electron-nuclear            :     -80949.7835154    
 Hartree                     :      10714.0636786    
 Madelung                    :     -43391.8571258    
 xc potential                :     -919.379675646    
 exchange                    :     -684.915276302    
 correlation                 :     -9.40294355378    
 total energy                :     -34575.5260298    
 
Density of states at Fermi energy :    31.34835970    
 (states/Hartree/unit cell)
 
Estimated indirect band gap :   0.5855323439E-03
 from k-point    170 to k-point    120
Estimated direct band gap   :   0.4592398162E-02
 at k-point    145
 
Charges :
 core                        :    92.00000000    
 valence                     :    60.00000000    
 interstitial                :    4.050453209    
 muffin-tins (core leakage)
  species :    1 (Os)
   atom    1                 :    73.97477340     (  0.9446535429E-06)
   atom    2                 :    73.97477340     (  0.9446535429E-06)
 total in muffin-tins        :    147.9495468    
 total calculated charge     :    151.9995467    
 total charge                :    152.0000000    
 error                       :   0.4533113712E-03
 
Wrote STATE.OUT
 
RMS change in Kohn-Sham potential (target) :   0.1121187371E-04 (   10.00000000    )
Absolute change in total energy (target)   :   0.2015287464E-05 (  0.1000000000E-07)
 
Time (CPU seconds) :      1797.51
 
+--------------------+
| Loop number :   21 |
+--------------------+
 
Energies :
 Fermi                       :     0.725112310555    
 sum of eigenvalues          :     -21169.5584370    
 electron kinetic            :      39271.4773969    
 core electron kinetic       :      37772.7505915    
 Coulomb                     :     -73152.6852049    
 Coulomb potential           :     -59521.6561583    
 nuclear-nuclear             :     -2916.96536807    
 electron-nuclear            :     -80949.7835154    
 Hartree                     :      10714.0636785    
 Madelung                    :     -43391.8571258    
 xc potential                :     -919.379675652    
 exchange                    :     -684.915276302    
 correlation                 :     -9.40294355408    
 total energy                :     -34575.5260278    
 
Density of states at Fermi energy :    31.34835993    
 (states/Hartree/unit cell)
 
Estimated indirect band gap :   0.5855295811E-03
 from k-point    170 to k-point    120
Estimated direct band gap   :   0.4592407198E-02
 at k-point    145
 
Charges :
 core                        :    92.00000000    
 valence                     :    60.00000000    
 interstitial                :    4.050453208    
 muffin-tins (core leakage)
  species :    1 (Os)
   atom    1                 :    73.97477340     (  0.9448868070E-06)
   atom    2                 :    73.97477340     (  0.9448868070E-06)
 total in muffin-tins        :    147.9495468    
 total calculated charge     :    151.9995467    
 total charge                :    152.0000000    
 error                       :   0.4533118725E-03
 
RMS change in Kohn-Sham potential (target) :   0.3126409663E-04 (   10.00000000    )
Absolute change in total energy (target)   :   0.2476132067E-05 (  0.1000000000E-07)
 
Time (CPU seconds) :      1890.31
 
+--------------------+
| Loop number :   22 |
+--------------------+
 
Energies :
 Fermi                       :     0.725112326364    
 sum of eigenvalues          :     -21169.5584341    
 electron kinetic            :      39271.4773994    
 core electron kinetic       :      37772.7505935    
 Coulomb                     :     -73152.6852047    
 Coulomb potential           :     -59521.6561578    
 nuclear-nuclear             :     -2916.96536807    
 electron-nuclear            :     -80949.7835154    
 Hartree                     :      10714.0636788    
 Madelung                    :     -43391.8571258    
 xc potential                :     -919.379675647    
 exchange                    :     -684.915276310    
 correlation                 :     -9.40294355145    
 total energy                :     -34575.5260252    
 
Density of states at Fermi energy :    31.34835493    
 (states/Hartree/unit cell)
 
Estimated indirect band gap :   0.5855270365E-03
 from k-point    170 to k-point    120
Estimated direct band gap   :   0.4592416980E-02
 at k-point    145
 
Charges :
 core                        :    92.00000000    
 valence                     :    60.00000000    
 interstitial                :    4.050453208    
 muffin-tins (core leakage)
  species :    1 (Os)
   atom    1                 :    73.97477340     (  0.9452543637E-06)
   atom    2                 :    73.97477340     (  0.9452543637E-06)
 total in muffin-tins        :    147.9495468    
 total calculated charge     :    151.9995467    
 total charge                :    152.0000000    
 error                       :   0.4533125987E-03
 
Wrote STATE.OUT
 
RMS change in Kohn-Sham potential (target) :   0.7478017025E-05 (   10.00000000    )
Absolute change in total energy (target)   :   0.3292610927E-05 (  0.1000000000E-07)
 
Time (CPU seconds) :      1978.33
 
+--------------------+
| Loop number :   23 |
+--------------------+
 
Energies :
 Fermi                       :     0.725112320605    
 sum of eigenvalues          :     -21169.5584351    
 electron kinetic            :      39271.4773975    
 core electron kinetic       :      37772.7505927    
 Coulomb                     :     -73152.6852042    
 Coulomb potential           :     -59521.6561569    
 nuclear-nuclear             :     -2916.96536807    
 electron-nuclear            :     -80949.7835154    
 Hartree                     :      10714.0636792    
 Madelung                    :     -43391.8571258    
 xc potential                :     -919.379675651    
 exchange                    :     -684.915276305    
 correlation                 :     -9.40294355284    
 total energy                :     -34575.5260266    
 
Density of states at Fermi energy :    31.34837979    
 (states/Hartree/unit cell)
 
Estimated indirect band gap :   0.5855262113E-03
 from k-point    170 to k-point    120
Estimated direct band gap   :   0.4592413152E-02
 at k-point    145
 
Charges :
 core                        :    92.00000000    
 valence                     :    60.00000000    
 interstitial                :    4.050453207    
 muffin-tins (core leakage)
  species :    1 (Os)
   atom    1                 :    73.97477340     (  0.9449196057E-06)
   atom    2                 :    73.97477340     (  0.9449196057E-06)
 total in muffin-tins        :    147.9495468    
 total calculated charge     :    151.9995467    
 total charge                :    152.0000000    
 error                       :   0.4533119185E-03
 
RMS change in Kohn-Sham potential (target) :   0.7637206469E-05 (   10.00000000    )
Absolute change in total energy (target)   :   0.5897964002E-06 (  0.1000000000E-07)
 
Time (CPU seconds) :      2065.57
 
+--------------------+
| Loop number :   24 |
+--------------------+
 
Energies :
 Fermi                       :     0.725112317924    
 sum of eigenvalues          :     -21169.5584354    
 electron kinetic            :      39271.4773976    
 core electron kinetic       :      37772.7505934    
 Coulomb                     :     -73152.6852044    
 Coulomb potential           :     -59521.6561574    
 nuclear-nuclear             :     -2916.96536807    
 electron-nuclear            :     -80949.7835154    
 Hartree                     :      10714.0636790    
 Madelung                    :     -43391.8571258    
 xc potential                :     -919.379675651    
 exchange                    :     -684.915276318    
 correlation                 :     -9.40294355196    
 total energy                :     -34575.5260267    
 
Density of states at Fermi energy :    31.34840056    
 (states/Hartree/unit cell)
 
Estimated indirect band gap :   0.5855248945E-03
 from k-point    170 to k-point    120
Estimated direct band gap   :   0.4592412125E-02
 at k-point    145
 
Charges :
 core                        :    92.00000000    
 valence                     :    60.00000000    
 interstitial                :    4.050453207    
 muffin-tins (core leakage)
  species :    1 (Os)
   atom    1                 :    73.97477340     (  0.9448334310E-06)
   atom    2                 :    73.97477340     (  0.9448334310E-06)
 total in muffin-tins        :    147.9495468    
 total calculated charge     :    151.9995467    
 total charge                :    152.0000000    
 error                       :   0.4533117711E-03
 
Wrote STATE.OUT
 
RMS change in Kohn-Sham potential (target) :   0.5460579032E-05 (   10.00000000    )
Absolute change in total energy (target)   :   0.2530068741E-06 (  0.1000000000E-07)
 
Time (CPU seconds) :      2154.65
 
+--------------------+
| Loop number :   25 |
+--------------------+
 
Energies :
 Fermi                       :     0.725112314494    
 sum of eigenvalues          :     -21169.5584359    
 electron kinetic            :      39271.4773965    
 core electron kinetic       :      37772.7505925    
 Coulomb                     :     -73152.6852041    
 Coulomb potential           :     -59521.6561568    
 nuclear-nuclear             :     -2916.96536807    
 electron-nuclear            :     -80949.7835154    
 Hartree                     :      10714.0636793    
 Madelung                    :     -43391.8571258    
 xc potential                :     -919.379675637    
 exchange                    :     -684.915276297    
 correlation                 :     -9.40294355369    
 total energy                :     -34575.5260275    
 
Density of states at Fermi energy :    31.34842208    
 (states/Hartree/unit cell)
 
Estimated indirect band gap :   0.5855237936E-03
 from k-point    170 to k-point    120
Estimated direct band gap   :   0.4592410204E-02
 at k-point    145
 
Charges :
 core                        :    92.00000000    
 valence                     :    60.00000000    
 interstitial                :    4.050453207    
 muffin-tins (core leakage)
  species :    1 (Os)
   atom    1                 :    73.97477340     (  0.9448760636E-06)
   atom    2                 :    73.97477340     (  0.9448760636E-06)
 total in muffin-tins        :    147.9495468    
 total calculated charge     :    151.9995467    
 total charge                :    152.0000000    
 error                       :   0.4533118219E-03
 
RMS change in Kohn-Sham potential (target) :   0.7370132789E-05 (   10.00000000    )
Absolute change in total energy (target)   :   0.8737624739E-06 (  0.1000000000E-07)
 
Time (CPU seconds) :      2244.00
 
+--------------------+
| Loop number :   26 |
+--------------------+
 
Energies :
 Fermi                       :     0.725112313344    
 sum of eigenvalues          :     -21169.5584361    
 electron kinetic            :      39271.4773961    
 core electron kinetic       :      37772.7505923    
 Coulomb                     :     -73152.6852041    
 Coulomb potential           :     -59521.6561566    
 nuclear-nuclear             :     -2916.96536807    
 electron-nuclear            :     -80949.7835154    
 Hartree                     :      10714.0636794    
 Madelung                    :     -43391.8571258    
 xc potential                :     -919.379675645    
 exchange                    :     -684.915276314    
 correlation                 :     -9.40294355174    
 total energy                :     -34575.5260278    
 
Density of states at Fermi energy :    31.34842741    
 (states/Hartree/unit cell)
 
Estimated indirect band gap :   0.5855234959E-03
 from k-point    170 to k-point    120
Estimated direct band gap   :   0.4592409819E-02
 at k-point    145
 
Charges :
 core                        :    92.00000000    
 valence                     :    60.00000000    
 interstitial                :    4.050453207    
 muffin-tins (core leakage)
  species :    1 (Os)
   atom    1                 :    73.97477340     (  0.9447868266E-06)
   atom    2                 :    73.97477340     (  0.9447868266E-06)
 total in muffin-tins        :    147.9495468    
 total calculated charge     :    151.9995467    
 total charge                :    152.0000000    
 error                       :   0.4533116611E-03
 
Wrote STATE.OUT
 
RMS change in Kohn-Sham potential (target) :   0.2097175210E-04 (   10.00000000    )
Absolute change in total energy (target)   :   0.5168330972E-06 (  0.1000000000E-07)
 
Time (CPU seconds) :      2334.75
 
+--------------------+
| Loop number :   27 |
+--------------------+
 
Energies :
 Fermi                       :     0.725112315106    
 sum of eigenvalues          :     -21169.5584358    
 electron kinetic            :      39271.4773968    
 core electron kinetic       :      37772.7505933    
 Coulomb                     :     -73152.6852042    
 Coulomb potential           :     -59521.6561569    
 nuclear-nuclear             :     -2916.96536807    
 electron-nuclear            :     -80949.7835154    
 Hartree                     :      10714.0636792    
 Madelung                    :     -43391.8571258    
 xc potential                :     -919.379675650    
 exchange                    :     -684.915276315    
 correlation                 :     -9.40294355206    
 total energy                :     -34575.5260273    
 
Density of states at Fermi energy :    31.34843879    
 (states/Hartree/unit cell)
 
Estimated indirect band gap :   0.5855224958E-03
 from k-point    170 to k-point    120
Estimated direct band gap   :   0.4592410159E-02
 at k-point    145
 
Charges :
 core                        :    92.00000000    
 valence                     :    60.00000000    
 interstitial                :    4.050453206    
 muffin-tins (core leakage)
  species :    1 (Os)
   atom    1                 :    73.97477340     (  0.9448885052E-06)
   atom    2                 :    73.97477340     (  0.9448885052E-06)
 total in muffin-tins        :    147.9495468    
 total calculated charge     :    151.9995467    
 total charge                :    152.0000000    
 error                       :   0.4533118402E-03
 
RMS change in Kohn-Sham potential (target) :   0.5634338900E-04 (   10.00000000    )
Absolute change in total energy (target)   :   0.3597015166E-06 (  0.1000000000E-07)
 
Time (CPU seconds) :      2424.52
 
+--------------------+
| Loop number :   28 |
+--------------------+
 
Energies :
 Fermi                       :     0.725112311447    
 sum of eigenvalues          :     -21169.5584365    
 electron kinetic            :      39271.4773953    
 core electron kinetic       :      37772.7505920    
 Coulomb                     :     -73152.6852038    
 Coulomb potential           :     -59521.6561561    
 nuclear-nuclear             :     -2916.96536807    
 electron-nuclear            :     -80949.7835154    
 Hartree                     :      10714.0636796    
 Madelung                    :     -43391.8571258    
 xc potential                :     -919.379675640    
 exchange                    :     -684.915276296    
 correlation                 :     -9.40294355369    
 total energy                :     -34575.5260284    
 
Density of states at Fermi energy :    31.34845434    
 (states/Hartree/unit cell)
 
Estimated indirect band gap :   0.5855218613E-03
 from k-point    170 to k-point    120
Estimated direct band gap   :   0.4592408283E-02
 at k-point    145
 
Charges :
 core                        :    92.00000000    
 valence                     :    60.00000000    
 interstitial                :    4.050453207    
 muffin-tins (core leakage)
  species :    1 (Os)
   atom    1                 :    73.97477340     (  0.9449186820E-06)
   atom    2                 :    73.97477340     (  0.9449186820E-06)
 total in muffin-tins        :    147.9495468    
 total calculated charge     :    151.9995467    
 total charge                :    152.0000000    
 error                       :   0.4533119243E-03
 
Wrote STATE.OUT
 
RMS change in Kohn-Sham potential (target) :   0.1641193472E-04 (   10.00000000    )
Absolute change in total energy (target)   :   0.9840950952E-06 (  0.1000000000E-07)
 
Time (CPU seconds) :      2515.96
 
+--------------------+
| Loop number :   29 |
+--------------------+
 
Energies :
 Fermi                       :     0.725112312186    
 sum of eigenvalues          :     -21169.5584364    
 electron kinetic            :      39271.4773956    
 core electron kinetic       :      37772.7505920    
 Coulomb                     :     -73152.6852039    
 Coulomb potential           :     -59521.6561563    
 nuclear-nuclear             :     -2916.96536807    
 electron-nuclear            :     -80949.7835154    
 Hartree                     :      10714.0636795    
 Madelung                    :     -43391.8571258    
 xc potential                :     -919.379675649    
 exchange                    :     -684.915276298    
 correlation                 :     -9.40294355397    
 total energy                :     -34575.5260282    
 
Density of states at Fermi energy :    31.34845302    
 (states/Hartree/unit cell)
 
Estimated indirect band gap :   0.5855218853E-03
 from k-point    170 to k-point    120
Estimated direct band gap   :   0.4592408568E-02
 at k-point    145
 
Charges :
 core                        :    92.00000000    
 valence                     :    60.00000000    
 interstitial                :    4.050453207    
 muffin-tins (core leakage)
  species :    1 (Os)
   atom    1                 :    73.97477340     (  0.9447366551E-06)
   atom    2                 :    73.97477340     (  0.9447366551E-06)
 total in muffin-tins        :    147.9495468    
 total calculated charge     :    151.9995467    
 total charge                :    152.0000000    
 error                       :   0.4533115343E-03
 
RMS change in Kohn-Sham potential (target) :   0.6795283167E-04 (   10.00000000    )
Absolute change in total energy (target)   :   0.5087349564E-07 (  0.1000000000E-07)
 
Time (CPU seconds) :      2608.51
 
+--------------------+
| Loop number :   30 |
+--------------------+
 
Energies :
 Fermi                       :     0.725112313514    
 sum of eigenvalues          :     -21169.5584360    
 electron kinetic            :      39271.4773962    
 core electron kinetic       :      37772.7505926    
 Coulomb                     :     -73152.6852041    
 Coulomb potential           :     -59521.6561566    
 nuclear-nuclear             :     -2916.96536807    
 electron-nuclear            :     -80949.7835154    
 Hartree                     :      10714.0636794    
 Madelung                    :     -43391.8571258    
 xc potential                :     -919.379675641    
 exchange                    :     -684.915276304    
 correlation                 :     -9.40294355247    
 total energy                :     -34575.5260277    
 
Density of states at Fermi energy :    31.34844705    
 (states/Hartree/unit cell)
 
Estimated indirect band gap :   0.5855221475E-03
 from k-point    170 to k-point    120
Estimated direct band gap   :   0.4592409206E-02
 at k-point    145
 
Charges :
 core                        :    92.00000000    
 valence                     :    60.00000000    
 interstitial                :    4.050453208    
 muffin-tins (core leakage)
  species :    1 (Os)
   atom    1                 :    73.97477340     (  0.9448863878E-06)
   atom    2                 :    73.97477340     (  0.9448863878E-06)
 total in muffin-tins        :    147.9495468    
 total calculated charge     :    151.9995467    
 total charge                :    152.0000000    
 error                       :   0.4533118401E-03
 
Wrote STATE.OUT
 
RMS change in Kohn-Sham potential (target) :   0.1596214542E-04 (   10.00000000    )
Absolute change in total energy (target)   :   0.4580433597E-06 (  0.1000000000E-07)
 
Time (CPU seconds) :      2697.07
 
+--------------------+
| Loop number :   31 |
+--------------------+
 
Energies :
 Fermi                       :     0.725112313306    
 sum of eigenvalues          :     -21169.5584361    
 electron kinetic            :      39271.4773957    
 core electron kinetic       :      37772.7505922    
 Coulomb                     :     -73152.6852039    
 Coulomb potential           :     -59521.6561562    
 nuclear-nuclear             :     -2916.96536807    
 electron-nuclear            :     -80949.7835154    
 Hartree                     :      10714.0636796    
 Madelung                    :     -43391.8571258    
 xc potential                :     -919.379675646    
 exchange                    :     -684.915276303    
 correlation                 :     -9.40294355287    
 total energy                :     -34575.5260280    
 
Density of states at Fermi energy :    31.34844805    
 (states/Hartree/unit cell)
 
Estimated indirect band gap :   0.5855221161E-03
 from k-point    170 to k-point    120
Estimated direct band gap   :   0.4592409064E-02
 at k-point    145
 
Charges :
 core                        :    92.00000000    
 valence                     :    60.00000000    
 interstitial                :    4.050453208    
 muffin-tins (core leakage)
  species :    1 (Os)
   atom    1                 :    73.97477340     (  0.9448311005E-06)
   atom    2                 :    73.97477340     (  0.9448311005E-06)
 total in muffin-tins        :    147.9495468    
 total calculated charge     :    151.9995467    
 total charge                :    152.0000000    
 error                       :   0.4533117215E-03
 
RMS change in Kohn-Sham potential (target) :   0.1867130915E-04 (   10.00000000    )
Absolute change in total energy (target)   :   0.1652806532E-06 (  0.1000000000E-07)
 
Time (CPU seconds) :      2784.68
 
+--------------------+
| Loop number :   32 |
+--------------------+
 
Energies :
 Fermi                       :     0.725112313174    
 sum of eigenvalues          :     -21169.5584362    
 electron kinetic            :      39271.4773949    
 core electron kinetic       :      37772.7505914    
 Coulomb                     :     -73152.6852035    
 Coulomb potential           :     -59521.6561555    
 nuclear-nuclear             :     -2916.96536807    
 electron-nuclear            :     -80949.7835154    
 Hartree                     :      10714.0636799    
 Madelung                    :     -43391.8571258    
 xc potential                :     -919.379675633    
 exchange                    :     -684.915276288    
 correlation                 :     -9.40294355389    
 total energy                :     -34575.5260284    
 
Density of states at Fermi energy :    31.34844850    
 (states/Hartree/unit cell)
 
Estimated indirect band gap :   0.5855220949E-03
 from k-point    170 to k-point    120
Estimated direct band gap   :   0.4592409020E-02
 at k-point    145
 
Charges :
 core                        :    92.00000000    
 valence                     :    60.00000000    
 interstitial                :    4.050453208    
 muffin-tins (core leakage)
  species :    1 (Os)
   atom    1                 :    73.97477340     (  0.9448390372E-06)
   atom    2                 :    73.97477340     (  0.9448390372E-06)
 total in muffin-tins        :    147.9495468    
 total calculated charge     :    151.9995467    
 total charge                :    152.0000000    
 error                       :   0.4533117421E-03
 
Wrote STATE.OUT
 
RMS change in Kohn-Sham potential (target) :   0.7000149237E-04 (   10.00000000    )
Absolute change in total energy (target)   :   0.4517132766E-06 (  0.1000000000E-07)
 
Time (CPU seconds) :      2873.46
 
+--------------------+
| Loop number :   33 |
+--------------------+
 
Energies :
 Fermi                       :     0.725112312252    
 sum of eigenvalues          :     -21169.5584364    
 electron kinetic            :      39271.4773950    
 core electron kinetic       :      37772.7505917    
 Coulomb                     :     -73152.6852036    
 Coulomb potential           :     -59521.6561558    
 nuclear-nuclear             :     -2916.96536807    
 electron-nuclear            :     -80949.7835154    
 Hartree                     :      10714.0636798    
 Madelung                    :     -43391.8571258    
 xc potential                :     -919.379675643    
 exchange                    :     -684.915276302    
 correlation                 :     -9.40294355279    
 total energy                :     -34575.5260285    
 
Density of states at Fermi energy :    31.34845418    
 (states/Hartree/unit cell)
 
Estimated indirect band gap :   0.5855217955E-03
 from k-point    170 to k-point    120
Estimated direct band gap   :   0.4592408569E-02
 at k-point    145
 
Charges :
 core                        :    92.00000000    
 valence                     :    60.00000000    
 interstitial                :    4.050453208    
 muffin-tins (core leakage)
  species :    1 (Os)
   atom    1                 :    73.97477340     (  0.9447622489E-06)
   atom    2                 :    73.97477340     (  0.9447622489E-06)
 total in muffin-tins        :    147.9495468    
 total calculated charge     :    151.9995467    
 total charge                :    152.0000000    
 error                       :   0.4533116011E-03
 
RMS change in Kohn-Sham potential (target) :   0.2779057455E-04 (   10.00000000    )
Absolute change in total energy (target)   :   0.1839289325E-06 (  0.1000000000E-07)
 
Time (CPU seconds) :      2960.27
 
+--------------------+
| Loop number :   34 |
+--------------------+
 
Energies :
 Fermi                       :     0.725112312907    
 sum of eigenvalues          :     -21169.5584362    
 electron kinetic            :      39271.4773957    
 core electron kinetic       :      37772.7505922    
 Coulomb                     :     -73152.6852039    
 Coulomb potential           :     -59521.6561563    
 nuclear-nuclear             :     -2916.96536807    
 electron-nuclear            :     -80949.7835154    
 Hartree                     :      10714.0636796    
 Madelung                    :     -43391.8571258    
 xc potential                :     -919.379675644    
 exchange                    :     -684.915276290    
 correlation                 :     -9.40294355431    
 total energy                :     -34575.5260280    
 
Density of states at Fermi energy :    31.34845222    
 (states/Hartree/unit cell)
 
Estimated indirect band gap :   0.5855218700E-03
 from k-point    170 to k-point    120
Estimated direct band gap   :   0.4592408818E-02
 at k-point    145
 
Charges :
 core                        :    92.00000000    
 valence                     :    60.00000000    
 interstitial                :    4.050453208    
 muffin-tins (core leakage)
  species :    1 (Os)
   atom    1                 :    73.97477340     (  0.9447661284E-06)
   atom    2                 :    73.97477340     (  0.9447661284E-06)
 total in muffin-tins        :    147.9495468    
 total calculated charge     :    151.9995467    
 total charge                :    152.0000000    
 error                       :   0.4533116232E-03
 
Wrote STATE.OUT
 
RMS change in Kohn-Sham potential (target) :   0.2428165016E-04 (   10.00000000    )
Absolute change in total energy (target)   :   0.3858440323E-06 (  0.1000000000E-07)
 
Time (CPU seconds) :      3050.29
 
+--------------------+
| Loop number :   35 |
+--------------------+
 
Energies :
 Fermi                       :     0.725112313066    
 sum of eigenvalues          :     -21169.5584362    
 electron kinetic            :      39271.4773959    
 core electron kinetic       :      37772.7505923    
 Coulomb                     :     -73152.6852040    
 Coulomb potential           :     -59521.6561565    
 nuclear-nuclear             :     -2916.96536807    
 electron-nuclear            :     -80949.7835154    
 Hartree                     :      10714.0636795    
 Madelung                    :     -43391.8571258    
 xc potential                :     -919.379675639    
 exchange                    :     -684.915276299    
 correlation                 :     -9.40294355359    
 total energy                :     -34575.5260279    
 
Density of states at Fermi energy :    31.34845151    
 (states/Hartree/unit cell)
 
Estimated indirect band gap :   0.5855219004E-03
 from k-point    170 to k-point    120
Estimated direct band gap   :   0.4592408892E-02
 at k-point    145
 
Charges :
 core                        :    92.00000000    
 valence                     :    60.00000000    
 interstitial                :    4.050453208    
 muffin-tins (core leakage)
  species :    1 (Os)
   atom    1                 :    73.97477340     (  0.9448680558E-06)
   atom    2                 :    73.97477340     (  0.9448680558E-06)
 total in muffin-tins        :    147.9495468    
 total calculated charge     :    151.9995467    
 total charge                :    152.0000000    
 error                       :   0.4533118002E-03
 
RMS change in Kohn-Sham potential (target) :   0.5201625086E-04 (   10.00000000    )
Absolute change in total energy (target)   :   0.2178421710E-06 (  0.1000000000E-07)
 
Time (CPU seconds) :      3141.38
 
+--------------------+
| Loop number :   36 |
+--------------------+
 
Energies :
 Fermi                       :     0.725112313303    
 sum of eigenvalues          :     -21169.5584361    
 electron kinetic            :      39271.4773958    
 core electron kinetic       :      37772.7505923    
 Coulomb                     :     -73152.6852039    
 Coulomb potential           :     -59521.6561563    
 nuclear-nuclear             :     -2916.96536807    
 electron-nuclear            :     -80949.7835154    
 Hartree                     :      10714.0636795    
 Madelung                    :     -43391.8571258    
 xc potential                :     -919.379675649    
 exchange                    :     -684.915276302    
 correlation                 :     -9.40294355313    
 total energy                :     -34575.5260280    
 
Density of states at Fermi energy :    31.34845098    
 (states/Hartree/unit cell)
 
Estimated indirect band gap :   0.5855219220E-03
 from k-point    170 to k-point    120
Estimated direct band gap   :   0.4592408958E-02
 at k-point    145
 
Charges :
 core                        :    92.00000000    
 valence                     :    60.00000000    
 interstitial                :    4.050453208    
 muffin-tins (core leakage)
  species :    1 (Os)
   atom    1                 :    73.97477340     (  0.9447510436E-06)
   atom    2                 :    73.97477340     (  0.9447510436E-06)
 total in muffin-tins        :    147.9495468    
 total calculated charge     :    151.9995467    
 total charge                :    152.0000000    
 error                       :   0.4533115904E-03
 
Wrote STATE.OUT
 
RMS change in Kohn-Sham potential (target) :   0.1794419122E-04 (   10.00000000    )
Absolute change in total energy (target)   :   0.1746229827E-08 (  0.1000000000E-07)
 
Convergence targets achieved
 
Time (CPU seconds) :      3227.70
 
+--------------------+
| Loop number :   37 |
+--------------------+
 
Energies :
 Fermi                       :     0.725112313409    
 sum of eigenvalues          :     -21169.5584360    
 electron kinetic            :      39271.4773961    
 core electron kinetic       :      37772.7505924    
 Coulomb                     :     -73152.6852040    
 Coulomb potential           :     -59521.6561565    
 nuclear-nuclear             :     -2916.96536807    
 electron-nuclear            :     -80949.7835154    
 Hartree                     :      10714.0636794    
 Madelung                    :     -43391.8571258    
 xc potential                :     -919.379675640    
 exchange                    :     -684.915276307    
 correlation                 :     -9.40294355093    
 total energy                :     -34575.5260278    
 
Density of states at Fermi energy :    31.34845038    
 (states/Hartree/unit cell)
 
Estimated indirect band gap :   0.5855219573E-03
 from k-point    170 to k-point    120
Estimated direct band gap   :   0.4592408977E-02
 at k-point    145
 
Charges :
 core                        :    92.00000000    
 valence                     :    60.00000000    
 interstitial                :    4.050453209    
 muffin-tins (core leakage)
  species :    1 (Os)
   atom    1                 :    73.97477340     (  0.9449274216E-06)
   atom    2                 :    73.97477340     (  0.9449274216E-06)
 total in muffin-tins        :    147.9495468    
 total calculated charge     :    151.9995467    
 total charge                :    152.0000000    
 error                       :   0.4533119424E-03
 
+------------------------------+
| Self-consistent loop stopped |
+------------------------------+
 
Wrote STATE.OUT
 
Timings (CPU seconds) :
 initialisation                        :         1.17
 Hamiltonian and overlap matrix set up :       569.72
 first-variational eigenvalue equation :       943.15
 charge density calculation            :      1077.03
 potential calculation                 :       724.12
 total                                 :      3315.20
 
+----------------------------+
| Elk version 8.3.15 stopped |
+----------------------------+
