 
Species :    1 (Al), atom :    1
 APW functions :
  l =  0, energy derivative =  0 :   0.2218182547    
  l =  1, energy derivative =  0 :   0.2218182547    
  l =  2, energy derivative =  0 :   0.2218182547    
  l =  3, energy derivative =  0 :   0.2218182547    
  l =  4, energy derivative =  0 :   0.2218182547    
  l =  5, energy derivative =  0 :   0.2218182547    
  l =  6, energy derivative =  0 :   0.2218182547    
  l =  7, energy derivative =  0 :   0.2218182547    
  l =  8, energy derivative =  0 :   0.2218182547    
  l =  9, energy derivative =  0 :   0.2218182547    
  l = 10, energy derivative =  0 :   0.2218182547    
 local-orbital functions :
  l.o. =  1, l =  0, energy derivative =  0 :   0.2218182547    
  l.o. =  1, l =  0, energy derivative =  1 :   0.2218182547    
  l.o. =  2, l =  1, energy derivative =  0 :   0.2218182547    
  l.o. =  2, l =  1, energy derivative =  1 :   0.2218182547    
  l.o. =  3, l =  1, energy derivative =  0 :   0.2218182547    
  l.o. =  3, l =  1, energy derivative =  0 :   -2.059046280    
  l.o. =  4, l =  2, energy derivative =  0 :   0.2218182547    
  l.o. =  4, l =  2, energy derivative =  1 :   0.2218182547    
  l.o. =  5, l =  3, energy derivative =  0 :   0.2218182547    
  l.o. =  5, l =  3, energy derivative =  1 :   0.2218182547    
  l.o. =  6, l =  4, energy derivative =  0 :   0.2218182547    
  l.o. =  6, l =  4, energy derivative =  1 :   0.2218182547    
  l.o. =  7, l =  0, energy derivative =  0 :    1.127091581    
  l.o. =  7, l =  0, energy derivative =  1 :    1.127091581    
  l.o. =  7, l =  0, energy derivative =  2 :    1.127091581    
  l.o. =  8, l =  1, energy derivative =  0 :    1.548855600    
  l.o. =  8, l =  1, energy derivative =  1 :    1.548855600    
  l.o. =  8, l =  1, energy derivative =  2 :    1.548855600    
  l.o. =  9, l =  2, energy derivative =  0 :    1.838151257    
  l.o. =  9, l =  2, energy derivative =  1 :    1.838151257    
  l.o. =  9, l =  2, energy derivative =  2 :    1.838151257    
  l.o. = 10, l =  3, energy derivative =  0 :    3.737462891    
  l.o. = 10, l =  3, energy derivative =  1 :    3.737462891    
  l.o. = 10, l =  3, energy derivative =  2 :    3.737462891    
  l.o. = 11, l =  4, energy derivative =  0 :    5.753360043    
  l.o. = 11, l =  4, energy derivative =  1 :    5.753360043    
  l.o. = 11, l =  4, energy derivative =  2 :    5.753360043    
  l.o. = 12, l =  5, energy derivative =  0 :    8.004689749    
  l.o. = 12, l =  5, energy derivative =  1 :    8.004689749    
  l.o. = 12, l =  5, energy derivative =  2 :    8.004689749    
  l.o. = 13, l =  6, energy derivative =  0 :    10.51807818    
  l.o. = 13, l =  6, energy derivative =  1 :    10.51807818    
  l.o. = 13, l =  6, energy derivative =  2 :    10.51807818    
  l.o. = 14, l =  7, energy derivative =  0 :    13.30188824    
  l.o. = 14, l =  7, energy derivative =  1 :    13.30188824    
  l.o. = 14, l =  7, energy derivative =  2 :    13.30188824    
  l.o. = 15, l =  8, energy derivative =  0 :    16.35883217    
  l.o. = 15, l =  8, energy derivative =  1 :    16.35883217    
  l.o. = 15, l =  8, energy derivative =  2 :    16.35883217    
