  0.2257493441E-02
  0.1818032836E-01
  0.3020148830E-01
  0.4207424587E-01
  0.2957566402E-01
  0.2596378340E-01
  0.2004360756E-02
  0.1868663496E-02
  0.8649634947E-03
  0.3364740769E-04
  0.1932704981E-04
  0.3931302854E-04
  0.1714432074E-05
  0.7959803042E-05
  0.1643511314E-04
  0.9715200576E-05
  0.8691953553E-05
  0.2518010842E-04
  0.1044243800E-04
  0.4725825420E-06
  0.5107178367E-05
  0.4183355486E-05
  0.4063902452E-05
  0.5144429451E-06
  0.1398522727E-05
  0.4693356459E-07
  0.8655479178E-07
  0.3670229489E-06
  0.7540074876E-07
  0.1009744665E-05
  0.2225242497E-06
  0.8519964467E-06
  0.5484471330E-06
  0.1399603207E-06
  0.7970447768E-07
  0.4221328709E-07
  0.2579690772E-07
  0.6953814591E-07
  0.6781192496E-08
