 
Species :    1 (Tc), atom :    1
 APW functions :
  l =  0, energy derivative =  0 :   0.4867504477    
  l =  1, energy derivative =  0 :   0.4867504477    
  l =  2, energy derivative =  0 :   0.4867504477    
  l =  3, energy derivative =  0 :   0.4867504477    
  l =  4, energy derivative =  0 :   0.4867504477    
  l =  5, energy derivative =  0 :   0.4867504477    
  l =  6, energy derivative =  0 :   0.4867504477    
  l =  7, energy derivative =  0 :   0.4867504477    
  l =  8, energy derivative =  0 :   0.4867504477    
  l =  9, energy derivative =  0 :   0.4867504477    
  l = 10, energy derivative =  0 :   0.4867504477    
 local-orbital functions :
  l.o. =  1, l =  0, energy derivative =  0 :   0.4867504477    
  l.o. =  1, l =  0, energy derivative =  1 :   0.4867504477    
  l.o. =  2, l =  1, energy derivative =  0 :   0.4867504477    
  l.o. =  2, l =  1, energy derivative =  1 :   0.4867504477    
  l.o. =  3, l =  2, energy derivative =  0 :   0.4867504477    
  l.o. =  3, l =  2, energy derivative =  1 :   0.4867504477    
  l.o. =  4, l =  0, energy derivative =  0 :   0.4867504477    
  l.o. =  4, l =  0, energy derivative =  0 :   -1.869855391    
  l.o. =  5, l =  1, energy derivative =  0 :   0.4867504477    
  l.o. =  5, l =  1, energy derivative =  0 :  -0.8351084280    
  l.o. =  6, l =  2, energy derivative =  0 :   0.4867504477    
  l.o. =  6, l =  2, energy derivative =  0 :   0.6670342846    
  l.o. =  7, l =  3, energy derivative =  0 :   0.4867504477    
  l.o. =  7, l =  3, energy derivative =  1 :   0.4867504477    
  l.o. =  8, l =  4, energy derivative =  0 :   0.4867504477    
  l.o. =  8, l =  4, energy derivative =  1 :   0.4867504477    
  l.o. =  9, l =  5, energy derivative =  0 :   0.4867504477    
  l.o. =  9, l =  5, energy derivative =  1 :   0.4867504477    
  l.o. = 10, l =  0, energy derivative =  0 :    1.645829622    
  l.o. = 10, l =  0, energy derivative =  1 :    1.645829622    
  l.o. = 10, l =  0, energy derivative =  2 :    1.645829622    
  l.o. = 11, l =  1, energy derivative =  0 :    2.254687828    
  l.o. = 11, l =  1, energy derivative =  1 :    2.254687828    
  l.o. = 11, l =  1, energy derivative =  2 :    2.254687828    
  l.o. = 12, l =  2, energy derivative =  0 :   0.6670342846    
  l.o. = 12, l =  2, energy derivative =  1 :   0.6670342846    
  l.o. = 12, l =  2, energy derivative =  2 :   0.6670342846    
  l.o. = 13, l =  3, energy derivative =  0 :    2.118508482    
  l.o. = 13, l =  3, energy derivative =  1 :    2.118508482    
  l.o. = 13, l =  3, energy derivative =  2 :    2.118508482    
  l.o. = 14, l =  4, energy derivative =  0 :    3.871722424    
  l.o. = 14, l =  4, energy derivative =  1 :    3.871722424    
  l.o. = 14, l =  4, energy derivative =  2 :    3.871722424    
  l.o. = 15, l =  5, energy derivative =  0 :    5.553670599    
  l.o. = 15, l =  5, energy derivative =  1 :    5.553670599    
  l.o. = 15, l =  5, energy derivative =  2 :    5.553670599    
  l.o. = 16, l =  6, energy derivative =  0 :    7.363340177    
  l.o. = 16, l =  6, energy derivative =  1 :    7.363340177    
  l.o. = 16, l =  6, energy derivative =  2 :    7.363340177    
  l.o. = 17, l =  7, energy derivative =  0 :    9.337753030    
  l.o. = 17, l =  7, energy derivative =  1 :    9.337753030    
  l.o. = 17, l =  7, energy derivative =  2 :    9.337753030    
  l.o. = 18, l =  8, energy derivative =  0 :    11.48956588    
  l.o. = 18, l =  8, energy derivative =  1 :    11.48956588    
  l.o. = 18, l =  8, energy derivative =  2 :    11.48956588    
 
Species :    1 (Tc), atom :    2
 APW functions :
  l =  0, energy derivative =  0 :   0.4867504477    
  l =  1, energy derivative =  0 :   0.4867504477    
  l =  2, energy derivative =  0 :   0.4867504477    
  l =  3, energy derivative =  0 :   0.4867504477    
  l =  4, energy derivative =  0 :   0.4867504477    
  l =  5, energy derivative =  0 :   0.4867504477    
  l =  6, energy derivative =  0 :   0.4867504477    
  l =  7, energy derivative =  0 :   0.4867504477    
  l =  8, energy derivative =  0 :   0.4867504477    
  l =  9, energy derivative =  0 :   0.4867504477    
  l = 10, energy derivative =  0 :   0.4867504477    
 local-orbital functions :
  l.o. =  1, l =  0, energy derivative =  0 :   0.4867504477    
  l.o. =  1, l =  0, energy derivative =  1 :   0.4867504477    
  l.o. =  2, l =  1, energy derivative =  0 :   0.4867504477    
  l.o. =  2, l =  1, energy derivative =  1 :   0.4867504477    
  l.o. =  3, l =  2, energy derivative =  0 :   0.4867504477    
  l.o. =  3, l =  2, energy derivative =  1 :   0.4867504477    
  l.o. =  4, l =  0, energy derivative =  0 :   0.4867504477    
  l.o. =  4, l =  0, energy derivative =  0 :   -1.869855391    
  l.o. =  5, l =  1, energy derivative =  0 :   0.4867504477    
  l.o. =  5, l =  1, energy derivative =  0 :  -0.8351084280    
  l.o. =  6, l =  2, energy derivative =  0 :   0.4867504477    
  l.o. =  6, l =  2, energy derivative =  0 :   0.6670342846    
  l.o. =  7, l =  3, energy derivative =  0 :   0.4867504477    
  l.o. =  7, l =  3, energy derivative =  1 :   0.4867504477    
  l.o. =  8, l =  4, energy derivative =  0 :   0.4867504477    
  l.o. =  8, l =  4, energy derivative =  1 :   0.4867504477    
  l.o. =  9, l =  5, energy derivative =  0 :   0.4867504477    
  l.o. =  9, l =  5, energy derivative =  1 :   0.4867504477    
  l.o. = 10, l =  0, energy derivative =  0 :    1.645829622    
  l.o. = 10, l =  0, energy derivative =  1 :    1.645829622    
  l.o. = 10, l =  0, energy derivative =  2 :    1.645829622    
  l.o. = 11, l =  1, energy derivative =  0 :    2.254687828    
  l.o. = 11, l =  1, energy derivative =  1 :    2.254687828    
  l.o. = 11, l =  1, energy derivative =  2 :    2.254687828    
  l.o. = 12, l =  2, energy derivative =  0 :   0.6670342846    
  l.o. = 12, l =  2, energy derivative =  1 :   0.6670342846    
  l.o. = 12, l =  2, energy derivative =  2 :   0.6670342846    
  l.o. = 13, l =  3, energy derivative =  0 :    2.118508482    
  l.o. = 13, l =  3, energy derivative =  1 :    2.118508482    
  l.o. = 13, l =  3, energy derivative =  2 :    2.118508482    
  l.o. = 14, l =  4, energy derivative =  0 :    3.871722424    
  l.o. = 14, l =  4, energy derivative =  1 :    3.871722424    
  l.o. = 14, l =  4, energy derivative =  2 :    3.871722424    
  l.o. = 15, l =  5, energy derivative =  0 :    5.553670599    
  l.o. = 15, l =  5, energy derivative =  1 :    5.553670599    
  l.o. = 15, l =  5, energy derivative =  2 :    5.553670599    
  l.o. = 16, l =  6, energy derivative =  0 :    7.363340177    
  l.o. = 16, l =  6, energy derivative =  1 :    7.363340177    
  l.o. = 16, l =  6, energy derivative =  2 :    7.363340177    
  l.o. = 17, l =  7, energy derivative =  0 :    9.337753030    
  l.o. = 17, l =  7, energy derivative =  1 :    9.337753030    
  l.o. = 17, l =  7, energy derivative =  2 :    9.337753030    
  l.o. = 18, l =  8, energy derivative =  0 :    11.48956588    
  l.o. = 18, l =  8, energy derivative =  1 :    11.48956588    
  l.o. = 18, l =  8, energy derivative =  2 :    11.48956588    
