  0.1002856262E-02
  0.8825402668E-02
  0.3523528445E-01
  0.1114760370E-01
  0.9930191895E-02
  0.4565881984E-02
  0.5697320512E-03
  0.7385291847E-03
  0.5048941703E-03
  0.1343508975E-03
  0.2848553777E-05
  0.1809020614E-04
  0.4065577923E-04
  0.5231728574E-04
  0.7897799424E-04
  0.2682756167E-04
  0.3563414430E-04
  0.6155436495E-05
  0.1272296686E-04
  0.2481789124E-05
  0.2571729055E-05
  0.2533843144E-06
  0.7882354112E-06
  0.2711303750E-06
  0.3422519512E-06
  0.3506156645E-06
  0.1917560439E-06
  0.3588138497E-07
  0.5786387192E-07
  0.7393009582E-07
  0.6275968190E-07
  0.1101161615E-06
  0.4161211109E-07
  0.7652488421E-08
