 
Species :    1 (Zr), atom :    1
 n =  1, l =  0, k =  1 :   -655.5491380    
 n =  2, l =  0, k =  1 :   -90.21606078    
 n =  2, l =  1, k =  1 :   -82.51211775    
 n =  2, l =  1, k =  2 :   -79.34372589    
 n =  3, l =  0, k =  1 :   -14.30587148    
 n =  3, l =  1, k =  1 :   -11.44260590    
 n =  3, l =  1, k =  2 :   -10.93757332    
 n =  3, l =  2, k =  2 :   -5.888619943    
 n =  3, l =  2, k =  3 :   -5.796865911    
 
Species :    1 (Zr), atom :    2
 n =  1, l =  0, k =  1 :   -655.5491380    
 n =  2, l =  0, k =  1 :   -90.21606078    
 n =  2, l =  1, k =  1 :   -82.51211775    
 n =  2, l =  1, k =  2 :   -79.34372589    
 n =  3, l =  0, k =  1 :   -14.30587148    
 n =  3, l =  1, k =  1 :   -11.44260590    
 n =  3, l =  1, k =  2 :   -10.93757332    
 n =  3, l =  2, k =  2 :   -5.888619943    
 n =  3, l =  2, k =  3 :   -5.796865911    
