  0.3336471491    
   3.305667631    
   10.66287208    
   7.643787942    
   3.914787382    
   1.898326838    
  0.4586906508    
  0.9808485494E-01
  0.2615056688E-01
  0.8160853941E-02
  0.2204021464E-02
  0.1070778085E-03
  0.1695130086E-03
  0.1443194028E-03
  0.3267160332E-04
  0.2463376927E-04
  0.1949482134E-04
  0.1489410784E-04
  0.1132189584E-03
  0.8195250666E-04
  0.1834569639E-04
  0.1275098589E-04
  0.2572323638E-05
  0.4426605938E-04
  0.2502123334E-04
  0.1013600172E-04
  0.4832455488E-05
  0.3279737484E-05
  0.7914250546E-05
  0.1555060226E-04
  0.1604931867E-04
  0.6687156656E-05
  0.7699932212E-05
  0.1213196128E-05
  0.1960650025E-06
  0.1135474577E-06
  0.8681770396E-06
  0.1050672836E-05
  0.5409635833E-06
  0.3169013780E-06
  0.3693371582E-06
  0.3170725904E-07
  0.3773338904E-06
  0.1242556209E-06
  0.7422477211E-07
  0.2773654160E-06
  0.1534517651E-06
  0.2042102096E-06
  0.4453818292E-07
  0.3108584679E-07
  0.1398007043E-06
  0.2095680429E-07
  0.3711215868E-07
  0.2477599992E-07
  0.1416515261E-07
  0.1765556590E-08
