   7.394561358    
   8.360698968    
   5.646021613    
   2.906631634    
   1.931533960    
   1.442042554    
   1.011584390    
  0.6756422600    
  0.3880663949    
  0.2315375596    
  0.7338403898E-01
  0.1089271394    
  0.6695033871E-01
  0.2987879100E-01
  0.1496023179E-01
  0.3267409223E-02
  0.5869534959E-03
  0.3258906049E-03
  0.2583657331E-03
  0.2375400936E-03
  0.7771208107E-04
  0.1074701111E-03
  0.4539517249E-04
  0.1098440505E-03
  0.5967576658E-04
  0.3549105259E-06
  0.2349887382E-05
  0.7023122635E-06
  0.2005931492E-06
  0.2165666046E-07
  0.3583886610E-07
  0.4619664651E-07
  0.2809133548E-07
  0.3594345799E-07
  0.4049206836E-07
  0.2754654815E-07
  0.2052661330E-07
  0.3205150279E-07
  0.5023548511E-07
  0.1707803676E-07
  0.4563162292E-08
