    0.698465940924E-03
    0.825082450937E-03
    0.136679898180E-02
    0.221478464896E-03
    0.112300535637E-03
    0.452854033814E-03
    0.619198653201E-03
    0.710062419105E-03
    0.709146732748E-03
    0.710780334028E-03
    0.662428406585E-03
    0.696822674772E-03
    0.585996037545E-03
    0.730911441701E-03
    0.658316500674E-03
    0.649222568101E-03
    0.650386833174E-03
    0.650365814167E-03
    0.650572565959E-03
    0.650376076798E-03
    0.650310479341E-03
    0.650141475665E-03
    0.650174175288E-03
    0.650017671403E-03
    0.650177601687E-03
    0.650053915246E-03
    0.650075433302E-03
    0.650077884629E-03
    0.650077999632E-03
    0.650077829803E-03
    0.650077412910E-03
    0.650077054080E-03
    0.650076726913E-03
    0.650076543216E-03
    0.650076411924E-03
    0.650076328175E-03
    0.650076367413E-03
    0.650076250647E-03
    0.650076399848E-03
    0.650076254490E-03
    0.650076309808E-03
    0.650076308026E-03
    0.650076318101E-03
