   16.42888672    
   16.49182717    
   16.50026706    
   16.82903597    
   17.84976632    
   17.87251902    
   17.38117481    
   17.08286039    
   16.88237154    
   16.81927969    
   16.81936651    
   16.83320218    
   16.83724103    
   16.83807502    
   16.83938385    
   16.83861711    
   16.83836814    
   16.83767714    
   16.83824890    
   16.83879939    
   16.83879022    
   16.83888078    
   16.83859563    
   16.83884847    
   16.83878044    
   16.83901534    
   16.83903708    
   16.83902676    
   16.83908804    
   16.83911769    
   16.83911340    
   16.83913168    
   16.83915251    
   16.83915108    
   16.83915253    
   16.83915395    
   16.83915601    
   16.83915481    
   16.83915536    
   16.83915614    
   16.83915599    
   16.83915649    
   16.83915713    
   16.83915662    
   16.83915645    
   16.83915650    
   16.83915650    
   16.83915648    
   16.83915601    
