    -8576.01807141    
    -8576.01738389    
    -8576.01592732    
    -8575.98227914    
    -8575.95707916    
    -8575.95090544    
    -8575.95007695    
    -8575.95744162    
    -8575.96421087    
    -8575.96277882    
    -8575.95991492    
    -8575.95916207    
    -8575.95896631    
    -8575.95900754    
    -8575.95894993    
    -8575.95895690    
    -8575.95882074    
    -8575.95888678    
    -8575.95888693    
    -8575.95892994    
    -8575.95894938    
    -8575.95890672    
    -8575.95893736    
    -8575.95894173    
    -8575.95894065    
    -8575.95894122    
    -8575.95895076    
    -8575.95894106    
    -8575.95894605    
    -8575.95894802    
    -8575.95894959    
    -8575.95894930    
    -8575.95894972    
    -8575.95895015    
    -8575.95895174    
    -8575.95895226    
    -8575.95895185    
    -8575.95895185    
    -8575.95895230    
    -8575.95895220    
    -8575.95895205    
