   4.859996180    
   15.26102702    
   109.5616327    
   107.9031889    
   61.16163720    
   29.01033233    
   6.985229328    
   1.761428668    
  0.4176664718    
  0.1032819280    
  0.2608447723E-01
  0.7948494742E-02
  0.2525182645E-02
  0.8702134874E-03
  0.3301952747E-03
  0.4110322334E-04
  0.7781269960E-04
  0.2690400288E-04
  0.4461144272E-04
  0.2624373883E-04
  0.1827475353E-04
  0.2694629075E-05
  0.3464352631E-05
  0.1679931302E-04
  0.6978807505E-05
  0.1325983612E-04
  0.5785259418E-05
  0.3264358384E-06
  0.5604364560E-05
  0.2513857908E-05
  0.3773020580E-06
  0.1936859917E-07
  0.1482694643E-06
  0.5247420631E-06
  0.1184380380E-06
  0.1664084266E-06
  0.3502791515E-06
  0.3629975254E-07
  0.1658481779E-06
  0.2995511750E-06
  0.3227032721E-06
  0.3540772013E-06
  0.3420864232E-06
  0.3381646820E-06
  0.7437483873E-07
  0.1589651220E-06
  0.7332710084E-07
  0.2475280780E-06
  0.2871893230E-06
  0.3727473086E-06
  0.2295273589E-06
  0.2245651558E-06
  0.3425229806E-06
  0.4851899575E-06
  0.4237153917E-06
  0.4403409548E-06
  0.3856475814E-06
  0.3075110726E-06
  0.2970045898E-07
  0.3104360076E-06
  0.4648609320E-07
  0.2246815711E-06
  0.3993336577E-06
  0.2131637302E-06
  0.4218381946E-06
  0.3182867658E-06
  0.4662942956E-06
  0.3035383997E-06
  0.3170571290E-06
  0.4082976375E-06
  0.2018496161E-06
  0.4448302207E-06
  0.4036555765E-06
  0.1133885235E-06
  0.2603774192E-06
  0.1327571226E-06
  0.3601089702E-06
  0.4224566510E-06
  0.6437767297E-06
  0.3236564226E-06
  0.4480534699E-06
  0.3086825018E-06
  0.2903179848E-06
  0.2559681889E-06
  0.3332897904E-06
  0.9521318134E-07
  0.1519219950E-06
  0.3928507795E-06
  0.2004380804E-06
  0.4515750334E-06
  0.3954555723E-06
  0.5754991435E-06
  0.2117230906E-06
  0.7946073310E-07
  0.1884181984E-06
  0.3864333848E-06
  0.1607331797E-06
  0.2025844879E-06
  0.1785519999E-06
  0.3433742677E-06
  0.4921748769E-06
  0.2544984454E-06
  0.2865272108E-06
  0.2590313670E-06
  0.5432520993E-06
  0.2733868314E-06
  0.2658634912E-06
  0.3914974513E-06
  0.1151784090E-06
  0.3216700861E-06
  0.2361121005E-06
  0.8198549040E-07
  0.8165807230E-07
  0.2132292138E-06
  0.2451997716E-06
  0.5910042091E-06
  0.5358524504E-06
  0.1853259164E-06
  0.7280323189E-07
  0.1841253834E-06
  0.5585752660E-07
  0.3093737178E-06
  0.4071771400E-06
  0.2495507943E-06
  0.1372100087E-06
  0.2344095265E-06
  0.2999149729E-06
  0.9941868484E-07
  0.1513253665E-06
  0.2879824024E-06
  0.1387015800E-06
  0.9585346561E-07
  0.4837493179E-06
  0.4826288205E-06
  0.2630549716E-06
  0.2710803528E-06
  0.3759851097E-06
  0.2689193934E-06
  0.2715387382E-06
  0.2751767170E-06
  0.2683154889E-06
  0.3645254765E-06
  0.4114262993E-06
  0.2740489435E-06
  0.2844026312E-06
  0.2915257937E-06
  0.2478627721E-06
  0.2802698873E-07
  0.2527813194E-06
  0.3701861715E-06
  0.3479653969E-06
  0.5769979907E-06
  0.2409433364E-06
  0.3554305295E-06
  0.3660243237E-06
  0.9848008631E-07
  0.2506712917E-06
  0.2176238922E-07
  0.1381486072E-06
  0.2690503607E-06
  0.2922024578E-06
  0.1802836778E-06
  0.4757457646E-06
  0.2964516170E-06
  0.3129898687E-06
  0.5070542102E-06
  0.4731991794E-06
  0.3112800186E-06
  0.1587468432E-06
  0.4032335710E-07
  0.2530359779E-06
  0.2514279913E-06
  0.3631212167E-06
  0.3376044333E-06
  0.5713809514E-07
  0.1555381459E-06
  0.1190055627E-06
  0.2980959835E-06
  0.4457469913E-06
  0.4456233000E-06
  0.1882290235E-06
  0.3258974175E-06
  0.4551329766E-06
  0.3144377843E-06
  0.2751767170E-07
  0.4221801646E-06
  0.3073218977E-06
  0.5110487109E-06
  0.4486209946E-06
  0.4863977665E-06
  0.2551096259E-06
  0.4171233741E-06
  0.1255102688E-06
  0.2891902113E-06
  0.1419975888E-06
  0.4423782229E-08
