 
Species :    1 (Re), atom :    1
 n =  1, l =  0, k =  1 :   -2632.335200    
 n =  2, l =  0, k =  1 :   -454.8911197    
 n =  2, l =  1, k =  1 :   -435.6105927    
 n =  2, l =  1, k =  2 :   -382.4374745    
 n =  3, l =  0, k =  1 :   -104.5687621    
 n =  3, l =  1, k =  1 :   -95.88504752    
 n =  3, l =  1, k =  2 :   -84.33504226    
 n =  3, l =  2, k =  2 :   -69.53309213    
 n =  3, l =  2, k =  3 :   -67.03649503    
 n =  4, l =  0, k =  1 :   -21.10246006    
 n =  4, l =  1, k =  1 :   -17.45887224    
 n =  4, l =  1, k =  2 :   -14.76249608    
 n =  4, l =  2, k =  2 :   -8.731672016    
 n =  4, l =  2, k =  3 :   -8.235814525    
 
Species :    1 (Re), atom :    2
 n =  1, l =  0, k =  1 :   -2632.335200    
 n =  2, l =  0, k =  1 :   -454.8911197    
 n =  2, l =  1, k =  1 :   -435.6105927    
 n =  2, l =  1, k =  2 :   -382.4374745    
 n =  3, l =  0, k =  1 :   -104.5687621    
 n =  3, l =  1, k =  1 :   -95.88504752    
 n =  3, l =  1, k =  2 :   -84.33504226    
 n =  3, l =  2, k =  2 :   -69.53309213    
 n =  3, l =  2, k =  3 :   -67.03649503    
 n =  4, l =  0, k =  1 :   -21.10246006    
 n =  4, l =  1, k =  1 :   -17.45887224    
 n =  4, l =  1, k =  2 :   -14.76249608    
 n =  4, l =  2, k =  2 :   -8.731672016    
 n =  4, l =  2, k =  3 :   -8.235814525    
