 
Species :    1 (Tc), atom :    1
 APW functions :
  l =  0, energy derivative =  0 :   0.4720655188    
  l =  1, energy derivative =  0 :   0.4720655188    
  l =  2, energy derivative =  0 :   0.4720655188    
  l =  3, energy derivative =  0 :   0.4720655188    
  l =  4, energy derivative =  0 :   0.4720655188    
  l =  5, energy derivative =  0 :   0.4720655188    
  l =  6, energy derivative =  0 :   0.4720655188    
  l =  7, energy derivative =  0 :   0.4720655188    
  l =  8, energy derivative =  0 :   0.4720655188    
  l =  9, energy derivative =  0 :   0.4720655188    
  l = 10, energy derivative =  0 :   0.4720655188    
 local-orbital functions :
  l.o. =  1, l =  0, energy derivative =  0 :   0.4720655188    
  l.o. =  1, l =  0, energy derivative =  1 :   0.4720655188    
  l.o. =  2, l =  1, energy derivative =  0 :   0.4720655188    
  l.o. =  2, l =  1, energy derivative =  1 :   0.4720655188    
  l.o. =  3, l =  2, energy derivative =  0 :   0.4720655188    
  l.o. =  3, l =  2, energy derivative =  1 :   0.4720655188    
  l.o. =  4, l =  0, energy derivative =  0 :   0.4720655188    
  l.o. =  4, l =  0, energy derivative =  0 :   -1.884096629    
  l.o. =  5, l =  1, energy derivative =  0 :   0.4720655188    
  l.o. =  5, l =  1, energy derivative =  0 :  -0.8491981319    
  l.o. =  6, l =  2, energy derivative =  0 :   0.4720655188    
  l.o. =  6, l =  2, energy derivative =  0 :   0.6533684203    
  l.o. =  7, l =  3, energy derivative =  0 :   0.4720655188    
  l.o. =  7, l =  3, energy derivative =  1 :   0.4720655188    
  l.o. =  8, l =  4, energy derivative =  0 :   0.4720655188    
  l.o. =  8, l =  4, energy derivative =  1 :   0.4720655188    
  l.o. =  9, l =  5, energy derivative =  0 :   0.4720655188    
  l.o. =  9, l =  5, energy derivative =  1 :   0.4720655188    
  l.o. = 10, l =  0, energy derivative =  0 :    1.632966358    
  l.o. = 10, l =  0, energy derivative =  1 :    1.632966358    
  l.o. = 10, l =  0, energy derivative =  2 :    1.632966358    
  l.o. = 11, l =  1, energy derivative =  0 :    2.241799964    
  l.o. = 11, l =  1, energy derivative =  1 :    2.241799964    
  l.o. = 11, l =  1, energy derivative =  2 :    2.241799964    
  l.o. = 12, l =  2, energy derivative =  0 :   0.6533684203    
  l.o. = 12, l =  2, energy derivative =  1 :   0.6533684203    
  l.o. = 12, l =  2, energy derivative =  2 :   0.6533684203    
  l.o. = 13, l =  3, energy derivative =  0 :    2.105287698    
  l.o. = 13, l =  3, energy derivative =  1 :    2.105287698    
  l.o. = 13, l =  3, energy derivative =  2 :    2.105287698    
  l.o. = 14, l =  4, energy derivative =  0 :    3.859017712    
  l.o. = 14, l =  4, energy derivative =  1 :    3.859017712    
  l.o. = 14, l =  4, energy derivative =  2 :    3.859017712    
  l.o. = 15, l =  5, energy derivative =  0 :    5.541225107    
  l.o. = 15, l =  5, energy derivative =  1 :    5.541225107    
  l.o. = 15, l =  5, energy derivative =  2 :    5.541225107    
  l.o. = 16, l =  6, energy derivative =  0 :    7.351081181    
  l.o. = 16, l =  6, energy derivative =  1 :    7.351081181    
  l.o. = 16, l =  6, energy derivative =  2 :    7.351081181    
  l.o. = 17, l =  7, energy derivative =  0 :    9.325641467    
  l.o. = 17, l =  7, energy derivative =  1 :    9.325641467    
  l.o. = 17, l =  7, energy derivative =  2 :    9.325641467    
  l.o. = 18, l =  8, energy derivative =  0 :    11.47757588    
  l.o. = 18, l =  8, energy derivative =  1 :    11.47757588    
  l.o. = 18, l =  8, energy derivative =  2 :    11.47757588    
 
Species :    1 (Tc), atom :    2
 APW functions :
  l =  0, energy derivative =  0 :   0.4720655188    
  l =  1, energy derivative =  0 :   0.4720655188    
  l =  2, energy derivative =  0 :   0.4720655188    
  l =  3, energy derivative =  0 :   0.4720655188    
  l =  4, energy derivative =  0 :   0.4720655188    
  l =  5, energy derivative =  0 :   0.4720655188    
  l =  6, energy derivative =  0 :   0.4720655188    
  l =  7, energy derivative =  0 :   0.4720655188    
  l =  8, energy derivative =  0 :   0.4720655188    
  l =  9, energy derivative =  0 :   0.4720655188    
  l = 10, energy derivative =  0 :   0.4720655188    
 local-orbital functions :
  l.o. =  1, l =  0, energy derivative =  0 :   0.4720655188    
  l.o. =  1, l =  0, energy derivative =  1 :   0.4720655188    
  l.o. =  2, l =  1, energy derivative =  0 :   0.4720655188    
  l.o. =  2, l =  1, energy derivative =  1 :   0.4720655188    
  l.o. =  3, l =  2, energy derivative =  0 :   0.4720655188    
  l.o. =  3, l =  2, energy derivative =  1 :   0.4720655188    
  l.o. =  4, l =  0, energy derivative =  0 :   0.4720655188    
  l.o. =  4, l =  0, energy derivative =  0 :   -1.884096629    
  l.o. =  5, l =  1, energy derivative =  0 :   0.4720655188    
  l.o. =  5, l =  1, energy derivative =  0 :  -0.8491981319    
  l.o. =  6, l =  2, energy derivative =  0 :   0.4720655188    
  l.o. =  6, l =  2, energy derivative =  0 :   0.6533684203    
  l.o. =  7, l =  3, energy derivative =  0 :   0.4720655188    
  l.o. =  7, l =  3, energy derivative =  1 :   0.4720655188    
  l.o. =  8, l =  4, energy derivative =  0 :   0.4720655188    
  l.o. =  8, l =  4, energy derivative =  1 :   0.4720655188    
  l.o. =  9, l =  5, energy derivative =  0 :   0.4720655188    
  l.o. =  9, l =  5, energy derivative =  1 :   0.4720655188    
  l.o. = 10, l =  0, energy derivative =  0 :    1.632966358    
  l.o. = 10, l =  0, energy derivative =  1 :    1.632966358    
  l.o. = 10, l =  0, energy derivative =  2 :    1.632966358    
  l.o. = 11, l =  1, energy derivative =  0 :    2.241799964    
  l.o. = 11, l =  1, energy derivative =  1 :    2.241799964    
  l.o. = 11, l =  1, energy derivative =  2 :    2.241799964    
  l.o. = 12, l =  2, energy derivative =  0 :   0.6533684203    
  l.o. = 12, l =  2, energy derivative =  1 :   0.6533684203    
  l.o. = 12, l =  2, energy derivative =  2 :   0.6533684203    
  l.o. = 13, l =  3, energy derivative =  0 :    2.105287698    
  l.o. = 13, l =  3, energy derivative =  1 :    2.105287698    
  l.o. = 13, l =  3, energy derivative =  2 :    2.105287698    
  l.o. = 14, l =  4, energy derivative =  0 :    3.859017712    
  l.o. = 14, l =  4, energy derivative =  1 :    3.859017712    
  l.o. = 14, l =  4, energy derivative =  2 :    3.859017712    
  l.o. = 15, l =  5, energy derivative =  0 :    5.541225107    
  l.o. = 15, l =  5, energy derivative =  1 :    5.541225107    
  l.o. = 15, l =  5, energy derivative =  2 :    5.541225107    
  l.o. = 16, l =  6, energy derivative =  0 :    7.351081181    
  l.o. = 16, l =  6, energy derivative =  1 :    7.351081181    
  l.o. = 16, l =  6, energy derivative =  2 :    7.351081181    
  l.o. = 17, l =  7, energy derivative =  0 :    9.325641467    
  l.o. = 17, l =  7, energy derivative =  1 :    9.325641467    
  l.o. = 17, l =  7, energy derivative =  2 :    9.325641467    
  l.o. = 18, l =  8, energy derivative =  0 :    11.47757588    
  l.o. = 18, l =  8, energy derivative =  1 :    11.47757588    
  l.o. = 18, l =  8, energy derivative =  2 :    11.47757588    
