  0.3374011853    
   3.013277967    
   10.64241675    
   7.630726195    
   3.889615942    
   1.898241840    
  0.4678357926    
  0.1003955400    
  0.2669114617E-01
  0.6693813829E-02
  0.3567823764E-02
  0.9865427053E-03
  0.1096918331E-03
  0.2668653292E-04
  0.1425040250E-04
  0.1415942893E-03
  0.3571626712E-04
  0.4487301999E-04
  0.5501915552E-04
  0.1422936680E-04
  0.4866577729E-04
  0.2362548685E-04
  0.6481701803E-05
  0.1020647687E-05
  0.1170347969E-04
  0.1207915989E-04
  0.9786317605E-05
  0.4280233952E-05
  0.5295730716E-06
  0.8927106592E-06
  0.1249611614E-06
  0.6056322945E-06
  0.2443259518E-05
  0.2345783287E-05
  0.4137336873E-06
  0.4021835593E-06
  0.1632165549E-06
  0.1007560968E-06
  0.5118158697E-07
  0.7505241229E-07
  0.4882990652E-06
  0.1091686954E-06
  0.2426077117E-07
  0.1187322596E-07
  0.1341027200E-07
  0.1783064363E-08
