   297 : nkpt; k-point, vkl, wkpt, nmat below
     1   0.000000000       0.000000000       0.000000000      0.2035416243E-03     791
     2  0.5882352941E-01   0.000000000       0.000000000      0.1221249746E-02     791
     3  0.1176470588       0.000000000       0.000000000      0.1221249746E-02     795
     4  0.1764705882       0.000000000       0.000000000      0.1221249746E-02     790
     5  0.2352941176       0.000000000       0.000000000      0.1221249746E-02     784
     6  0.2941176471       0.000000000       0.000000000      0.1221249746E-02     776
     7  0.3529411765       0.000000000       0.000000000      0.1221249746E-02     776
     8  0.4117647059       0.000000000       0.000000000      0.1221249746E-02     774
     9  0.4705882353       0.000000000       0.000000000      0.1221249746E-02     770
    10  0.5882352941E-01  0.5882352941E-01   0.000000000      0.1221249746E-02     797
    11  0.1176470588      0.5882352941E-01   0.000000000      0.2442499491E-02     788
    12  0.1764705882      0.5882352941E-01   0.000000000      0.2442499491E-02     789
    13  0.2352941176      0.5882352941E-01   0.000000000      0.2442499491E-02     780
    14  0.2941176471      0.5882352941E-01   0.000000000      0.2442499491E-02     775
    15  0.3529411765      0.5882352941E-01   0.000000000      0.2442499491E-02     767
    16  0.4117647059      0.5882352941E-01   0.000000000      0.2442499491E-02     767
    17  0.4705882353      0.5882352941E-01   0.000000000      0.1221249746E-02     766
    18  0.1176470588      0.1176470588       0.000000000      0.1221249746E-02     787
    19  0.1764705882      0.1176470588       0.000000000      0.2442499491E-02     783
    20  0.2352941176      0.1176470588       0.000000000      0.2442499491E-02     773
    21  0.2941176471      0.1176470588       0.000000000      0.2442499491E-02     766
    22  0.3529411765      0.1176470588       0.000000000      0.2442499491E-02     768
    23  0.4117647059      0.1176470588       0.000000000      0.2442499491E-02     768
    24  0.1764705882      0.1764705882       0.000000000      0.1221249746E-02     769
    25  0.2352941176      0.1764705882       0.000000000      0.2442499491E-02     768
    26  0.2941176471      0.1764705882       0.000000000      0.2442499491E-02     768
    27  0.3529411765      0.1764705882       0.000000000      0.2442499491E-02     770
    28  0.4117647059      0.1764705882       0.000000000      0.1221249746E-02     768
    29  0.2352941176      0.2352941176       0.000000000      0.1221249746E-02     773
    30  0.2941176471      0.2352941176       0.000000000      0.2442499491E-02     770
    31  0.3529411765      0.2352941176       0.000000000      0.2442499491E-02     770
    32  0.2941176471      0.2941176471       0.000000000      0.1221249746E-02     768
    33  0.3529411765      0.2941176471       0.000000000      0.1221249746E-02     770
    34   0.000000000       0.000000000      0.5882352941E-01  0.4070832485E-03     791
    35  0.5882352941E-01   0.000000000      0.5882352941E-01  0.2442499491E-02     790
    36  0.1176470588       0.000000000      0.5882352941E-01  0.2442499491E-02     788
    37  0.1764705882       0.000000000      0.5882352941E-01  0.2442499491E-02     788
    38  0.2352941176       0.000000000      0.5882352941E-01  0.2442499491E-02     783
    39  0.2941176471       0.000000000      0.5882352941E-01  0.2442499491E-02     778
    40  0.3529411765       0.000000000      0.5882352941E-01  0.2442499491E-02     774
    41  0.4117647059       0.000000000      0.5882352941E-01  0.2442499491E-02     774
    42  0.4705882353       0.000000000      0.5882352941E-01  0.2442499491E-02     769
    43  0.5882352941E-01  0.5882352941E-01  0.5882352941E-01  0.2442499491E-02     793
    44  0.1176470588      0.5882352941E-01  0.5882352941E-01  0.4884998982E-02     789
    45  0.1764705882      0.5882352941E-01  0.5882352941E-01  0.4884998982E-02     791
    46  0.2352941176      0.5882352941E-01  0.5882352941E-01  0.4884998982E-02     778
    47  0.2941176471      0.5882352941E-01  0.5882352941E-01  0.4884998982E-02     773
    48  0.3529411765      0.5882352941E-01  0.5882352941E-01  0.4884998982E-02     772
    49  0.4117647059      0.5882352941E-01  0.5882352941E-01  0.4884998982E-02     767
    50  0.4705882353      0.5882352941E-01  0.5882352941E-01  0.2442499491E-02     768
    51  0.1176470588      0.1176470588      0.5882352941E-01  0.2442499491E-02     788
    52  0.1764705882      0.1176470588      0.5882352941E-01  0.4884998982E-02     781
    53  0.2352941176      0.1176470588      0.5882352941E-01  0.4884998982E-02     770
    54  0.2941176471      0.1176470588      0.5882352941E-01  0.4884998982E-02     768
    55  0.3529411765      0.1176470588      0.5882352941E-01  0.4884998982E-02     768
    56  0.4117647059      0.1176470588      0.5882352941E-01  0.4884998982E-02     767
    57  0.1764705882      0.1764705882      0.5882352941E-01  0.2442499491E-02     771
    58  0.2352941176      0.1764705882      0.5882352941E-01  0.4884998982E-02     767
    59  0.2941176471      0.1764705882      0.5882352941E-01  0.4884998982E-02     769
    60  0.3529411765      0.1764705882      0.5882352941E-01  0.4884998982E-02     768
    61  0.4117647059      0.1764705882      0.5882352941E-01  0.2442499491E-02     772
    62  0.2352941176      0.2352941176      0.5882352941E-01  0.2442499491E-02     767
    63  0.2941176471      0.2352941176      0.5882352941E-01  0.4884998982E-02     764
    64  0.3529411765      0.2352941176      0.5882352941E-01  0.4884998982E-02     772
    65  0.2941176471      0.2941176471      0.5882352941E-01  0.2442499491E-02     770
    66  0.3529411765      0.2941176471      0.5882352941E-01  0.2442499491E-02     776
    67   0.000000000       0.000000000      0.1176470588      0.4070832485E-03     785
    68  0.5882352941E-01   0.000000000      0.1176470588      0.2442499491E-02     785
    69  0.1176470588       0.000000000      0.1176470588      0.2442499491E-02     787
    70  0.1764705882       0.000000000      0.1176470588      0.2442499491E-02     785
    71  0.2352941176       0.000000000      0.1176470588      0.2442499491E-02     785
    72  0.2941176471       0.000000000      0.1176470588      0.2442499491E-02     780
    73  0.3529411765       0.000000000      0.1176470588      0.2442499491E-02     774
    74  0.4117647059       0.000000000      0.1176470588      0.2442499491E-02     774
    75  0.4705882353       0.000000000      0.1176470588      0.2442499491E-02     767
    76  0.5882352941E-01  0.5882352941E-01  0.1176470588      0.2442499491E-02     787
    77  0.1176470588      0.5882352941E-01  0.1176470588      0.4884998982E-02     785
    78  0.1764705882      0.5882352941E-01  0.1176470588      0.4884998982E-02     784
    79  0.2352941176      0.5882352941E-01  0.1176470588      0.4884998982E-02     779
    80  0.2941176471      0.5882352941E-01  0.1176470588      0.4884998982E-02     771
    81  0.3529411765      0.5882352941E-01  0.1176470588      0.4884998982E-02     771
    82  0.4117647059      0.5882352941E-01  0.1176470588      0.4884998982E-02     773
    83  0.4705882353      0.5882352941E-01  0.1176470588      0.2442499491E-02     770
    84  0.1176470588      0.1176470588      0.1176470588      0.2442499491E-02     784
    85  0.1764705882      0.1176470588      0.1176470588      0.4884998982E-02     778
    86  0.2352941176      0.1176470588      0.1176470588      0.4884998982E-02     772
    87  0.2941176471      0.1176470588      0.1176470588      0.4884998982E-02     771
    88  0.3529411765      0.1176470588      0.1176470588      0.4884998982E-02     766
    89  0.4117647059      0.1176470588      0.1176470588      0.4884998982E-02     766
    90  0.1764705882      0.1764705882      0.1176470588      0.2442499491E-02     777
    91  0.2352941176      0.1764705882      0.1176470588      0.4884998982E-02     772
    92  0.2941176471      0.1764705882      0.1176470588      0.4884998982E-02     769
    93  0.3529411765      0.1764705882      0.1176470588      0.4884998982E-02     767
    94  0.4117647059      0.1764705882      0.1176470588      0.2442499491E-02     771
    95  0.2352941176      0.2352941176      0.1176470588      0.2442499491E-02     767
    96  0.2941176471      0.2352941176      0.1176470588      0.4884998982E-02     767
    97  0.3529411765      0.2352941176      0.1176470588      0.4884998982E-02     770
    98  0.2941176471      0.2941176471      0.1176470588      0.2442499491E-02     766
    99  0.3529411765      0.2941176471      0.1176470588      0.2442499491E-02     776
   100   0.000000000       0.000000000      0.1764705882      0.4070832485E-03     785
   101  0.5882352941E-01   0.000000000      0.1764705882      0.2442499491E-02     787
   102  0.1176470588       0.000000000      0.1764705882      0.2442499491E-02     783
   103  0.1764705882       0.000000000      0.1764705882      0.2442499491E-02     781
   104  0.2352941176       0.000000000      0.1764705882      0.2442499491E-02     782
   105  0.2941176471       0.000000000      0.1764705882      0.2442499491E-02     778
   106  0.3529411765       0.000000000      0.1764705882      0.2442499491E-02     773
   107  0.4117647059       0.000000000      0.1764705882      0.2442499491E-02     770
   108  0.4705882353       0.000000000      0.1764705882      0.2442499491E-02     767
   109  0.5882352941E-01  0.5882352941E-01  0.1764705882      0.2442499491E-02     782
   110  0.1176470588      0.5882352941E-01  0.1764705882      0.4884998982E-02     783
   111  0.1764705882      0.5882352941E-01  0.1764705882      0.4884998982E-02     779
   112  0.2352941176      0.5882352941E-01  0.1764705882      0.4884998982E-02     775
   113  0.2941176471      0.5882352941E-01  0.1764705882      0.4884998982E-02     773
   114  0.3529411765      0.5882352941E-01  0.1764705882      0.4884998982E-02     773
   115  0.4117647059      0.5882352941E-01  0.1764705882      0.4884998982E-02     769
   116  0.4705882353      0.5882352941E-01  0.1764705882      0.2442499491E-02     770
   117  0.1176470588      0.1176470588      0.1764705882      0.2442499491E-02     784
   118  0.1764705882      0.1176470588      0.1764705882      0.4884998982E-02     777
   119  0.2352941176      0.1176470588      0.1764705882      0.4884998982E-02     775
   120  0.2941176471      0.1176470588      0.1764705882      0.4884998982E-02     774
   121  0.3529411765      0.1176470588      0.1764705882      0.4884998982E-02     771
   122  0.4117647059      0.1176470588      0.1764705882      0.4884998982E-02     767
   123  0.1764705882      0.1764705882      0.1764705882      0.2442499491E-02     777
   124  0.2352941176      0.1764705882      0.1764705882      0.4884998982E-02     776
   125  0.2941176471      0.1764705882      0.1764705882      0.4884998982E-02     771
   126  0.3529411765      0.1764705882      0.1764705882      0.4884998982E-02     768
   127  0.4117647059      0.1764705882      0.1764705882      0.2442499491E-02     766
   128  0.2352941176      0.2352941176      0.1764705882      0.2442499491E-02     769
   129  0.2941176471      0.2352941176      0.1764705882      0.4884998982E-02     769
   130  0.3529411765      0.2352941176      0.1764705882      0.4884998982E-02     771
   131  0.2941176471      0.2941176471      0.1764705882      0.2442499491E-02     772
   132  0.3529411765      0.2941176471      0.1764705882      0.2442499491E-02     771
   133   0.000000000       0.000000000      0.2352941176      0.4070832485E-03     785
   134  0.5882352941E-01   0.000000000      0.2352941176      0.2442499491E-02     787
   135  0.1176470588       0.000000000      0.2352941176      0.2442499491E-02     781
   136  0.1764705882       0.000000000      0.2352941176      0.2442499491E-02     782
   137  0.2352941176       0.000000000      0.2352941176      0.2442499491E-02     781
   138  0.2941176471       0.000000000      0.2352941176      0.2442499491E-02     779
   139  0.3529411765       0.000000000      0.2352941176      0.2442499491E-02     771
   140  0.4117647059       0.000000000      0.2352941176      0.2442499491E-02     769
   141  0.4705882353       0.000000000      0.2352941176      0.2442499491E-02     768
   142  0.5882352941E-01  0.5882352941E-01  0.2352941176      0.2442499491E-02     782
   143  0.1176470588      0.5882352941E-01  0.2352941176      0.4884998982E-02     779
   144  0.1764705882      0.5882352941E-01  0.2352941176      0.4884998982E-02     779
   145  0.2352941176      0.5882352941E-01  0.2352941176      0.4884998982E-02     778
   146  0.2941176471      0.5882352941E-01  0.2352941176      0.4884998982E-02     777
   147  0.3529411765      0.5882352941E-01  0.2352941176      0.4884998982E-02     773
   148  0.4117647059      0.5882352941E-01  0.2352941176      0.4884998982E-02     770
   149  0.4705882353      0.5882352941E-01  0.2352941176      0.2442499491E-02     768
   150  0.1176470588      0.1176470588      0.2352941176      0.2442499491E-02     782
   151  0.1764705882      0.1176470588      0.2352941176      0.4884998982E-02     778
   152  0.2352941176      0.1176470588      0.2352941176      0.4884998982E-02     775
   153  0.2941176471      0.1176470588      0.2352941176      0.4884998982E-02     775
   154  0.3529411765      0.1176470588      0.2352941176      0.4884998982E-02     769
   155  0.4117647059      0.1176470588      0.2352941176      0.4884998982E-02     767
   156  0.1764705882      0.1764705882      0.2352941176      0.2442499491E-02     775
   157  0.2352941176      0.1764705882      0.2352941176      0.4884998982E-02     772
   158  0.2941176471      0.1764705882      0.2352941176      0.4884998982E-02     768
   159  0.3529411765      0.1764705882      0.2352941176      0.4884998982E-02     768
   160  0.4117647059      0.1764705882      0.2352941176      0.2442499491E-02     767
   161  0.2352941176      0.2352941176      0.2352941176      0.2442499491E-02     768
   162  0.2941176471      0.2352941176      0.2352941176      0.4884998982E-02     766
   163  0.3529411765      0.2352941176      0.2352941176      0.4884998982E-02     771
   164  0.2941176471      0.2941176471      0.2352941176      0.2442499491E-02     768
   165  0.3529411765      0.2941176471      0.2352941176      0.2442499491E-02     768
   166   0.000000000       0.000000000      0.2941176471      0.4070832485E-03     773
   167  0.5882352941E-01   0.000000000      0.2941176471      0.2442499491E-02     781
   168  0.1176470588       0.000000000      0.2941176471      0.2442499491E-02     779
   169  0.1764705882       0.000000000      0.2941176471      0.2442499491E-02     778
   170  0.2352941176       0.000000000      0.2941176471      0.2442499491E-02     782
   171  0.2941176471       0.000000000      0.2941176471      0.2442499491E-02     772
   172  0.3529411765       0.000000000      0.2941176471      0.2442499491E-02     771
   173  0.4117647059       0.000000000      0.2941176471      0.2442499491E-02     771
   174  0.4705882353       0.000000000      0.2941176471      0.2442499491E-02     766
   175  0.5882352941E-01  0.5882352941E-01  0.2941176471      0.2442499491E-02     776
   176  0.1176470588      0.5882352941E-01  0.2941176471      0.4884998982E-02     779
   177  0.1764705882      0.5882352941E-01  0.2941176471      0.4884998982E-02     779
   178  0.2352941176      0.5882352941E-01  0.2941176471      0.4884998982E-02     781
   179  0.2941176471      0.5882352941E-01  0.2941176471      0.4884998982E-02     778
   180  0.3529411765      0.5882352941E-01  0.2941176471      0.4884998982E-02     770
   181  0.4117647059      0.5882352941E-01  0.2941176471      0.4884998982E-02     770
   182  0.4705882353      0.5882352941E-01  0.2941176471      0.2442499491E-02     768
   183  0.1176470588      0.1176470588      0.2941176471      0.2442499491E-02     779
   184  0.1764705882      0.1176470588      0.2941176471      0.4884998982E-02     778
   185  0.2352941176      0.1176470588      0.2941176471      0.4884998982E-02     777
   186  0.2941176471      0.1176470588      0.2941176471      0.4884998982E-02     773
   187  0.3529411765      0.1176470588      0.2941176471      0.4884998982E-02     769
   188  0.4117647059      0.1176470588      0.2941176471      0.4884998982E-02     764
   189  0.1764705882      0.1764705882      0.2941176471      0.2442499491E-02     774
   190  0.2352941176      0.1764705882      0.2941176471      0.4884998982E-02     772
   191  0.2941176471      0.1764705882      0.2941176471      0.4884998982E-02     766
   192  0.3529411765      0.1764705882      0.2941176471      0.4884998982E-02     767
   193  0.4117647059      0.1764705882      0.2941176471      0.2442499491E-02     769
   194  0.2352941176      0.2352941176      0.2941176471      0.2442499491E-02     769
   195  0.2941176471      0.2352941176      0.2941176471      0.4884998982E-02     768
   196  0.3529411765      0.2352941176      0.2941176471      0.4884998982E-02     767
   197  0.2941176471      0.2941176471      0.2941176471      0.2442499491E-02     772
   198  0.3529411765      0.2941176471      0.2941176471      0.2442499491E-02     772
   199   0.000000000       0.000000000      0.3529411765      0.4070832485E-03     772
   200  0.5882352941E-01   0.000000000      0.3529411765      0.2442499491E-02     777
   201  0.1176470588       0.000000000      0.3529411765      0.2442499491E-02     773
   202  0.1764705882       0.000000000      0.3529411765      0.2442499491E-02     779
   203  0.2352941176       0.000000000      0.3529411765      0.2442499491E-02     773
   204  0.2941176471       0.000000000      0.3529411765      0.2442499491E-02     773
   205  0.3529411765       0.000000000      0.3529411765      0.2442499491E-02     774
   206  0.4117647059       0.000000000      0.3529411765      0.2442499491E-02     772
   207  0.4705882353       0.000000000      0.3529411765      0.2442499491E-02     766
   208  0.5882352941E-01  0.5882352941E-01  0.3529411765      0.2442499491E-02     775
   209  0.1176470588      0.5882352941E-01  0.3529411765      0.4884998982E-02     776
   210  0.1764705882      0.5882352941E-01  0.3529411765      0.4884998982E-02     780
   211  0.2352941176      0.5882352941E-01  0.3529411765      0.4884998982E-02     776
   212  0.2941176471      0.5882352941E-01  0.3529411765      0.4884998982E-02     775
   213  0.3529411765      0.5882352941E-01  0.3529411765      0.4884998982E-02     770
   214  0.4117647059      0.5882352941E-01  0.3529411765      0.4884998982E-02     769
   215  0.4705882353      0.5882352941E-01  0.3529411765      0.2442499491E-02     763
   216  0.1176470588      0.1176470588      0.3529411765      0.2442499491E-02     779
   217  0.1764705882      0.1176470588      0.3529411765      0.4884998982E-02     780
   218  0.2352941176      0.1176470588      0.3529411765      0.4884998982E-02     776
   219  0.2941176471      0.1176470588      0.3529411765      0.4884998982E-02     773
   220  0.3529411765      0.1176470588      0.3529411765      0.4884998982E-02     769
   221  0.4117647059      0.1176470588      0.3529411765      0.4884998982E-02     763
   222  0.1764705882      0.1764705882      0.3529411765      0.2442499491E-02     778
   223  0.2352941176      0.1764705882      0.3529411765      0.4884998982E-02     774
   224  0.2941176471      0.1764705882      0.3529411765      0.4884998982E-02     770
   225  0.3529411765      0.1764705882      0.3529411765      0.4884998982E-02     768
   226  0.4117647059      0.1764705882      0.3529411765      0.2442499491E-02     766
   227  0.2352941176      0.2352941176      0.3529411765      0.2442499491E-02     769
   228  0.2941176471      0.2352941176      0.3529411765      0.4884998982E-02     771
   229  0.3529411765      0.2352941176      0.3529411765      0.4884998982E-02     772
   230  0.2941176471      0.2941176471      0.3529411765      0.2442499491E-02     772
   231  0.3529411765      0.2941176471      0.3529411765      0.2442499491E-02     772
   232   0.000000000       0.000000000      0.4117647059      0.4070832485E-03     778
   233  0.5882352941E-01   0.000000000      0.4117647059      0.2442499491E-02     777
   234  0.1176470588       0.000000000      0.4117647059      0.2442499491E-02     774
   235  0.1764705882       0.000000000      0.4117647059      0.2442499491E-02     775
   236  0.2352941176       0.000000000      0.4117647059      0.2442499491E-02     771
   237  0.2941176471       0.000000000      0.4117647059      0.2442499491E-02     773
   238  0.3529411765       0.000000000      0.4117647059      0.2442499491E-02     779
   239  0.4117647059       0.000000000      0.4117647059      0.2442499491E-02     770
   240  0.4705882353       0.000000000      0.4117647059      0.2442499491E-02     767
   241  0.5882352941E-01  0.5882352941E-01  0.4117647059      0.2442499491E-02     777
   242  0.1176470588      0.5882352941E-01  0.4117647059      0.4884998982E-02     780
   243  0.1764705882      0.5882352941E-01  0.4117647059      0.4884998982E-02     780
   244  0.2352941176      0.5882352941E-01  0.4117647059      0.4884998982E-02     776
   245  0.2941176471      0.5882352941E-01  0.4117647059      0.4884998982E-02     770
   246  0.3529411765      0.5882352941E-01  0.4117647059      0.4884998982E-02     771
   247  0.4117647059      0.5882352941E-01  0.4117647059      0.4884998982E-02     767
   248  0.4705882353      0.5882352941E-01  0.4117647059      0.2442499491E-02     765
   249  0.1176470588      0.1176470588      0.4117647059      0.2442499491E-02     780
   250  0.1764705882      0.1176470588      0.4117647059      0.4884998982E-02     784
   251  0.2352941176      0.1176470588      0.4117647059      0.4884998982E-02     778
   252  0.2941176471      0.1176470588      0.4117647059      0.4884998982E-02     774
   253  0.3529411765      0.1176470588      0.4117647059      0.4884998982E-02     772
   254  0.4117647059      0.1176470588      0.4117647059      0.4884998982E-02     764
   255  0.1764705882      0.1764705882      0.4117647059      0.2442499491E-02     778
   256  0.2352941176      0.1764705882      0.4117647059      0.4884998982E-02     774
   257  0.2941176471      0.1764705882      0.4117647059      0.4884998982E-02     772
   258  0.3529411765      0.1764705882      0.4117647059      0.4884998982E-02     767
   259  0.4117647059      0.1764705882      0.4117647059      0.2442499491E-02     768
   260  0.2352941176      0.2352941176      0.4117647059      0.2442499491E-02     771
   261  0.2941176471      0.2352941176      0.4117647059      0.4884998982E-02     772
   262  0.3529411765      0.2352941176      0.4117647059      0.4884998982E-02     771
   263  0.2941176471      0.2941176471      0.4117647059      0.2442499491E-02     774
   264  0.3529411765      0.2941176471      0.4117647059      0.2442499491E-02     772
   265   0.000000000       0.000000000      0.4705882353      0.4070832485E-03     784
   266  0.5882352941E-01   0.000000000      0.4705882353      0.2442499491E-02     775
   267  0.1176470588       0.000000000      0.4705882353      0.2442499491E-02     776
   268  0.1764705882       0.000000000      0.4705882353      0.2442499491E-02     776
   269  0.2352941176       0.000000000      0.4705882353      0.2442499491E-02     775
   270  0.2941176471       0.000000000      0.4705882353      0.2442499491E-02     772
   271  0.3529411765       0.000000000      0.4705882353      0.2442499491E-02     774
   272  0.4117647059       0.000000000      0.4705882353      0.2442499491E-02     766
   273  0.4705882353       0.000000000      0.4705882353      0.2442499491E-02     768
   274  0.5882352941E-01  0.5882352941E-01  0.4705882353      0.2442499491E-02     772
   275  0.1176470588      0.5882352941E-01  0.4705882353      0.4884998982E-02     779
   276  0.1764705882      0.5882352941E-01  0.4705882353      0.4884998982E-02     780
   277  0.2352941176      0.5882352941E-01  0.4705882353      0.4884998982E-02     777
   278  0.2941176471      0.5882352941E-01  0.4705882353      0.4884998982E-02     771
   279  0.3529411765      0.5882352941E-01  0.4705882353      0.4884998982E-02     774
   280  0.4117647059      0.5882352941E-01  0.4705882353      0.4884998982E-02     765
   281  0.4705882353      0.5882352941E-01  0.4705882353      0.2442499491E-02     763
   282  0.1176470588      0.1176470588      0.4705882353      0.2442499491E-02     776
   283  0.1764705882      0.1176470588      0.4705882353      0.4884998982E-02     782
   284  0.2352941176      0.1176470588      0.4705882353      0.4884998982E-02     778
   285  0.2941176471      0.1176470588      0.4705882353      0.4884998982E-02     775
   286  0.3529411765      0.1176470588      0.4705882353      0.4884998982E-02     771
   287  0.4117647059      0.1176470588      0.4705882353      0.4884998982E-02     767
   288  0.1764705882      0.1764705882      0.4705882353      0.2442499491E-02     784
   289  0.2352941176      0.1764705882      0.4705882353      0.4884998982E-02     777
   290  0.2941176471      0.1764705882      0.4705882353      0.4884998982E-02     773
   291  0.3529411765      0.1764705882      0.4705882353      0.4884998982E-02     768
   292  0.4117647059      0.1764705882      0.4705882353      0.2442499491E-02     766
   293  0.2352941176      0.2352941176      0.4705882353      0.2442499491E-02     771
   294  0.2941176471      0.2352941176      0.4705882353      0.4884998982E-02     772
   295  0.3529411765      0.2352941176      0.4705882353      0.4884998982E-02     771
   296  0.2941176471      0.2941176471      0.4705882353      0.2442499491E-02     778
   297  0.3529411765      0.2941176471      0.4705882353      0.2442499491E-02     772
