 
Species :    1 (Y), atom :    1
 APW functions :
  l =  0, energy derivative =  0 :   0.2136276053    
  l =  1, energy derivative =  0 :   0.2136276053    
  l =  2, energy derivative =  0 :   0.2136276053    
  l =  3, energy derivative =  0 :   0.2136276053    
  l =  4, energy derivative =  0 :   0.2136276053    
  l =  5, energy derivative =  0 :   0.2136276053    
  l =  6, energy derivative =  0 :   0.2136276053    
  l =  7, energy derivative =  0 :   0.2136276053    
  l =  8, energy derivative =  0 :   0.2136276053    
  l =  9, energy derivative =  0 :   0.2136276053    
  l = 10, energy derivative =  0 :   0.2136276053    
 local-orbital functions :
  l.o. =  1, l =  0, energy derivative =  0 :   0.2136276053    
  l.o. =  1, l =  0, energy derivative =  1 :   0.2136276053    
  l.o. =  2, l =  1, energy derivative =  0 :   0.2136276053    
  l.o. =  2, l =  1, energy derivative =  1 :   0.2136276053    
  l.o. =  3, l =  2, energy derivative =  0 :   0.2136276053    
  l.o. =  3, l =  2, energy derivative =  1 :   0.2136276053    
  l.o. =  4, l =  0, energy derivative =  0 :   0.2136276053    
  l.o. =  4, l =  0, energy derivative =  0 :   -1.251934693    
  l.o. =  5, l =  1, energy derivative =  0 :   0.2136276053    
  l.o. =  5, l =  1, energy derivative =  0 :  -0.4992246727    
  l.o. =  6, l =  3, energy derivative =  0 :   0.2136276053    
  l.o. =  6, l =  3, energy derivative =  1 :   0.2136276053    
  l.o. =  7, l =  4, energy derivative =  0 :   0.2136276053    
  l.o. =  7, l =  4, energy derivative =  1 :   0.2136276053    
  l.o. =  8, l =  5, energy derivative =  0 :   0.2136276053    
  l.o. =  8, l =  5, energy derivative =  1 :   0.2136276053    
  l.o. =  9, l =  0, energy derivative =  0 :    1.517513685    
  l.o. =  9, l =  0, energy derivative =  1 :    1.517513685    
  l.o. =  9, l =  0, energy derivative =  2 :    1.517513685    
  l.o. = 10, l =  1, energy derivative =  0 :    2.080241841    
  l.o. = 10, l =  1, energy derivative =  1 :    2.080241841    
  l.o. = 10, l =  1, energy derivative =  2 :    2.080241841    
  l.o. = 11, l =  2, energy derivative =  0 :   0.6140244738    
  l.o. = 11, l =  2, energy derivative =  1 :   0.6140244738    
  l.o. = 11, l =  2, energy derivative =  2 :   0.6140244738    
  l.o. = 12, l =  3, energy derivative =  0 :    1.700433530    
  l.o. = 12, l =  3, energy derivative =  1 :    1.700433530    
  l.o. = 12, l =  3, energy derivative =  2 :    1.700433530    
  l.o. = 13, l =  4, energy derivative =  0 :    3.117728412    
  l.o. = 13, l =  4, energy derivative =  1 :    3.117728412    
  l.o. = 13, l =  4, energy derivative =  2 :    3.117728412    
  l.o. = 14, l =  5, energy derivative =  0 :    4.539107908    
  l.o. = 14, l =  5, energy derivative =  1 :    4.539107908    
  l.o. = 14, l =  5, energy derivative =  2 :    4.539107908    
  l.o. = 15, l =  6, energy derivative =  0 :    6.078592936    
  l.o. = 15, l =  6, energy derivative =  1 :    6.078592936    
  l.o. = 15, l =  6, energy derivative =  2 :    6.078592936    
  l.o. = 16, l =  7, energy derivative =  0 :    7.761087621    
  l.o. = 16, l =  7, energy derivative =  1 :    7.761087621    
  l.o. = 16, l =  7, energy derivative =  2 :    7.761087621    
  l.o. = 17, l =  8, energy derivative =  0 :    9.595618981    
  l.o. = 17, l =  8, energy derivative =  1 :    9.595618981    
  l.o. = 17, l =  8, energy derivative =  2 :    9.595618981    
 
Species :    1 (Y), atom :    2
 APW functions :
  l =  0, energy derivative =  0 :   0.2136276053    
  l =  1, energy derivative =  0 :   0.2136276053    
  l =  2, energy derivative =  0 :   0.2136276053    
  l =  3, energy derivative =  0 :   0.2136276053    
  l =  4, energy derivative =  0 :   0.2136276053    
  l =  5, energy derivative =  0 :   0.2136276053    
  l =  6, energy derivative =  0 :   0.2136276053    
  l =  7, energy derivative =  0 :   0.2136276053    
  l =  8, energy derivative =  0 :   0.2136276053    
  l =  9, energy derivative =  0 :   0.2136276053    
  l = 10, energy derivative =  0 :   0.2136276053    
 local-orbital functions :
  l.o. =  1, l =  0, energy derivative =  0 :   0.2136276053    
  l.o. =  1, l =  0, energy derivative =  1 :   0.2136276053    
  l.o. =  2, l =  1, energy derivative =  0 :   0.2136276053    
  l.o. =  2, l =  1, energy derivative =  1 :   0.2136276053    
  l.o. =  3, l =  2, energy derivative =  0 :   0.2136276053    
  l.o. =  3, l =  2, energy derivative =  1 :   0.2136276053    
  l.o. =  4, l =  0, energy derivative =  0 :   0.2136276053    
  l.o. =  4, l =  0, energy derivative =  0 :   -1.251934693    
  l.o. =  5, l =  1, energy derivative =  0 :   0.2136276053    
  l.o. =  5, l =  1, energy derivative =  0 :  -0.4992246727    
  l.o. =  6, l =  3, energy derivative =  0 :   0.2136276053    
  l.o. =  6, l =  3, energy derivative =  1 :   0.2136276053    
  l.o. =  7, l =  4, energy derivative =  0 :   0.2136276053    
  l.o. =  7, l =  4, energy derivative =  1 :   0.2136276053    
  l.o. =  8, l =  5, energy derivative =  0 :   0.2136276053    
  l.o. =  8, l =  5, energy derivative =  1 :   0.2136276053    
  l.o. =  9, l =  0, energy derivative =  0 :    1.517513685    
  l.o. =  9, l =  0, energy derivative =  1 :    1.517513685    
  l.o. =  9, l =  0, energy derivative =  2 :    1.517513685    
  l.o. = 10, l =  1, energy derivative =  0 :    2.080241841    
  l.o. = 10, l =  1, energy derivative =  1 :    2.080241841    
  l.o. = 10, l =  1, energy derivative =  2 :    2.080241841    
  l.o. = 11, l =  2, energy derivative =  0 :   0.6140244738    
  l.o. = 11, l =  2, energy derivative =  1 :   0.6140244738    
  l.o. = 11, l =  2, energy derivative =  2 :   0.6140244738    
  l.o. = 12, l =  3, energy derivative =  0 :    1.700433530    
  l.o. = 12, l =  3, energy derivative =  1 :    1.700433530    
  l.o. = 12, l =  3, energy derivative =  2 :    1.700433530    
  l.o. = 13, l =  4, energy derivative =  0 :    3.117728412    
  l.o. = 13, l =  4, energy derivative =  1 :    3.117728412    
  l.o. = 13, l =  4, energy derivative =  2 :    3.117728412    
  l.o. = 14, l =  5, energy derivative =  0 :    4.539107908    
  l.o. = 14, l =  5, energy derivative =  1 :    4.539107908    
  l.o. = 14, l =  5, energy derivative =  2 :    4.539107908    
  l.o. = 15, l =  6, energy derivative =  0 :    6.078592936    
  l.o. = 15, l =  6, energy derivative =  1 :    6.078592936    
  l.o. = 15, l =  6, energy derivative =  2 :    6.078592936    
  l.o. = 16, l =  7, energy derivative =  0 :    7.761087621    
  l.o. = 16, l =  7, energy derivative =  1 :    7.761087621    
  l.o. = 16, l =  7, energy derivative =  2 :    7.761087621    
  l.o. = 17, l =  8, energy derivative =  0 :    9.595618981    
  l.o. = 17, l =  8, energy derivative =  1 :    9.595618981    
  l.o. = 17, l =  8, energy derivative =  2 :    9.595618981    
