    0.725799162942E-04
    0.811199692513E-04
    0.951510568384E-04
    0.206743195950E-03
    0.290652547653E-03
    0.416351580581E-03
    0.426633782293E-03
    0.438875002629E-03
    0.438164609171E-03
    0.437948420847E-03
    0.438083119364E-03
    0.438084080206E-03
    0.438137114344E-03
    0.438169437613E-03
    0.438182532406E-03
    0.438182968017E-03
    0.438192985763E-03
    0.438189977751E-03
    0.438205660173E-03
    0.438199037801E-03
    0.438198467965E-03
    0.438200764286E-03
    0.438199746703E-03
    0.438199707335E-03
    0.438198319027E-03
    0.438198354983E-03
    0.438197572587E-03
    0.438200048659E-03
    0.438199896343E-03
    0.438200288481E-03
    0.438199969595E-03
    0.438199700317E-03
    0.438199594754E-03
    0.438199558072E-03
    0.438199583976E-03
    0.438199611506E-03
    0.438199470144E-03
    0.438199404066E-03
    0.438199487231E-03
