+----------------------------+
| Elk version 8.3.15 started |
+----------------------------+
 
Date (YYYY-MM-DD) : 2022-02-24
Time (hh:mm:ss)   : 04:03:21
 
All units are atomic (Hartree, Bohr, etc.)
 
+------------------------------------------+
| Ground-state run resuming from STATE.OUT |
+------------------------------------------+
 
Lattice vectors :
   5.365897099      -3.098002135       0.000000000    
   0.000000000       6.196004269       0.000000000    
   0.000000000       0.000000000       9.330861503    
 
Reciprocal lattice vectors :
   1.170947782       0.000000000       0.000000000    
  0.5854738911       1.014070526       0.000000000    
   0.000000000       0.000000000      0.6733767622    
 
Unit cell volume      :    310.2242846    
Brillouin zone volume :   0.7995834813    
 
Muffin-tin inner radius fraction :   0.1000000000E-01
 
Species :    1 (Sc)
 parameters loaded from : Sc.in
 name : scandium
 nuclear charge    :   -21.00000000    
 electronic charge :    21.00000000    
 atomic mass :    81949.61066    
 muffin-tin radius :    2.400000000    
 number of radial points in muffin-tin :   1000
 number on inner part of muffin-tin    :    716
 atomic positions (lattice), magnetic fields (Cartesian) :
   1 :   0.33333333  0.16666667  0.25000000    0.00000000  0.00000000  0.00000000
   2 :  -0.33333333 -0.16666667 -0.25000000    0.00000000  0.00000000  0.00000000
 
Total number of atoms per unit cell :    2
 
Spin treatment :
 spin-unpolarised
 
Number of Bravais lattice symmetries :   24
Number of crystal symmetries         :   24
Crystal has inversion symmetry
Real symmetric eigensolver will be used
 
k-point grid :     17    17    17
k-point offset :    0.000000000       0.000000000       0.000000000    
k-point set is reduced with full crystal symmetry group
Total number of k-points :      297
 
Muffin-tin radius times maximum |G+k| :    8.500000000    
 using gkmax = rgkmax / 2
Maximum |G+k| for APW functions       :    4.250000000    
Maximum (1/2)|G+k|²                   :    9.031250000    
Maximum |G| for potential and density :    34.00000000    
Constant for pseudocharge density :   20
Radial integration step length :    1
 
G-vector grid sizes :     72    72   108
Number of G-vectors :   206003
 
Maximum angular momentum used for
 APW functions                      :   10
 outer part of muffin-tin           :    8
 inner part of muffin-tin           :    1
 
Total nuclear charge    :   -42.00000000    
Total core charge       :    20.00000000    
Total valence charge    :    22.00000000    
Total excess charge     :    0.000000000    
Total electronic charge :    42.00000000    
 
Effective Wigner radius, rₛ :    1.208127112    
 
Number of empty states         :   40
Total number of valence states :   52
Total number of core states    :   20
 
Conduction state local-orbitals added automatically
Total number of local-orbitals :  242
 
Using Libxc version 05.01.05
Exchange-correlation functional :    100   493   494
 exchange: mgga_x_rscan; correlation: mgga_c_rscan
 
Smearing type :    1
 Methfessel-Paxton order 1, Phys. Rev. B 40, 3616 (1989)
Smearing width :   0.1000000000E-02
Effective electronic temperature (K) :    315.7750248    
 
Mixing type :    3
 Broyden mixing, J. Phys. A: Math. Gen. 17, L317 (1984)
 
Potential read in from STATE.OUT
 
+------------------------------+
| Self-consistent loop started |
+------------------------------+
 
+--------------------+
| Loop number :    1 |
+--------------------+
 
Energies :
 Fermi                       :     0.270818851277    
 sum of eigenvalues          :     -892.943160115    
 electron kinetic            :      1546.33378846    
 core electron kinetic       :      1433.77727468    
 Coulomb                     :     -2996.40867568    
 Coulomb potential           :     -2335.07883674    
 nuclear-nuclear             :     -200.861677929    
 electron-nuclear            :     -3256.01515876    
 Hartree                     :      460.468161011    
 Madelung                    :     -1828.86925731    
 xc potential                :     -104.198111834    
 exchange                    :     -77.2524497373    
 correlation                 :     -1.78086820227    
 total energy                :     -1529.10820516    
 
Density of states at Fermi energy :    130.0423501    
 (states/Hartree/unit cell)
 
Estimated indirect band gap :   0.7257991629E-04
 from k-point    207 to k-point    153
Estimated direct band gap   :   0.2563482535E-02
 at k-point    297
 
Charges :
 core                        :    20.00000000    
 valence                     :    22.00000000    
 interstitial                :    3.733030507    
 muffin-tins (core leakage)
  species :    1 (Sc)
   atom    1                 :    19.13348475     (  0.6498064309E-08)
   atom    2                 :    19.13348475     (  0.6498064309E-08)
 total in muffin-tins        :    38.26696949    
 total calculated charge     :    41.99999618    
 total charge                :    42.00000000    
 error                       :   0.3819858485E-05
 
Time (CPU seconds) :        69.04
 
+--------------------+
| Loop number :    2 |
+--------------------+
 
Energies :
 Fermi                       :     0.270816132820    
 sum of eigenvalues          :     -892.943588371    
 electron kinetic            :      1546.33292975    
 core electron kinetic       :      1433.77707070    
 Coulomb                     :     -2996.40911943    
 Coulomb potential           :     -2335.07832950    
 nuclear-nuclear             :     -200.861677929    
 electron-nuclear            :     -3256.01655350    
 Hartree                     :      460.469111998    
 Madelung                    :     -1828.86995468    
 xc potential                :     -104.198188624    
 exchange                    :     -77.2525008316    
 correlation                 :     -1.78087066172    
 total energy                :     -1529.10956117    
 
Density of states at Fermi energy :    129.4728043    
 (states/Hartree/unit cell)
 
Estimated indirect band gap :   0.8111996925E-04
 from k-point    207 to k-point    153
Estimated direct band gap   :   0.2557473216E-02
 at k-point    297
 
Charges :
 core                        :    20.00000000    
 valence                     :    22.00000000    
 interstitial                :    3.732921852    
 muffin-tins (core leakage)
  species :    1 (Sc)
   atom    1                 :    19.13353907     (  0.6546315490E-08)
   atom    2                 :    19.13353907     (  0.6546315490E-08)
 total in muffin-tins        :    38.26707815    
 total calculated charge     :    41.99999619    
 total charge                :    42.00000000    
 error                       :   0.3811274624E-05
 
Wrote STATE.OUT
 
RMS change in Kohn-Sham potential (target) :   0.1620622808E-01 (   10.00000000    )
Absolute change in total energy (target)   :   0.1356006519E-02 (  0.1000000000E-07)
 
Time (CPU seconds) :       141.27
 
+--------------------+
| Loop number :    3 |
+--------------------+
 
Energies :
 Fermi                       :     0.270815035717    
 sum of eigenvalues          :     -892.943714197    
 electron kinetic            :      1546.33224465    
 core electron kinetic       :      1433.77783007    
 Coulomb                     :     -2996.40928914    
 Coulomb potential           :     -2335.07771839    
 nuclear-nuclear             :     -200.861677929    
 electron-nuclear            :     -3256.01750403    
 Hartree                     :      460.469892822    
 Madelung                    :     -1828.87042995    
 xc potential                :     -104.198240454    
 exchange                    :     -77.2525300638    
 correlation                 :     -1.78087427854    
 total energy                :     -1529.11044884    
 
Density of states at Fermi energy :    128.5823257    
 (states/Hartree/unit cell)
 
Estimated indirect band gap :   0.9515105684E-04
 from k-point    207 to k-point    153
Estimated direct band gap   :   0.2548043613E-02
 at k-point    297
 
Charges :
 core                        :    20.00000000    
 valence                     :    22.00000000    
 interstitial                :    3.732798177    
 muffin-tins (core leakage)
  species :    1 (Sc)
   atom    1                 :    19.13360091     (  0.6560149757E-08)
   atom    2                 :    19.13360091     (  0.6560149757E-08)
 total in muffin-tins        :    38.26720182    
 total calculated charge     :    41.99999620    
 total charge                :    42.00000000    
 error                       :   0.3796916673E-05
 
RMS change in Kohn-Sham potential (target) :   0.1592938824E-01 (   10.00000000    )
Absolute change in total energy (target)   :   0.1226671208E-02 (  0.1000000000E-07)
 
Time (CPU seconds) :       214.27
 
+--------------------+
| Loop number :    4 |
+--------------------+
 
Energies :
 Fermi                       :     0.270792772640    
 sum of eigenvalues          :     -892.946599199    
 electron kinetic            :      1546.31515430    
 core electron kinetic       :      1433.77747607    
 Coulomb                     :     -2996.41343533    
 Coulomb potential           :     -2335.06218305    
 nuclear-nuclear             :     -200.861677929    
 electron-nuclear            :     -3256.04133175    
 Hartree                     :      460.489574351    
 Madelung                    :     -1828.88234380    
 xc potential                :     -104.199570452    
 exchange                    :     -77.2532790370    
 correlation                 :     -1.78096382448    
 total energy                :     -1529.13252389    
 
Density of states at Fermi energy :    110.4698740    
 (states/Hartree/unit cell)
 
Estimated indirect band gap :   0.2067431960E-03
 from k-point    187 to k-point     47
Estimated direct band gap   :   0.2321512773E-02
 at k-point    297
 
Charges :
 core                        :    20.00000000    
 valence                     :    22.00000000    
 interstitial                :    3.729597950    
 muffin-tins (core leakage)
  species :    1 (Sc)
   atom    1                 :    19.13520102     (  0.6549942810E-08)
   atom    2                 :    19.13520102     (  0.6549942810E-08)
 total in muffin-tins        :    38.27040205    
 total calculated charge     :    41.99999656    
 total charge                :    42.00000000    
 error                       :   0.3441055384E-05
 
Wrote STATE.OUT
 
RMS change in Kohn-Sham potential (target) :   0.8890518126E-02 (   10.00000000    )
Absolute change in total energy (target)   :   0.2238171844E-01 (  0.1000000000E-07)
 
Time (CPU seconds) :       289.18
 
+--------------------+
| Loop number :    5 |
+--------------------+
 
Energies :
 Fermi                       :     0.270790445220    
 sum of eigenvalues          :     -892.948305604    
 electron kinetic            :      1546.30383275    
 core electron kinetic       :      1433.77771402    
 Coulomb                     :     -2996.41643433    
 Coulomb potential           :     -2335.05161937    
 nuclear-nuclear             :     -200.861677929    
 electron-nuclear            :     -3256.05789343    
 Hartree                     :      460.503137030    
 Madelung                    :     -1828.89062464    
 xc potential                :     -104.200518989    
 exchange                    :     -77.2538069557    
 correlation                 :     -1.78102661147    
 total energy                :     -1529.14743514    
 
Density of states at Fermi energy :    102.8004138    
 (states/Hartree/unit cell)
 
Estimated indirect band gap :   0.2906525477E-03
 from k-point    297 to k-point    246
Estimated direct band gap   :   0.3386373783E-02
 at k-point    240
 
Charges :
 core                        :    20.00000000    
 valence                     :    22.00000000    
 interstitial                :    3.727303251    
 muffin-tins (core leakage)
  species :    1 (Sc)
   atom    1                 :    19.13634837     (  0.6510333606E-08)
   atom    2                 :    19.13634837     (  0.6510333606E-08)
 total in muffin-tins        :    38.27269675    
 total calculated charge     :    41.99999678    
 total charge                :    42.00000000    
 error                       :   0.3215026382E-05
 
RMS change in Kohn-Sham potential (target) :   0.4395353047E-02 (   10.00000000    )
Absolute change in total energy (target)   :   0.2050668321E-01 (  0.1000000000E-07)
 
Time (CPU seconds) :       358.29
 
+--------------------+
| Loop number :    6 |
+--------------------+
 
Energies :
 Fermi                       :     0.270799253211    
 sum of eigenvalues          :     -892.948976510    
 electron kinetic            :      1546.29999628    
 core electron kinetic       :      1433.77843840    
 Coulomb                     :     -2996.41786874    
 Coulomb potential           :     -2335.04809854    
 nuclear-nuclear             :     -200.861677929    
 electron-nuclear            :     -3256.06428308    
 Hartree                     :      460.508092269    
 Madelung                    :     -1828.89381947    
 xc potential                :     -104.200874252    
 exchange                    :     -77.2540014395    
 correlation                 :     -1.78105039839    
 total energy                :     -1529.15292429    
 
Density of states at Fermi energy :    100.7177378    
 (states/Hartree/unit cell)
 
Estimated indirect band gap :   0.4163515806E-03
 from k-point    187 to k-point    246
Estimated direct band gap   :   0.3373765455E-02
 at k-point    240
 
Charges :
 core                        :    20.00000000    
 valence                     :    22.00000000    
 interstitial                :    3.726455406    
 muffin-tins (core leakage)
  species :    1 (Sc)
   atom    1                 :    19.13677230     (  0.6501972294E-08)
   atom    2                 :    19.13677230     (  0.6501972294E-08)
 total in muffin-tins        :    38.27354459    
 total calculated charge     :    41.99999687    
 total charge                :    42.00000000    
 error                       :   0.3130339223E-05
 
Wrote STATE.OUT
 
RMS change in Kohn-Sham potential (target) :   0.2635098640E-02 (   10.00000000    )
Absolute change in total energy (target)   :   0.1061582338E-01 (  0.1000000000E-07)
 
Time (CPU seconds) :       426.56
 
+--------------------+
| Loop number :    7 |
+--------------------+
 
Energies :
 Fermi                       :     0.270807504350    
 sum of eigenvalues          :     -892.949741888    
 electron kinetic            :      1546.29761036    
 core electron kinetic       :      1433.77890141    
 Coulomb                     :     -2996.41921378    
 Coulomb potential           :     -2335.04623297    
 nuclear-nuclear             :     -200.861677929    
 electron-nuclear            :     -3256.06883874    
 Hartree                     :      460.511302885    
 Madelung                    :     -1828.89609730    
 xc potential                :     -104.201119277    
 exchange                    :     -77.2541421857    
 correlation                 :     -1.78106439170    
 total energy                :     -1529.15681000    
 
Density of states at Fermi energy :    99.82488037    
 (states/Hartree/unit cell)
 
Estimated indirect band gap :   0.4266337823E-03
 from k-point     14 to k-point    246
Estimated direct band gap   :   0.3365341224E-02
 at k-point    240
 
Charges :
 core                        :    20.00000000    
 valence                     :    22.00000000    
 interstitial                :    3.725954389    
 muffin-tins (core leakage)
  species :    1 (Sc)
   atom    1                 :    19.13702281     (  0.6549598197E-08)
   atom    2                 :    19.13702281     (  0.6549598197E-08)
 total in muffin-tins        :    38.27404561    
 total calculated charge     :    41.99999692    
 total charge                :    42.00000000    
 error                       :   0.3080854263E-05
 
RMS change in Kohn-Sham potential (target) :   0.1725456077E-02 (   10.00000000    )
Absolute change in total energy (target)   :   0.6539663532E-02 (  0.1000000000E-07)
 
Time (CPU seconds) :       497.88
 
+--------------------+
| Loop number :    8 |
+--------------------+
 
Energies :
 Fermi                       :     0.270818449664    
 sum of eigenvalues          :     -892.950108790    
 electron kinetic            :      1546.29826774    
 core electron kinetic       :      1433.77918722    
 Coulomb                     :     -2996.41995418    
 Coulomb potential           :     -2335.04725969    
 nuclear-nuclear             :     -200.861677929    
 electron-nuclear            :     -3256.06929282    
 Hartree                     :      460.511016569    
 Madelung                    :     -1828.89632434    
 xc potential                :     -104.201116848    
 exchange                    :     -77.2541416868    
 correlation                 :     -1.78106451093    
 total energy                :     -1529.15689264    
 
Density of states at Fermi energy :    100.0841510    
 (states/Hartree/unit cell)
 
Estimated indirect band gap :   0.4388750026E-03
 from k-point    187 to k-point    246
Estimated direct band gap   :   0.3363559864E-02
 at k-point    240
 
Charges :
 core                        :    20.00000000    
 valence                     :    22.00000000    
 interstitial                :    3.726057898    
 muffin-tins (core leakage)
  species :    1 (Sc)
   atom    1                 :    19.13697105     (  0.6518101614E-08)
   atom    2                 :    19.13697105     (  0.6518101614E-08)
 total in muffin-tins        :    38.27394210    
 total calculated charge     :    41.99999691    
 total charge                :    42.00000000    
 error                       :   0.3091126409E-05
 
Wrote STATE.OUT
 
RMS change in Kohn-Sham potential (target) :   0.8631676370E-03 (   10.00000000    )
Absolute change in total energy (target)   :   0.1717551577E-02 (  0.1000000000E-07)
 
Time (CPU seconds) :       569.61
 
+--------------------+
| Loop number :    9 |
+--------------------+
 
Energies :
 Fermi                       :     0.270820183199    
 sum of eigenvalues          :     -892.950536941    
 electron kinetic            :      1546.29815573    
 core electron kinetic       :      1433.77874568    
 Coulomb                     :     -2996.42049539    
 Coulomb potential           :     -2335.04754058    
 nuclear-nuclear             :     -200.861677929    
 electron-nuclear            :     -3256.07009435    
 Hartree                     :      460.511276889    
 Madelung                    :     -1828.89672511    
 xc potential                :     -104.201152096    
 exchange                    :     -77.2541679061    
 correlation                 :     -1.78106489211    
 total energy                :     -1529.15757246    
 
Density of states at Fermi energy :    100.2012398    
 (states/Hartree/unit cell)
 
Estimated indirect band gap :   0.4381646092E-03
 from k-point    187 to k-point    246
Estimated direct band gap   :   0.3363486507E-02
 at k-point    240
 
Charges :
 core                        :    20.00000000    
 valence                     :    22.00000000    
 interstitial                :    3.726076351    
 muffin-tins (core leakage)
  species :    1 (Sc)
   atom    1                 :    19.13696182     (  0.6571339028E-08)
   atom    2                 :    19.13696182     (  0.6571339028E-08)
 total in muffin-tins        :    38.27392365    
 total calculated charge     :    41.99999690    
 total charge                :    42.00000000    
 error                       :   0.3096767557E-05
 
RMS change in Kohn-Sham potential (target) :   0.2936887243E-03 (   10.00000000    )
Absolute change in total energy (target)   :   0.1109211988E-02 (  0.1000000000E-07)
 
Time (CPU seconds) :       639.87
 
+--------------------+
| Loop number :   10 |
+--------------------+
 
Energies :
 Fermi                       :     0.270817838338    
 sum of eigenvalues          :     -892.950456968    
 electron kinetic            :      1546.29805920    
 core electron kinetic       :      1433.77845554    
 Coulomb                     :     -2996.42033901    
 Coulomb potential           :     -2335.04736623    
 nuclear-nuclear             :     -200.861677929    
 electron-nuclear            :     -3256.06995594    
 Hartree                     :      460.511294856    
 Madelung                    :     -1828.89665590    
 xc potential                :     -104.201149940    
 exchange                    :     -77.2541658167    
 correlation                 :     -1.78106496375    
 total energy                :     -1529.15751059    
 
Density of states at Fermi energy :    100.1687854    
 (states/Hartree/unit cell)
 
Estimated indirect band gap :   0.4379484208E-03
 from k-point    187 to k-point    246
Estimated direct band gap   :   0.3363809144E-02
 at k-point    240
 
Charges :
 core                        :    20.00000000    
 valence                     :    22.00000000    
 interstitial                :    3.726062492    
 muffin-tins (core leakage)
  species :    1 (Sc)
   atom    1                 :    19.13696875     (  0.6518140694E-08)
   atom    2                 :    19.13696875     (  0.6518140694E-08)
 total in muffin-tins        :    38.27393751    
 total calculated charge     :    41.99999690    
 total charge                :    42.00000000    
 error                       :   0.3095764633E-05
 
Wrote STATE.OUT
 
RMS change in Kohn-Sham potential (target) :   0.4072737474E-03 (   10.00000000    )
Absolute change in total energy (target)   :   0.2154352537E-03 (  0.1000000000E-07)
 
Time (CPU seconds) :       709.37
 
+--------------------+
| Loop number :   11 |
+--------------------+
 
Energies :
 Fermi                       :     0.270815151366    
 sum of eigenvalues          :     -892.950221589    
 electron kinetic            :      1546.29801830    
 core electron kinetic       :      1433.77856927    
 Coulomb                     :     -2996.41999141    
 Coulomb potential           :     -2335.04710603    
 nuclear-nuclear             :     -200.861677929    
 electron-nuclear            :     -3256.06952092    
 Hartree                     :      460.511207446    
 Madelung                    :     -1828.89643839    
 xc potential                :     -104.201133856    
 exchange                    :     -77.2541536309    
 correlation                 :     -1.78106479979    
 total energy                :     -1529.15719154    
 
Density of states at Fermi energy :    100.0898854    
 (states/Hartree/unit cell)
 
Estimated indirect band gap :   0.4380831194E-03
 from k-point    187 to k-point    246
Estimated direct band gap   :   0.3364075885E-02
 at k-point    240
 
Charges :
 core                        :    20.00000000    
 valence                     :    22.00000000    
 interstitial                :    3.726042372    
 muffin-tins (core leakage)
  species :    1 (Sc)
   atom    1                 :    19.13697881     (  0.6548560805E-08)
   atom    2                 :    19.13697881     (  0.6548560805E-08)
 total in muffin-tins        :    38.27395763    
 total calculated charge     :    41.99999691    
 total charge                :    42.00000000    
 error                       :   0.3092343057E-05
 
RMS change in Kohn-Sham potential (target) :   0.1886044593E-03 (   10.00000000    )
Absolute change in total energy (target)   :   0.2651956427E-03 (  0.1000000000E-07)
 
Time (CPU seconds) :       778.30
 
+--------------------+
| Loop number :   12 |
+--------------------+
 
Energies :
 Fermi                       :     0.270814681189    
 sum of eigenvalues          :     -892.950206154    
 electron kinetic            :      1546.29801589    
 core electron kinetic       :      1433.77852607    
 Coulomb                     :     -2996.41996013    
 Coulomb potential           :     -2335.04709009    
 nuclear-nuclear             :     -200.861677929    
 electron-nuclear            :     -3256.06947432    
 Hartree                     :      460.511192115    
 Madelung                    :     -1828.89641509    
 xc potential                :     -104.201131961    
 exchange                    :     -77.2541521341    
 correlation                 :     -1.78106481333    
 total energy                :     -1529.15716118    
 
Density of states at Fermi energy :    100.0876381    
 (states/Hartree/unit cell)
 
Estimated indirect band gap :   0.4380840802E-03
 from k-point    187 to k-point    246
Estimated direct band gap   :   0.3364073736E-02
 at k-point    240
 
Charges :
 core                        :    20.00000000    
 valence                     :    22.00000000    
 interstitial                :    3.726041945    
 muffin-tins (core leakage)
  species :    1 (Sc)
   atom    1                 :    19.13697903     (  0.6533229069E-08)
   atom    2                 :    19.13697903     (  0.6533229069E-08)
 total in muffin-tins        :    38.27395805    
 total calculated charge     :    41.99999691    
 total charge                :    42.00000000    
 error                       :   0.3092312951E-05
 
Wrote STATE.OUT
 
RMS change in Kohn-Sham potential (target) :   0.9914043647E-04 (   10.00000000    )
Absolute change in total energy (target)   :   0.9665391963E-04 (  0.1000000000E-07)
 
Time (CPU seconds) :       849.30
 
+--------------------+
| Loop number :   13 |
+--------------------+
 
Energies :
 Fermi                       :     0.270814198480    
 sum of eigenvalues          :     -892.950167413    
 electron kinetic            :      1546.29801165    
 core electron kinetic       :      1433.77854616    
 Coulomb                     :     -2996.41990069    
 Coulomb potential           :     -2335.04705030    
 nuclear-nuclear             :     -200.861677929    
 electron-nuclear            :     -3256.06939522    
 Hartree                     :      460.511172460    
 Madelung                    :     -1828.89637554    
 xc potential                :     -104.201128758    
 exchange                    :     -77.2541497568    
 correlation                 :     -1.78106476935    
 total energy                :     -1529.15710357    
 
Density of states at Fermi energy :    100.0737381    
 (states/Hartree/unit cell)
 
Estimated indirect band gap :   0.4381371143E-03
 from k-point    187 to k-point    246
Estimated direct band gap   :   0.3364086923E-02
 at k-point    240
 
Charges :
 core                        :    20.00000000    
 valence                     :    22.00000000    
 interstitial                :    3.726038800    
 muffin-tins (core leakage)
  species :    1 (Sc)
   atom    1                 :    19.13698060     (  0.6558588339E-08)
   atom    2                 :    19.13698060     (  0.6558588339E-08)
 total in muffin-tins        :    38.27396120    
 total calculated charge     :    41.99999691    
 total charge                :    42.00000000    
 error                       :   0.3091605294E-05
 
RMS change in Kohn-Sham potential (target) :   0.4003646119E-04 (   10.00000000    )
Absolute change in total energy (target)   :   0.8177778705E-04 (  0.1000000000E-07)
 
Time (CPU seconds) :       920.90
 
+--------------------+
| Loop number :   14 |
+--------------------+
 
Energies :
 Fermi                       :     0.270814029426    
 sum of eigenvalues          :     -892.950158266    
 electron kinetic            :      1546.29801010    
 core electron kinetic       :      1433.77855745    
 Coulomb                     :     -2996.41988439    
 Coulomb potential           :     -2335.04704066    
 nuclear-nuclear             :     -200.861677929    
 electron-nuclear            :     -3256.06937227    
 Hartree                     :      460.511165806    
 Madelung                    :     -1828.89636406    
 xc potential                :     -104.201127711    
 exchange                    :     -77.2541490088    
 correlation                 :     -1.78106474639    
 total energy                :     -1529.15708805    
 
Density of states at Fermi energy :    100.0694608    
 (states/Hartree/unit cell)
 
Estimated indirect band gap :   0.4381694376E-03
 from k-point    187 to k-point    246
Estimated direct band gap   :   0.3364068380E-02
 at k-point    240
 
Charges :
 core                        :    20.00000000    
 valence                     :    22.00000000    
 interstitial                :    3.726037942    
 muffin-tins (core leakage)
  species :    1 (Sc)
   atom    1                 :    19.13698103     (  0.6530452623E-08)
   atom    2                 :    19.13698103     (  0.6530452623E-08)
 total in muffin-tins        :    38.27396206    
 total calculated charge     :    41.99999691    
 total charge                :    42.00000000    
 error                       :   0.3091210189E-05
 
Wrote STATE.OUT
 
RMS change in Kohn-Sham potential (target) :   0.9015150802E-04 (   10.00000000    )
Absolute change in total energy (target)   :   0.3596925535E-04 (  0.1000000000E-07)
 
Time (CPU seconds) :       994.32
 
+--------------------+
| Loop number :   15 |
+--------------------+
 
Energies :
 Fermi                       :     0.270814011246    
 sum of eigenvalues          :     -892.950156167    
 electron kinetic            :      1546.29800997    
 core electron kinetic       :      1433.77855976    
 Coulomb                     :     -2996.41988074    
 Coulomb potential           :     -2335.04703865    
 nuclear-nuclear             :     -200.861677929    
 electron-nuclear            :     -3256.06936697    
 Hartree                     :      460.511164160    
 Madelung                    :     -1828.89636142    
 xc potential                :     -104.201127480    
 exchange                    :     -77.2541488546    
 correlation                 :     -1.78106473731    
 total energy                :     -1529.15708437    
 
Density of states at Fermi energy :    100.0682007    
 (states/Hartree/unit cell)
 
Estimated indirect band gap :   0.4381825324E-03
 from k-point    187 to k-point    246
Estimated direct band gap   :   0.3364059408E-02
 at k-point    240
 
Charges :
 core                        :    20.00000000    
 valence                     :    22.00000000    
 interstitial                :    3.726037698    
 muffin-tins (core leakage)
  species :    1 (Sc)
   atom    1                 :    19.13698115     (  0.6520467721E-08)
   atom    2                 :    19.13698115     (  0.6520467721E-08)
 total in muffin-tins        :    38.27396230    
 total calculated charge     :    41.99999691    
 total charge                :    42.00000000    
 error                       :   0.3091091358E-05
 
RMS change in Kohn-Sham potential (target) :   0.6896092199E-04 (   10.00000000    )
Absolute change in total energy (target)   :   0.1266926938E-04 (  0.1000000000E-07)
 
Time (CPU seconds) :      1066.42
 
+--------------------+
| Loop number :   16 |
+--------------------+
 
Energies :
 Fermi                       :     0.270813984120    
 sum of eigenvalues          :     -892.950154208    
 electron kinetic            :      1546.29800946    
 core electron kinetic       :      1433.77855555    
 Coulomb                     :     -2996.41987781    
 Coulomb potential           :     -2335.04703632    
 nuclear-nuclear             :     -200.861677929    
 electron-nuclear            :     -3256.06936344    
 Hartree                     :      460.511163560    
 Madelung                    :     -1828.89635965    
 xc potential                :     -104.201127342    
 exchange                    :     -77.2541487543    
 correlation                 :     -1.78106473495    
 total energy                :     -1529.15708184    
 
Density of states at Fermi energy :    100.0675770    
 (states/Hartree/unit cell)
 
Estimated indirect band gap :   0.4381829680E-03
 from k-point    187 to k-point    246
Estimated direct band gap   :   0.3364060615E-02
 at k-point    240
 
Charges :
 core                        :    20.00000000    
 valence                     :    22.00000000    
 interstitial                :    3.726037537    
 muffin-tins (core leakage)
  species :    1 (Sc)
   atom    1                 :    19.13698123     (  0.6523162455E-08)
   atom    2                 :    19.13698123     (  0.6523162455E-08)
 total in muffin-tins        :    38.27396246    
 total calculated charge     :    41.99999691    
 total charge                :    42.00000000    
 error                       :   0.3091115786E-05
 
Wrote STATE.OUT
 
RMS change in Kohn-Sham potential (target) :   0.2899260366E-03 (   10.00000000    )
Absolute change in total energy (target)   :   0.5691720844E-05 (  0.1000000000E-07)
 
Time (CPU seconds) :      1138.16
 
+--------------------+
| Loop number :   17 |
+--------------------+
 
Energies :
 Fermi                       :     0.270813990410    
 sum of eigenvalues          :     -892.950148348    
 electron kinetic            :      1546.29801028    
 core electron kinetic       :      1433.77857681    
 Coulomb                     :     -2996.41987124    
 Coulomb potential           :     -2335.04703166    
 nuclear-nuclear             :     -200.861677929    
 electron-nuclear            :     -3256.06935497    
 Hartree                     :      460.511161655    
 Madelung                    :     -1828.89635541    
 xc potential                :     -104.201126972    
 exchange                    :     -77.2541485045    
 correlation                 :     -1.78106472065    
 total energy                :     -1529.15707419    
 
Density of states at Fermi energy :    100.0653706    
 (states/Hartree/unit cell)
 
Estimated indirect band gap :   0.4381929858E-03
 from k-point    187 to k-point    246
Estimated direct band gap   :   0.3364061631E-02
 at k-point    240
 
Charges :
 core                        :    20.00000000    
 valence                     :    22.00000000    
 interstitial                :    3.726037081    
 muffin-tins (core leakage)
  species :    1 (Sc)
   atom    1                 :    19.13698146     (  0.6530294527E-08)
   atom    2                 :    19.13698146     (  0.6530294527E-08)
 total in muffin-tins        :    38.27396292    
 total calculated charge     :    41.99999691    
 total charge                :    42.00000000    
 error                       :   0.3091020417E-05
 
RMS change in Kohn-Sham potential (target) :   0.2589658457E-03 (   10.00000000    )
Absolute change in total energy (target)   :   0.9081502185E-05 (  0.1000000000E-07)
 
Time (CPU seconds) :      1210.55
 
+--------------------+
| Loop number :   18 |
+--------------------+
 
Energies :
 Fermi                       :     0.270814059993    
 sum of eigenvalues          :     -892.950162709    
 electron kinetic            :      1546.29800909    
 core electron kinetic       :      1433.77856375    
 Coulomb                     :     -2996.41988936    
 Coulomb potential           :     -2335.04704388    
 nuclear-nuclear             :     -200.861677929    
 electron-nuclear            :     -3256.06937898    
 Hartree                     :      460.511167548    
 Madelung                    :     -1828.89636742    
 xc potential                :     -104.201127913    
 exchange                    :     -77.2541492065    
 correlation                 :     -1.78106473318    
 total energy                :     -1529.15709421    
 
Density of states at Fermi energy :    100.0696636    
 (states/Hartree/unit cell)
 
Estimated indirect band gap :   0.4381899778E-03
 from k-point    187 to k-point    246
Estimated direct band gap   :   0.3364036259E-02
 at k-point    240
 
Charges :
 core                        :    20.00000000    
 valence                     :    22.00000000    
 interstitial                :    3.726038022    
 muffin-tins (core leakage)
  species :    1 (Sc)
   atom    1                 :    19.13698099     (  0.6574241596E-08)
   atom    2                 :    19.13698099     (  0.6574241596E-08)
 total in muffin-tins        :    38.27396198    
 total calculated charge     :    41.99999691    
 total charge                :    42.00000000    
 error                       :   0.3091362522E-05
 
Wrote STATE.OUT
 
RMS change in Kohn-Sham potential (target) :   0.1186310710E-03 (   10.00000000    )
Absolute change in total energy (target)   :   0.1775754231E-04 (  0.1000000000E-07)
 
Time (CPU seconds) :      1283.83
 
+--------------------+
| Loop number :   19 |
+--------------------+
 
Energies :
 Fermi                       :     0.270813979114    
 sum of eigenvalues          :     -892.950159293    
 electron kinetic            :      1546.29800764    
 core electron kinetic       :      1433.77857050    
 Coulomb                     :     -2996.41988253    
 Coulomb potential           :     -2335.04703940    
 nuclear-nuclear             :     -200.861677929    
 electron-nuclear            :     -3256.06936980    
 Hartree                     :      460.511165200    
 Madelung                    :     -1828.89636283    
 xc potential                :     -104.201127531    
 exchange                    :     -77.2541489355    
 correlation                 :     -1.78106472437    
 total energy                :     -1529.15708855    
 
Density of states at Fermi energy :    100.0679236    
 (states/Hartree/unit cell)
 
Estimated indirect band gap :   0.4382056602E-03
 from k-point    187 to k-point    246
Estimated direct band gap   :   0.3364024214E-02
 at k-point    240
 
Charges :
 core                        :    20.00000000    
 valence                     :    22.00000000    
 interstitial                :    3.726037633    
 muffin-tins (core leakage)
  species :    1 (Sc)
   atom    1                 :    19.13698118     (  0.6509456085E-08)
   atom    2                 :    19.13698118     (  0.6509456085E-08)
 total in muffin-tins        :    38.27396237    
 total calculated charge     :    41.99999691    
 total charge                :    42.00000000    
 error                       :   0.3090987647E-05
 
RMS change in Kohn-Sham potential (target) :   0.3576337095E-04 (   10.00000000    )
Absolute change in total energy (target)   :   0.1222661467E-05 (  0.1000000000E-07)
 
Time (CPU seconds) :      1352.81
 
+--------------------+
| Loop number :   20 |
+--------------------+
 
Energies :
 Fermi                       :     0.270814003203    
 sum of eigenvalues          :     -892.950160494    
 electron kinetic            :      1546.29800808    
 core electron kinetic       :      1433.77856690    
 Coulomb                     :     -2996.41988539    
 Coulomb potential           :     -2335.04704089    
 nuclear-nuclear             :     -200.861677929    
 electron-nuclear            :     -3256.06937404    
 Hartree                     :      460.511166574    
 Madelung                    :     -1828.89636495    
 xc potential                :     -104.201127691    
 exchange                    :     -77.2541490427    
 correlation                 :     -1.78106473080    
 total energy                :     -1529.15709108    
 
Density of states at Fermi energy :    100.0688043    
 (states/Hartree/unit cell)
 
Estimated indirect band gap :   0.4381990378E-03
 from k-point    187 to k-point    246
Estimated direct band gap   :   0.3364028248E-02
 at k-point    240
 
Charges :
 core                        :    20.00000000    
 valence                     :    22.00000000    
 interstitial                :    3.726037820    
 muffin-tins (core leakage)
  species :    1 (Sc)
   atom    1                 :    19.13698109     (  0.6533166896E-08)
   atom    2                 :    19.13698109     (  0.6533166896E-08)
 total in muffin-tins        :    38.27396218    
 total calculated charge     :    41.99999691    
 total charge                :    42.00000000    
 error                       :   0.3091118884E-05
 
Wrote STATE.OUT
 
RMS change in Kohn-Sham potential (target) :   0.2993197281E-04 (   10.00000000    )
Absolute change in total energy (target)   :   0.2223284582E-05 (  0.1000000000E-07)
 
Time (CPU seconds) :      1425.47
 
+--------------------+
| Loop number :   21 |
+--------------------+
 
Energies :
 Fermi                       :     0.270814010856    
 sum of eigenvalues          :     -892.950159893    
 electron kinetic            :      1546.29800844    
 core electron kinetic       :      1433.77856655    
 Coulomb                     :     -2996.41988457    
 Coulomb potential           :     -2335.04704065    
 nuclear-nuclear             :     -200.861677929    
 electron-nuclear            :     -3256.06937262    
 Hartree                     :      460.511165984    
 Madelung                    :     -1828.89636424    
 xc potential                :     -104.201127674    
 exchange                    :     -77.2541490272    
 correlation                 :     -1.78106473122    
 total energy                :     -1529.15708989    
 
Density of states at Fermi energy :    100.0687434    
 (states/Hartree/unit cell)
 
Estimated indirect band gap :   0.4381984680E-03
 from k-point    187 to k-point    246
Estimated direct band gap   :   0.3364030099E-02
 at k-point    240
 
Charges :
 core                        :    20.00000000    
 valence                     :    22.00000000    
 interstitial                :    3.726037813    
 muffin-tins (core leakage)
  species :    1 (Sc)
   atom    1                 :    19.13698109     (  0.6536986064E-08)
   atom    2                 :    19.13698109     (  0.6536986064E-08)
 total in muffin-tins        :    38.27396219    
 total calculated charge     :    41.99999691    
 total charge                :    42.00000000    
 error                       :   0.3091078071E-05
 
RMS change in Kohn-Sham potential (target) :   0.7295049278E-04 (   10.00000000    )
Absolute change in total energy (target)   :   0.6329166808E-06 (  0.1000000000E-07)
 
Time (CPU seconds) :      1497.95
 
+--------------------+
| Loop number :   22 |
+--------------------+
 
Energies :
 Fermi                       :     0.270814002987    
 sum of eigenvalues          :     -892.950159740    
 electron kinetic            :      1546.29800827    
 core electron kinetic       :      1433.77856753    
 Coulomb                     :     -2996.41988407    
 Coulomb potential           :     -2335.04704036    
 nuclear-nuclear             :     -200.861677929    
 electron-nuclear            :     -3256.06937192    
 Hartree                     :      460.511165779    
 Madelung                    :     -1828.89636389    
 xc potential                :     -104.201127648    
 exchange                    :     -77.2541490089    
 correlation                 :     -1.78106473098    
 total energy                :     -1529.15708954    
 
Density of states at Fermi energy :    100.0686615    
 (states/Hartree/unit cell)
 
Estimated indirect band gap :   0.4382007643E-03
 from k-point    187 to k-point    246
Estimated direct band gap   :   0.3364027376E-02
 at k-point    240
 
Charges :
 core                        :    20.00000000    
 valence                     :    22.00000000    
 interstitial                :    3.726037798    
 muffin-tins (core leakage)
  species :    1 (Sc)
   atom    1                 :    19.13698110     (  0.6537641539E-08)
   atom    2                 :    19.13698110     (  0.6537641539E-08)
 total in muffin-tins        :    38.27396220    
 total calculated charge     :    41.99999691    
 total charge                :    42.00000000    
 error                       :   0.3091221551E-05
 
Wrote STATE.OUT
 
RMS change in Kohn-Sham potential (target) :   0.6390961164E-04 (   10.00000000    )
Absolute change in total energy (target)   :   0.5104764114E-06 (  0.1000000000E-07)
 
Time (CPU seconds) :      1569.38
 
+--------------------+
| Loop number :   23 |
+--------------------+
 
Energies :
 Fermi                       :     0.270814008373    
 sum of eigenvalues          :     -892.950160384    
 electron kinetic            :      1546.29800833    
 core electron kinetic       :      1433.77856629    
 Coulomb                     :     -2996.41988545    
 Coulomb potential           :     -2335.04704101    
 nuclear-nuclear             :     -200.861677929    
 electron-nuclear            :     -3256.06937404    
 Hartree                     :      460.511166511    
 Madelung                    :     -1828.89636495    
 xc potential                :     -104.201127704    
 exchange                    :     -77.2541490483    
 correlation                 :     -1.78106473261    
 total energy                :     -1529.15709090    
 
Density of states at Fermi energy :    100.0689444    
 (states/Hartree/unit cell)
 
Estimated indirect band gap :   0.4381997467E-03
 from k-point    187 to k-point    246
Estimated direct band gap   :   0.3364027163E-02
 at k-point    240
 
Charges :
 core                        :    20.00000000    
 valence                     :    22.00000000    
 interstitial                :    3.726037859    
 muffin-tins (core leakage)
  species :    1 (Sc)
   atom    1                 :    19.13698107     (  0.6481023718E-08)
   atom    2                 :    19.13698107     (  0.6481023718E-08)
 total in muffin-tins        :    38.27396214    
 total calculated charge     :    41.99999691    
 total charge                :    42.00000000    
 error                       :   0.3091086285E-05
 
RMS change in Kohn-Sham potential (target) :   0.3788197598E-04 (   10.00000000    )
Absolute change in total energy (target)   :   0.1234439878E-05 (  0.1000000000E-07)
 
Time (CPU seconds) :      1640.52
 
+--------------------+
| Loop number :   24 |
+--------------------+
 
Energies :
 Fermi                       :     0.270814006354    
 sum of eigenvalues          :     -892.950159939    
 electron kinetic            :      1546.29800838    
 core electron kinetic       :      1433.77856644    
 Coulomb                     :     -2996.41988492    
 Coulomb potential           :     -2335.04704064    
 nuclear-nuclear             :     -200.861677929    
 electron-nuclear            :     -3256.06937333    
 Hartree                     :      460.511166342    
 Madelung                    :     -1828.89636459    
 xc potential                :     -104.201127672    
 exchange                    :     -77.2541490238    
 correlation                 :     -1.78106473253    
 total energy                :     -1529.15709029    
 
Density of states at Fermi energy :    100.0688303    
 (states/Hartree/unit cell)
 
Estimated indirect band gap :   0.4381997073E-03
 from k-point    187 to k-point    246
Estimated direct band gap   :   0.3364028080E-02
 at k-point    240
 
Charges :
 core                        :    20.00000000    
 valence                     :    22.00000000    
 interstitial                :    3.726037836    
 muffin-tins (core leakage)
  species :    1 (Sc)
   atom    1                 :    19.13698108     (  0.6559440990E-08)
   atom    2                 :    19.13698108     (  0.6559440990E-08)
 total in muffin-tins        :    38.27396216    
 total calculated charge     :    41.99999691    
 total charge                :    42.00000000    
 error                       :   0.3091228500E-05
 
Wrote STATE.OUT
 
RMS change in Kohn-Sham potential (target) :   0.3856293121E-04 (   10.00000000    )
Absolute change in total energy (target)   :   0.2981551006E-06 (  0.1000000000E-07)
 
Time (CPU seconds) :      1706.96
 
+--------------------+
| Loop number :   25 |
+--------------------+
 
Energies :
 Fermi                       :     0.270814008736    
 sum of eigenvalues          :     -892.950159903    
 electron kinetic            :      1546.29800847    
 core electron kinetic       :      1433.77856601    
 Coulomb                     :     -2996.41988459    
 Coulomb potential           :     -2335.04704070    
 nuclear-nuclear             :     -200.861677929    
 electron-nuclear            :     -3256.06937262    
 Hartree                     :      460.511165964    
 Madelung                    :     -1828.89636424    
 xc potential                :     -104.201127681    
 exchange                    :     -77.2541490257    
 correlation                 :     -1.78106473388    
 total energy                :     -1529.15708987    
 
Density of states at Fermi energy :    100.0688974    
 (states/Hartree/unit cell)
 
Estimated indirect band gap :   0.4381983190E-03
 from k-point    187 to k-point    246
Estimated direct band gap   :   0.3364029808E-02
 at k-point    240
 
Charges :
 core                        :    20.00000000    
 valence                     :    22.00000000    
 interstitial                :    3.726037852    
 muffin-tins (core leakage)
  species :    1 (Sc)
   atom    1                 :    19.13698107     (  0.6521524654E-08)
   atom    2                 :    19.13698107     (  0.6521524654E-08)
 total in muffin-tins        :    38.27396215    
 total calculated charge     :    41.99999691    
 total charge                :    42.00000000    
 error                       :   0.3091140492E-05
 
RMS change in Kohn-Sham potential (target) :   0.3346573886E-04 (   10.00000000    )
Absolute change in total energy (target)   :   0.4949401955E-06 (  0.1000000000E-07)
 
Time (CPU seconds) :      1776.54
 
+--------------------+
| Loop number :   26 |
+--------------------+
 
Energies :
 Fermi                       :     0.270814007414    
 sum of eigenvalues          :     -892.950159916    
 electron kinetic            :      1546.29800849    
 core electron kinetic       :      1433.77856603    
 Coulomb                     :     -2996.41988460    
 Coulomb potential           :     -2335.04704073    
 nuclear-nuclear             :     -200.861677929    
 electron-nuclear            :     -3256.06937262    
 Hartree                     :      460.511165948    
 Madelung                    :     -1828.89636424    
 xc potential                :     -104.201127677    
 exchange                    :     -77.2541490237    
 correlation                 :     -1.78106473353    
 total energy                :     -1529.15708987    
 
Density of states at Fermi energy :    100.0688812    
 (states/Hartree/unit cell)
 
Estimated indirect band gap :   0.4381983550E-03
 from k-point    187 to k-point    246
Estimated direct band gap   :   0.3364029933E-02
 at k-point    240
 
Charges :
 core                        :    20.00000000    
 valence                     :    22.00000000    
 interstitial                :    3.726037848    
 muffin-tins (core leakage)
  species :    1 (Sc)
   atom    1                 :    19.13698108     (  0.6585574752E-08)
   atom    2                 :    19.13698108     (  0.6585574752E-08)
 total in muffin-tins        :    38.27396215    
 total calculated charge     :    41.99999691    
 total charge                :    42.00000000    
 error                       :   0.3091286622E-05
 
Wrote STATE.OUT
 
RMS change in Kohn-Sham potential (target) :   0.9772885241E-04 (   10.00000000    )
Absolute change in total energy (target)   :   0.1228841029E-06 (  0.1000000000E-07)
 
Time (CPU seconds) :      1846.82
 
+--------------------+
| Loop number :   27 |
+--------------------+
 
Energies :
 Fermi                       :     0.270814005622    
 sum of eigenvalues          :     -892.950159908    
 electron kinetic            :      1546.29800858    
 core electron kinetic       :      1433.77856586    
 Coulomb                     :     -2996.41988464    
 Coulomb potential           :     -2335.04704080    
 nuclear-nuclear             :     -200.861677929    
 electron-nuclear            :     -3256.06937262    
 Hartree                     :      460.511165910    
 Madelung                    :     -1828.89636424    
 xc potential                :     -104.201127683    
 exchange                    :     -77.2541490240    
 correlation                 :     -1.78106473511    
 total energy                :     -1529.15708982    
 
Density of states at Fermi energy :    100.0689614    
 (states/Hartree/unit cell)
 
Estimated indirect band gap :   0.4381975726E-03
 from k-point    187 to k-point    246
Estimated direct band gap   :   0.3364030856E-02
 at k-point    240
 
Charges :
 core                        :    20.00000000    
 valence                     :    22.00000000    
 interstitial                :    3.726037868    
 muffin-tins (core leakage)
  species :    1 (Sc)
   atom    1                 :    19.13698107     (  0.6501391425E-08)
   atom    2                 :    19.13698107     (  0.6501391425E-08)
 total in muffin-tins        :    38.27396213    
 total calculated charge     :    41.99999691    
 total charge                :    42.00000000    
 error                       :   0.3091050132E-05
 
RMS change in Kohn-Sham potential (target) :   0.1141257389E-04 (   10.00000000    )
Absolute change in total energy (target)   :   0.8199799595E-07 (  0.1000000000E-07)
 
Time (CPU seconds) :      1919.06
 
+--------------------+
| Loop number :   28 |
+--------------------+
 
Energies :
 Fermi                       :     0.270814006274    
 sum of eigenvalues          :     -892.950160158    
 electron kinetic            :      1546.29800832    
 core electron kinetic       :      1433.77856629    
 Coulomb                     :     -2996.41988499    
 Coulomb potential           :     -2335.04704080    
 nuclear-nuclear             :     -200.861677929    
 electron-nuclear            :     -3256.06937333    
 Hartree                     :      460.511166266    
 Madelung                    :     -1828.89636459    
 xc potential                :     -104.201127684    
 exchange                    :     -77.2541490312    
 correlation                 :     -1.78106473303    
 total energy                :     -1529.15709043    
 
Density of states at Fermi energy :    100.0688711    
 (states/Hartree/unit cell)
 
Estimated indirect band gap :   0.4382000487E-03
 from k-point    187 to k-point    246
Estimated direct band gap   :   0.3364027480E-02
 at k-point    240
 
Charges :
 core                        :    20.00000000    
 valence                     :    22.00000000    
 interstitial                :    3.726037846    
 muffin-tins (core leakage)
  species :    1 (Sc)
   atom    1                 :    19.13698108     (  0.6509242922E-08)
   atom    2                 :    19.13698108     (  0.6509242922E-08)
 total in muffin-tins        :    38.27396215    
 total calculated charge     :    41.99999691    
 total charge                :    42.00000000    
 error                       :   0.3091049926E-05
 
Wrote STATE.OUT
 
RMS change in Kohn-Sham potential (target) :   0.7642305983E-04 (   10.00000000    )
Absolute change in total energy (target)   :   0.5897295523E-06 (  0.1000000000E-07)
 
Time (CPU seconds) :      1991.55
 
+--------------------+
| Loop number :   29 |
+--------------------+
 
Energies :
 Fermi                       :     0.270814006904    
 sum of eigenvalues          :     -892.950159834    
 electron kinetic            :      1546.29800842    
 core electron kinetic       :      1433.77856649    
 Coulomb                     :     -2996.41988418    
 Coulomb potential           :     -2335.04704059    
 nuclear-nuclear             :     -200.861677929    
 electron-nuclear            :     -3256.06937192    
 Hartree                     :      460.511165664    
 Madelung                    :     -1828.89636389    
 xc potential                :     -104.201127665    
 exchange                    :     -77.2541490179    
 correlation                 :     -1.78106473227    
 total energy                :     -1529.15708951    
 
Density of states at Fermi energy :    100.0687667    
 (states/Hartree/unit cell)
 
Estimated indirect band gap :   0.4381998963E-03
 from k-point    187 to k-point    246
Estimated direct band gap   :   0.3364028377E-02
 at k-point    240
 
Charges :
 core                        :    20.00000000    
 valence                     :    22.00000000    
 interstitial                :    3.726037824    
 muffin-tins (core leakage)
  species :    1 (Sc)
   atom    1                 :    19.13698109     (  0.6920295448E-08)
   atom    2                 :    19.13698109     (  0.6920295448E-08)
 total in muffin-tins        :    38.27396218    
 total calculated charge     :    41.99999691    
 total charge                :    42.00000000    
 error                       :   0.3091931468E-05
 
RMS change in Kohn-Sham potential (target) :   0.3705635782E-04 (   10.00000000    )
Absolute change in total energy (target)   :   0.7738067325E-06 (  0.1000000000E-07)
 
Time (CPU seconds) :      2060.32
 
+--------------------+
| Loop number :   30 |
+--------------------+
 
Energies :
 Fermi                       :     0.270814008283    
 sum of eigenvalues          :     -892.950159748    
 electron kinetic            :      1546.29800842    
 core electron kinetic       :      1433.77856671    
 Coulomb                     :     -2996.41988414    
 Coulomb potential           :     -2335.04704051    
 nuclear-nuclear             :     -200.861677929    
 electron-nuclear            :     -3256.06937192    
 Hartree                     :      460.511165705    
 Madelung                    :     -1828.89636389    
 xc potential                :     -104.201127661    
 exchange                    :     -77.2541490162    
 correlation                 :     -1.78106473164    
 total energy                :     -1529.15708947    
 
Density of states at Fermi energy :    100.0687168    
 (states/Hartree/unit cell)
 
Estimated indirect band gap :   0.4382002885E-03
 from k-point    187 to k-point    246
Estimated direct band gap   :   0.3364028049E-02
 at k-point    240
 
Charges :
 core                        :    20.00000000    
 valence                     :    22.00000000    
 interstitial                :    3.726037813    
 muffin-tins (core leakage)
  species :    1 (Sc)
   atom    1                 :    19.13698109     (  0.6545729292E-08)
   atom    2                 :    19.13698109     (  0.6545729292E-08)
 total in muffin-tins        :    38.27396219    
 total calculated charge     :    41.99999691    
 total charge                :    42.00000000    
 error                       :   0.3091214573E-05
 
Wrote STATE.OUT
 
RMS change in Kohn-Sham potential (target) :   0.9390792137E-05 (   10.00000000    )
Absolute change in total energy (target)   :   0.2365150067E-06 (  0.1000000000E-07)
 
Time (CPU seconds) :      2130.89
 
+--------------------+
| Loop number :   31 |
+--------------------+
 
Energies :
 Fermi                       :     0.270814009450    
 sum of eigenvalues          :     -892.950159728    
 electron kinetic            :      1546.29800846    
 core electron kinetic       :      1433.77856657    
 Coulomb                     :     -2996.41988415    
 Coulomb potential           :     -2335.04704052    
 nuclear-nuclear             :     -200.861677929    
 electron-nuclear            :     -3256.06937192    
 Hartree                     :      460.511165697    
 Madelung                    :     -1828.89636389    
 xc potential                :     -104.201127664    
 exchange                    :     -77.2541490172    
 correlation                 :     -1.78106473200    
 total energy                :     -1529.15708944    
 
Density of states at Fermi energy :    100.0687322    
 (states/Hartree/unit cell)
 
Estimated indirect band gap :   0.4381999696E-03
 from k-point    187 to k-point    246
Estimated direct band gap   :   0.3364028427E-02
 at k-point    240
 
Charges :
 core                        :    20.00000000    
 valence                     :    22.00000000    
 interstitial                :    3.726037817    
 muffin-tins (core leakage)
  species :    1 (Sc)
   atom    1                 :    19.13698109     (  0.6495387339E-08)
   atom    2                 :    19.13698109     (  0.6495387339E-08)
 total in muffin-tins        :    38.27396218    
 total calculated charge     :    41.99999691    
 total charge                :    42.00000000    
 error                       :   0.3091104389E-05
 
RMS change in Kohn-Sham potential (target) :   0.5554963863E-04 (   10.00000000    )
Absolute change in total energy (target)   :   0.8873485058E-07 (  0.1000000000E-07)
 
Time (CPU seconds) :      2199.98
 
+--------------------+
| Loop number :   32 |
+--------------------+
 
Energies :
 Fermi                       :     0.270814010726    
 sum of eigenvalues          :     -892.950159625    
 electron kinetic            :      1546.29800849    
 core electron kinetic       :      1433.77856663    
 Coulomb                     :     -2996.41988412    
 Coulomb potential           :     -2335.04704046    
 nuclear-nuclear             :     -200.861677929    
 electron-nuclear            :     -3256.06937192    
 Hartree                     :      460.511165728    
 Madelung                    :     -1828.89636389    
 xc potential                :     -104.201127658    
 exchange                    :     -77.2541490135    
 correlation                 :     -1.78106473187    
 total energy                :     -1529.15708937    
 
Density of states at Fermi energy :    100.0687098    
 (states/Hartree/unit cell)
 
Estimated indirect band gap :   0.4381997003E-03
 from k-point    187 to k-point    246
Estimated direct band gap   :   0.3364028921E-02
 at k-point    240
 
Charges :
 core                        :    20.00000000    
 valence                     :    22.00000000    
 interstitial                :    3.726037812    
 muffin-tins (core leakage)
  species :    1 (Sc)
   atom    1                 :    19.13698109     (  0.6522755669E-08)
   atom    2                 :    19.13698109     (  0.6522755669E-08)
 total in muffin-tins        :    38.27396219    
 total calculated charge     :    41.99999691    
 total charge                :    42.00000000    
 error                       :   0.3091126537E-05
 
Wrote STATE.OUT
 
RMS change in Kohn-Sham potential (target) :   0.2155376954E-04 (   10.00000000    )
Absolute change in total energy (target)   :   0.9181235328E-07 (  0.1000000000E-07)
 
Time (CPU seconds) :      2270.73
 
+--------------------+
| Loop number :   33 |
+--------------------+
 
Energies :
 Fermi                       :     0.270814010861    
 sum of eigenvalues          :     -892.950159656    
 electron kinetic            :      1546.29800854    
 core electron kinetic       :      1433.77856664    
 Coulomb                     :     -2996.41988416    
 Coulomb potential           :     -2335.04704054    
 nuclear-nuclear             :     -200.861677929    
 electron-nuclear            :     -3256.06937192    
 Hartree                     :      460.511165689    
 Madelung                    :     -1828.89636389    
 xc potential                :     -104.201127662    
 exchange                    :     -77.2541490174    
 correlation                 :     -1.78106473159    
 total energy                :     -1529.15708936    
 
Density of states at Fermi energy :    100.0687250    
 (states/Hartree/unit cell)
 
Estimated indirect band gap :   0.4381995948E-03
 from k-point    187 to k-point    246
Estimated direct band gap   :   0.3364028972E-02
 at k-point    240
 
Charges :
 core                        :    20.00000000    
 valence                     :    22.00000000    
 interstitial                :    3.726037815    
 muffin-tins (core leakage)
  species :    1 (Sc)
   atom    1                 :    19.13698109     (  0.6526326146E-08)
   atom    2                 :    19.13698109     (  0.6526326146E-08)
 total in muffin-tins        :    38.27396219    
 total calculated charge     :    41.99999691    
 total charge                :    42.00000000    
 error                       :   0.3091069189E-05
 
RMS change in Kohn-Sham potential (target) :   0.1982212432E-04 (   10.00000000    )
Absolute change in total energy (target)   :   0.3155059858E-07 (  0.1000000000E-07)
 
Time (CPU seconds) :      2342.02
 
+--------------------+
| Loop number :   34 |
+--------------------+
 
Energies :
 Fermi                       :     0.270814010841    
 sum of eigenvalues          :     -892.950159666    
 electron kinetic            :      1546.29800851    
 core electron kinetic       :      1433.77856657    
 Coulomb                     :     -2996.41988414    
 Coulomb potential           :     -2335.04704051    
 nuclear-nuclear             :     -200.861677929    
 electron-nuclear            :     -3256.06937192    
 Hartree                     :      460.511165702    
 Madelung                    :     -1828.89636389    
 xc potential                :     -104.201127663    
 exchange                    :     -77.2541490166    
 correlation                 :     -1.78106473199    
 total energy                :     -1529.15708938    
 
Density of states at Fermi energy :    100.0687296    
 (states/Hartree/unit cell)
 
Estimated indirect band gap :   0.4381995581E-03
 from k-point    187 to k-point    246
Estimated direct band gap   :   0.3364028996E-02
 at k-point    240
 
Charges :
 core                        :    20.00000000    
 valence                     :    22.00000000    
 interstitial                :    3.726037816    
 muffin-tins (core leakage)
  species :    1 (Sc)
   atom    1                 :    19.13698109     (  0.6497037575E-08)
   atom    2                 :    19.13698109     (  0.6497037575E-08)
 total in muffin-tins        :    38.27396218    
 total calculated charge     :    41.99999691    
 total charge                :    42.00000000    
 error                       :   0.3091005297E-05
 
Wrote STATE.OUT
 
RMS change in Kohn-Sham potential (target) :   0.2205569411E-03 (   10.00000000    )
Absolute change in total energy (target)   :   0.1390208126E-07 (  0.1000000000E-07)
 
Time (CPU seconds) :      2409.19
 
+--------------------+
| Loop number :   35 |
+--------------------+
 
Energies :
 Fermi                       :     0.270814009834    
 sum of eigenvalues          :     -892.950159667    
 electron kinetic            :      1546.29800849    
 core electron kinetic       :      1433.77856653    
 Coulomb                     :     -2996.41988414    
 Coulomb potential           :     -2335.04704050    
 nuclear-nuclear             :     -200.861677929    
 electron-nuclear            :     -3256.06937192    
 Hartree                     :      460.511165710    
 Madelung                    :     -1828.89636389    
 xc potential                :     -104.201127660    
 exchange                    :     -77.2541490145    
 correlation                 :     -1.78106473205    
 total energy                :     -1529.15708939    
 
Density of states at Fermi energy :    100.0687282    
 (states/Hartree/unit cell)
 
Estimated indirect band gap :   0.4381995840E-03
 from k-point    187 to k-point    246
Estimated direct band gap   :   0.3364029019E-02
 at k-point    240
 
Charges :
 core                        :    20.00000000    
 valence                     :    22.00000000    
 interstitial                :    3.726037816    
 muffin-tins (core leakage)
  species :    1 (Sc)
   atom    1                 :    19.13698109     (  0.6538598996E-08)
   atom    2                 :    19.13698109     (  0.6538598996E-08)
 total in muffin-tins        :    38.27396218    
 total calculated charge     :    41.99999691    
 total charge                :    42.00000000    
 error                       :   0.3091204810E-05
 
RMS change in Kohn-Sham potential (target) :   0.6240171350E-04 (   10.00000000    )
Absolute change in total energy (target)   :   0.1255875759E-07 (  0.1000000000E-07)
 
Time (CPU seconds) :      2477.21
 
+--------------------+
| Loop number :   36 |
+--------------------+
 
Energies :
 Fermi                       :     0.270814010318    
 sum of eigenvalues          :     -892.950159659    
 electron kinetic            :      1546.29800852    
 core electron kinetic       :      1433.77856662    
 Coulomb                     :     -2996.41988415    
 Coulomb potential           :     -2335.04704052    
 nuclear-nuclear             :     -200.861677929    
 electron-nuclear            :     -3256.06937192    
 Hartree                     :      460.511165700    
 Madelung                    :     -1828.89636389    
 xc potential                :     -104.201127661    
 exchange                    :     -77.2541490160    
 correlation                 :     -1.78106473175    
 total energy                :     -1529.15708937    
 
Density of states at Fermi energy :    100.0687219    
 (states/Hartree/unit cell)
 
Estimated indirect band gap :   0.4381996115E-03
 from k-point    187 to k-point    246
Estimated direct band gap   :   0.3364028989E-02
 at k-point    240
 
Charges :
 core                        :    20.00000000    
 valence                     :    22.00000000    
 interstitial                :    3.726037815    
 muffin-tins (core leakage)
  species :    1 (Sc)
   atom    1                 :    19.13698109     (  0.6541457154E-08)
   atom    2                 :    19.13698109     (  0.6541457154E-08)
 total in muffin-tins        :    38.27396219    
 total calculated charge     :    41.99999691    
 total charge                :    42.00000000    
 error                       :   0.3091159819E-05
 
Wrote STATE.OUT
 
RMS change in Kohn-Sham potential (target) :   0.4917622101E-04 (   10.00000000    )
Absolute change in total energy (target)   :   0.1492276169E-07 (  0.1000000000E-07)
 
Time (CPU seconds) :      2546.12
 
+--------------------+
| Loop number :   37 |
+--------------------+
 
Energies :
 Fermi                       :     0.270814010703    
 sum of eigenvalues          :     -892.950159672    
 electron kinetic            :      1546.29800850    
 core electron kinetic       :      1433.77856657    
 Coulomb                     :     -2996.41988414    
 Coulomb potential           :     -2335.04704051    
 nuclear-nuclear             :     -200.861677929    
 electron-nuclear            :     -3256.06937192    
 Hartree                     :      460.511165704    
 Madelung                    :     -1828.89636389    
 xc potential                :     -104.201127662    
 exchange                    :     -77.2541490160    
 correlation                 :     -1.78106473213    
 total energy                :     -1529.15708939    
 
Density of states at Fermi energy :    100.0687331    
 (states/Hartree/unit cell)
 
Estimated indirect band gap :   0.4381994701E-03
 from k-point    187 to k-point    246
Estimated direct band gap   :   0.3364029105E-02
 at k-point    240
 
Charges :
 core                        :    20.00000000    
 valence                     :    22.00000000    
 interstitial                :    3.726037816    
 muffin-tins (core leakage)
  species :    1 (Sc)
   atom    1                 :    19.13698109     (  0.6498925842E-08)
   atom    2                 :    19.13698109     (  0.6498925842E-08)
 total in muffin-tins        :    38.27396218    
 total calculated charge     :    41.99999691    
 total charge                :    42.00000000    
 error                       :   0.3091118188E-05
 
RMS change in Kohn-Sham potential (target) :   0.5749881459E-04 (   10.00000000    )
Absolute change in total energy (target)   :   0.1303124009E-07 (  0.1000000000E-07)
 
Time (CPU seconds) :      2618.52
 
+--------------------+
| Loop number :   38 |
+--------------------+
 
Energies :
 Fermi                       :     0.270814010703    
 sum of eigenvalues          :     -892.950159681    
 electron kinetic            :      1546.29800852    
 core electron kinetic       :      1433.77856654    
 Coulomb                     :     -2996.41988416    
 Coulomb potential           :     -2335.04704054    
 nuclear-nuclear             :     -200.861677929    
 electron-nuclear            :     -3256.06937192    
 Hartree                     :      460.511165689    
 Madelung                    :     -1828.89636389    
 xc potential                :     -104.201127662    
 exchange                    :     -77.2541490161    
 correlation                 :     -1.78106473201    
 total energy                :     -1529.15708939    
 
Density of states at Fermi energy :    100.0687399    
 (states/Hartree/unit cell)
 
Estimated indirect band gap :   0.4381994041E-03
 from k-point    187 to k-point    246
Estimated direct band gap   :   0.3364029157E-02
 at k-point    240
 
Charges :
 core                        :    20.00000000    
 valence                     :    22.00000000    
 interstitial                :    3.726037818    
 muffin-tins (core leakage)
  species :    1 (Sc)
   atom    1                 :    19.13698109     (  0.6877655778E-08)
   atom    2                 :    19.13698109     (  0.6877655778E-08)
 total in muffin-tins        :    38.27396218    
 total calculated charge     :    41.99999691    
 total charge                :    42.00000000    
 error                       :   0.3091859710E-05
 
Wrote STATE.OUT
 
RMS change in Kohn-Sham potential (target) :   0.1872354268E-04 (   10.00000000    )
Absolute change in total energy (target)   :   0.1674607120E-08 (  0.1000000000E-07)
 
Convergence targets achieved
 
Time (CPU seconds) :      2689.60
 
+--------------------+
| Loop number :   39 |
+--------------------+
 
Energies :
 Fermi                       :     0.270814010798    
 sum of eigenvalues          :     -892.950159663    
 electron kinetic            :      1546.29800851    
 core electron kinetic       :      1433.77856656    
 Coulomb                     :     -2996.41988414    
 Coulomb potential           :     -2335.04704051    
 nuclear-nuclear             :     -200.861677929    
 electron-nuclear            :     -3256.06937192    
 Hartree                     :      460.511165704    
 Madelung                    :     -1828.89636389    
 xc potential                :     -104.201127663    
 exchange                    :     -77.2541490161    
 correlation                 :     -1.78106473193    
 total energy                :     -1529.15708938    
 
Density of states at Fermi energy :    100.0687280    
 (states/Hartree/unit cell)
 
Estimated indirect band gap :   0.4381994872E-03
 from k-point    187 to k-point    246
Estimated direct band gap   :   0.3364029105E-02
 at k-point    240
 
Charges :
 core                        :    20.00000000    
 valence                     :    22.00000000    
 interstitial                :    3.726037815    
 muffin-tins (core leakage)
  species :    1 (Sc)
   atom    1                 :    19.13698109     (  0.6519657703E-08)
   atom    2                 :    19.13698109     (  0.6519657703E-08)
 total in muffin-tins        :    38.27396218    
 total calculated charge     :    41.99999691    
 total charge                :    42.00000000    
 error                       :   0.3091094662E-05
 
+------------------------------+
| Self-consistent loop stopped |
+------------------------------+
 
Wrote STATE.OUT
 
Timings (CPU seconds) :
 initialisation                        :         1.04
 Hamiltonian and overlap matrix set up :       875.50
 first-variational eigenvalue equation :      1146.10
 charge density calculation            :       235.68
 potential calculation                 :       503.75
 total                                 :      2762.07
 
+----------------------------+
| Elk version 8.3.15 stopped |
+----------------------------+
