  0.9679249381    
   11.92941791    
   25.09010687    
   23.85518714    
   13.48829027    
   6.202163297    
   1.534181382    
  0.3725127580    
  0.9878194742E-01
  0.2658427368E-01
  0.6306879361E-02
  0.1848006794E-02
  0.2680432917E-03
  0.9236280948E-04
  0.5927807706E-04
  0.7693624138E-04
  0.1304139096E-04
  0.1347059879E-05
  0.4707579137E-05
  0.1050184255E-04
  0.4495798748E-05
  0.4867579264E-06
  0.6789032341E-06
  0.8685583452E-06
  0.1965798219E-05
  0.3200369974E-05
  0.2190389750E-05
  0.3585610102E-06
  0.6174177543E-06
  0.2791912266E-06
  0.1458913175E-05
  0.8794440873E-06
  0.7293647286E-06
  0.4507710401E-06
  0.9592667993E-06
  0.4749399523E-06
  0.2035449143E-07
  0.9645191312E-07
  0.3038157956E-06
  0.9726500139E-07
  0.1232183422E-06
  0.6528352969E-08
