   4.812466070    
   15.37536589    
   108.8503120    
   108.5698443    
   62.38999561    
   30.05758028    
   7.287937923    
   1.822117877    
  0.4425438192    
  0.1027017597    
  0.2735432811E-01
  0.7137923465E-02
  0.2253296334E-02
  0.8033938429E-03
  0.3026118429E-03
  0.1195006917E-03
  0.4448605614E-04
  0.1075043474E-03
  0.1543002872E-04
  0.1397082087E-04
  0.5437512300E-05
  0.1506612170E-04
  0.9557290468E-05
  0.1855383744E-05
  0.7473718142E-06
  0.9596769814E-06
  0.1418709871E-05
  0.2973683877E-06
  0.1274434908E-05
  0.4615430953E-06
  0.8530987543E-06
  0.2446904546E-07
  0.7779235602E-06
  0.3164095688E-06
  0.4028552212E-06
  0.1258886186E-06
  0.3661552910E-06
  0.1873049769E-06
  0.2143860911E-06
  0.2364322427E-06
  0.8971255738E-08
