   2.459957486    
   11.27422721    
   34.04905758    
   49.91479300    
   36.54501923    
   20.36100643    
   4.892156168    
   1.251325446    
  0.2936391252    
  0.7030670686E-01
  0.1772925361E-01
  0.5249789741E-02
  0.1629999937E-02
  0.4413775059E-03
  0.1278253367E-03
  0.6792447675E-04
  0.2729568405E-04
  0.4465528036E-05
  0.2768921695E-04
  0.5209109077E-05
  0.2200900781E-05
  0.1004829028E-04
  0.1074807005E-04
  0.2109479829E-04
  0.4711908332E-05
  0.1643595169E-05
  0.1314223482E-05
  0.1624168362E-05
  0.2883971320E-05
  0.2289994882E-05
  0.1842938218E-05
  0.1502885425E-05
  0.5919939213E-05
  0.2400629455E-05
  0.7634516805E-06
  0.4306129995E-06
  0.2388314897E-06
  0.1268981578E-06
  0.2747165126E-06
  0.8993265510E-07
