   67.94597934    
   67.69440876    
   67.54903451    
   61.75257091    
   54.71460836    
   56.87082841    
   58.38738726    
   58.25044396    
   58.04953746    
   58.10437054    
   58.21193348    
   58.23558766    
   58.23061990    
   58.22642015    
   58.22678124    
   58.23774593    
   58.22543768    
   58.22509581    
   58.22435283    
   58.22499506    
   58.22490245    
   58.22488242    
   58.22504076    
   58.22510737    
   58.22502223    
   58.22505225    
   58.22505397    
   58.22502682    
   58.22496296    
   58.22489682    
   58.22487054    
   58.22488123    
   58.22493535    
   58.22495334    
   58.22497364    
   58.22495263    
   58.22501170    
   58.22501382    
   58.22502538    
   58.22502229    
   58.22502758    
   58.22504075    
   58.22504274    
   58.22504168    
   58.22504177    
   58.22504122    
   58.22503905    
   58.22503948    
   58.22503966    
   58.22504027    
   58.22504045    
   58.22504057    
   58.22504059    
   58.22504071    
   58.22504065    
   58.22504128    
   58.22504126    
   58.22504121    
   58.22504118    
   58.22504129    
   58.22504127    
   58.22504126    
   58.22504125    
   58.22504124    
   58.22504123    
   58.22504126    
