 
Distance between is =    1 (Zr), ia =    1 and
 is =    1 (Zr), ia =    1 :    0.000000000    
 is =    1 (Zr), ia =    2 :    6.166603809    
 
Distance between is =    1 (Zr), ia =    2 and
 is =    1 (Zr), ia =    1 :    6.166603809    
 is =    1 (Zr), ia =    2 :    0.000000000    
