 
+----------------------------+
| Real-space lattice vectors |
+----------------------------+
 
vector a1 :    5.499366762      -3.175060880       0.000000000    
vector a2 :    0.000000000       6.350121762       0.000000000    
vector a3 :    0.000000000       0.000000000       9.916784563    
 
Stored column-wise as a matrix :
   5.499366762       0.000000000       0.000000000    
  -3.175060880       6.350121762       0.000000000    
   0.000000000       0.000000000       9.916784563    
 
Inverse of matrix :
  0.1818391177       0.000000000       0.000000000    
  0.9091955884E-01  0.1574772953       0.000000000    
   0.000000000       0.000000000      0.1008391373    
 
Unit cell volume :    346.3104653    
 
 
+----------------------------------+
| Reciprocal-space lattice vectors |
+----------------------------------+
 
vector b1 :    1.142528873       0.000000000       0.000000000    
vector b2 :   0.5712644362      0.9894590282       0.000000000    
vector b3 :    0.000000000       0.000000000      0.6335909858    
 
Stored column-wise as a matrix :
   1.142528873      0.5712644362       0.000000000    
   0.000000000      0.9894590282       0.000000000    
   0.000000000       0.000000000      0.6335909858    
 
Inverse of matrix :
  0.8752514041     -0.5053266337       0.000000000    
   0.000000000       1.010653268       0.000000000    
   0.000000000       0.000000000       1.578305283    
 
Brillouin zone volume :   0.7162654274    
