 
Species :    1 (Rb), atom :    1
 APW functions :
  l =  0, energy derivative =  0 :  -0.4174872917E-01
  l =  1, energy derivative =  0 :  -0.4174872917E-01
  l =  2, energy derivative =  0 :  -0.4174872917E-01
  l =  3, energy derivative =  0 :  -0.4174872917E-01
  l =  4, energy derivative =  0 :  -0.4174872917E-01
  l =  5, energy derivative =  0 :  -0.4174872917E-01
  l =  6, energy derivative =  0 :  -0.4174872917E-01
  l =  7, energy derivative =  0 :  -0.4174872917E-01
  l =  8, energy derivative =  0 :  -0.4174872917E-01
  l =  9, energy derivative =  0 :  -0.4174872917E-01
  l = 10, energy derivative =  0 :  -0.4174872917E-01
 local-orbital functions :
  l.o. =  1, l =  0, energy derivative =  0 :  -0.4174872917E-01
  l.o. =  1, l =  0, energy derivative =  1 :  -0.4174872917E-01
  l.o. =  2, l =  1, energy derivative =  0 :  -0.4174872917E-01
  l.o. =  2, l =  1, energy derivative =  1 :  -0.4174872917E-01
  l.o. =  3, l =  0, energy derivative =  0 :  -0.4174872917E-01
  l.o. =  3, l =  0, energy derivative =  0 :  -0.9960178996    
  l.o. =  4, l =  1, energy derivative =  0 :  -0.4174872917E-01
  l.o. =  4, l =  1, energy derivative =  0 :  -0.3675692373    
  l.o. =  5, l =  2, energy derivative =  0 :  -0.4174872917E-01
  l.o. =  5, l =  2, energy derivative =  1 :  -0.4174872917E-01
  l.o. =  6, l =  3, energy derivative =  0 :  -0.4174872917E-01
  l.o. =  6, l =  3, energy derivative =  1 :  -0.4174872917E-01
  l.o. =  7, l =  4, energy derivative =  0 :  -0.4174872917E-01
  l.o. =  7, l =  4, energy derivative =  1 :  -0.4174872917E-01
  l.o. =  8, l =  0, energy derivative =  0 :    1.663830206    
  l.o. =  8, l =  0, energy derivative =  1 :    1.663830206    
  l.o. =  8, l =  0, energy derivative =  2 :    1.663830206    
  l.o. =  9, l =  1, energy derivative =  0 :    2.250319766    
  l.o. =  9, l =  1, energy derivative =  1 :    2.250319766    
  l.o. =  9, l =  1, energy derivative =  2 :    2.250319766    
  l.o. = 10, l =  2, energy derivative =  0 :   0.6032538261    
  l.o. = 10, l =  2, energy derivative =  1 :   0.6032538261    
  l.o. = 10, l =  2, energy derivative =  2 :   0.6032538261    
  l.o. = 11, l =  3, energy derivative =  0 :    1.563715596    
  l.o. = 11, l =  3, energy derivative =  1 :    1.563715596    
  l.o. = 11, l =  3, energy derivative =  2 :    1.563715596    
  l.o. = 12, l =  4, energy derivative =  0 :    2.920203042    
  l.o. = 12, l =  4, energy derivative =  1 :    2.920203042    
  l.o. = 12, l =  4, energy derivative =  2 :    2.920203042    
  l.o. = 13, l =  5, energy derivative =  0 :    4.320627387    
  l.o. = 13, l =  5, energy derivative =  1 :    4.320627387    
  l.o. = 13, l =  5, energy derivative =  2 :    4.320627387    
  l.o. = 14, l =  6, energy derivative =  0 :    5.848988994    
  l.o. = 14, l =  6, energy derivative =  1 :    5.848988994    
  l.o. = 14, l =  6, energy derivative =  2 :    5.848988994    
  l.o. = 15, l =  7, energy derivative =  0 :    7.524821808    
  l.o. = 15, l =  7, energy derivative =  1 :    7.524821808    
  l.o. = 15, l =  7, energy derivative =  2 :    7.524821808    
  l.o. = 16, l =  8, energy derivative =  0 :    9.355236487    
  l.o. = 16, l =  8, energy derivative =  1 :    9.355236487    
  l.o. = 16, l =  8, energy derivative =  2 :    9.355236487    
