  0.1154747457E-02
  0.1253464663E-02
  0.8987736887E-03
  0.7681804227E-03
  0.5781022182E-03
  0.2155791727E-03
  0.2055454703E-03
  0.8401187396E-03
  0.1500625385E-03
  0.4361533067E-03
  0.1446244593E-03
  0.5546390033E-03
  0.5093580826E-03
  0.3396810980E-03
  0.1865594649E-03
  0.1743896866E-03
  0.2627011932E-03
  0.2467991580E-03
  0.4581142677E-03
  0.6591945005E-04
  0.2778877549E-03
  0.7022018397E-03
  0.5583278098E-03
  0.1711772713E-03
  0.6509283423E-03
  0.4673716220E-03
  0.2396566371E-03
  0.2598181832E-04
  0.9288125132E-04
  0.3489159004E-03
  0.1021964960E-03
  0.1201705108E-03
  0.2359774277E-03
  0.8070760132E-03
  0.2373523459E-03
  0.1417929139E-03
  0.7526841509E-04
  0.4233262619E-03
  0.3406185905E-03
  0.1052504737E-02
  0.1238559416E-02
  0.1748422296E-03
  0.1276930348E-03
