    -3821.76686244    
    -3821.76581414    
    -3821.75843953    
    -3821.75627974    
    -3821.75000492    
    -3821.73713320    
    -3821.70404576    
    -3821.70325046    
    -3821.70310635    
    -3821.70318027    
    -3821.70304853    
    -3821.70302907    
    -3821.70312741    
    -3821.70310683    
    -3821.70306842    
    -3821.70305655    
    -3821.70304557    
    -3821.70303008    
    -3821.70303472    
    -3821.70303052    
    -3821.70303910    
    -3821.70303811    
    -3821.70302291    
    -3821.70302639    
    -3821.70302769    
    -3821.70302432    
    -3821.70302647    
    -3821.70302699    
    -3821.70302566    
    -3821.70302353    
    -3821.70302311    
    -3821.70302274    
    -3821.70302274    
    -3821.70302228    
    -3821.70302269    
    -3821.70302239    
    -3821.70302251    
    -3821.70302248    
    -3821.70302245    
    -3821.70302243    
    -3821.70302239    
    -3821.70302237    
    -3821.70302243    
    -3821.70302241    
    -3821.70302247    
