 
Species :    1 (Os), atom :    1
 APW functions :
  l =  0, energy derivative =  0 :   0.6185310889    
  l =  1, energy derivative =  0 :   0.6185310889    
  l =  2, energy derivative =  0 :   0.6185310889    
  l =  3, energy derivative =  0 :   0.6185310889    
  l =  4, energy derivative =  0 :   0.6185310889    
  l =  5, energy derivative =  0 :   0.6185310889    
  l =  6, energy derivative =  0 :   0.6185310889    
  l =  7, energy derivative =  0 :   0.6185310889    
  l =  8, energy derivative =  0 :   0.6185310889    
  l =  9, energy derivative =  0 :   0.6185310889    
  l = 10, energy derivative =  0 :   0.6185310889    
 local-orbital functions :
  l.o. =  1, l =  0, energy derivative =  0 :   0.6185310889    
  l.o. =  1, l =  0, energy derivative =  1 :   0.6185310889    
  l.o. =  2, l =  1, energy derivative =  0 :   0.6185310889    
  l.o. =  2, l =  1, energy derivative =  1 :   0.6185310889    
  l.o. =  3, l =  2, energy derivative =  0 :   0.6185310889    
  l.o. =  3, l =  2, energy derivative =  1 :   0.6185310889    
  l.o. =  4, l =  3, energy derivative =  0 :   0.6185310889    
  l.o. =  4, l =  3, energy derivative =  1 :   0.6185310889    
  l.o. =  5, l =  3, energy derivative =  0 :   0.6185310889    
  l.o. =  5, l =  3, energy derivative =  0 :   -1.007639456    
  l.o. =  6, l =  0, energy derivative =  0 :   0.6185310889    
  l.o. =  6, l =  0, energy derivative =  0 :   -2.474701670    
  l.o. =  7, l =  1, energy derivative =  0 :   0.6185310889    
  l.o. =  7, l =  1, energy derivative =  0 :  -0.9785900952    
  l.o. =  8, l =  2, energy derivative =  0 :   0.6185310889    
  l.o. =  8, l =  2, energy derivative =  0 :   0.7728754654    
  l.o. =  9, l =  4, energy derivative =  0 :   0.6185310889    
  l.o. =  9, l =  4, energy derivative =  1 :   0.6185310889    
  l.o. = 10, l =  5, energy derivative =  0 :   0.6185310889    
  l.o. = 10, l =  5, energy derivative =  1 :   0.6185310889    
  l.o. = 11, l =  6, energy derivative =  0 :   0.6185310889    
  l.o. = 11, l =  6, energy derivative =  1 :   0.6185310889    
  l.o. = 12, l =  0, energy derivative =  0 :    1.543846504    
  l.o. = 12, l =  0, energy derivative =  1 :    1.543846504    
  l.o. = 12, l =  0, energy derivative =  2 :    1.543846504    
  l.o. = 13, l =  1, energy derivative =  0 :    2.389529461    
  l.o. = 13, l =  1, energy derivative =  1 :    2.389529461    
  l.o. = 13, l =  1, energy derivative =  2 :    2.389529461    
  l.o. = 14, l =  2, energy derivative =  0 :   0.7728754654    
  l.o. = 14, l =  2, energy derivative =  1 :   0.7728754654    
  l.o. = 14, l =  2, energy derivative =  2 :   0.7728754654    
  l.o. = 15, l =  3, energy derivative =  0 :    2.478274764    
  l.o. = 15, l =  3, energy derivative =  1 :    2.478274764    
  l.o. = 15, l =  3, energy derivative =  2 :    2.478274764    
  l.o. = 16, l =  4, energy derivative =  0 :    3.869699824    
  l.o. = 16, l =  4, energy derivative =  1 :    3.869699824    
  l.o. = 16, l =  4, energy derivative =  2 :    3.869699824    
  l.o. = 17, l =  5, energy derivative =  0 :    5.651997451    
  l.o. = 17, l =  5, energy derivative =  1 :    5.651997451    
  l.o. = 17, l =  5, energy derivative =  2 :    5.651997451    
  l.o. = 18, l =  6, energy derivative =  0 :    7.528245447    
  l.o. = 18, l =  6, energy derivative =  1 :    7.528245447    
  l.o. = 18, l =  6, energy derivative =  2 :    7.528245447    
  l.o. = 19, l =  7, energy derivative =  0 :    9.564225533    
  l.o. = 19, l =  7, energy derivative =  1 :    9.564225533    
  l.o. = 19, l =  7, energy derivative =  2 :    9.564225533    
  l.o. = 20, l =  8, energy derivative =  0 :    11.77825954    
  l.o. = 20, l =  8, energy derivative =  1 :    11.77825954    
  l.o. = 20, l =  8, energy derivative =  2 :    11.77825954    
 
Species :    1 (Os), atom :    2
 APW functions :
  l =  0, energy derivative =  0 :   0.6185310889    
  l =  1, energy derivative =  0 :   0.6185310889    
  l =  2, energy derivative =  0 :   0.6185310889    
  l =  3, energy derivative =  0 :   0.6185310889    
  l =  4, energy derivative =  0 :   0.6185310889    
  l =  5, energy derivative =  0 :   0.6185310889    
  l =  6, energy derivative =  0 :   0.6185310889    
  l =  7, energy derivative =  0 :   0.6185310889    
  l =  8, energy derivative =  0 :   0.6185310889    
  l =  9, energy derivative =  0 :   0.6185310889    
  l = 10, energy derivative =  0 :   0.6185310889    
 local-orbital functions :
  l.o. =  1, l =  0, energy derivative =  0 :   0.6185310889    
  l.o. =  1, l =  0, energy derivative =  1 :   0.6185310889    
  l.o. =  2, l =  1, energy derivative =  0 :   0.6185310889    
  l.o. =  2, l =  1, energy derivative =  1 :   0.6185310889    
  l.o. =  3, l =  2, energy derivative =  0 :   0.6185310889    
  l.o. =  3, l =  2, energy derivative =  1 :   0.6185310889    
  l.o. =  4, l =  3, energy derivative =  0 :   0.6185310889    
  l.o. =  4, l =  3, energy derivative =  1 :   0.6185310889    
  l.o. =  5, l =  3, energy derivative =  0 :   0.6185310889    
  l.o. =  5, l =  3, energy derivative =  0 :   -1.007639456    
  l.o. =  6, l =  0, energy derivative =  0 :   0.6185310889    
  l.o. =  6, l =  0, energy derivative =  0 :   -2.474701670    
  l.o. =  7, l =  1, energy derivative =  0 :   0.6185310889    
  l.o. =  7, l =  1, energy derivative =  0 :  -0.9785900952    
  l.o. =  8, l =  2, energy derivative =  0 :   0.6185310889    
  l.o. =  8, l =  2, energy derivative =  0 :   0.7728754654    
  l.o. =  9, l =  4, energy derivative =  0 :   0.6185310889    
  l.o. =  9, l =  4, energy derivative =  1 :   0.6185310889    
  l.o. = 10, l =  5, energy derivative =  0 :   0.6185310889    
  l.o. = 10, l =  5, energy derivative =  1 :   0.6185310889    
  l.o. = 11, l =  6, energy derivative =  0 :   0.6185310889    
  l.o. = 11, l =  6, energy derivative =  1 :   0.6185310889    
  l.o. = 12, l =  0, energy derivative =  0 :    1.543846504    
  l.o. = 12, l =  0, energy derivative =  1 :    1.543846504    
  l.o. = 12, l =  0, energy derivative =  2 :    1.543846504    
  l.o. = 13, l =  1, energy derivative =  0 :    2.389529461    
  l.o. = 13, l =  1, energy derivative =  1 :    2.389529461    
  l.o. = 13, l =  1, energy derivative =  2 :    2.389529461    
  l.o. = 14, l =  2, energy derivative =  0 :   0.7728754654    
  l.o. = 14, l =  2, energy derivative =  1 :   0.7728754654    
  l.o. = 14, l =  2, energy derivative =  2 :   0.7728754654    
  l.o. = 15, l =  3, energy derivative =  0 :    2.478274764    
  l.o. = 15, l =  3, energy derivative =  1 :    2.478274764    
  l.o. = 15, l =  3, energy derivative =  2 :    2.478274764    
  l.o. = 16, l =  4, energy derivative =  0 :    3.869699824    
  l.o. = 16, l =  4, energy derivative =  1 :    3.869699824    
  l.o. = 16, l =  4, energy derivative =  2 :    3.869699824    
  l.o. = 17, l =  5, energy derivative =  0 :    5.651997451    
  l.o. = 17, l =  5, energy derivative =  1 :    5.651997451    
  l.o. = 17, l =  5, energy derivative =  2 :    5.651997451    
  l.o. = 18, l =  6, energy derivative =  0 :    7.528245447    
  l.o. = 18, l =  6, energy derivative =  1 :    7.528245447    
  l.o. = 18, l =  6, energy derivative =  2 :    7.528245447    
  l.o. = 19, l =  7, energy derivative =  0 :    9.564225533    
  l.o. = 19, l =  7, energy derivative =  1 :    9.564225533    
  l.o. = 19, l =  7, energy derivative =  2 :    9.564225533    
  l.o. = 20, l =  8, energy derivative =  0 :    11.77825954    
  l.o. = 20, l =  8, energy derivative =  1 :    11.77825954    
  l.o. = 20, l =  8, energy derivative =  2 :    11.77825954    
