    -7.56960049534    
    -7.56945904913    
    -7.55807991159    
    -7.54858022698    
    -7.54407130474    
    -7.54234901644    
    -7.54164846941    
    -7.54139251153    
    -7.54103683229    
    -7.54106677473    
    -7.54109912381    
    -7.54109906345    
    -7.54108891618    
    -7.54108755683    
    -7.54109196037    
    -7.54109288647    
    -7.54109364671    
    -7.54109377043    
    -7.54109376086    
    -7.54109375005    
    -7.54109374486    
    -7.54109374641    
