 
Species :    1 (Zr), atom :    1
 n =  1, l =  0, k =  1 :   -655.4455024    
 n =  2, l =  0, k =  1 :   -90.11198939    
 n =  2, l =  1, k =  1 :   -82.40806176    
 n =  2, l =  1, k =  2 :   -79.23966629    
 n =  3, l =  0, k =  1 :   -14.20291171    
 n =  3, l =  1, k =  1 :   -11.33963592    
 n =  3, l =  1, k =  2 :   -10.83464235    
 n =  3, l =  2, k =  2 :   -5.785588051    
 n =  3, l =  2, k =  3 :   -5.693848141    
 
Species :    1 (Zr), atom :    2
 n =  1, l =  0, k =  1 :   -655.4455024    
 n =  2, l =  0, k =  1 :   -90.11198939    
 n =  2, l =  1, k =  1 :   -82.40806176    
 n =  2, l =  1, k =  2 :   -79.23966629    
 n =  3, l =  0, k =  1 :   -14.20291171    
 n =  3, l =  1, k =  1 :   -11.33963592    
 n =  3, l =  1, k =  2 :   -10.83464235    
 n =  3, l =  2, k =  2 :   -5.785588051    
 n =  3, l =  2, k =  3 :   -5.693848141    
