 
Species :    1 (Zr), atom :    1
 APW functions :
  l =  0, energy derivative =  0 :   0.3490860531    
  l =  1, energy derivative =  0 :   0.3490860531    
  l =  2, energy derivative =  0 :   0.3490860531    
  l =  3, energy derivative =  0 :   0.3490860531    
  l =  4, energy derivative =  0 :   0.3490860531    
  l =  5, energy derivative =  0 :   0.3490860531    
  l =  6, energy derivative =  0 :   0.3490860531    
  l =  7, energy derivative =  0 :   0.3490860531    
  l =  8, energy derivative =  0 :   0.3490860531    
  l =  9, energy derivative =  0 :   0.3490860531    
  l = 10, energy derivative =  0 :   0.3490860531    
 local-orbital functions :
  l.o. =  1, l =  0, energy derivative =  0 :   0.3490860531    
  l.o. =  1, l =  0, energy derivative =  1 :   0.3490860531    
  l.o. =  2, l =  1, energy derivative =  0 :   0.3490860531    
  l.o. =  2, l =  1, energy derivative =  1 :   0.3490860531    
  l.o. =  3, l =  2, energy derivative =  0 :   0.3490860531    
  l.o. =  3, l =  2, energy derivative =  1 :   0.3490860531    
  l.o. =  4, l =  0, energy derivative =  0 :   0.3490860531    
  l.o. =  4, l =  0, energy derivative =  0 :   -1.344570392    
  l.o. =  5, l =  1, energy derivative =  0 :   0.3490860531    
  l.o. =  5, l =  1, energy derivative =  0 :  -0.5224224224    
  l.o. =  6, l =  3, energy derivative =  0 :   0.3490860531    
  l.o. =  6, l =  3, energy derivative =  1 :   0.3490860531    
  l.o. =  7, l =  4, energy derivative =  0 :   0.3490860531    
  l.o. =  7, l =  4, energy derivative =  1 :   0.3490860531    
  l.o. =  8, l =  5, energy derivative =  0 :   0.3490860531    
  l.o. =  8, l =  5, energy derivative =  1 :   0.3490860531    
  l.o. =  9, l =  0, energy derivative =  0 :    1.686577175    
  l.o. =  9, l =  0, energy derivative =  1 :    1.686577175    
  l.o. =  9, l =  0, energy derivative =  2 :    1.686577175    
  l.o. = 10, l =  1, energy derivative =  0 :    2.278769559    
  l.o. = 10, l =  1, energy derivative =  1 :    2.278769559    
  l.o. = 10, l =  1, energy derivative =  2 :    2.278769559    
  l.o. = 11, l =  2, energy derivative =  0 :   0.6934783253    
  l.o. = 11, l =  2, energy derivative =  1 :   0.6934783253    
  l.o. = 11, l =  2, energy derivative =  2 :   0.6934783253    
  l.o. = 12, l =  3, energy derivative =  0 :    1.887778022    
  l.o. = 12, l =  3, energy derivative =  1 :    1.887778022    
  l.o. = 12, l =  3, energy derivative =  2 :    1.887778022    
  l.o. = 13, l =  4, energy derivative =  0 :    3.443245029    
  l.o. = 13, l =  4, energy derivative =  1 :    3.443245029    
  l.o. = 13, l =  4, energy derivative =  2 :    3.443245029    
  l.o. = 14, l =  5, energy derivative =  0 :    4.985403135    
  l.o. = 14, l =  5, energy derivative =  1 :    4.985403135    
  l.o. = 14, l =  5, energy derivative =  2 :    4.985403135    
  l.o. = 15, l =  6, energy derivative =  0 :    6.652012012    
  l.o. = 15, l =  6, energy derivative =  1 :    6.652012012    
  l.o. = 15, l =  6, energy derivative =  2 :    6.652012012    
  l.o. = 16, l =  7, energy derivative =  0 :    8.472180662    
  l.o. = 16, l =  7, energy derivative =  1 :    8.472180662    
  l.o. = 16, l =  7, energy derivative =  2 :    8.472180662    
  l.o. = 17, l =  8, energy derivative =  0 :    10.45633929    
  l.o. = 17, l =  8, energy derivative =  1 :    10.45633929    
  l.o. = 17, l =  8, energy derivative =  2 :    10.45633929    
 
Species :    1 (Zr), atom :    2
 APW functions :
  l =  0, energy derivative =  0 :   0.3490860531    
  l =  1, energy derivative =  0 :   0.3490860531    
  l =  2, energy derivative =  0 :   0.3490860531    
  l =  3, energy derivative =  0 :   0.3490860531    
  l =  4, energy derivative =  0 :   0.3490860531    
  l =  5, energy derivative =  0 :   0.3490860531    
  l =  6, energy derivative =  0 :   0.3490860531    
  l =  7, energy derivative =  0 :   0.3490860531    
  l =  8, energy derivative =  0 :   0.3490860531    
  l =  9, energy derivative =  0 :   0.3490860531    
  l = 10, energy derivative =  0 :   0.3490860531    
 local-orbital functions :
  l.o. =  1, l =  0, energy derivative =  0 :   0.3490860531    
  l.o. =  1, l =  0, energy derivative =  1 :   0.3490860531    
  l.o. =  2, l =  1, energy derivative =  0 :   0.3490860531    
  l.o. =  2, l =  1, energy derivative =  1 :   0.3490860531    
  l.o. =  3, l =  2, energy derivative =  0 :   0.3490860531    
  l.o. =  3, l =  2, energy derivative =  1 :   0.3490860531    
  l.o. =  4, l =  0, energy derivative =  0 :   0.3490860531    
  l.o. =  4, l =  0, energy derivative =  0 :   -1.344570392    
  l.o. =  5, l =  1, energy derivative =  0 :   0.3490860531    
  l.o. =  5, l =  1, energy derivative =  0 :  -0.5224224224    
  l.o. =  6, l =  3, energy derivative =  0 :   0.3490860531    
  l.o. =  6, l =  3, energy derivative =  1 :   0.3490860531    
  l.o. =  7, l =  4, energy derivative =  0 :   0.3490860531    
  l.o. =  7, l =  4, energy derivative =  1 :   0.3490860531    
  l.o. =  8, l =  5, energy derivative =  0 :   0.3490860531    
  l.o. =  8, l =  5, energy derivative =  1 :   0.3490860531    
  l.o. =  9, l =  0, energy derivative =  0 :    1.686577175    
  l.o. =  9, l =  0, energy derivative =  1 :    1.686577175    
  l.o. =  9, l =  0, energy derivative =  2 :    1.686577175    
  l.o. = 10, l =  1, energy derivative =  0 :    2.278769559    
  l.o. = 10, l =  1, energy derivative =  1 :    2.278769559    
  l.o. = 10, l =  1, energy derivative =  2 :    2.278769559    
  l.o. = 11, l =  2, energy derivative =  0 :   0.6934783253    
  l.o. = 11, l =  2, energy derivative =  1 :   0.6934783253    
  l.o. = 11, l =  2, energy derivative =  2 :   0.6934783253    
  l.o. = 12, l =  3, energy derivative =  0 :    1.887778022    
  l.o. = 12, l =  3, energy derivative =  1 :    1.887778022    
  l.o. = 12, l =  3, energy derivative =  2 :    1.887778022    
  l.o. = 13, l =  4, energy derivative =  0 :    3.443245029    
  l.o. = 13, l =  4, energy derivative =  1 :    3.443245029    
  l.o. = 13, l =  4, energy derivative =  2 :    3.443245029    
  l.o. = 14, l =  5, energy derivative =  0 :    4.985403135    
  l.o. = 14, l =  5, energy derivative =  1 :    4.985403135    
  l.o. = 14, l =  5, energy derivative =  2 :    4.985403135    
  l.o. = 15, l =  6, energy derivative =  0 :    6.652012012    
  l.o. = 15, l =  6, energy derivative =  1 :    6.652012012    
  l.o. = 15, l =  6, energy derivative =  2 :    6.652012012    
  l.o. = 16, l =  7, energy derivative =  0 :    8.472180662    
  l.o. = 16, l =  7, energy derivative =  1 :    8.472180662    
  l.o. = 16, l =  7, energy derivative =  2 :    8.472180662    
  l.o. = 17, l =  8, energy derivative =  0 :    10.45633929    
  l.o. = 17, l =  8, energy derivative =  1 :    10.45633929    
  l.o. = 17, l =  8, energy derivative =  2 :    10.45633929    
