+----------------------------+
| Elk version 8.3.15 started |
+----------------------------+
 
Date (YYYY-MM-DD) : 2022-02-24
Time (hh:mm:ss)   : 05:35:25
 
All units are atomic (Hartree, Bohr, etc.)
 
+------------------------------------------+
| Ground-state run resuming from STATE.OUT |
+------------------------------------------+
 
Lattice vectors :
   5.385060625      -3.109066202       0.000000000    
   0.000000000       6.218132403       0.000000000    
   0.000000000       0.000000000       9.364185325    
 
Reciprocal lattice vectors :
   1.166780793       0.000000000       0.000000000    
  0.5833903967       1.010461808       0.000000000    
   0.000000000       0.000000000      0.6709804525    
 
Unit cell volume      :    313.5599325    
Brillouin zone volume :   0.7910775188    
 
Muffin-tin inner radius fraction :   0.1000000000E-01
 
Species :    1 (Sc)
 parameters loaded from : Sc.in
 name : scandium
 nuclear charge    :   -21.00000000    
 electronic charge :    21.00000000    
 atomic mass :    81949.61066    
 muffin-tin radius :    2.400000000    
 number of radial points in muffin-tin :   1000
 number on inner part of muffin-tin    :    716
 atomic positions (lattice), magnetic fields (Cartesian) :
   1 :   0.33333333  0.16666667  0.25000000    0.00000000  0.00000000  0.00000000
   2 :  -0.33333333 -0.16666667 -0.25000000    0.00000000  0.00000000  0.00000000
 
Total number of atoms per unit cell :    2
 
Spin treatment :
 spin-unpolarised
 
Number of Bravais lattice symmetries :   24
Number of crystal symmetries         :   24
Crystal has inversion symmetry
Real symmetric eigensolver will be used
 
k-point grid :     17    17    17
k-point offset :    0.000000000       0.000000000       0.000000000    
k-point set is reduced with full crystal symmetry group
Total number of k-points :      297
 
Muffin-tin radius times maximum |G+k| :    8.500000000    
 using gkmax = rgkmax / 2
Maximum |G+k| for APW functions       :    4.250000000    
Maximum (1/2)|G+k|²                   :    9.031250000    
Maximum |G| for potential and density :    34.00000000    
Constant for pseudocharge density :   20
Radial integration step length :    1
 
G-vector grid sizes :     72    72   108
Number of G-vectors :   208163
 
Maximum angular momentum used for
 APW functions                      :   10
 outer part of muffin-tin           :    8
 inner part of muffin-tin           :    1
 
Total nuclear charge    :   -42.00000000    
Total core charge       :    20.00000000    
Total valence charge    :    22.00000000    
Total excess charge     :    0.000000000    
Total electronic charge :    42.00000000    
 
Effective Wigner radius, rₛ :    1.212441763    
 
Number of empty states         :   40
Total number of valence states :   52
Total number of core states    :   20
 
Conduction state local-orbitals added automatically
Total number of local-orbitals :  242
 
Using Libxc version 05.01.05
Exchange-correlation functional :    100   493   494
 exchange: mgga_x_rscan; correlation: mgga_c_rscan
 
Smearing type :    1
 Methfessel-Paxton order 1, Phys. Rev. B 40, 3616 (1989)
Smearing width :   0.1000000000E-02
Effective electronic temperature (K) :    315.7750248    
 
Mixing type :    3
 Broyden mixing, J. Phys. A: Math. Gen. 17, L317 (1984)
 
Potential read in from STATE.OUT
 
+------------------------------+
| Self-consistent loop started |
+------------------------------+
 
+--------------------+
| Loop number :    1 |
+--------------------+
 
Energies :
 Fermi                       :     0.267112156810    
 sum of eigenvalues          :     -893.142606139    
 electron kinetic            :      1546.31286769    
 core electron kinetic       :      1433.77705473    
 Coulomb                     :     -2996.39663969    
 Coulomb potential           :     -2335.26631738    
 nuclear-nuclear             :     -200.401634092    
 electron-nuclear            :     -3256.72369380    
 Hartree                     :      460.728688210    
 Madelung                    :     -1828.76348099    
 xc potential                :     -104.189156448    
 exchange                    :     -77.2466142908    
 correlation                 :     -1.78000428443    
 total energy                :     -1529.11039057    
 
Density of states at Fermi energy :    131.2759018    
 (states/Hartree/unit cell)
 
Estimated indirect band gap :   0.3648988346E-04
 from k-point    204 to k-point    153
Estimated direct band gap   :   0.2660917115E-02
 at k-point    297
 
Charges :
 core                        :    20.00000000    
 valence                     :    22.00000000    
 interstitial                :    3.751108935    
 muffin-tins (core leakage)
  species :    1 (Sc)
   atom    1                 :    19.12444553     (  0.6541895914E-08)
   atom    2                 :    19.12444553     (  0.6541895914E-08)
 total in muffin-tins        :    38.24889106    
 total calculated charge     :    41.99999683    
 total charge                :    42.00000000    
 error                       :   0.3173476841E-05
 
Time (CPU seconds) :        71.20
 
+--------------------+
| Loop number :    2 |
+--------------------+
 
Energies :
 Fermi                       :     0.267108966020    
 sum of eigenvalues          :     -893.143019197    
 electron kinetic            :      1546.31200484    
 core electron kinetic       :      1433.77694230    
 Coulomb                     :     -2996.39707449    
 Coulomb potential           :     -2335.26579015    
 nuclear-nuclear             :     -200.401634092    
 electron-nuclear            :     -3256.72509066    
 Hartree                     :      460.729650256    
 Madelung                    :     -1828.76417942    
 xc potential                :     -104.189233892    
 exchange                    :     -77.2466655944    
 correlation                 :     -1.78000687307    
 total energy                :     -1529.11174212    
 
Density of states at Fermi energy :    130.7491112    
 (states/Hartree/unit cell)
 
Estimated indirect band gap :   0.4611103435E-04
 from k-point    204 to k-point    153
Estimated direct band gap   :   0.2654591685E-02
 at k-point    297
 
Charges :
 core                        :    20.00000000    
 valence                     :    22.00000000    
 interstitial                :    3.750996834    
 muffin-tins (core leakage)
  species :    1 (Sc)
   atom    1                 :    19.12450158     (  0.6594110147E-08)
   atom    2                 :    19.12450158     (  0.6594110147E-08)
 total in muffin-tins        :    38.24900317    
 total calculated charge     :    41.99999683    
 total charge                :    42.00000000    
 error                       :   0.3165187032E-05
 
Wrote STATE.OUT
 
RMS change in Kohn-Sham potential (target) :   0.1612537199E-01 (   10.00000000    )
Absolute change in total energy (target)   :   0.1351551977E-02 (  0.1000000000E-07)
 
Time (CPU seconds) :       137.90
 
+--------------------+
| Loop number :    3 |
+--------------------+
 
Energies :
 Fermi                       :     0.267092634904    
 sum of eigenvalues          :     -893.143910196    
 electron kinetic            :      1546.30530524    
 core electron kinetic       :      1433.77697937    
 Coulomb                     :     -2996.39848415    
 Coulomb potential           :     -2335.25947201    
 nuclear-nuclear             :     -200.401634092    
 electron-nuclear            :     -3256.73422811    
 Hartree                     :      460.737378049    
 Madelung                    :     -1828.76874815    
 xc potential                :     -104.189743420    
 exchange                    :     -77.2469488692    
 correlation                 :     -1.78004371926    
 total energy                :     -1529.12017151    
 
Density of states at Fermi energy :    122.7465834    
 (states/Hartree/unit cell)
 
Estimated indirect band gap :   0.1501657957E-03
 from k-point     47 to k-point    153
Estimated direct band gap   :   0.2557275303E-02
 at k-point    297
 
Charges :
 core                        :    20.00000000    
 valence                     :    22.00000000    
 interstitial                :    3.749725230    
 muffin-tins (core leakage)
  species :    1 (Sc)
   atom    1                 :    19.12513739     (  0.6558606103E-08)
   atom    2                 :    19.12513739     (  0.6558606103E-08)
 total in muffin-tins        :    38.25027477    
 total calculated charge     :    41.99999697    
 total charge                :    42.00000000    
 error                       :   0.3032614657E-05
 
RMS change in Kohn-Sham potential (target) :   0.1335885616E-01 (   10.00000000    )
Absolute change in total energy (target)   :   0.8767273250E-02 (  0.1000000000E-07)
 
Time (CPU seconds) :       206.50
 
+--------------------+
| Loop number :    4 |
+--------------------+
 
Energies :
 Fermi                       :     0.267077861161    
 sum of eigenvalues          :     -893.145720067    
 electron kinetic            :      1546.28875710    
 core electron kinetic       :      1433.77749061    
 Coulomb                     :     -2996.40211398    
 Coulomb potential           :     -2335.24341382    
 nuclear-nuclear             :     -200.401634092    
 electron-nuclear            :     -3256.75754595    
 Hartree                     :      460.757066067    
 Madelung                    :     -1828.78040707    
 xc potential                :     -104.191063350    
 exchange                    :     -77.2476724086    
 correlation                 :     -1.78013777038    
 total energy                :     -1529.14116705    
 
Density of states at Fermi energy :    107.2648243    
 (states/Hartree/unit cell)
 
Estimated indirect band gap :   0.3167866606E-03
 from k-point    222 to k-point    221
Estimated direct band gap   :   0.2319168125E-02
 at k-point    297
 
Charges :
 core                        :    20.00000000    
 valence                     :    22.00000000    
 interstitial                :    3.746359799    
 muffin-tins (core leakage)
  species :    1 (Sc)
   atom    1                 :    19.12682010     (  0.6560453514E-08)
   atom    2                 :    19.12682010     (  0.6560453514E-08)
 total in muffin-tins        :    38.25364020    
 total calculated charge     :    41.99999730    
 total charge                :    42.00000000    
 error                       :   0.2696675821E-05
 
Wrote STATE.OUT
 
RMS change in Kohn-Sham potential (target) :   0.5825380176E-02 (   10.00000000    )
Absolute change in total energy (target)   :   0.2318736744E-01 (  0.1000000000E-07)
 
Time (CPU seconds) :       277.09
 
+--------------------+
| Loop number :    5 |
+--------------------+
 
Energies :
 Fermi                       :     0.267077490155    
 sum of eigenvalues          :     -893.147092241    
 electron kinetic            :      1546.27974604    
 core electron kinetic       :      1433.77771484    
 Coulomb                     :     -2996.40460114    
 Coulomb potential           :     -2335.23500153    
 nuclear-nuclear             :     -200.401634092    
 electron-nuclear            :     -3256.77093258    
 Hartree                     :      460.767965528    
 Madelung                    :     -1828.78710038    
 xc potential                :     -104.191836758    
 exchange                    :     -77.2481093518    
 correlation                 :     -1.78018577878    
 total energy                :     -1529.15315023    
 
Density of states at Fermi energy :    102.6015010    
 (states/Hartree/unit cell)
 
Estimated indirect band gap :   0.2247909884E-03
 from k-point     14 to k-point    221
Estimated direct band gap   :   0.3102791637E-02
 at k-point    240
 
Charges :
 core                        :    20.00000000    
 valence                     :    22.00000000    
 interstitial                :    3.744530189    
 muffin-tins (core leakage)
  species :    1 (Sc)
   atom    1                 :    19.12773491     (  0.6496229332E-08)
   atom    2                 :    19.12773491     (  0.6496229332E-08)
 total in muffin-tins        :    38.25546981    
 total calculated charge     :    41.99999747    
 total charge                :    42.00000000    
 error                       :   0.2527007496E-05
 
RMS change in Kohn-Sham potential (target) :   0.1921458851E-02 (   10.00000000    )
Absolute change in total energy (target)   :   0.1778002097E-01 (  0.1000000000E-07)
 
Time (CPU seconds) :       348.94
 
+--------------------+
| Loop number :    6 |
+--------------------+
 
Energies :
 Fermi                       :     0.267086780147    
 sum of eigenvalues          :     -893.147493183    
 electron kinetic            :      1546.27779889    
 core electron kinetic       :      1433.77843157    
 Coulomb                     :     -2996.40558833    
 Coulomb potential           :     -2335.23325565    
 nuclear-nuclear             :     -200.401634092    
 electron-nuclear            :     -3256.77465281    
 Hartree                     :      460.770698580    
 Madelung                    :     -1828.78896050    
 xc potential                :     -104.192036419    
 exchange                    :     -77.2482184782    
 correlation                 :     -1.78019915719    
 total energy                :     -1529.15620707    
 
Density of states at Fermi energy :    101.6457986    
 (states/Hartree/unit cell)
 
Estimated indirect band gap :   0.1582846042E-03
 from k-point     14 to k-point    221
Estimated direct band gap   :   0.3093304919E-02
 at k-point    240
 
Charges :
 core                        :    20.00000000    
 valence                     :    22.00000000    
 interstitial                :    3.744071888    
 muffin-tins (core leakage)
  species :    1 (Sc)
   atom    1                 :    19.12796406     (  0.6554369492E-08)
   atom    2                 :    19.12796406     (  0.6554369492E-08)
 total in muffin-tins        :    38.25592811    
 total calculated charge     :    41.99999752    
 total charge                :    42.00000000    
 error                       :   0.2479878667E-05
 
Wrote STATE.OUT
 
RMS change in Kohn-Sham potential (target) :   0.8580035902E-03 (   10.00000000    )
Absolute change in total energy (target)   :   0.7501843346E-02 (  0.1000000000E-07)
 
Time (CPU seconds) :       421.30
 
+--------------------+
| Loop number :    7 |
+--------------------+
 
Energies :
 Fermi                       :     0.267097223333    
 sum of eigenvalues          :     -893.148003202    
 electron kinetic            :      1546.27767523    
 core electron kinetic       :      1433.77898682    
 Coulomb                     :     -2996.40653356    
 Coulomb potential           :     -2335.23357731    
 nuclear-nuclear             :     -200.401634092    
 electron-nuclear            :     -3256.77622163    
 Hartree                     :      460.771322157    
 Madelung                    :     -1828.78974490    
 xc potential                :     -104.192101124    
 exchange                    :     -77.2482580794    
 correlation                 :     -1.78020254416    
 total energy                :     -1529.15731895    
 
Density of states at Fermi energy :    101.6383242    
 (states/Hartree/unit cell)
 
Estimated indirect band gap :   0.1538444671E-03
 from k-point     14 to k-point    221
Estimated direct band gap   :   0.3089747132E-02
 at k-point    240
 
Charges :
 core                        :    20.00000000    
 valence                     :    22.00000000    
 interstitial                :    3.744028733    
 muffin-tins (core leakage)
  species :    1 (Sc)
   atom    1                 :    19.12798563     (  0.6521799989E-08)
   atom    2                 :    19.12798563     (  0.6521799989E-08)
 total in muffin-tins        :    38.25597127    
 total calculated charge     :    41.99999752    
 total charge                :    42.00000000    
 error                       :   0.2475735229E-05
 
RMS change in Kohn-Sham potential (target) :   0.4618370501E-03 (   10.00000000    )
Absolute change in total energy (target)   :   0.2987339824E-02 (  0.1000000000E-07)
 
Time (CPU seconds) :       491.12
 
+--------------------+
| Loop number :    8 |
+--------------------+
 
Energies :
 Fermi                       :     0.267106654919    
 sum of eigenvalues          :     -893.148540197    
 electron kinetic            :      1546.27814528    
 core electron kinetic       :      1433.77847001    
 Coulomb                     :     -2996.40741592    
 Coulomb potential           :     -2335.23456769    
 nuclear-nuclear             :     -200.401634092    
 electron-nuclear            :     -3256.77699597    
 Hartree                     :      460.771214138    
 Madelung                    :     -1828.79013208    
 xc potential                :     -104.192117783    
 exchange                    :     -77.2482719884    
 correlation                 :     -1.78020274629    
 total energy                :     -1529.15774538    
 
Density of states at Fermi energy :    101.9419170    
 (states/Hartree/unit cell)
 
Estimated indirect band gap :   0.1709055687E-03
 from k-point     14 to k-point    221
Estimated direct band gap   :   0.3088301711E-02
 at k-point    240
 
Charges :
 core                        :    20.00000000    
 valence                     :    22.00000000    
 interstitial                :    3.744127788    
 muffin-tins (core leakage)
  species :    1 (Sc)
   atom    1                 :    19.12793611     (  0.6537986152E-08)
   atom    2                 :    19.12793611     (  0.6537986152E-08)
 total in muffin-tins        :    38.25587221    
 total calculated charge     :    41.99999751    
 total charge                :    42.00000000    
 error                       :   0.2487421220E-05
 
Wrote STATE.OUT
 
RMS change in Kohn-Sham potential (target) :   0.1492192847E-03 (   10.00000000    )
Absolute change in total energy (target)   :   0.1173263356E-02 (  0.1000000000E-07)
 
Time (CPU seconds) :       559.10
 
+--------------------+
| Loop number :    9 |
+--------------------+
 
Energies :
 Fermi                       :     0.267103347061    
 sum of eigenvalues          :     -893.148366842    
 electron kinetic            :      1546.27808271    
 core electron kinetic       :      1433.77856812    
 Coulomb                     :     -2996.40712076    
 Coulomb potential           :     -2335.23434529    
 nuclear-nuclear             :     -200.401634092    
 electron-nuclear            :     -3256.77662804    
 Hartree                     :      460.771141373    
 Madelung                    :     -1828.78994811    
 xc potential                :     -104.192104258    
 exchange                    :     -77.2482616780    
 correlation                 :     -1.78020263056    
 total energy                :     -1529.15750236    
 
Density of states at Fermi energy :    101.8826840    
 (states/Hartree/unit cell)
 
Estimated indirect band gap :   0.1670270397E-03
 from k-point     14 to k-point    221
Estimated direct band gap   :   0.3088576210E-02
 at k-point    240
 
Charges :
 core                        :    20.00000000    
 valence                     :    22.00000000    
 interstitial                :    3.744112860    
 muffin-tins (core leakage)
  species :    1 (Sc)
   atom    1                 :    19.12794357     (  0.6616772907E-08)
   atom    2                 :    19.12794357     (  0.6616772907E-08)
 total in muffin-tins        :    38.25588714    
 total calculated charge     :    41.99999751    
 total charge                :    42.00000000    
 error                       :   0.2485313587E-05
 
RMS change in Kohn-Sham potential (target) :   0.1704989100E-04 (   10.00000000    )
Absolute change in total energy (target)   :   0.5029474164E-04 (  0.1000000000E-07)
 
Time (CPU seconds) :       629.57
 
+--------------------+
| Loop number :   10 |
+--------------------+
 
Energies :
 Fermi                       :     0.267102870445    
 sum of eigenvalues          :     -893.148401959    
 electron kinetic            :      1546.27807372    
 core electron kinetic       :      1433.77856327    
 Coulomb                     :     -2996.40714546    
 Coulomb potential           :     -2335.23437068    
 nuclear-nuclear             :     -200.401634092    
 electron-nuclear            :     -3256.77665205    
 Hartree                     :      460.771140687    
 Madelung                    :     -1828.78996012    
 xc potential                :     -104.192104998    
 exchange                    :     -77.2482622272    
 correlation                 :     -1.78020266048    
 total energy                :     -1529.15753663    
 
Density of states at Fermi energy :    101.8970639    
 (states/Hartree/unit cell)
 
Estimated indirect band gap :   0.1675951932E-03
 from k-point     14 to k-point    221
Estimated direct band gap   :   0.3088527667E-02
 at k-point    240
 
Charges :
 core                        :    20.00000000    
 valence                     :    22.00000000    
 interstitial                :    3.744116610    
 muffin-tins (core leakage)
  species :    1 (Sc)
   atom    1                 :    19.12794169     (  0.6556009069E-08)
   atom    2                 :    19.12794169     (  0.6556009069E-08)
 total in muffin-tins        :    38.25588339    
 total calculated charge     :    41.99999751    
 total charge                :    42.00000000    
 error                       :   0.2485901099E-05
 
Wrote STATE.OUT
 
RMS change in Kohn-Sham potential (target) :   0.6518990860E-04 (   10.00000000    )
Absolute change in total energy (target)   :   0.4684330315E-04 (  0.1000000000E-07)
 
Time (CPU seconds) :       702.18
 
+--------------------+
| Loop number :   11 |
+--------------------+
 
Energies :
 Fermi                       :     0.267102859737    
 sum of eigenvalues          :     -893.148430207    
 electron kinetic            :      1546.27806945    
 core electron kinetic       :      1433.77848484    
 Coulomb                     :     -2996.40717710    
 Coulomb potential           :     -2335.23439301    
 nuclear-nuclear             :     -200.401634092    
 electron-nuclear            :     -3256.77669301    
 Hartree                     :      460.771150003    
 Madelung                    :     -1828.78998060    
 xc potential                :     -104.192106653    
 exchange                    :     -77.2482634541    
 correlation                 :     -1.78020268994    
 total energy                :     -1529.15757379    
 
Density of states at Fermi energy :    101.9068821    
 (states/Hartree/unit cell)
 
Estimated indirect band gap :   0.1681154691E-03
 from k-point     14 to k-point    221
Estimated direct band gap   :   0.3088503316E-02
 at k-point    240
 
Charges :
 core                        :    20.00000000    
 valence                     :    22.00000000    
 interstitial                :    3.744118819    
 muffin-tins (core leakage)
  species :    1 (Sc)
   atom    1                 :    19.12794059     (  0.6553008802E-08)
   atom    2                 :    19.12794059     (  0.6553008802E-08)
 total in muffin-tins        :    38.25588118    
 total calculated charge     :    41.99999751    
 total charge                :    42.00000000    
 error                       :   0.2486212722E-05
 
RMS change in Kohn-Sham potential (target) :   0.2191688089E-03 (   10.00000000    )
Absolute change in total energy (target)   :   0.4887519208E-04 (  0.1000000000E-07)
 
Time (CPU seconds) :       772.91
 
+--------------------+
| Loop number :   12 |
+--------------------+
 
Energies :
 Fermi                       :     0.267101251692    
 sum of eigenvalues          :     -893.148401128    
 electron kinetic            :      1546.27803531    
 core electron kinetic       :      1433.77851562    
 Coulomb                     :     -2996.40709521    
 Coulomb potential           :     -2335.23433374    
 nuclear-nuclear             :     -200.401634092    
 electron-nuclear            :     -3256.77658849    
 Hartree                     :      460.771127379    
 Madelung                    :     -1828.78992834    
 xc potential                :     -104.192102700    
 exchange                    :     -77.2482604075    
 correlation                 :     -1.78020268106    
 total energy                :     -1529.15752299    
 
Density of states at Fermi energy :    101.8940767    
 (states/Hartree/unit cell)
 
Estimated indirect band gap :   0.1669998454E-03
 from k-point     14 to k-point    221
Estimated direct band gap   :   0.3088538969E-02
 at k-point    240
 
Charges :
 core                        :    20.00000000    
 valence                     :    22.00000000    
 interstitial                :    3.744115807    
 muffin-tins (core leakage)
  species :    1 (Sc)
   atom    1                 :    19.12794210     (  0.6535925579E-08)
   atom    2                 :    19.12794210     (  0.6535925579E-08)
 total in muffin-tins        :    38.25588419    
 total calculated charge     :    41.99999751    
 total charge                :    42.00000000    
 error                       :   0.2485708556E-05
 
Wrote STATE.OUT
 
RMS change in Kohn-Sham potential (target) :   0.3409006545E-04 (   10.00000000    )
Absolute change in total energy (target)   :   0.3858571245E-04 (  0.1000000000E-07)
 
Time (CPU seconds) :       843.07
 
+--------------------+
| Loop number :   13 |
+--------------------+
 
Energies :
 Fermi                       :     0.267101384665    
 sum of eigenvalues          :     -893.148424642    
 electron kinetic            :      1546.27803583    
 core electron kinetic       :      1433.77851662    
 Coulomb                     :     -2996.40712557    
 Coulomb potential           :     -2335.23435633    
 nuclear-nuclear             :     -200.401634092    
 electron-nuclear            :     -3256.77662663    
 Hartree                     :      460.771135151    
 Madelung                    :     -1828.78994741    
 xc potential                :     -104.192104142    
 exchange                    :     -77.2482614847    
 correlation                 :     -1.78020270446    
 total energy                :     -1529.15755393    
 
Density of states at Fermi energy :    101.9010106    
 (states/Hartree/unit cell)
 
Estimated indirect band gap :   0.1673920095E-03
 from k-point     14 to k-point    221
Estimated direct band gap   :   0.3088501665E-02
 at k-point    240
 
Charges :
 core                        :    20.00000000    
 valence                     :    22.00000000    
 interstitial                :    3.744117576    
 muffin-tins (core leakage)
  species :    1 (Sc)
   atom    1                 :    19.12794121     (  0.6489283777E-08)
   atom    2                 :    19.12794121     (  0.6489283777E-08)
 total in muffin-tins        :    38.25588242    
 total calculated charge     :    41.99999751    
 total charge                :    42.00000000    
 error                       :   0.2485965425E-05
 
RMS change in Kohn-Sham potential (target) :   0.3767030153E-04 (   10.00000000    )
Absolute change in total energy (target)   :   0.2129897825E-04 (  0.1000000000E-07)
 
Time (CPU seconds) :       913.45
 
+--------------------+
| Loop number :   14 |
+--------------------+
 
Energies :
 Fermi                       :     0.267101688479    
 sum of eigenvalues          :     -893.148433581    
 electron kinetic            :      1546.27804138    
 core electron kinetic       :      1433.77851114    
 Coulomb                     :     -2996.40714503    
 Coulomb potential           :     -2335.23436983    
 nuclear-nuclear             :     -200.401634092    
 electron-nuclear            :     -3256.77665205    
 Hartree                     :      460.771141112    
 Madelung                    :     -1828.78996012    
 xc potential                :     -104.192105131    
 exchange                    :     -77.2482622205    
 correlation                 :     -1.78020271741    
 total energy                :     -1529.15756859    
 
Density of states at Fermi energy :    101.9040594    
 (states/Hartree/unit cell)
 
Estimated indirect band gap :   0.1676404418E-03
 from k-point     14 to k-point    221
Estimated direct band gap   :   0.3088487392E-02
 at k-point    240
 
Charges :
 core                        :    20.00000000    
 valence                     :    22.00000000    
 interstitial                :    3.744118282    
 muffin-tins (core leakage)
  species :    1 (Sc)
   atom    1                 :    19.12794086     (  0.6590942903E-08)
   atom    2                 :    19.12794086     (  0.6590942903E-08)
 total in muffin-tins        :    38.25588172    
 total calculated charge     :    41.99999751    
 total charge                :    42.00000000    
 error                       :   0.2486272926E-05
 
Wrote STATE.OUT
 
RMS change in Kohn-Sham potential (target) :   0.2921260182E-04 (   10.00000000    )
Absolute change in total energy (target)   :   0.1998366247E-04 (  0.1000000000E-07)
 
Time (CPU seconds) :       987.67
 
+--------------------+
| Loop number :   15 |
+--------------------+
 
Energies :
 Fermi                       :     0.267101609485    
 sum of eigenvalues          :     -893.148433485    
 electron kinetic            :      1546.27803985    
 core electron kinetic       :      1433.77850905    
 Coulomb                     :     -2996.40714252    
 Coulomb potential           :     -2335.23436833    
 nuclear-nuclear             :     -200.401634092    
 electron-nuclear            :     -3256.77664852    
 Hartree                     :      460.771140096    
 Madelung                    :     -1828.78995835    
 xc potential                :     -104.192105008    
 exchange                    :     -77.2482621183    
 correlation                 :     -1.78020272109    
 total energy                :     -1529.15756750    
 
Density of states at Fermi energy :    101.9038884    
 (states/Hartree/unit cell)
 
Estimated indirect band gap :   0.1676141637E-03
 from k-point     14 to k-point    221
Estimated direct band gap   :   0.3088486684E-02
 at k-point    240
 
Charges :
 core                        :    20.00000000    
 valence                     :    22.00000000    
 interstitial                :    3.744118266    
 muffin-tins (core leakage)
  species :    1 (Sc)
   atom    1                 :    19.12794087     (  0.6547782760E-08)
   atom    2                 :    19.12794087     (  0.6547782760E-08)
 total in muffin-tins        :    38.25588173    
 total calculated charge     :    41.99999751    
 total charge                :    42.00000000    
 error                       :   0.2486144190E-05
 
RMS change in Kohn-Sham potential (target) :   0.6549788751E-04 (   10.00000000    )
Absolute change in total energy (target)   :   0.3908230156E-05 (  0.1000000000E-07)
 
Time (CPU seconds) :      1061.11
 
+--------------------+
| Loop number :   16 |
+--------------------+
 
Energies :
 Fermi                       :     0.267101708642    
 sum of eigenvalues          :     -893.148430392    
 electron kinetic            :      1546.27804263    
 core electron kinetic       :      1433.77850861    
 Coulomb                     :     -2996.40714202    
 Coulomb potential           :     -2335.23436804    
 nuclear-nuclear             :     -200.401634092    
 electron-nuclear            :     -3256.77664782    
 Hartree                     :      460.771139889    
 Madelung                    :     -1828.78995800    
 xc potential                :     -104.192104987    
 exchange                    :     -77.2482621017    
 correlation                 :     -1.78020271964    
 total energy                :     -1529.15756421    
 
Density of states at Fermi energy :    101.9031797    
 (states/Hartree/unit cell)
 
Estimated indirect band gap :   0.1676107998E-03
 from k-point     14 to k-point    221
Estimated direct band gap   :   0.3088491306E-02
 at k-point    240
 
Charges :
 core                        :    20.00000000    
 valence                     :    22.00000000    
 interstitial                :    3.744118096    
 muffin-tins (core leakage)
  species :    1 (Sc)
   atom    1                 :    19.12794095     (  0.6547654863E-08)
   atom    2                 :    19.12794095     (  0.6547654863E-08)
 total in muffin-tins        :    38.25588190    
 total calculated charge     :    41.99999751    
 total charge                :    42.00000000    
 error                       :   0.2486099071E-05
 
Wrote STATE.OUT
 
RMS change in Kohn-Sham potential (target) :   0.1673523368E-03 (   10.00000000    )
Absolute change in total energy (target)   :   0.2319718078E-05 (  0.1000000000E-07)
 
Time (CPU seconds) :      1131.68
 
+--------------------+
| Loop number :   17 |
+--------------------+
 
Energies :
 Fermi                       :     0.267101456560    
 sum of eigenvalues          :     -893.148432335    
 electron kinetic            :      1546.27803681    
 core electron kinetic       :      1433.77850710    
 Coulomb                     :     -2996.40713670    
 Coulomb potential           :     -2335.23436447    
 nuclear-nuclear             :     -200.401634092    
 electron-nuclear            :     -3256.77664075    
 Hartree                     :      460.771138142    
 Madelung                    :     -1828.78995447    
 xc potential                :     -104.192104678    
 exchange                    :     -77.2482618585    
 correlation                 :     -1.78020272381    
 total energy                :     -1529.15756447    
 
Density of states at Fermi energy :    101.9027296    
 (states/Hartree/unit cell)
 
Estimated indirect band gap :   0.1675175518E-03
 from k-point     14 to k-point    221
Estimated direct band gap   :   0.3088485014E-02
 at k-point    240
 
Charges :
 core                        :    20.00000000    
 valence                     :    22.00000000    
 interstitial                :    3.744118086    
 muffin-tins (core leakage)
  species :    1 (Sc)
   atom    1                 :    19.12794096     (  0.6535058716E-08)
   atom    2                 :    19.12794096     (  0.6535058716E-08)
 total in muffin-tins        :    38.25588191    
 total calculated charge     :    41.99999751    
 total charge                :    42.00000000    
 error                       :   0.2486062321E-05
 
RMS change in Kohn-Sham potential (target) :   0.5646364178E-04 (   10.00000000    )
Absolute change in total energy (target)   :   0.3134045983E-06 (  0.1000000000E-07)
 
Time (CPU seconds) :      1202.22
 
+--------------------+
| Loop number :   18 |
+--------------------+
 
Energies :
 Fermi                       :     0.267101491999    
 sum of eigenvalues          :     -893.148431938    
 electron kinetic            :      1546.27803760    
 core electron kinetic       :      1433.77850650    
 Coulomb                     :     -2996.40713689    
 Coulomb potential           :     -2335.23436484    
 nuclear-nuclear             :     -200.401634092    
 electron-nuclear            :     -3256.77664075    
 Hartree                     :      460.771137955    
 Madelung                    :     -1828.78995447    
 xc potential                :     -104.192104700    
 exchange                    :     -77.2482618767    
 correlation                 :     -1.78020272291    
 total energy                :     -1529.15756388    
 
Density of states at Fermi energy :    101.9025539    
 (states/Hartree/unit cell)
 
Estimated indirect band gap :   0.1675199353E-03
 from k-point     14 to k-point    221
Estimated direct band gap   :   0.3088485382E-02
 at k-point    240
 
Charges :
 core                        :    20.00000000    
 valence                     :    22.00000000    
 interstitial                :    3.744118057    
 muffin-tins (core leakage)
  species :    1 (Sc)
   atom    1                 :    19.12794097     (  0.6505889161E-08)
   atom    2                 :    19.12794097     (  0.6505889161E-08)
 total in muffin-tins        :    38.25588194    
 total calculated charge     :    41.99999751    
 total charge                :    42.00000000    
 error                       :   0.2485910088E-05
 
Wrote STATE.OUT
 
RMS change in Kohn-Sham potential (target) :   0.6949818115E-04 (   10.00000000    )
Absolute change in total energy (target)   :   0.6675054465E-06 (  0.1000000000E-07)
 
Time (CPU seconds) :      1273.92
 
+--------------------+
| Loop number :   19 |
+--------------------+
 
Energies :
 Fermi                       :     0.267101475321    
 sum of eigenvalues          :     -893.148430632    
 electron kinetic            :      1546.27803745    
 core electron kinetic       :      1433.77850835    
 Coulomb                     :     -2996.40713515    
 Coulomb potential           :     -2335.23436349    
 nuclear-nuclear             :     -200.401634092    
 electron-nuclear            :     -3256.77663863    
 Hartree                     :      460.771137573    
 Madelung                    :     -1828.78995341    
 xc potential                :     -104.192104597    
 exchange                    :     -77.2482618014    
 correlation                 :     -1.78020272102    
 total energy                :     -1529.15756222    
 
Density of states at Fermi energy :    101.9021744    
 (states/Hartree/unit cell)
 
Estimated indirect band gap :   0.1674947971E-03
 from k-point     14 to k-point    221
Estimated direct band gap   :   0.3088487334E-02
 at k-point    240
 
Charges :
 core                        :    20.00000000    
 valence                     :    22.00000000    
 interstitial                :    3.744117967    
 muffin-tins (core leakage)
  species :    1 (Sc)
   atom    1                 :    19.12794102     (  0.6539174535E-08)
   atom    2                 :    19.12794102     (  0.6539174535E-08)
 total in muffin-tins        :    38.25588203    
 total calculated charge     :    41.99999751    
 total charge                :    42.00000000    
 error                       :   0.2486090963E-05
 
RMS change in Kohn-Sham potential (target) :   0.6889800172E-04 (   10.00000000    )
Absolute change in total energy (target)   :   0.1828810355E-05 (  0.1000000000E-07)
 
Time (CPU seconds) :      1344.74
 
+--------------------+
| Loop number :   20 |
+--------------------+
 
Energies :
 Fermi                       :     0.267101508463    
 sum of eigenvalues          :     -893.148431256    
 electron kinetic            :      1546.27803814    
 core electron kinetic       :      1433.77850854    
 Coulomb                     :     -2996.40713682    
 Coulomb potential           :     -2335.23436471    
 nuclear-nuclear             :     -200.401634092    
 electron-nuclear            :     -3256.77664075    
 Hartree                     :      460.771138023    
 Madelung                    :     -1828.78995447    
 xc potential                :     -104.192104685    
 exchange                    :     -77.2482618660    
 correlation                 :     -1.78020272270    
 total energy                :     -1529.15756327    
 
Density of states at Fermi energy :    101.9024147    
 (states/Hartree/unit cell)
 
Estimated indirect band gap :   0.1675182800E-03
 from k-point     14 to k-point    221
Estimated direct band gap   :   0.3088486336E-02
 at k-point    240
 
Charges :
 core                        :    20.00000000    
 valence                     :    22.00000000    
 interstitial                :    3.744118022    
 muffin-tins (core leakage)
  species :    1 (Sc)
   atom    1                 :    19.12794099     (  0.6553310783E-08)
   atom    2                 :    19.12794099     (  0.6553310783E-08)
 total in muffin-tins        :    38.25588198    
 total calculated charge     :    41.99999751    
 total charge                :    42.00000000    
 error                       :   0.2486043542E-05
 
Wrote STATE.OUT
 
RMS change in Kohn-Sham potential (target) :   0.1431722721E-03 (   10.00000000    )
Absolute change in total energy (target)   :   0.5942770258E-06 (  0.1000000000E-07)
 
Time (CPU seconds) :      1413.68
 
+--------------------+
| Loop number :   21 |
+--------------------+
 
Energies :
 Fermi                       :     0.267101480002    
 sum of eigenvalues          :     -893.148432340    
 electron kinetic            :      1546.27803736    
 core electron kinetic       :      1433.77850796    
 Coulomb                     :     -2996.40713696    
 Coulomb potential           :     -2335.23436499    
 nuclear-nuclear             :     -200.401634092    
 electron-nuclear            :     -3256.77664075    
 Hartree                     :      460.771137880    
 Madelung                    :     -1828.78995447    
 xc potential                :     -104.192104706    
 exchange                    :     -77.2482618795    
 correlation                 :     -1.78020272445    
 total energy                :     -1529.15756421    
 
Density of states at Fermi energy :    101.9026451    
 (states/Hartree/unit cell)
 
Estimated indirect band gap :   0.1675219034E-03
 from k-point     14 to k-point    221
Estimated direct band gap   :   0.3088484317E-02
 at k-point    240
 
Charges :
 core                        :    20.00000000    
 valence                     :    22.00000000    
 interstitial                :    3.744118082    
 muffin-tins (core leakage)
  species :    1 (Sc)
   atom    1                 :    19.12794096     (  0.6531170271E-08)
   atom    2                 :    19.12794096     (  0.6531170271E-08)
 total in muffin-tins        :    38.25588192    
 total calculated charge     :    41.99999751    
 total charge                :    42.00000000    
 error                       :   0.2486048615E-05
 
RMS change in Kohn-Sham potential (target) :   0.1121540808E-03 (   10.00000000    )
Absolute change in total energy (target)   :   0.1084292990E-05 (  0.1000000000E-07)
 
Time (CPU seconds) :      1485.58
 
+--------------------+
| Loop number :   22 |
+--------------------+
 
Energies :
 Fermi                       :     0.267101445175    
 sum of eigenvalues          :     -893.148433371    
 electron kinetic            :      1546.27803647    
 core electron kinetic       :      1433.77850719    
 Coulomb                     :     -2996.40713739    
 Coulomb potential           :     -2335.23436513    
 nuclear-nuclear             :     -200.401634092    
 electron-nuclear            :     -3256.77664146    
 Hartree                     :      460.771138165    
 Madelung                    :     -1828.78995482    
 xc potential                :     -104.192104715    
 exchange                    :     -77.2482618800    
 correlation                 :     -1.78020272734    
 total energy                :     -1529.15756552    
 
Density of states at Fermi energy :    101.9028737    
 (states/Hartree/unit cell)
 
Estimated indirect band gap :   0.1675247327E-03
 from k-point     14 to k-point    221
Estimated direct band gap   :   0.3088482354E-02
 at k-point    240
 
Charges :
 core                        :    20.00000000    
 valence                     :    22.00000000    
 interstitial                :    3.744118144    
 muffin-tins (core leakage)
  species :    1 (Sc)
   atom    1                 :    19.12794093     (  0.6548608766E-08)
   atom    2                 :    19.12794093     (  0.6548608766E-08)
 total in muffin-tins        :    38.25588186    
 total calculated charge     :    41.99999751    
 total charge                :    42.00000000    
 error                       :   0.2486088192E-05
 
Wrote STATE.OUT
 
RMS change in Kohn-Sham potential (target) :   0.2218623884E-04 (   10.00000000    )
Absolute change in total energy (target)   :   0.1580481467E-05 (  0.1000000000E-07)
 
Time (CPU seconds) :      1554.30
 
+--------------------+
| Loop number :   23 |
+--------------------+
 
Energies :
 Fermi                       :     0.267101526787    
 sum of eigenvalues          :     -893.148432178    
 electron kinetic            :      1546.27803847    
 core electron kinetic       :      1433.77850833    
 Coulomb                     :     -2996.40713811    
 Coulomb potential           :     -2335.23436588    
 nuclear-nuclear             :     -200.401634092    
 electron-nuclear            :     -3256.77664217    
 Hartree                     :      460.771138143    
 Madelung                    :     -1828.78995517    
 xc potential                :     -104.192104773    
 exchange                    :     -77.2482619260    
 correlation                 :     -1.78020272576    
 total energy                :     -1529.15756429    
 
Density of states at Fermi energy :    101.9027486    
 (states/Hartree/unit cell)
 
Estimated indirect band gap :   0.1675428588E-03
 from k-point     14 to k-point    221
Estimated direct band gap   :   0.3088484947E-02
 at k-point    240
 
Charges :
 core                        :    20.00000000    
 valence                     :    22.00000000    
 interstitial                :    3.744118097    
 muffin-tins (core leakage)
  species :    1 (Sc)
   atom    1                 :    19.12794095     (  0.6543928066E-08)
   atom    2                 :    19.12794095     (  0.6543928066E-08)
 total in muffin-tins        :    38.25588190    
 total calculated charge     :    41.99999751    
 total charge                :    42.00000000    
 error                       :   0.2486141838E-05
 
RMS change in Kohn-Sham potential (target) :   0.1034053296E-03 (   10.00000000    )
Absolute change in total energy (target)   :   0.8326233001E-06 (  0.1000000000E-07)
 
Time (CPU seconds) :      1622.27
 
+--------------------+
| Loop number :   24 |
+--------------------+
 
Energies :
 Fermi                       :     0.267101545527    
 sum of eigenvalues          :     -893.148431728    
 electron kinetic            :      1546.27803900    
 core electron kinetic       :      1433.77850871    
 Coulomb                     :     -2996.40713850    
 Coulomb potential           :     -2335.23436595    
 nuclear-nuclear             :     -200.401634092    
 electron-nuclear            :     -3256.77664287    
 Hartree                     :      460.771138459    
 Madelung                    :     -1828.78995553    
 xc potential                :     -104.192104772    
 exchange                    :     -77.2482619290    
 correlation                 :     -1.78020272439    
 total energy                :     -1529.15756416    
 
Density of states at Fermi energy :    101.9026382    
 (states/Hartree/unit cell)
 
Estimated indirect band gap :   0.1675428211E-03
 from k-point     14 to k-point    221
Estimated direct band gap   :   0.3088485771E-02
 at k-point    240
 
Charges :
 core                        :    20.00000000    
 valence                     :    22.00000000    
 interstitial                :    3.744118070    
 muffin-tins (core leakage)
  species :    1 (Sc)
   atom    1                 :    19.12794096     (  0.6854167012E-08)
   atom    2                 :    19.12794096     (  0.6854167012E-08)
 total in muffin-tins        :    38.25588193    
 total calculated charge     :    41.99999751    
 total charge                :    42.00000000    
 error                       :   0.2486761353E-05
 
Wrote STATE.OUT
 
RMS change in Kohn-Sham potential (target) :   0.1834119478E-04 (   10.00000000    )
Absolute change in total energy (target)   :   0.3400414244E-06 (  0.1000000000E-07)
 
Time (CPU seconds) :      1692.72
 
+--------------------+
| Loop number :   25 |
+--------------------+
 
Energies :
 Fermi                       :     0.267101590539    
 sum of eigenvalues          :     -893.148430626    
 electron kinetic            :      1546.27804016    
 core electron kinetic       :      1433.77850984    
 Coulomb                     :     -2996.40713853    
 Coulomb potential           :     -2335.23436601    
 nuclear-nuclear             :     -200.401634092    
 electron-nuclear            :     -3256.77664287    
 Hartree                     :      460.771138432    
 Madelung                    :     -1828.78995553    
 xc potential                :     -104.192104778    
 exchange                    :     -77.2482619380    
 correlation                 :     -1.78020272213    
 total energy                :     -1529.15756303    
 
Density of states at Fermi energy :    101.9024586    
 (states/Hartree/unit cell)
 
Estimated indirect band gap :   0.1675462557E-03
 from k-point     14 to k-point    221
Estimated direct band gap   :   0.3088488094E-02
 at k-point    240
 
Charges :
 core                        :    20.00000000    
 valence                     :    22.00000000    
 interstitial                :    3.744118013    
 muffin-tins (core leakage)
  species :    1 (Sc)
   atom    1                 :    19.12794099     (  0.6551450937E-08)
   atom    2                 :    19.12794099     (  0.6551450937E-08)
 total in muffin-tins        :    38.25588199    
 total calculated charge     :    41.99999751    
 total charge                :    42.00000000    
 error                       :   0.2486060545E-05
 
RMS change in Kohn-Sham potential (target) :   0.1475953658E-03 (   10.00000000    )
Absolute change in total energy (target)   :   0.1212456937E-05 (  0.1000000000E-07)
 
Time (CPU seconds) :      1764.18
 
+--------------------+
| Loop number :   26 |
+--------------------+
 
Energies :
 Fermi                       :     0.267101581349    
 sum of eigenvalues          :     -893.148430929    
 electron kinetic            :      1546.27803993    
 core electron kinetic       :      1433.77850937    
 Coulomb                     :     -2996.40713857    
 Coulomb potential           :     -2335.23436608    
 nuclear-nuclear             :     -200.401634092    
 electron-nuclear            :     -3256.77664287    
 Hartree                     :      460.771138397    
 Madelung                    :     -1828.78995553    
 xc potential                :     -104.192104783    
 exchange                    :     -77.2482619400    
 correlation                 :     -1.78020272279    
 total energy                :     -1529.15756330    
 
Density of states at Fermi energy :    101.9025217    
 (states/Hartree/unit cell)
 
Estimated indirect band gap :   0.1675470962E-03
 from k-point     14 to k-point    221
Estimated direct band gap   :   0.3088487529E-02
 at k-point    240
 
Charges :
 core                        :    20.00000000    
 valence                     :    22.00000000    
 interstitial                :    3.744118029    
 muffin-tins (core leakage)
  species :    1 (Sc)
   atom    1                 :    19.12794099     (  0.6541259978E-08)
   atom    2                 :    19.12794099     (  0.6541259978E-08)
 total in muffin-tins        :    38.25588197    
 total calculated charge     :    41.99999751    
 total charge                :    42.00000000    
 error                       :   0.2486041765E-05
 
Wrote STATE.OUT
 
RMS change in Kohn-Sham potential (target) :   0.2992442269E-04 (   10.00000000    )
Absolute change in total energy (target)   :   0.3708350960E-07 (  0.1000000000E-07)
 
Time (CPU seconds) :      1837.04
 
+--------------------+
| Loop number :   27 |
+--------------------+
 
Energies :
 Fermi                       :     0.267101612815    
 sum of eigenvalues          :     -893.148430080    
 electron kinetic            :      1546.27804073    
 core electron kinetic       :      1433.77851005    
 Coulomb                     :     -2996.40713854    
 Coulomb potential           :     -2335.23436603    
 nuclear-nuclear             :     -200.401634092    
 electron-nuclear            :     -3256.77664287    
 Hartree                     :      460.771138421    
 Madelung                    :     -1828.78995553    
 xc potential                :     -104.192104781    
 exchange                    :     -77.2482619423    
 correlation                 :     -1.78020272106    
 total energy                :     -1529.15756247    
 
Density of states at Fermi energy :    101.9023822    
 (states/Hartree/unit cell)
 
Estimated indirect band gap :   0.1675484651E-03
 from k-point     14 to k-point    221
Estimated direct band gap   :   0.3088489346E-02
 at k-point    240
 
Charges :
 core                        :    20.00000000    
 valence                     :    22.00000000    
 interstitial                :    3.744117985    
 muffin-tins (core leakage)
  species :    1 (Sc)
   atom    1                 :    19.12794101     (  0.6556104992E-08)
   atom    2                 :    19.12794101     (  0.6556104992E-08)
 total in muffin-tins        :    38.25588201    
 total calculated charge     :    41.99999751    
 total charge                :    42.00000000    
 error                       :   0.2486027249E-05
 
RMS change in Kohn-Sham potential (target) :   0.8632691946E-04 (   10.00000000    )
Absolute change in total energy (target)   :   0.8331369372E-06 (  0.1000000000E-07)
 
Time (CPU seconds) :      1907.09
 
+--------------------+
| Loop number :   28 |
+--------------------+
 
Energies :
 Fermi                       :     0.267101640347    
 sum of eigenvalues          :     -893.148429451    
 electron kinetic            :      1546.27804144    
 core electron kinetic       :      1433.77851050    
 Coulomb                     :     -2996.40713858    
 Coulomb potential           :     -2335.23436610    
 nuclear-nuclear             :     -200.401634092    
 electron-nuclear            :     -3256.77664287    
 Hartree                     :      460.771138384    
 Madelung                    :     -1828.78995553    
 xc potential                :     -104.192104790    
 exchange                    :     -77.2482619508    
 correlation                 :     -1.78020271973    
 total energy                :     -1529.15756181    
 
Density of states at Fermi energy :    101.9023048    
 (states/Hartree/unit cell)
 
Estimated indirect band gap :   0.1675519730E-03
 from k-point     14 to k-point    221
Estimated direct band gap   :   0.3088490777E-02
 at k-point    240
 
Charges :
 core                        :    20.00000000    
 valence                     :    22.00000000    
 interstitial                :    3.744117955    
 muffin-tins (core leakage)
  species :    1 (Sc)
   atom    1                 :    19.12794102     (  0.6528088292E-08)
   atom    2                 :    19.12794102     (  0.6528088292E-08)
 total in muffin-tins        :    38.25588204    
 total calculated charge     :    41.99999751    
 total charge                :    42.00000000    
 error                       :   0.2485945117E-05
 
Wrote STATE.OUT
 
RMS change in Kohn-Sham potential (target) :   0.1373930914E-04 (   10.00000000    )
Absolute change in total energy (target)   :   0.8751194400E-06 (  0.1000000000E-07)
 
Time (CPU seconds) :      1975.58
 
+--------------------+
| Loop number :   29 |
+--------------------+
 
Energies :
 Fermi                       :     0.267101657709    
 sum of eigenvalues          :     -893.148428983    
 electron kinetic            :      1546.27804189    
 core electron kinetic       :      1433.77851084    
 Coulomb                     :     -2996.40713857    
 Coulomb potential           :     -2335.23436609    
 nuclear-nuclear             :     -200.401634092    
 electron-nuclear            :     -3256.77664287    
 Hartree                     :      460.771138392    
 Madelung                    :     -1828.78995553    
 xc potential                :     -104.192104790    
 exchange                    :     -77.2482619536    
 correlation                 :     -1.78020271858    
 total energy                :     -1529.15756135    
 
Density of states at Fermi energy :    101.9022486    
 (states/Hartree/unit cell)
 
Estimated indirect band gap :   0.1675534107E-03
 from k-point     14 to k-point    221
Estimated direct band gap   :   0.3088491851E-02
 at k-point    240
 
Charges :
 core                        :    20.00000000    
 valence                     :    22.00000000    
 interstitial                :    3.744117933    
 muffin-tins (core leakage)
  species :    1 (Sc)
   atom    1                 :    19.12794103     (  0.6581757361E-08)
   atom    2                 :    19.12794103     (  0.6581757361E-08)
 total in muffin-tins        :    38.25588207    
 total calculated charge     :    41.99999751    
 total charge                :    42.00000000    
 error                       :   0.2486121417E-05
 
RMS change in Kohn-Sham potential (target) :   0.9982663027E-04 (   10.00000000    )
Absolute change in total energy (target)   :   0.6771349490E-06 (  0.1000000000E-07)
 
Time (CPU seconds) :      2045.37
 
+--------------------+
| Loop number :   30 |
+--------------------+
 
Energies :
 Fermi                       :     0.267101666311    
 sum of eigenvalues          :     -893.148428767    
 electron kinetic            :      1546.27804208    
 core electron kinetic       :      1433.77851092    
 Coulomb                     :     -2996.40713855    
 Coulomb potential           :     -2335.23436605    
 nuclear-nuclear             :     -200.401634092    
 electron-nuclear            :     -3256.77664287    
 Hartree                     :      460.771138408    
 Madelung                    :     -1828.78995553    
 xc potential                :     -104.192104791    
 exchange                    :     -77.2482619541    
 correlation                 :     -1.78020271835    
 total energy                :     -1529.15756115    
 
Density of states at Fermi energy :    101.9022284    
 (states/Hartree/unit cell)
 
Estimated indirect band gap :   0.1675544741E-03
 from k-point     14 to k-point    221
Estimated direct band gap   :   0.3088492363E-02
 at k-point    240
 
Charges :
 core                        :    20.00000000    
 valence                     :    22.00000000    
 interstitial                :    3.744117923    
 muffin-tins (core leakage)
  species :    1 (Sc)
   atom    1                 :    19.12794104     (  0.6529848662E-08)
   atom    2                 :    19.12794104     (  0.6529848662E-08)
 total in muffin-tins        :    38.25588208    
 total calculated charge     :    41.99999751    
 total charge                :    42.00000000    
 error                       :   0.2485948713E-05
 
Wrote STATE.OUT
 
RMS change in Kohn-Sham potential (target) :   0.1972312294E-04 (   10.00000000    )
Absolute change in total energy (target)   :   0.3704258233E-06 (  0.1000000000E-07)
 
Time (CPU seconds) :      2115.61
 
+--------------------+
| Loop number :   31 |
+--------------------+
 
Energies :
 Fermi                       :     0.267101672173    
 sum of eigenvalues          :     -893.148428593    
 electron kinetic            :      1546.27804224    
 core electron kinetic       :      1433.77851104    
 Coulomb                     :     -2996.40713890    
 Coulomb potential           :     -2335.23436604    
 nuclear-nuclear             :     -200.401634092    
 electron-nuclear            :     -3256.77664358    
 Hartree                     :      460.771138769    
 Madelung                    :     -1828.78995588    
 xc potential                :     -104.192104791    
 exchange                    :     -77.2482619552    
 correlation                 :     -1.78020271781    
 total energy                :     -1529.15756134    
 
Density of states at Fermi energy :    101.9022103    
 (states/Hartree/unit cell)
 
Estimated indirect band gap :   0.1675547775E-03
 from k-point     14 to k-point    221
Estimated direct band gap   :   0.3088492763E-02
 at k-point    240
 
Charges :
 core                        :    20.00000000    
 valence                     :    22.00000000    
 interstitial                :    3.744117915    
 muffin-tins (core leakage)
  species :    1 (Sc)
   atom    1                 :    19.12794104     (  0.6537105079E-08)
   atom    2                 :    19.12794104     (  0.6537105079E-08)
 total in muffin-tins        :    38.25588209    
 total calculated charge     :    41.99999751    
 total charge                :    42.00000000    
 error                       :   0.2486112976E-05
 
RMS change in Kohn-Sham potential (target) :   0.1938127749E-04 (   10.00000000    )
Absolute change in total energy (target)   :   0.9454106475E-07 (  0.1000000000E-07)
 
Time (CPU seconds) :      2186.17
 
+--------------------+
| Loop number :   32 |
+--------------------+
 
Energies :
 Fermi                       :     0.267101673265    
 sum of eigenvalues          :     -893.148428562    
 electron kinetic            :      1546.27804227    
 core electron kinetic       :      1433.77851107    
 Coulomb                     :     -2996.40713890    
 Coulomb potential           :     -2335.23436604    
 nuclear-nuclear             :     -200.401634092    
 electron-nuclear            :     -3256.77664358    
 Hartree                     :      460.771138769    
 Madelung                    :     -1828.78995588    
 xc potential                :     -104.192104792    
 exchange                    :     -77.2482619561    
 correlation                 :     -1.78020271783    
 total energy                :     -1529.15756130    
 
Density of states at Fermi energy :    101.9022083    
 (states/Hartree/unit cell)
 
Estimated indirect band gap :   0.1675548831E-03
 from k-point     14 to k-point    221
Estimated direct band gap   :   0.3088492832E-02
 at k-point    240
 
Charges :
 core                        :    20.00000000    
 valence                     :    22.00000000    
 interstitial                :    3.744117913    
 muffin-tins (core leakage)
  species :    1 (Sc)
   atom    1                 :    19.12794104     (  0.6498385829E-08)
   atom    2                 :    19.12794104     (  0.6498385829E-08)
 total in muffin-tins        :    38.25588209    
 total calculated charge     :    41.99999751    
 total charge                :    42.00000000    
 error                       :   0.2486029359E-05
 
Wrote STATE.OUT
 
RMS change in Kohn-Sham potential (target) :   0.6759964724E-04 (   10.00000000    )
Absolute change in total energy (target)   :   0.6851678336E-08 (  0.1000000000E-07)
 
Convergence targets achieved
 
Time (CPU seconds) :      2257.94
 
+--------------------+
| Loop number :   33 |
+--------------------+
 
Energies :
 Fermi                       :     0.267101673060    
 sum of eigenvalues          :     -893.148428549    
 electron kinetic            :      1546.27804229    
 core electron kinetic       :      1433.77851108    
 Coulomb                     :     -2996.40713891    
 Coulomb potential           :     -2335.23436605    
 nuclear-nuclear             :     -200.401634092    
 electron-nuclear            :     -3256.77664358    
 Hartree                     :      460.771138764    
 Madelung                    :     -1828.78995588    
 xc potential                :     -104.192104793    
 exchange                    :     -77.2482619568    
 correlation                 :     -1.78020271758    
 total energy                :     -1529.15756129    
 
Density of states at Fermi energy :    101.9022085    
 (states/Hartree/unit cell)
 
Estimated indirect band gap :   0.1675546712E-03
 from k-point     14 to k-point    221
Estimated direct band gap   :   0.3088492839E-02
 at k-point    240
 
Charges :
 core                        :    20.00000000    
 valence                     :    22.00000000    
 interstitial                :    3.744117913    
 muffin-tins (core leakage)
  species :    1 (Sc)
   atom    1                 :    19.12794104     (  0.6494376592E-08)
   atom    2                 :    19.12794104     (  0.6494376592E-08)
 total in muffin-tins        :    38.25588209    
 total calculated charge     :    41.99999751    
 total charge                :    42.00000000    
 error                       :   0.2485961367E-05
 
+------------------------------+
| Self-consistent loop stopped |
+------------------------------+
 
Wrote STATE.OUT
 
Timings (CPU seconds) :
 initialisation                        :         1.06
 Hamiltonian and overlap matrix set up :       747.59
 first-variational eigenvalue equation :       981.07
 charge density calculation            :       193.81
 potential calculation                 :       403.73
 total                                 :      2327.26
 
+----------------------------+
| Elk version 8.3.15 stopped |
+----------------------------+
