 
Species :    1 (Rh), atom :    1
 n =  1, l =  0, k =  1 :   -847.1462156    
 n =  2, l =  0, k =  1 :   -122.0561555    
 n =  2, l =  1, k =  1 :   -112.9417358    
 n =  2, l =  1, k =  2 :   -107.6050636    
 n =  3, l =  0, k =  1 :   -21.23292439    
 n =  3, l =  1, k =  1 :   -17.67086330    
 n =  3, l =  1, k =  2 :   -16.75158760    
 n =  3, l =  2, k =  2 :   -10.43792122    
 n =  3, l =  2, k =  3 :   -10.25748883    
