  0.3346635520    
   3.299539295    
   10.69326310    
   7.640804506    
   3.916151140    
   1.910948292    
  0.4635008033    
  0.9694000696E-01
  0.2508780287E-01
  0.7187311769E-02
  0.2776208835E-02
  0.4802708154E-03
  0.4707191874E-04
  0.1936481067E-04
  0.3740675561E-04
  0.4881909490E-05
  0.7377220527E-05
  0.1740618313E-04
  0.7193628790E-05
  0.1062756110E-04
  0.3338273928E-05
  0.4845680905E-06
  0.9564346328E-06
  0.1035698233E-05
  0.4909813924E-05
  0.1638458343E-05
  0.2746833843E-05
  0.1673151928E-06
  0.1059313036E-05
  0.2321960437E-06
  0.3581180863E-07
  0.9871428119E-08
