   38.62640455    
   38.63269507    
   39.06063881    
   39.39492214    
   39.52229255    
   39.56277228    
   39.57842454    
   39.58189292    
   39.58327222    
   39.58333794    
   39.58335022    
   39.58340302    
   39.58343753    
   39.58346729    
   39.58347484    
   39.58348389    
   39.58346225    
   39.58349599    
   39.58349169    
   39.58349166    
   39.58348712    
   39.58348734    
   39.58348739    
   39.58348728    
   39.58348753    
   39.58348729    
   39.58348735    
   39.58348737    
   39.58348748    
   39.58348806    
   39.58348736    
   39.58348740    
   39.58348744    
   39.58348754    
