    0.169313517363E-02
    0.170001251031E-02
    0.192076319403E-02
    0.206657697007E-02
    0.213542210845E-02
    0.216138689015E-02
    0.217217955223E-02
    0.217435162200E-02
    0.217529006121E-02
    0.217536882101E-02
    0.217538515332E-02
    0.217543285324E-02
    0.217545931513E-02
    0.217548162360E-02
    0.217548725578E-02
    0.217549413213E-02
    0.217547738951E-02
    0.217550349189E-02
    0.217550011957E-02
    0.217550004059E-02
    0.217549658005E-02
    0.217549673511E-02
    0.217549680447E-02
    0.217549674061E-02
    0.217549691150E-02
    0.217549671318E-02
    0.217549680079E-02
    0.217549681052E-02
    0.217549688490E-02
    0.217549730192E-02
    0.217549675845E-02
    0.217549680605E-02
    0.217549684645E-02
    0.217549688115E-02
