  48 : nsymlat
 
   1
   1   0   0
   0   1   0
   0   0   1
 
   2
  -1   0   0
  -1   1   0
  -1   0   1
 
   3
  -1   0   0
   0  -1   0
   0   0  -1
 
   4
  -1   0   0
   0   0  -1
   0  -1   0
 
   5
  -1   0   1
  -1   0   0
  -1   1   0
 
   6
  -1   0   1
  -1   1   0
  -1   0   0
 
   7
  -1   0   1
   0  -1   1
   0   0   1
 
   8
  -1   0   1
   0   0   1
   0  -1   1
 
   9
  -1   1   0
  -1   0   0
  -1   0   1
 
  10
  -1   1   0
  -1   0   1
  -1   0   0
 
  11
  -1   1   0
   0   1  -1
   0   1   0
 
  12
  -1   1   0
   0   1   0
   0   1  -1
 
  13
   0  -1   0
  -1   0   0
   0   0  -1
 
  14
   0  -1   0
   0  -1   1
   1  -1   0
 
  15
   0  -1   0
   0   0  -1
  -1   0   0
 
  16
   0  -1   0
   1  -1   0
   0  -1   1
 
  17
   0  -1   1
  -1   0   1
   0   0   1
 
  18
   0  -1   1
   0  -1   0
   1  -1   0
 
  19
   0  -1   1
   0   0   1
  -1   0   1
 
  20
   0  -1   1
   1  -1   0
   0  -1   0
 
  21
   0   0  -1
  -1   0   0
   0  -1   0
 
  22
   0   0  -1
   0  -1   0
  -1   0   0
 
  23
   0   0  -1
   0   1  -1
   1   0  -1
 
  24
   0   0  -1
   1   0  -1
   0   1  -1
 
  25
   0   0   1
  -1   0   1
   0  -1   1
 
  26
   0   0   1
   0  -1   1
  -1   0   1
 
  27
   0   0   1
   0   1   0
   1   0   0
 
  28
   0   0   1
   1   0   0
   0   1   0
 
  29
   0   1  -1
  -1   1   0
   0   1   0
 
  30
   0   1  -1
   0   0  -1
   1   0  -1
 
  31
   0   1  -1
   0   1   0
  -1   1   0
 
  32
   0   1  -1
   1   0  -1
   0   0  -1
 
  33
   0   1   0
  -1   1   0
   0   1  -1
 
  34
   0   1   0
   0   0   1
   1   0   0
 
  35
   0   1   0
   0   1  -1
  -1   1   0
 
  36
   0   1   0
   1   0   0
   0   0   1
 
  37
   1  -1   0
   0  -1   0
   0  -1   1
 
  38
   1  -1   0
   0  -1   1
   0  -1   0
 
  39
   1  -1   0
   1   0  -1
   1   0   0
 
  40
   1  -1   0
   1   0   0
   1   0  -1
 
  41
   1   0  -1
   0   0  -1
   0   1  -1
 
  42
   1   0  -1
   0   1  -1
   0   0  -1
 
  43
   1   0  -1
   1  -1   0
   1   0   0
 
  44
   1   0  -1
   1   0   0
   1  -1   0
 
  45
   1   0   0
   0   0   1
   0   1   0
 
  46
  -1   0   0
  -1   0   1
  -1   1   0
 
  47
   1   0   0
   1  -1   0
   1   0  -1
 
  48
   1   0   0
   1   0  -1
   1  -1   0
