  0.1416785041E-03
  0.1157694743E-01
  0.1268455628E-01
  0.7901072602E-02
  0.3810398687E-02
  0.1700748644E-02
  0.6959254475E-03
  0.5601865460E-03
  0.9265974204E-04
  0.1900354619E-04
  0.7648485252E-05
  0.5488004751E-05
  0.3740472025E-05
  0.1296952812E-05
  0.1123617595E-05
  0.1012410230E-05
  0.4725250209E-06
  0.1651765729E-06
  0.4372729112E-07
  0.9304698345E-08
