   23.03352052    
   23.04230083    
   23.34599279    
   23.37126757    
   23.35644412    
   23.35092391    
   23.34954906    
   23.34967128    
   23.34984264    
   23.34981092    
   23.34977309    
   23.34976405    
   23.34977130    
   23.34979154    
   23.34982984    
   23.34983559    
   23.34983877    
   23.34983939    
   23.34983963    
   23.34983965    
   23.34983965    
   23.34983965    
