   18.15406052    
   9.080070966    
   3.025437683    
  0.7534220557    
  0.1492970328    
  0.8590376160E-02
  0.5469417406E-02
  0.2852858184E-03
  0.1824753729E-03
  0.4142481762E-04
  0.2127477969E-04
  0.1628444138E-04
  0.1183487443E-04
  0.1664331961E-05
  0.5148981077E-06
  0.2124971225E-06
  0.6485226512E-07
  0.3305181913E-07
  0.2077749227E-07
  0.1709536092E-07
