 
Species :    1 (Tc), atom :    1
 n =  1, l =  0, k =  1 :   -767.1383292    
 n =  2, l =  0, k =  1 :   -108.5375468    
 n =  2, l =  1, k =  1 :   -99.99369554    
 n =  2, l =  1, k =  2 :   -95.63031489    
 n =  3, l =  0, k =  1 :   -18.16452791    
 n =  3, l =  1, k =  1 :   -14.88666928    
 n =  3, l =  1, k =  2 :   -14.15612476    
 n =  3, l =  2, k =  2 :   -8.354414499    
 n =  3, l =  2, k =  3 :   -8.214678567    
 
Species :    1 (Tc), atom :    2
 n =  1, l =  0, k =  1 :   -767.1383292    
 n =  2, l =  0, k =  1 :   -108.5375468    
 n =  2, l =  1, k =  1 :   -99.99369554    
 n =  2, l =  1, k =  2 :   -95.63031489    
 n =  3, l =  0, k =  1 :   -18.16452791    
 n =  3, l =  1, k =  1 :   -14.88666928    
 n =  3, l =  1, k =  2 :   -14.15612476    
 n =  3, l =  2, k =  2 :   -8.354414499    
 n =  3, l =  2, k =  3 :   -8.214678567    
