 
+----------------------------+
| Real-space lattice vectors |
+----------------------------+
 
vector a1 :    4.298476272      -2.481726433       0.000000000    
vector a2 :    0.000000000       4.963452866       0.000000000    
vector a3 :    0.000000000       0.000000000       8.542531259    
 
Stored column-wise as a matrix :
   4.298476272       0.000000000       0.000000000    
  -2.481726433       4.963452866       0.000000000    
   0.000000000       0.000000000       8.542531259    
 
Inverse of matrix :
  0.2326405770       0.000000000       0.000000000    
  0.1163202885      0.2014726496       0.000000000    
   0.000000000       0.000000000      0.1170613217    
 
Unit cell volume :    182.2573337    
 
 
+----------------------------------+
| Reciprocal-space lattice vectors |
+----------------------------------+
 
vector b1 :    1.461723855       0.000000000       0.000000000    
vector b2 :   0.7308619276       1.265889992       0.000000000    
vector b3 :    0.000000000       0.000000000      0.7355179766    
 
Stored column-wise as a matrix :
   1.461723855      0.7308619276       0.000000000    
   0.000000000       1.265889992       0.000000000    
   0.000000000       0.000000000      0.7355179766    
 
Inverse of matrix :
  0.6841237464     -0.3949790292       0.000000000    
   0.000000000      0.7899580584       0.000000000    
   0.000000000       0.000000000       1.359586076    
 
Brillouin zone volume :    1.360988930    
