 
Species :    1 (Ti), atom :    1
 APW functions :
  l =  0, energy derivative =  0 :   0.2134592578    
  l =  1, energy derivative =  0 :   0.2134592578    
  l =  2, energy derivative =  0 :   0.2134592578    
  l =  3, energy derivative =  0 :   0.2134592578    
  l =  4, energy derivative =  0 :   0.2134592578    
  l =  5, energy derivative =  0 :   0.2134592578    
  l =  6, energy derivative =  0 :   0.2134592578    
  l =  7, energy derivative =  0 :   0.2134592578    
  l =  8, energy derivative =  0 :   0.2134592578    
  l =  9, energy derivative =  0 :   0.2134592578    
  l = 10, energy derivative =  0 :   0.2134592578    
 local-orbital functions :
  l.o. =  1, l =  0, energy derivative =  0 :   0.2134592578    
  l.o. =  1, l =  0, energy derivative =  1 :   0.2134592578    
  l.o. =  2, l =  1, energy derivative =  0 :   0.2134592578    
  l.o. =  2, l =  1, energy derivative =  1 :   0.2134592578    
  l.o. =  3, l =  2, energy derivative =  0 :   0.2134592578    
  l.o. =  3, l =  2, energy derivative =  1 :   0.2134592578    
  l.o. =  4, l =  0, energy derivative =  0 :   0.2134592578    
  l.o. =  4, l =  0, energy derivative =  0 :   -1.789032848    
  l.o. =  5, l =  1, energy derivative =  0 :   0.2134592578    
  l.o. =  5, l =  1, energy derivative =  0 :  -0.9073521728    
  l.o. =  6, l =  3, energy derivative =  0 :   0.2134592578    
  l.o. =  6, l =  3, energy derivative =  1 :   0.2134592578    
  l.o. =  7, l =  4, energy derivative =  0 :   0.2134592578    
  l.o. =  7, l =  4, energy derivative =  1 :   0.2134592578    
  l.o. =  8, l =  5, energy derivative =  0 :   0.2134592578    
  l.o. =  8, l =  5, energy derivative =  1 :   0.2134592578    
  l.o. =  9, l =  0, energy derivative =  0 :    1.380241885    
  l.o. =  9, l =  0, energy derivative =  1 :    1.380241885    
  l.o. =  9, l =  0, energy derivative =  2 :    1.380241885    
  l.o. = 10, l =  1, energy derivative =  0 :    1.829650147    
  l.o. = 10, l =  1, energy derivative =  1 :    1.829650147    
  l.o. = 10, l =  1, energy derivative =  2 :    1.829650147    
  l.o. = 11, l =  2, energy derivative =  0 :   0.4268661181    
  l.o. = 11, l =  2, energy derivative =  1 :   0.4268661181    
  l.o. = 11, l =  2, energy derivative =  2 :   0.4268661181    
  l.o. = 12, l =  3, energy derivative =  0 :    2.386651438    
  l.o. = 12, l =  3, energy derivative =  1 :    2.386651438    
  l.o. = 12, l =  3, energy derivative =  2 :    2.386651438    
  l.o. = 13, l =  4, energy derivative =  0 :    3.904705126    
  l.o. = 13, l =  4, energy derivative =  1 :    3.904705126    
  l.o. = 13, l =  4, energy derivative =  2 :    3.904705126    
  l.o. = 14, l =  5, energy derivative =  0 :    5.521549184    
  l.o. = 14, l =  5, energy derivative =  1 :    5.521549184    
  l.o. = 14, l =  5, energy derivative =  2 :    5.521549184    
  l.o. = 15, l =  6, energy derivative =  0 :    7.297970648    
  l.o. = 15, l =  6, energy derivative =  1 :    7.297970648    
  l.o. = 15, l =  6, energy derivative =  2 :    7.297970648    
  l.o. = 16, l =  7, energy derivative =  0 :    9.251377527    
  l.o. = 16, l =  7, energy derivative =  1 :    9.251377527    
  l.o. = 16, l =  7, energy derivative =  2 :    9.251377527    
  l.o. = 17, l =  8, energy derivative =  0 :    11.38839944    
  l.o. = 17, l =  8, energy derivative =  1 :    11.38839944    
  l.o. = 17, l =  8, energy derivative =  2 :    11.38839944    
 
Species :    1 (Ti), atom :    2
 APW functions :
  l =  0, energy derivative =  0 :   0.2134592578    
  l =  1, energy derivative =  0 :   0.2134592578    
  l =  2, energy derivative =  0 :   0.2134592578    
  l =  3, energy derivative =  0 :   0.2134592578    
  l =  4, energy derivative =  0 :   0.2134592578    
  l =  5, energy derivative =  0 :   0.2134592578    
  l =  6, energy derivative =  0 :   0.2134592578    
  l =  7, energy derivative =  0 :   0.2134592578    
  l =  8, energy derivative =  0 :   0.2134592578    
  l =  9, energy derivative =  0 :   0.2134592578    
  l = 10, energy derivative =  0 :   0.2134592578    
 local-orbital functions :
  l.o. =  1, l =  0, energy derivative =  0 :   0.2134592578    
  l.o. =  1, l =  0, energy derivative =  1 :   0.2134592578    
  l.o. =  2, l =  1, energy derivative =  0 :   0.2134592578    
  l.o. =  2, l =  1, energy derivative =  1 :   0.2134592578    
  l.o. =  3, l =  2, energy derivative =  0 :   0.2134592578    
  l.o. =  3, l =  2, energy derivative =  1 :   0.2134592578    
  l.o. =  4, l =  0, energy derivative =  0 :   0.2134592578    
  l.o. =  4, l =  0, energy derivative =  0 :   -1.789032848    
  l.o. =  5, l =  1, energy derivative =  0 :   0.2134592578    
  l.o. =  5, l =  1, energy derivative =  0 :  -0.9073521728    
  l.o. =  6, l =  3, energy derivative =  0 :   0.2134592578    
  l.o. =  6, l =  3, energy derivative =  1 :   0.2134592578    
  l.o. =  7, l =  4, energy derivative =  0 :   0.2134592578    
  l.o. =  7, l =  4, energy derivative =  1 :   0.2134592578    
  l.o. =  8, l =  5, energy derivative =  0 :   0.2134592578    
  l.o. =  8, l =  5, energy derivative =  1 :   0.2134592578    
  l.o. =  9, l =  0, energy derivative =  0 :    1.380241885    
  l.o. =  9, l =  0, energy derivative =  1 :    1.380241885    
  l.o. =  9, l =  0, energy derivative =  2 :    1.380241885    
  l.o. = 10, l =  1, energy derivative =  0 :    1.829650147    
  l.o. = 10, l =  1, energy derivative =  1 :    1.829650147    
  l.o. = 10, l =  1, energy derivative =  2 :    1.829650147    
  l.o. = 11, l =  2, energy derivative =  0 :   0.4268661181    
  l.o. = 11, l =  2, energy derivative =  1 :   0.4268661181    
  l.o. = 11, l =  2, energy derivative =  2 :   0.4268661181    
  l.o. = 12, l =  3, energy derivative =  0 :    2.386651438    
  l.o. = 12, l =  3, energy derivative =  1 :    2.386651438    
  l.o. = 12, l =  3, energy derivative =  2 :    2.386651438    
  l.o. = 13, l =  4, energy derivative =  0 :    3.904705126    
  l.o. = 13, l =  4, energy derivative =  1 :    3.904705126    
  l.o. = 13, l =  4, energy derivative =  2 :    3.904705126    
  l.o. = 14, l =  5, energy derivative =  0 :    5.521549184    
  l.o. = 14, l =  5, energy derivative =  1 :    5.521549184    
  l.o. = 14, l =  5, energy derivative =  2 :    5.521549184    
  l.o. = 15, l =  6, energy derivative =  0 :    7.297970648    
  l.o. = 15, l =  6, energy derivative =  1 :    7.297970648    
  l.o. = 15, l =  6, energy derivative =  2 :    7.297970648    
  l.o. = 16, l =  7, energy derivative =  0 :    9.251377527    
  l.o. = 16, l =  7, energy derivative =  1 :    9.251377527    
  l.o. = 16, l =  7, energy derivative =  2 :    9.251377527    
  l.o. = 17, l =  8, energy derivative =  0 :    11.38839944    
  l.o. = 17, l =  8, energy derivative =  1 :    11.38839944    
  l.o. = 17, l =  8, energy derivative =  2 :    11.38839944    
