  0.5667420227    
  0.4863595297    
  0.2116903407    
  0.7949964088E-01
  0.2672018628E-01
  0.3946347305E-02
  0.1074283688E-02
  0.2389303328E-03
  0.1600884918E-03
  0.5770837059E-04
  0.3439292431E-03
  0.4678719791E-04
  0.1183442485E-03
  0.1845803589E-03
  0.7940250325E-04
  0.2454520469E-04
  0.3380189979E-04
  0.5728548845E-04
  0.2552706778E-04
  0.2463813882E-04
  0.8881699146E-04
  0.9385389876E-04
  0.3841114425E-04
  0.3500892599E-04
  0.8424488691E-04
  0.9928336482E-04
  0.4241589010E-04
  0.1023764120E-03
  0.2246584626E-04
  0.7861012174E-04
  0.6333812875E-04
  0.8037526219E-04
  0.7583584675E-04
  0.2594532837E-04
  0.3978662064E-04
  0.7152460326E-04
  0.1164186539E-03
  0.7143282561E-04
  0.3172791563E-04
  0.2525658248E-04
  0.8846999108E-04
  0.1325330097E-03
  0.2588506848E-04
  0.1408996049E-04
  0.2192745135E-04
  0.2065203292E-04
  0.1893408691E-03
  0.1267557373E-03
  0.1331839283E-03
  0.1262611755E-03
  0.3562976589E-04
  0.1899143026E-03
  0.3438729341E-03
  0.8176231761E-04
  0.6490839514E-04
  0.3474021362E-04
  0.9645583351E-04
