   49.04815872    
   51.72133588    
   50.76938856    
   14.65091306    
   15.09008951    
   9.186998306    
   10.24383140    
   10.29130033    
   10.32754370    
   10.34739284    
   10.35427857    
   10.35570963    
   10.35686753    
   10.35719744    
   10.35724937    
   10.35730324    
   10.35734949    
   10.35733570    
   10.35739496    
   10.35737745    
   10.35736595    
   10.35737827    
   10.35737364    
   10.35737736    
   10.35738446    
   10.35738478    
   10.35737471    
