 
+----------------------------+
| Real-space lattice vectors |
+----------------------------+
 
vector a1 :    3.008099453       3.008099453      -3.008099453    
vector a2 :    3.008099453      -3.008099453       3.008099453    
vector a3 :   -3.008099453       3.008099453       3.008099453    
 
Stored column-wise as a matrix :
   3.008099453       3.008099453      -3.008099453    
   3.008099453      -3.008099453       3.008099453    
  -3.008099453       3.008099453       3.008099453    
 
Inverse of matrix :
  0.1662179086      0.1662179086       0.000000000    
  0.1662179086       0.000000000      0.1662179086    
   0.000000000      0.1662179086      0.1662179086    
 
Unit cell volume :    108.8771047    
 
 
+----------------------------------+
| Reciprocal-space lattice vectors |
+----------------------------------+
 
vector b1 :    1.044377921       1.044377921       0.000000000    
vector b2 :    1.044377921       0.000000000       1.044377921    
vector b3 :    0.000000000       1.044377921       1.044377921    
 
Stored column-wise as a matrix :
   1.044377921       1.044377921       0.000000000    
   1.044377921       0.000000000       1.044377921    
   0.000000000       1.044377921       1.044377921    
 
Inverse of matrix :
  0.4787538973      0.4787538973     -0.4787538973    
  0.4787538973     -0.4787538973      0.4787538973    
 -0.4787538973      0.4787538973      0.4787538973    
 
Brillouin zone volume :    2.278258722    
