 
Species :    1 (Cu), atom :    1
 n =  1, l =  0, k =  1 :   -325.5279578    
 n =  2, l =  0, k =  1 :   -38.72010504    
 n =  2, l =  1, k =  1 :   -33.85860735    
 n =  2, l =  1, k =  2 :   -33.10236168    
 n =  3, l =  0, k =  1 :   -3.866381320    
