+----------------------------+
| Elk version 8.3.15 started |
+----------------------------+
 
Date (YYYY-MM-DD) : 2022-01-27
Time (hh:mm:ss)   : 21:24:41
 
All units are atomic (Hartree, Bohr, etc.)
 
+-------------------------------------------------+
| Ground-state run starting from atomic densities |
+-------------------------------------------------+
 
Lattice vectors :
   3.469595928       3.469595928       0.000000000    
   3.469595928       0.000000000       3.469595928    
   0.000000000       3.469595928       3.469595928    
 
Reciprocal lattice vectors :
  0.9054635523      0.9054635523     -0.9054635523    
  0.9054635523     -0.9054635523      0.9054635523    
 -0.9054635523      0.9054635523      0.9054635523    
 
Unit cell volume      :    83.53465703    
Brillouin zone volume :    2.969428765    
 
Muffin-tin inner radius fraction :   0.1000000000E-01
 
Species :    1 (Cu)
 parameters loaded from : Cu.in
 name : copper
 nuclear charge    :   -29.00000000    
 electronic charge :    29.00000000    
 atomic mass :    115837.2717    
 muffin-tin radius :    2.250000000    
 number of radial points in muffin-tin :   1000
 number on inner part of muffin-tin    :    717
 atomic positions (lattice), magnetic fields (Cartesian) :
   1 :   0.00000000  0.00000000  0.00000000    0.00000000  0.00000000  0.00000000
 
Total number of atoms per unit cell :    1
 
Spin treatment :
 spin-unpolarised
 
Number of Bravais lattice symmetries :   48
Number of crystal symmetries         :   48
Crystal has inversion symmetry
Real symmetric eigensolver will be used
 
k-point grid :     17    17    17
k-point offset :    0.000000000       0.000000000       0.000000000    
k-point set is reduced with full crystal symmetry group
Total number of k-points :      165
 
Muffin-tin radius times maximum |G+k| :    8.500000000    
 using gkmax = rgkmax / 2
Maximum |G+k| for APW functions       :    4.250000000    
Maximum (1/2)|G+k|²                   :    9.031250000    
Maximum |G| for potential and density :    34.00000000    
Constant for pseudocharge density :   19
Radial integration step length :    1
 
G-vector grid sizes :     54    54    54
Number of G-vectors :    55369
 
Maximum angular momentum used for
 APW functions                      :   10
 outer part of muffin-tin           :    8
 inner part of muffin-tin           :    1
 
Total nuclear charge    :   -29.00000000    
Total core charge       :    12.00000000    
Total valence charge    :    17.00000000    
Total excess charge     :    0.000000000    
Total electronic charge :    29.00000000    
 
Effective Wigner radius, rₛ :   0.8826598300    
 
Number of empty states         :   20
Total number of valence states :   29
Total number of core states    :   12
 
Conduction state local-orbitals added automatically
Total number of local-orbitals :  125
 
Using Libxc version 05.01.05
Exchange-correlation functional :    100   493   494
 exchange: mgga_x_rscan; correlation: mgga_c_rscan
 
Smearing type :    1
 Methfessel-Paxton order 1, Phys. Rev. B 40, 3616 (1989)
Smearing width :   0.1000000000E-02
Effective electronic temperature (K) :    315.7750248    
 
Mixing type :    1
 Adaptive linear mixing
 
Kohn-Sham potential initialised from atomic data
 
+------------------------------+
| Self-consistent loop started |
+------------------------------+
 
+--------------------+
| Loop number :    1 |
+--------------------+
 
Energies :
 Fermi                       :     0.738799057216E-01
 sum of eigenvalues          :     -958.802285538    
 electron kinetic            :      1674.49584392    
 core electron kinetic       :      1501.77777989    
 Coulomb                     :     -3284.20502928    
 Coulomb potential           :     -2541.97428119    
 nuclear-nuclear             :     -221.745658671    
 electron-nuclear            :     -3582.94446003    
 Hartree                     :      520.485089422    
 Madelung                    :     -2013.21788869    
 xc potential                :     -91.3238482734    
 exchange                    :     -67.6274350816    
 correlation                 :     -1.41298302790    
 total energy                :     -1678.74960347    
 
Density of states at Fermi energy :    5.174604905    
 (states/Hartree/unit cell)
 
Estimated indirect band gap :   0.3147234471E-02
 from k-point    108 to k-point     18
Estimated direct band gap   :   0.9568403137E-01
 at k-point     18
 
Charges :
 core                        :    12.00000000    
 valence                     :    17.00000000    
 interstitial                :   0.9252301919    
 muffin-tins (core leakage)
  species :    1 (Cu)
   atom    1                 :    28.07476981     (  0.3375473105E-03)
 total in muffin-tins        :    28.07476981    
 total calculated charge     :    28.99976272    
 total charge                :    29.00000000    
 error                       :   0.2372821955E-03
 
Time (CPU seconds) :         8.03
 
+--------------------+
| Loop number :    2 |
+--------------------+
 
Energies :
 Fermi                       :     0.106621582749    
 sum of eigenvalues          :     -956.479866341    
 electron kinetic            :      1677.97645244    
 core electron kinetic       :      1501.33135537    
 Coulomb                     :     -3280.18100885    
 Coulomb potential           :     -2543.57831732    
 nuclear-nuclear             :     -221.745658671    
 electron-nuclear            :     -3573.29238304    
 Hartree                     :      514.857032856    
 Madelung                    :     -2008.39185019    
 xc potential                :     -90.8780014579    
 exchange                    :     -67.2840844627    
 correlation                 :     -1.41191751219    
 total energy                :     -1670.90055838    
 
Density of states at Fermi energy :    16.91183953    
 (states/Hartree/unit cell)
 
Estimated indirect band gap :   0.1086691719E-02
 from k-point    118 to k-point    108
Estimated direct band gap   :   0.7562105112E-01
 at k-point     56
 
Charges :
 core                        :    12.00000000    
 valence                     :    17.00000000    
 interstitial                :    1.009487114    
 muffin-tins (core leakage)
  species :    1 (Cu)
   atom    1                 :    27.99051289     (  0.3526567420E-03)
 total in muffin-tins        :    27.99051289    
 total calculated charge     :    28.99975390    
 total charge                :    29.00000000    
 error                       :   0.2460989668E-03
 
Wrote STATE.OUT
 
RMS change in Kohn-Sham potential (target) :   0.4879970417     (   10.00000000    )
Absolute change in total energy (target)   :    7.849045083     (  0.1000000000E-07)
 
Time (CPU seconds) :        15.09
 
+--------------------+
| Loop number :    3 |
+--------------------+
 
Energies :
 Fermi                       :     0.146570618372    
 sum of eigenvalues          :     -954.182174381    
 electron kinetic            :      1681.17893672    
 core electron kinetic       :      1501.29773029    
 Coulomb                     :     -3276.65709424    
 Coulomb potential           :     -2544.86359100    
 nuclear-nuclear             :     -221.745658671    
 electron-nuclear            :     -3564.95928013    
 Hartree                     :      510.047844566    
 Madelung                    :     -2004.22529874    
 xc potential                :     -90.4975201076    
 exchange                    :     -66.9916928658    
 correlation                 :     -1.41134143797    
 total energy                :     -1663.88119181    
 
Density of states at Fermi energy :    13.11017512    
 (states/Hartree/unit cell)
 
Estimated indirect band gap :   0.5193603206E-03
 from k-point     48 to k-point     60
Estimated direct band gap   :   0.6243734076E-01
 at k-point     56
 
Charges :
 core                        :    12.00000000    
 valence                     :    17.00000000    
 interstitial                :    1.084952279    
 muffin-tins (core leakage)
  species :    1 (Cu)
   atom    1                 :    27.91504772     (  0.3641342390E-03)
 total in muffin-tins        :    27.91504772    
 total calculated charge     :    28.99974780    
 total charge                :    29.00000000    
 error                       :   0.2521991981E-03
 
RMS change in Kohn-Sham potential (target) :   0.4175165516     (   10.00000000    )
Absolute change in total energy (target)   :    8.981627840     (  0.1000000000E-07)
 
Time (CPU seconds) :        23.27
 
+--------------------+
| Loop number :    4 |
+--------------------+
 
Energies :
 Fermi                       :     0.180185405660    
 sum of eigenvalues          :     -952.524726320    
 electron kinetic            :      1682.96465569    
 core electron kinetic       :      1501.31127356    
 Coulomb                     :     -3275.12102876    
 Coulomb potential           :     -2545.13505396    
 nuclear-nuclear             :     -221.745658671    
 electron-nuclear            :     -3561.61568621    
 Hartree                     :      508.240316126    
 Madelung                    :     -2002.55350178    
 xc potential                :     -90.3543280504    
 exchange                    :     -66.8833430644    
 correlation                 :     -1.41107451033    
 total energy                :     -1660.45079064    
 
Density of states at Fermi energy :    11.43828022    
 (states/Hartree/unit cell)
 
Estimated indirect band gap :   0.9529731828E-03
 from k-point     48 to k-point     60
Estimated direct band gap   :   0.5900658642E-01
 at k-point     56
 
Charges :
 core                        :    12.00000000    
 valence                     :    17.00000000    
 interstitial                :    1.108796772    
 muffin-tins (core leakage)
  species :    1 (Cu)
   atom    1                 :    27.89120323     (  0.3660406554E-03)
 total in muffin-tins        :    27.89120323    
 total calculated charge     :    28.99974794    
 total charge                :    29.00000000    
 error                       :   0.2520639949E-03
 
Wrote STATE.OUT
 
RMS change in Kohn-Sham potential (target) :   0.3358486224     (   10.00000000    )
Absolute change in total energy (target)   :    5.675808133     (  0.1000000000E-07)
 
Time (CPU seconds) :        31.24
 
+--------------------+
| Loop number :    5 |
+--------------------+
 
Energies :
 Fermi                       :     0.207116374490    
 sum of eigenvalues          :     -951.311326030    
 electron kinetic            :      1683.94452600    
 core electron kinetic       :      1501.28281498    
 Coulomb                     :     -3274.72783677    
 Coulomb potential           :     -2544.91533597    
 nuclear-nuclear             :     -221.745658671    
 electron-nuclear            :     -3561.04902024    
 Hartree                     :      508.066842138    
 Madelung                    :     -2002.27016879    
 xc potential                :     -90.3405160687    
 exchange                    :     -66.8750334525    
 correlation                 :     -1.41092079249    
 total energy                :     -1659.06926502    
 
Density of states at Fermi energy :    10.58009297    
 (states/Hartree/unit cell)
 
Estimated indirect band gap :   0.8654320030E-03
 from k-point     48 to k-point     60
Estimated direct band gap   :   0.5982501536E-01
 at k-point     56
 
Charges :
 core                        :    12.00000000    
 valence                     :    17.00000000    
 interstitial                :    1.105083208    
 muffin-tins (core leakage)
  species :    1 (Cu)
   atom    1                 :    27.89491679     (  0.3628856968E-03)
 total in muffin-tins        :    27.89491679    
 total calculated charge     :    28.99975142    
 total charge                :    29.00000000    
 error                       :   0.2485838129E-03
 
RMS change in Kohn-Sham potential (target) :   0.2481610443     (   10.00000000    )
Absolute change in total energy (target)   :    2.800477660     (  0.1000000000E-07)
 
Time (CPU seconds) :        38.05
 
+--------------------+
| Loop number :    6 |
+--------------------+
 
Energies :
 Fermi                       :     0.231174438258    
 sum of eigenvalues          :     -950.270111465    
 electron kinetic            :      1684.81732996    
 core electron kinetic       :      1501.34649900    
 Coulomb                     :     -3274.45379237    
 Coulomb potential           :     -2544.75554613    
 nuclear-nuclear             :     -221.745658671    
 electron-nuclear            :     -3560.66072126    
 Hartree                     :      507.952587566    
 Madelung                    :     -2002.07601930    
 xc potential                :     -90.3318952937    
 exchange                    :     -66.8703447304    
 correlation                 :     -1.41081413672    
 total energy                :     -1657.91762128    
 
Density of states at Fermi energy :    10.83388602    
 (states/Hartree/unit cell)
 
Estimated indirect band gap :   0.7943950430E-03
 from k-point     48 to k-point     60
Estimated direct band gap   :   0.6049523665E-01
 at k-point     56
 
Charges :
 core                        :    12.00000000    
 valence                     :    17.00000000    
 interstitial                :    1.102102793    
 muffin-tins (core leakage)
  species :    1 (Cu)
   atom    1                 :    27.89789721     (  0.3599553880E-03)
 total in muffin-tins        :    27.89789721    
 total calculated charge     :    28.99975460    
 total charge                :    29.00000000    
 error                       :   0.2453989435E-03
 
Wrote STATE.OUT
 
RMS change in Kohn-Sham potential (target) :   0.1706952546     (   10.00000000    )
Absolute change in total energy (target)   :    1.851763154     (  0.1000000000E-07)
 
Time (CPU seconds) :        45.27
 
+--------------------+
| Loop number :    7 |
+--------------------+
 
Energies :
 Fermi                       :     0.250801535987    
 sum of eigenvalues          :     -949.458232891    
 electron kinetic            :      1685.53994767    
 core electron kinetic       :      1501.46892295    
 Coulomb                     :     -3274.27734538    
 Coulomb potential           :     -2544.67289181    
 nuclear-nuclear             :     -221.745658671    
 electron-nuclear            :     -3560.39048160    
 Hartree                     :      507.858794893    
 Madelung                    :     -2001.94089947    
 xc potential                :     -90.3252887457    
 exchange                    :     -66.8667053629    
 correlation                 :     -1.41075325548    
 total energy                :     -1657.01485633    
 
Density of states at Fermi energy :    11.08685645    
 (states/Hartree/unit cell)
 
Estimated indirect band gap :   0.7570070431E-03
 from k-point     48 to k-point     60
Estimated direct band gap   :   0.6087270694E-01
 at k-point     56
 
Charges :
 core                        :    12.00000000    
 valence                     :    17.00000000    
 interstitial                :    1.100667923    
 muffin-tins (core leakage)
  species :    1 (Cu)
   atom    1                 :    27.89933208     (  0.3575867407E-03)
 total in muffin-tins        :    27.89933208    
 total calculated charge     :    28.99975719    
 total charge                :    29.00000000    
 error                       :   0.2428050017E-03
 
RMS change in Kohn-Sham potential (target) :   0.1089485181     (   10.00000000    )
Absolute change in total energy (target)   :    1.365705737     (  0.1000000000E-07)
 
Time (CPU seconds) :        52.85
 
+--------------------+
| Loop number :    8 |
+--------------------+
 
Energies :
 Fermi                       :     0.265270226635    
 sum of eigenvalues          :     -948.891063302    
 electron kinetic            :      1686.07524954    
 core electron kinetic       :      1501.60318115    
 Coulomb                     :     -3274.19443127    
 Coulomb potential           :     -2544.64434257    
 nuclear-nuclear             :     -221.745658671    
 electron-nuclear            :     -3560.25320263    
 Hartree                     :      507.804430026    
 Madelung                    :     -2001.87225998    
 xc potential                :     -90.3219702725    
 exchange                    :     -66.8651180647    
 correlation                 :     -1.41072922966    
 total energy                :     -1656.39502902    
 
Density of states at Fermi energy :    11.21015715    
 (states/Hartree/unit cell)
 
Estimated indirect band gap :   0.7406794969E-03
 from k-point     48 to k-point     60
Estimated direct band gap   :   0.6105865303E-01
 at k-point     56
 
Charges :
 core                        :    12.00000000    
 valence                     :    17.00000000    
 interstitial                :    1.100115849    
 muffin-tins (core leakage)
  species :    1 (Cu)
   atom    1                 :    27.89988415     (  0.3557892522E-03)
 total in muffin-tins        :    27.89988415    
 total calculated charge     :    28.99975916    
 total charge                :    29.00000000    
 error                       :   0.2408403747E-03
 
Wrote STATE.OUT
 
RMS change in Kohn-Sham potential (target) :   0.6419727814E-01 (   10.00000000    )
Absolute change in total energy (target)   :   0.9612537401     (  0.1000000000E-07)
 
Time (CPU seconds) :        60.40
 
+--------------------+
| Loop number :    9 |
+--------------------+
 
Energies :
 Fermi                       :     0.274974416707    
 sum of eigenvalues          :     -948.532243966    
 electron kinetic            :      1686.44018939    
 core electron kinetic       :      1501.72263529    
 Coulomb                     :     -3274.16578639    
 Coulomb potential           :     -2544.65242189    
 nuclear-nuclear             :     -221.745658671    
 electron-nuclear            :     -3560.18783354    
 Hartree                     :      507.767705824    
 Madelung                    :     -2001.83957544    
 xc potential                :     -90.3200114599    
 exchange                    :     -66.8641863976    
 correlation                 :     -1.41072672248    
 total energy                :     -1656.00051012    
 
Density of states at Fermi energy :    11.20704773    
 (states/Hartree/unit cell)
 
Estimated indirect band gap :   0.7410784151E-03
 from k-point     48 to k-point     60
Estimated direct band gap   :   0.6108990160E-01
 at k-point     56
 
Charges :
 core                        :    12.00000000    
 valence                     :    17.00000000    
 interstitial                :    1.100279240    
 muffin-tins (core leakage)
  species :    1 (Cu)
   atom    1                 :    27.89972076     (  0.3545749492E-03)
 total in muffin-tins        :    27.89972076    
 total calculated charge     :    28.99976050    
 total charge                :    29.00000000    
 error                       :   0.2394993556E-03
 
RMS change in Kohn-Sham potential (target) :   0.3482350336E-01 (   10.00000000    )
Absolute change in total energy (target)   :   0.6348323345     (  0.1000000000E-07)
 
Time (CPU seconds) :        68.56
 
+--------------------+
| Loop number :   10 |
+--------------------+
 
Energies :
 Fermi                       :     0.280795492483    
 sum of eigenvalues          :     -948.331596160    
 electron kinetic            :      1686.65906793    
 core electron kinetic       :      1501.80777754    
 Coulomb                     :     -3274.17265566    
 Coulomb potential           :     -2544.67080249    
 nuclear-nuclear             :     -221.745658671    
 electron-nuclear            :     -3560.18319149    
 Hartree                     :      507.756194499    
 Madelung                    :     -2001.83725442    
 xc potential                :     -90.3198615961    
 exchange                    :     -66.8643836474    
 correlation                 :     -1.41073346936    
 total energy                :     -1655.78870485    
 
Density of states at Fermi energy :    11.18347213    
 (states/Hartree/unit cell)
 
Estimated indirect band gap :   0.7441853611E-03
 from k-point     48 to k-point     60
Estimated direct band gap   :   0.6108441840E-01
 at k-point     56
 
Charges :
 core                        :    12.00000000    
 valence                     :    17.00000000    
 interstitial                :    1.100496812    
 muffin-tins (core leakage)
  species :    1 (Cu)
   atom    1                 :    27.89950319     (  0.3537942299E-03)
 total in muffin-tins        :    27.89950319    
 total calculated charge     :    28.99976136    
 total charge                :    29.00000000    
 error                       :   0.2386426085E-03
 
Wrote STATE.OUT
 
RMS change in Kohn-Sham potential (target) :   0.1726400474E-01 (   10.00000000    )
Absolute change in total energy (target)   :   0.3705133553     (  0.1000000000E-07)
 
Time (CPU seconds) :        76.52
 
+--------------------+
| Loop number :   11 |
+--------------------+
 
Energies :
 Fermi                       :     0.283978544448    
 sum of eigenvalues          :     -948.228504862    
 electron kinetic            :      1686.78400862    
 core electron kinetic       :      1501.86550044    
 Coulomb                     :     -3274.18013986    
 Coulomb potential           :     -2544.69331129    
 nuclear-nuclear             :     -221.745658671    
 electron-nuclear            :     -3560.17565108    
 Hartree                     :      507.741169895    
 Madelung                    :     -2001.83348421    
 xc potential                :     -90.3192021923    
 exchange                    :     -66.8640232668    
 correlation                 :     -1.41074042966    
 total energy                :     -1655.67089493    
 
Density of states at Fermi energy :    11.12276609    
 (states/Hartree/unit cell)
 
Estimated indirect band gap :   0.7520131224E-03
 from k-point     48 to k-point     60
Estimated direct band gap   :   0.6103048900E-01
 at k-point     56
 
Charges :
 core                        :    12.00000000    
 valence                     :    17.00000000    
 interstitial                :    1.100922830    
 muffin-tins (core leakage)
  species :    1 (Cu)
   atom    1                 :    27.89907717     (  0.3533851734E-03)
 total in muffin-tins        :    27.89907717    
 total calculated charge     :    28.99976182    
 total charge                :    29.00000000    
 error                       :   0.2381751470E-03
 
RMS change in Kohn-Sham potential (target) :   0.7878678043E-02 (   10.00000000    )
Absolute change in total energy (target)   :   0.2104382570     (  0.1000000000E-07)
 
Time (CPU seconds) :        84.32
 
+--------------------+
| Loop number :   12 |
+--------------------+
 
Energies :
 Fermi                       :     0.285422093280    
 sum of eigenvalues          :     -948.187654427    
 electron kinetic            :      1686.83528969    
 core electron kinetic       :      1501.88939616    
 Coulomb                     :     -3274.20099717    
 Coulomb potential           :     -2544.70250814    
 nuclear-nuclear             :     -221.745658671    
 electron-nuclear            :     -3560.20816886    
 Hartree                     :      507.752830359    
 Madelung                    :     -2001.84974310    
 xc potential                :     -90.3204359749    
 exchange                    :     -66.8650449988    
 correlation                 :     -1.41074605526    
 total energy                :     -1655.64149854    
 
Density of states at Fermi energy :    11.13410608    
 (states/Hartree/unit cell)
 
Estimated indirect band gap :   0.7505907405E-03
 from k-point     48 to k-point     60
Estimated direct band gap   :   0.6104613851E-01
 at k-point     56
 
Charges :
 core                        :    12.00000000    
 valence                     :    17.00000000    
 interstitial                :    1.100854906    
 muffin-tins (core leakage)
  species :    1 (Cu)
   atom    1                 :    27.89914509     (  0.3531218002E-03)
 total in muffin-tins        :    27.89914509    
 total calculated charge     :    28.99976210    
 total charge                :    29.00000000    
 error                       :   0.2378995920E-03
 
Wrote STATE.OUT
 
RMS change in Kohn-Sham potential (target) :   0.3251792159E-02 (   10.00000000    )
Absolute change in total energy (target)   :   0.8200595976E-01 (  0.1000000000E-07)
 
Time (CPU seconds) :        91.74
 
+--------------------+
| Loop number :   13 |
+--------------------+
 
Energies :
 Fermi                       :     0.286172133652    
 sum of eigenvalues          :     -948.163513630    
 electron kinetic            :      1686.87539418    
 core electron kinetic       :      1501.91404310    
 Coulomb                     :     -3274.18837778    
 Coulomb potential           :     -2544.72073986    
 nuclear-nuclear             :     -221.745658671    
 electron-nuclear            :     -3560.16469837    
 Hartree                     :      507.721979257    
 Madelung                    :     -2001.82800786    
 xc potential                :     -90.3181679506    
 exchange                    :     -66.8633131279    
 correlation                 :     -1.41074722621    
 total energy                :     -1655.58704396    
 
Density of states at Fermi energy :    11.04137973    
 (states/Hartree/unit cell)
 
Estimated indirect band gap :   0.7625501364E-03
 from k-point     48 to k-point     60
Estimated direct band gap   :   0.6094997138E-01
 at k-point     56
 
Charges :
 core                        :    12.00000000    
 valence                     :    17.00000000    
 interstitial                :    1.101481942    
 muffin-tins (core leakage)
  species :    1 (Cu)
   atom    1                 :    27.89851806     (  0.3531033409E-03)
 total in muffin-tins        :    27.89851806    
 total calculated charge     :    28.99976217    
 total charge                :    29.00000000    
 error                       :   0.2378342372E-03
 
RMS change in Kohn-Sham potential (target) :   0.1367004881E-02 (   10.00000000    )
Absolute change in total energy (target)   :   0.7495606450E-01 (  0.1000000000E-07)
 
Time (CPU seconds) :        98.65
 
+--------------------+
| Loop number :   14 |
+--------------------+
 
Energies :
 Fermi                       :     0.286192287169    
 sum of eigenvalues          :     -948.170480901    
 electron kinetic            :      1686.85949090    
 core electron kinetic       :      1501.90904719    
 Coulomb                     :     -3274.22249518    
 Coulomb potential           :     -2544.70804298    
 nuclear-nuclear             :     -221.745658671    
 electron-nuclear            :     -3560.24563003    
 Hartree                     :      507.768793524    
 Madelung                    :     -2001.86847369    
 xc potential                :     -90.3219288129    
 exchange                    :     -66.8662384902    
 correlation                 :     -1.41074867863    
 total energy                :     -1655.63999145    
 
Density of states at Fermi energy :    11.16880299    
 (states/Hartree/unit cell)
 
Estimated indirect band gap :   0.7460561659E-03
 from k-point     48 to k-point     60
Estimated direct band gap   :   0.6108418058E-01
 at k-point     56
 
Charges :
 core                        :    12.00000000    
 valence                     :    17.00000000    
 interstitial                :    1.100633486    
 muffin-tins (core leakage)
  species :    1 (Cu)
   atom    1                 :    27.89936651     (  0.3529304774E-03)
 total in muffin-tins        :    27.89936651    
 total calculated charge     :    28.99976229    
 total charge                :    29.00000000    
 error                       :   0.2377057809E-03
 
Wrote STATE.OUT
 
RMS change in Kohn-Sham potential (target) :   0.7429396804E-03 (   10.00000000    )
Absolute change in total energy (target)   :   0.3420847336E-01 (  0.1000000000E-07)
 
Time (CPU seconds) :       106.12
 
+--------------------+
| Loop number :   15 |
+--------------------+
 
Energies :
 Fermi                       :     0.286363626423    
 sum of eigenvalues          :     -948.161467536    
 electron kinetic            :      1686.87517300    
 core electron kinetic       :      1501.91300894    
 Coulomb                     :     -3274.20858606    
 Coulomb potential           :     -2544.71647372    
 nuclear-nuclear             :     -221.745658671    
 electron-nuclear            :     -3560.20938106    
 Hartree                     :      507.746453667    
 Madelung                    :     -2001.85034920    
 xc potential                :     -90.3201668139    
 exchange                    :     -66.8648716711    
 correlation                 :     -1.41075260223    
 total energy                :     -1655.60903733    
 
Density of states at Fermi energy :    11.08556086    
 (states/Hartree/unit cell)
 
Estimated indirect band gap :   0.7570455893E-03
 from k-point     48 to k-point     60
Estimated direct band gap   :   0.6099916270E-01
 at k-point     56
 
Charges :
 core                        :    12.00000000    
 valence                     :    17.00000000    
 interstitial                :    1.101178621    
 muffin-tins (core leakage)
  species :    1 (Cu)
   atom    1                 :    27.89882138     (  0.3529729127E-03)
 total in muffin-tins        :    27.89882138    
 total calculated charge     :    28.99976227    
 total charge                :    29.00000000    
 error                       :   0.2377263238E-03
 
RMS change in Kohn-Sham potential (target) :   0.2799562378E-03 (   10.00000000    )
Absolute change in total energy (target)   :   0.2240199965E-01 (  0.1000000000E-07)
 
Time (CPU seconds) :       113.87
 
+--------------------+
| Loop number :   16 |
+--------------------+
 
Energies :
 Fermi                       :     0.286389252694    
 sum of eigenvalues          :     -948.160886940    
 electron kinetic            :      1686.87767438    
 core electron kinetic       :      1501.91449683    
 Coulomb                     :     -3274.20607821    
 Coulomb potential           :     -2544.71875267    
 nuclear-nuclear             :     -221.745658671    
 electron-nuclear            :     -3560.20208640    
 Hartree                     :      507.741666866    
 Madelung                    :     -2001.84670187    
 xc potential                :     -90.3198086503    
 exchange                    :     -66.8645960511    
 correlation                 :     -1.41075136009    
 total energy                :     -1655.60375124    
 
Density of states at Fermi energy :    11.07815602    
 (states/Hartree/unit cell)
 
Estimated indirect band gap :   0.7579478358E-03
 from k-point     48 to k-point     60
Estimated direct band gap   :   0.6099116000E-01
 at k-point     56
 
Charges :
 core                        :    12.00000000    
 valence                     :    17.00000000    
 interstitial                :    1.101232732    
 muffin-tins (core leakage)
  species :    1 (Cu)
   atom    1                 :    27.89876727     (  0.3529837342E-03)
 total in muffin-tins        :    27.89876727    
 total calculated charge     :    28.99976227    
 total charge                :    29.00000000    
 error                       :   0.2377307875E-03
 
Wrote STATE.OUT
 
RMS change in Kohn-Sham potential (target) :   0.2066021402E-03 (   10.00000000    )
Absolute change in total energy (target)   :   0.1088659487E-01 (  0.1000000000E-07)
 
Time (CPU seconds) :       121.37
 
+--------------------+
| Loop number :   17 |
+--------------------+
 
Energies :
 Fermi                       :     0.286388260682    
 sum of eigenvalues          :     -948.161476748    
 electron kinetic            :      1686.87751237    
 core electron kinetic       :      1501.91508285    
 Coulomb                     :     -3274.20659492    
 Coulomb potential           :     -2544.71915999    
 nuclear-nuclear             :     -221.745658671    
 electron-nuclear            :     -3560.20271249    
 Hartree                     :      507.741776250    
 Madelung                    :     -2001.84701492    
 xc potential                :     -90.3198291250    
 exchange                    :     -66.8646130814    
 correlation                 :     -1.41075049976    
 total energy                :     -1655.60444613    
 
Density of states at Fermi energy :    11.08236057    
 (states/Hartree/unit cell)
 
Estimated indirect band gap :   0.7573306861E-03
 from k-point     48 to k-point     60
Estimated direct band gap   :   0.6099525438E-01
 at k-point     56
 
Charges :
 core                        :    12.00000000    
 valence                     :    17.00000000    
 interstitial                :    1.101206039    
 muffin-tins (core leakage)
  species :    1 (Cu)
   atom    1                 :    27.89879396     (  0.3529833255E-03)
 total in muffin-tins        :    27.89879396    
 total calculated charge     :    28.99976227    
 total charge                :    29.00000000    
 error                       :   0.2377293702E-03
 
RMS change in Kohn-Sham potential (target) :   0.1312883590E-03 (   10.00000000    )
Absolute change in total energy (target)   :   0.2026761838E-02 (  0.1000000000E-07)
 
Time (CPU seconds) :       128.54
 
+--------------------+
| Loop number :   18 |
+--------------------+
 
Energies :
 Fermi                       :     0.286387919390    
 sum of eigenvalues          :     -948.161837801    
 electron kinetic            :      1686.87750693    
 core electron kinetic       :      1501.91553163    
 Coulomb                     :     -3274.20694746    
 Coulomb potential           :     -2544.71950815    
 nuclear-nuclear             :     -221.745658671    
 electron-nuclear            :     -3560.20306943    
 Hartree                     :      507.741780636    
 Madelung                    :     -2001.84719338    
 xc potential                :     -90.3198365728    
 exchange                    :     -66.8646193442    
 correlation                 :     -1.41075000120    
 total energy                :     -1655.60480988    
 
Density of states at Fermi energy :    11.08441118    
 (states/Hartree/unit cell)
 
Estimated indirect band gap :   0.7570064991E-03
 from k-point     48 to k-point     60
Estimated direct band gap   :   0.6099704166E-01
 at k-point     56
 
Charges :
 core                        :    12.00000000    
 valence                     :    17.00000000    
 interstitial                :    1.101192511    
 muffin-tins (core leakage)
  species :    1 (Cu)
   atom    1                 :    27.89880749     (  0.3529839358E-03)
 total in muffin-tins        :    27.89880749    
 total calculated charge     :    28.99976227    
 total charge                :    29.00000000    
 error                       :   0.2377289806E-03
 
Wrote STATE.OUT
 
RMS change in Kohn-Sham potential (target) :   0.1066964197E-03 (   10.00000000    )
Absolute change in total energy (target)   :   0.1429353008E-03 (  0.1000000000E-07)
 
Time (CPU seconds) :       135.79
 
+--------------------+
| Loop number :   19 |
+--------------------+
 
Energies :
 Fermi                       :     0.286387847655    
 sum of eigenvalues          :     -948.162099356    
 electron kinetic            :      1686.87747092    
 core electron kinetic       :      1501.91581210    
 Coulomb                     :     -3274.20736637    
 Coulomb potential           :     -2544.71971207    
 nuclear-nuclear             :     -221.745658671    
 electron-nuclear            :     -3560.20370332    
 Hartree                     :      507.741995624    
 Madelung                    :     -2001.84751033    
 xc potential                :     -90.3198582011    
 exchange                    :     -66.8646363001    
 correlation                 :     -1.41074974050    
 total energy                :     -1655.60528149    
 
Density of states at Fermi energy :    11.08598767    
 (states/Hartree/unit cell)
 
Estimated indirect band gap :   0.7567613903E-03
 from k-point     48 to k-point     60
Estimated direct band gap   :   0.6099839030E-01
 at k-point     56
 
Charges :
 core                        :    12.00000000    
 valence                     :    17.00000000    
 interstitial                :    1.101181789    
 muffin-tins (core leakage)
  species :    1 (Cu)
   atom    1                 :    27.89881821     (  0.3529835850E-03)
 total in muffin-tins        :    27.89881821    
 total calculated charge     :    28.99976227    
 total charge                :    29.00000000    
 error                       :   0.2377281060E-03
 
RMS change in Kohn-Sham potential (target) :   0.7036384369E-04 (   10.00000000    )
Absolute change in total energy (target)   :   0.4358764297E-03 (  0.1000000000E-07)
 
Time (CPU seconds) :       143.41
 
+--------------------+
| Loop number :   20 |
+--------------------+
 
Energies :
 Fermi                       :     0.286388946585    
 sum of eigenvalues          :     -948.162221309    
 electron kinetic            :      1686.87755171    
 core electron kinetic       :      1501.91602792    
 Coulomb                     :     -3274.20760920    
 Coulomb potential           :     -2544.71990810    
 nuclear-nuclear             :     -221.745658671    
 electron-nuclear            :     -3560.20399296    
 Hartree                     :      507.742042432    
 Madelung                    :     -2001.84765515    
 xc potential                :     -90.3198649205    
 exchange                    :     -66.8646415437    
 correlation                 :     -1.41074962192    
 total energy                :     -1655.60544866    
 
Density of states at Fermi energy :    11.08647516    
 (states/Hartree/unit cell)
 
Estimated indirect band gap :   0.7566713123E-03
 from k-point     48 to k-point     60
Estimated direct band gap   :   0.6099866063E-01
 at k-point     56
 
Charges :
 core                        :    12.00000000    
 valence                     :    17.00000000    
 interstitial                :    1.101178234    
 muffin-tins (core leakage)
  species :    1 (Cu)
   atom    1                 :    27.89882177     (  0.3529934209E-03)
 total in muffin-tins        :    27.89882177    
 total calculated charge     :    28.99976226    
 total charge                :    29.00000000    
 error                       :   0.2377374525E-03
 
Wrote STATE.OUT
 
RMS change in Kohn-Sham potential (target) :   0.4603255559E-03 (   10.00000000    )
Absolute change in total energy (target)   :   0.2761359294E-03 (  0.1000000000E-07)
 
Time (CPU seconds) :       150.72
 
+--------------------+
| Loop number :   21 |
+--------------------+
 
Energies :
 Fermi                       :     0.286389659958    
 sum of eigenvalues          :     -948.162302127    
 electron kinetic            :      1686.87758530    
 core electron kinetic       :      1501.91614053    
 Coulomb                     :     -3274.20781136    
 Coulomb potential           :     -2544.72001303    
 nuclear-nuclear             :     -221.745658671    
 electron-nuclear            :     -3560.20429235    
 Hartree                     :      507.742139660    
 Madelung                    :     -2001.84780485    
 xc potential                :     -90.3198743915    
 exchange                    :     -66.8646488865    
 correlation                 :     -1.41074956980    
 total energy                :     -1655.60562452    
 
Density of states at Fermi energy :    11.08686466    
 (states/Hartree/unit cell)
 
Estimated indirect band gap :   0.7566038282E-03
 from k-point     48 to k-point     60
Estimated direct band gap   :   0.6099890204E-01
 at k-point     56
 
Charges :
 core                        :    12.00000000    
 valence                     :    17.00000000    
 interstitial                :    1.101175374    
 muffin-tins (core leakage)
  species :    1 (Cu)
   atom    1                 :    27.89882463     (  0.3529930571E-03)
 total in muffin-tins        :    27.89882463    
 total calculated charge     :    28.99976226    
 total charge                :    29.00000000    
 error                       :   0.2377368435E-03
 
RMS change in Kohn-Sham potential (target) :   0.7951339542E-04 (   10.00000000    )
Absolute change in total energy (target)   :   0.2448988835E-03 (  0.1000000000E-07)
 
Time (CPU seconds) :       157.87
 
+--------------------+
| Loop number :   22 |
+--------------------+
 
Energies :
 Fermi                       :     0.286390540952    
 sum of eigenvalues          :     -948.162323478    
 electron kinetic            :      1686.87765035    
 core electron kinetic       :      1501.91622398    
 Coulomb                     :     -3274.20788530    
 Coulomb potential           :     -2544.72009947    
 nuclear-nuclear             :     -221.745658671    
 electron-nuclear            :     -3560.20435379    
 Hartree                     :      507.742127160    
 Madelung                    :     -2001.84783557    
 xc potential                :     -90.3198743616    
 exchange                    :     -66.8646488646    
 correlation                 :     -1.41074954713    
 total energy                :     -1655.60563336    
 
Density of states at Fermi energy :    11.08685185    
 (states/Hartree/unit cell)
 
Estimated indirect band gap :   0.7565953788E-03
 from k-point     48 to k-point     60
Estimated direct band gap   :   0.6099878069E-01
 at k-point     56
 
Charges :
 core                        :    12.00000000    
 valence                     :    17.00000000    
 interstitial                :    1.101175278    
 muffin-tins (core leakage)
  species :    1 (Cu)
   atom    1                 :    27.89882472     (  0.3529830857E-03)
 total in muffin-tins        :    27.89882472    
 total calculated charge     :    28.99976227    
 total charge                :    29.00000000    
 error                       :   0.2377266335E-03
 
Wrote STATE.OUT
 
RMS change in Kohn-Sham potential (target) :   0.1357055488E-03 (   10.00000000    )
Absolute change in total energy (target)   :   0.7006230317E-04 (  0.1000000000E-07)
 
Time (CPU seconds) :       165.65
 
+--------------------+
| Loop number :   23 |
+--------------------+
 
Energies :
 Fermi                       :     0.286390701690    
 sum of eigenvalues          :     -948.162351722    
 electron kinetic            :      1686.87764075    
 core electron kinetic       :      1501.91623630    
 Coulomb                     :     -3274.20797288    
 Coulomb potential           :     -2544.72011176    
 nuclear-nuclear             :     -221.745658671    
 electron-nuclear            :     -3560.20451665    
 Hartree                     :      507.742202447    
 Madelung                    :     -2001.84791700    
 xc potential                :     -90.3198807143    
 exchange                    :     -66.8646537961    
 correlation                 :     -1.41074953687    
 total energy                :     -1655.60573546    
 
Density of states at Fermi energy :    11.08707920    
 (states/Hartree/unit cell)
 
Estimated indirect band gap :   0.7565603382E-03
 from k-point     48 to k-point     60
Estimated direct band gap   :   0.6099895973E-01
 at k-point     56
 
Charges :
 core                        :    12.00000000    
 valence                     :    17.00000000    
 interstitial                :    1.101173664    
 muffin-tins (core leakage)
  species :    1 (Cu)
   atom    1                 :    27.89882634     (  0.3529828403E-03)
 total in muffin-tins        :    27.89882634    
 total calculated charge     :    28.99976227    
 total charge                :    29.00000000    
 error                       :   0.2377263639E-03
 
RMS change in Kohn-Sham potential (target) :   0.5860928086E-04 (   10.00000000    )
Absolute change in total energy (target)   :   0.1196139419E-03 (  0.1000000000E-07)
 
Time (CPU seconds) :       173.21
 
+--------------------+
| Loop number :   24 |
+--------------------+
 
Energies :
 Fermi                       :     0.286391324532    
 sum of eigenvalues          :     -948.162334055    
 electron kinetic            :      1686.87770188    
 core electron kinetic       :      1501.91628127    
 Coulomb                     :     -3274.20793930    
 Coulomb potential           :     -2544.72016163    
 nuclear-nuclear             :     -221.745658671    
 electron-nuclear            :     -3560.20439963    
 Hartree                     :      507.742118997    
 Madelung                    :     -2001.84785848    
 xc potential                :     -90.3198743015    
 exchange                    :     -66.8646488288    
 correlation                 :     -1.41074952929    
 total energy                :     -1655.60563578    
 
Density of states at Fermi energy :    11.08685209    
 (states/Hartree/unit cell)
 
Estimated indirect band gap :   0.7565868264E-03
 from k-point     48 to k-point     60
Estimated direct band gap   :   0.6099868746E-01
 at k-point     56
 
Charges :
 core                        :    12.00000000    
 valence                     :    17.00000000    
 interstitial                :    1.101175132    
 muffin-tins (core leakage)
  species :    1 (Cu)
   atom    1                 :    27.89882487     (  0.3529830901E-03)
 total in muffin-tins        :    27.89882487    
 total calculated charge     :    28.99976227    
 total charge                :    29.00000000    
 error                       :   0.2377264560E-03
 
Wrote STATE.OUT
 
RMS change in Kohn-Sham potential (target) :   0.7256683009E-04 (   10.00000000    )
Absolute change in total energy (target)   :   0.6977533849E-04 (  0.1000000000E-07)
 
Time (CPU seconds) :       181.13
 
+--------------------+
| Loop number :   25 |
+--------------------+
 
Energies :
 Fermi                       :     0.286390957790    
 sum of eigenvalues          :     -948.162364271    
 electron kinetic            :      1686.87764135    
 core electron kinetic       :      1501.91625617    
 Coulomb                     :     -3274.20802640    
 Coulomb potential           :     -2544.72012127    
 nuclear-nuclear             :     -221.745658671    
 electron-nuclear            :     -3560.20461418    
 Hartree                     :      507.742246451    
 Madelung                    :     -2001.84796576    
 xc potential                :     -90.3198843474    
 exchange                    :     -66.8646566133    
 correlation                 :     -1.41074953318    
 total energy                :     -1655.60579119    
 
Density of states at Fermi energy :    11.08719509    
 (states/Hartree/unit cell)
 
Estimated indirect band gap :   0.7565412254E-03
 from k-point     48 to k-point     60
Estimated direct band gap   :   0.6099903415E-01
 at k-point     56
 
Charges :
 core                        :    12.00000000    
 valence                     :    17.00000000    
 interstitial                :    1.101172805    
 muffin-tins (core leakage)
  species :    1 (Cu)
   atom    1                 :    27.89882720     (  0.3529827403E-03)
 total in muffin-tins        :    27.89882720    
 total calculated charge     :    28.99976227    
 total charge                :    29.00000000    
 error                       :   0.2377262209E-03
 
RMS change in Kohn-Sham potential (target) :   0.3245610180E-03 (   10.00000000    )
Absolute change in total energy (target)   :   0.1379684395E-03 (  0.1000000000E-07)
 
Time (CPU seconds) :       188.56
 
+--------------------+
| Loop number :   26 |
+--------------------+
 
Energies :
 Fermi                       :     0.286391261232    
 sum of eigenvalues          :     -948.162345460    
 electron kinetic            :      1686.87767885    
 core electron kinetic       :      1501.91626490    
 Coulomb                     :     -3274.20797673    
 Coulomb potential           :     -2544.72014579    
 nuclear-nuclear             :     -221.745658671    
 electron-nuclear            :     -3560.20449032    
 Hartree                     :      507.742172268    
 Madelung                    :     -2001.84790383    
 xc potential                :     -90.3198785239    
 exchange                    :     -66.8646520985    
 correlation                 :     -1.41074952804    
 total energy                :     -1655.60569950    
 
Density of states at Fermi energy :    11.08700538    
 (states/Hartree/unit cell)
 
Estimated indirect band gap :   0.7565655992E-03
 from k-point     48 to k-point     60
Estimated direct band gap   :   0.6099883337E-01
 at k-point     56
 
Charges :
 core                        :    12.00000000    
 valence                     :    17.00000000    
 interstitial                :    1.101174065    
 muffin-tins (core leakage)
  species :    1 (Cu)
   atom    1                 :    27.89882593     (  0.3529829547E-03)
 total in muffin-tins        :    27.89882593    
 total calculated charge     :    28.99976227    
 total charge                :    29.00000000    
 error                       :   0.2377263580E-03
 
Wrote STATE.OUT
 
RMS change in Kohn-Sham potential (target) :   0.1608306039E-03 (   10.00000000    )
Absolute change in total energy (target)   :   0.5719789124E-04 (  0.1000000000E-07)
 
Time (CPU seconds) :       195.51
 
+--------------------+
| Loop number :   27 |
+--------------------+
 
Energies :
 Fermi                       :     0.286391259619    
 sum of eigenvalues          :     -948.162345721    
 electron kinetic            :      1686.87767783    
 core electron kinetic       :      1501.91626454    
 Coulomb                     :     -3274.20797820    
 Coulomb potential           :     -2544.72014484    
 nuclear-nuclear             :     -221.745658671    
 electron-nuclear            :     -3560.20449422    
 Hartree                     :      507.742174691    
 Madelung                    :     -2001.84790578    
 xc potential                :     -90.3198787042    
 exchange                    :     -66.8646522423    
 correlation                 :     -1.41074952767    
 total energy                :     -1655.60570215    
 
Density of states at Fermi energy :    11.08701397    
 (states/Hartree/unit cell)
 
Estimated indirect band gap :   0.7565643774E-03
 from k-point     48 to k-point     60
Estimated direct band gap   :   0.6099884131E-01
 at k-point     56
 
Charges :
 core                        :    12.00000000    
 valence                     :    17.00000000    
 interstitial                :    1.101174011    
 muffin-tins (core leakage)
  species :    1 (Cu)
   atom    1                 :    27.89882599     (  0.3529828920E-03)
 total in muffin-tins        :    27.89882599    
 total calculated charge     :    28.99976227    
 total charge                :    29.00000000    
 error                       :   0.2377262879E-03
 
RMS change in Kohn-Sham potential (target) :   0.1153262278E-04 (   10.00000000    )
Absolute change in total energy (target)   :   0.1165260232E-04 (  0.1000000000E-07)
 
Time (CPU seconds) :       203.03
 
+--------------------+
| Loop number :   28 |
+--------------------+
 
Energies :
 Fermi                       :     0.286391264262    
 sum of eigenvalues          :     -948.162345449    
 electron kinetic            :      1686.87767752    
 core electron kinetic       :      1501.91626419    
 Coulomb                     :     -3274.20797886    
 Coulomb potential           :     -2544.72014420    
 nuclear-nuclear             :     -221.745658671    
 electron-nuclear            :     -3560.20449617    
 Hartree                     :      507.742175987    
 Madelung                    :     -2001.84790676    
 xc potential                :     -90.3198787639    
 exchange                    :     -66.8646522912    
 correlation                 :     -1.41074952756    
 total energy                :     -1655.60570316    
 
Density of states at Fermi energy :    11.08701854    
 (states/Hartree/unit cell)
 
Estimated indirect band gap :   0.7565636719E-03
 from k-point     48 to k-point     60
Estimated direct band gap   :   0.6099884497E-01
 at k-point     56
 
Charges :
 core                        :    12.00000000    
 valence                     :    17.00000000    
 interstitial                :    1.101173984    
 muffin-tins (core leakage)
  species :    1 (Cu)
   atom    1                 :    27.89882602     (  0.3529829200E-03)
 total in muffin-tins        :    27.89882602    
 total calculated charge     :    28.99976227    
 total charge                :    29.00000000    
 error                       :   0.2377263231E-03
 
Wrote STATE.OUT
 
RMS change in Kohn-Sham potential (target) :   0.9182290842E-03 (   10.00000000    )
Absolute change in total energy (target)   :   0.1900113830E-05 (  0.1000000000E-07)
 
Time (CPU seconds) :       210.37
 
+--------------------+
| Loop number :   29 |
+--------------------+
 
Energies :
 Fermi                       :     0.286391270911    
 sum of eigenvalues          :     -948.162345053    
 electron kinetic            :      1686.87767755    
 core electron kinetic       :      1501.91626399    
 Coulomb                     :     -3274.20797867    
 Coulomb potential           :     -2544.72014383    
 nuclear-nuclear             :     -221.745658671    
 electron-nuclear            :     -3560.20449617    
 Hartree                     :      507.742176173    
 Madelung                    :     -2001.84790676    
 xc potential                :     -90.3198787711    
 exchange                    :     -66.8646522992    
 correlation                 :     -1.41074952734    
 total energy                :     -1655.60570295    
 
Density of states at Fermi energy :    11.08702123    
 (states/Hartree/unit cell)
 
Estimated indirect band gap :   0.7565632201E-03
 from k-point     48 to k-point     60
Estimated direct band gap   :   0.6099884673E-01
 at k-point     56
 
Charges :
 core                        :    12.00000000    
 valence                     :    17.00000000    
 interstitial                :    1.101173969    
 muffin-tins (core leakage)
  species :    1 (Cu)
   atom    1                 :    27.89882603     (  0.3529829034E-03)
 total in muffin-tins        :    27.89882603    
 total calculated charge     :    28.99976227    
 total charge                :    29.00000000    
 error                       :   0.2377263001E-03
 
RMS change in Kohn-Sham potential (target) :   0.1895251160E-03 (   10.00000000    )
Absolute change in total energy (target)   :   0.6845955340E-06 (  0.1000000000E-07)
 
Time (CPU seconds) :       217.25
 
+--------------------+
| Loop number :   30 |
+--------------------+
 
Energies :
 Fermi                       :     0.286391276950    
 sum of eigenvalues          :     -948.162344738    
 electron kinetic            :      1686.87767759    
 core electron kinetic       :      1501.91626381    
 Coulomb                     :     -3274.20797805    
 Coulomb potential           :     -2544.72014356    
 nuclear-nuclear             :     -221.745658671    
 electron-nuclear            :     -3560.20449520    
 Hartree                     :      507.742175822    
 Madelung                    :     -2001.84790627    
 xc potential                :     -90.3198787720    
 exchange                    :     -66.8646523014    
 correlation                 :     -1.41074952719    
 total energy                :     -1655.60570229    
 
Density of states at Fermi energy :    11.08702333    
 (states/Hartree/unit cell)
 
Estimated indirect band gap :   0.7565628629E-03
 from k-point     48 to k-point     60
Estimated direct band gap   :   0.6099884803E-01
 at k-point     56
 
Charges :
 core                        :    12.00000000    
 valence                     :    17.00000000    
 interstitial                :    1.101173959    
 muffin-tins (core leakage)
  species :    1 (Cu)
   atom    1                 :    27.89882604     (  0.3529829674E-03)
 total in muffin-tins        :    27.89882604    
 total calculated charge     :    28.99976227    
 total charge                :    29.00000000    
 error                       :   0.2377263626E-03
 
Wrote STATE.OUT
 
RMS change in Kohn-Sham potential (target) :   0.2398006157E-03 (   10.00000000    )
Absolute change in total energy (target)   :   0.8360239008E-06 (  0.1000000000E-07)
 
Time (CPU seconds) :       224.85
 
+--------------------+
| Loop number :   31 |
+--------------------+
 
Energies :
 Fermi                       :     0.286391282023    
 sum of eigenvalues          :     -948.162344509    
 electron kinetic            :      1686.87767764    
 core electron kinetic       :      1501.91626367    
 Coulomb                     :     -3274.20797796    
 Coulomb potential           :     -2544.72014338    
 nuclear-nuclear             :     -221.745658671    
 electron-nuclear            :     -3560.20449520    
 Hartree                     :      507.742175910    
 Madelung                    :     -2001.84790627    
 xc potential                :     -90.3198787687    
 exchange                    :     -66.8646522999    
 correlation                 :     -1.41074952708    
 total energy                :     -1655.60570215    
 
Density of states at Fermi energy :    11.08702483    
 (states/Hartree/unit cell)
 
Estimated indirect band gap :   0.7565626042E-03
 from k-point     48 to k-point     60
Estimated direct band gap   :   0.6099884890E-01
 at k-point     56
 
Charges :
 core                        :    12.00000000    
 valence                     :    17.00000000    
 interstitial                :    1.101173952    
 muffin-tins (core leakage)
  species :    1 (Cu)
   atom    1                 :    27.89882605     (  0.3529828964E-03)
 total in muffin-tins        :    27.89882605    
 total calculated charge     :    28.99976227    
 total charge                :    29.00000000    
 error                       :   0.2377262886E-03
 
RMS change in Kohn-Sham potential (target) :   0.1975618122E-04 (   10.00000000    )
Absolute change in total energy (target)   :   0.3478671715E-06 (  0.1000000000E-07)
 
Time (CPU seconds) :       232.54
 
+--------------------+
| Loop number :   32 |
+--------------------+
 
Energies :
 Fermi                       :     0.286391285841    
 sum of eigenvalues          :     -948.162344361    
 electron kinetic            :      1686.87767765    
 core electron kinetic       :      1501.91626340    
 Coulomb                     :     -3274.20797742    
 Coulomb potential           :     -2544.72014327    
 nuclear-nuclear             :     -221.745658671    
 electron-nuclear            :     -3560.20449422    
 Hartree                     :      507.742175478    
 Madelung                    :     -2001.84790578    
 xc potential                :     -90.3198787483    
 exchange                    :     -66.8646522822    
 correlation                 :     -1.41074952732    
 total energy                :     -1655.60570157    
 
Density of states at Fermi energy :    11.08702585    
 (states/Hartree/unit cell)
 
Estimated indirect band gap :   0.7565624269E-03
 from k-point     48 to k-point     60
Estimated direct band gap   :   0.6099884945E-01
 at k-point     56
 
Charges :
 core                        :    12.00000000    
 valence                     :    17.00000000    
 interstitial                :    1.101173951    
 muffin-tins (core leakage)
  species :    1 (Cu)
   atom    1                 :    27.89882605     (  0.3529929016E-03)
 total in muffin-tins        :    27.89882605    
 total calculated charge     :    28.99976226    
 total charge                :    29.00000000    
 error                       :   0.2377362950E-03
 
Wrote STATE.OUT
 
RMS change in Kohn-Sham potential (target) :   0.1520581067E-04 (   10.00000000    )
Absolute change in total energy (target)   :   0.6637728802E-06 (  0.1000000000E-07)
 
Time (CPU seconds) :       239.93
 
+--------------------+
| Loop number :   33 |
+--------------------+
 
Energies :
 Fermi                       :     0.286391287036    
 sum of eigenvalues          :     -948.162344366    
 electron kinetic            :      1686.87767749    
 core electron kinetic       :      1501.91626333    
 Coulomb                     :     -3274.20797829    
 Coulomb potential           :     -2544.72014307    
 nuclear-nuclear             :     -221.745658671    
 electron-nuclear            :     -3560.20449617    
 Hartree                     :      507.742176552    
 Madelung                    :     -2001.84790676    
 xc potential                :     -90.3198787886    
 exchange                    :     -66.8646523158    
 correlation                 :     -1.41074952704    
 total energy                :     -1655.60570264    
 
Density of states at Fermi energy :    11.08702747    
 (states/Hartree/unit cell)
 
Estimated indirect band gap :   0.7565621893E-03
 from k-point     48 to k-point     60
Estimated direct band gap   :   0.6099885081E-01
 at k-point     56
 
Charges :
 core                        :    12.00000000    
 valence                     :    17.00000000    
 interstitial                :    1.101173937    
 muffin-tins (core leakage)
  species :    1 (Cu)
   atom    1                 :    27.89882606     (  0.3529829032E-03)
 total in muffin-tins        :    27.89882606    
 total calculated charge     :    28.99976227    
 total charge                :    29.00000000    
 error                       :   0.2377262983E-03
 
RMS change in Kohn-Sham potential (target) :   0.4657595769E-04 (   10.00000000    )
Absolute change in total energy (target)   :   0.9050727385E-06 (  0.1000000000E-07)
 
Time (CPU seconds) :       247.48
 
+--------------------+
| Loop number :   34 |
+--------------------+
 
Energies :
 Fermi                       :     0.286391292141    
 sum of eigenvalues          :     -948.162344103    
 electron kinetic            :      1686.87767794    
 core electron kinetic       :      1501.91626358    
 Coulomb                     :     -3274.20797745    
 Coulomb potential           :     -2544.72014333    
 nuclear-nuclear             :     -221.745658671    
 electron-nuclear            :     -3560.20449422    
 Hartree                     :      507.742175449    
 Madelung                    :     -2001.84790578    
 xc potential                :     -90.3198787211    
 exchange                    :     -66.8646522631    
 correlation                 :     -1.41074952697    
 total energy                :     -1655.60570129    
 
Density of states at Fermi energy :    11.08702566    
 (states/Hartree/unit cell)
 
Estimated indirect band gap :   0.7565624068E-03
 from k-point     48 to k-point     60
Estimated direct band gap   :   0.6099884871E-01
 at k-point     56
 
Charges :
 core                        :    12.00000000    
 valence                     :    17.00000000    
 interstitial                :    1.101173951    
 muffin-tins (core leakage)
  species :    1 (Cu)
   atom    1                 :    27.89882605     (  0.3529829153E-03)
 total in muffin-tins        :    27.89882605    
 total calculated charge     :    28.99976227    
 total charge                :    29.00000000    
 error                       :   0.2377263138E-03
 
Wrote STATE.OUT
 
RMS change in Kohn-Sham potential (target) :   0.2741962318E-04 (   10.00000000    )
Absolute change in total energy (target)   :   0.1123799848E-05 (  0.1000000000E-07)
 
Time (CPU seconds) :       254.66
 
+--------------------+
| Loop number :   35 |
+--------------------+
 
Energies :
 Fermi                       :     0.286391288649    
 sum of eigenvalues          :     -948.162344367    
 electron kinetic            :      1686.87767744    
 core electron kinetic       :      1501.91626334    
 Coulomb                     :     -3274.20797826    
 Coulomb potential           :     -2544.72014300    
 nuclear-nuclear             :     -221.745658671    
 electron-nuclear            :     -3560.20449617    
 Hartree                     :      507.742176589    
 Madelung                    :     -2001.84790676    
 xc potential                :     -90.3198788125    
 exchange                    :     -66.8646523348    
 correlation                 :     -1.41074952683    
 total energy                :     -1655.60570268    
 
Density of states at Fermi energy :    11.08702883    
 (states/Hartree/unit cell)
 
Estimated indirect band gap :   0.7565619883E-03
 from k-point     48 to k-point     60
Estimated direct band gap   :   0.6099885189E-01
 at k-point     56
 
Charges :
 core                        :    12.00000000    
 valence                     :    17.00000000    
 interstitial                :    1.101173930    
 muffin-tins (core leakage)
  species :    1 (Cu)
   atom    1                 :    27.89882607     (  0.3529829618E-03)
 total in muffin-tins        :    27.89882607    
 total calculated charge     :    28.99976227    
 total charge                :    29.00000000    
 error                       :   0.2377263525E-03
 
RMS change in Kohn-Sham potential (target) :   0.1123343102E-04 (   10.00000000    )
Absolute change in total energy (target)   :   0.1102280066E-05 (  0.1000000000E-07)
 
Time (CPU seconds) :       261.88
 
+--------------------+
| Loop number :   36 |
+--------------------+
 
Energies :
 Fermi                       :     0.286391292395    
 sum of eigenvalues          :     -948.162344122    
 electron kinetic            :      1686.87767781    
 core electron kinetic       :      1501.91626337    
 Coulomb                     :     -3274.20797738    
 Coulomb potential           :     -2544.72014320    
 nuclear-nuclear             :     -221.745658671    
 electron-nuclear            :     -3560.20449422    
 Hartree                     :      507.742175514    
 Madelung                    :     -2001.84790578    
 xc potential                :     -90.3198787375    
 exchange                    :     -66.8646522763    
 correlation                 :     -1.41074952686    
 total energy                :     -1655.60570137    
 
Density of states at Fermi energy :    11.08702666    
 (states/Hartree/unit cell)
 
Estimated indirect band gap :   0.7565622675E-03
 from k-point     48 to k-point     60
Estimated direct band gap   :   0.6099884964E-01
 at k-point     56
 
Charges :
 core                        :    12.00000000    
 valence                     :    17.00000000    
 interstitial                :    1.101173945    
 muffin-tins (core leakage)
  species :    1 (Cu)
   atom    1                 :    27.89882606     (  0.3529829014E-03)
 total in muffin-tins        :    27.89882606    
 total calculated charge     :    28.99976227    
 total charge                :    29.00000000    
 error                       :   0.2377262880E-03
 
Wrote STATE.OUT
 
RMS change in Kohn-Sham potential (target) :   0.5832609882E-03 (   10.00000000    )
Absolute change in total energy (target)   :   0.1027946382E-05 (  0.1000000000E-07)
 
Time (CPU seconds) :       269.75
 
+--------------------+
| Loop number :   37 |
+--------------------+
 
Energies :
 Fermi                       :     0.286391291643    
 sum of eigenvalues          :     -948.162344181    
 electron kinetic            :      1686.87767771    
 core electron kinetic       :      1501.91626338    
 Coulomb                     :     -3274.20797784    
 Coulomb potential           :     -2544.72014314    
 nuclear-nuclear             :     -221.745658671    
 electron-nuclear            :     -3560.20449520    
 Hartree                     :      507.742176031    
 Madelung                    :     -2001.84790627    
 xc potential                :     -90.3198787588    
 exchange                    :     -66.8646522929    
 correlation                 :     -1.41074952685    
 total energy                :     -1655.60570194    
 
Density of states at Fermi energy :    11.08702736    
 (states/Hartree/unit cell)
 
Estimated indirect band gap :   0.7565621793E-03
 from k-point     48 to k-point     60
Estimated direct band gap   :   0.6099885035E-01
 at k-point     56
 
Charges :
 core                        :    12.00000000    
 valence                     :    17.00000000    
 interstitial                :    1.101173940    
 muffin-tins (core leakage)
  species :    1 (Cu)
   atom    1                 :    27.89882606     (  0.3529829153E-03)
 total in muffin-tins        :    27.89882606    
 total calculated charge     :    28.99976227    
 total charge                :    29.00000000    
 error                       :   0.2377263024E-03
 
RMS change in Kohn-Sham potential (target) :   0.7448168565E-04 (   10.00000000    )
Absolute change in total energy (target)   :   0.3148040832E-06 (  0.1000000000E-07)
 
Time (CPU seconds) :       277.40
 
+--------------------+
| Loop number :   38 |
+--------------------+
 
Energies :
 Fermi                       :     0.286391291664    
 sum of eigenvalues          :     -948.162344188    
 electron kinetic            :      1686.87767768    
 core electron kinetic       :      1501.91626317    
 Coulomb                     :     -3274.20797735    
 Coulomb potential           :     -2544.72014312    
 nuclear-nuclear             :     -221.745658671    
 electron-nuclear            :     -3560.20449422    
 Hartree                     :      507.742175550    
 Madelung                    :     -2001.84790578    
 xc potential                :     -90.3198787449    
 exchange                    :     -66.8646522797    
 correlation                 :     -1.41074952718    
 total energy                :     -1655.60570147    
 
Density of states at Fermi energy :    11.08702743    
 (states/Hartree/unit cell)
 
Estimated indirect band gap :   0.7565621702E-03
 from k-point     48 to k-point     60
Estimated direct band gap   :   0.6099885041E-01
 at k-point     56
 
Charges :
 core                        :    12.00000000    
 valence                     :    17.00000000    
 interstitial                :    1.101173944    
 muffin-tins (core leakage)
  species :    1 (Cu)
   atom    1                 :    27.89882606     (  0.3529929213E-03)
 total in muffin-tins        :    27.89882606    
 total calculated charge     :    28.99976226    
 total charge                :    29.00000000    
 error                       :   0.2377363115E-03
 
Wrote STATE.OUT
 
RMS change in Kohn-Sham potential (target) :   0.9146565248E-05 (   10.00000000    )
Absolute change in total energy (target)   :   0.3950185601E-06 (  0.1000000000E-07)
 
Time (CPU seconds) :       285.03
 
+--------------------+
| Loop number :   39 |
+--------------------+
 
Energies :
 Fermi                       :     0.286391291205    
 sum of eigenvalues          :     -948.162344226    
 electron kinetic            :      1686.87767758    
 core electron kinetic       :      1501.91626331    
 Coulomb                     :     -3274.20797779    
 Coulomb potential           :     -2544.72014304    
 nuclear-nuclear             :     -221.745658671    
 electron-nuclear            :     -3560.20449520    
 Hartree                     :      507.742176079    
 Madelung                    :     -2001.84790627    
 xc potential                :     -90.3198787704    
 exchange                    :     -66.8646523016    
 correlation                 :     -1.41074952705    
 total energy                :     -1655.60570203    
 
Density of states at Fermi energy :    11.08702781    
 (states/Hartree/unit cell)
 
Estimated indirect band gap :   0.7565621195E-03
 from k-point     48 to k-point     60
Estimated direct band gap   :   0.6099885079E-01
 at k-point     56
 
Charges :
 core                        :    12.00000000    
 valence                     :    17.00000000    
 interstitial                :    1.101173937    
 muffin-tins (core leakage)
  species :    1 (Cu)
   atom    1                 :    27.89882606     (  0.3529829090E-03)
 total in muffin-tins        :    27.89882606    
 total calculated charge     :    28.99976227    
 total charge                :    29.00000000    
 error                       :   0.2377263081E-03
 
RMS change in Kohn-Sham potential (target) :   0.6842178353E-04 (   10.00000000    )
Absolute change in total energy (target)   :   0.4656615147E-06 (  0.1000000000E-07)
 
Time (CPU seconds) :       292.34
 
+--------------------+
| Loop number :   40 |
+--------------------+
 
Energies :
 Fermi                       :     0.286391291715    
 sum of eigenvalues          :     -948.162344199    
 electron kinetic            :      1686.87767768    
 core electron kinetic       :      1501.91626335    
 Coulomb                     :     -3274.20797783    
 Coulomb potential           :     -2544.72014311    
 nuclear-nuclear             :     -221.745658671    
 electron-nuclear            :     -3560.20449520    
 Hartree                     :      507.742176045    
 Madelung                    :     -2001.84790627    
 xc potential                :     -90.3198787638    
 exchange                    :     -66.8646522959    
 correlation                 :     -1.41074952696    
 total energy                :     -1655.60570197    
 
Density of states at Fermi energy :    11.08702747    
 (states/Hartree/unit cell)
 
Estimated indirect band gap :   0.7565621634E-03
 from k-point     48 to k-point     60
Estimated direct band gap   :   0.6099885042E-01
 at k-point     56
 
Charges :
 core                        :    12.00000000    
 valence                     :    17.00000000    
 interstitial                :    1.101173939    
 muffin-tins (core leakage)
  species :    1 (Cu)
   atom    1                 :    27.89882606     (  0.3529829196E-03)
 total in muffin-tins        :    27.89882606    
 total calculated charge     :    28.99976227    
 total charge                :    29.00000000    
 error                       :   0.2377263108E-03
 
Wrote STATE.OUT
 
RMS change in Kohn-Sham potential (target) :   0.6340159604E-04 (   10.00000000    )
Absolute change in total energy (target)   :   0.5490051080E-07 (  0.1000000000E-07)
 
Time (CPU seconds) :       299.79
 
+--------------------+
| Loop number :   41 |
+--------------------+
 
Energies :
 Fermi                       :     0.286391291991    
 sum of eigenvalues          :     -948.162344184    
 electron kinetic            :      1686.87767772    
 core electron kinetic       :      1501.91626336    
 Coulomb                     :     -3274.20797784    
 Coulomb potential           :     -2544.72014315    
 nuclear-nuclear             :     -221.745658671    
 electron-nuclear            :     -3560.20449520    
 Hartree                     :      507.742176025    
 Madelung                    :     -2001.84790627    
 xc potential                :     -90.3198787579    
 exchange                    :     -66.8646522925    
 correlation                 :     -1.41074952689    
 total energy                :     -1655.60570194    
 
Density of states at Fermi energy :    11.08702733    
 (states/Hartree/unit cell)
 
Estimated indirect band gap :   0.7565621798E-03
 from k-point     48 to k-point     60
Estimated direct band gap   :   0.6099885028E-01
 at k-point     56
 
Charges :
 core                        :    12.00000000    
 valence                     :    17.00000000    
 interstitial                :    1.101173940    
 muffin-tins (core leakage)
  species :    1 (Cu)
   atom    1                 :    27.89882606     (  0.3529828943E-03)
 total in muffin-tins        :    27.89882606    
 total calculated charge     :    28.99976227    
 total charge                :    29.00000000    
 error                       :   0.2377262914E-03
 
RMS change in Kohn-Sham potential (target) :   0.1056690128E-03 (   10.00000000    )
Absolute change in total energy (target)   :   0.1740409061E-07 (  0.1000000000E-07)
 
Time (CPU seconds) :       307.23
 
+--------------------+
| Loop number :   42 |
+--------------------+
 
Energies :
 Fermi                       :     0.286391292083    
 sum of eigenvalues          :     -948.162344183    
 electron kinetic            :      1686.87767771    
 core electron kinetic       :      1501.91626334    
 Coulomb                     :     -3274.20797784    
 Coulomb potential           :     -2544.72014313    
 nuclear-nuclear             :     -221.745658671    
 electron-nuclear            :     -3560.20449520    
 Hartree                     :      507.742176033    
 Madelung                    :     -2001.84790627    
 xc potential                :     -90.3198787568    
 exchange                    :     -66.8646522911    
 correlation                 :     -1.41074952697    
 total energy                :     -1655.60570195    
 
Density of states at Fermi energy :    11.08702730    
 (states/Hartree/unit cell)
 
Estimated indirect band gap :   0.7565621838E-03
 from k-point     48 to k-point     60
Estimated direct band gap   :   0.6099885024E-01
 at k-point     56
 
Charges :
 core                        :    12.00000000    
 valence                     :    17.00000000    
 interstitial                :    1.101173940    
 muffin-tins (core leakage)
  species :    1 (Cu)
   atom    1                 :    27.89882606     (  0.3529829282E-03)
 total in muffin-tins        :    27.89882606    
 total calculated charge     :    28.99976227    
 total charge                :    29.00000000    
 error                       :   0.2377263208E-03
 
Wrote STATE.OUT
 
RMS change in Kohn-Sham potential (target) :   0.1759563982E-03 (   10.00000000    )
Absolute change in total energy (target)   :   0.1866055754E-08 (  0.1000000000E-07)
 
Convergence targets achieved
 
Time (CPU seconds) :       314.54
 
+--------------------+
| Loop number :   43 |
+--------------------+
 
Energies :
 Fermi                       :     0.286391292135    
 sum of eigenvalues          :     -948.162344183    
 electron kinetic            :      1686.87767771    
 core electron kinetic       :      1501.91626334    
 Coulomb                     :     -3274.20797784    
 Coulomb potential           :     -2544.72014313    
 nuclear-nuclear             :     -221.745658671    
 electron-nuclear            :     -3560.20449520    
 Hartree                     :      507.742176034    
 Madelung                    :     -2001.84790627    
 xc potential                :     -90.3198787575    
 exchange                    :     -66.8646522915    
 correlation                 :     -1.41074952699    
 total energy                :     -1655.60570195    
 
Density of states at Fermi energy :    11.08702730    
 (states/Hartree/unit cell)
 
Estimated indirect band gap :   0.7565621828E-03
 from k-point     48 to k-point     60
Estimated direct band gap   :   0.6099885024E-01
 at k-point     56
 
Charges :
 core                        :    12.00000000    
 valence                     :    17.00000000    
 interstitial                :    1.101173940    
 muffin-tins (core leakage)
  species :    1 (Cu)
   atom    1                 :    27.89882606     (  0.3529829282E-03)
 total in muffin-tins        :    27.89882606    
 total calculated charge     :    28.99976227    
 total charge                :    29.00000000    
 error                       :   0.2377263199E-03
 
+------------------------------+
| Self-consistent loop stopped |
+------------------------------+
 
Wrote STATE.OUT
 
Timings (CPU seconds) :
 initialisation                        :         0.74
 Hamiltonian and overlap matrix set up :        59.67
 first-variational eigenvalue equation :        89.95
 charge density calculation            :        44.89
 potential calculation                 :       126.12
 total                                 :       321.37
 
+----------------------------+
| Elk version 8.3.15 stopped |
+----------------------------+
