  0.4879970417    
  0.4175165516    
  0.3358486224    
  0.2481610443    
  0.1706952546    
  0.1089485181    
  0.6419727814E-01
  0.3482350336E-01
  0.1726400474E-01
  0.7878678043E-02
  0.3251792159E-02
  0.1367004881E-02
  0.7429396804E-03
  0.2799562378E-03
  0.2066021402E-03
  0.1312883590E-03
  0.1066964197E-03
  0.7036384369E-04
  0.4603255559E-03
  0.7951339542E-04
  0.1357055488E-03
  0.5860928086E-04
  0.7256683009E-04
  0.3245610180E-03
  0.1608306039E-03
  0.1153262278E-04
  0.9182290842E-03
  0.1895251160E-03
  0.2398006157E-03
  0.1975618122E-04
  0.1520581067E-04
  0.4657595769E-04
  0.2741962318E-04
  0.1123343102E-04
  0.5832609882E-03
  0.7448168565E-04
  0.9146565248E-05
  0.6842178353E-04
  0.6340159604E-04
  0.1056690128E-03
  0.1759563982E-03
