 
scale
 1.0
 
scale1
 1.0
 
scale2
 1.0
 
scale3
 1.0
 
avec
   5.888566517       5.888566517       0.000000000    
   5.888566517       0.000000000       5.888566517    
   0.000000000       5.888566517       5.888566517    
 
atoms
   1                                    : nspecies
'Sr.in'                                 : spfname
   1                                    : natoms; atpos, bfcmt below
    0.00000000    0.00000000    0.00000000    0.00000000  0.00000000  0.00000000
