  0.9750219726    
   11.87963082    
   25.61260566    
   24.57392259    
   13.92744829    
   6.351551295    
   1.570862632    
  0.3822273412    
  0.9536010147E-01
  0.2938450318E-01
  0.7728581627E-02
  0.1906396008E-02
  0.5235607296E-03
  0.1559324573E-04
  0.5790085652E-04
  0.2883108846E-04
  0.1737178445E-04
  0.1427107782E-04
  0.1421405614E-04
  0.1374428757E-04
  0.5984707059E-05
  0.8248604900E-05
  0.1781453648E-05
  0.5777404112E-05
  0.2639899321E-07
  0.2496859452E-05
  0.6235613000E-05
  0.3201768777E-05
  0.1712774974E-05
  0.3392924555E-06
  0.2071919880E-07
  0.1054939275E-05
  0.3252971510E-06
  0.5198853614E-07
  0.1358611371E-05
  0.3774330253E-06
  0.1231354872E-05
  0.1101195267E-05
  0.2821252565E-06
  0.2349952410E-07
  0.7744893082E-07
  0.7828293747E-07
  0.2083834261E-07
  0.5891924957E-06
  0.5236524885E-06
  0.1220026206E-05
  0.3585164450E-06
  0.9260111256E-07
  0.4385583452E-07
  0.1444277586E-07
  0.1094394975E-06
  0.4317189450E-07
  0.7783637557E-07
  0.1256329597E-05
  0.2750730346E-06
  0.6416030374E-07
  0.6327163646E-06
  0.8081915439E-06
  0.1202033673E-06
  0.9963332559E-07
  0.6099526217E-07
  0.4222238204E-07
  0.6616210158E-07
  0.2122760634E-08
