 
+----------------------------+
| Real-space lattice vectors |
+----------------------------+
 
vector a1 :    4.512615427      -2.605359731       0.000000000    
vector a2 :    0.000000000       5.210719462       0.000000000    
vector a3 :    0.000000000       0.000000000       8.447167856    
 
Stored column-wise as a matrix :
   4.512615427       0.000000000       0.000000000    
  -2.605359731       5.210719462       0.000000000    
   0.000000000       0.000000000       8.447167856    
 
Inverse of matrix :
  0.2216009798       0.000000000       0.000000000    
  0.1108004899      0.1919120780       0.000000000    
   0.000000000       0.000000000      0.1183828731    
 
Unit cell volume :    198.6264771    
 
 
+----------------------------------+
| Reciprocal-space lattice vectors |
+----------------------------------+
 
vector b1 :    1.392360020       0.000000000       0.000000000    
vector b2 :   0.6961800101       1.205819149       0.000000000    
vector b3 :    0.000000000       0.000000000      0.7438215287    
 
Stored column-wise as a matrix :
   1.392360020      0.6961800101       0.000000000    
   0.000000000       1.205819149       0.000000000    
   0.000000000       0.000000000      0.7438215287    
 
Inverse of matrix :
  0.7182050515     -0.4146558797       0.000000000    
   0.000000000      0.8293117595       0.000000000    
   0.000000000       0.000000000       1.344408519    
 
Brillouin zone volume :    1.248827533    
