  0.2786153601E-01
  0.2958730916E-01
  0.1764827442E-01
  0.7216908452E-02
  0.3797722853E-02
  0.2815397662E-02
  0.2043486654E-02
  0.1512751507E-02
  0.9075357611E-03
  0.6280293237E-03
  0.1560724581E-03
  0.3871680640E-03
  0.2364131574E-03
  0.8380921145E-04
  0.4273431296E-04
  0.9216407989E-05
  0.7599362561E-06
  0.7059254585E-06
  0.8414976946E-06
  0.2735628186E-06
  0.1358816917E-06
  0.4399907994E-07
