    -16291.2698905    
    -16288.8215420    
    -16278.7850615    
    -16247.5331048    
    -16206.0749544    
    -16182.5399126    
    -16171.5403010    
    -16171.7353961    
    -16171.7085048    
    -16171.7272065    
    -16171.7302485    
    -16171.7291135    
    -16171.7287607    
    -16171.7285736    
    -16171.7284914    
    -16171.7284841    
    -16171.7284829    
    -16171.7284823    
    -16171.7284555    
    -16171.7284434    
    -16171.7284341    
    -16171.7284200    
    -16171.7284103    
    -16171.7284113    
    -16171.7284109    
    -16171.7284073    
    -16171.7284149    
    -16171.7284127    
    -16171.7284098    
    -16171.7284066    
    -16171.7284064    
    -16171.7284058    
    -16171.7284051    
    -16171.7284051    
    -16171.7284050    
    -16171.7284051    
    -16171.7284051    
