    0.238654581054E-03
    0.219003108604E-03
    0.302786287777E-03
    0.107360957753E-03
    0.377722587329E-03
    0.368711368324E-03
    0.338273653805E-03
    0.340764844763E-03
    0.342308723961E-03
    0.342112542448E-03
    0.341932229686E-03
    0.341876783861E-03
    0.341943579762E-03
    0.341658590961E-03
    0.341512105126E-03
    0.341723810944E-03
    0.341702449593E-03
    0.341781972350E-03
    0.341855707897E-03
    0.341802342700E-03
    0.341885792865E-03
    0.341830810293E-03
    0.341827268310E-03
    0.341837059848E-03
    0.341827658004E-03
    0.341835797108E-03
    0.341840306946E-03
    0.341833689432E-03
    0.341833284385E-03
    0.341831585741E-03
    0.341832156412E-03
    0.341831676140E-03
    0.341831327895E-03
    0.341831911083E-03
    0.341831173427E-03
    0.341831215668E-03
    0.341831178571E-03
    0.341831056178E-03
    0.341831076034E-03
    0.341831152561E-03
    0.341831035019E-03
    0.341831088171E-03
    0.341831004081E-03
    0.341830988721E-03
    0.341830964215E-03
    0.341830944200E-03
    0.341830939908E-03
    0.341830923077E-03
    0.341830915122E-03
    0.341830922987E-03
    0.341830923769E-03
    0.341830915484E-03
    0.341830918861E-03
