+----------------------------+
| Elk version 8.3.15 started |
+----------------------------+
 
Date (YYYY-MM-DD) : 2022-02-24
Time (hh:mm:ss)   : 19:31:35
 
All units are atomic (Hartree, Bohr, etc.)
 
+------------------------------------------+
| Ground-state run resuming from STATE.OUT |
+------------------------------------------+
 
Lattice vectors :
   5.441759539      -3.141801335       0.000000000    
   0.000000000       6.283602669       0.000000000    
   0.000000000       0.000000000       10.04802600    
 
Reciprocal lattice vectors :
   1.154623842       0.000000000       0.000000000    
  0.5773119212      0.9999335792       0.000000000    
   0.000000000       0.000000000      0.6253153913    
 
Unit cell volume      :    343.5807416    
Brillouin zone volume :   0.7219561035    
 
Muffin-tin inner radius fraction :   0.1000000000E-01
 
Species :    1 (Sc)
 parameters loaded from : Sc.in
 name : scandium
 nuclear charge    :   -21.00000000    
 electronic charge :    21.00000000    
 atomic mass :    81949.61066    
 muffin-tin radius :    2.400000000    
 number of radial points in muffin-tin :   1000
 number on inner part of muffin-tin    :    716
 atomic positions (lattice), magnetic fields (Cartesian) :
   1 :   0.33333333  0.16666667  0.25000000    0.00000000  0.00000000  0.00000000
   2 :  -0.33333333 -0.16666667 -0.25000000    0.00000000  0.00000000  0.00000000
 
Total number of atoms per unit cell :    2
 
Spin treatment :
 spin-unpolarised
 
Number of Bravais lattice symmetries :   24
Number of crystal symmetries         :   24
Crystal has inversion symmetry
Real symmetric eigensolver will be used
 
k-point grid :     17    17    17
k-point offset :    0.000000000       0.000000000       0.000000000    
k-point set is reduced with full crystal symmetry group
Total number of k-points :      297
 
Muffin-tin radius times maximum |G+k| :    8.500000000    
 using gkmax = rgkmax / 2
Maximum |G+k| for APW functions       :    4.250000000    
Maximum (1/2)|G+k|²                   :    9.031250000    
Maximum |G| for potential and density :    34.00000000    
Constant for pseudocharge density :   20
Radial integration step length :    1
 
G-vector grid sizes :     72    72   120
Number of G-vectors :   227713
 
Maximum angular momentum used for
 APW functions                      :   10
 outer part of muffin-tin           :    8
 inner part of muffin-tin           :    1
 
Total nuclear charge    :   -42.00000000    
Total core charge       :    20.00000000    
Total valence charge    :    22.00000000    
Total excess charge     :    0.000000000    
Total electronic charge :    42.00000000    
 
Effective Wigner radius, rₛ :    1.249962463    
 
Number of empty states         :   40
Total number of valence states :   52
Total number of core states    :   20
 
Conduction state local-orbitals added automatically
Total number of local-orbitals :  242
 
Using Libxc version 05.01.05
Exchange-correlation functional :    100   493   494
 exchange: mgga_x_rscan; correlation: mgga_c_rscan
 
Smearing type :    1
 Methfessel-Paxton order 1, Phys. Rev. B 40, 3616 (1989)
Smearing width :   0.1000000000E-02
Effective electronic temperature (K) :    315.7750248    
 
Mixing type :    3
 Broyden mixing, J. Phys. A: Math. Gen. 17, L317 (1984)
 
Potential read in from STATE.OUT
 
+------------------------------+
| Self-consistent loop started |
+------------------------------+
 
+--------------------+
| Loop number :    1 |
+--------------------+
 
Energies :
 Fermi                       :     0.236965159315    
 sum of eigenvalues          :     -894.800677535    
 electron kinetic            :      1546.11059335    
 core electron kinetic       :      1433.77316097    
 Coulomb                     :     -2996.31163732    
 Coulomb potential           :     -2336.79427875    
 nuclear-nuclear             :     -196.611568274    
 electron-nuclear            :     -3262.60585934    
 Hartree                     :      462.905790297    
 Madelung                    :     -1827.91449795    
 xc potential                :     -104.116992138    
 exchange                    :     -77.1992814782    
 correlation                 :     -1.77300450039    
 total energy                :     -1529.17332995    
 
Density of states at Fermi energy :    133.5604040    
 (states/Hartree/unit cell)
 
Estimated indirect band gap :   0.4605800072E-04
 from k-point    178 to k-point    240
Estimated direct band gap   :   0.1271832048E-02
 at k-point    227
 
Charges :
 core                        :    20.00000000    
 valence                     :    22.00000000    
 interstitial                :    3.894935273    
 muffin-tins (core leakage)
  species :    1 (Sc)
   atom    1                 :    19.05253236     (  0.6474534686E-08)
   atom    2                 :    19.05253236     (  0.6474534686E-08)
 total in muffin-tins        :    38.10506473    
 total calculated charge     :    41.99999738    
 total charge                :    42.00000000    
 error                       :   0.2615147643E-05
 
Time (CPU seconds) :        85.73
 
+--------------------+
| Loop number :    2 |
+--------------------+
 
Energies :
 Fermi                       :     0.236968426945    
 sum of eigenvalues          :     -894.800541947    
 electron kinetic            :      1546.11071353    
 core electron kinetic       :      1433.77274627    
 Coulomb                     :     -2996.31157437    
 Coulomb potential           :     -2336.79427714    
 nuclear-nuclear             :     -196.611568274    
 electron-nuclear            :     -3262.60573505    
 Hartree                     :      462.905728958    
 Madelung                    :     -1827.91443580    
 xc potential                :     -104.116978337    
 exchange                    :     -77.1992682552    
 correlation                 :     -1.77300669029    
 total energy                :     -1529.17313579    
 
Density of states at Fermi energy :    133.5062957    
 (states/Hartree/unit cell)
 
Estimated indirect band gap :   0.5161573000E-04
 from k-point    178 to k-point    240
Estimated direct band gap   :   0.1265221625E-02
 at k-point    227
 
Charges :
 core                        :    20.00000000    
 valence                     :    22.00000000    
 interstitial                :    3.894934583    
 muffin-tins (core leakage)
  species :    1 (Sc)
   atom    1                 :    19.05253271     (  0.6510745720E-08)
   atom    2                 :    19.05253271     (  0.6510745720E-08)
 total in muffin-tins        :    38.10506542    
 total calculated charge     :    41.99999739    
 total charge                :    42.00000000    
 error                       :   0.2607805648E-05
 
Wrote STATE.OUT
 
RMS change in Kohn-Sham potential (target) :   0.1680645366E-01 (   10.00000000    )
Absolute change in total energy (target)   :   0.1941585160E-03 (  0.1000000000E-07)
 
Time (CPU seconds) :       174.85
 
+--------------------+
| Loop number :    3 |
+--------------------+
 
Energies :
 Fermi                       :     0.236994157105    
 sum of eigenvalues          :     -894.799574003    
 electron kinetic            :      1546.11170513    
 core electron kinetic       :      1433.77053251    
 Coulomb                     :     -2996.31113416    
 Coulomb potential           :     -2336.79441222    
 nuclear-nuclear             :     -196.611568274    
 electron-nuclear            :     -3262.60471955    
 Hartree                     :      462.905153663    
 Madelung                    :     -1827.91392805    
 xc potential                :     -104.116866915    
 exchange                    :     -77.1991636248    
 correlation                 :     -1.77302323578    
 total energy                :     -1529.17161589    
 
Density of states at Fermi energy :    132.6977786    
 (states/Hartree/unit cell)
 
Estimated indirect band gap :   0.8996073643E-04
 from k-point    178 to k-point    240
Estimated direct band gap   :   0.1221958072E-02
 at k-point    227
 
Charges :
 core                        :    20.00000000    
 valence                     :    22.00000000    
 interstitial                :    3.894947515    
 muffin-tins (core leakage)
  species :    1 (Sc)
   atom    1                 :    19.05252624     (  0.6528773966E-08)
   atom    2                 :    19.05252624     (  0.6528773966E-08)
 total in muffin-tins        :    38.10505248    
 total calculated charge     :    41.99999745    
 total charge                :    42.00000000    
 error                       :   0.2551616980E-05
 
RMS change in Kohn-Sham potential (target) :   0.1544509844E-01 (   10.00000000    )
Absolute change in total energy (target)   :   0.1568441689E-02 (  0.1000000000E-07)
 
Time (CPU seconds) :       262.81
 
+--------------------+
| Loop number :    4 |
+--------------------+
 
Energies :
 Fermi                       :     0.237205275022    
 sum of eigenvalues          :     -894.793819155    
 electron kinetic            :      1546.11514404    
 core electron kinetic       :      1433.77249109    
 Coulomb                     :     -2996.30950731    
 Coulomb potential           :     -2336.79238449    
 nuclear-nuclear             :     -196.611568274    
 electron-nuclear            :     -3262.60349359    
 Hartree                     :      462.905554552    
 Madelung                    :     -1827.91331507    
 xc potential                :     -104.116578709    
 exchange                    :     -77.1988260339    
 correlation                 :     -1.77310501734    
 total energy                :     -1529.16629432    
 
Density of states at Fermi energy :    134.4447490    
 (states/Hartree/unit cell)
 
Estimated indirect band gap :   0.6727413587E-04
 from k-point    240 to k-point    253
Estimated direct band gap   :   0.9561391138E-03
 at k-point    227
 
Charges :
 core                        :    20.00000000    
 valence                     :    22.00000000    
 interstitial                :    3.894483726    
 muffin-tins (core leakage)
  species :    1 (Sc)
   atom    1                 :    19.05275814     (  0.6524876639E-08)
   atom    2                 :    19.05275814     (  0.6524876639E-08)
 total in muffin-tins        :    38.10551627    
 total calculated charge     :    41.99999780    
 total charge                :    42.00000000    
 error                       :   0.2199644278E-05
 
Wrote STATE.OUT
 
RMS change in Kohn-Sham potential (target) :   0.6432314183E-02 (   10.00000000    )
Absolute change in total energy (target)   :   0.5713672648E-02 (  0.1000000000E-07)
 
Time (CPU seconds) :       349.65
 
+--------------------+
| Loop number :    5 |
+--------------------+
 
Energies :
 Fermi                       :     0.237265530650    
 sum of eigenvalues          :     -894.789928061    
 electron kinetic            :      1546.12263117    
 core electron kinetic       :      1433.77629755    
 Coulomb                     :     -2996.30622601    
 Coulomb potential           :     -2336.79673189    
 nuclear-nuclear             :     -196.611568274    
 electron-nuclear            :     -3262.59258359    
 Hartree                     :      462.897925851    
 Madelung                    :     -1827.90786007    
 xc potential                :     -104.115827349    
 exchange                    :     -77.1982745950    
 correlation                 :     -1.77311395452    
 total energy                :     -1529.15498339    
 
Density of states at Fermi energy :    144.2242669    
 (states/Hartree/unit cell)
 
Estimated indirect band gap :   0.1482566017E-04
 from k-point    240 to k-point    258
Estimated direct band gap   :   0.1836913236E-02
 at k-point    254
 
Charges :
 core                        :    20.00000000    
 valence                     :    22.00000000    
 interstitial                :    3.895336368    
 muffin-tins (core leakage)
  species :    1 (Sc)
   atom    1                 :    19.05233182     (  0.6566109434E-08)
   atom    2                 :    19.05233182     (  0.6566109434E-08)
 total in muffin-tins        :    38.10466363    
 total calculated charge     :    41.99999796    
 total charge                :    42.00000000    
 error                       :   0.2043679693E-05
 
RMS change in Kohn-Sham potential (target) :   0.2315167178E-02 (   10.00000000    )
Absolute change in total energy (target)   :   0.1273935520E-01 (  0.1000000000E-07)
 
Time (CPU seconds) :       435.69
 
+--------------------+
| Loop number :    6 |
+--------------------+
 
Energies :
 Fermi                       :     0.237264170172    
 sum of eigenvalues          :     -894.791345541    
 electron kinetic            :      1546.12177854    
 core electron kinetic       :      1433.77578365    
 Coulomb                     :     -2996.30783989    
 Coulomb potential           :     -2336.79717865    
 nuclear-nuclear             :     -196.611568274    
 electron-nuclear            :     -3262.59536458    
 Hartree                     :      462.899092969    
 Madelung                    :     -1827.90925057    
 xc potential                :     -104.115945439    
 exchange                    :     -77.1983636133    
 correlation                 :     -1.77311782639    
 total energy                :     -1529.15754279    
 
Density of states at Fermi energy :    144.5056456    
 (states/Hartree/unit cell)
 
Estimated indirect band gap :   0.3799233176E-04
 from k-point    144 to k-point    240
Estimated direct band gap   :   0.1655282728E-02
 at k-point    240
 
Charges :
 core                        :    20.00000000    
 valence                     :    22.00000000    
 interstitial                :    3.895362668    
 muffin-tins (core leakage)
  species :    1 (Sc)
   atom    1                 :    19.05231867     (  0.6589798929E-08)
   atom    2                 :    19.05231867     (  0.6589798929E-08)
 total in muffin-tins        :    38.10463733    
 total calculated charge     :    41.99999800    
 total charge                :    42.00000000    
 error                       :   0.2004063369E-05
 
Wrote STATE.OUT
 
RMS change in Kohn-Sham potential (target) :   0.1448428833E-02 (   10.00000000    )
Absolute change in total energy (target)   :   0.6254402756E-03 (  0.1000000000E-07)
 
Time (CPU seconds) :       528.93
 
+--------------------+
| Loop number :    7 |
+--------------------+
 
Energies :
 Fermi                       :     0.237263079504    
 sum of eigenvalues          :     -894.791777815    
 electron kinetic            :      1546.12132081    
 core electron kinetic       :      1433.77548079    
 Coulomb                     :     -2996.30837239    
 Coulomb potential           :     -2336.79709115    
 nuclear-nuclear             :     -196.611568274    
 electron-nuclear            :     -3262.59651709    
 Hartree                     :      462.899712974    
 Madelung                    :     -1827.90982682    
 xc potential                :     -104.116007479    
 exchange                    :     -77.1984094538    
 correlation                 :     -1.77311933428    
 total energy                :     -1529.15858037    
 
Density of states at Fermi energy :    144.3151876    
 (states/Hartree/unit cell)
 
Estimated indirect band gap :   0.6259813836E-04
 from k-point    144 to k-point    240
Estimated direct band gap   :   0.1654978224E-02
 at k-point    240
 
Charges :
 core                        :    20.00000000    
 valence                     :    22.00000000    
 interstitial                :    3.895338793    
 muffin-tins (core leakage)
  species :    1 (Sc)
   atom    1                 :    19.05233060     (  0.6551283960E-08)
   atom    2                 :    19.05233060     (  0.6551283960E-08)
 total in muffin-tins        :    38.10466121    
 total calculated charge     :    41.99999801    
 total charge                :    42.00000000    
 error                       :   0.1991498920E-05
 
RMS change in Kohn-Sham potential (target) :   0.9623600339E-03 (   10.00000000    )
Absolute change in total energy (target)   :   0.8812271667E-03 (  0.1000000000E-07)
 
Time (CPU seconds) :       617.65
 
+--------------------+
| Loop number :    8 |
+--------------------+
 
Energies :
 Fermi                       :     0.237262095823    
 sum of eigenvalues          :     -894.792030680    
 electron kinetic            :      1546.12052403    
 core electron kinetic       :      1433.77470178    
 Coulomb                     :     -2996.30874957    
 Coulomb potential           :     -2336.79644230    
 nuclear-nuclear             :     -196.611568274    
 electron-nuclear            :     -3262.59792030    
 Hartree                     :      462.900739002    
 Madelung                    :     -1827.91052843    
 xc potential                :     -104.116112409    
 exchange                    :     -77.1984842940    
 correlation                 :     -1.77312055949    
 total energy                :     -1529.15983040    
 
Density of states at Fermi energy :    144.2371512    
 (states/Hartree/unit cell)
 
Estimated indirect band gap :   0.4120865130E-04
 from k-point    144 to k-point    240
Estimated direct band gap   :   0.1658232371E-02
 at k-point    240
 
Charges :
 core                        :    20.00000000    
 valence                     :    22.00000000    
 interstitial                :    3.895223559    
 muffin-tins (core leakage)
  species :    1 (Sc)
   atom    1                 :    19.05238822     (  0.6506187589E-08)
   atom    2                 :    19.05238822     (  0.6506187589E-08)
 total in muffin-tins        :    38.10477644    
 total calculated charge     :    41.99999800    
 total charge                :    42.00000000    
 error                       :   0.2003485953E-05
 
Wrote STATE.OUT
 
RMS change in Kohn-Sham potential (target) :   0.1142547992E-03 (   10.00000000    )
Absolute change in total energy (target)   :   0.1470334344E-02 (  0.1000000000E-07)
 
Time (CPU seconds) :       706.65
 
+--------------------+
| Loop number :    9 |
+--------------------+
 
Energies :
 Fermi                       :     0.237263974392    
 sum of eigenvalues          :     -894.791487230    
 electron kinetic            :      1546.12136585    
 core electron kinetic       :      1433.77513850    
 Coulomb                     :     -2996.30814399    
 Coulomb potential           :     -2336.79683278    
 nuclear-nuclear             :     -196.611568274    
 electron-nuclear            :     -3262.59631865    
 Hartree                     :      462.899742937    
 Madelung                    :     -1827.90972760    
 xc potential                :     -104.116020306    
 exchange                    :     -77.1984173818    
 correlation                 :     -1.77311974537    
 total energy                :     -1529.15831526    
 
Density of states at Fermi energy :    144.2151557    
 (states/Hartree/unit cell)
 
Estimated indirect band gap :   0.4147657116E-04
 from k-point    144 to k-point    240
Estimated direct band gap   :   0.1658137413E-02
 at k-point    240
 
Charges :
 core                        :    20.00000000    
 valence                     :    22.00000000    
 interstitial                :    3.895306335    
 muffin-tins (core leakage)
  species :    1 (Sc)
   atom    1                 :    19.05234683     (  0.6567274724E-08)
   atom    2                 :    19.05234683     (  0.6567274724E-08)
 total in muffin-tins        :    38.10469366    
 total calculated charge     :    41.99999800    
 total charge                :    42.00000000    
 error                       :   0.2003168504E-05
 
RMS change in Kohn-Sham potential (target) :   0.3611145886E-04 (   10.00000000    )
Absolute change in total energy (target)   :   0.1147553498E-02 (  0.1000000000E-07)
 
Time (CPU seconds) :       794.76
 
+--------------------+
| Loop number :   10 |
+--------------------+
 
Energies :
 Fermi                       :     0.237263056032    
 sum of eigenvalues          :     -894.791575746    
 electron kinetic            :      1546.12137068    
 core electron kinetic       :      1433.77519471    
 Coulomb                     :     -2996.30819023    
 Coulomb potential           :     -2336.79693020    
 nuclear-nuclear             :     -196.611568274    
 electron-nuclear            :     -3262.59631371    
 Hartree                     :      462.899691753    
 Madelung                    :     -1827.90972513    
 xc potential                :     -104.116016228    
 exchange                    :     -77.1984145199    
 correlation                 :     -1.77311974722    
 total energy                :     -1529.15835381    
 
Density of states at Fermi energy :    144.2173676    
 (states/Hartree/unit cell)
 
Estimated indirect band gap :   0.4235529636E-04
 from k-point    144 to k-point    240
Estimated direct band gap   :   0.1658034314E-02
 at k-point    240
 
Charges :
 core                        :    20.00000000    
 valence                     :    22.00000000    
 interstitial                :    3.895317286    
 muffin-tins (core leakage)
  species :    1 (Sc)
   atom    1                 :    19.05234136     (  0.6526073904E-08)
   atom    2                 :    19.05234136     (  0.6526073904E-08)
 total in muffin-tins        :    38.10468271    
 total calculated charge     :    41.99999800    
 total charge                :    42.00000000    
 error                       :   0.2002464640E-05
 
Wrote STATE.OUT
 
RMS change in Kohn-Sham potential (target) :   0.7242897401E-05 (   10.00000000    )
Absolute change in total energy (target)   :   0.2483381375E-03 (  0.1000000000E-07)
 
Time (CPU seconds) :       885.69
 
+--------------------+
| Loop number :   11 |
+--------------------+
 
Energies :
 Fermi                       :     0.237262447363    
 sum of eigenvalues          :     -894.791652999    
 electron kinetic            :      1546.12132690    
 core electron kinetic       :      1433.77518889    
 Coulomb                     :     -2996.30824733    
 Coulomb potential           :     -2336.79696107    
 nuclear-nuclear             :     -196.611568274    
 electron-nuclear            :     -3262.59639704    
 Hartree                     :      462.899717983    
 Madelung                    :     -1827.90976679    
 xc potential                :     -104.116018821    
 exchange                    :     -77.1984164555    
 correlation                 :     -1.77311979929    
 total energy                :     -1529.15845669    
 
Density of states at Fermi energy :    144.2195208    
 (states/Hartree/unit cell)
 
Estimated indirect band gap :   0.4292769957E-04
 from k-point    144 to k-point    240
Estimated direct band gap   :   0.1657970892E-02
 at k-point    240
 
Charges :
 core                        :    20.00000000    
 valence                     :    22.00000000    
 interstitial                :    3.895319149    
 muffin-tins (core leakage)
  species :    1 (Sc)
   atom    1                 :    19.05234043     (  0.6551658771E-08)
   atom    2                 :    19.05234043     (  0.6551658771E-08)
 total in muffin-tins        :    38.10468085    
 total calculated charge     :    41.99999800    
 total charge                :    42.00000000    
 error                       :   0.2002254725E-05
 
RMS change in Kohn-Sham potential (target) :   0.1590375667E-04 (   10.00000000    )
Absolute change in total energy (target)   :   0.4079269593E-04 (  0.1000000000E-07)
 
Time (CPU seconds) :       975.49
 
+--------------------+
| Loop number :   12 |
+--------------------+
 
Energies :
 Fermi                       :     0.237262280892    
 sum of eigenvalues          :     -894.791676346    
 electron kinetic            :      1546.12131092    
 core electron kinetic       :      1433.77520251    
 Coulomb                     :     -2996.30826572    
 Coulomb potential           :     -2336.79696748    
 nuclear-nuclear             :     -196.611568274    
 electron-nuclear            :     -3262.59642741    
 Hartree                     :      462.899729963    
 Madelung                    :     -1827.90978198    
 xc potential                :     -104.116019785    
 exchange                    :     -77.1984171673    
 correlation                 :     -1.77311982152    
 total energy                :     -1529.15849179    
 
Density of states at Fermi energy :    144.2204969    
 (states/Hartree/unit cell)
 
Estimated indirect band gap :   0.4318075242E-04
 from k-point    144 to k-point    240
Estimated direct band gap   :   0.1657938257E-02
 at k-point    240
 
Charges :
 core                        :    20.00000000    
 valence                     :    22.00000000    
 interstitial                :    3.895319635    
 muffin-tins (core leakage)
  species :    1 (Sc)
   atom    1                 :    19.05234018     (  0.6545853637E-08)
   atom    2                 :    19.05234018     (  0.6545853637E-08)
 total in muffin-tins        :    38.10468037    
 total calculated charge     :    41.99999800    
 total charge                :    42.00000000    
 error                       :   0.2001983589E-05
 
Wrote STATE.OUT
 
RMS change in Kohn-Sham potential (target) :   0.1365379205E-04 (   10.00000000    )
Absolute change in total energy (target)   :   0.4529445573E-04 (  0.1000000000E-07)
 
Time (CPU seconds) :      1063.46
 
+--------------------+
| Loop number :   13 |
+--------------------+
 
Energies :
 Fermi                       :     0.237262011334    
 sum of eigenvalues          :     -894.791705444    
 electron kinetic            :      1546.12129350    
 core electron kinetic       :      1433.77518422    
 Coulomb                     :     -2996.30828628    
 Coulomb potential           :     -2336.79697824    
 nuclear-nuclear             :     -196.611568274    
 electron-nuclear            :     -3262.59645777    
 Hartree                     :      462.899739765    
 Madelung                    :     -1827.90979716    
 xc potential                :     -104.116020704    
 exchange                    :     -77.1984178350    
 correlation                 :     -1.77311985327    
 total energy                :     -1529.15853047    
 
Density of states at Fermi energy :    144.2202401    
 (states/Hartree/unit cell)
 
Estimated indirect band gap :   0.4329523137E-04
 from k-point    144 to k-point    240
Estimated direct band gap   :   0.1657933118E-02
 at k-point    240
 
Charges :
 core                        :    20.00000000    
 valence                     :    22.00000000    
 interstitial                :    3.895320529    
 muffin-tins (core leakage)
  species :    1 (Sc)
   atom    1                 :    19.05233974     (  0.6520249229E-08)
   atom    2                 :    19.05233974     (  0.6520249229E-08)
 total in muffin-tins        :    38.10467947    
 total calculated charge     :    41.99999800    
 total charge                :    42.00000000    
 error                       :   0.2001808156E-05
 
RMS change in Kohn-Sham potential (target) :   0.2412521867E-04 (   10.00000000    )
Absolute change in total energy (target)   :   0.5000460669E-04 (  0.1000000000E-07)
 
Time (CPU seconds) :      1152.56
 
+--------------------+
| Loop number :   14 |
+--------------------+
 
Energies :
 Fermi                       :     0.237262086805    
 sum of eigenvalues          :     -894.791697446    
 electron kinetic            :      1546.12129715    
 core electron kinetic       :      1433.77513331    
 Coulomb                     :     -2996.30828137    
 Coulomb potential           :     -2336.79697407    
 nuclear-nuclear             :     -196.611568274    
 electron-nuclear            :     -3262.59645212    
 Hartree                     :      462.899739027    
 Madelung                    :     -1827.90979434    
 xc potential                :     -104.116020522    
 exchange                    :     -77.1984176979    
 correlation                 :     -1.77311985144    
 total energy                :     -1529.15852177    
 
Density of states at Fermi energy :    144.2201366    
 (states/Hartree/unit cell)
 
Estimated indirect band gap :   0.4328218669E-04
 from k-point    144 to k-point    240
Estimated direct band gap   :   0.1657933216E-02
 at k-point    240
 
Charges :
 core                        :    20.00000000    
 valence                     :    22.00000000    
 interstitial                :    3.895320329    
 muffin-tins (core leakage)
  species :    1 (Sc)
   atom    1                 :    19.05233984     (  0.6494689231E-08)
   atom    2                 :    19.05233984     (  0.6494689231E-08)
 total in muffin-tins        :    38.10467967    
 total calculated charge     :    41.99999800    
 total charge                :    42.00000000    
 error                       :   0.2001864232E-05
 
Wrote STATE.OUT
 
RMS change in Kohn-Sham potential (target) :   0.2514083195E-03 (   10.00000000    )
Absolute change in total energy (target)   :   0.3807492931E-05 (  0.1000000000E-07)
 
Time (CPU seconds) :      1240.49
 
+--------------------+
| Loop number :   15 |
+--------------------+
 
Energies :
 Fermi                       :     0.237262768216    
 sum of eigenvalues          :     -894.791630110    
 electron kinetic            :      1546.12133211    
 core electron kinetic       :      1433.77520664    
 Coulomb                     :     -2996.30823805    
 Coulomb potential           :     -2336.79694321    
 nuclear-nuclear             :     -196.611568274    
 electron-nuclear            :     -3262.59639633    
 Hartree                     :      462.899726562    
 Madelung                    :     -1827.90976644    
 xc potential                :     -104.116019012    
 exchange                    :     -77.1984165831    
 correlation                 :     -1.77311980132    
 total energy                :     -1529.15844232    
 
Density of states at Fermi energy :    144.2197249    
 (states/Hartree/unit cell)
 
Estimated indirect band gap :   0.4303497055E-04
 from k-point    144 to k-point    240
Estimated direct band gap   :   0.1657946951E-02
 at k-point    240
 
Charges :
 core                        :    20.00000000    
 valence                     :    22.00000000    
 interstitial                :    3.895318066    
 muffin-tins (core leakage)
  species :    1 (Sc)
   atom    1                 :    19.05234097     (  0.6530182617E-08)
   atom    2                 :    19.05234097     (  0.6530182617E-08)
 total in muffin-tins        :    38.10468193    
 total calculated charge     :    41.99999800    
 total charge                :    42.00000000    
 error                       :   0.2002003271E-05
 
RMS change in Kohn-Sham potential (target) :   0.1011805149E-04 (   10.00000000    )
Absolute change in total energy (target)   :   0.7850412521E-04 (  0.1000000000E-07)
 
Time (CPU seconds) :      1330.20
 
+--------------------+
| Loop number :   16 |
+--------------------+
 
Energies :
 Fermi                       :     0.237262216465    
 sum of eigenvalues          :     -894.791692732    
 electron kinetic            :      1546.12130015    
 core electron kinetic       :      1433.77519349    
 Coulomb                     :     -2996.30828191    
 Coulomb potential           :     -2336.79697231    
 nuclear-nuclear             :     -196.611568274    
 electron-nuclear            :     -3262.59645495    
 Hartree                     :      462.899741317    
 Madelung                    :     -1827.90979575    
 xc potential                :     -104.116020567    
 exchange                    :     -77.1984177362    
 correlation                 :     -1.77311984923    
 total energy                :     -1529.15851934    
 
Density of states at Fermi energy :    144.2204802    
 (states/Hartree/unit cell)
 
Estimated indirect band gap :   0.4335102983E-04
 from k-point    144 to k-point    240
Estimated direct band gap   :   0.1657918838E-02
 at k-point    240
 
Charges :
 core                        :    20.00000000    
 valence                     :    22.00000000    
 interstitial                :    3.895320294    
 muffin-tins (core leakage)
  species :    1 (Sc)
   atom    1                 :    19.05233985     (  0.6491804427E-08)
   atom    2                 :    19.05233985     (  0.6491804427E-08)
 total in muffin-tins        :    38.10467971    
 total calculated charge     :    41.99999800    
 total charge                :    42.00000000    
 error                       :   0.2001688600E-05
 
Wrote STATE.OUT
 
RMS change in Kohn-Sham potential (target) :   0.5958884648E-04 (   10.00000000    )
Absolute change in total energy (target)   :   0.5739820108E-04 (  0.1000000000E-07)
 
Time (CPU seconds) :      1417.57
 
+--------------------+
| Loop number :   17 |
+--------------------+
 
Energies :
 Fermi                       :     0.237262078520    
 sum of eigenvalues          :     -894.791703130    
 electron kinetic            :      1546.12129429    
 core electron kinetic       :      1433.77519127    
 Coulomb                     :     -2996.30828725    
 Coulomb potential           :     -2336.79697665    
 nuclear-nuclear             :     -196.611568274    
 electron-nuclear            :     -3262.59646130    
 Hartree                     :      462.899742325    
 Madelung                    :     -1827.90979893    
 xc potential                :     -104.116020765    
 exchange                    :     -77.1984178725    
 correlation                 :     -1.77311986295    
 total energy                :     -1529.15853070    
 
Density of states at Fermi energy :    144.2200733    
 (states/Hartree/unit cell)
 
Estimated indirect band gap :   0.4332904458E-04
 from k-point    144 to k-point    240
Estimated direct band gap   :   0.1657928111E-02
 at k-point    240
 
Charges :
 core                        :    20.00000000    
 valence                     :    22.00000000    
 interstitial                :    3.895320679    
 muffin-tins (core leakage)
  species :    1 (Sc)
   atom    1                 :    19.05233966     (  0.6562927979E-08)
   atom    2                 :    19.05233966     (  0.6562927979E-08)
 total in muffin-tins        :    38.10467932    
 total calculated charge     :    41.99999800    
 total charge                :    42.00000000    
 error                       :   0.2001965818E-05
 
RMS change in Kohn-Sham potential (target) :   0.2672956536E-04 (   10.00000000    )
Absolute change in total energy (target)   :   0.2570725565E-04 (  0.1000000000E-07)
 
Time (CPU seconds) :      1505.13
 
+--------------------+
| Loop number :   18 |
+--------------------+
 
Energies :
 Fermi                       :     0.237262027501    
 sum of eigenvalues          :     -894.791706468    
 electron kinetic            :      1546.12129190    
 core electron kinetic       :      1433.77518853    
 Coulomb                     :     -2996.30828911    
 Coulomb potential           :     -2336.79697753    
 nuclear-nuclear             :     -196.611568274    
 electron-nuclear            :     -3262.59646413    
 Hartree                     :      462.899743298    
 Madelung                    :     -1827.90980034    
 xc potential                :     -104.116020834    
 exchange                    :     -77.1984179165    
 correlation                 :     -1.77311986914    
 total energy                :     -1529.15853499    
 
Density of states at Fermi energy :    144.2200430    
 (states/Hartree/unit cell)
 
Estimated indirect band gap :   0.4333776792E-04
 from k-point    144 to k-point    240
Estimated direct band gap   :   0.1657928734E-02
 at k-point    240
 
Charges :
 core                        :    20.00000000    
 valence                     :    22.00000000    
 interstitial                :    3.895320795    
 muffin-tins (core leakage)
  species :    1 (Sc)
   atom    1                 :    19.05233960     (  0.6514730089E-08)
   atom    2                 :    19.05233960     (  0.6514730089E-08)
 total in muffin-tins        :    38.10467920    
 total calculated charge     :    41.99999800    
 total charge                :    42.00000000    
 error                       :   0.2001730607E-05
 
Wrote STATE.OUT
 
RMS change in Kohn-Sham potential (target) :   0.5916194478E-04 (   10.00000000    )
Absolute change in total energy (target)   :   0.1071850943E-04 (  0.1000000000E-07)
 
Time (CPU seconds) :      1592.19
 
+--------------------+
| Loop number :   19 |
+--------------------+
 
Energies :
 Fermi                       :     0.237262020675    
 sum of eigenvalues          :     -894.791705599    
 electron kinetic            :      1546.12129219    
 core electron kinetic       :      1433.77518793    
 Coulomb                     :     -2996.30828778    
 Coulomb potential           :     -2336.79697701    
 nuclear-nuclear             :     -196.611568274    
 electron-nuclear            :     -3262.59646201    
 Hartree                     :      462.899742501    
 Madelung                    :     -1827.90979928    
 xc potential                :     -104.116020784    
 exchange                    :     -77.1984178764    
 correlation                 :     -1.77311986982    
 total energy                :     -1529.15853334    
 
Density of states at Fermi energy :    144.2199816    
 (states/Hartree/unit cell)
 
Estimated indirect band gap :   0.4332637605E-04
 from k-point    144 to k-point    240
Estimated direct band gap   :   0.1657930966E-02
 at k-point    240
 
Charges :
 core                        :    20.00000000    
 valence                     :    22.00000000    
 interstitial                :    3.895320764    
 muffin-tins (core leakage)
  species :    1 (Sc)
   atom    1                 :    19.05233962     (  0.6480860293E-08)
   atom    2                 :    19.05233962     (  0.6480860293E-08)
 total in muffin-tins        :    38.10467924    
 total calculated charge     :    41.99999800    
 total charge                :    42.00000000    
 error                       :   0.2001807431E-05
 
RMS change in Kohn-Sham potential (target) :   0.2978265099E-04 (   10.00000000    )
Absolute change in total energy (target)   :   0.1024012818E-05 (  0.1000000000E-07)
 
Time (CPU seconds) :      1677.61
 
+--------------------+
| Loop number :   20 |
+--------------------+
 
Energies :
 Fermi                       :     0.237262020210    
 sum of eigenvalues          :     -894.791704851    
 electron kinetic            :      1546.12129251    
 core electron kinetic       :      1433.77519712    
 Coulomb                     :     -2996.30828688    
 Coulomb potential           :     -2336.79697661    
 nuclear-nuclear             :     -196.611568274    
 electron-nuclear            :     -3262.59646060    
 Hartree                     :      462.899741992    
 Madelung                    :     -1827.90979857    
 xc potential                :     -104.116020751    
 exchange                    :     -77.1984178515    
 correlation                 :     -1.77311986953    
 total energy                :     -1529.15853209    
 
Density of states at Fermi energy :    144.2199890    
 (states/Hartree/unit cell)
 
Estimated indirect band gap :   0.4332535576E-04
 from k-point    144 to k-point    240
Estimated direct band gap   :   0.1657931229E-02
 at k-point    240
 
Charges :
 core                        :    20.00000000    
 valence                     :    22.00000000    
 interstitial                :    3.895320734    
 muffin-tins (core leakage)
  species :    1 (Sc)
   atom    1                 :    19.05233963     (  0.6490278537E-08)
   atom    2                 :    19.05233963     (  0.6490278537E-08)
 total in muffin-tins        :    38.10467927    
 total calculated charge     :    41.99999800    
 total charge                :    42.00000000    
 error                       :   0.2001838084E-05
 
Wrote STATE.OUT
 
RMS change in Kohn-Sham potential (target) :   0.3768653480E-04 (   10.00000000    )
Absolute change in total energy (target)   :   0.9932527973E-06 (  0.1000000000E-07)
 
Time (CPU seconds) :      1762.38
 
+--------------------+
| Loop number :   21 |
+--------------------+
 
Energies :
 Fermi                       :     0.237261920796    
 sum of eigenvalues          :     -894.791715922    
 electron kinetic            :      1546.12128609    
 core electron kinetic       :      1433.77519044    
 Coulomb                     :     -2996.30829469    
 Coulomb potential           :     -2336.79698094    
 nuclear-nuclear             :     -196.611568274    
 electron-nuclear            :     -3262.59647190    
 Hartree                     :      462.899745476    
 Madelung                    :     -1827.90980422    
 xc potential                :     -104.116021065    
 exchange                    :     -77.1984180818    
 correlation                 :     -1.77311987993    
 total energy                :     -1529.15854657    
 
Density of states at Fermi energy :    144.2202101    
 (states/Hartree/unit cell)
 
Estimated indirect band gap :   0.4338274187E-04
 from k-point    144 to k-point    240
Estimated direct band gap   :   0.1657925002E-02
 at k-point    240
 
Charges :
 core                        :    20.00000000    
 valence                     :    22.00000000    
 interstitial                :    3.895321091    
 muffin-tins (core leakage)
  species :    1 (Sc)
   atom    1                 :    19.05233945     (  0.6520934903E-08)
   atom    2                 :    19.05233945     (  0.6520934903E-08)
 total in muffin-tins        :    38.10467891    
 total calculated charge     :    41.99999800    
 total charge                :    42.00000000    
 error                       :   0.2001800155E-05
 
RMS change in Kohn-Sham potential (target) :   0.2519644982E-04 (   10.00000000    )
Absolute change in total energy (target)   :   0.1423427852E-04 (  0.1000000000E-07)
 
Time (CPU seconds) :      1852.02
 
+--------------------+
| Loop number :   22 |
+--------------------+
 
Energies :
 Fermi                       :     0.237261943839    
 sum of eigenvalues          :     -894.791712894    
 electron kinetic            :      1546.12128768    
 core electron kinetic       :      1433.77519012    
 Coulomb                     :     -2996.30829261    
 Coulomb potential           :     -2336.79697960    
 nuclear-nuclear             :     -196.611568274    
 electron-nuclear            :     -3262.59646907    
 Hartree                     :      462.899744738    
 Madelung                    :     -1827.90980281    
 xc potential                :     -104.116020977    
 exchange                    :     -77.1984180168    
 correlation                 :     -1.77311987793    
 total energy                :     -1529.15854282    
 
Density of states at Fermi energy :    144.2201702    
 (states/Hartree/unit cell)
 
Estimated indirect band gap :   0.4336588358E-04
 from k-point    144 to k-point    240
Estimated direct band gap   :   0.1657926643E-02
 at k-point    240
 
Charges :
 core                        :    20.00000000    
 valence                     :    22.00000000    
 interstitial                :    3.895321002    
 muffin-tins (core leakage)
  species :    1 (Sc)
   atom    1                 :    19.05233950     (  0.6524954799E-08)
   atom    2                 :    19.05233950     (  0.6524954799E-08)
 total in muffin-tins        :    38.10467900    
 total calculated charge     :    41.99999800    
 total charge                :    42.00000000    
 error                       :   0.2001779961E-05
 
Wrote STATE.OUT
 
RMS change in Kohn-Sham potential (target) :   0.5237342394E-04 (   10.00000000    )
Absolute change in total energy (target)   :   0.1873104338E-06 (  0.1000000000E-07)
 
Time (CPU seconds) :      1937.69
 
+--------------------+
| Loop number :   23 |
+--------------------+
 
Energies :
 Fermi                       :     0.237261958517    
 sum of eigenvalues          :     -894.791711269    
 electron kinetic            :      1546.12128857    
 core electron kinetic       :      1433.77519071    
 Coulomb                     :     -2996.30829156    
 Coulomb potential           :     -2336.79697891    
 nuclear-nuclear             :     -196.611568274    
 electron-nuclear            :     -3262.59646766    
 Hartree                     :      462.899744377    
 Madelung                    :     -1827.90980210    
 xc potential                :     -104.116020929    
 exchange                    :     -77.1984179788    
 correlation                 :     -1.77311987682    
 total energy                :     -1529.15854085    
 
Density of states at Fermi energy :    144.2201570    
 (states/Hartree/unit cell)
 
Estimated indirect band gap :   0.4335938413E-04
 from k-point    144 to k-point    240
Estimated direct band gap   :   0.1657927215E-02
 at k-point    240
 
Charges :
 core                        :    20.00000000    
 valence                     :    22.00000000    
 interstitial                :    3.895320948    
 muffin-tins (core leakage)
  species :    1 (Sc)
   atom    1                 :    19.05233953     (  0.6563128707E-08)
   atom    2                 :    19.05233953     (  0.6563128707E-08)
 total in muffin-tins        :    38.10467905    
 total calculated charge     :    41.99999800    
 total charge                :    42.00000000    
 error                       :   0.2001752001E-05
 
RMS change in Kohn-Sham potential (target) :   0.5083051065E-04 (   10.00000000    )
Absolute change in total energy (target)   :   0.2022621857E-05 (  0.1000000000E-07)
 
Time (CPU seconds) :      2024.45
 
+--------------------+
| Loop number :   24 |
+--------------------+
 
Energies :
 Fermi                       :     0.237261952071    
 sum of eigenvalues          :     -894.791711430    
 electron kinetic            :      1546.12128842    
 core electron kinetic       :      1433.77519074    
 Coulomb                     :     -2996.30829157    
 Coulomb potential           :     -2336.79697893    
 nuclear-nuclear             :     -196.611568274    
 electron-nuclear            :     -3262.59646766    
 Hartree                     :      462.899744367    
 Madelung                    :     -1827.90980210    
 xc potential                :     -104.116020926    
 exchange                    :     -77.1984179774    
 correlation                 :     -1.77311987734    
 total energy                :     -1529.15854100    
 
Density of states at Fermi energy :    144.2201432    
 (states/Hartree/unit cell)
 
Estimated indirect band gap :   0.4335927404E-04
 from k-point    144 to k-point    240
Estimated direct band gap   :   0.1657927574E-02
 at k-point    240
 
Charges :
 core                        :    20.00000000    
 valence                     :    22.00000000    
 interstitial                :    3.895320954    
 muffin-tins (core leakage)
  species :    1 (Sc)
   atom    1                 :    19.05233952     (  0.6522183682E-08)
   atom    2                 :    19.05233952     (  0.6522183682E-08)
 total in muffin-tins        :    38.10467905    
 total calculated charge     :    41.99999800    
 total charge                :    42.00000000    
 error                       :   0.2001785923E-05
 
Wrote STATE.OUT
 
RMS change in Kohn-Sham potential (target) :   0.4872224647E-05 (   10.00000000    )
Absolute change in total energy (target)   :   0.3537459179E-06 (  0.1000000000E-07)
 
Time (CPU seconds) :      2110.21
 
+--------------------+
| Loop number :   25 |
+--------------------+
 
Energies :
 Fermi                       :     0.237261952438    
 sum of eigenvalues          :     -894.791711533    
 electron kinetic            :      1546.12128831    
 core electron kinetic       :      1433.77519041    
 Coulomb                     :     -2996.30829156    
 Coulomb potential           :     -2336.79697891    
 nuclear-nuclear             :     -196.611568274    
 electron-nuclear            :     -3262.59646766    
 Hartree                     :      462.899744376    
 Madelung                    :     -1827.90980210    
 xc potential                :     -104.116020932    
 exchange                    :     -77.1984179800    
 correlation                 :     -1.77311987805    
 total energy                :     -1529.15854111    
 
Density of states at Fermi energy :    144.2201578    
 (states/Hartree/unit cell)
 
Estimated indirect band gap :   0.4336084103E-04
 from k-point    144 to k-point    240
Estimated direct band gap   :   0.1657927205E-02
 at k-point    240
 
Charges :
 core                        :    20.00000000    
 valence                     :    22.00000000    
 interstitial                :    3.895320963    
 muffin-tins (core leakage)
  species :    1 (Sc)
   atom    1                 :    19.05233952     (  0.6516357232E-08)
   atom    2                 :    19.05233952     (  0.6516357232E-08)
 total in muffin-tins        :    38.10467904    
 total calculated charge     :    41.99999800    
 total charge                :    42.00000000    
 error                       :   0.2001719459E-05
 
RMS change in Kohn-Sham potential (target) :   0.4595520684E-04 (   10.00000000    )
Absolute change in total energy (target)   :   0.2069941729E-07 (  0.1000000000E-07)
 
Time (CPU seconds) :      2197.95
 
+--------------------+
| Loop number :   26 |
+--------------------+
 
Energies :
 Fermi                       :     0.237261955878    
 sum of eigenvalues          :     -894.791711251    
 electron kinetic            :      1546.12128850    
 core electron kinetic       :      1433.77519430    
 Coulomb                     :     -2996.30829151    
 Coulomb potential           :     -2336.79697882    
 nuclear-nuclear             :     -196.611568274    
 electron-nuclear            :     -3262.59646766    
 Hartree                     :      462.899744419    
 Madelung                    :     -1827.90980210    
 xc potential                :     -104.116020925    
 exchange                    :     -77.1984179750    
 correlation                 :     -1.77311987774    
 total energy                :     -1529.15854087    
 
Density of states at Fermi energy :    144.2201499    
 (states/Hartree/unit cell)
 
Estimated indirect band gap :   0.4335987178E-04
 from k-point    144 to k-point    240
Estimated direct band gap   :   0.1657927322E-02
 at k-point    240
 
Charges :
 core                        :    20.00000000    
 valence                     :    22.00000000    
 interstitial                :    3.895320954    
 muffin-tins (core leakage)
  species :    1 (Sc)
   atom    1                 :    19.05233952     (  0.6512408390E-08)
   atom    2                 :    19.05233952     (  0.6512408390E-08)
 total in muffin-tins        :    38.10467905    
 total calculated charge     :    41.99999800    
 total charge                :    42.00000000    
 error                       :   0.2001663375E-05
 
Wrote STATE.OUT
 
RMS change in Kohn-Sham potential (target) :   0.2655533275E-03 (   10.00000000    )
Absolute change in total energy (target)   :   0.2318245151E-06 (  0.1000000000E-07)
 
Time (CPU seconds) :      2284.32
 
+--------------------+
| Loop number :   27 |
+--------------------+
 
Energies :
 Fermi                       :     0.237261908918    
 sum of eigenvalues          :     -894.791716034    
 electron kinetic            :      1546.12128568    
 core electron kinetic       :      1433.77519026    
 Coulomb                     :     -2996.30829491    
 Coulomb potential           :     -2336.79698066    
 nuclear-nuclear             :     -196.611568274    
 electron-nuclear            :     -3262.59647260    
 Hartree                     :      462.899745971    
 Madelung                    :     -1827.90980458    
 xc potential                :     -104.116021058    
 exchange                    :     -77.1984180731    
 correlation                 :     -1.77311988179    
 total energy                :     -1529.15854718    
 
Density of states at Fermi energy :    144.2201924    
 (states/Hartree/unit cell)
 
Estimated indirect band gap :   0.4338048243E-04
 from k-point    144 to k-point    240
Estimated direct band gap   :   0.1657925620E-02
 at k-point    240
 
Charges :
 core                        :    20.00000000    
 valence                     :    22.00000000    
 interstitial                :    3.895321103    
 muffin-tins (core leakage)
  species :    1 (Sc)
   atom    1                 :    19.05233945     (  0.6515060491E-08)
   atom    2                 :    19.05233945     (  0.6515060491E-08)
 total in muffin-tins        :    38.10467890    
 total calculated charge     :    41.99999800    
 total charge                :    42.00000000    
 error                       :   0.2001689438E-05
 
RMS change in Kohn-Sham potential (target) :   0.7510845286E-04 (   10.00000000    )
Absolute change in total energy (target)   :   0.6246738849E-05 (  0.1000000000E-07)
 
Time (CPU seconds) :      2370.05
 
+--------------------+
| Loop number :   28 |
+--------------------+
 
Energies :
 Fermi                       :     0.237261931625    
 sum of eigenvalues          :     -894.791713324    
 electron kinetic            :      1546.12128719    
 core electron kinetic       :      1433.77519127    
 Coulomb                     :     -2996.30829258    
 Coulomb potential           :     -2336.79697954    
 nuclear-nuclear             :     -196.611568274    
 electron-nuclear            :     -3262.59646907    
 Hartree                     :      462.899744769    
 Madelung                    :     -1827.90980281    
 xc potential                :     -104.116020978    
 exchange                    :     -77.1984180144    
 correlation                 :     -1.77311987985    
 total energy                :     -1529.15854328    
 
Density of states at Fermi energy :    144.2201695    
 (states/Hartree/unit cell)
 
Estimated indirect band gap :   0.4336810960E-04
 from k-point    144 to k-point    240
Estimated direct band gap   :   0.1657926695E-02
 at k-point    240
 
Charges :
 core                        :    20.00000000    
 valence                     :    22.00000000    
 interstitial                :    3.895321024    
 muffin-tins (core leakage)
  species :    1 (Sc)
   atom    1                 :    19.05233949     (  0.6512836492E-08)
   atom    2                 :    19.05233949     (  0.6512836492E-08)
 total in muffin-tins        :    38.10467898    
 total calculated charge     :    41.99999800    
 total charge                :    42.00000000    
 error                       :   0.2001791806E-05
 
Wrote STATE.OUT
 
RMS change in Kohn-Sham potential (target) :   0.1409060830E-03 (   10.00000000    )
Absolute change in total energy (target)   :   0.2330888492E-05 (  0.1000000000E-07)
 
Time (CPU seconds) :      2455.49
 
+--------------------+
| Loop number :   29 |
+--------------------+
 
Energies :
 Fermi                       :     0.237261929752    
 sum of eigenvalues          :     -894.791713404    
 electron kinetic            :      1546.12128705    
 core electron kinetic       :      1433.77519034    
 Coulomb                     :     -2996.30829290    
 Coulomb potential           :     -2336.79697948    
 nuclear-nuclear             :     -196.611568274    
 electron-nuclear            :     -3262.59646978    
 Hartree                     :      462.899745150    
 Madelung                    :     -1827.90980316    
 xc potential                :     -104.116020978    
 exchange                    :     -77.1984180123    
 correlation                 :     -1.77311988071    
 total energy                :     -1529.15854374    
 
Density of states at Fermi energy :    144.2201691    
 (states/Hartree/unit cell)
 
Estimated indirect band gap :   0.4336813381E-04
 from k-point    144 to k-point    240
Estimated direct band gap   :   0.1657926725E-02
 at k-point    240
 
Charges :
 core                        :    20.00000000    
 valence                     :    22.00000000    
 interstitial                :    3.895321030    
 muffin-tins (core leakage)
  species :    1 (Sc)
   atom    1                 :    19.05233948     (  0.6522325791E-08)
   atom    2                 :    19.05233948     (  0.6522325791E-08)
 total in muffin-tins        :    38.10467897    
 total calculated charge     :    41.99999800    
 total charge                :    42.00000000    
 error                       :   0.2001836890E-05
 
RMS change in Kohn-Sham potential (target) :   0.7593710141E-05 (   10.00000000    )
Absolute change in total energy (target)   :   0.1235368927E-06 (  0.1000000000E-07)
 
Time (CPU seconds) :      2541.19
 
+--------------------+
| Loop number :   30 |
+--------------------+
 
Energies :
 Fermi                       :     0.237261941978    
 sum of eigenvalues          :     -894.791712345    
 electron kinetic            :      1546.12128776    
 core electron kinetic       :      1433.77519076    
 Coulomb                     :     -2996.30829203    
 Coulomb potential           :     -2336.79697915    
 nuclear-nuclear             :     -196.611568274    
 electron-nuclear            :     -3262.59646837    
 Hartree                     :      462.899744607    
 Madelung                    :     -1827.90980246    
 xc potential                :     -104.116020952    
 exchange                    :     -77.1984179957    
 correlation                 :     -1.77311987934    
 total energy                :     -1529.15854215    
 
Density of states at Fermi energy :    144.2201694    
 (states/Hartree/unit cell)
 
Estimated indirect band gap :   0.4336419957E-04
 from k-point    144 to k-point    240
Estimated direct band gap   :   0.1657926889E-02
 at k-point    240
 
Charges :
 core                        :    20.00000000    
 valence                     :    22.00000000    
 interstitial                :    3.895321002    
 muffin-tins (core leakage)
  species :    1 (Sc)
   atom    1                 :    19.05233950     (  0.6534889962E-08)
   atom    2                 :    19.05233950     (  0.6534889962E-08)
 total in muffin-tins        :    38.10467900    
 total calculated charge     :    41.99999800    
 total charge                :    42.00000000    
 error                       :   0.2001838332E-05
 
Wrote STATE.OUT
 
RMS change in Kohn-Sham potential (target) :   0.4753100932E-04 (   10.00000000    )
Absolute change in total energy (target)   :   0.1625166988E-05 (  0.1000000000E-07)
 
Time (CPU seconds) :      2624.24
 
+--------------------+
| Loop number :   31 |
+--------------------+
 
Energies :
 Fermi                       :     0.237261943760    
 sum of eigenvalues          :     -894.791712246    
 electron kinetic            :      1546.12128775    
 core electron kinetic       :      1433.77519032    
 Coulomb                     :     -2996.30829198    
 Coulomb potential           :     -2336.79697905    
 nuclear-nuclear             :     -196.611568274    
 electron-nuclear            :     -3262.59646837    
 Hartree                     :      462.899744658    
 Madelung                    :     -1827.90980246    
 xc potential                :     -104.116020950    
 exchange                    :     -77.1984179916    
 correlation                 :     -1.77311987992    
 total energy                :     -1529.15854210    
 
Density of states at Fermi energy :    144.2201729    
 (states/Hartree/unit cell)
 
Estimated indirect band gap :   0.4336401360E-04
 from k-point    144 to k-point    240
Estimated direct band gap   :   0.1657926833E-02
 at k-point    240
 
Charges :
 core                        :    20.00000000    
 valence                     :    22.00000000    
 interstitial                :    3.895321001    
 muffin-tins (core leakage)
  species :    1 (Sc)
   atom    1                 :    19.05233950     (  0.6533229069E-08)
   atom    2                 :    19.05233950     (  0.6533229069E-08)
 total in muffin-tins        :    38.10467900    
 total calculated charge     :    41.99999800    
 total charge                :    42.00000000    
 error                       :   0.2001716034E-05
 
RMS change in Kohn-Sham potential (target) :   0.2581821388E-04 (   10.00000000    )
Absolute change in total energy (target)   :   0.4544508556E-06 (  0.1000000000E-07)
 
Time (CPU seconds) :      2710.98
 
+--------------------+
| Loop number :   32 |
+--------------------+
 
Energies :
 Fermi                       :     0.237261951444    
 sum of eigenvalues          :     -894.791711688    
 electron kinetic            :      1546.12128817    
 core electron kinetic       :      1433.77518937    
 Coulomb                     :     -2996.30829191    
 Coulomb potential           :     -2336.79697891    
 nuclear-nuclear             :     -196.611568274    
 electron-nuclear            :     -3262.59646837    
 Hartree                     :      462.899744726    
 Madelung                    :     -1827.90980246    
 xc potential                :     -104.116020940    
 exchange                    :     -77.1984179853    
 correlation                 :     -1.77311987917    
 total energy                :     -1529.15854161    
 
Density of states at Fermi energy :    144.2201750    
 (states/Hartree/unit cell)
 
Estimated indirect band gap :   0.4336216020E-04
 from k-point    144 to k-point    240
Estimated direct band gap   :   0.1657926867E-02
 at k-point    240
 
Charges :
 core                        :    20.00000000    
 valence                     :    22.00000000    
 interstitial                :    3.895320985    
 muffin-tins (core leakage)
  species :    1 (Sc)
   atom    1                 :    19.05233951     (  0.6504670580E-08)
   atom    2                 :    19.05233951     (  0.6504670580E-08)
 total in muffin-tins        :    38.10467902    
 total calculated charge     :    41.99999800    
 total charge                :    42.00000000    
 error                       :   0.2001693474E-05
 
Wrote STATE.OUT
 
RMS change in Kohn-Sham potential (target) :   0.3821282329E-03 (   10.00000000    )
Absolute change in total energy (target)   :   0.6013749498E-06 (  0.1000000000E-07)
 
Time (CPU seconds) :      2795.80
 
+--------------------+
| Loop number :   33 |
+--------------------+
 
Energies :
 Fermi                       :     0.237261971105    
 sum of eigenvalues          :     -894.791710017    
 electron kinetic            :      1546.12128926    
 core electron kinetic       :      1433.77519075    
 Coulomb                     :     -2996.30829094    
 Coulomb potential           :     -2336.79697838    
 nuclear-nuclear             :     -196.611568274    
 electron-nuclear            :     -3262.59646695    
 Hartree                     :      462.899744288    
 Madelung                    :     -1827.90980175    
 xc potential                :     -104.116020900    
 exchange                    :     -77.1984179571    
 correlation                 :     -1.77311987735    
 total energy                :     -1529.15853951    
 
Density of states at Fermi energy :    144.2201718    
 (states/Hartree/unit cell)
 
Estimated indirect band gap :   0.4335616343E-04
 from k-point    144 to k-point    240
Estimated direct band gap   :   0.1657927196E-02
 at k-point    240
 
Charges :
 core                        :    20.00000000    
 valence                     :    22.00000000    
 interstitial                :    3.895320933    
 muffin-tins (core leakage)
  species :    1 (Sc)
   atom    1                 :    19.05233953     (  0.6496149396E-08)
   atom    2                 :    19.05233953     (  0.6496149396E-08)
 total in muffin-tins        :    38.10467907    
 total calculated charge     :    41.99999800    
 total charge                :    42.00000000    
 error                       :   0.2001658842E-05
 
RMS change in Kohn-Sham potential (target) :   0.4688704400E-04 (   10.00000000    )
Absolute change in total energy (target)   :   0.2249774525E-05 (  0.1000000000E-07)
 
Time (CPU seconds) :      2882.37
 
+--------------------+
| Loop number :   34 |
+--------------------+
 
Energies :
 Fermi                       :     0.237261964103    
 sum of eigenvalues          :     -894.791710798    
 electron kinetic            :      1546.12128882    
 core electron kinetic       :      1433.77519080    
 Coulomb                     :     -2996.30829145    
 Coulomb potential           :     -2336.79697869    
 nuclear-nuclear             :     -196.611568274    
 electron-nuclear            :     -3262.59646766    
 Hartree                     :      462.899744484    
 Madelung                    :     -1827.90980210    
 xc potential                :     -104.116020922    
 exchange                    :     -77.1984179730    
 correlation                 :     -1.77311987794    
 total energy                :     -1529.15854049    
 
Density of states at Fermi energy :    144.2201776    
 (states/Hartree/unit cell)
 
Estimated indirect band gap :   0.4335934305E-04
 from k-point    144 to k-point    240
Estimated direct band gap   :   0.1657926938E-02
 at k-point    240
 
Charges :
 core                        :    20.00000000    
 valence                     :    22.00000000    
 interstitial                :    3.895320957    
 muffin-tins (core leakage)
  species :    1 (Sc)
   atom    1                 :    19.05233952     (  0.6537474562E-08)
   atom    2                 :    19.05233952     (  0.6537474562E-08)
 total in muffin-tins        :    38.10467904    
 total calculated charge     :    41.99999800    
 total charge                :    42.00000000    
 error                       :   0.2001802017E-05
 
Wrote STATE.OUT
 
RMS change in Kohn-Sham potential (target) :   0.1433628168E-03 (   10.00000000    )
Absolute change in total energy (target)   :   0.4095495569E-06 (  0.1000000000E-07)
 
Time (CPU seconds) :      2968.80
 
+--------------------+
| Loop number :   35 |
+--------------------+
 
Energies :
 Fermi                       :     0.237261958834    
 sum of eigenvalues          :     -894.791711261    
 electron kinetic            :      1546.12128852    
 core electron kinetic       :      1433.77519065    
 Coulomb                     :     -2996.30829188    
 Coulomb potential           :     -2336.79697885    
 nuclear-nuclear             :     -196.611568274    
 electron-nuclear            :     -3262.59646837    
 Hartree                     :      462.899744759    
 Madelung                    :     -1827.90980246    
 xc potential                :     -104.116020934    
 exchange                    :     -77.1984179813    
 correlation                 :     -1.77311987839    
 total energy                :     -1529.15854122    
 
Density of states at Fermi energy :    144.2201789    
 (states/Hartree/unit cell)
 
Estimated indirect band gap :   0.4336095854E-04
 from k-point    144 to k-point    240
Estimated direct band gap   :   0.1657926845E-02
 at k-point    240
 
Charges :
 core                        :    20.00000000    
 valence                     :    22.00000000    
 interstitial                :    3.895320971    
 muffin-tins (core leakage)
  species :    1 (Sc)
   atom    1                 :    19.05233951     (  0.6514628836E-08)
   atom    2                 :    19.05233951     (  0.6514628836E-08)
 total in muffin-tins        :    38.10467903    
 total calculated charge     :    41.99999800    
 total charge                :    42.00000000    
 error                       :   0.2001652376E-05
 
RMS change in Kohn-Sham potential (target) :   0.4258393699E-04 (   10.00000000    )
Absolute change in total energy (target)   :   0.8375234302E-06 (  0.1000000000E-07)
 
Time (CPU seconds) :      3054.74
 
+--------------------+
| Loop number :   36 |
+--------------------+
 
Energies :
 Fermi                       :     0.237261958767    
 sum of eigenvalues          :     -894.791711309    
 electron kinetic            :      1546.12128850    
 core electron kinetic       :      1433.77519068    
 Coulomb                     :     -2996.30829189    
 Coulomb potential           :     -2336.79697887    
 nuclear-nuclear             :     -196.611568274    
 electron-nuclear            :     -3262.59646837    
 Hartree                     :      462.899744749    
 Madelung                    :     -1827.90980246    
 xc potential                :     -104.116020936    
 exchange                    :     -77.1984179832    
 correlation                 :     -1.77311987853    
 total energy                :     -1529.15854126    
 
Density of states at Fermi energy :    144.2201808    
 (states/Hartree/unit cell)
 
Estimated indirect band gap :   0.4336110463E-04
 from k-point    144 to k-point    240
Estimated direct band gap   :   0.1657926801E-02
 at k-point    240
 
Charges :
 core                        :    20.00000000    
 valence                     :    22.00000000    
 interstitial                :    3.895320973    
 muffin-tins (core leakage)
  species :    1 (Sc)
   atom    1                 :    19.05233951     (  0.6488955151E-08)
   atom    2                 :    19.05233951     (  0.6488955151E-08)
 total in muffin-tins        :    38.10467903    
 total calculated charge     :    41.99999800    
 total charge                :    42.00000000    
 error                       :   0.2001689808E-05
 
Wrote STATE.OUT
 
RMS change in Kohn-Sham potential (target) :   0.3796284157E-04 (   10.00000000    )
Absolute change in total energy (target)   :   0.2466022124E-06 (  0.1000000000E-07)
 
Time (CPU seconds) :      3138.86
 
+--------------------+
| Loop number :   37 |
+--------------------+
 
Energies :
 Fermi                       :     0.237261958124    
 sum of eigenvalues          :     -894.791711373    
 electron kinetic            :      1546.12128847    
 core electron kinetic       :      1433.77519067    
 Coulomb                     :     -2996.30829191    
 Coulomb potential           :     -2336.79697890    
 nuclear-nuclear             :     -196.611568274    
 electron-nuclear            :     -3262.59646837    
 Hartree                     :      462.899744731    
 Madelung                    :     -1827.90980246    
 xc potential                :     -104.116020937    
 exchange                    :     -77.1984179839    
 correlation                 :     -1.77311987849    
 total energy                :     -1529.15854130    
 
Density of states at Fermi energy :    144.2201813    
 (states/Hartree/unit cell)
 
Estimated indirect band gap :   0.4336130394E-04
 from k-point    144 to k-point    240
Estimated direct band gap   :   0.1657926784E-02
 at k-point    240
 
Charges :
 core                        :    20.00000000    
 valence                     :    22.00000000    
 interstitial                :    3.895320976    
 muffin-tins (core leakage)
  species :    1 (Sc)
   atom    1                 :    19.05233951     (  0.6857883150E-08)
   atom    2                 :    19.05233951     (  0.6857883150E-08)
 total in muffin-tins        :    38.10467902    
 total calculated charge     :    41.99999800    
 total charge                :    42.00000000    
 error                       :   0.2002432780E-05
 
RMS change in Kohn-Sham potential (target) :   0.2672515337E-04 (   10.00000000    )
Absolute change in total energy (target)   :   0.1073442490E-06 (  0.1000000000E-07)
 
Time (CPU seconds) :      3224.65
 
+--------------------+
| Loop number :   38 |
+--------------------+
 
Energies :
 Fermi                       :     0.237261957948    
 sum of eigenvalues          :     -894.791711393    
 electron kinetic            :      1546.12128841    
 core electron kinetic       :      1433.77519066    
 Coulomb                     :     -2996.30829189    
 Coulomb potential           :     -2336.79697886    
 nuclear-nuclear             :     -196.611568274    
 electron-nuclear            :     -3262.59646837    
 Hartree                     :      462.899744753    
 Madelung                    :     -1827.90980246    
 xc potential                :     -104.116020938    
 exchange                    :     -77.1984179833    
 correlation                 :     -1.77311987890    
 total energy                :     -1529.15854134    
 
Density of states at Fermi energy :    144.2201815    
 (states/Hartree/unit cell)
 
Estimated indirect band gap :   0.4336133531E-04
 from k-point    144 to k-point    240
Estimated direct band gap   :   0.1657926780E-02
 at k-point    240
 
Charges :
 core                        :    20.00000000    
 valence                     :    22.00000000    
 interstitial                :    3.895320976    
 muffin-tins (core leakage)
  species :    1 (Sc)
   atom    1                 :    19.05233951     (  0.6493287685E-08)
   atom    2                 :    19.05233951     (  0.6493287685E-08)
 total in muffin-tins        :    38.10467902    
 total calculated charge     :    41.99999800    
 total charge                :    42.00000000    
 error                       :   0.2001692152E-05
 
Wrote STATE.OUT
 
RMS change in Kohn-Sham potential (target) :   0.1526882508E-03 (   10.00000000    )
Absolute change in total energy (target)   :   0.6690515875E-07 (  0.1000000000E-07)
 
Time (CPU seconds) :      3311.46
 
+--------------------+
| Loop number :   39 |
+--------------------+
 
Energies :
 Fermi                       :     0.237261957380    
 sum of eigenvalues          :     -894.791711444    
 electron kinetic            :      1546.12128841    
 core electron kinetic       :      1433.77519065    
 Coulomb                     :     -2996.30829191    
 Coulomb potential           :     -2336.79697891    
 nuclear-nuclear             :     -196.611568274    
 electron-nuclear            :     -3262.59646837    
 Hartree                     :      462.899744727    
 Madelung                    :     -1827.90980246    
 xc potential                :     -104.116020939    
 exchange                    :     -77.1984179849    
 correlation                 :     -1.77311987856    
 total energy                :     -1529.15854137    
 
Density of states at Fermi energy :    144.2201815    
 (states/Hartree/unit cell)
 
Estimated indirect band gap :   0.4336154195E-04
 from k-point    144 to k-point    240
Estimated direct band gap   :   0.1657926770E-02
 at k-point    240
 
Charges :
 core                        :    20.00000000    
 valence                     :    22.00000000    
 interstitial                :    3.895320977    
 muffin-tins (core leakage)
  species :    1 (Sc)
   atom    1                 :    19.05233951     (  0.6537174357E-08)
   atom    2                 :    19.05233951     (  0.6537174357E-08)
 total in muffin-tins        :    38.10467902    
 total calculated charge     :    41.99999800    
 total charge                :    42.00000000    
 error                       :   0.2001822516E-05
 
RMS change in Kohn-Sham potential (target) :   0.4678602729E-05 (   10.00000000    )
Absolute change in total energy (target)   :   0.4242792784E-07 (  0.1000000000E-07)
 
Time (CPU seconds) :      3399.23
 
+--------------------+
| Loop number :   40 |
+--------------------+
 
Energies :
 Fermi                       :     0.237261957550    
 sum of eigenvalues          :     -894.791711423    
 electron kinetic            :      1546.12128841    
 core electron kinetic       :      1433.77519066    
 Coulomb                     :     -2996.30829190    
 Coulomb potential           :     -2336.79697889    
 nuclear-nuclear             :     -196.611568274    
 electron-nuclear            :     -3262.59646837    
 Hartree                     :      462.899744738    
 Madelung                    :     -1827.90980246    
 xc potential                :     -104.116020939    
 exchange                    :     -77.1984179844    
 correlation                 :     -1.77311987871    
 total energy                :     -1529.15854136    
 
Density of states at Fermi energy :    144.2201816    
 (states/Hartree/unit cell)
 
Estimated indirect band gap :   0.4336140422E-04
 from k-point    144 to k-point    240
Estimated direct band gap   :   0.1657926775E-02
 at k-point    240
 
Charges :
 core                        :    20.00000000    
 valence                     :    22.00000000    
 interstitial                :    3.895320977    
 muffin-tins (core leakage)
  species :    1 (Sc)
   atom    1                 :    19.05233951     (  0.6500240346E-08)
   atom    2                 :    19.05233951     (  0.6500240346E-08)
 total in muffin-tins        :    38.10467902    
 total calculated charge     :    41.99999800    
 total charge                :    42.00000000    
 error                       :   0.2001745990E-05
 
Wrote STATE.OUT
 
RMS change in Kohn-Sham potential (target) :   0.3043777772E-04 (   10.00000000    )
Absolute change in total energy (target)   :   0.8603819879E-09 (  0.1000000000E-07)
 
Convergence targets achieved
 
Time (CPU seconds) :      3488.49
 
+--------------------+
| Loop number :   41 |
+--------------------+
 
Energies :
 Fermi                       :     0.237261957395    
 sum of eigenvalues          :     -894.791711438    
 electron kinetic            :      1546.12128837    
 core electron kinetic       :      1433.77519062    
 Coulomb                     :     -2996.30829189    
 Coulomb potential           :     -2336.79697887    
 nuclear-nuclear             :     -196.611568274    
 electron-nuclear            :     -3262.59646837    
 Hartree                     :      462.899744747    
 Madelung                    :     -1827.90980246    
 xc potential                :     -104.116020938    
 exchange                    :     -77.1984179837    
 correlation                 :     -1.77311987891    
 total energy                :     -1529.15854138    
 
Density of states at Fermi energy :    144.2201818    
 (states/Hartree/unit cell)
 
Estimated indirect band gap :   0.4336143671E-04
 from k-point    144 to k-point    240
Estimated direct band gap   :   0.1657926771E-02
 at k-point    240
 
Charges :
 core                        :    20.00000000    
 valence                     :    22.00000000    
 interstitial                :    3.895320978    
 muffin-tins (core leakage)
  species :    1 (Sc)
   atom    1                 :    19.05233951     (  0.6521807094E-08)
   atom    2                 :    19.05233951     (  0.6521807094E-08)
 total in muffin-tins        :    38.10467902    
 total calculated charge     :    41.99999800    
 total charge                :    42.00000000    
 error                       :   0.2001718251E-05
 
+------------------------------+
| Self-consistent loop stopped |
+------------------------------+
 
Wrote STATE.OUT
 
Timings (CPU seconds) :
 initialisation                        :         1.27
 Hamiltonian and overlap matrix set up :      1200.32
 first-variational eigenvalue equation :      1435.57
 charge density calculation            :       303.70
 potential calculation                 :       632.91
 total                                 :      3573.78
 
+----------------------------+
| Elk version 8.3.15 stopped |
+----------------------------+
