   4.802857009    
   14.86036051    
   111.8158664    
   107.4565912    
   60.48759085    
   28.66520395    
   6.944436496    
   1.732713298    
  0.4179004472    
  0.9790363616E-01
  0.2693779438E-01
  0.6351446063E-02
  0.2241058202E-02
  0.5377402267E-03
  0.2740423370E-03
  0.1480194624E-04
  0.1724196045E-03
  0.6246395060E-05
  0.2433948248E-04
  0.5790941941E-05
  0.8873401384E-05
  0.2623891487E-04
  0.2948196197E-04
  0.6956375728E-05
  0.6914233381E-05
  0.3789973562E-06
  0.6798101822E-05
  0.1635256922E-04
  0.3523760824E-05
  0.7475318853E-07
  0.1785345376E-05
  0.1158136001E-05
  0.2156419214E-05
  0.3890745575E-06
  0.6586051313E-06
  0.1103398972E-06
  0.1018706826E-06
  0.3258683137E-06
  0.2691740519E-06
  0.5044130376E-06
  0.8004280971E-07
  0.2481610863E-06
  0.4014436854E-06
  0.1764201443E-06
  0.2072556526E-06
  0.2659071470E-06
  0.1689913915E-06
  0.1956068445E-06
  0.4238536349E-06
  0.2509113983E-06
  0.1199368853E-06
  0.3835375537E-06
  0.6608315744E-06
  0.8333881851E-07
  0.1126172720E-06
  0.2581509762E-07
  0.2021915861E-06
  0.3156601451E-06
  0.2015949576E-06
  0.1805165084E-07
  0.1247972250E-06
  0.1851003617E-07
  0.2616725396E-06
  0.4520843504E-06
  0.2382803359E-06
  0.1532243914E-06
  0.3581226338E-06
  0.4063258530E-06
  0.3111344995E-06
  0.4580360837E-06
  0.7868220564E-07
  0.1514563337E-06
  0.3152599675E-06
  0.2770393621E-06
  0.1814623829E-07
  0.4007597454E-07
  0.2228625817E-06
  0.2656597644E-06
  0.2742744982E-06
  0.4987668945E-07
  0.2255183063E-06
  0.2988235792E-07
  0.1015068847E-06
  0.4143366823E-06
  0.3601744538E-06
  0.6952905096E-07
  0.1426669769E-06
  0.1680600690E-06
  0.2015731297E-06
  0.4132889444E-06
  0.5501569831E-06
  0.3283639671E-06
  0.2186716301E-06
  0.3228342393E-06
  0.2790911822E-06
  0.2929955372E-06
  0.4294270184E-07
  0.8138886187E-07
  0.2606393537E-06
  0.2230808605E-06
  0.4885150702E-06
  0.4126850399E-06
  0.2291126293E-06
  0.2959277481E-06
  0.2669403329E-06
  0.2156593837E-07
  0.2897140803E-06
  0.3600434866E-06
  0.4256435204E-06
  0.4942412488E-06
  0.3036402632E-06
  0.1660155249E-06
  0.2919041435E-06
  0.2790256985E-06
  0.2663509804E-06
  0.3379755071E-06
  0.2254673745E-06
  0.2945816959E-06
  0.5007314030E-07
  0.9010545909E-07
  0.4890171112E-06
  0.2945671440E-06
  0.1317821443E-06
  0.1379739842E-06
  0.3831519280E-07
  0.1422304194E-06
  0.4206958693E-07
  0.2677552402E-08
