  0.2280760393E-02
  0.4291995774E-01
  0.4874858569E-01
  0.2604939523E-01
  0.1082939690E-01
  0.3541408067E-02
  0.6424944622E-03
  0.2199666269E-03
  0.5721445632E-04
  0.4636891936E-04
  0.2804743053E-04
  0.2329459676E-04
  0.1271479596E-04
  0.1953521860E-06
  0.2108581612E-05
  0.6131222108E-05
  0.4306328265E-05
  0.5035501090E-05
  0.4443523721E-05
  0.1424323273E-06
  0.2033719284E-05
  0.1183352651E-05
  0.2993419912E-06
  0.3422665031E-06
  0.2119322744E-06
  0.1018233888E-06
  0.4737012205E-07
  0.1333000910E-05
  0.1820171747E-05
  0.1782373147E-06
  0.1726002665E-06
  0.1954176696E-06
  0.1466498361E-05
  0.1031723514E-05
  0.1617208909E-06
  0.1002990757E-07
  0.7566995919E-08
