   297 : nkpt; k-point, vkl, wkpt, nmat below
     1   0.000000000       0.000000000       0.000000000      0.2035416243E-03     503
     2  0.5882352941E-01   0.000000000       0.000000000      0.1221249746E-02     516
     3  0.1176470588       0.000000000       0.000000000      0.1221249746E-02     522
     4  0.1764705882       0.000000000       0.000000000      0.1221249746E-02     524
     5  0.2352941176       0.000000000       0.000000000      0.1221249746E-02     520
     6  0.2941176471       0.000000000       0.000000000      0.1221249746E-02     518
     7  0.3529411765       0.000000000       0.000000000      0.1221249746E-02     520
     8  0.4117647059       0.000000000       0.000000000      0.1221249746E-02     522
     9  0.4705882353       0.000000000       0.000000000      0.1221249746E-02     512
    10  0.5882352941E-01  0.5882352941E-01   0.000000000      0.1221249746E-02     519
    11  0.1176470588      0.5882352941E-01   0.000000000      0.2442499491E-02     525
    12  0.1764705882      0.5882352941E-01   0.000000000      0.2442499491E-02     524
    13  0.2352941176      0.5882352941E-01   0.000000000      0.2442499491E-02     516
    14  0.2941176471      0.5882352941E-01   0.000000000      0.2442499491E-02     514
    15  0.3529411765      0.5882352941E-01   0.000000000      0.2442499491E-02     516
    16  0.4117647059      0.5882352941E-01   0.000000000      0.2442499491E-02     514
    17  0.4705882353      0.5882352941E-01   0.000000000      0.1221249746E-02     514
    18  0.1176470588      0.1176470588       0.000000000      0.1221249746E-02     527
    19  0.1764705882      0.1176470588       0.000000000      0.2442499491E-02     525
    20  0.2352941176      0.1176470588       0.000000000      0.2442499491E-02     520
    21  0.2941176471      0.1176470588       0.000000000      0.2442499491E-02     516
    22  0.3529411765      0.1176470588       0.000000000      0.2442499491E-02     511
    23  0.4117647059      0.1176470588       0.000000000      0.2442499491E-02     512
    24  0.1764705882      0.1764705882       0.000000000      0.1221249746E-02     519
    25  0.2352941176      0.1764705882       0.000000000      0.2442499491E-02     514
    26  0.2941176471      0.1764705882       0.000000000      0.2442499491E-02     519
    27  0.3529411765      0.1764705882       0.000000000      0.2442499491E-02     515
    28  0.4117647059      0.1764705882       0.000000000      0.1221249746E-02     518
    29  0.2352941176      0.2352941176       0.000000000      0.1221249746E-02     517
    30  0.2941176471      0.2352941176       0.000000000      0.2442499491E-02     521
    31  0.3529411765      0.2352941176       0.000000000      0.2442499491E-02     520
    32  0.2941176471      0.2941176471       0.000000000      0.1221249746E-02     518
    33  0.3529411765      0.2941176471       0.000000000      0.1221249746E-02     514
    34   0.000000000       0.000000000      0.5882352941E-01  0.4070832485E-03     522
    35  0.5882352941E-01   0.000000000      0.5882352941E-01  0.2442499491E-02     521
    36  0.1176470588       0.000000000      0.5882352941E-01  0.2442499491E-02     519
    37  0.1764705882       0.000000000      0.5882352941E-01  0.2442499491E-02     523
    38  0.2352941176       0.000000000      0.5882352941E-01  0.2442499491E-02     523
    39  0.2941176471       0.000000000      0.5882352941E-01  0.2442499491E-02     520
    40  0.3529411765       0.000000000      0.5882352941E-01  0.2442499491E-02     521
    41  0.4117647059       0.000000000      0.5882352941E-01  0.2442499491E-02     520
    42  0.4705882353       0.000000000      0.5882352941E-01  0.2442499491E-02     514
    43  0.5882352941E-01  0.5882352941E-01  0.5882352941E-01  0.2442499491E-02     521
    44  0.1176470588      0.5882352941E-01  0.5882352941E-01  0.4884998982E-02     525
    45  0.1764705882      0.5882352941E-01  0.5882352941E-01  0.4884998982E-02     525
    46  0.2352941176      0.5882352941E-01  0.5882352941E-01  0.4884998982E-02     519
    47  0.2941176471      0.5882352941E-01  0.5882352941E-01  0.4884998982E-02     518
    48  0.3529411765      0.5882352941E-01  0.5882352941E-01  0.4884998982E-02     516
    49  0.4117647059      0.5882352941E-01  0.5882352941E-01  0.4884998982E-02     513
    50  0.4705882353      0.5882352941E-01  0.5882352941E-01  0.2442499491E-02     512
    51  0.1176470588      0.1176470588      0.5882352941E-01  0.2442499491E-02     526
    52  0.1764705882      0.1176470588      0.5882352941E-01  0.4884998982E-02     524
    53  0.2352941176      0.1176470588      0.5882352941E-01  0.4884998982E-02     519
    54  0.2941176471      0.1176470588      0.5882352941E-01  0.4884998982E-02     517
    55  0.3529411765      0.1176470588      0.5882352941E-01  0.4884998982E-02     513
    56  0.4117647059      0.1176470588      0.5882352941E-01  0.4884998982E-02     514
    57  0.1764705882      0.1764705882      0.5882352941E-01  0.2442499491E-02     520
    58  0.2352941176      0.1764705882      0.5882352941E-01  0.4884998982E-02     519
    59  0.2941176471      0.1764705882      0.5882352941E-01  0.4884998982E-02     517
    60  0.3529411765      0.1764705882      0.5882352941E-01  0.4884998982E-02     514
    61  0.4117647059      0.1764705882      0.5882352941E-01  0.2442499491E-02     516
    62  0.2352941176      0.2352941176      0.5882352941E-01  0.2442499491E-02     513
    63  0.2941176471      0.2352941176      0.5882352941E-01  0.4884998982E-02     518
    64  0.3529411765      0.2352941176      0.5882352941E-01  0.4884998982E-02     519
    65  0.2941176471      0.2941176471      0.5882352941E-01  0.2442499491E-02     517
    66  0.3529411765      0.2941176471      0.5882352941E-01  0.2442499491E-02     514
    67   0.000000000       0.000000000      0.1176470588      0.4070832485E-03     528
    68  0.5882352941E-01   0.000000000      0.1176470588      0.2442499491E-02     523
    69  0.1176470588       0.000000000      0.1176470588      0.2442499491E-02     522
    70  0.1764705882       0.000000000      0.1176470588      0.2442499491E-02     523
    71  0.2352941176       0.000000000      0.1176470588      0.2442499491E-02     522
    72  0.2941176471       0.000000000      0.1176470588      0.2442499491E-02     521
    73  0.3529411765       0.000000000      0.1176470588      0.2442499491E-02     521
    74  0.4117647059       0.000000000      0.1176470588      0.2442499491E-02     516
    75  0.4705882353       0.000000000      0.1176470588      0.2442499491E-02     516
    76  0.5882352941E-01  0.5882352941E-01  0.1176470588      0.2442499491E-02     521
    77  0.1176470588      0.5882352941E-01  0.1176470588      0.4884998982E-02     525
    78  0.1764705882      0.5882352941E-01  0.1176470588      0.4884998982E-02     524
    79  0.2352941176      0.5882352941E-01  0.1176470588      0.4884998982E-02     524
    80  0.2941176471      0.5882352941E-01  0.1176470588      0.4884998982E-02     518
    81  0.3529411765      0.5882352941E-01  0.1176470588      0.4884998982E-02     518
    82  0.4117647059      0.5882352941E-01  0.1176470588      0.4884998982E-02     516
    83  0.4705882353      0.5882352941E-01  0.1176470588      0.2442499491E-02     517
    84  0.1176470588      0.1176470588      0.1176470588      0.2442499491E-02     526
    85  0.1764705882      0.1176470588      0.1176470588      0.4884998982E-02     520
    86  0.2352941176      0.1176470588      0.1176470588      0.4884998982E-02     520
    87  0.2941176471      0.1176470588      0.1176470588      0.4884998982E-02     519
    88  0.3529411765      0.1176470588      0.1176470588      0.4884998982E-02     515
    89  0.4117647059      0.1176470588      0.1176470588      0.4884998982E-02     515
    90  0.1764705882      0.1764705882      0.1176470588      0.2442499491E-02     520
    91  0.2352941176      0.1764705882      0.1176470588      0.4884998982E-02     519
    92  0.2941176471      0.1764705882      0.1176470588      0.4884998982E-02     514
    93  0.3529411765      0.1764705882      0.1176470588      0.4884998982E-02     517
    94  0.4117647059      0.1764705882      0.1176470588      0.2442499491E-02     518
    95  0.2352941176      0.2352941176      0.1176470588      0.2442499491E-02     516
    96  0.2941176471      0.2352941176      0.1176470588      0.4884998982E-02     518
    97  0.3529411765      0.2352941176      0.1176470588      0.4884998982E-02     519
    98  0.2941176471      0.2941176471      0.1176470588      0.2442499491E-02     518
    99  0.3529411765      0.2941176471      0.1176470588      0.2442499491E-02     517
   100   0.000000000       0.000000000      0.1764705882      0.4070832485E-03     528
   101  0.5882352941E-01   0.000000000      0.1764705882      0.2442499491E-02     523
   102  0.1176470588       0.000000000      0.1764705882      0.2442499491E-02     524
   103  0.1764705882       0.000000000      0.1764705882      0.2442499491E-02     523
   104  0.2352941176       0.000000000      0.1764705882      0.2442499491E-02     523
   105  0.2941176471       0.000000000      0.1764705882      0.2442499491E-02     522
   106  0.3529411765       0.000000000      0.1764705882      0.2442499491E-02     518
   107  0.4117647059       0.000000000      0.1764705882      0.2442499491E-02     518
   108  0.4705882353       0.000000000      0.1764705882      0.2442499491E-02     516
   109  0.5882352941E-01  0.5882352941E-01  0.1764705882      0.2442499491E-02     523
   110  0.1176470588      0.5882352941E-01  0.1764705882      0.4884998982E-02     526
   111  0.1764705882      0.5882352941E-01  0.1764705882      0.4884998982E-02     525
   112  0.2352941176      0.5882352941E-01  0.1764705882      0.4884998982E-02     523
   113  0.2941176471      0.5882352941E-01  0.1764705882      0.4884998982E-02     523
   114  0.3529411765      0.5882352941E-01  0.1764705882      0.4884998982E-02     521
   115  0.4117647059      0.5882352941E-01  0.1764705882      0.4884998982E-02     516
   116  0.4705882353      0.5882352941E-01  0.1764705882      0.2442499491E-02     517
   117  0.1176470588      0.1176470588      0.1764705882      0.2442499491E-02     524
   118  0.1764705882      0.1176470588      0.1764705882      0.4884998982E-02     521
   119  0.2352941176      0.1176470588      0.1764705882      0.4884998982E-02     521
   120  0.2941176471      0.1176470588      0.1764705882      0.4884998982E-02     520
   121  0.3529411765      0.1176470588      0.1764705882      0.4884998982E-02     516
   122  0.4117647059      0.1176470588      0.1764705882      0.4884998982E-02     515
   123  0.1764705882      0.1764705882      0.1764705882      0.2442499491E-02     520
   124  0.2352941176      0.1764705882      0.1764705882      0.4884998982E-02     520
   125  0.2941176471      0.1764705882      0.1764705882      0.4884998982E-02     517
   126  0.3529411765      0.1764705882      0.1764705882      0.4884998982E-02     516
   127  0.4117647059      0.1764705882      0.1764705882      0.2442499491E-02     518
   128  0.2352941176      0.2352941176      0.1764705882      0.2442499491E-02     516
   129  0.2941176471      0.2352941176      0.1764705882      0.4884998982E-02     516
   130  0.3529411765      0.2352941176      0.1764705882      0.4884998982E-02     517
   131  0.2941176471      0.2941176471      0.1764705882      0.2442499491E-02     516
   132  0.3529411765      0.2941176471      0.1764705882      0.2442499491E-02     516
   133   0.000000000       0.000000000      0.2352941176      0.4070832485E-03     528
   134  0.5882352941E-01   0.000000000      0.2352941176      0.2442499491E-02     525
   135  0.1176470588       0.000000000      0.2352941176      0.2442499491E-02     526
   136  0.1764705882       0.000000000      0.2352941176      0.2442499491E-02     525
   137  0.2352941176       0.000000000      0.2352941176      0.2442499491E-02     522
   138  0.2941176471       0.000000000      0.2352941176      0.2442499491E-02     518
   139  0.3529411765       0.000000000      0.2352941176      0.2442499491E-02     519
   140  0.4117647059       0.000000000      0.2352941176      0.2442499491E-02     522
   141  0.4705882353       0.000000000      0.2352941176      0.2442499491E-02     515
   142  0.5882352941E-01  0.5882352941E-01  0.2352941176      0.2442499491E-02     524
   143  0.1176470588      0.5882352941E-01  0.2352941176      0.4884998982E-02     525
   144  0.1764705882      0.5882352941E-01  0.2352941176      0.4884998982E-02     522
   145  0.2352941176      0.5882352941E-01  0.2352941176      0.4884998982E-02     523
   146  0.2941176471      0.5882352941E-01  0.2352941176      0.4884998982E-02     526
   147  0.3529411765      0.5882352941E-01  0.2352941176      0.4884998982E-02     522
   148  0.4117647059      0.5882352941E-01  0.2352941176      0.4884998982E-02     517
   149  0.4705882353      0.5882352941E-01  0.2352941176      0.2442499491E-02     514
   150  0.1176470588      0.1176470588      0.2352941176      0.2442499491E-02     523
   151  0.1764705882      0.1176470588      0.2352941176      0.4884998982E-02     523
   152  0.2352941176      0.1176470588      0.2352941176      0.4884998982E-02     525
   153  0.2941176471      0.1176470588      0.2352941176      0.4884998982E-02     522
   154  0.3529411765      0.1176470588      0.2352941176      0.4884998982E-02     516
   155  0.4117647059      0.1176470588      0.2352941176      0.4884998982E-02     516
   156  0.1764705882      0.1764705882      0.2352941176      0.2442499491E-02     522
   157  0.2352941176      0.1764705882      0.2352941176      0.4884998982E-02     521
   158  0.2941176471      0.1764705882      0.2352941176      0.4884998982E-02     519
   159  0.3529411765      0.1764705882      0.2352941176      0.4884998982E-02     515
   160  0.4117647059      0.1764705882      0.2352941176      0.2442499491E-02     515
   161  0.2352941176      0.2352941176      0.2352941176      0.2442499491E-02     518
   162  0.2941176471      0.2352941176      0.2352941176      0.4884998982E-02     515
   163  0.3529411765      0.2352941176      0.2352941176      0.4884998982E-02     515
   164  0.2941176471      0.2941176471      0.2352941176      0.2442499491E-02     516
   165  0.3529411765      0.2941176471      0.2352941176      0.2442499491E-02     515
   166   0.000000000       0.000000000      0.2941176471      0.4070832485E-03     528
   167  0.5882352941E-01   0.000000000      0.2941176471      0.2442499491E-02     525
   168  0.1176470588       0.000000000      0.2941176471      0.2442499491E-02     525
   169  0.1764705882       0.000000000      0.2941176471      0.2442499491E-02     525
   170  0.2352941176       0.000000000      0.2941176471      0.2442499491E-02     524
   171  0.2941176471       0.000000000      0.2941176471      0.2442499491E-02     525
   172  0.3529411765       0.000000000      0.2941176471      0.2442499491E-02     521
   173  0.4117647059       0.000000000      0.2941176471      0.2442499491E-02     518
   174  0.4705882353       0.000000000      0.2941176471      0.2442499491E-02     518
   175  0.5882352941E-01  0.5882352941E-01  0.2941176471      0.2442499491E-02     526
   176  0.1176470588      0.5882352941E-01  0.2941176471      0.4884998982E-02     525
   177  0.1764705882      0.5882352941E-01  0.2941176471      0.4884998982E-02     524
   178  0.2352941176      0.5882352941E-01  0.2941176471      0.4884998982E-02     524
   179  0.2941176471      0.5882352941E-01  0.2941176471      0.4884998982E-02     524
   180  0.3529411765      0.5882352941E-01  0.2941176471      0.4884998982E-02     522
   181  0.4117647059      0.5882352941E-01  0.2941176471      0.4884998982E-02     516
   182  0.4705882353      0.5882352941E-01  0.2941176471      0.2442499491E-02     516
   183  0.1176470588      0.1176470588      0.2941176471      0.2442499491E-02     525
   184  0.1764705882      0.1176470588      0.2941176471      0.4884998982E-02     523
   185  0.2352941176      0.1176470588      0.2941176471      0.4884998982E-02     525
   186  0.2941176471      0.1176470588      0.2941176471      0.4884998982E-02     524
   187  0.3529411765      0.1176470588      0.2941176471      0.4884998982E-02     518
   188  0.4117647059      0.1176470588      0.2941176471      0.4884998982E-02     518
   189  0.1764705882      0.1764705882      0.2941176471      0.2442499491E-02     523
   190  0.2352941176      0.1764705882      0.2941176471      0.4884998982E-02     521
   191  0.2941176471      0.1764705882      0.2941176471      0.4884998982E-02     516
   192  0.3529411765      0.1764705882      0.2941176471      0.4884998982E-02     515
   193  0.4117647059      0.1764705882      0.2941176471      0.2442499491E-02     511
   194  0.2352941176      0.2352941176      0.2941176471      0.2442499491E-02     515
   195  0.2941176471      0.2352941176      0.2941176471      0.4884998982E-02     514
   196  0.3529411765      0.2352941176      0.2941176471      0.4884998982E-02     512
   197  0.2941176471      0.2941176471      0.2941176471      0.2442499491E-02     512
   198  0.3529411765      0.2941176471      0.2941176471      0.2442499491E-02     513
   199   0.000000000       0.000000000      0.3529411765      0.4070832485E-03     534
   200  0.5882352941E-01   0.000000000      0.3529411765      0.2442499491E-02     528
   201  0.1176470588       0.000000000      0.3529411765      0.2442499491E-02     525
   202  0.1764705882       0.000000000      0.3529411765      0.2442499491E-02     529
   203  0.2352941176       0.000000000      0.3529411765      0.2442499491E-02     526
   204  0.2941176471       0.000000000      0.3529411765      0.2442499491E-02     527
   205  0.3529411765       0.000000000      0.3529411765      0.2442499491E-02     525
   206  0.4117647059       0.000000000      0.3529411765      0.2442499491E-02     514
   207  0.4705882353       0.000000000      0.3529411765      0.2442499491E-02     517
   208  0.5882352941E-01  0.5882352941E-01  0.3529411765      0.2442499491E-02     530
   209  0.1176470588      0.5882352941E-01  0.3529411765      0.4884998982E-02     528
   210  0.1764705882      0.5882352941E-01  0.3529411765      0.4884998982E-02     525
   211  0.2352941176      0.5882352941E-01  0.3529411765      0.4884998982E-02     525
   212  0.2941176471      0.5882352941E-01  0.3529411765      0.4884998982E-02     525
   213  0.3529411765      0.5882352941E-01  0.3529411765      0.4884998982E-02     522
   214  0.4117647059      0.5882352941E-01  0.3529411765      0.4884998982E-02     514
   215  0.4705882353      0.5882352941E-01  0.3529411765      0.2442499491E-02     516
   216  0.1176470588      0.1176470588      0.3529411765      0.2442499491E-02     527
   217  0.1764705882      0.1176470588      0.3529411765      0.4884998982E-02     526
   218  0.2352941176      0.1176470588      0.3529411765      0.4884998982E-02     527
   219  0.2941176471      0.1176470588      0.3529411765      0.4884998982E-02     522
   220  0.3529411765      0.1176470588      0.3529411765      0.4884998982E-02     519
   221  0.4117647059      0.1176470588      0.3529411765      0.4884998982E-02     517
   222  0.1764705882      0.1764705882      0.3529411765      0.2442499491E-02     525
   223  0.2352941176      0.1764705882      0.3529411765      0.4884998982E-02     521
   224  0.2941176471      0.1764705882      0.3529411765      0.4884998982E-02     514
   225  0.3529411765      0.1764705882      0.3529411765      0.4884998982E-02     514
   226  0.4117647059      0.1764705882      0.3529411765      0.2442499491E-02     513
   227  0.2352941176      0.2352941176      0.3529411765      0.2442499491E-02     513
   228  0.2941176471      0.2352941176      0.3529411765      0.4884998982E-02     514
   229  0.3529411765      0.2352941176      0.3529411765      0.4884998982E-02     510
   230  0.2941176471      0.2941176471      0.3529411765      0.2442499491E-02     510
   231  0.3529411765      0.2941176471      0.3529411765      0.2442499491E-02     509
   232   0.000000000       0.000000000      0.4117647059      0.4070832485E-03     534
   233  0.5882352941E-01   0.000000000      0.4117647059      0.2442499491E-02     531
   234  0.1176470588       0.000000000      0.4117647059      0.2442499491E-02     529
   235  0.1764705882       0.000000000      0.4117647059      0.2442499491E-02     527
   236  0.2352941176       0.000000000      0.4117647059      0.2442499491E-02     530
   237  0.2941176471       0.000000000      0.4117647059      0.2442499491E-02     531
   238  0.3529411765       0.000000000      0.4117647059      0.2442499491E-02     526
   239  0.4117647059       0.000000000      0.4117647059      0.2442499491E-02     514
   240  0.4705882353       0.000000000      0.4117647059      0.2442499491E-02     513
   241  0.5882352941E-01  0.5882352941E-01  0.4117647059      0.2442499491E-02     532
   242  0.1176470588      0.5882352941E-01  0.4117647059      0.4884998982E-02     526
   243  0.1764705882      0.5882352941E-01  0.4117647059      0.4884998982E-02     527
   244  0.2352941176      0.5882352941E-01  0.4117647059      0.4884998982E-02     530
   245  0.2941176471      0.5882352941E-01  0.4117647059      0.4884998982E-02     525
   246  0.3529411765      0.5882352941E-01  0.4117647059      0.4884998982E-02     522
   247  0.4117647059      0.5882352941E-01  0.4117647059      0.4884998982E-02     513
   248  0.4705882353      0.5882352941E-01  0.4117647059      0.2442499491E-02     514
   249  0.1176470588      0.1176470588      0.4117647059      0.2442499491E-02     526
   250  0.1764705882      0.1176470588      0.4117647059      0.4884998982E-02     526
   251  0.2352941176      0.1176470588      0.4117647059      0.4884998982E-02     523
   252  0.2941176471      0.1176470588      0.4117647059      0.4884998982E-02     521
   253  0.3529411765      0.1176470588      0.4117647059      0.4884998982E-02     519
   254  0.4117647059      0.1176470588      0.4117647059      0.4884998982E-02     516
   255  0.1764705882      0.1764705882      0.4117647059      0.2442499491E-02     529
   256  0.2352941176      0.1764705882      0.4117647059      0.4884998982E-02     520
   257  0.2941176471      0.1764705882      0.4117647059      0.4884998982E-02     514
   258  0.3529411765      0.1764705882      0.4117647059      0.4884998982E-02     515
   259  0.4117647059      0.1764705882      0.4117647059      0.2442499491E-02     514
   260  0.2352941176      0.2352941176      0.4117647059      0.2442499491E-02     516
   261  0.2941176471      0.2352941176      0.4117647059      0.4884998982E-02     514
   262  0.3529411765      0.2352941176      0.4117647059      0.4884998982E-02     510
   263  0.2941176471      0.2941176471      0.4117647059      0.2442499491E-02     508
   264  0.3529411765      0.2941176471      0.4117647059      0.2442499491E-02     509
   265   0.000000000       0.000000000      0.4705882353      0.4070832485E-03     534
   266  0.5882352941E-01   0.000000000      0.4705882353      0.2442499491E-02     531
   267  0.1176470588       0.000000000      0.4705882353      0.2442499491E-02     530
   268  0.1764705882       0.000000000      0.4705882353      0.2442499491E-02     525
   269  0.2352941176       0.000000000      0.4705882353      0.2442499491E-02     532
   270  0.2941176471       0.000000000      0.4705882353      0.2442499491E-02     530
   271  0.3529411765       0.000000000      0.4705882353      0.2442499491E-02     524
   272  0.4117647059       0.000000000      0.4705882353      0.2442499491E-02     514
   273  0.4705882353       0.000000000      0.4705882353      0.2442499491E-02     509
   274  0.5882352941E-01  0.5882352941E-01  0.4705882353      0.2442499491E-02     534
   275  0.1176470588      0.5882352941E-01  0.4705882353      0.4884998982E-02     526
   276  0.1764705882      0.5882352941E-01  0.4705882353      0.4884998982E-02     527
   277  0.2352941176      0.5882352941E-01  0.4705882353      0.4884998982E-02     530
   278  0.2941176471      0.5882352941E-01  0.4705882353      0.4884998982E-02     526
   279  0.3529411765      0.5882352941E-01  0.4705882353      0.4884998982E-02     519
   280  0.4117647059      0.5882352941E-01  0.4705882353      0.4884998982E-02     513
   281  0.4705882353      0.5882352941E-01  0.4705882353      0.2442499491E-02     512
   282  0.1176470588      0.1176470588      0.4705882353      0.2442499491E-02     528
   283  0.1764705882      0.1176470588      0.4705882353      0.4884998982E-02     526
   284  0.2352941176      0.1176470588      0.4705882353      0.4884998982E-02     522
   285  0.2941176471      0.1176470588      0.4705882353      0.4884998982E-02     522
   286  0.3529411765      0.1176470588      0.4705882353      0.4884998982E-02     518
   287  0.4117647059      0.1176470588      0.4705882353      0.4884998982E-02     514
   288  0.1764705882      0.1764705882      0.4705882353      0.2442499491E-02     526
   289  0.2352941176      0.1764705882      0.4705882353      0.4884998982E-02     522
   290  0.2941176471      0.1764705882      0.4705882353      0.4884998982E-02     517
   291  0.3529411765      0.1764705882      0.4705882353      0.4884998982E-02     519
   292  0.4117647059      0.1764705882      0.4705882353      0.2442499491E-02     516
   293  0.2352941176      0.2352941176      0.4705882353      0.2442499491E-02     518
   294  0.2941176471      0.2352941176      0.4705882353      0.4884998982E-02     515
   295  0.3529411765      0.2352941176      0.4705882353      0.4884998982E-02     509
   296  0.2941176471      0.2941176471      0.4705882353      0.2442499491E-02     509
   297  0.3529411765      0.2941176471      0.4705882353      0.2442499491E-02     506
