   165 : nkpt; k-point, vkl, wkpt, nmat below
     1   0.000000000       0.000000000       0.000000000      0.2035416243E-03     267
     2  0.5882352941E-01   0.000000000       0.000000000      0.2442499491E-02     265
     3  0.1176470588       0.000000000       0.000000000      0.2442499491E-02     265
     4  0.1764705882       0.000000000       0.000000000      0.2442499491E-02     270
     5  0.2352941176       0.000000000       0.000000000      0.2442499491E-02     266
     6  0.2941176471       0.000000000       0.000000000      0.2442499491E-02     262
     7  0.3529411765       0.000000000       0.000000000      0.2442499491E-02     268
     8  0.4117647059       0.000000000       0.000000000      0.2442499491E-02     266
     9  0.4705882353       0.000000000       0.000000000      0.2442499491E-02     266
    10  0.5882352941E-01  0.5882352941E-01   0.000000000      0.4884998982E-02     264
    11  0.1176470588      0.5882352941E-01   0.000000000      0.9769997965E-02     266
    12  0.1764705882      0.5882352941E-01   0.000000000      0.9769997965E-02     270
    13  0.2352941176      0.5882352941E-01   0.000000000      0.9769997965E-02     265
    14  0.2941176471      0.5882352941E-01   0.000000000      0.9769997965E-02     264
    15  0.3529411765      0.5882352941E-01   0.000000000      0.9769997965E-02     268
    16  0.4117647059      0.5882352941E-01   0.000000000      0.9769997965E-02     267
    17  0.4705882353      0.5882352941E-01   0.000000000      0.4884998982E-02     266
    18  0.1176470588      0.1176470588       0.000000000      0.4884998982E-02     269
    19  0.1764705882      0.1176470588       0.000000000      0.9769997965E-02     266
    20  0.2352941176      0.1176470588       0.000000000      0.9769997965E-02     266
    21  0.2941176471      0.1176470588       0.000000000      0.9769997965E-02     265
    22  0.3529411765      0.1176470588       0.000000000      0.9769997965E-02     268
    23  0.4117647059      0.1176470588       0.000000000      0.9769997965E-02     262
    24  0.1764705882      0.1764705882       0.000000000      0.4884998982E-02     265
    25  0.2352941176      0.1764705882       0.000000000      0.9769997965E-02     265
    26  0.2941176471      0.1764705882       0.000000000      0.9769997965E-02     264
    27  0.3529411765      0.1764705882       0.000000000      0.9769997965E-02     265
    28  0.4117647059      0.1764705882       0.000000000      0.4884998982E-02     264
    29  0.2352941176      0.2352941176       0.000000000      0.4884998982E-02     265
    30  0.2941176471      0.2352941176       0.000000000      0.9769997965E-02     265
    31  0.3529411765      0.2352941176       0.000000000      0.9769997965E-02     265
    32  0.2941176471      0.2941176471       0.000000000      0.4884998982E-02     268
    33  0.3529411765      0.2941176471       0.000000000      0.4884998982E-02     264
    34  0.5882352941E-01  0.5882352941E-01  0.5882352941E-01  0.1628332994E-02     264
    35  0.1176470588      0.5882352941E-01  0.5882352941E-01  0.4884998982E-02     269
    36  0.1764705882      0.5882352941E-01  0.5882352941E-01  0.4884998982E-02     268
    37  0.2352941176      0.5882352941E-01  0.5882352941E-01  0.4884998982E-02     266
    38  0.2941176471      0.5882352941E-01  0.5882352941E-01  0.4884998982E-02     266
    39  0.3529411765      0.5882352941E-01  0.5882352941E-01  0.4884998982E-02     266
    40  0.4117647059      0.5882352941E-01  0.5882352941E-01  0.4884998982E-02     265
    41  0.9411764706      0.5882352941E-01  0.5882352941E-01  0.1221249746E-02     266
    42  0.1176470588      0.1176470588      0.5882352941E-01  0.4884998982E-02     266
    43  0.1764705882      0.1176470588      0.5882352941E-01  0.9769997965E-02     265
    44  0.2352941176      0.1176470588      0.5882352941E-01  0.9769997965E-02     266
    45  0.2941176471      0.1176470588      0.5882352941E-01  0.9769997965E-02     267
    46  0.3529411765      0.1176470588      0.5882352941E-01  0.9769997965E-02     264
    47  0.4117647059      0.1176470588      0.5882352941E-01  0.4884998982E-02     264
    48  0.8823529412      0.1176470588      0.5882352941E-01  0.4884998982E-02     265
    49  0.1764705882      0.1764705882      0.5882352941E-01  0.4884998982E-02     264
    50  0.2352941176      0.1764705882      0.5882352941E-01  0.9769997965E-02     268
    51  0.2941176471      0.1764705882      0.5882352941E-01  0.9769997965E-02     265
    52  0.3529411765      0.1764705882      0.5882352941E-01  0.9769997965E-02     265
    53  0.8235294118      0.1764705882      0.5882352941E-01  0.4884998982E-02     268
    54  0.8823529412      0.1764705882      0.5882352941E-01  0.4884998982E-02     269
    55  0.2352941176      0.2352941176      0.5882352941E-01  0.4884998982E-02     264
    56  0.2941176471      0.2352941176      0.5882352941E-01  0.9769997965E-02     266
    57  0.3529411765      0.2352941176      0.5882352941E-01  0.4884998982E-02     268
    58  0.7647058824      0.2352941176      0.5882352941E-01  0.4884998982E-02     268
    59  0.8235294118      0.2352941176      0.5882352941E-01  0.9769997965E-02     268
    60  0.2941176471      0.2941176471      0.5882352941E-01  0.4884998982E-02     267
    61  0.7058823529      0.2941176471      0.5882352941E-01  0.4884998982E-02     268
    62  0.7647058824      0.2941176471      0.5882352941E-01  0.9769997965E-02     266
    63  0.8235294118      0.2941176471      0.5882352941E-01  0.4884998982E-02     266
    64  0.6470588235      0.3529411765      0.5882352941E-01  0.4884998982E-02     266
    65  0.7058823529      0.3529411765      0.5882352941E-01  0.9769997965E-02     264
    66  0.7647058824      0.3529411765      0.5882352941E-01  0.9769997965E-02     264
    67  0.5882352941      0.4117647059      0.5882352941E-01  0.4884998982E-02     262
    68  0.6470588235      0.4117647059      0.5882352941E-01  0.9769997965E-02     266
    69  0.7058823529      0.4117647059      0.5882352941E-01  0.9769997965E-02     265
    70  0.7647058824      0.4117647059      0.5882352941E-01  0.4884998982E-02     265
    71  0.5294117647      0.4705882353      0.5882352941E-01  0.4884998982E-02     266
    72  0.5882352941      0.4705882353      0.5882352941E-01  0.9769997965E-02     264
    73  0.6470588235      0.4705882353      0.5882352941E-01  0.9769997965E-02     263
    74  0.7058823529      0.4705882353      0.5882352941E-01  0.9769997965E-02     264
    75  0.5294117647      0.5294117647      0.5882352941E-01  0.4884998982E-02     264
    76  0.5882352941      0.5294117647      0.5882352941E-01  0.9769997965E-02     261
    77  0.6470588235      0.5294117647      0.5882352941E-01  0.9769997965E-02     261
    78  0.7058823529      0.5294117647      0.5882352941E-01  0.4884998982E-02     264
    79  0.5882352941      0.5882352941      0.5882352941E-01  0.4884998982E-02     264
    80  0.6470588235      0.5882352941      0.5882352941E-01  0.9769997965E-02     267
    81  0.6470588235      0.6470588235      0.5882352941E-01  0.1628332994E-02     269
    82  0.1176470588      0.1176470588      0.1176470588      0.1628332994E-02     270
    83  0.1764705882      0.1176470588      0.1176470588      0.4884998982E-02     264
    84  0.2352941176      0.1176470588      0.1176470588      0.4884998982E-02     264
    85  0.2941176471      0.1176470588      0.1176470588      0.4884998982E-02     263
    86  0.3529411765      0.1176470588      0.1176470588      0.4884998982E-02     266
    87  0.8823529412      0.1176470588      0.1176470588      0.1221249746E-02     270
    88  0.1764705882      0.1764705882      0.1176470588      0.4884998982E-02     266
    89  0.2352941176      0.1764705882      0.1176470588      0.9769997965E-02     265
    90  0.2941176471      0.1764705882      0.1176470588      0.9769997965E-02     269
    91  0.3529411765      0.1764705882      0.1176470588      0.4884998982E-02     268
    92  0.8235294118      0.1764705882      0.1176470588      0.4884998982E-02     272
    93  0.2352941176      0.2352941176      0.1176470588      0.4884998982E-02     270
    94  0.2941176471      0.2352941176      0.1176470588      0.9769997965E-02     270
    95  0.7647058824      0.2352941176      0.1176470588      0.4884998982E-02     268
    96  0.8235294118      0.2352941176      0.1176470588      0.4884998982E-02     266
    97  0.2941176471      0.2941176471      0.1176470588      0.1628332994E-02     269
    98  0.7058823529      0.2941176471      0.1176470588      0.4884998982E-02     269
    99  0.7647058824      0.2941176471      0.1176470588      0.9769997965E-02     264
   100  0.6470588235      0.3529411765      0.1176470588      0.4884998982E-02     263
   101  0.7058823529      0.3529411765      0.1176470588      0.9769997965E-02     264
   102  0.7647058824      0.3529411765      0.1176470588      0.4884998982E-02     262
   103  0.5882352941      0.4117647059      0.1176470588      0.4884998982E-02     260
   104  0.6470588235      0.4117647059      0.1176470588      0.9769997965E-02     259
   105  0.7058823529      0.4117647059      0.1176470588      0.9769997965E-02     263
   106  0.5294117647      0.4705882353      0.1176470588      0.4884998982E-02     260
   107  0.5882352941      0.4705882353      0.1176470588      0.9769997965E-02     262
   108  0.6470588235      0.4705882353      0.1176470588      0.9769997965E-02     264
   109  0.7058823529      0.4705882353      0.1176470588      0.4884998982E-02     265
   110  0.5294117647      0.5294117647      0.1176470588      0.4884998982E-02     262
   111  0.5882352941      0.5294117647      0.1176470588      0.9769997965E-02     262
   112  0.6470588235      0.5294117647      0.1176470588      0.9769997965E-02     265
   113  0.5882352941      0.5882352941      0.1176470588      0.4884998982E-02     266
   114  0.6470588235      0.5882352941      0.1176470588      0.4884998982E-02     266
   115  0.1764705882      0.1764705882      0.1764705882      0.1628332994E-02     269
   116  0.2352941176      0.1764705882      0.1764705882      0.4884998982E-02     270
   117  0.2941176471      0.1764705882      0.1764705882      0.4884998982E-02     270
   118  0.8235294118      0.1764705882      0.1764705882      0.1221249746E-02     274
   119  0.2352941176      0.2352941176      0.1764705882      0.4884998982E-02     270
   120  0.2941176471      0.2352941176      0.1764705882      0.4884998982E-02     270
   121  0.7647058824      0.2352941176      0.1764705882      0.4884998982E-02     265
   122  0.7058823529      0.2941176471      0.1764705882      0.4884998982E-02     262
   123  0.7647058824      0.2941176471      0.1764705882      0.4884998982E-02     262
   124  0.6470588235      0.3529411765      0.1764705882      0.4884998982E-02     264
   125  0.7058823529      0.3529411765      0.1764705882      0.9769997965E-02     264
   126  0.5882352941      0.4117647059      0.1764705882      0.4884998982E-02     261
   127  0.6470588235      0.4117647059      0.1764705882      0.9769997965E-02     261
   128  0.7058823529      0.4117647059      0.1764705882      0.4884998982E-02     264
   129  0.5294117647      0.4705882353      0.1764705882      0.4884998982E-02     258
   130  0.5882352941      0.4705882353      0.1764705882      0.9769997965E-02     263
   131  0.6470588235      0.4705882353      0.1764705882      0.9769997965E-02     263
   132  0.5294117647      0.5294117647      0.1764705882      0.4884998982E-02     260
   133  0.5882352941      0.5294117647      0.1764705882      0.9769997965E-02     263
   134  0.6470588235      0.5294117647      0.1764705882      0.4884998982E-02     265
   135  0.5882352941      0.5882352941      0.1764705882      0.4884998982E-02     267
   136  0.2352941176      0.2352941176      0.2352941176      0.1628332994E-02     266
   137  0.7647058824      0.2352941176      0.2352941176      0.1221249746E-02     266
   138  0.7058823529      0.2941176471      0.2352941176      0.4884998982E-02     265
   139  0.6470588235      0.3529411765      0.2352941176      0.4884998982E-02     263
   140  0.7058823529      0.3529411765      0.2352941176      0.4884998982E-02     262
   141  0.5882352941      0.4117647059      0.2352941176      0.4884998982E-02     259
   142  0.6470588235      0.4117647059      0.2352941176      0.9769997965E-02     261
   143  0.5294117647      0.4705882353      0.2352941176      0.4884998982E-02     260
   144  0.5882352941      0.4705882353      0.2352941176      0.9769997965E-02     262
   145  0.6470588235      0.4705882353      0.2352941176      0.4884998982E-02     260
   146  0.5294117647      0.5294117647      0.2352941176      0.4884998982E-02     259
   147  0.5882352941      0.5294117647      0.2352941176      0.9769997965E-02     260
   148  0.5882352941      0.5882352941      0.2352941176      0.1628332994E-02     263
   149  0.7058823529      0.2941176471      0.2941176471      0.1221249746E-02     258
   150  0.6470588235      0.3529411765      0.2941176471      0.4884998982E-02     259
   151  0.5882352941      0.4117647059      0.2941176471      0.4884998982E-02     257
   152  0.6470588235      0.4117647059      0.2941176471      0.4884998982E-02     258
   153  0.5294117647      0.4705882353      0.2941176471      0.4884998982E-02     256
   154  0.5882352941      0.4705882353      0.2941176471      0.9769997965E-02     258
   155  0.5294117647      0.5294117647      0.2941176471      0.4884998982E-02     258
   156  0.5882352941      0.5294117647      0.2941176471      0.4884998982E-02     257
   157  0.6470588235      0.3529411765      0.3529411765      0.1221249746E-02     258
   158  0.5882352941      0.4117647059      0.3529411765      0.4884998982E-02     255
   159  0.5294117647      0.4705882353      0.3529411765      0.4884998982E-02     255
   160  0.5882352941      0.4705882353      0.3529411765      0.4884998982E-02     255
   161  0.5294117647      0.5294117647      0.3529411765      0.4884998982E-02     257
   162  0.5882352941      0.4117647059      0.4117647059      0.1221249746E-02     258
   163  0.5294117647      0.4705882353      0.4117647059      0.4884998982E-02     253
   164  0.5294117647      0.5294117647      0.4117647059      0.1628332994E-02     245
   165  0.5294117647      0.4705882353      0.4705882353      0.1221249746E-02     242
