  0.1189231032E-01
  0.6529698601E-01
  0.3480371983    
  0.1905269727    
  0.1233418064    
  0.3274042831    
  0.4542727739E-01
  0.2624913873E-01
  0.1996540041E-01
  0.1887839021E-01
  0.5184825977E-02
  0.1364934181E-02
  0.3727785142E-03
  0.1738769579E-03
  0.1061494404E-03
  0.1430835073E-04
  0.8241897558E-04
  0.3667259989E-05
  0.3018764528E-04
  0.1086654265E-05
  0.3891020242E-05
  0.2292698719E-04
  0.2535787644E-05
  0.2136192052E-05
  0.2690199835E-05
  0.3794873919E-05
  0.7576882126E-06
  0.4507501217E-05
  0.2735323505E-05
  0.4223103133E-05
  0.4676585377E-06
  0.1578995580E-05
  0.1517366400E-05
  0.1088567842E-05
  0.2022171429E-05
  0.1729005817E-05
  0.8453653209E-06
  0.1778971637E-08
