   297 : nkpt; k-point, vkl, wkpt, nmat below
     1   0.000000000       0.000000000       0.000000000      0.2035416243E-03     803
     2  0.5882352941E-01   0.000000000       0.000000000      0.1221249746E-02     800
     3  0.1176470588       0.000000000       0.000000000      0.1221249746E-02     800
     4  0.1764705882       0.000000000       0.000000000      0.1221249746E-02     802
     5  0.2352941176       0.000000000       0.000000000      0.1221249746E-02     798
     6  0.2941176471       0.000000000       0.000000000      0.1221249746E-02     786
     7  0.3529411765       0.000000000       0.000000000      0.1221249746E-02     790
     8  0.4117647059       0.000000000       0.000000000      0.1221249746E-02     792
     9  0.4705882353       0.000000000       0.000000000      0.1221249746E-02     794
    10  0.5882352941E-01  0.5882352941E-01   0.000000000      0.1221249746E-02     797
    11  0.1176470588      0.5882352941E-01   0.000000000      0.2442499491E-02     798
    12  0.1764705882      0.5882352941E-01   0.000000000      0.2442499491E-02     800
    13  0.2352941176      0.5882352941E-01   0.000000000      0.2442499491E-02     794
    14  0.2941176471      0.5882352941E-01   0.000000000      0.2442499491E-02     792
    15  0.3529411765      0.5882352941E-01   0.000000000      0.2442499491E-02     789
    16  0.4117647059      0.5882352941E-01   0.000000000      0.2442499491E-02     787
    17  0.4705882353      0.5882352941E-01   0.000000000      0.1221249746E-02     788
    18  0.1176470588      0.1176470588       0.000000000      0.1221249746E-02     797
    19  0.1764705882      0.1176470588       0.000000000      0.2442499491E-02     792
    20  0.2352941176      0.1176470588       0.000000000      0.2442499491E-02     794
    21  0.2941176471      0.1176470588       0.000000000      0.2442499491E-02     793
    22  0.3529411765      0.1176470588       0.000000000      0.2442499491E-02     783
    23  0.4117647059      0.1176470588       0.000000000      0.2442499491E-02     782
    24  0.1764705882      0.1764705882       0.000000000      0.1221249746E-02     785
    25  0.2352941176      0.1764705882       0.000000000      0.2442499491E-02     786
    26  0.2941176471      0.1764705882       0.000000000      0.2442499491E-02     785
    27  0.3529411765      0.1764705882       0.000000000      0.2442499491E-02     783
    28  0.4117647059      0.1764705882       0.000000000      0.1221249746E-02     776
    29  0.2352941176      0.2352941176       0.000000000      0.1221249746E-02     787
    30  0.2941176471      0.2352941176       0.000000000      0.2442499491E-02     785
    31  0.3529411765      0.2352941176       0.000000000      0.2442499491E-02     789
    32  0.2941176471      0.2941176471       0.000000000      0.1221249746E-02     783
    33  0.3529411765      0.2941176471       0.000000000      0.1221249746E-02     788
    34   0.000000000       0.000000000      0.5882352941E-01  0.4070832485E-03     803
    35  0.5882352941E-01   0.000000000      0.5882352941E-01  0.2442499491E-02     798
    36  0.1176470588       0.000000000      0.5882352941E-01  0.2442499491E-02     799
    37  0.1764705882       0.000000000      0.5882352941E-01  0.2442499491E-02     799
    38  0.2352941176       0.000000000      0.5882352941E-01  0.2442499491E-02     795
    39  0.2941176471       0.000000000      0.5882352941E-01  0.2442499491E-02     792
    40  0.3529411765       0.000000000      0.5882352941E-01  0.2442499491E-02     789
    41  0.4117647059       0.000000000      0.5882352941E-01  0.2442499491E-02     785
    42  0.4705882353       0.000000000      0.5882352941E-01  0.2442499491E-02     793
    43  0.5882352941E-01  0.5882352941E-01  0.5882352941E-01  0.2442499491E-02     799
    44  0.1176470588      0.5882352941E-01  0.5882352941E-01  0.4884998982E-02     799
    45  0.1764705882      0.5882352941E-01  0.5882352941E-01  0.4884998982E-02     801
    46  0.2352941176      0.5882352941E-01  0.5882352941E-01  0.4884998982E-02     792
    47  0.2941176471      0.5882352941E-01  0.5882352941E-01  0.4884998982E-02     794
    48  0.3529411765      0.5882352941E-01  0.5882352941E-01  0.4884998982E-02     789
    49  0.4117647059      0.5882352941E-01  0.5882352941E-01  0.4884998982E-02     786
    50  0.4705882353      0.5882352941E-01  0.5882352941E-01  0.2442499491E-02     789
    51  0.1176470588      0.1176470588      0.5882352941E-01  0.2442499491E-02     799
    52  0.1764705882      0.1176470588      0.5882352941E-01  0.4884998982E-02     796
    53  0.2352941176      0.1176470588      0.5882352941E-01  0.4884998982E-02     792
    54  0.2941176471      0.1176470588      0.5882352941E-01  0.4884998982E-02     791
    55  0.3529411765      0.1176470588      0.5882352941E-01  0.4884998982E-02     786
    56  0.4117647059      0.1176470588      0.5882352941E-01  0.4884998982E-02     781
    57  0.1764705882      0.1764705882      0.5882352941E-01  0.2442499491E-02     793
    58  0.2352941176      0.1764705882      0.5882352941E-01  0.4884998982E-02     787
    59  0.2941176471      0.1764705882      0.5882352941E-01  0.4884998982E-02     784
    60  0.3529411765      0.1764705882      0.5882352941E-01  0.4884998982E-02     782
    61  0.4117647059      0.1764705882      0.5882352941E-01  0.2442499491E-02     779
    62  0.2352941176      0.2352941176      0.5882352941E-01  0.2442499491E-02     784
    63  0.2941176471      0.2352941176      0.5882352941E-01  0.4884998982E-02     787
    64  0.3529411765      0.2352941176      0.5882352941E-01  0.4884998982E-02     782
    65  0.2941176471      0.2941176471      0.5882352941E-01  0.2442499491E-02     784
    66  0.3529411765      0.2941176471      0.5882352941E-01  0.2442499491E-02     782
    67   0.000000000       0.000000000      0.1176470588      0.4070832485E-03     796
    68  0.5882352941E-01   0.000000000      0.1176470588      0.2442499491E-02     801
    69  0.1176470588       0.000000000      0.1176470588      0.2442499491E-02     802
    70  0.1764705882       0.000000000      0.1176470588      0.2442499491E-02     797
    71  0.2352941176       0.000000000      0.1176470588      0.2442499491E-02     797
    72  0.2941176471       0.000000000      0.1176470588      0.2442499491E-02     793
    73  0.3529411765       0.000000000      0.1176470588      0.2442499491E-02     787
    74  0.4117647059       0.000000000      0.1176470588      0.2442499491E-02     790
    75  0.4705882353       0.000000000      0.1176470588      0.2442499491E-02     790
    76  0.5882352941E-01  0.5882352941E-01  0.1176470588      0.2442499491E-02     798
    77  0.1176470588      0.5882352941E-01  0.1176470588      0.4884998982E-02     799
    78  0.1764705882      0.5882352941E-01  0.1176470588      0.4884998982E-02     797
    79  0.2352941176      0.5882352941E-01  0.1176470588      0.4884998982E-02     795
    80  0.2941176471      0.5882352941E-01  0.1176470588      0.4884998982E-02     792
    81  0.3529411765      0.5882352941E-01  0.1176470588      0.4884998982E-02     787
    82  0.4117647059      0.5882352941E-01  0.1176470588      0.4884998982E-02     788
    83  0.4705882353      0.5882352941E-01  0.1176470588      0.2442499491E-02     790
    84  0.1176470588      0.1176470588      0.1176470588      0.2442499491E-02     795
    85  0.1764705882      0.1176470588      0.1176470588      0.4884998982E-02     797
    86  0.2352941176      0.1176470588      0.1176470588      0.4884998982E-02     790
    87  0.2941176471      0.1176470588      0.1176470588      0.4884998982E-02     790
    88  0.3529411765      0.1176470588      0.1176470588      0.4884998982E-02     787
    89  0.4117647059      0.1176470588      0.1176470588      0.4884998982E-02     785
    90  0.1764705882      0.1764705882      0.1176470588      0.2442499491E-02     789
    91  0.2352941176      0.1764705882      0.1176470588      0.4884998982E-02     785
    92  0.2941176471      0.1764705882      0.1176470588      0.4884998982E-02     786
    93  0.3529411765      0.1764705882      0.1176470588      0.4884998982E-02     783
    94  0.4117647059      0.1764705882      0.1176470588      0.2442499491E-02     781
    95  0.2352941176      0.2352941176      0.1176470588      0.2442499491E-02     779
    96  0.2941176471      0.2352941176      0.1176470588      0.4884998982E-02     783
    97  0.3529411765      0.2352941176      0.1176470588      0.4884998982E-02     780
    98  0.2941176471      0.2941176471      0.1176470588      0.2442499491E-02     783
    99  0.3529411765      0.2941176471      0.1176470588      0.2442499491E-02     782
   100   0.000000000       0.000000000      0.1764705882      0.4070832485E-03     790
   101  0.5882352941E-01   0.000000000      0.1764705882      0.2442499491E-02     801
   102  0.1176470588       0.000000000      0.1764705882      0.2442499491E-02     803
   103  0.1764705882       0.000000000      0.1764705882      0.2442499491E-02     803
   104  0.2352941176       0.000000000      0.1764705882      0.2442499491E-02     795
   105  0.2941176471       0.000000000      0.1764705882      0.2442499491E-02     795
   106  0.3529411765       0.000000000      0.1764705882      0.2442499491E-02     792
   107  0.4117647059       0.000000000      0.1764705882      0.2442499491E-02     787
   108  0.4705882353       0.000000000      0.1764705882      0.2442499491E-02     790
   109  0.5882352941E-01  0.5882352941E-01  0.1764705882      0.2442499491E-02     799
   110  0.1176470588      0.5882352941E-01  0.1764705882      0.4884998982E-02     799
   111  0.1764705882      0.5882352941E-01  0.1764705882      0.4884998982E-02     797
   112  0.2352941176      0.5882352941E-01  0.1764705882      0.4884998982E-02     797
   113  0.2941176471      0.5882352941E-01  0.1764705882      0.4884998982E-02     793
   114  0.3529411765      0.5882352941E-01  0.1764705882      0.4884998982E-02     789
   115  0.4117647059      0.5882352941E-01  0.1764705882      0.4884998982E-02     789
   116  0.4705882353      0.5882352941E-01  0.1764705882      0.2442499491E-02     790
   117  0.1176470588      0.1176470588      0.1764705882      0.2442499491E-02     799
   118  0.1764705882      0.1176470588      0.1764705882      0.4884998982E-02     794
   119  0.2352941176      0.1176470588      0.1764705882      0.4884998982E-02     790
   120  0.2941176471      0.1176470588      0.1764705882      0.4884998982E-02     788
   121  0.3529411765      0.1176470588      0.1764705882      0.4884998982E-02     785
   122  0.4117647059      0.1176470588      0.1764705882      0.4884998982E-02     787
   123  0.1764705882      0.1764705882      0.1764705882      0.2442499491E-02     787
   124  0.2352941176      0.1764705882      0.1764705882      0.4884998982E-02     785
   125  0.2941176471      0.1764705882      0.1764705882      0.4884998982E-02     784
   126  0.3529411765      0.1764705882      0.1764705882      0.4884998982E-02     789
   127  0.4117647059      0.1764705882      0.1764705882      0.2442499491E-02     787
   128  0.2352941176      0.2352941176      0.1764705882      0.2442499491E-02     787
   129  0.2941176471      0.2352941176      0.1764705882      0.4884998982E-02     782
   130  0.3529411765      0.2352941176      0.1764705882      0.4884998982E-02     780
   131  0.2941176471      0.2941176471      0.1764705882      0.2442499491E-02     779
   132  0.3529411765      0.2941176471      0.1764705882      0.2442499491E-02     778
   133   0.000000000       0.000000000      0.2352941176      0.4070832485E-03     790
   134  0.5882352941E-01   0.000000000      0.2352941176      0.2442499491E-02     799
   135  0.1176470588       0.000000000      0.2352941176      0.2442499491E-02     797
   136  0.1764705882       0.000000000      0.2352941176      0.2442499491E-02     802
   137  0.2352941176       0.000000000      0.2352941176      0.2442499491E-02     801
   138  0.2941176471       0.000000000      0.2352941176      0.2442499491E-02     793
   139  0.3529411765       0.000000000      0.2352941176      0.2442499491E-02     796
   140  0.4117647059       0.000000000      0.2352941176      0.2442499491E-02     785
   141  0.4705882353       0.000000000      0.2352941176      0.2442499491E-02     792
   142  0.5882352941E-01  0.5882352941E-01  0.2352941176      0.2442499491E-02     798
   143  0.1176470588      0.5882352941E-01  0.2352941176      0.4884998982E-02     798
   144  0.1764705882      0.5882352941E-01  0.2352941176      0.4884998982E-02     797
   145  0.2352941176      0.5882352941E-01  0.2352941176      0.4884998982E-02     796
   146  0.2941176471      0.5882352941E-01  0.2352941176      0.4884998982E-02     794
   147  0.3529411765      0.5882352941E-01  0.2352941176      0.4884998982E-02     792
   148  0.4117647059      0.5882352941E-01  0.2352941176      0.4884998982E-02     787
   149  0.4705882353      0.5882352941E-01  0.2352941176      0.2442499491E-02     788
   150  0.1176470588      0.1176470588      0.2352941176      0.2442499491E-02     793
   151  0.1764705882      0.1176470588      0.2352941176      0.4884998982E-02     792
   152  0.2352941176      0.1176470588      0.2352941176      0.4884998982E-02     793
   153  0.2941176471      0.1176470588      0.2352941176      0.4884998982E-02     790
   154  0.3529411765      0.1176470588      0.2352941176      0.4884998982E-02     789
   155  0.4117647059      0.1176470588      0.2352941176      0.4884998982E-02     789
   156  0.1764705882      0.1764705882      0.2352941176      0.2442499491E-02     789
   157  0.2352941176      0.1764705882      0.2352941176      0.4884998982E-02     789
   158  0.2941176471      0.1764705882      0.2352941176      0.4884998982E-02     786
   159  0.3529411765      0.1764705882      0.2352941176      0.4884998982E-02     787
   160  0.4117647059      0.1764705882      0.2352941176      0.2442499491E-02     789
   161  0.2352941176      0.2352941176      0.2352941176      0.2442499491E-02     783
   162  0.2941176471      0.2352941176      0.2352941176      0.4884998982E-02     783
   163  0.3529411765      0.2352941176      0.2352941176      0.4884998982E-02     784
   164  0.2941176471      0.2941176471      0.2352941176      0.2442499491E-02     781
   165  0.3529411765      0.2941176471      0.2352941176      0.2442499491E-02     781
   166   0.000000000       0.000000000      0.2941176471      0.4070832485E-03     790
   167  0.5882352941E-01   0.000000000      0.2941176471      0.2442499491E-02     795
   168  0.1176470588       0.000000000      0.2941176471      0.2442499491E-02     796
   169  0.1764705882       0.000000000      0.2941176471      0.2442499491E-02     796
   170  0.2352941176       0.000000000      0.2941176471      0.2442499491E-02     796
   171  0.2941176471       0.000000000      0.2941176471      0.2442499491E-02     796
   172  0.3529411765       0.000000000      0.2941176471      0.2442499491E-02     797
   173  0.4117647059       0.000000000      0.2941176471      0.2442499491E-02     789
   174  0.4705882353       0.000000000      0.2941176471      0.2442499491E-02     792
   175  0.5882352941E-01  0.5882352941E-01  0.2941176471      0.2442499491E-02     794
   176  0.1176470588      0.5882352941E-01  0.2941176471      0.4884998982E-02     796
   177  0.1764705882      0.5882352941E-01  0.2941176471      0.4884998982E-02     794
   178  0.2352941176      0.5882352941E-01  0.2941176471      0.4884998982E-02     799
   179  0.2941176471      0.5882352941E-01  0.2941176471      0.4884998982E-02     796
   180  0.3529411765      0.5882352941E-01  0.2941176471      0.4884998982E-02     795
   181  0.4117647059      0.5882352941E-01  0.2941176471      0.4884998982E-02     787
   182  0.4705882353      0.5882352941E-01  0.2941176471      0.2442499491E-02     788
   183  0.1176470588      0.1176470588      0.2941176471      0.2442499491E-02     793
   184  0.1764705882      0.1176470588      0.2941176471      0.4884998982E-02     794
   185  0.2352941176      0.1176470588      0.2941176471      0.4884998982E-02     796
   186  0.2941176471      0.1176470588      0.2941176471      0.4884998982E-02     792
   187  0.3529411765      0.1176470588      0.2941176471      0.4884998982E-02     788
   188  0.4117647059      0.1176470588      0.2941176471      0.4884998982E-02     790
   189  0.1764705882      0.1764705882      0.2941176471      0.2442499491E-02     793
   190  0.2352941176      0.1764705882      0.2941176471      0.4884998982E-02     790
   191  0.2941176471      0.1764705882      0.2941176471      0.4884998982E-02     791
   192  0.3529411765      0.1764705882      0.2941176471      0.4884998982E-02     787
   193  0.4117647059      0.1764705882      0.2941176471      0.2442499491E-02     795
   194  0.2352941176      0.2352941176      0.2941176471      0.2442499491E-02     789
   195  0.2941176471      0.2352941176      0.2941176471      0.4884998982E-02     786
   196  0.3529411765      0.2352941176      0.2941176471      0.4884998982E-02     785
   197  0.2941176471      0.2941176471      0.2941176471      0.2442499491E-02     784
   198  0.3529411765      0.2941176471      0.2941176471      0.2442499491E-02     776
   199   0.000000000       0.000000000      0.3529411765      0.4070832485E-03     784
   200  0.5882352941E-01   0.000000000      0.3529411765      0.2442499491E-02     793
   201  0.1176470588       0.000000000      0.3529411765      0.2442499491E-02     793
   202  0.1764705882       0.000000000      0.3529411765      0.2442499491E-02     792
   203  0.2352941176       0.000000000      0.3529411765      0.2442499491E-02     796
   204  0.2941176471       0.000000000      0.3529411765      0.2442499491E-02     797
   205  0.3529411765       0.000000000      0.3529411765      0.2442499491E-02     791
   206  0.4117647059       0.000000000      0.3529411765      0.2442499491E-02     792
   207  0.4705882353       0.000000000      0.3529411765      0.2442499491E-02     791
   208  0.5882352941E-01  0.5882352941E-01  0.3529411765      0.2442499491E-02     797
   209  0.1176470588      0.5882352941E-01  0.3529411765      0.4884998982E-02     797
   210  0.1764705882      0.5882352941E-01  0.3529411765      0.4884998982E-02     793
   211  0.2352941176      0.5882352941E-01  0.3529411765      0.4884998982E-02     796
   212  0.2941176471      0.5882352941E-01  0.3529411765      0.4884998982E-02     792
   213  0.3529411765      0.5882352941E-01  0.3529411765      0.4884998982E-02     791
   214  0.4117647059      0.5882352941E-01  0.3529411765      0.4884998982E-02     788
   215  0.4705882353      0.5882352941E-01  0.3529411765      0.2442499491E-02     789
   216  0.1176470588      0.1176470588      0.3529411765      0.2442499491E-02     791
   217  0.1764705882      0.1176470588      0.3529411765      0.4884998982E-02     794
   218  0.2352941176      0.1176470588      0.3529411765      0.4884998982E-02     798
   219  0.2941176471      0.1176470588      0.3529411765      0.4884998982E-02     791
   220  0.3529411765      0.1176470588      0.3529411765      0.4884998982E-02     793
   221  0.4117647059      0.1176470588      0.3529411765      0.4884998982E-02     792
   222  0.1764705882      0.1764705882      0.3529411765      0.2442499491E-02     795
   223  0.2352941176      0.1764705882      0.3529411765      0.4884998982E-02     794
   224  0.2941176471      0.1764705882      0.3529411765      0.4884998982E-02     793
   225  0.3529411765      0.1764705882      0.3529411765      0.4884998982E-02     786
   226  0.4117647059      0.1764705882      0.3529411765      0.2442499491E-02     793
   227  0.2352941176      0.2352941176      0.3529411765      0.2442499491E-02     789
   228  0.2941176471      0.2352941176      0.3529411765      0.4884998982E-02     791
   229  0.3529411765      0.2352941176      0.3529411765      0.4884998982E-02     788
   230  0.2941176471      0.2941176471      0.3529411765      0.2442499491E-02     786
   231  0.3529411765      0.2941176471      0.3529411765      0.2442499491E-02     778
   232   0.000000000       0.000000000      0.4117647059      0.4070832485E-03     778
   233  0.5882352941E-01   0.000000000      0.4117647059      0.2442499491E-02     787
   234  0.1176470588       0.000000000      0.4117647059      0.2442499491E-02     791
   235  0.1764705882       0.000000000      0.4117647059      0.2442499491E-02     790
   236  0.2352941176       0.000000000      0.4117647059      0.2442499491E-02     794
   237  0.2941176471       0.000000000      0.4117647059      0.2442499491E-02     799
   238  0.3529411765       0.000000000      0.4117647059      0.2442499491E-02     791
   239  0.4117647059       0.000000000      0.4117647059      0.2442499491E-02     788
   240  0.4705882353       0.000000000      0.4117647059      0.2442499491E-02     784
   241  0.5882352941E-01  0.5882352941E-01  0.4117647059      0.2442499491E-02     789
   242  0.1176470588      0.5882352941E-01  0.4117647059      0.4884998982E-02     792
   243  0.1764705882      0.5882352941E-01  0.4117647059      0.4884998982E-02     795
   244  0.2352941176      0.5882352941E-01  0.4117647059      0.4884998982E-02     795
   245  0.2941176471      0.5882352941E-01  0.4117647059      0.4884998982E-02     796
   246  0.3529411765      0.5882352941E-01  0.4117647059      0.4884998982E-02     792
   247  0.4117647059      0.5882352941E-01  0.4117647059      0.4884998982E-02     794
   248  0.4705882353      0.5882352941E-01  0.4117647059      0.2442499491E-02     787
   249  0.1176470588      0.1176470588      0.4117647059      0.2442499491E-02     793
   250  0.1764705882      0.1176470588      0.4117647059      0.4884998982E-02     796
   251  0.2352941176      0.1176470588      0.4117647059      0.4884998982E-02     795
   252  0.2941176471      0.1176470588      0.4117647059      0.4884998982E-02     792
   253  0.3529411765      0.1176470588      0.4117647059      0.4884998982E-02     794
   254  0.4117647059      0.1176470588      0.4117647059      0.4884998982E-02     794
   255  0.1764705882      0.1764705882      0.4117647059      0.2442499491E-02     794
   256  0.2352941176      0.1764705882      0.4117647059      0.4884998982E-02     797
   257  0.2941176471      0.1764705882      0.4117647059      0.4884998982E-02     793
   258  0.3529411765      0.1764705882      0.4117647059      0.4884998982E-02     794
   259  0.4117647059      0.1764705882      0.4117647059      0.2442499491E-02     794
   260  0.2352941176      0.2352941176      0.4117647059      0.2442499491E-02     793
   261  0.2941176471      0.2352941176      0.4117647059      0.4884998982E-02     789
   262  0.3529411765      0.2352941176      0.4117647059      0.4884998982E-02     790
   263  0.2941176471      0.2941176471      0.4117647059      0.2442499491E-02     786
   264  0.3529411765      0.2941176471      0.4117647059      0.2442499491E-02     776
   265   0.000000000       0.000000000      0.4705882353      0.4070832485E-03     784
   266  0.5882352941E-01   0.000000000      0.4705882353      0.2442499491E-02     786
   267  0.1176470588       0.000000000      0.4705882353      0.2442499491E-02     790
   268  0.1764705882       0.000000000      0.4705882353      0.2442499491E-02     794
   269  0.2352941176       0.000000000      0.4705882353      0.2442499491E-02     796
   270  0.2941176471       0.000000000      0.4705882353      0.2442499491E-02     798
   271  0.3529411765       0.000000000      0.4705882353      0.2442499491E-02     791
   272  0.4117647059       0.000000000      0.4705882353      0.2442499491E-02     787
   273  0.4705882353       0.000000000      0.4705882353      0.2442499491E-02     784
   274  0.5882352941E-01  0.5882352941E-01  0.4705882353      0.2442499491E-02     783
   275  0.1176470588      0.5882352941E-01  0.4705882353      0.4884998982E-02     793
   276  0.1764705882      0.5882352941E-01  0.4705882353      0.4884998982E-02     794
   277  0.2352941176      0.5882352941E-01  0.4705882353      0.4884998982E-02     795
   278  0.2941176471      0.5882352941E-01  0.4705882353      0.4884998982E-02     792
   279  0.3529411765      0.5882352941E-01  0.4705882353      0.4884998982E-02     788
   280  0.4117647059      0.5882352941E-01  0.4705882353      0.4884998982E-02     794
   281  0.4705882353      0.5882352941E-01  0.4705882353      0.2442499491E-02     791
   282  0.1176470588      0.1176470588      0.4705882353      0.2442499491E-02     792
   283  0.1764705882      0.1176470588      0.4705882353      0.4884998982E-02     797
   284  0.2352941176      0.1176470588      0.4705882353      0.4884998982E-02     796
   285  0.2941176471      0.1176470588      0.4705882353      0.4884998982E-02     792
   286  0.3529411765      0.1176470588      0.4705882353      0.4884998982E-02     795
   287  0.4117647059      0.1176470588      0.4705882353      0.4884998982E-02     794
   288  0.1764705882      0.1764705882      0.4705882353      0.2442499491E-02     794
   289  0.2352941176      0.1764705882      0.4705882353      0.4884998982E-02     794
   290  0.2941176471      0.1764705882      0.4705882353      0.4884998982E-02     798
   291  0.3529411765      0.1764705882      0.4705882353      0.4884998982E-02     790
   292  0.4117647059      0.1764705882      0.4705882353      0.2442499491E-02     790
   293  0.2352941176      0.2352941176      0.4705882353      0.2442499491E-02     796
   294  0.2941176471      0.2352941176      0.4705882353      0.4884998982E-02     791
   295  0.3529411765      0.2352941176      0.4705882353      0.4884998982E-02     792
   296  0.2941176471      0.2941176471      0.4705882353      0.2442499491E-02     786
   297  0.3529411765      0.2941176471      0.4705882353      0.2442499491E-02     784
