   1.204051646    
   1.138137458    
  0.6285051550    
  0.2376570574    
  0.6809542920E-01
  0.2449967416E-02
  0.7569250145E-03
  0.2161956446E-03
  0.7115346279E-04
  0.3580281783E-04
  0.9301765194E-05
  0.1107396512E-04
  0.6901032693E-05
  0.4629716928E-05
  0.1453703486E-04
  0.3957760006E-05
  0.3996406453E-04
  0.7004880333E-05
  0.4707431296E-04
  0.9887733379E-05
  0.2199115914E-04
  0.3441051500E-05
  0.2130308902E-04
  0.2589446951E-04
  0.3973620082E-04
  0.3832283712E-04
  0.9072368196E-05
  0.4099311440E-05
  0.7264731934E-05
  0.1691274378E-04
  0.8711851749E-05
  0.7029779908E-05
  0.1059997127E-04
  0.5191225799E-05
  0.6178977559E-05
  0.1071886115E-04
  0.4712136753E-05
  0.4581235820E-05
  0.8200804593E-05
  0.8342427241E-05
  0.4723768670E-04
  0.1270772156E-04
  0.1482706523E-04
  0.3319350643E-04
  0.8975746223E-04
  0.9277227497E-04
  0.3830642542E-05
  0.8797194643E-05
  0.4468358926E-05
  0.3677006783E-04
  0.3749501154E-04
  0.1353301428E-04
