    0.333284334937E-03
    0.334225828101E-03
    0.382679770777E-03
    0.411222733976E-03
    0.421270838431E-03
    0.423896985856E-03
    0.424539857208E-03
    0.424515821536E-03
    0.424448422243E-03
    0.424423729264E-03
    0.424379982535E-03
    0.424350939495E-03
    0.424345377104E-03
    0.424324793458E-03
    0.424303345128E-03
    0.424299169693E-03
    0.424297968231E-03
    0.424297882580E-03
    0.424297718194E-03
    0.424297703032E-03
    0.424297700986E-03
    0.424297695361E-03
    0.424297692187E-03
