   18.14051892    
   9.073701098    
   3.026707775    
  0.7570925996    
  0.1516597903    
  0.9050352407E-02
  0.5453137086E-02
  0.7561677718E-04
  0.5815157949E-04
  0.2175232369E-04
  0.2888160720E-04
  0.1557848576E-04
  0.6219866466E-05
  0.1914343430E-05
  0.1199721988E-05
  0.1307564573E-06
  0.7036439481E-07
  0.3105323227E-07
  0.2029520679E-07
  0.1356811814E-07
  0.1291127152E-07
