   1.194404706    
   1.129152846    
  0.6172852171    
  0.2320509218    
  0.6628895970E-01
  0.2446295931E-02
  0.7288734654E-03
  0.2316292124E-03
  0.7286993727E-04
  0.3198970082E-04
  0.3109146712E-04
  0.6099980920E-05
  0.3431750970E-04
  0.2509257051E-04
  0.9496900558E-05
  0.1154560136E-04
  0.6884736196E-05
  0.7082052962E-05
  0.1780565787E-04
  0.9445894057E-05
  0.1815005128E-04
  0.1634666155E-04
  0.5158096458E-04
  0.1446949629E-04
  0.2723856436E-04
  0.8850010675E-04
  0.3646593325E-04
  0.8366673338E-05
  0.1045273488E-04
  0.1950800786E-04
  0.1171886212E-04
  0.3936840851E-04
  0.2252898678E-04
  0.2244377758E-04
  0.1207356764E-04
  0.1573180426E-05
  0.2204926452E-05
  0.2589603372E-04
  0.1757320259E-04
  0.1932411166E-05
  0.4237569028E-05
  0.1407920390E-05
  0.4456087465E-04
  0.9642044945E-05
  0.1937960343E-04
  0.3168842988E-04
  0.2686070748E-04
  0.1987815453E-04
  0.5038051164E-05
  0.6054701387E-05
  0.7546092685E-05
  0.1068386205E-04
  0.2864829371E-04
  0.1080426322E-04
  0.7077256575E-05
  0.3601512021E-05
  0.4270585870E-05
  0.8524802040E-04
  0.1988281617E-05
  0.1614887685E-04
  0.1292023036E-04
  0.6079146049E-05
  0.2773398420E-04
  0.3388641181E-05
  0.8937425136E-05
  0.2059828312E-04
  0.7229996733E-05
  0.4039386539E-05
  0.1936579973E-04
  0.3085241721E-04
  0.2390938856E-04
  0.2087340273E-05
  0.3708129534E-04
  0.1115571163E-04
  0.1642057772E-04
  0.9374900367E-05
  0.7475772534E-05
  0.1240417120E-04
  0.2080878832E-04
  0.6796531808E-05
  0.9084026038E-05
  0.5857443131E-04
  0.1777406305E-04
  0.4926293487E-05
  0.3012390657E-04
  0.3470175396E-04
  0.1330854393E-05
  0.9790630928E-05
  0.7239911621E-05
  0.9291830809E-05
  0.5575526782E-05
  0.4544385395E-05
  0.3124621202E-05
  0.2566481027E-04
  0.1587048295E-04
  0.3261701475E-04
  0.2270453707E-04
  0.4009219809E-05
  0.3850902627E-04
  0.2453394446E-04
  0.3992262752E-05
  0.4423527661E-04
  0.6568392255E-05
  0.4318528706E-05
  0.2777164069E-04
  0.4445765545E-04
  0.3030776086E-04
  0.1290591487E-04
  0.2342897033E-04
  0.2398686579E-05
  0.3921310027E-04
  0.4449720368E-05
  0.8887209631E-05
  0.2062767511E-04
  0.9866428547E-04
  0.9465355783E-05
  0.4921509046E-05
  0.2128061786E-05
  0.2306155824E-04
  0.7533541851E-05
  0.1372039388E-03
  0.3672289430E-05
  0.1364430394E-04
  0.3646229622E-04
  0.1474816587E-05
  0.1366273461E-04
  0.1079298568E-04
  0.4264903799E-04
  0.2233066028E-04
  0.5127187094E-04
  0.2956160279E-04
  0.1211656938E-05
  0.3007068181E-05
  0.1489253275E-04
  0.9828563461E-05
  0.5116385889E-04
  0.3444066737E-05
  0.2660281540E-05
  0.8514793781E-05
  0.9702476016E-04
  0.1221830153E-04
  0.5246424468E-05
  0.6697182436E-05
  0.6565790029E-05
  0.7797706115E-05
  0.7265388627E-04
  0.2667271948E-05
  0.7945637910E-05
  0.4554350331E-04
  0.6453610883E-05
  0.3157844741E-05
  0.2219216757E-04
  0.3842059512E-05
  0.1513544805E-04
  0.1229258271E-04
  0.3185029142E-05
  0.2355099702E-04
  0.5583607832E-05
  0.4666528690E-05
  0.2158984650E-05
  0.4759703656E-05
  0.2520067075E-04
