    0.483837306314E-02
    0.483837294785E-02
    0.483836903632E-02
    0.483836413524E-02
    0.483836156747E-02
    0.483836074571E-02
    0.483836053836E-02
    0.483836055333E-02
    0.483836056691E-02
    0.483836056638E-02
    0.483836056617E-02
    0.483836056643E-02
    0.483836056650E-02
    0.483836056653E-02
