+----------------------------+
| Elk version 8.3.15 started |
+----------------------------+
 
Date (YYYY-MM-DD) : 2022-02-19
Time (hh:mm:ss)   : 08:27:06
 
All units are atomic (Hartree, Bohr, etc.)
 
+-------------------------------------------------+
| Ground-state run starting from atomic densities |
+-------------------------------------------------+
 
Lattice vectors :
   4.696013043      -2.711244395       0.000000000    
   0.000000000       5.422488789       0.000000000    
   0.000000000       0.000000000       8.833090581    
 
Reciprocal lattice vectors :
   1.337982933       0.000000000       0.000000000    
  0.6689914668       1.158727210       0.000000000    
   0.000000000       0.000000000      0.7113235452    
 
Unit cell volume      :    224.9265082    
Brillouin zone volume :    1.102805602    
 
Muffin-tin inner radius fraction :   0.1000000000E-01
 
Species :    1 (Ti)
 parameters loaded from : Ti.in
 name : titanium
 nuclear charge    :   -22.00000000    
 electronic charge :    22.00000000    
 atomic mass :    87256.20310    
 muffin-tin radius :    2.400000000    
 number of radial points in muffin-tin :   1000
 number on inner part of muffin-tin    :    716
 atomic positions (lattice), magnetic fields (Cartesian) :
   1 :   0.33333333  0.16666667  0.25000000    0.00000000  0.00000000  0.00000000
   2 :  -0.33333333 -0.16666667 -0.25000000    0.00000000  0.00000000  0.00000000
 
Total number of atoms per unit cell :    2
 
Spin treatment :
 spin-unpolarised
 
Number of Bravais lattice symmetries :   24
Number of crystal symmetries         :   24
Crystal has inversion symmetry
Real symmetric eigensolver will be used
 
k-point grid :     17    17    17
k-point offset :    0.000000000       0.000000000       0.000000000    
k-point set is reduced with full crystal symmetry group
Total number of k-points :      297
 
Muffin-tin radius times maximum |G+k| :    8.500000000    
 using gkmax = rgkmax / 2
Maximum |G+k| for APW functions       :    4.250000000    
Maximum (1/2)|G+k|²                   :    9.031250000    
Maximum |G| for potential and density :    34.00000000    
Constant for pseudocharge density :   20
Radial integration step length :    1
 
G-vector grid sizes :     60    60    96
Number of G-vectors :   149369
 
Maximum angular momentum used for
 APW functions                      :   10
 outer part of muffin-tin           :    8
 inner part of muffin-tin           :    1
 
Total nuclear charge    :   -44.00000000    
Total core charge       :    20.00000000    
Total valence charge    :    24.00000000    
Total excess charge     :    0.000000000    
Total electronic charge :    44.00000000    
 
Effective Wigner radius, rₛ :    1.068644164    
 
Number of empty states         :   40
Total number of valence states :   53
Total number of core states    :   20
 
Conduction state local-orbitals added automatically
Total number of local-orbitals :  242
 
Using Libxc version 05.01.05
Exchange-correlation functional :    100   493   494
 exchange: mgga_x_rscan; correlation: mgga_c_rscan
 
Smearing type :    1
 Methfessel-Paxton order 1, Phys. Rev. B 40, 3616 (1989)
Smearing width :   0.1000000000E-02
Effective electronic temperature (K) :    315.7750248    
 
Mixing type :    3
 Broyden mixing, J. Phys. A: Math. Gen. 17, L317 (1984)
 
Kohn-Sham potential initialised from atomic data
 
+------------------------------+
| Self-consistent loop started |
+------------------------------+
 
+--------------------+
| Loop number :    1 |
+--------------------+
 
Energies :
 Fermi                       :     0.169599862177    
 sum of eigenvalues          :     -1010.02639298    
 electron kinetic            :      1714.28685043    
 core electron kinetic       :      1592.42039237    
 Coulomb                     :     -3357.95079367    
 Coulomb potential           :     -2611.20576158    
 nuclear-nuclear             :     -235.127681616    
 electron-nuclear            :     -3634.44046253    
 Hartree                     :      511.617350476    
 Madelung                    :     -2052.34791288    
 xc potential                :     -113.107481828    
 exchange                    :     -83.7711958034    
 correlation                 :     -1.93229139483    
 total energy                :     -1729.36743044    
 
Density of states at Fermi energy :    69.22813870    
 (states/Hartree/unit cell)
 
Estimated indirect band gap :   0.2716045392E-03
 from k-point    265 to k-point    110
Estimated direct band gap   :   0.4579921829E-02
 at k-point    260
 
Charges :
 core                        :    20.00000000    
 valence                     :    24.00000000    
 interstitial                :    2.919402856    
 muffin-tins (core leakage)
  species :    1 (Ti)
   atom    1                 :    20.54029857     (  0.4323208458E-09)
   atom    2                 :    20.54029857     (  0.4323208458E-09)
 total in muffin-tins        :    41.08059714    
 total calculated charge     :    43.99995627    
 total charge                :    44.00000000    
 error                       :   0.4373489234E-04
 
Time (CPU seconds) :        71.53
 
+--------------------+
| Loop number :    2 |
+--------------------+
 
Energies :
 Fermi                       :     0.171690378337    
 sum of eigenvalues          :     -1009.84117654    
 electron kinetic            :      1714.47588409    
 core electron kinetic       :      1591.02301701    
 Coulomb                     :     -3357.81273285    
 Coulomb potential           :     -2611.22456226    
 nuclear-nuclear             :     -235.127681616    
 electron-nuclear            :     -3634.14554022    
 Hartree                     :      511.460488981    
 Madelung                    :     -2052.20045173    
 xc potential                :     -113.092498369    
 exchange                    :     -83.7604986372    
 correlation                 :     -1.93223804477    
 total energy                :     -1729.02958545    
 
Density of states at Fermi energy :    66.16695523    
 (states/Hartree/unit cell)
 
Estimated indirect band gap :   0.4770403587E-04
 from k-point    293 to k-point    265
Estimated direct band gap   :   0.1934471976E-02
 at k-point    265
 
Charges :
 core                        :    20.00000000    
 valence                     :    24.00000000    
 interstitial                :    2.925760429    
 muffin-tins (core leakage)
  species :    1 (Ti)
   atom    1                 :    20.53711979     (  0.4685993815E-09)
   atom    2                 :    20.53711979     (  0.4685993815E-09)
 total in muffin-tins        :    41.07423957    
 total calculated charge     :    43.99995609    
 total charge                :    44.00000000    
 error                       :   0.4390640758E-04
 
Wrote STATE.OUT
 
RMS change in Kohn-Sham potential (target) :   0.5979098100     (   10.00000000    )
Absolute change in total energy (target)   :   0.3378449958     (  0.1000000000E-07)
 
Time (CPU seconds) :       139.07
 
+--------------------+
| Loop number :    3 |
+--------------------+
 
Energies :
 Fermi                       :     0.201471942559    
 sum of eigenvalues          :     -1007.63555367    
 electron kinetic            :      1716.55095405    
 core electron kinetic       :      1587.46340175    
 Coulomb                     :     -3357.03744570    
 Coulomb potential           :     -2611.16106925    
 nuclear-nuclear             :     -235.127681616    
 electron-nuclear            :     -3632.65845893    
 Hartree                     :      510.748694842    
 Madelung                    :     -2051.45691108    
 xc potential                :     -113.025438472    
 exchange                    :     -83.7130213878    
 correlation                 :     -1.93203653443    
 total energy                :     -1726.13154958    
 
Density of states at Fermi energy :    57.01764336    
 (states/Hartree/unit cell)
 
Estimated indirect band gap :   0.4865542467E-03
 from k-point    195 to k-point    163
Estimated direct band gap   :   0.4428912387E-02
 at k-point    260
 
Charges :
 core                        :    20.00000000    
 valence                     :    24.00000000    
 interstitial                :    2.949769561    
 muffin-tins (core leakage)
  species :    1 (Ti)
   atom    1                 :    20.52511522     (  0.7103526656E-09)
   atom    2                 :    20.52511522     (  0.7103526656E-09)
 total in muffin-tins        :    41.05023044    
 total calculated charge     :    43.99995593    
 total charge                :    44.00000000    
 error                       :   0.4406666199E-04
 
RMS change in Kohn-Sham potential (target) :   0.5004924085     (   10.00000000    )
Absolute change in total energy (target)   :    2.982497120     (  0.1000000000E-07)
 
Time (CPU seconds) :       208.09
 
+--------------------+
| Loop number :    4 |
+--------------------+
 
Energies :
 Fermi                       :     0.292680706598    
 sum of eigenvalues          :     -1000.69290981    
 electron kinetic            :      1723.37133856    
 core electron kinetic       :      1588.84175036    
 Coulomb                     :     -3354.14367076    
 Coulomb potential           :     -2611.32609332    
 nuclear-nuclear             :     -235.127681616    
 electron-nuclear            :     -3626.70588497    
 Hartree                     :      507.689895827    
 Madelung                    :     -2048.48062410    
 xc potential                :     -112.738155051    
 exchange                    :     -83.5071983400    
 correlation                 :     -1.93106912455    
 total energy                :     -1716.21059967    
 
Density of states at Fermi energy :    65.10665204    
 (states/Hartree/unit cell)
 
Estimated indirect band gap :   0.8917754860E-04
 from k-point     44 to k-point    195
Estimated direct band gap   :   0.3674621331E-02
 at k-point    260
 
Charges :
 core                        :    20.00000000    
 valence                     :    24.00000000    
 interstitial                :    3.079046541    
 muffin-tins (core leakage)
  species :    1 (Ti)
   atom    1                 :    20.46047673     (  0.1539051553E-08)
   atom    2                 :    20.46047673     (  0.1539051553E-08)
 total in muffin-tins        :    40.92095346    
 total calculated charge     :    43.99995502    
 total charge                :    44.00000000    
 error                       :   0.4497623667E-04
 
Wrote STATE.OUT
 
RMS change in Kohn-Sham potential (target) :   0.2230950570     (   10.00000000    )
Absolute change in total energy (target)   :    10.66657419     (  0.1000000000E-07)
 
Time (CPU seconds) :       276.47
 
+--------------------+
| Loop number :    5 |
+--------------------+
 
Energies :
 Fermi                       :     0.337494855209    
 sum of eigenvalues          :     -997.272341712    
 electron kinetic            :      1726.81620616    
 core electron kinetic       :      1589.82125372    
 Coulomb                     :     -3352.73884844    
 Coulomb potential           :     -2611.49700333    
 nuclear-nuclear             :     -235.127681616    
 electron-nuclear            :     -3623.72533032    
 Hartree                     :      506.114163494    
 Madelung                    :     -2046.99034678    
 xc potential                :     -112.591544541    
 exchange                    :     -83.4025036858    
 correlation                 :     -1.93046347511    
 total energy                :     -1711.25560944    
 
Density of states at Fermi energy :    50.17577612    
 (states/Hartree/unit cell)
 
Estimated indirect band gap :   0.3572652321E-03
 from k-point    234 to k-point    257
Estimated direct band gap   :   0.3262885106E-02
 at k-point    260
 
Charges :
 core                        :    20.00000000    
 valence                     :    24.00000000    
 interstitial                :    3.150894347    
 muffin-tins (core leakage)
  species :    1 (Ti)
   atom    1                 :    20.42455283     (  0.2559003676E-08)
   atom    2                 :    20.42455283     (  0.2559003676E-08)
 total in muffin-tins        :    40.84910565    
 total calculated charge     :    43.99995434    
 total charge                :    44.00000000    
 error                       :   0.4565820662E-04
 
RMS change in Kohn-Sham potential (target) :   0.8568567579E-01 (   10.00000000    )
Absolute change in total energy (target)   :    7.621633770     (  0.1000000000E-07)
 
Time (CPU seconds) :       344.88
 
+--------------------+
| Loop number :    6 |
+--------------------+
 
Energies :
 Fermi                       :     0.355488568337    
 sum of eigenvalues          :     -995.915816080    
 electron kinetic            :      1728.21529089    
 core electron kinetic       :      1590.18797919    
 Coulomb                     :     -3352.21353261    
 Coulomb potential           :     -2611.59705912    
 nuclear-nuclear             :     -235.127681616    
 electron-nuclear            :     -3622.57464287    
 Hartree                     :      505.488791871    
 Madelung                    :     -2046.41500305    
 xc potential                :     -112.534047849    
 exchange                    :     -83.3615535186    
 correlation                 :     -1.93021328455    
 total energy                :     -1709.29000852    
 
Density of states at Fermi energy :    44.08160452    
 (states/Hartree/unit cell)
 
Estimated indirect band gap :   0.3386895340E-03
 from k-point    193 to k-point    234
Estimated direct band gap   :   0.3070846277E-02
 at k-point    260
 
Charges :
 core                        :    20.00000000    
 valence                     :    24.00000000    
 interstitial                :    3.179941022    
 muffin-tins (core leakage)
  species :    1 (Ti)
   atom    1                 :    20.41002949     (  0.3115561142E-08)
   atom    2                 :    20.41002949     (  0.3115561142E-08)
 total in muffin-tins        :    40.82005898    
 total calculated charge     :    43.99995403    
 total charge                :    44.00000000    
 error                       :   0.4597289929E-04
 
Wrote STATE.OUT
 
RMS change in Kohn-Sham potential (target) :   0.2906272611E-01 (   10.00000000    )
Absolute change in total energy (target)   :    3.871009363     (  0.1000000000E-07)
 
Time (CPU seconds) :       411.85
 
+--------------------+
| Loop number :    7 |
+--------------------+
 
Energies :
 Fermi                       :     0.363961431303    
 sum of eigenvalues          :     -995.275057301    
 electron kinetic            :      1728.89851027    
 core electron kinetic       :      1590.60113936    
 Coulomb                     :     -3351.97151946    
 Coulomb potential           :     -2611.66802735    
 nuclear-nuclear             :     -235.127681616    
 electron-nuclear            :     -3622.01964834    
 Hartree                     :      505.175810494    
 Madelung                    :     -2046.13750579    
 xc potential                :     -112.505540222    
 exchange                    :     -83.3413022345    
 correlation                 :     -1.93008215031    
 total energy                :     -1708.34439357    
 
Density of states at Fermi energy :    44.14487153    
 (states/Hartree/unit cell)
 
Estimated indirect band gap :   0.1429576861E-03
 from k-point    133 to k-point    292
Estimated direct band gap   :   0.2962945120E-02
 at k-point    260
 
Charges :
 core                        :    20.00000000    
 valence                     :    24.00000000    
 interstitial                :    3.195467542    
 muffin-tins (core leakage)
  species :    1 (Ti)
   atom    1                 :    20.40226623     (  0.3447794938E-08)
   atom    2                 :    20.40226623     (  0.3447794938E-08)
 total in muffin-tins        :    40.80453246    
 total calculated charge     :    43.99995390    
 total charge                :    44.00000000    
 error                       :   0.4609810205E-04
 
RMS change in Kohn-Sham potential (target) :   0.3875557858E-02 (   10.00000000    )
Absolute change in total energy (target)   :    1.913367289     (  0.1000000000E-07)
 
Time (CPU seconds) :       481.85
 
+--------------------+
| Loop number :    8 |
+--------------------+
 
Energies :
 Fermi                       :     0.363738739855    
 sum of eigenvalues          :     -995.296402936    
 electron kinetic            :      1728.90036366    
 core electron kinetic       :      1590.62257997    
 Coulomb                     :     -3351.98469146    
 Coulomb potential           :     -2611.69193289    
 nuclear-nuclear             :     -235.127681616    
 electron-nuclear            :     -3622.02208680    
 Hartree                     :      505.165076953    
 Madelung                    :     -2046.13872502    
 xc potential                :     -112.504833699    
 exchange                    :     -83.3408357489    
 correlation                 :     -1.93007721674    
 total energy                :     -1708.35524077    
 
Density of states at Fermi energy :    43.66826809    
 (states/Hartree/unit cell)
 
Estimated indirect band gap :   0.1682894023E-03
 from k-point    133 to k-point    292
Estimated direct band gap   :   0.2940813369E-02
 at k-point    260
 
Charges :
 core                        :    20.00000000    
 valence                     :    24.00000000    
 interstitial                :    3.196667964    
 muffin-tins (core leakage)
  species :    1 (Ti)
   atom    1                 :    20.40166602     (  0.3359540202E-08)
   atom    2                 :    20.40166602     (  0.3359540202E-08)
 total in muffin-tins        :    40.80333204    
 total calculated charge     :    43.99995390    
 total charge                :    44.00000000    
 error                       :   0.4610249598E-04
 
Wrote STATE.OUT
 
RMS change in Kohn-Sham potential (target) :   0.1085260784E-02 (   10.00000000    )
Absolute change in total energy (target)   :   0.4674946243     (  0.1000000000E-07)
 
Time (CPU seconds) :       551.58
 
+--------------------+
| Loop number :    9 |
+--------------------+
 
Energies :
 Fermi                       :     0.363574156701    
 sum of eigenvalues          :     -995.309040485    
 electron kinetic            :      1728.89024536    
 core electron kinetic       :      1590.61923409    
 Coulomb                     :     -3351.99150939    
 Coulomb potential           :     -2611.69399791    
 nuclear-nuclear             :     -235.127681616    
 electron-nuclear            :     -3622.03365763    
 Hartree                     :      505.169829860    
 Madelung                    :     -2046.14451043    
 xc potential                :     -112.505287930    
 exchange                    :     -83.3411700932    
 correlation                 :     -1.93008095484    
 total energy                :     -1708.37251508    
 
Density of states at Fermi energy :    43.68388188    
 (states/Hartree/unit cell)
 
Estimated indirect band gap :   0.1644619418E-03
 from k-point    133 to k-point    292
Estimated direct band gap   :   0.2938364338E-02
 at k-point    260
 
Charges :
 core                        :    20.00000000    
 valence                     :    24.00000000    
 interstitial                :    3.196506678    
 muffin-tins (core leakage)
  species :    1 (Ti)
   atom    1                 :    20.40174666     (  0.3373878954E-08)
   atom    2                 :    20.40174666     (  0.3373878954E-08)
 total in muffin-tins        :    40.80349332    
 total calculated charge     :    43.99995390    
 total charge                :    44.00000000    
 error                       :   0.4610020124E-04
 
RMS change in Kohn-Sham potential (target) :   0.2302315259E-03 (   10.00000000    )
Absolute change in total energy (target)   :   0.9959934948E-01 (  0.1000000000E-07)
 
Time (CPU seconds) :       621.74
 
+--------------------+
| Loop number :   10 |
+--------------------+
 
Energies :
 Fermi                       :     0.363560068308    
 sum of eigenvalues          :     -995.307845323    
 electron kinetic            :      1728.88920320    
 core electron kinetic       :      1590.61650873    
 Coulomb                     :     -3351.98873198    
 Coulomb potential           :     -2611.69188031    
 nuclear-nuclear             :     -235.127681616    
 electron-nuclear            :     -3622.03022041    
 Hartree                     :      505.169170050    
 Madelung                    :     -2046.14279182    
 xc potential                :     -112.505168207    
 exchange                    :     -83.3410742339    
 correlation                 :     -1.93008179937    
 total energy                :     -1708.37068481    
 
Density of states at Fermi energy :    43.69776714    
 (states/Hartree/unit cell)
 
Estimated indirect band gap :   0.1636022212E-03
 from k-point    133 to k-point    292
Estimated direct band gap   :   0.2939551977E-02
 at k-point    260
 
Charges :
 core                        :    20.00000000    
 valence                     :    24.00000000    
 interstitial                :    3.196489760    
 muffin-tins (core leakage)
  species :    1 (Ti)
   atom    1                 :    20.40175512     (  0.3374868385E-08)
   atom    2                 :    20.40175512     (  0.3374868385E-08)
 total in muffin-tins        :    40.80351024    
 total calculated charge     :    43.99995390    
 total charge                :    44.00000000    
 error                       :   0.4610214653E-04
 
Wrote STATE.OUT
 
RMS change in Kohn-Sham potential (target) :   0.1410532242E-03 (   10.00000000    )
Absolute change in total energy (target)   :   0.2673010169E-01 (  0.1000000000E-07)
 
Time (CPU seconds) :       690.43
 
+--------------------+
| Loop number :   11 |
+--------------------+
 
Energies :
 Fermi                       :     0.363558621285    
 sum of eigenvalues          :     -995.306296216    
 electron kinetic            :      1728.88871059    
 core electron kinetic       :      1590.61529376    
 Coulomb                     :     -3351.98635397    
 Coulomb potential           :     -2611.68992749    
 nuclear-nuclear             :     -235.127681616    
 electron-nuclear            :     -3622.02741722    
 Hartree                     :      505.168744867    
 Madelung                    :     -2046.14139023    
 xc potential                :     -112.505079318    
 exchange                    :     -83.3410021190    
 correlation                 :     -1.93008253131    
 total energy                :     -1708.36872803    
 
Density of states at Fermi energy :    43.71615018    
 (states/Hartree/unit cell)
 
Estimated indirect band gap :   0.1627461561E-03
 from k-point    133 to k-point    292
Estimated direct band gap   :   0.2940796523E-02
 at k-point    260
 
Charges :
 core                        :    20.00000000    
 valence                     :    24.00000000    
 interstitial                :    3.196462556    
 muffin-tins (core leakage)
  species :    1 (Ti)
   atom    1                 :    20.40176872     (  0.3353596512E-08)
   atom    2                 :    20.40176872     (  0.3353596512E-08)
 total in muffin-tins        :    40.80353744    
 total calculated charge     :    43.99995390    
 total charge                :    44.00000000    
 error                       :   0.4610380575E-04
 
RMS change in Kohn-Sham potential (target) :   0.4946514130E-04 (   10.00000000    )
Absolute change in total energy (target)   :   0.8639308708E-02 (  0.1000000000E-07)
 
Time (CPU seconds) :       757.67
 
+--------------------+
| Loop number :   12 |
+--------------------+
 
Energies :
 Fermi                       :     0.363563038210    
 sum of eigenvalues          :     -995.305933630    
 electron kinetic            :      1728.88876020    
 core electron kinetic       :      1590.61527702    
 Coulomb                     :     -3351.98611278    
 Coulomb potential           :     -2611.68961527    
 nuclear-nuclear             :     -235.127681616    
 electron-nuclear            :     -3622.02724706    
 Hartree                     :      505.168815896    
 Madelung                    :     -2046.14130515    
 xc potential                :     -112.505078555    
 exchange                    :     -83.3410003664    
 correlation                 :     -1.93008274576    
 total energy                :     -1708.36843570    
 
Density of states at Fermi energy :    43.72218349    
 (states/Hartree/unit cell)
 
Estimated indirect band gap :   0.1625447871E-03
 from k-point    133 to k-point    292
Estimated direct band gap   :   0.2941058256E-02
 at k-point    260
 
Charges :
 core                        :    20.00000000    
 valence                     :    24.00000000    
 interstitial                :    3.196450940    
 muffin-tins (core leakage)
  species :    1 (Ti)
   atom    1                 :    20.40177453     (  0.3441618546E-08)
   atom    2                 :    20.40177453     (  0.3441618546E-08)
 total in muffin-tins        :    40.80354906    
 total calculated charge     :    43.99995390    
 total charge                :    44.00000000    
 error                       :   0.4610419607E-04
 
Wrote STATE.OUT
 
RMS change in Kohn-Sham potential (target) :   0.2020565469E-03 (   10.00000000    )
Absolute change in total energy (target)   :   0.2452159203E-02 (  0.1000000000E-07)
 
Time (CPU seconds) :       825.75
 
+--------------------+
| Loop number :   13 |
+--------------------+
 
Energies :
 Fermi                       :     0.363562513582    
 sum of eigenvalues          :     -995.306028033    
 electron kinetic            :      1728.88869543    
 core electron kinetic       :      1590.61530264    
 Coulomb                     :     -3351.98617214    
 Coulomb potential           :     -2611.68964224    
 nuclear-nuclear             :     -235.127681616    
 electron-nuclear            :     -3622.02733880    
 Hartree                     :      505.168848282    
 Madelung                    :     -2046.14135102    
 xc potential                :     -112.505081223    
 exchange                    :     -83.3410021329    
 correlation                 :     -1.93008279984    
 total energy                :     -1708.36856164    
 
Density of states at Fermi energy :    43.72232320    
 (states/Hartree/unit cell)
 
Estimated indirect band gap :   0.1625471407E-03
 from k-point    133 to k-point    292
Estimated direct band gap   :   0.2941046185E-02
 at k-point    260
 
Charges :
 core                        :    20.00000000    
 valence                     :    24.00000000    
 interstitial                :    3.196450529    
 muffin-tins (core leakage)
  species :    1 (Ti)
   atom    1                 :    20.40177474     (  0.3382620406E-08)
   atom    2                 :    20.40177474     (  0.3382620406E-08)
 total in muffin-tins        :    40.80354947    
 total calculated charge     :    43.99995390    
 total charge                :    44.00000000    
 error                       :   0.4610413756E-04
 
RMS change in Kohn-Sham potential (target) :   0.1987719916E-04 (   10.00000000    )
Absolute change in total energy (target)   :   0.4870982468E-03 (  0.1000000000E-07)
 
Time (CPU seconds) :       895.11
 
+--------------------+
| Loop number :   14 |
+--------------------+
 
Energies :
 Fermi                       :     0.363563005247    
 sum of eigenvalues          :     -995.306066870    
 electron kinetic            :      1728.88868685    
 core electron kinetic       :      1590.61532671    
 Coulomb                     :     -3351.98623279    
 Coulomb potential           :     -2611.68966959    
 nuclear-nuclear             :     -235.127681616    
 electron-nuclear            :     -3622.02743276    
 Hartree                     :      505.168881584    
 Madelung                    :     -2046.14139800    
 xc potential                :     -112.505084129    
 exchange                    :     -83.3410041262    
 correlation                 :     -1.93008285331    
 total energy                :     -1708.36863292    
 
Density of states at Fermi energy :    43.72243258    
 (states/Hartree/unit cell)
 
Estimated indirect band gap :   0.1625403187E-03
 from k-point    133 to k-point    292
Estimated direct band gap   :   0.2941035620E-02
 at k-point    260
 
Charges :
 core                        :    20.00000000    
 valence                     :    24.00000000    
 interstitial                :    3.196449830    
 muffin-tins (core leakage)
  species :    1 (Ti)
   atom    1                 :    20.40177508     (  0.3392857550E-08)
   atom    2                 :    20.40177508     (  0.3392857550E-08)
 total in muffin-tins        :    40.80355017    
 total calculated charge     :    43.99995390    
 total charge                :    44.00000000    
 error                       :   0.4610422771E-04
 
Wrote STATE.OUT
 
RMS change in Kohn-Sham potential (target) :   0.1802647210E-03 (   10.00000000    )
Absolute change in total energy (target)   :   0.5049505216E-04 (  0.1000000000E-07)
 
Time (CPU seconds) :       963.53
 
+--------------------+
| Loop number :   15 |
+--------------------+
 
Energies :
 Fermi                       :     0.363562922250    
 sum of eigenvalues          :     -995.306086940    
 electron kinetic            :      1728.88867432    
 core electron kinetic       :      1590.61535414    
 Coulomb                     :     -3351.98624655    
 Coulomb potential           :     -2611.68967639    
 nuclear-nuclear             :     -235.127681616    
 electron-nuclear            :     -3622.02745348    
 Hartree                     :      505.168888544    
 Madelung                    :     -2046.14140835    
 xc potential                :     -112.505084869    
 exchange                    :     -83.3410046307    
 correlation                 :     -1.93008285872    
 total energy                :     -1708.36865972    
 
Density of states at Fermi energy :    43.72240270    
 (states/Hartree/unit cell)
 
Estimated indirect band gap :   0.1625330500E-03
 from k-point    133 to k-point    292
Estimated direct band gap   :   0.2941033356E-02
 at k-point    260
 
Charges :
 core                        :    20.00000000    
 valence                     :    24.00000000    
 interstitial                :    3.196449660    
 muffin-tins (core leakage)
  species :    1 (Ti)
   atom    1                 :    20.40177517     (  0.3411830818E-08)
   atom    2                 :    20.40177517     (  0.3411830818E-08)
 total in muffin-tins        :    40.80355034    
 total calculated charge     :    43.99995390    
 total charge                :    44.00000000    
 error                       :   0.4610431212E-04
 
RMS change in Kohn-Sham potential (target) :   0.1485728190E-03 (   10.00000000    )
Absolute change in total energy (target)   :   0.1417679982E-04 (  0.1000000000E-07)
 
Time (CPU seconds) :      1032.20
 
+--------------------+
| Loop number :   16 |
+--------------------+
 
Energies :
 Fermi                       :     0.363562394540    
 sum of eigenvalues          :     -995.306134606    
 electron kinetic            :      1728.88864076    
 core electron kinetic       :      1590.61534820    
 Coulomb                     :     -3351.98627153    
 Coulomb potential           :     -2611.68968935    
 nuclear-nuclear             :     -235.127681616    
 electron-nuclear            :     -3622.02749047    
 Hartree                     :      505.168900556    
 Madelung                    :     -2046.14142685    
 xc potential                :     -112.505086012    
 exchange                    :     -83.3410054436    
 correlation                 :     -1.93008287161    
 total energy                :     -1708.36871908    
 
Density of states at Fermi energy :    43.72227262    
 (states/Hartree/unit cell)
 
Estimated indirect band gap :   0.1625230066E-03
 from k-point    133 to k-point    292
Estimated direct band gap   :   0.2941021406E-02
 at k-point    260
 
Charges :
 core                        :    20.00000000    
 valence                     :    24.00000000    
 interstitial                :    3.196449484    
 muffin-tins (core leakage)
  species :    1 (Ti)
   atom    1                 :    20.40177526     (  0.3411823712E-08)
   atom    2                 :    20.40177526     (  0.3411823712E-08)
 total in muffin-tins        :    40.80355052    
 total calculated charge     :    43.99995390    
 total charge                :    44.00000000    
 error                       :   0.4610425935E-04
 
Wrote STATE.OUT
 
RMS change in Kohn-Sham potential (target) :   0.2161610971E-04 (   10.00000000    )
Absolute change in total energy (target)   :   0.6290472493E-04 (  0.1000000000E-07)
 
Time (CPU seconds) :      1102.10
 
+--------------------+
| Loop number :   17 |
+--------------------+
 
Energies :
 Fermi                       :     0.363562886001    
 sum of eigenvalues          :     -995.306124309    
 electron kinetic            :      1728.88865499    
 core electron kinetic       :      1590.61535683    
 Coulomb                     :     -3351.98628144    
 Coulomb potential           :     -2611.68969291    
 nuclear-nuclear             :     -235.127681616    
 electron-nuclear            :     -3622.02750674    
 Hartree                     :      505.168906916    
 Madelung                    :     -2046.14143499    
 xc potential                :     -112.505086393    
 exchange                    :     -83.3410056538    
 correlation                 :     -1.93008289093    
 total energy                :     -1708.36871499    
 
Density of states at Fermi energy :    43.72233168    
 (states/Hartree/unit cell)
 
Estimated indirect band gap :   0.1625191456E-03
 from k-point    133 to k-point    292
Estimated direct band gap   :   0.2941022295E-02
 at k-point    260
 
Charges :
 core                        :    20.00000000    
 valence                     :    24.00000000    
 interstitial                :    3.196449262    
 muffin-tins (core leakage)
  species :    1 (Ti)
   atom    1                 :    20.40177537     (  0.3368445078E-08)
   atom    2                 :    20.40177537     (  0.3368445078E-08)
 total in muffin-tins        :    40.80355074    
 total calculated charge     :    43.99995390    
 total charge                :    44.00000000    
 error                       :   0.4610425584E-04
 
RMS change in Kohn-Sham potential (target) :   0.2507393247E-04 (   10.00000000    )
Absolute change in total energy (target)   :   0.1163842353E-04 (  0.1000000000E-07)
 
Time (CPU seconds) :      1171.85
 
+--------------------+
| Loop number :   18 |
+--------------------+
 
Energies :
 Fermi                       :     0.363563109790    
 sum of eigenvalues          :     -995.306120188    
 electron kinetic            :      1728.88866382    
 core electron kinetic       :      1590.61535791    
 Coulomb                     :     -3351.98628919    
 Coulomb potential           :     -2611.68969730    
 nuclear-nuclear             :     -235.127681616    
 electron-nuclear            :     -3622.02751784    
 Hartree                     :      505.168910271    
 Madelung                    :     -2046.14144054    
 xc potential                :     -112.505086712    
 exchange                    :     -83.3410058772    
 correlation                 :     -1.93008289840    
 total energy                :     -1708.36871414    
 
Density of states at Fermi energy :    43.72231651    
 (states/Hartree/unit cell)
 
Estimated indirect band gap :   0.1625169246E-03
 from k-point    133 to k-point    292
Estimated direct band gap   :   0.2941019982E-02
 at k-point    260
 
Charges :
 core                        :    20.00000000    
 valence                     :    24.00000000    
 interstitial                :    3.196449172    
 muffin-tins (core leakage)
  species :    1 (Ti)
   atom    1                 :    20.40177541     (  0.3408723970E-08)
   atom    2                 :    20.40177541     (  0.3408723970E-08)
 total in muffin-tins        :    40.80355083    
 total calculated charge     :    43.99995390    
 total charge                :    44.00000000    
 error                       :   0.4610437809E-04
 
Wrote STATE.OUT
 
RMS change in Kohn-Sham potential (target) :   0.1291052249E-03 (   10.00000000    )
Absolute change in total energy (target)   :   0.2054297738E-05 (  0.1000000000E-07)
 
Time (CPU seconds) :      1238.57
 
+--------------------+
| Loop number :   19 |
+--------------------+
 
Energies :
 Fermi                       :     0.363563241776    
 sum of eigenvalues          :     -995.306111023    
 electron kinetic            :      1728.88867236    
 core electron kinetic       :      1590.61535240    
 Coulomb                     :     -3351.98628816    
 Coulomb potential           :     -2611.68969674    
 nuclear-nuclear             :     -235.127681616    
 electron-nuclear            :     -3622.02751636    
 Hartree                     :      505.168909812    
 Madelung                    :     -2046.14143980    
 xc potential                :     -112.505086651    
 exchange                    :     -83.3410058507    
 correlation                 :     -1.93008290002    
 total energy                :     -1708.36870455    
 
Density of states at Fermi energy :    43.72233130    
 (states/Hartree/unit cell)
 
Estimated indirect band gap :   0.1625198281E-03
 from k-point    133 to k-point    292
Estimated direct band gap   :   0.2941020076E-02
 at k-point    260
 
Charges :
 core                        :    20.00000000    
 valence                     :    24.00000000    
 interstitial                :    3.196449188    
 muffin-tins (core leakage)
  species :    1 (Ti)
   atom    1                 :    20.40177541     (  0.3374898583E-08)
   atom    2                 :    20.40177541     (  0.3374898583E-08)
 total in muffin-tins        :    40.80355081    
 total calculated charge     :    43.99995390    
 total charge                :    44.00000000    
 error                       :   0.4610427497E-04
 
RMS change in Kohn-Sham potential (target) :   0.1172150065E-03 (   10.00000000    )
Absolute change in total energy (target)   :   0.9073512047E-05 (  0.1000000000E-07)
 
Time (CPU seconds) :      1307.90
 
+--------------------+
| Loop number :   20 |
+--------------------+
 
Energies :
 Fermi                       :     0.363563265353    
 sum of eigenvalues          :     -995.306099101    
 electron kinetic            :      1728.88868045    
 core electron kinetic       :      1590.61537018    
 Coulomb                     :     -3351.98628014    
 Coulomb potential           :     -2611.68969326    
 nuclear-nuclear             :     -235.127681616    
 electron-nuclear            :     -3622.02750378    
 Hartree                     :      505.168905259    
 Madelung                    :     -2046.14143351    
 xc potential                :     -112.505086284    
 exchange                    :     -83.3410056270    
 correlation                 :     -1.93008289283    
 total energy                :     -1708.36868821    
 
Density of states at Fermi energy :    43.72232781    
 (states/Hartree/unit cell)
 
Estimated indirect band gap :   0.1625249952E-03
 from k-point    133 to k-point    292
Estimated direct band gap   :   0.2941021141E-02
 at k-point    260
 
Charges :
 core                        :    20.00000000    
 valence                     :    24.00000000    
 interstitial                :    3.196449317    
 muffin-tins (core leakage)
  species :    1 (Ti)
   atom    1                 :    20.40177534     (  0.3447865993E-08)
   atom    2                 :    20.40177534     (  0.3447865993E-08)
 total in muffin-tins        :    40.80355068    
 total calculated charge     :    43.99995390    
 total charge                :    44.00000000    
 error                       :   0.4610440293E-04
 
Wrote STATE.OUT
 
RMS change in Kohn-Sham potential (target) :   0.1450742629E-03 (   10.00000000    )
Absolute change in total energy (target)   :   0.1860731209E-04 (  0.1000000000E-07)
 
Time (CPU seconds) :      1376.80
 
+--------------------+
| Loop number :   21 |
+--------------------+
 
Energies :
 Fermi                       :     0.363563217704    
 sum of eigenvalues          :     -995.306112303    
 electron kinetic            :      1728.88867074    
 core electron kinetic       :      1590.61536117    
 Coulomb                     :     -3351.98628728    
 Coulomb potential           :     -2611.68969644    
 nuclear-nuclear             :     -235.127681616    
 electron-nuclear            :     -3622.02751488    
 Hartree                     :      505.168909221    
 Madelung                    :     -2046.14143906    
 xc potential                :     -112.505086608    
 exchange                    :     -83.3410058099    
 correlation                 :     -1.93008289800    
 total energy                :     -1708.36870524    
 
Density of states at Fermi energy :    43.72232559    
 (states/Hartree/unit cell)
 
Estimated indirect band gap :   0.1625187481E-03
 from k-point    133 to k-point    292
Estimated direct band gap   :   0.2941020774E-02
 at k-point    260
 
Charges :
 core                        :    20.00000000    
 valence                     :    24.00000000    
 interstitial                :    3.196449198    
 muffin-tins (core leakage)
  species :    1 (Ti)
   atom    1                 :    20.40177540     (  0.3368803903E-08)
   atom    2                 :    20.40177540     (  0.3368803903E-08)
 total in muffin-tins        :    40.80355080    
 total calculated charge     :    43.99995390    
 total charge                :    44.00000000    
 error                       :   0.4610425930E-04
 
RMS change in Kohn-Sham potential (target) :   0.2190772443E-04 (   10.00000000    )
Absolute change in total energy (target)   :   0.1237600168E-04 (  0.1000000000E-07)
 
Time (CPU seconds) :      1445.67
 
+--------------------+
| Loop number :   22 |
+--------------------+
 
Energies :
 Fermi                       :     0.363563327884    
 sum of eigenvalues          :     -995.306108599    
 electron kinetic            :      1728.88867642    
 core electron kinetic       :      1590.61536750    
 Coulomb                     :     -3351.98629042    
 Coulomb potential           :     -2611.68969828    
 nuclear-nuclear             :     -235.127681616    
 electron-nuclear            :     -3622.02751932    
 Hartree                     :      505.168910520    
 Madelung                    :     -2046.14144128    
 xc potential                :     -112.505086739    
 exchange                    :     -83.3410059097    
 correlation                 :     -1.93008290184    
 total energy                :     -1708.36870281    
 
Density of states at Fermi energy :    43.72231159    
 (states/Hartree/unit cell)
 
Estimated indirect band gap :   0.1625186536E-03
 from k-point    133 to k-point    292
Estimated direct band gap   :   0.2941019327E-02
 at k-point    260
 
Charges :
 core                        :    20.00000000    
 valence                     :    24.00000000    
 interstitial                :    3.196449172    
 muffin-tins (core leakage)
  species :    1 (Ti)
   atom    1                 :    20.40177541     (  0.3382389480E-08)
   atom    2                 :    20.40177541     (  0.3382389480E-08)
 total in muffin-tins        :    40.80355083    
 total calculated charge     :    43.99995390    
 total charge                :    44.00000000    
 error                       :   0.4610431900E-04
 
Wrote STATE.OUT
 
RMS change in Kohn-Sham potential (target) :   0.1538486627E-03 (   10.00000000    )
Absolute change in total energy (target)   :   0.6621337434E-06 (  0.1000000000E-07)
 
Time (CPU seconds) :      1514.76
 
+--------------------+
| Loop number :   23 |
+--------------------+
 
Energies :
 Fermi                       :     0.363563394150    
 sum of eigenvalues          :     -995.306107720    
 electron kinetic            :      1728.88867797    
 core electron kinetic       :      1590.61536858    
 Coulomb                     :     -3351.98629255    
 Coulomb potential           :     -2611.68969886    
 nuclear-nuclear             :     -235.127681616    
 electron-nuclear            :     -3622.02752302    
 Hartree                     :      505.168912081    
 Madelung                    :     -2046.14144313    
 xc potential                :     -112.505086833    
 exchange                    :     -83.3410059694    
 correlation                 :     -1.93008290571    
 total energy                :     -1708.36870346    
 
Density of states at Fermi energy :    43.72232186    
 (states/Hartree/unit cell)
 
Estimated indirect band gap :   0.1625174271E-03
 from k-point    133 to k-point    292
Estimated direct band gap   :   0.2941019282E-02
 at k-point    260
 
Charges :
 core                        :    20.00000000    
 valence                     :    24.00000000    
 interstitial                :    3.196449117    
 muffin-tins (core leakage)
  species :    1 (Ti)
   atom    1                 :    20.40177544     (  0.3369164503E-08)
   atom    2                 :    20.40177544     (  0.3369164503E-08)
 total in muffin-tins        :    40.80355088    
 total calculated charge     :    43.99995390    
 total charge                :    44.00000000    
 error                       :   0.4610427739E-04
 
RMS change in Kohn-Sham potential (target) :   0.4766027445E-05 (   10.00000000    )
Absolute change in total energy (target)   :   0.8161823644E-06 (  0.1000000000E-07)
 
Time (CPU seconds) :      1584.11
 
+--------------------+
| Loop number :   24 |
+--------------------+
 
Energies :
 Fermi                       :     0.363563436851    
 sum of eigenvalues          :     -995.306106437    
 electron kinetic            :      1728.88867996    
 core electron kinetic       :      1590.61537152    
 Coulomb                     :     -3351.98629362    
 Coulomb potential           :     -2611.68969951    
 nuclear-nuclear             :     -235.127681616    
 electron-nuclear            :     -3622.02752450    
 Hartree                     :      505.168912492    
 Madelung                    :     -2046.14144387    
 xc potential                :     -112.505086881    
 exchange                    :     -83.3410060031    
 correlation                 :     -1.93008290756    
 total energy                :     -1708.36870257    
 
Density of states at Fermi energy :    43.72231396    
 (states/Hartree/unit cell)
 
Estimated indirect band gap :   0.1625165449E-03
 from k-point    133 to k-point    292
Estimated direct band gap   :   0.2941018766E-02
 at k-point    260
 
Charges :
 core                        :    20.00000000    
 valence                     :    24.00000000    
 interstitial                :    3.196449097    
 muffin-tins (core leakage)
  species :    1 (Ti)
   atom    1                 :    20.40177545     (  0.3358350043E-08)
   atom    2                 :    20.40177545     (  0.3358350043E-08)
 total in muffin-tins        :    40.80355090    
 total calculated charge     :    43.99995390    
 total charge                :    44.00000000    
 error                       :   0.4610426198E-04
 
Wrote STATE.OUT
 
RMS change in Kohn-Sham potential (target) :   0.6661320738E-05 (   10.00000000    )
Absolute change in total energy (target)   :   0.6800366918E-06 (  0.1000000000E-07)
 
Time (CPU seconds) :      1653.94
 
+--------------------+
| Loop number :   25 |
+--------------------+
 
Energies :
 Fermi                       :     0.363563442304    
 sum of eigenvalues          :     -995.306107358    
 electron kinetic            :      1728.88867949    
 core electron kinetic       :      1590.61537156    
 Coulomb                     :     -3351.98629457    
 Coulomb potential           :     -2611.68969993    
 nuclear-nuclear             :     -235.127681616    
 electron-nuclear            :     -3622.02752598    
 Hartree                     :      505.168913026    
 Madelung                    :     -2046.14144461    
 xc potential                :     -112.505086924    
 exchange                    :     -83.3410060295    
 correlation                 :     -1.93008290891    
 total energy                :     -1708.36870401    
 
Density of states at Fermi energy :    43.72231177    
 (states/Hartree/unit cell)
 
Estimated indirect band gap :   0.1625151367E-03
 from k-point    133 to k-point    292
Estimated direct band gap   :   0.2941018519E-02
 at k-point    260
 
Charges :
 core                        :    20.00000000    
 valence                     :    24.00000000    
 interstitial                :    3.196449068    
 muffin-tins (core leakage)
  species :    1 (Ti)
   atom    1                 :    20.40177547     (  0.3398408666E-08)
   atom    2                 :    20.40177547     (  0.3398408666E-08)
 total in muffin-tins        :    40.80355093    
 total calculated charge     :    43.99995390    
 total charge                :    44.00000000    
 error                       :   0.4610435560E-04
 
RMS change in Kohn-Sham potential (target) :   0.6619823394E-05 (   10.00000000    )
Absolute change in total energy (target)   :   0.1269594350E-05 (  0.1000000000E-07)
 
Time (CPU seconds) :      1723.68
 
+--------------------+
| Loop number :   26 |
+--------------------+
 
Energies :
 Fermi                       :     0.363563449179    
 sum of eigenvalues          :     -995.306107345    
 electron kinetic            :      1728.88867963    
 core electron kinetic       :      1590.61537176    
 Coulomb                     :     -3351.98629499    
 Coulomb potential           :     -2611.68970004    
 nuclear-nuclear             :     -235.127681616    
 electron-nuclear            :     -3622.02752672    
 Hartree                     :      505.168913339    
 Madelung                    :     -2046.14144497    
 xc potential                :     -112.505086938    
 exchange                    :     -83.3410060383    
 correlation                 :     -1.93008290937    
 total energy                :     -1708.36870431    
 
Density of states at Fermi energy :    43.72231227    
 (states/Hartree/unit cell)
 
Estimated indirect band gap :   0.1625147398E-03
 from k-point    133 to k-point    292
Estimated direct band gap   :   0.2941018468E-02
 at k-point    260
 
Charges :
 core                        :    20.00000000    
 valence                     :    24.00000000    
 interstitial                :    3.196449058    
 muffin-tins (core leakage)
  species :    1 (Ti)
   atom    1                 :    20.40177547     (  0.3409082794E-08)
   atom    2                 :    20.40177547     (  0.3409082794E-08)
 total in muffin-tins        :    40.80355094    
 total calculated charge     :    43.99995390    
 total charge                :    44.00000000    
 error                       :   0.4610433860E-04
 
Wrote STATE.OUT
 
RMS change in Kohn-Sham potential (target) :   0.5375454054E-04 (   10.00000000    )
Absolute change in total energy (target)   :   0.6130005659E-06 (  0.1000000000E-07)
 
Time (CPU seconds) :      1792.29
 
+--------------------+
| Loop number :   27 |
+--------------------+
 
Energies :
 Fermi                       :     0.363563481023    
 sum of eigenvalues          :     -995.306106600    
 electron kinetic            :      1728.88868074    
 core electron kinetic       :      1590.61537392    
 Coulomb                     :     -3351.98629590    
 Coulomb potential           :     -2611.68970036    
 nuclear-nuclear             :     -235.127681616    
 electron-nuclear            :     -3622.02752820    
 Hartree                     :      505.168913918    
 Madelung                    :     -2046.14144571    
 xc potential                :     -112.505086977    
 exchange                    :     -83.3410060616    
 correlation                 :     -1.93008291099    
 total energy                :     -1708.36870413    
 
Density of states at Fermi energy :    43.72231257    
 (states/Hartree/unit cell)
 
Estimated indirect band gap :   0.1625137379E-03
 from k-point    133 to k-point    292
Estimated direct band gap   :   0.2941018335E-02
 at k-point    260
 
Charges :
 core                        :    20.00000000    
 valence                     :    24.00000000    
 interstitial                :    3.196449031    
 muffin-tins (core leakage)
  species :    1 (Ti)
   atom    1                 :    20.40177548     (  0.3371793511E-08)
   atom    2                 :    20.40177548     (  0.3371793511E-08)
 total in muffin-tins        :    40.80355097    
 total calculated charge     :    43.99995390    
 total charge                :    44.00000000    
 error                       :   0.4610432183E-04
 
RMS change in Kohn-Sham potential (target) :   0.5429655637E-04 (   10.00000000    )
Absolute change in total energy (target)   :   0.2644515007E-07 (  0.1000000000E-07)
 
Time (CPU seconds) :      1859.79
 
+--------------------+
| Loop number :   28 |
+--------------------+
 
Energies :
 Fermi                       :     0.363563421273    
 sum of eigenvalues          :     -995.306109192    
 electron kinetic            :      1728.88867752    
 core electron kinetic       :      1590.61537136    
 Coulomb                     :     -3351.98629486    
 Coulomb potential           :     -2611.68969977    
 nuclear-nuclear             :     -235.127681616    
 electron-nuclear            :     -3622.02752672    
 Hartree                     :      505.168913472    
 Madelung                    :     -2046.14144497    
 xc potential                :     -112.505086941    
 exchange                    :     -83.3410060327    
 correlation                 :     -1.93008290945    
 total energy                :     -1708.36870628    
 
Density of states at Fermi energy :    43.72232048    
 (states/Hartree/unit cell)
 
Estimated indirect band gap :   0.1625139433E-03
 from k-point    133 to k-point    292
Estimated direct band gap   :   0.2941018797E-02
 at k-point    260
 
Charges :
 core                        :    20.00000000    
 valence                     :    24.00000000    
 interstitial                :    3.196449041    
 muffin-tins (core leakage)
  species :    1 (Ti)
   atom    1                 :    20.40177548     (  0.3330329790E-08)
   atom    2                 :    20.40177548     (  0.3330329790E-08)
 total in muffin-tins        :    40.80355096    
 total calculated charge     :    43.99995390    
 total charge                :    44.00000000    
 error                       :   0.4610421264E-04
 
Wrote STATE.OUT
 
RMS change in Kohn-Sham potential (target) :   0.3127225296E-04 (   10.00000000    )
Absolute change in total energy (target)   :   0.2145202188E-05 (  0.1000000000E-07)
 
Time (CPU seconds) :      1927.96
 
+--------------------+
| Loop number :   29 |
+--------------------+
 
Energies :
 Fermi                       :     0.363563426359    
 sum of eigenvalues          :     -995.306109177    
 electron kinetic            :      1728.88867761    
 core electron kinetic       :      1590.61537174    
 Coulomb                     :     -3351.98629490    
 Coulomb potential           :     -2611.68969984    
 nuclear-nuclear             :     -235.127681616    
 electron-nuclear            :     -3622.02752672    
 Hartree                     :      505.168913438    
 Madelung                    :     -2046.14144497    
 xc potential                :     -112.505086946    
 exchange                    :     -83.3410060373    
 correlation                 :     -1.93008290949    
 total energy                :     -1708.36870623    
 
Density of states at Fermi energy :    43.72232169    
 (states/Hartree/unit cell)
 
Estimated indirect band gap :   0.1625135893E-03
 from k-point    133 to k-point    292
Estimated direct band gap   :   0.2941018792E-02
 at k-point    260
 
Charges :
 core                        :    20.00000000    
 valence                     :    24.00000000    
 interstitial                :    3.196449032    
 muffin-tins (core leakage)
  species :    1 (Ti)
   atom    1                 :    20.40177548     (  0.3400575821E-08)
   atom    2                 :    20.40177548     (  0.3400575821E-08)
 total in muffin-tins        :    40.80355097    
 total calculated charge     :    43.99995390    
 total charge                :    44.00000000    
 error                       :   0.4610432581E-04
 
RMS change in Kohn-Sham potential (target) :   0.3114068945E-04 (   10.00000000    )
Absolute change in total energy (target)   :   0.4857768090E-06 (  0.1000000000E-07)
 
Time (CPU seconds) :      1997.07
 
+--------------------+
| Loop number :   30 |
+--------------------+
 
Energies :
 Fermi                       :     0.363563424381    
 sum of eigenvalues          :     -995.306109519    
 electron kinetic            :      1728.88867731    
 core electron kinetic       :      1590.61537153    
 Coulomb                     :     -3351.98629528    
 Coulomb potential           :     -2611.68969987    
 nuclear-nuclear             :     -235.127681616    
 electron-nuclear            :     -3622.02752746    
 Hartree                     :      505.168913795    
 Madelung                    :     -2046.14144534    
 xc potential                :     -112.505086958    
 exchange                    :     -83.3410060424    
 correlation                 :     -1.93008290966    
 total energy                :     -1708.36870692    
 
Density of states at Fermi energy :    43.72232356    
 (states/Hartree/unit cell)
 
Estimated indirect band gap :   0.1625131468E-03
 from k-point    133 to k-point    292
Estimated direct band gap   :   0.2941018808E-02
 at k-point    260
 
Charges :
 core                        :    20.00000000    
 valence                     :    24.00000000    
 interstitial                :    3.196449021    
 muffin-tins (core leakage)
  species :    1 (Ti)
   atom    1                 :    20.40177549     (  0.3376040780E-08)
   atom    2                 :    20.40177549     (  0.3376040780E-08)
 total in muffin-tins        :    40.80355098    
 total calculated charge     :    43.99995390    
 total charge                :    44.00000000    
 error                       :   0.4610428773E-04
 
Wrote STATE.OUT
 
RMS change in Kohn-Sham potential (target) :   0.7170593441E-05 (   10.00000000    )
Absolute change in total energy (target)   :   0.8135527878E-06 (  0.1000000000E-07)
 
Time (CPU seconds) :      2062.20
 
+--------------------+
| Loop number :   31 |
+--------------------+
 
Energies :
 Fermi                       :     0.363563430791    
 sum of eigenvalues          :     -995.306109338    
 electron kinetic            :      1728.88867749    
 core electron kinetic       :      1590.61537179    
 Coulomb                     :     -3351.98629528    
 Coulomb potential           :     -2611.68969987    
 nuclear-nuclear             :     -235.127681616    
 electron-nuclear            :     -3622.02752746    
 Hartree                     :      505.168913796    
 Madelung                    :     -2046.14144534    
 xc potential                :     -112.505086961    
 exchange                    :     -83.3410060434    
 correlation                 :     -1.93008291022    
 total energy                :     -1708.36870674    
 
Density of states at Fermi energy :    43.72232427    
 (states/Hartree/unit cell)
 
Estimated indirect band gap :   0.1625129135E-03
 from k-point    133 to k-point    292
Estimated direct band gap   :   0.2941018799E-02
 at k-point    260
 
Charges :
 core                        :    20.00000000    
 valence                     :    24.00000000    
 interstitial                :    3.196449015    
 muffin-tins (core leakage)
  species :    1 (Ti)
   atom    1                 :    20.40177549     (  0.3407025773E-08)
   atom    2                 :    20.40177549     (  0.3407025773E-08)
 total in muffin-tins        :    40.80355099    
 total calculated charge     :    43.99995390    
 total charge                :    44.00000000    
 error                       :   0.4610433925E-04
 
RMS change in Kohn-Sham potential (target) :   0.1222733839E-03 (   10.00000000    )
Absolute change in total energy (target)   :   0.2214414963E-07 (  0.1000000000E-07)
 
Time (CPU seconds) :      2132.75
 
+--------------------+
| Loop number :   32 |
+--------------------+
 
Energies :
 Fermi                       :     0.363563416431    
 sum of eigenvalues          :     -995.306109812    
 electron kinetic            :      1728.88867690    
 core electron kinetic       :      1590.61537138    
 Coulomb                     :     -3351.98629486    
 Coulomb potential           :     -2611.68969977    
 nuclear-nuclear             :     -235.127681616    
 electron-nuclear            :     -3622.02752672    
 Hartree                     :      505.168913475    
 Madelung                    :     -2046.14144497    
 xc potential                :     -112.505086949    
 exchange                    :     -83.3410060364    
 correlation                 :     -1.93008290966    
 total energy                :     -1708.36870690    
 
Density of states at Fermi energy :    43.72232384    
 (states/Hartree/unit cell)
 
Estimated indirect band gap :   0.1625132504E-03
 from k-point    133 to k-point    292
Estimated direct band gap   :   0.2941018838E-02
 at k-point    260
 
Charges :
 core                        :    20.00000000    
 valence                     :    24.00000000    
 interstitial                :    3.196449025    
 muffin-tins (core leakage)
  species :    1 (Ti)
   atom    1                 :    20.40177549     (  0.3396284143E-08)
   atom    2                 :    20.40177549     (  0.3396284143E-08)
 total in muffin-tins        :    40.80355098    
 total calculated charge     :    43.99995390    
 total charge                :    44.00000000    
 error                       :   0.4610430830E-04
 
Wrote STATE.OUT
 
RMS change in Kohn-Sham potential (target) :   0.1947511588E-03 (   10.00000000    )
Absolute change in total energy (target)   :   0.1639709808E-06 (  0.1000000000E-07)
 
Time (CPU seconds) :      2202.24
 
+--------------------+
| Loop number :   33 |
+--------------------+
 
Energies :
 Fermi                       :     0.363563418651    
 sum of eigenvalues          :     -995.306109802    
 electron kinetic            :      1728.88867693    
 core electron kinetic       :      1590.61537135    
 Coulomb                     :     -3351.98629524    
 Coulomb potential           :     -2611.68969978    
 nuclear-nuclear             :     -235.127681616    
 electron-nuclear            :     -3622.02752746    
 Hartree                     :      505.168913839    
 Madelung                    :     -2046.14144534    
 xc potential                :     -112.505086953    
 exchange                    :     -83.3410060384    
 correlation                 :     -1.93008290982    
 total energy                :     -1708.36870725    
 
Density of states at Fermi energy :    43.72232465    
 (states/Hartree/unit cell)
 
Estimated indirect band gap :   0.1625130816E-03
 from k-point    133 to k-point    292
Estimated direct band gap   :   0.2941018857E-02
 at k-point    260
 
Charges :
 core                        :    20.00000000    
 valence                     :    24.00000000    
 interstitial                :    3.196449020    
 muffin-tins (core leakage)
  species :    1 (Ti)
   atom    1                 :    20.40177549     (  0.3375324908E-08)
   atom    2                 :    20.40177549     (  0.3375324908E-08)
 total in muffin-tins        :    40.80355098    
 total calculated charge     :    43.99995390    
 total charge                :    44.00000000    
 error                       :   0.4610431108E-04
 
RMS change in Kohn-Sham potential (target) :   0.2322960912E-04 (   10.00000000    )
Absolute change in total energy (target)   :   0.3920347353E-06 (  0.1000000000E-07)
 
Time (CPU seconds) :      2271.53
 
+--------------------+
| Loop number :   34 |
+--------------------+
 
Energies :
 Fermi                       :     0.363563427123    
 sum of eigenvalues          :     -995.306109548    
 electron kinetic            :      1728.88867727    
 core electron kinetic       :      1590.61537165    
 Coulomb                     :     -3351.98629527    
 Coulomb potential           :     -2611.68969985    
 nuclear-nuclear             :     -235.127681616    
 electron-nuclear            :     -3622.02752746    
 Hartree                     :      505.168913802    
 Madelung                    :     -2046.14144534    
 xc potential                :     -112.505086964    
 exchange                    :     -83.3410060444    
 correlation                 :     -1.93008291012    
 total energy                :     -1708.36870696    
 
Density of states at Fermi energy :    43.72232545    
 (states/Hartree/unit cell)
 
Estimated indirect band gap :   0.1625127855E-03
 from k-point    133 to k-point    292
Estimated direct band gap   :   0.2941018837E-02
 at k-point    260
 
Charges :
 core                        :    20.00000000    
 valence                     :    24.00000000    
 interstitial                :    3.196449012    
 muffin-tins (core leakage)
  species :    1 (Ti)
   atom    1                 :    20.40177549     (  0.3326769971E-08)
   atom    2                 :    20.40177549     (  0.3326769971E-08)
 total in muffin-tins        :    40.80355099    
 total calculated charge     :    43.99995390    
 total charge                :    44.00000000    
 error                       :   0.4610421561E-04
 
Wrote STATE.OUT
 
RMS change in Kohn-Sham potential (target) :   0.1587551982E-04 (   10.00000000    )
Absolute change in total energy (target)   :   0.1962816896E-06 (  0.1000000000E-07)
 
Time (CPU seconds) :      2339.77
 
+--------------------+
| Loop number :   35 |
+--------------------+
 
Energies :
 Fermi                       :     0.363563431683    
 sum of eigenvalues          :     -995.306109441    
 electron kinetic            :      1728.88867739    
 core electron kinetic       :      1590.61537163    
 Coulomb                     :     -3351.98629528    
 Coulomb potential           :     -2611.68969986    
 nuclear-nuclear             :     -235.127681616    
 electron-nuclear            :     -3622.02752746    
 Hartree                     :      505.168913797    
 Madelung                    :     -2046.14144534    
 xc potential                :     -112.505086965    
 exchange                    :     -83.3410060452    
 correlation                 :     -1.93008291033    
 total energy                :     -1708.36870685    
 
Density of states at Fermi energy :    43.72232652    
 (states/Hartree/unit cell)
 
Estimated indirect band gap :   0.1625125365E-03
 from k-point    133 to k-point    292
Estimated direct band gap   :   0.2941018846E-02
 at k-point    260
 
Charges :
 core                        :    20.00000000    
 valence                     :    24.00000000    
 interstitial                :    3.196449006    
 muffin-tins (core leakage)
  species :    1 (Ti)
   atom    1                 :    20.40177550     (  0.3368214152E-08)
   atom    2                 :    20.40177550     (  0.3368214152E-08)
 total in muffin-tins        :    40.80355099    
 total calculated charge     :    43.99995390    
 total charge                :    44.00000000    
 error                       :   0.4610429445E-04
 
RMS change in Kohn-Sham potential (target) :   0.1984021099E-03 (   10.00000000    )
Absolute change in total energy (target)   :   0.1613443601E-06 (  0.1000000000E-07)
 
Time (CPU seconds) :      2408.61
 
+--------------------+
| Loop number :   36 |
+--------------------+
 
Energies :
 Fermi                       :     0.363563437620    
 sum of eigenvalues          :     -995.306109192    
 electron kinetic            :      1728.88867764    
 core electron kinetic       :      1590.61537175    
 Coulomb                     :     -3351.98629528    
 Coulomb potential           :     -2611.68969986    
 nuclear-nuclear             :     -235.127681616    
 electron-nuclear            :     -3622.02752746    
 Hartree                     :      505.168913796    
 Madelung                    :     -2046.14144534    
 xc potential                :     -112.505086968    
 exchange                    :     -83.3410060475    
 correlation                 :     -1.93008291065    
 total energy                :     -1708.36870659    
 
Density of states at Fermi energy :    43.72232712    
 (states/Hartree/unit cell)
 
Estimated indirect band gap :   0.1625124504E-03
 from k-point    133 to k-point    292
Estimated direct band gap   :   0.2941018860E-02
 at k-point    260
 
Charges :
 core                        :    20.00000000    
 valence                     :    24.00000000    
 interstitial                :    3.196449002    
 muffin-tins (core leakage)
  species :    1 (Ti)
   atom    1                 :    20.40177550     (  0.3322369935E-08)
   atom    2                 :    20.40177550     (  0.3322369935E-08)
 total in muffin-tins        :    40.80355100    
 total calculated charge     :    43.99995390    
 total charge                :    44.00000000    
 error                       :   0.4610421897E-04
 
Wrote STATE.OUT
 
RMS change in Kohn-Sham potential (target) :   0.7433746607E-05 (   10.00000000    )
Absolute change in total energy (target)   :   0.2912170203E-06 (  0.1000000000E-07)
 
Time (CPU seconds) :      2477.55
 
+--------------------+
| Loop number :   37 |
+--------------------+
 
Energies :
 Fermi                       :     0.363563442066    
 sum of eigenvalues          :     -995.306109013    
 electron kinetic            :      1728.88867781    
 core electron kinetic       :      1590.61537183    
 Coulomb                     :     -3351.98629527    
 Coulomb potential           :     -2611.68969985    
 nuclear-nuclear             :     -235.127681616    
 electron-nuclear            :     -3622.02752746    
 Hartree                     :      505.168913802    
 Madelung                    :     -2046.14144534    
 xc potential                :     -112.505086970    
 exchange                    :     -83.3410060474    
 correlation                 :     -1.93008291081    
 total energy                :     -1708.36870642    
 
Density of states at Fermi energy :    43.72232805    
 (states/Hartree/unit cell)
 
Estimated indirect band gap :   0.1625123250E-03
 from k-point    133 to k-point    292
Estimated direct band gap   :   0.2941018880E-02
 at k-point    260
 
Charges :
 core                        :    20.00000000    
 valence                     :    24.00000000    
 interstitial                :    3.196448998    
 muffin-tins (core leakage)
  species :    1 (Ti)
   atom    1                 :    20.40177550     (  0.3364185375E-08)
   atom    2                 :    20.40177550     (  0.3364185375E-08)
 total in muffin-tins        :    40.80355100    
 total calculated charge     :    43.99995390    
 total charge                :    44.00000000    
 error                       :   0.4610424850E-04
 
RMS change in Kohn-Sham potential (target) :   0.6231367671E-04 (   10.00000000    )
Absolute change in total energy (target)   :   0.2473407221E-06 (  0.1000000000E-07)
 
Time (CPU seconds) :      2545.46
 
+--------------------+
| Loop number :   38 |
+--------------------+
 
Energies :
 Fermi                       :     0.363563443371    
 sum of eigenvalues          :     -995.306108955    
 electron kinetic            :      1728.88867785    
 core electron kinetic       :      1590.61537188    
 Coulomb                     :     -3351.98629526    
 Coulomb potential           :     -2611.68969984    
 nuclear-nuclear             :     -235.127681616    
 electron-nuclear            :     -3622.02752746    
 Hartree                     :      505.168913809    
 Madelung                    :     -2046.14144534    
 xc potential                :     -112.505086968    
 exchange                    :     -83.3410060467    
 correlation                 :     -1.93008291081    
 total energy                :     -1708.36870637    
 
Density of states at Fermi energy :    43.72232842    
 (states/Hartree/unit cell)
 
Estimated indirect band gap :   0.1625122853E-03
 from k-point    133 to k-point    292
Estimated direct band gap   :   0.2941018892E-02
 at k-point    260
 
Charges :
 core                        :    20.00000000    
 valence                     :    24.00000000    
 interstitial                :    3.196448997    
 muffin-tins (core leakage)
  species :    1 (Ti)
   atom    1                 :    20.40177550     (  0.3418534789E-08)
   atom    2                 :    20.40177550     (  0.3418534789E-08)
 total in muffin-tins        :    40.80355100    
 total calculated charge     :    43.99995390    
 total charge                :    44.00000000    
 error                       :   0.4610436902E-04
 
Wrote STATE.OUT
 
RMS change in Kohn-Sham potential (target) :   0.1883817900E-03 (   10.00000000    )
Absolute change in total energy (target)   :   0.1116850399E-06 (  0.1000000000E-07)
 
Time (CPU seconds) :      2614.29
 
+--------------------+
| Loop number :   39 |
+--------------------+
 
Energies :
 Fermi                       :     0.363563441573    
 sum of eigenvalues          :     -995.306109036    
 electron kinetic            :      1728.88867778    
 core electron kinetic       :      1590.61537184    
 Coulomb                     :     -3351.98629527    
 Coulomb potential           :     -2611.68969984    
 nuclear-nuclear             :     -235.127681616    
 electron-nuclear            :     -3622.02752746    
 Hartree                     :      505.168913807    
 Madelung                    :     -2046.14144534    
 xc potential                :     -112.505086970    
 exchange                    :     -83.3410060476    
 correlation                 :     -1.93008291076    
 total energy                :     -1708.36870645    
 
Density of states at Fermi energy :    43.72232844    
 (states/Hartree/unit cell)
 
Estimated indirect band gap :   0.1625123019E-03
 from k-point    133 to k-point    292
Estimated direct band gap   :   0.2941018894E-02
 at k-point    260
 
Charges :
 core                        :    20.00000000    
 valence                     :    24.00000000    
 interstitial                :    3.196448998    
 muffin-tins (core leakage)
  species :    1 (Ti)
   atom    1                 :    20.40177550     (  0.3375673074E-08)
   atom    2                 :    20.40177550     (  0.3375673074E-08)
 total in muffin-tins        :    40.80355100    
 total calculated charge     :    43.99995390    
 total charge                :    44.00000000    
 error                       :   0.4610429196E-04
 
RMS change in Kohn-Sham potential (target) :   0.1307756257E-03 (   10.00000000    )
Absolute change in total energy (target)   :   0.5093033906E-07 (  0.1000000000E-07)
 
Time (CPU seconds) :      2683.42
 
+--------------------+
| Loop number :   40 |
+--------------------+
 
Energies :
 Fermi                       :     0.363563441395    
 sum of eigenvalues          :     -995.306109042    
 electron kinetic            :      1728.88867776    
 core electron kinetic       :      1590.61537173    
 Coulomb                     :     -3351.98629526    
 Coulomb potential           :     -2611.68969983    
 nuclear-nuclear             :     -235.127681616    
 electron-nuclear            :     -3622.02752746    
 Hartree                     :      505.168913814    
 Madelung                    :     -2046.14144534    
 xc potential                :     -112.505086972    
 exchange                    :     -83.3410060470    
 correlation                 :     -1.93008291090    
 total energy                :     -1708.36870646    
 
Density of states at Fermi energy :    43.72232841    
 (states/Hartree/unit cell)
 
Estimated indirect band gap :   0.1625122991E-03
 from k-point    133 to k-point    292
Estimated direct band gap   :   0.2941018897E-02
 at k-point    260
 
Charges :
 core                        :    20.00000000    
 valence                     :    24.00000000    
 interstitial                :    3.196448998    
 muffin-tins (core leakage)
  species :    1 (Ti)
   atom    1                 :    20.40177550     (  0.3338865184E-08)
   atom    2                 :    20.40177550     (  0.3338865184E-08)
 total in muffin-tins        :    40.80355100    
 total calculated charge     :    43.99995390    
 total charge                :    44.00000000    
 error                       :   0.4610425908E-04
 
Wrote STATE.OUT
 
RMS change in Kohn-Sham potential (target) :   0.1970022376E-03 (   10.00000000    )
Absolute change in total energy (target)   :   0.2198089533E-07 (  0.1000000000E-07)
 
Time (CPU seconds) :      2754.07
 
+--------------------+
| Loop number :   41 |
+--------------------+
 
Energies :
 Fermi                       :     0.363563445903    
 sum of eigenvalues          :     -995.306108838    
 electron kinetic            :      1728.88867794    
 core electron kinetic       :      1590.61537172    
 Coulomb                     :     -3351.98629525    
 Coulomb potential           :     -2611.68969981    
 nuclear-nuclear             :     -235.127681616    
 electron-nuclear            :     -3622.02752746    
 Hartree                     :      505.168913823    
 Madelung                    :     -2046.14144534    
 xc potential                :     -112.505086970    
 exchange                    :     -83.3410060464    
 correlation                 :     -1.93008291122    
 total energy                :     -1708.36870627    
 
Density of states at Fermi energy :    43.72232886    
 (states/Hartree/unit cell)
 
Estimated indirect band gap :   0.1625122374E-03
 from k-point    133 to k-point    292
Estimated direct band gap   :   0.2941018914E-02
 at k-point    260
 
Charges :
 core                        :    20.00000000    
 valence                     :    24.00000000    
 interstitial                :    3.196448996    
 muffin-tins (core leakage)
  species :    1 (Ti)
   atom    1                 :    20.40177550     (  0.3313973096E-08)
   atom    2                 :    20.40177550     (  0.3313973096E-08)
 total in muffin-tins        :    40.80355100    
 total calculated charge     :    43.99995390    
 total charge                :    44.00000000    
 error                       :   0.4610420508E-04
 
RMS change in Kohn-Sham potential (target) :   0.1639611322E-03 (   10.00000000    )
Absolute change in total energy (target)   :   0.1874618647E-06 (  0.1000000000E-07)
 
Time (CPU seconds) :      2821.67
 
+--------------------+
| Loop number :   42 |
+--------------------+
 
Energies :
 Fermi                       :     0.363563452201    
 sum of eigenvalues          :     -995.306108559    
 electron kinetic            :      1728.88867823    
 core electron kinetic       :      1590.61537196    
 Coulomb                     :     -3351.98629562    
 Coulomb potential           :     -2611.68969982    
 nuclear-nuclear             :     -235.127681616    
 electron-nuclear            :     -3622.02752820    
 Hartree                     :      505.168914190    
 Madelung                    :     -2046.14144571    
 xc potential                :     -112.505086975    
 exchange                    :     -83.3410060491    
 correlation                 :     -1.93008291116    
 total energy                :     -1708.36870635    
 
Density of states at Fermi energy :    43.72233043    
 (states/Hartree/unit cell)
 
Estimated indirect band gap :   0.1625120980E-03
 from k-point    133 to k-point    292
Estimated direct band gap   :   0.2941018967E-02
 at k-point    260
 
Charges :
 core                        :    20.00000000    
 valence                     :    24.00000000    
 interstitial                :    3.196448990    
 muffin-tins (core leakage)
  species :    1 (Ti)
   atom    1                 :    20.40177550     (  0.3341465771E-08)
   atom    2                 :    20.40177550     (  0.3341465771E-08)
 total in muffin-tins        :    40.80355101    
 total calculated charge     :    43.99995390    
 total charge                :    44.00000000    
 error                       :   0.4610423581E-04
 
Wrote STATE.OUT
 
RMS change in Kohn-Sham potential (target) :   0.8382974654E-05 (   10.00000000    )
Absolute change in total energy (target)   :   0.3733794074E-07 (  0.1000000000E-07)
 
Time (CPU seconds) :      2889.73
 
+--------------------+
| Loop number :   43 |
+--------------------+
 
Energies :
 Fermi                       :     0.363563449363    
 sum of eigenvalues          :     -995.306108670    
 electron kinetic            :      1728.88867812    
 core electron kinetic       :      1590.61537190    
 Coulomb                     :     -3351.98629525    
 Coulomb potential           :     -2611.68969982    
 nuclear-nuclear             :     -235.127681616    
 electron-nuclear            :     -3622.02752746    
 Hartree                     :      505.168913820    
 Madelung                    :     -2046.14144534    
 xc potential                :     -112.505086969    
 exchange                    :     -83.3410060461    
 correlation                 :     -1.93008291109    
 total energy                :     -1708.36870609    
 
Density of states at Fermi energy :    43.72232942    
 (states/Hartree/unit cell)
 
Estimated indirect band gap :   0.1625121944E-03
 from k-point    133 to k-point    292
Estimated direct band gap   :   0.2941018940E-02
 at k-point    260
 
Charges :
 core                        :    20.00000000    
 valence                     :    24.00000000    
 interstitial                :    3.196448994    
 muffin-tins (core leakage)
  species :    1 (Ti)
   atom    1                 :    20.40177550     (  0.3369271084E-08)
   atom    2                 :    20.40177550     (  0.3369271084E-08)
 total in muffin-tins        :    40.80355101    
 total calculated charge     :    43.99995390    
 total charge                :    44.00000000    
 error                       :   0.4610427134E-04
 
RMS change in Kohn-Sham potential (target) :   0.7707873426E-05 (   10.00000000    )
Absolute change in total energy (target)   :   0.2450785814E-06 (  0.1000000000E-07)
 
Time (CPU seconds) :      2957.29
 
+--------------------+
| Loop number :   44 |
+--------------------+
 
Energies :
 Fermi                       :     0.363563447809    
 sum of eigenvalues          :     -995.306108743    
 electron kinetic            :      1728.88867804    
 core electron kinetic       :      1590.61537184    
 Coulomb                     :     -3351.98629525    
 Coulomb potential           :     -2611.68969982    
 nuclear-nuclear             :     -235.127681616    
 electron-nuclear            :     -3622.02752746    
 Hartree                     :      505.168913820    
 Madelung                    :     -2046.14144534    
 xc potential                :     -112.505086968    
 exchange                    :     -83.3410060462    
 correlation                 :     -1.93008291096    
 total energy                :     -1708.36870617    
 
Density of states at Fermi energy :    43.72232933    
 (states/Hartree/unit cell)
 
Estimated indirect band gap :   0.1625122133E-03
 from k-point    133 to k-point    292
Estimated direct band gap   :   0.2941018935E-02
 at k-point    260
 
Charges :
 core                        :    20.00000000    
 valence                     :    24.00000000    
 interstitial                :    3.196448995    
 muffin-tins (core leakage)
  species :    1 (Ti)
   atom    1                 :    20.40177550     (  0.3413472172E-08)
   atom    2                 :    20.40177550     (  0.3413472172E-08)
 total in muffin-tins        :    40.80355101    
 total calculated charge     :    43.99995390    
 total charge                :    44.00000000    
 error                       :   0.4610436224E-04
 
Wrote STATE.OUT
 
RMS change in Kohn-Sham potential (target) :   0.7088855445E-04 (   10.00000000    )
Absolute change in total energy (target)   :   0.1216812962E-07 (  0.1000000000E-07)
 
Time (CPU seconds) :      3026.51
 
+--------------------+
| Loop number :   45 |
+--------------------+
 
Energies :
 Fermi                       :     0.363563447987    
 sum of eigenvalues          :     -995.306108739    
 electron kinetic            :      1728.88867803    
 core electron kinetic       :      1590.61537182    
 Coulomb                     :     -3351.98629525    
 Coulomb potential           :     -2611.68969980    
 nuclear-nuclear             :     -235.127681616    
 electron-nuclear            :     -3622.02752746    
 Hartree                     :      505.168913827    
 Madelung                    :     -2046.14144534    
 xc potential                :     -112.505086970    
 exchange                    :     -83.3410060468    
 correlation                 :     -1.93008291111    
 total energy                :     -1708.36870617    
 
Density of states at Fermi energy :    43.72232957    
 (states/Hartree/unit cell)
 
Estimated indirect band gap :   0.1625121992E-03
 from k-point    133 to k-point    292
Estimated direct band gap   :   0.2941018944E-02
 at k-point    260
 
Charges :
 core                        :    20.00000000    
 valence                     :    24.00000000    
 interstitial                :    3.196448994    
 muffin-tins (core leakage)
  species :    1 (Ti)
   atom    1                 :    20.40177550     (  0.3379470925E-08)
   atom    2                 :    20.40177550     (  0.3379470925E-08)
 total in muffin-tins        :    40.80355101    
 total calculated charge     :    43.99995390    
 total charge                :    44.00000000    
 error                       :   0.4610431984E-04
 
RMS change in Kohn-Sham potential (target) :   0.1605483744E-03 (   10.00000000    )
Absolute change in total energy (target)   :   0.4824187272E-08 (  0.1000000000E-07)
 
Convergence targets achieved
 
Time (CPU seconds) :      3096.10
 
+--------------------+
| Loop number :   46 |
+--------------------+
 
Energies :
 Fermi                       :     0.363563448793    
 sum of eigenvalues          :     -995.306108701    
 electron kinetic            :      1728.88867808    
 core electron kinetic       :      1590.61537191    
 Coulomb                     :     -3351.98629525    
 Coulomb potential           :     -2611.68969981    
 nuclear-nuclear             :     -235.127681616    
 electron-nuclear            :     -3622.02752746    
 Hartree                     :      505.168913823    
 Madelung                    :     -2046.14144534    
 xc potential                :     -112.505086968    
 exchange                    :     -83.3410060473    
 correlation                 :     -1.93008291093    
 total energy                :     -1708.36870613    
 
Density of states at Fermi energy :    43.72232988    
 (states/Hartree/unit cell)
 
Estimated indirect band gap :   0.1625121817E-03
 from k-point    133 to k-point    292
Estimated direct band gap   :   0.2941018953E-02
 at k-point    260
 
Charges :
 core                        :    20.00000000    
 valence                     :    24.00000000    
 interstitial                :    3.196448993    
 muffin-tins (core leakage)
  species :    1 (Ti)
   atom    1                 :    20.40177550     (  0.3436289475E-08)
   atom    2                 :    20.40177550     (  0.3436289475E-08)
 total in muffin-tins        :    40.80355101    
 total calculated charge     :    43.99995390    
 total charge                :    44.00000000    
 error                       :   0.4610438513E-04
 
Wrote STATE.OUT
 
+------------------------------+
| Self-consistent loop stopped |
+------------------------------+
 
Wrote STATE.OUT
 
Timings (CPU seconds) :
 initialisation                        :         1.06
 Hamiltonian and overlap matrix set up :       927.84
 first-variational eigenvalue equation :      1203.19
 charge density calculation            :       327.27
 potential calculation                 :       706.38
 total                                 :      3165.74
 
+----------------------------+
| Elk version 8.3.15 stopped |
+----------------------------+
