  0.3481080976    
   2.551510512    
   10.78867636    
   7.645694970    
   3.895620848    
   1.908038390    
  0.4781630675    
  0.1048773397    
  0.2935048719E-01
  0.9274749470E-02
  0.2553995478E-02
  0.6244235040E-03
  0.1179716562E-03
  0.9389520869E-04
  0.5066261679E-04
  0.1874635814E-04
  0.1248891431E-04
  0.6397064681E-05
  0.8652577890E-06
  0.1148564479E-05
  0.5547806268E-06
  0.5082551752E-05
  0.1180672825E-05
  0.7156543234E-06
  0.6463624231E-06
  0.3521365670E-06
  0.5235347089E-07
  0.1817964403E-05
  0.9321709058E-06
  0.3150717021E-06
  0.4065450412E-06
  0.2130273060E-06
  0.3086822744E-06
  0.1349394552E-06
  0.3935178938E-07
  0.2776550900E-07
  0.1386570148E-07
  0.5910351319E-07
  0.2018214218E-07
  0.1504986358E-07
  0.1982948561E-07
  0.8742972568E-08
