 
scale
 1.0
 
scale1
 1.0
 
scale2
 1.0
 
scale3
 1.0
 
avec
   4.553600988      -2.629022757       0.000000000    
   0.000000000       5.258045513       0.000000000    
   0.000000000       0.000000000       8.025719290    
 
atoms
   1                                    : nspecies
'Re.in'                                 : spfname
   2                                    : natoms; atpos, bfcmt below
    0.33333333    0.16666667    0.25000000    0.00000000  0.00000000  0.00000000
   -0.33333333   -0.16666667   -0.25000000    0.00000000  0.00000000  0.00000000
