 
Species :    1 (Pt), atom :    1
 n =  1, l =  0, k =  1 :   -2880.915893    
 n =  2, l =  0, k =  1 :   -504.7595616    
 n =  2, l =  1, k =  1 :   -484.2403359    
 n =  2, l =  1, k =  2 :   -420.3702358    
 n =  3, l =  0, k =  1 :   -118.0481769    
 n =  3, l =  1, k =  1 :   -108.7336688    
 n =  3, l =  1, k =  2 :   -94.69351354    
 n =  3, l =  2, k =  2 :   -78.91980748    
 n =  3, l =  2, k =  3 :   -75.90605666    
 n =  4, l =  0, k =  1 :   -24.88790330    
 n =  4, l =  1, k =  1 :   -20.91118721    
 n =  4, l =  1, k =  2 :   -17.56518594    
 n =  4, l =  2, k =  2 :   -10.99184954    
 n =  4, l =  2, k =  3 :   -10.37238939    
 n =  5, l =  0, k =  1 :   -3.108505034    
