 
+----------------------------+
| Real-space lattice vectors |
+----------------------------+
 
vector a1 :    3.746693271       3.746693271       0.000000000    
vector a2 :    3.746693271       0.000000000       3.746693271    
vector a3 :    0.000000000       3.746693271       3.746693271    
 
Stored column-wise as a matrix :
   3.746693271       3.746693271       0.000000000    
   3.746693271       0.000000000       3.746693271    
   0.000000000       3.746693271       3.746693271    
 
Inverse of matrix :
  0.1334510097      0.1334510097     -0.1334510097    
  0.1334510097     -0.1334510097      0.1334510097    
 -0.1334510097      0.1334510097      0.1334510097    
 
Unit cell volume :    105.1899907    
 
 
+----------------------------------+
| Reciprocal-space lattice vectors |
+----------------------------------+
 
vector b1 :   0.8384974234      0.8384974234     -0.8384974234    
vector b2 :   0.8384974234     -0.8384974234      0.8384974234    
vector b3 :  -0.8384974234      0.8384974234      0.8384974234    
 
Stored column-wise as a matrix :
  0.8384974234      0.8384974234     -0.8384974234    
  0.8384974234     -0.8384974234      0.8384974234    
 -0.8384974234      0.8384974234      0.8384974234    
 
Inverse of matrix :
  0.5963047543      0.5963047543       0.000000000    
  0.5963047543       0.000000000      0.5963047543    
   0.000000000      0.5963047543      0.5963047543    
 
Brillouin zone volume :    2.358116127    
