    0.336135630051E-03
    0.321774573333E-03
    0.155615694016E-03
    0.199048764967E-03
    0.416788184241E-03
    0.152652691656E-04
    0.299282281588E-03
    0.295019305251E-03
    0.291902648039E-03
    0.290306240733E-03
    0.290108440087E-03
    0.290061808063E-03
    0.290167411610E-03
    0.290264873788E-03
    0.290276307912E-03
    0.290265499962E-03
    0.290297819004E-03
    0.290301348355E-03
    0.290297516352E-03
    0.290295528195E-03
    0.290298544159E-03
    0.290301763905E-03
    0.290299375921E-03
    0.290299402638E-03
    0.290298835089E-03
    0.290299715041E-03
    0.290297760029E-03
    0.290297886466E-03
    0.290298091062E-03
    0.290298414910E-03
    0.290298544733E-03
    0.290299090401E-03
    0.290298951462E-03
    0.290298942047E-03
    0.290298868682E-03
    0.290298833394E-03
    0.290298837657E-03
    0.290298794058E-03
    0.290298838206E-03
    0.290298837679E-03
    0.290298794458E-03
    0.290298783170E-03
    0.290298778886E-03
    0.290298780477E-03
    0.290298779674E-03
    0.290298795689E-03
    0.290298785088E-03
    0.290298779538E-03
    0.290298780620E-03
    0.290298780688E-03
    0.290298780729E-03
    0.290298773568E-03
    0.290298767466E-03
    0.290298772601E-03
    0.290298765440E-03
    0.290298768915E-03
    0.290298771471E-03
    0.290298768381E-03
    0.290298769112E-03
    0.290298773372E-03
    0.290298770002E-03
    0.290298768485E-03
    0.290298768105E-03
    0.290298769236E-03
    0.290298768114E-03
    0.290298769580E-03
    0.290298772304E-03
    0.290298775739E-03
    0.290298771931E-03
    0.290298773994E-03
    0.290298774290E-03
    0.290298772685E-03
    0.290298772105E-03
    0.290298772162E-03
    0.290298771299E-03
    0.290298772007E-03
    0.290298772992E-03
    0.290298775498E-03
    0.290298774903E-03
    0.290298774445E-03
    0.290298774664E-03
    0.290298770896E-03
    0.290298769555E-03
    0.290298768467E-03
    0.290298772466E-03
    0.290298771473E-03
    0.290298771564E-03
    0.290298774802E-03
    0.290298776645E-03
    0.290298774885E-03
    0.290298775142E-03
    0.290298774305E-03
    0.290298774000E-03
    0.290298775627E-03
    0.290298774941E-03
    0.290298773779E-03
    0.290298770707E-03
    0.290298773107E-03
    0.290298774211E-03
    0.290298769612E-03
    0.290298771355E-03
    0.290298772160E-03
    0.290298768347E-03
    0.290298769995E-03
    0.290298769023E-03
    0.290298771974E-03
    0.290298770714E-03
    0.290298771160E-03
    0.290298771569E-03
    0.290298768944E-03
    0.290298769320E-03
