 
Species :    1 (Sr), atom :    1
 n =  1, l =  0, k =  1 :   -586.3986326    
 n =  2, l =  0, k =  1 :   -79.01424777    
 n =  2, l =  1, k =  1 :   -71.85637253    
 n =  2, l =  1, k =  2 :   -69.33144248    
 n =  3, l =  0, k =  1 :   -11.95356884    
 n =  3, l =  1, k =  1 :   -9.357982819    
 n =  3, l =  1, k =  2 :   -8.970420369    
 n =  3, l =  2, k =  2 :   -4.414537362    
 n =  3, l =  2, k =  3 :   -4.347313624    
