 
Species :    1 (Ti), atom :    1
 n =  1, l =  0, k =  1 :   -178.7222299    
 n =  2, l =  0, k =  1 :   -19.14486180    
 n =  2, l =  1, k =  1 :   -15.86777678    
 n =  2, l =  1, k =  2 :   -15.65460397    
 
Species :    1 (Ti), atom :    2
 n =  1, l =  0, k =  1 :   -178.7222299    
 n =  2, l =  0, k =  1 :   -19.14486180    
 n =  2, l =  1, k =  1 :   -15.86777678    
 n =  2, l =  1, k =  2 :   -15.65460397    
