    0.961501298078E-04
    0.122771773675E-03
    0.156859258290E-03
    0.273133425066E-03
    0.434677679501E-03
    0.465140740002E-03
    0.466710697928E-03
    0.461795201171E-03
    0.460139266739E-03
    0.460309865073E-03
    0.461307092118E-03
    0.461362771440E-03
    0.461316395428E-03
    0.461295000319E-03
    0.461280478113E-03
    0.461518184178E-03
    0.461488374760E-03
    0.461485848370E-03
    0.461477980784E-03
    0.461470949827E-03
    0.461458170641E-03
    0.461464983001E-03
    0.461464880779E-03
    0.461467308537E-03
    0.461466364498E-03
    0.461467271301E-03
    0.461467848411E-03
    0.461468207536E-03
    0.461468353207E-03
    0.461467957318E-03
    0.461468398483E-03
    0.461468606327E-03
    0.461468714687E-03
    0.461468780100E-03
    0.461468990916E-03
    0.461468948947E-03
    0.461469001242E-03
    0.461469031241E-03
    0.461468976778E-03
    0.461468976480E-03
    0.461468940941E-03
    0.461468949980E-03
    0.461468999969E-03
    0.461468943000E-03
    0.461468999313E-03
    0.461469010363E-03
    0.461468968173E-03
    0.461468970096E-03
    0.461468987544E-03
    0.461468988537E-03
