+----------------------------+
| Elk version 8.3.15 started |
+----------------------------+
 
Date (YYYY-MM-DD) : 2022-02-27
Time (hh:mm:ss)   : 04:32:42
 
All units are atomic (Hartree, Bohr, etc.)
 
+------------------------------------------+
| Ground-state run resuming from STATE.OUT |
+------------------------------------------+
 
Lattice vectors :
   4.454777678      -2.571967091       0.000000000    
   0.000000000       5.143934183       0.000000000    
   0.000000000       0.000000000       8.089970735    
 
Reciprocal lattice vectors :
   1.410437459       0.000000000       0.000000000    
  0.7052187293       1.221474670       0.000000000    
   0.000000000       0.000000000      0.7766635397    
 
Unit cell volume      :    185.3823523    
Brillouin zone volume :    1.338046531    
 
Muffin-tin inner radius fraction :   0.1000000000E-01
 
Species :    1 (Os)
 parameters loaded from : Os.in
 name : osmium
 nuclear charge    :   -76.00000000    
 electronic charge :    76.00000000    
 atomic mass :    346768.0765    
 muffin-tin radius :    2.370000000    
 number of radial points in muffin-tin :   1400
 number on inner part of muffin-tin    :   1017
 atomic positions (lattice), magnetic fields (Cartesian) :
   1 :   0.33333333  0.16666667  0.25000000    0.00000000  0.00000000  0.00000000
   2 :  -0.33333333 -0.16666667 -0.25000000    0.00000000  0.00000000  0.00000000
 
Total number of atoms per unit cell :    2
 
Spin treatment :
 spin-unpolarised
 
Number of Bravais lattice symmetries :   24
Number of crystal symmetries         :   24
Crystal has inversion symmetry
Real symmetric eigensolver will be used
 
k-point grid :     17    17    17
k-point offset :    0.000000000       0.000000000       0.000000000    
k-point set is reduced with full crystal symmetry group
Total number of k-points :      297
 
Muffin-tin radius times maximum |G+k| :    8.500000000    
 using gkmax = rgkmax / 2
Maximum |G+k| for APW functions       :    4.250000000    
Maximum (1/2)|G+k|²                   :    9.031250000    
Maximum |G| for potential and density :    34.00000000    
Constant for pseudocharge density :   20
Radial integration step length :    1
 
G-vector grid sizes :     60    60    90
Number of G-vectors :   122937
 
Maximum angular momentum used for
 APW functions                      :   10
 outer part of muffin-tin           :    8
 inner part of muffin-tin           :    1
 
Total nuclear charge    :   -152.0000000    
Total core charge       :    92.00000000    
Total valence charge    :    60.00000000    
Total excess charge     :    0.000000000    
Total electronic charge :    152.0000000    
 
Effective Wigner radius, rₛ :   0.6627942475    
 
Number of empty states         :   40
Total number of valence states :   71
Total number of core states    :   92
 
Conduction state local-orbitals added automatically
Total number of local-orbitals :  292
 
Using Libxc version 05.01.05
Exchange-correlation functional :    100   493   494
 exchange: mgga_x_rscan; correlation: mgga_c_rscan
 
Smearing type :    1
 Methfessel-Paxton order 1, Phys. Rev. B 40, 3616 (1989)
Smearing width :   0.1000000000E-02
Effective electronic temperature (K) :    315.7750248    
 
Mixing type :    3
 Broyden mixing, J. Phys. A: Math. Gen. 17, L317 (1984)
 
Potential read in from STATE.OUT
 
+------------------------------+
| Self-consistent loop started |
+------------------------------+
 
+--------------------+
| Loop number :    1 |
+--------------------+
 
Energies :
 Fermi                       :     0.727387463506    
 sum of eigenvalues          :     -21169.5607177    
 electron kinetic            :      39271.6004712    
 core electron kinetic       :      37772.7515442    
 Coulomb                     :     -73152.6540713    
 Coulomb potential           :     -59521.7847956    
 nuclear-nuclear             :     -2916.24330671    
 electron-nuclear            :     -80951.0367336    
 Hartree                     :      10714.6259690    
 Madelung                    :     -43391.7616735    
 xc potential                :     -919.376393297    
 exchange                    :     -684.912862163    
 correlation                 :     -9.40306704772    
 total energy                :     -34575.3695293    
 
Density of states at Fermi energy :    58.34983133    
 (states/Hartree/unit cell)
 
Estimated indirect band gap :   0.9615012981E-04
 from k-point    200 to k-point    105
Estimated direct band gap   :   0.6143673678E-02
 at k-point    208
 
Charges :
 core                        :    92.00000000    
 valence                     :    60.00000000    
 interstitial                :    4.051195029    
 muffin-tins (core leakage)
  species :    1 (Os)
   atom    1                 :    73.97440249     (  0.9447960778E-06)
   atom    2                 :    73.97440249     (  0.9447960778E-06)
 total in muffin-tins        :    147.9488050    
 total calculated charge     :    151.9995662    
 total charge                :    152.0000000    
 error                       :   0.4338082557E-03
 
Time (CPU seconds) :        94.71
 
+--------------------+
| Loop number :    2 |
+--------------------+
 
Energies :
 Fermi                       :     0.727383898333    
 sum of eigenvalues          :     -21169.5620775    
 electron kinetic            :      39271.5982028    
 core electron kinetic       :      37772.7739715    
 Coulomb                     :     -73152.6547522    
 Coulomb potential           :     -59521.7838265    
 nuclear-nuclear             :     -2916.24330671    
 electron-nuclear            :     -80951.0390645    
 Hartree                     :      10714.6276190    
 Madelung                    :     -43391.7628389    
 xc potential                :     -919.376453769    
 exchange                    :     -684.912908109    
 correlation                 :     -9.40306614860    
 total energy                :     -34575.3725237    
 
Density of states at Fermi energy :    57.77675487    
 (states/Hartree/unit cell)
 
Estimated indirect band gap :   0.1227717737E-03
 from k-point    200 to k-point    105
Estimated direct band gap   :   0.6140101781E-02
 at k-point    208
 
Charges :
 core                        :    92.00000000    
 valence                     :    60.00000000    
 interstitial                :    4.051124331    
 muffin-tins (core leakage)
  species :    1 (Os)
   atom    1                 :    73.97443783     (  0.9448034461E-06)
   atom    2                 :    73.97443783     (  0.9448034461E-06)
 total in muffin-tins        :    147.9488757    
 total calculated charge     :    151.9995662    
 total charge                :    152.0000000    
 error                       :   0.4338048701E-03
 
Wrote STATE.OUT
 
RMS change in Kohn-Sham potential (target) :   0.3047070228E-01 (   10.00000000    )
Absolute change in total energy (target)   :   0.2994389964E-02 (  0.1000000000E-07)
 
Time (CPU seconds) :       184.33
 
+--------------------+
| Loop number :    3 |
+--------------------+
 
Energies :
 Fermi                       :     0.727289954828    
 sum of eigenvalues          :     -21169.5979052    
 electron kinetic            :      39271.5184680    
 core electron kinetic       :      37772.7540972    
 Coulomb                     :     -73152.6793308    
 Coulomb potential           :     -59521.7376440    
 nuclear-nuclear             :     -2916.24330671    
 electron-nuclear            :     -80951.1344042    
 Hartree                     :      10714.6983801    
 Madelung                    :     -43391.8105088    
 xc potential                :     -919.378729164    
 exchange                    :     -684.914683995    
 correlation                 :     -9.40303818209    
 total energy                :     -34575.4785850    
 
Density of states at Fermi energy :    38.92955122    
 (states/Hartree/unit cell)
 
Estimated indirect band gap :   0.1568592583E-03
 from k-point    281 to k-point    221
Estimated direct band gap   :   0.6021260885E-02
 at k-point    208
 
Charges :
 core                        :    92.00000000    
 valence                     :    60.00000000    
 interstitial                :    4.048723605    
 muffin-tins (core leakage)
  species :    1 (Os)
   atom    1                 :    73.97563820     (  0.9447557545E-06)
   atom    2                 :    73.97563820     (  0.9447557545E-06)
 total in muffin-tins        :    147.9512764    
 total calculated charge     :    151.9995670    
 total charge                :    152.0000000    
 error                       :   0.4329757360E-03
 
RMS change in Kohn-Sham potential (target) :   0.1696100264E-01 (   10.00000000    )
Absolute change in total energy (target)   :   0.1068098901     (  0.1000000000E-07)
 
Time (CPU seconds) :       274.55
 
+--------------------+
| Loop number :    4 |
+--------------------+
 
Energies :
 Fermi                       :     0.727268751393    
 sum of eigenvalues          :     -21169.6055170    
 electron kinetic            :      39271.4893062    
 core electron kinetic       :      37772.7498010    
 Coulomb                     :     -73152.6798313    
 Coulomb potential           :     -59521.7155001    
 nuclear-nuclear             :     -2916.24330671    
 electron-nuclear            :     -80951.1575491    
 Hartree                     :      10714.7210245    
 Madelung                    :     -43391.8220813    
 xc potential                :     -919.379323068    
 exchange                    :     -684.915174753    
 correlation                 :     -9.40301400320    
 total energy                :     -34575.5087139    
 
Density of states at Fermi energy :    30.28897859    
 (states/Hartree/unit cell)
 
Estimated indirect band gap :   0.2731334251E-03
 from k-point    221 to k-point     80
Estimated direct band gap   :   0.5946787763E-02
 at k-point    208
 
Charges :
 core                        :    92.00000000    
 valence                     :    60.00000000    
 interstitial                :    4.047298530    
 muffin-tins (core leakage)
  species :    1 (Os)
   atom    1                 :    73.97635073     (  0.9448514575E-06)
   atom    2                 :    73.97635073     (  0.9448514575E-06)
 total in muffin-tins        :    147.9527015    
 total calculated charge     :    151.9995677    
 total charge                :    152.0000000    
 error                       :   0.4323438757E-03
 
Wrote STATE.OUT
 
RMS change in Kohn-Sham potential (target) :   0.6255506299E-02 (   10.00000000    )
Absolute change in total energy (target)   :   0.5683141998E-01 (  0.1000000000E-07)
 
Time (CPU seconds) :       364.95
 
+--------------------+
| Loop number :    5 |
+--------------------+
 
Energies :
 Fermi                       :     0.727269491689    
 sum of eigenvalues          :     -21169.6095462    
 electron kinetic            :      39271.4781529    
 core electron kinetic       :      37772.7486540    
 Coulomb                     :     -73152.6853385    
 Coulomb potential           :     -59521.7079495    
 nuclear-nuclear             :     -2916.24330671    
 electron-nuclear            :     -80951.1761141    
 Hartree                     :      10714.7340823    
 Madelung                    :     -43391.8313638    
 xc potential                :     -919.379749618    
 exchange                    :     -684.915516226    
 correlation                 :     -9.40300368152    
 total energy                :     -34575.5257055    
 
Density of states at Fermi energy :    27.77612082    
 (states/Hartree/unit cell)
 
Estimated indirect band gap :   0.4346776795E-03
 from k-point    281 to k-point     80
Estimated direct band gap   :   0.5924134646E-02
 at k-point    208
 
Charges :
 core                        :    92.00000000    
 valence                     :    60.00000000    
 interstitial                :    4.046773313    
 muffin-tins (core leakage)
  species :    1 (Os)
   atom    1                 :    73.97661334     (  0.9450764722E-06)
   atom    2                 :    73.97661334     (  0.9450764722E-06)
 total in muffin-tins        :    147.9532267    
 total calculated charge     :    151.9995680    
 total charge                :    152.0000000    
 error                       :   0.4320255534E-03
 
RMS change in Kohn-Sham potential (target) :   0.1770469876E-02 (   10.00000000    )
Absolute change in total energy (target)   :   0.3119945813E-01 (  0.1000000000E-07)
 
Time (CPU seconds) :       454.03
 
+--------------------+
| Loop number :    6 |
+--------------------+
 
Energies :
 Fermi                       :     0.727277987164    
 sum of eigenvalues          :     -21169.6096583    
 electron kinetic            :      39271.4764511    
 core electron kinetic       :      37772.7483088    
 Coulomb                     :     -73152.6874615    
 Coulomb potential           :     -59521.7062253    
 nuclear-nuclear             :     -2916.24330671    
 electron-nuclear            :     -80951.1820844    
 Hartree                     :      10714.7379295    
 Madelung                    :     -43391.8343489    
 xc potential                :     -919.379884156    
 exchange                    :     -684.915623165    
 correlation                 :     -9.40300074838    
 total energy                :     -34575.5296343    
 
Density of states at Fermi energy :    27.19813568    
 (states/Hartree/unit cell)
 
Estimated indirect band gap :   0.4651407400E-03
 from k-point    281 to k-point     80
Estimated direct band gap   :   0.5921164018E-02
 at k-point    208
 
Charges :
 core                        :    92.00000000    
 valence                     :    60.00000000    
 interstitial                :    4.046642168    
 muffin-tins (core leakage)
  species :    1 (Os)
   atom    1                 :    73.97667892     (  0.9447981597E-06)
   atom    2                 :    73.97667892     (  0.9447981597E-06)
 total in muffin-tins        :    147.9533578    
 total calculated charge     :    151.9995681    
 total charge                :    152.0000000    
 error                       :   0.4318990895E-03
 
Wrote STATE.OUT
 
RMS change in Kohn-Sham potential (target) :   0.4104723818E-03 (   10.00000000    )
Absolute change in total energy (target)   :   0.1172866636E-01 (  0.1000000000E-07)
 
Time (CPU seconds) :       544.63
 
+--------------------+
| Loop number :    7 |
+--------------------+
 
Energies :
 Fermi                       :     0.727289401059    
 sum of eigenvalues          :     -21169.6082536    
 electron kinetic            :      39271.4779129    
 core electron kinetic       :      37772.7486852    
 Coulomb                     :     -73152.6879008    
 Coulomb potential           :     -59521.7062655    
 nuclear-nuclear             :     -2916.24330671    
 electron-nuclear            :     -80951.1829226    
 Hartree                     :      10714.7383286    
 Madelung                    :     -43391.8347680    
 xc potential                :     -919.379900989    
 exchange                    :     -684.915636454    
 correlation                 :     -9.40300018636    
 total energy                :     -34575.5286245    
 
Density of states at Fermi energy :    27.15887880    
 (states/Hartree/unit cell)
 
Estimated indirect band gap :   0.4667106979E-03
 from k-point    281 to k-point     80
Estimated direct band gap   :   0.5923489562E-02
 at k-point    208
 
Charges :
 core                        :    92.00000000    
 valence                     :    60.00000000    
 interstitial                :    4.046629999    
 muffin-tins (core leakage)
  species :    1 (Os)
   atom    1                 :    73.97668500     (  0.9448941114E-06)
   atom    2                 :    73.97668500     (  0.9448941114E-06)
 total in muffin-tins        :    147.9533700    
 total calculated charge     :    151.9995682    
 total charge                :    152.0000000    
 error                       :   0.4318401352E-03
 
RMS change in Kohn-Sham potential (target) :   0.9182290971E-04 (   10.00000000    )
Absolute change in total energy (target)   :   0.1922352996E-02 (  0.1000000000E-07)
 
Time (CPU seconds) :       635.92
 
+--------------------+
| Loop number :    8 |
+--------------------+
 
Energies :
 Fermi                       :     0.727297419345    
 sum of eigenvalues          :     -21169.6071601    
 electron kinetic            :      39271.4791890    
 core electron kinetic       :      37772.7490588    
 Coulomb                     :     -73152.6879722    
 Coulomb potential           :     -59521.7064491    
 nuclear-nuclear             :     -2916.24330671    
 electron-nuclear            :     -80951.1828818    
 Hartree                     :      10714.7382163    
 Madelung                    :     -43391.8347476    
 xc potential                :     -919.379899927    
 exchange                    :     -684.915635224    
 correlation                 :     -9.40300022277    
 total energy                :     -34575.5274186    
 
Density of states at Fermi energy :    27.24270371    
 (states/Hartree/unit cell)
 
Estimated indirect band gap :   0.4617952012E-03
 from k-point    281 to k-point     80
Estimated direct band gap   :   0.5925528816E-02
 at k-point    208
 
Charges :
 core                        :    92.00000000    
 valence                     :    60.00000000    
 interstitial                :    4.046639478    
 muffin-tins (core leakage)
  species :    1 (Os)
   atom    1                 :    73.97668026     (  0.9449053238E-06)
   atom    2                 :    73.97668026     (  0.9449053238E-06)
 total in muffin-tins        :    147.9533605    
 total calculated charge     :    151.9995682    
 total charge                :    152.0000000    
 error                       :   0.4318145847E-03
 
Wrote STATE.OUT
 
RMS change in Kohn-Sham potential (target) :   0.3875376540E-04 (   10.00000000    )
Absolute change in total energy (target)   :   0.7253340009E-03 (  0.1000000000E-07)
 
Time (CPU seconds) :       725.66
 
+--------------------+
| Loop number :    9 |
+--------------------+
 
Energies :
 Fermi                       :     0.727300653359    
 sum of eigenvalues          :     -21169.6066647    
 electron kinetic            :      39271.4796578    
 core electron kinetic       :      37772.7493009    
 Coulomb                     :     -73152.6878883    
 Coulomb potential           :     -59521.7064246    
 nuclear-nuclear             :     -2916.24330671    
 electron-nuclear            :     -80951.1827386    
 Hartree                     :      10714.7381570    
 Madelung                    :     -43391.8346760    
 xc potential                :     -919.379897936    
 exchange                    :     -684.915633629    
 correlation                 :     -9.40300016152    
 total energy                :     -34575.5268643    
 
Density of states at Fermi energy :    27.27309680    
 (states/Hartree/unit cell)
 
Estimated indirect band gap :   0.4601392667E-03
 from k-point    281 to k-point     80
Estimated direct band gap   :   0.5925828006E-02
 at k-point    208
 
Charges :
 core                        :    92.00000000    
 valence                     :    60.00000000    
 interstitial                :    4.046639118    
 muffin-tins (core leakage)
  species :    1 (Os)
   atom    1                 :    73.97668044     (  0.9447034230E-06)
   atom    2                 :    73.97668044     (  0.9447034230E-06)
 total in muffin-tins        :    147.9533609    
 total calculated charge     :    151.9995682    
 total charge                :    152.0000000    
 error                       :   0.4318026971E-03
 
RMS change in Kohn-Sham potential (target) :   0.2110405098E-04 (   10.00000000    )
Absolute change in total energy (target)   :   0.7356405767E-03 (  0.1000000000E-07)
 
Time (CPU seconds) :       813.45
 
+--------------------+
| Loop number :   10 |
+--------------------+
 
Energies :
 Fermi                       :     0.727300692096    
 sum of eigenvalues          :     -21169.6066459    
 electron kinetic            :      39271.4796601    
 core electron kinetic       :      37772.7493926    
 Coulomb                     :     -73152.6878700    
 Coulomb potential           :     -59521.7064084    
 nuclear-nuclear             :     -2916.24330671    
 electron-nuclear            :     -80951.1827182    
 Hartree                     :      10714.7381549    
 Madelung                    :     -43391.8346658    
 xc potential                :     -919.379897526    
 exchange                    :     -684.915633354    
 correlation                 :     -9.40300013886    
 total energy                :     -34575.5268434    
 
Density of states at Fermi energy :    27.27106931    
 (states/Hartree/unit cell)
 
Estimated indirect band gap :   0.4603098651E-03
 from k-point    281 to k-point     80
Estimated direct band gap   :   0.5925678599E-02
 at k-point    208
 
Charges :
 core                        :    92.00000000    
 valence                     :    60.00000000    
 interstitial                :    4.046638003    
 muffin-tins (core leakage)
  species :    1 (Os)
   atom    1                 :    73.97668100     (  0.9449130403E-06)
   atom    2                 :    73.97668100     (  0.9449130403E-06)
 total in muffin-tins        :    147.9533620    
 total calculated charge     :    151.9995682    
 total charge                :    152.0000000    
 error                       :   0.4318022721E-03
 
Wrote STATE.OUT
 
RMS change in Kohn-Sham potential (target) :   0.2843120403E-04 (   10.00000000    )
Absolute change in total energy (target)   :   0.2047726521E-03 (  0.1000000000E-07)
 
Time (CPU seconds) :       903.97
 
+--------------------+
| Loop number :   11 |
+--------------------+
 
Energies :
 Fermi                       :     0.727299425780    
 sum of eigenvalues          :     -21169.6067972    
 electron kinetic            :      39271.4794807    
 core electron kinetic       :      37772.7493034    
 Coulomb                     :     -73152.6878361    
 Coulomb potential           :     -59521.7063814    
 nuclear-nuclear             :     -2916.24330671    
 electron-nuclear            :     -80951.1826773    
 Hartree                     :      10714.7381479    
 Madelung                    :     -43391.8346454    
 xc potential                :     -919.379896449    
 exchange                    :     -684.915632618    
 correlation                 :     -9.40300011914    
 total energy                :     -34575.5269881    
 
Density of states at Fermi energy :    27.25504523    
 (states/Hartree/unit cell)
 
Estimated indirect band gap :   0.4613070921E-03
 from k-point    281 to k-point     80
Estimated direct band gap   :   0.5925229700E-02
 at k-point    208
 
Charges :
 core                        :    92.00000000    
 valence                     :    60.00000000    
 interstitial                :    4.046635921    
 muffin-tins (core leakage)
  species :    1 (Os)
   atom    1                 :    73.97668204     (  0.9448900471E-06)
   atom    2                 :    73.97668204     (  0.9448900471E-06)
 total in muffin-tins        :    147.9533641    
 total calculated charge     :    151.9995682    
 total charge                :    152.0000000    
 error                       :   0.4318055561E-03
 
RMS change in Kohn-Sham potential (target) :   0.1885914622E-04 (   10.00000000    )
Absolute change in total energy (target)   :   0.9345378203E-04 (  0.1000000000E-07)
 
Time (CPU seconds) :       993.83
 
+--------------------+
| Loop number :   12 |
+--------------------+
 
Energies :
 Fermi                       :     0.727299410659    
 sum of eigenvalues          :     -21169.6068026    
 electron kinetic            :      39271.4794814    
 core electron kinetic       :      37772.7493042    
 Coulomb                     :     -73152.6878492    
 Coulomb potential           :     -59521.7063873    
 nuclear-nuclear             :     -2916.24330671    
 electron-nuclear            :     -80951.1826977    
 Hartree                     :      10714.7381552    
 Madelung                    :     -43391.8346556    
 xc potential                :     -919.379896631    
 exchange                    :     -684.915632754    
 correlation                 :     -9.40300012241    
 total energy                :     -34575.5270007    
 
Density of states at Fermi energy :    27.25422736    
 (states/Hartree/unit cell)
 
Estimated indirect band gap :   0.4613627714E-03
 from k-point    281 to k-point     80
Estimated direct band gap   :   0.5925238093E-02
 at k-point    208
 
Charges :
 core                        :    92.00000000    
 valence                     :    60.00000000    
 interstitial                :    4.046636001    
 muffin-tins (core leakage)
  species :    1 (Os)
   atom    1                 :    73.97668200     (  0.9448840075E-06)
   atom    2                 :    73.97668200     (  0.9448840075E-06)
 total in muffin-tins        :    147.9533640    
 total calculated charge     :    151.9995682    
 total charge                :    152.0000000    
 error                       :   0.4318052649E-03
 
Wrote STATE.OUT
 
RMS change in Kohn-Sham potential (target) :   0.6046342565E-04 (   10.00000000    )
Absolute change in total energy (target)   :   0.3603228834E-04 (  0.1000000000E-07)
 
Time (CPU seconds) :      1084.57
 
+--------------------+
| Loop number :   13 |
+--------------------+
 
Energies :
 Fermi                       :     0.727299449718    
 sum of eigenvalues          :     -21169.6067982    
 electron kinetic            :      39271.4794863    
 core electron kinetic       :      37772.7493020    
 Coulomb                     :     -73152.6878495    
 Coulomb potential           :     -59521.7063879    
 nuclear-nuclear             :     -2916.24330671    
 electron-nuclear            :     -80951.1826977    
 Hartree                     :      10714.7381549    
 Madelung                    :     -43391.8346556    
 xc potential                :     -919.379896666    
 exchange                    :     -684.915632777    
 correlation                 :     -9.40300012350    
 total energy                :     -34575.5269961    
 
Density of states at Fermi energy :    27.25495959    
 (states/Hartree/unit cell)
 
Estimated indirect band gap :   0.4613163954E-03
 from k-point    281 to k-point     80
Estimated direct band gap   :   0.5925257114E-02
 at k-point    208
 
Charges :
 core                        :    92.00000000    
 valence                     :    60.00000000    
 interstitial                :    4.046636117    
 muffin-tins (core leakage)
  species :    1 (Os)
   atom    1                 :    73.97668194     (  0.9449416183E-06)
   atom    2                 :    73.97668194     (  0.9449416183E-06)
 total in muffin-tins        :    147.9533639    
 total calculated charge     :    151.9995682    
 total charge                :    152.0000000    
 error                       :   0.4318053428E-03
 
RMS change in Kohn-Sham potential (target) :   0.6699511784E-05 (   10.00000000    )
Absolute change in total energy (target)   :   0.4365268978E-05 (  0.1000000000E-07)
 
Time (CPU seconds) :      1176.38
 
+--------------------+
| Loop number :   14 |
+--------------------+
 
Energies :
 Fermi                       :     0.727299521280    
 sum of eigenvalues          :     -21169.6067901    
 electron kinetic            :      39271.4794984    
 core electron kinetic       :      37772.7493148    
 Coulomb                     :     -73152.6878515    
 Coulomb potential           :     -59521.7063918    
 nuclear-nuclear             :     -2916.24330671    
 electron-nuclear            :     -80951.1826977    
 Hartree                     :      10714.7381530    
 Madelung                    :     -43391.8346556    
 xc potential                :     -919.379896738    
 exchange                    :     -684.915632828    
 correlation                 :     -9.40300012493    
 total energy                :     -34575.5269860    
 
Density of states at Fermi energy :    27.25532818    
 (states/Hartree/unit cell)
 
Estimated indirect band gap :   0.4612950003E-03
 from k-point    281 to k-point     80
Estimated direct band gap   :   0.5925286769E-02
 at k-point    208
 
Charges :
 core                        :    92.00000000    
 valence                     :    60.00000000    
 interstitial                :    4.046636227    
 muffin-tins (core leakage)
  species :    1 (Os)
   atom    1                 :    73.97668189     (  0.9448481535E-06)
   atom    2                 :    73.97668189     (  0.9448481535E-06)
 total in muffin-tins        :    147.9533638    
 total calculated charge     :    151.9995682    
 total charge                :    152.0000000    
 error                       :   0.4318047491E-03
 
Wrote STATE.OUT
 
RMS change in Kohn-Sham potential (target) :   0.1109171628E-03 (   10.00000000    )
Absolute change in total energy (target)   :   0.9032955859E-05 (  0.1000000000E-07)
 
Time (CPU seconds) :      1268.59
 
+--------------------+
| Loop number :   15 |
+--------------------+
 
Energies :
 Fermi                       :     0.727299472190    
 sum of eigenvalues          :     -21169.6067986    
 electron kinetic            :      39271.4794916    
 core electron kinetic       :      37772.7493312    
 Coulomb                     :     -73152.6878523    
 Coulomb potential           :     -59521.7063934    
 nuclear-nuclear             :     -2916.24330671    
 electron-nuclear            :     -80951.1826977    
 Hartree                     :      10714.7381522    
 Madelung                    :     -43391.8346556    
 xc potential                :     -919.379896766    
 exchange                    :     -684.915632856    
 correlation                 :     -9.40300012528    
 total energy                :     -34575.5269937    
 
Density of states at Fermi energy :    27.25531788    
 (states/Hartree/unit cell)
 
Estimated indirect band gap :   0.4612804781E-03
 from k-point    281 to k-point     80
Estimated direct band gap   :   0.5925306069E-02
 at k-point    208
 
Charges :
 core                        :    92.00000000    
 valence                     :    60.00000000    
 interstitial                :    4.046636377    
 muffin-tins (core leakage)
  species :    1 (Os)
   atom    1                 :    73.97668181     (  0.9449119176E-06)
   atom    2                 :    73.97668181     (  0.9449119176E-06)
 total in muffin-tins        :    147.9533636    
 total calculated charge     :    151.9995682    
 total charge                :    152.0000000    
 error                       :   0.4318052617E-03
 
RMS change in Kohn-Sham potential (target) :   0.6566187520E-04 (   10.00000000    )
Absolute change in total energy (target)   :   0.5439753295E-05 (  0.1000000000E-07)
 
Time (CPU seconds) :      1357.61
 
+--------------------+
| Loop number :   16 |
+--------------------+
 
Energies :
 Fermi                       :     0.727299199013    
 sum of eigenvalues          :     -21169.6068348    
 electron kinetic            :      39271.4794552    
 core electron kinetic       :      37772.7493108    
 Coulomb                     :     -73152.6878522    
 Coulomb potential           :     -59521.7063933    
 nuclear-nuclear             :     -2916.24330671    
 electron-nuclear            :     -80951.1826977    
 Hartree                     :      10714.7381522    
 Madelung                    :     -43391.8346556    
 xc potential                :     -919.379896694    
 exchange                    :     -684.915632808    
 correlation                 :     -9.40300012628    
 total energy                :     -34575.5270300    
 
Density of states at Fermi energy :    27.25154907    
 (states/Hartree/unit cell)
 
Estimated indirect band gap :   0.4615181842E-03
 from k-point    281 to k-point     80
Estimated direct band gap   :   0.5925231467E-02
 at k-point    208
 
Charges :
 core                        :    92.00000000    
 valence                     :    60.00000000    
 interstitial                :    4.046636071    
 muffin-tins (core leakage)
  species :    1 (Os)
   atom    1                 :    73.97668196     (  0.9448112266E-06)
   atom    2                 :    73.97668196     (  0.9448112266E-06)
 total in muffin-tins        :    147.9533639    
 total calculated charge     :    151.9995682    
 total charge                :    152.0000000    
 error                       :   0.4318055026E-03
 
Wrote STATE.OUT
 
RMS change in Kohn-Sham potential (target) :   0.5200984785E-05 (   10.00000000    )
Absolute change in total energy (target)   :   0.3764766734E-04 (  0.1000000000E-07)
 
Time (CPU seconds) :      1446.71
 
+--------------------+
| Loop number :   17 |
+--------------------+
 
Energies :
 Fermi                       :     0.727299243340    
 sum of eigenvalues          :     -21169.6068295    
 electron kinetic            :      39271.4794611    
 core electron kinetic       :      37772.7493136    
 Coulomb                     :     -73152.6878525    
 Coulomb potential           :     -59521.7063938    
 nuclear-nuclear             :     -2916.24330671    
 electron-nuclear            :     -80951.1826977    
 Hartree                     :      10714.7381520    
 Madelung                    :     -43391.8346556    
 xc potential                :     -919.379896724    
 exchange                    :     -684.915632840    
 correlation                 :     -9.40300012556    
 total energy                :     -34575.5270244    
 
Density of states at Fermi energy :    27.25202101    
 (states/Hartree/unit cell)
 
Estimated indirect band gap :   0.4614883748E-03
 from k-point    281 to k-point     80
Estimated direct band gap   :   0.5925251800E-02
 at k-point    208
 
Charges :
 core                        :    92.00000000    
 valence                     :    60.00000000    
 interstitial                :    4.046636146    
 muffin-tins (core leakage)
  species :    1 (Os)
   atom    1                 :    73.97668193     (  0.9448042917E-06)
   atom    2                 :    73.97668193     (  0.9448042917E-06)
 total in muffin-tins        :    147.9533639    
 total calculated charge     :    151.9995682    
 total charge                :    152.0000000    
 error                       :   0.4318052746E-03
 
RMS change in Kohn-Sham potential (target) :   0.7995805884E-05 (   10.00000000    )
Absolute change in total energy (target)   :   0.3835084499E-05 (  0.1000000000E-07)
 
Time (CPU seconds) :      1536.15
 
+--------------------+
| Loop number :   18 |
+--------------------+
 
Energies :
 Fermi                       :     0.727299244741    
 sum of eigenvalues          :     -21169.6068293    
 electron kinetic            :      39271.4794613    
 core electron kinetic       :      37772.7493122    
 Coulomb                     :     -73152.6878525    
 Coulomb potential           :     -59521.7063938    
 nuclear-nuclear             :     -2916.24330671    
 electron-nuclear            :     -80951.1826977    
 Hartree                     :      10714.7381520    
 Madelung                    :     -43391.8346556    
 xc potential                :     -919.379896721    
 exchange                    :     -684.915632822    
 correlation                 :     -9.40300012716    
 total energy                :     -34575.5270242    
 
Density of states at Fermi energy :    27.25205996    
 (states/Hartree/unit cell)
 
Estimated indirect band gap :   0.4614858484E-03
 from k-point    281 to k-point     80
Estimated direct band gap   :   0.5925251742E-02
 at k-point    208
 
Charges :
 core                        :    92.00000000    
 valence                     :    60.00000000    
 interstitial                :    4.046636145    
 muffin-tins (core leakage)
  species :    1 (Os)
   atom    1                 :    73.97668193     (  0.9454183001E-06)
   atom    2                 :    73.97668193     (  0.9454183001E-06)
 total in muffin-tins        :    147.9533639    
 total calculated charge     :    151.9995682    
 total charge                :    152.0000000    
 error                       :   0.4318065058E-03
 
Wrote STATE.OUT
 
RMS change in Kohn-Sham potential (target) :   0.1199281003E-04 (   10.00000000    )
Absolute change in total energy (target)   :   0.7242197171E-06 (  0.1000000000E-07)
 
Time (CPU seconds) :      1625.60
 
+--------------------+
| Loop number :   19 |
+--------------------+
 
Energies :
 Fermi                       :     0.727299261761    
 sum of eigenvalues          :     -21169.6068271    
 electron kinetic            :      39271.4794627    
 core electron kinetic       :      37772.7493119    
 Coulomb                     :     -73152.6878521    
 Coulomb potential           :     -59521.7063931    
 nuclear-nuclear             :     -2916.24330671    
 electron-nuclear            :     -80951.1826977    
 Hartree                     :      10714.7381523    
 Madelung                    :     -43391.8346556    
 xc potential                :     -919.379896719    
 exchange                    :     -684.915632833    
 correlation                 :     -9.40300012600    
 total energy                :     -34575.5270223    
 
Density of states at Fermi energy :    27.25218676    
 (states/Hartree/unit cell)
 
Estimated indirect band gap :   0.4614779808E-03
 from k-point    281 to k-point     80
Estimated direct band gap   :   0.5925257634E-02
 at k-point    208
 
Charges :
 core                        :    92.00000000    
 valence                     :    60.00000000    
 interstitial                :    4.046636153    
 muffin-tins (core leakage)
  species :    1 (Os)
   atom    1                 :    73.97668192     (  0.9448233982E-06)
   atom    2                 :    73.97668192     (  0.9448233982E-06)
 total in muffin-tins        :    147.9533638    
 total calculated charge     :    151.9995682    
 total charge                :    152.0000000    
 error                       :   0.4318052029E-03
 
RMS change in Kohn-Sham potential (target) :   0.1492872604E-04 (   10.00000000    )
Absolute change in total energy (target)   :   0.1629712642E-05 (  0.1000000000E-07)
 
Time (CPU seconds) :      1714.35
 
+--------------------+
| Loop number :   20 |
+--------------------+
 
Energies :
 Fermi                       :     0.727299270886    
 sum of eigenvalues          :     -21169.6068258    
 electron kinetic            :      39271.4794640    
 core electron kinetic       :      37772.7493111    
 Coulomb                     :     -73152.6878521    
 Coulomb potential           :     -59521.7063930    
 nuclear-nuclear             :     -2916.24330671    
 electron-nuclear            :     -80951.1826977    
 Hartree                     :      10714.7381524    
 Madelung                    :     -43391.8346556    
 xc potential                :     -919.379896722    
 exchange                    :     -684.915632832    
 correlation                 :     -9.40300012591    
 total energy                :     -34575.5270211    
 
Density of states at Fermi energy :    27.25229691    
 (states/Hartree/unit cell)
 
Estimated indirect band gap :   0.4614709498E-03
 from k-point    281 to k-point     80
Estimated direct band gap   :   0.5925259148E-02
 at k-point    208
 
Charges :
 core                        :    92.00000000    
 valence                     :    60.00000000    
 interstitial                :    4.046636154    
 muffin-tins (core leakage)
  species :    1 (Os)
   atom    1                 :    73.97668192     (  0.9448377440E-06)
   atom    2                 :    73.97668192     (  0.9448377440E-06)
 total in muffin-tins        :    147.9533638    
 total calculated charge     :    151.9995682    
 total charge                :    152.0000000    
 error                       :   0.4318052320E-03
 
Wrote STATE.OUT
 
RMS change in Kohn-Sham potential (target) :   0.2624584980E-04 (   10.00000000    )
Absolute change in total energy (target)   :   0.1673106453E-05 (  0.1000000000E-07)
 
Time (CPU seconds) :      1806.07
 
+--------------------+
| Loop number :   21 |
+--------------------+
 
Energies :
 Fermi                       :     0.727299288906    
 sum of eigenvalues          :     -21169.6068233    
 electron kinetic            :      39271.4794670    
 core electron kinetic       :      37772.7493133    
 Coulomb                     :     -73152.6878524    
 Coulomb potential           :     -59521.7063936    
 nuclear-nuclear             :     -2916.24330671    
 electron-nuclear            :     -80951.1826977    
 Hartree                     :      10714.7381521    
 Madelung                    :     -43391.8346556    
 xc potential                :     -919.379896725    
 exchange                    :     -684.915632839    
 correlation                 :     -9.40300012395    
 total energy                :     -34575.5270183    
 
Density of states at Fermi energy :    27.25250371    
 (states/Hartree/unit cell)
 
Estimated indirect band gap :   0.4614581706E-03
 from k-point    281 to k-point     80
Estimated direct band gap   :   0.5925262798E-02
 at k-point    208
 
Charges :
 core                        :    92.00000000    
 valence                     :    60.00000000    
 interstitial                :    4.046636164    
 muffin-tins (core leakage)
  species :    1 (Os)
   atom    1                 :    73.97668192     (  0.9454013323E-06)
   atom    2                 :    73.97668192     (  0.9454013323E-06)
 total in muffin-tins        :    147.9533638    
 total calculated charge     :    151.9995682    
 total charge                :    152.0000000    
 error                       :   0.4318063112E-03
 
RMS change in Kohn-Sham potential (target) :   0.4368368434E-05 (   10.00000000    )
Absolute change in total energy (target)   :   0.3181339707E-05 (  0.1000000000E-07)
 
Time (CPU seconds) :      1895.58
 
+--------------------+
| Loop number :   22 |
+--------------------+
 
Energies :
 Fermi                       :     0.727299282942    
 sum of eigenvalues          :     -21169.6068241    
 electron kinetic            :      39271.4794659    
 core electron kinetic       :      37772.7493128    
 Coulomb                     :     -73152.6878522    
 Coulomb potential           :     -59521.7063933    
 nuclear-nuclear             :     -2916.24330671    
 electron-nuclear            :     -80951.1826977    
 Hartree                     :      10714.7381522    
 Madelung                    :     -43391.8346556    
 xc potential                :     -919.379896734    
 exchange                    :     -684.915632840    
 correlation                 :     -9.40300012515    
 total energy                :     -34575.5270193    
 
Density of states at Fermi energy :    27.25239619    
 (states/Hartree/unit cell)
 
Estimated indirect band gap :   0.4614649830E-03
 from k-point    281 to k-point     80
Estimated direct band gap   :   0.5925261439E-02
 at k-point    208
 
Charges :
 core                        :    92.00000000    
 valence                     :    60.00000000    
 interstitial                :    4.046636155    
 muffin-tins (core leakage)
  species :    1 (Os)
   atom    1                 :    73.97668192     (  0.9448925908E-06)
   atom    2                 :    73.97668192     (  0.9448925908E-06)
 total in muffin-tins        :    147.9533638    
 total calculated charge     :    151.9995682    
 total charge                :    152.0000000    
 error                       :   0.4318052780E-03
 
Wrote STATE.OUT
 
RMS change in Kohn-Sham potential (target) :   0.1291043889E-04 (   10.00000000    )
Absolute change in total energy (target)   :   0.1757725840E-06 (  0.1000000000E-07)
 
Time (CPU seconds) :      1981.79
 
+--------------------+
| Loop number :   23 |
+--------------------+
 
Energies :
 Fermi                       :     0.727299284275    
 sum of eigenvalues          :     -21169.6068239    
 electron kinetic            :      39271.4794661    
 core electron kinetic       :      37772.7493131    
 Coulomb                     :     -73152.6878522    
 Coulomb potential           :     -59521.7063933    
 nuclear-nuclear             :     -2916.24330671    
 electron-nuclear            :     -80951.1826977    
 Hartree                     :      10714.7381522    
 Madelung                    :     -43391.8346556    
 xc potential                :     -919.379896727    
 exchange                    :     -684.915632837    
 correlation                 :     -9.40300012435    
 total energy                :     -34575.5270191    
 
Density of states at Fermi energy :    27.25239846    
 (states/Hartree/unit cell)
 
Estimated indirect band gap :   0.4614648808E-03
 from k-point    281 to k-point     80
Estimated direct band gap   :   0.5925261887E-02
 at k-point    208
 
Charges :
 core                        :    92.00000000    
 valence                     :    60.00000000    
 interstitial                :    4.046636155    
 muffin-tins (core leakage)
  species :    1 (Os)
   atom    1                 :    73.97668192     (  0.9447883826E-06)
   atom    2                 :    73.97668192     (  0.9447883826E-06)
 total in muffin-tins        :    147.9533638    
 total calculated charge     :    151.9995682    
 total charge                :    152.0000000    
 error                       :   0.4318050541E-03
 
RMS change in Kohn-Sham potential (target) :   0.3841338519E-04 (   10.00000000    )
Absolute change in total energy (target)   :   0.1741718734E-06 (  0.1000000000E-07)
 
Time (CPU seconds) :      2072.62
 
+--------------------+
| Loop number :   24 |
+--------------------+
 
Energies :
 Fermi                       :     0.727299280328    
 sum of eigenvalues          :     -21169.6068245    
 electron kinetic            :      39271.4794655    
 core electron kinetic       :      37772.7493124    
 Coulomb                     :     -73152.6878522    
 Coulomb potential           :     -59521.7063932    
 nuclear-nuclear             :     -2916.24330671    
 electron-nuclear            :     -80951.1826977    
 Hartree                     :      10714.7381523    
 Madelung                    :     -43391.8346556    
 xc potential                :     -919.379896727    
 exchange                    :     -684.915632830    
 correlation                 :     -9.40300012609    
 total energy                :     -34575.5270197    
 
Density of states at Fermi energy :    27.25235952    
 (states/Hartree/unit cell)
 
Estimated indirect band gap :   0.4614673085E-03
 from k-point    281 to k-point     80
Estimated direct band gap   :   0.5925261140E-02
 at k-point    208
 
Charges :
 core                        :    92.00000000    
 valence                     :    60.00000000    
 interstitial                :    4.046636155    
 muffin-tins (core leakage)
  species :    1 (Os)
   atom    1                 :    73.97668192     (  0.9449577902E-06)
   atom    2                 :    73.97668192     (  0.9449577902E-06)
 total in muffin-tins        :    147.9533638    
 total calculated charge     :    151.9995682    
 total charge                :    152.0000000    
 error                       :   0.4318054060E-03
 
Wrote STATE.OUT
 
RMS change in Kohn-Sham potential (target) :   0.5603839534E-05 (   10.00000000    )
Absolute change in total energy (target)   :   0.5627225619E-06 (  0.1000000000E-07)
 
Time (CPU seconds) :      2160.33
 
+--------------------+
| Loop number :   25 |
+--------------------+
 
Energies :
 Fermi                       :     0.727299283609    
 sum of eigenvalues          :     -21169.6068240    
 electron kinetic            :      39271.4794663    
 core electron kinetic       :      37772.7493131    
 Coulomb                     :     -73152.6878524    
 Coulomb potential           :     -59521.7063936    
 nuclear-nuclear             :     -2916.24330671    
 electron-nuclear            :     -80951.1826977    
 Hartree                     :      10714.7381521    
 Madelung                    :     -43391.8346556    
 xc potential                :     -919.379896732    
 exchange                    :     -684.915632838    
 correlation                 :     -9.40300012577    
 total energy                :     -34575.5270191    
 
Density of states at Fermi energy :    27.25237483    
 (states/Hartree/unit cell)
 
Estimated indirect band gap :   0.4614663645E-03
 from k-point    281 to k-point     80
Estimated direct band gap   :   0.5925262100E-02
 at k-point    208
 
Charges :
 core                        :    92.00000000    
 valence                     :    60.00000000    
 interstitial                :    4.046636154    
 muffin-tins (core leakage)
  species :    1 (Os)
   atom    1                 :    73.97668192     (  0.9448273133E-06)
   atom    2                 :    73.97668192     (  0.9448273133E-06)
 total in muffin-tins        :    147.9533638    
 total calculated charge     :    151.9995682    
 total charge                :    152.0000000    
 error                       :   0.4318051376E-03
 
RMS change in Kohn-Sham potential (target) :   0.1266974785E-04 (   10.00000000    )
Absolute change in total energy (target)   :   0.4727990017E-06 (  0.1000000000E-07)
 
Time (CPU seconds) :      2252.26
 
+--------------------+
| Loop number :   26 |
+--------------------+
 
Energies :
 Fermi                       :     0.727299283438    
 sum of eigenvalues          :     -21169.6068241    
 electron kinetic            :      39271.4794655    
 core electron kinetic       :      37772.7493122    
 Coulomb                     :     -73152.6878520    
 Coulomb potential           :     -59521.7063928    
 nuclear-nuclear             :     -2916.24330671    
 electron-nuclear            :     -80951.1826977    
 Hartree                     :      10714.7381525    
 Madelung                    :     -43391.8346556    
 xc potential                :     -919.379896725    
 exchange                    :     -684.915632828    
 correlation                 :     -9.40300012579    
 total energy                :     -34575.5270195    
 
Density of states at Fermi energy :    27.25236039    
 (states/Hartree/unit cell)
 
Estimated indirect band gap :   0.4614672713E-03
 from k-point    281 to k-point     80
Estimated direct band gap   :   0.5925262178E-02
 at k-point    208
 
Charges :
 core                        :    92.00000000    
 valence                     :    60.00000000    
 interstitial                :    4.046636153    
 muffin-tins (core leakage)
  species :    1 (Os)
   atom    1                 :    73.97668192     (  0.9449935519E-06)
   atom    2                 :    73.97668192     (  0.9449935519E-06)
 total in muffin-tins        :    147.9533638    
 total calculated charge     :    151.9995682    
 total charge                :    152.0000000    
 error                       :   0.4318054378E-03
 
Wrote STATE.OUT
 
RMS change in Kohn-Sham potential (target) :   0.1073565408E-04 (   10.00000000    )
Absolute change in total energy (target)   :   0.2727319952E-06 (  0.1000000000E-07)
 
Time (CPU seconds) :      2342.37
 
+--------------------+
| Loop number :   27 |
+--------------------+
 
Energies :
 Fermi                       :     0.727299283550    
 sum of eigenvalues          :     -21169.6068240    
 electron kinetic            :      39271.4794655    
 core electron kinetic       :      37772.7493124    
 Coulomb                     :     -73152.6878520    
 Coulomb potential           :     -59521.7063928    
 nuclear-nuclear             :     -2916.24330671    
 electron-nuclear            :     -80951.1826977    
 Hartree                     :      10714.7381525    
 Madelung                    :     -43391.8346556    
 xc potential                :     -919.379896728    
 exchange                    :     -684.915632827    
 correlation                 :     -9.40300012561    
 total energy                :     -34575.5270195    
 
Density of states at Fermi energy :    27.25235122    
 (states/Hartree/unit cell)
 
Estimated indirect band gap :   0.4614678484E-03
 from k-point    281 to k-point     80
Estimated direct band gap   :   0.5925262320E-02
 at k-point    208
 
Charges :
 core                        :    92.00000000    
 valence                     :    60.00000000    
 interstitial                :    4.046636151    
 muffin-tins (core leakage)
  species :    1 (Os)
   atom    1                 :    73.97668192     (  0.9448180407E-06)
   atom    2                 :    73.97668192     (  0.9448180407E-06)
 total in muffin-tins        :    147.9533638    
 total calculated charge     :    151.9995682    
 total charge                :    152.0000000    
 error                       :   0.4318050868E-03
 
RMS change in Kohn-Sham potential (target) :   0.2810261082E-04 (   10.00000000    )
Absolute change in total energy (target)   :   0.6918708095E-07 (  0.1000000000E-07)
 
Time (CPU seconds) :      2432.52
 
+--------------------+
| Loop number :   28 |
+--------------------+
 
Energies :
 Fermi                       :     0.727299283586    
 sum of eigenvalues          :     -21169.6068240    
 electron kinetic            :      39271.4794658    
 core electron kinetic       :      37772.7493125    
 Coulomb                     :     -73152.6878521    
 Coulomb potential           :     -59521.7063930    
 nuclear-nuclear             :     -2916.24330671    
 electron-nuclear            :     -80951.1826977    
 Hartree                     :      10714.7381523    
 Madelung                    :     -43391.8346556    
 xc potential                :     -919.379896719    
 exchange                    :     -684.915632828    
 correlation                 :     -9.40300012579    
 total energy                :     -34575.5270193    
 
Density of states at Fermi energy :    27.25234552    
 (states/Hartree/unit cell)
 
Estimated indirect band gap :   0.4614682075E-03
 from k-point    281 to k-point     80
Estimated direct band gap   :   0.5925262376E-02
 at k-point    208
 
Charges :
 core                        :    92.00000000    
 valence                     :    60.00000000    
 interstitial                :    4.046636151    
 muffin-tins (core leakage)
  species :    1 (Os)
   atom    1                 :    73.97668192     (  0.9449842864E-06)
   atom    2                 :    73.97668192     (  0.9449842864E-06)
 total in muffin-tins        :    147.9533638    
 total calculated charge     :    151.9995682    
 total charge                :    152.0000000    
 error                       :   0.4318054120E-03
 
Wrote STATE.OUT
 
RMS change in Kohn-Sham potential (target) :   0.1991377283E-04 (   10.00000000    )
Absolute change in total energy (target)   :   0.1495936885E-06 (  0.1000000000E-07)
 
Time (CPU seconds) :      2523.33
 
+--------------------+
| Loop number :   29 |
+--------------------+
 
Energies :
 Fermi                       :     0.727299283611    
 sum of eigenvalues          :     -21169.6068240    
 electron kinetic            :      39271.4794651    
 core electron kinetic       :      37772.7493117    
 Coulomb                     :     -73152.6878518    
 Coulomb potential           :     -59521.7063924    
 nuclear-nuclear             :     -2916.24330671    
 electron-nuclear            :     -80951.1826977    
 Hartree                     :      10714.7381527    
 Madelung                    :     -43391.8346556    
 xc potential                :     -919.379896716    
 exchange                    :     -684.915632820    
 correlation                 :     -9.40300012606    
 total energy                :     -34575.5270196    
 
Density of states at Fermi energy :    27.25234309    
 (states/Hartree/unit cell)
 
Estimated indirect band gap :   0.4614683532E-03
 from k-point    281 to k-point     80
Estimated direct band gap   :   0.5925262411E-02
 at k-point    208
 
Charges :
 core                        :    92.00000000    
 valence                     :    60.00000000    
 interstitial                :    4.046636150    
 muffin-tins (core leakage)
  species :    1 (Os)
   atom    1                 :    73.97668192     (  0.9449037890E-06)
   atom    2                 :    73.97668192     (  0.9449037890E-06)
 total in muffin-tins        :    147.9533638    
 total calculated charge     :    151.9995682    
 total charge                :    152.0000000    
 error                       :   0.4318052582E-03
 
RMS change in Kohn-Sham potential (target) :   0.2908238023E-04 (   10.00000000    )
Absolute change in total energy (target)   :   0.3121676855E-06 (  0.1000000000E-07)
 
Time (CPU seconds) :      2612.23
 
+--------------------+
| Loop number :   30 |
+--------------------+
 
Energies :
 Fermi                       :     0.727299284253    
 sum of eigenvalues          :     -21169.6068239    
 electron kinetic            :      39271.4794662    
 core electron kinetic       :      37772.7493130    
 Coulomb                     :     -73152.6878523    
 Coulomb potential           :     -59521.7063934    
 nuclear-nuclear             :     -2916.24330671    
 electron-nuclear            :     -80951.1826977    
 Hartree                     :      10714.7381522    
 Madelung                    :     -43391.8346556    
 xc potential                :     -919.379896724    
 exchange                    :     -684.915632828    
 correlation                 :     -9.40300012639    
 total energy                :     -34575.5270190    
 
Density of states at Fermi energy :    27.25234964    
 (states/Hartree/unit cell)
 
Estimated indirect band gap :   0.4614679573E-03
 from k-point    281 to k-point     80
Estimated direct band gap   :   0.5925262492E-02
 at k-point    208
 
Charges :
 core                        :    92.00000000    
 valence                     :    60.00000000    
 interstitial                :    4.046636150    
 muffin-tins (core leakage)
  species :    1 (Os)
   atom    1                 :    73.97668192     (  0.9448470095E-06)
   atom    2                 :    73.97668192     (  0.9448470095E-06)
 total in muffin-tins        :    147.9533638    
 total calculated charge     :    151.9995682    
 total charge                :    152.0000000    
 error                       :   0.4318051537E-03
 
Wrote STATE.OUT
 
RMS change in Kohn-Sham potential (target) :   0.2202550859E-05 (   10.00000000    )
Absolute change in total energy (target)   :   0.5466426956E-06 (  0.1000000000E-07)
 
Time (CPU seconds) :      2699.88
 
+--------------------+
| Loop number :   31 |
+--------------------+
 
Energies :
 Fermi                       :     0.727299284010    
 sum of eigenvalues          :     -21169.6068240    
 electron kinetic            :      39271.4794651    
 core electron kinetic       :      37772.7493119    
 Coulomb                     :     -73152.6878518    
 Coulomb potential           :     -59521.7063924    
 nuclear-nuclear             :     -2916.24330671    
 electron-nuclear            :     -80951.1826977    
 Hartree                     :      10714.7381527    
 Madelung                    :     -43391.8346556    
 xc potential                :     -919.379896717    
 exchange                    :     -684.915632823    
 correlation                 :     -9.40300012606    
 total energy                :     -34575.5270196    
 
Density of states at Fermi energy :    27.25234231    
 (states/Hartree/unit cell)
 
Estimated indirect band gap :   0.4614683985E-03
 from k-point    281 to k-point     80
Estimated direct band gap   :   0.5925262474E-02
 at k-point    208
 
Charges :
 core                        :    92.00000000    
 valence                     :    60.00000000    
 interstitial                :    4.046636149    
 muffin-tins (core leakage)
  species :    1 (Os)
   atom    1                 :    73.97668193     (  0.9448151559E-06)
   atom    2                 :    73.97668193     (  0.9448151559E-06)
 total in muffin-tins        :    147.9533639    
 total calculated charge     :    151.9995682    
 total charge                :    152.0000000    
 error                       :   0.4318050779E-03
 
RMS change in Kohn-Sham potential (target) :   0.1218216216E-04 (   10.00000000    )
Absolute change in total energy (target)   :   0.4379762686E-06 (  0.1000000000E-07)
 
Time (CPU seconds) :      2793.62
 
+--------------------+
| Loop number :   32 |
+--------------------+
 
Energies :
 Fermi                       :     0.727299283927    
 sum of eigenvalues          :     -21169.6068240    
 electron kinetic            :      39271.4794659    
 core electron kinetic       :      37772.7493127    
 Coulomb                     :     -73152.6878522    
 Coulomb potential           :     -59521.7063932    
 nuclear-nuclear             :     -2916.24330671    
 electron-nuclear            :     -80951.1826977    
 Hartree                     :      10714.7381523    
 Madelung                    :     -43391.8346556    
 xc potential                :     -919.379896726    
 exchange                    :     -684.915632828    
 correlation                 :     -9.40300012602    
 total energy                :     -34575.5270192    
 
Density of states at Fermi energy :    27.25233892    
 (states/Hartree/unit cell)
 
Estimated indirect band gap :   0.4614686063E-03
 from k-point    281 to k-point     80
Estimated direct band gap   :   0.5925262486E-02
 at k-point    208
 
Charges :
 core                        :    92.00000000    
 valence                     :    60.00000000    
 interstitial                :    4.046636149    
 muffin-tins (core leakage)
  species :    1 (Os)
   atom    1                 :    73.97668193     (  0.9449291127E-06)
   atom    2                 :    73.97668193     (  0.9449291127E-06)
 total in muffin-tins        :    147.9533639    
 total calculated charge     :    151.9995682    
 total charge                :    152.0000000    
 error                       :   0.4318053068E-03
 
Wrote STATE.OUT
 
RMS change in Kohn-Sham potential (target) :   0.3917396896E-05 (   10.00000000    )
Absolute change in total energy (target)   :   0.2919696271E-06 (  0.1000000000E-07)
 
Time (CPU seconds) :      2883.44
 
+--------------------+
| Loop number :   33 |
+--------------------+
 
Energies :
 Fermi                       :     0.727299283814    
 sum of eigenvalues          :     -21169.6068240    
 electron kinetic            :      39271.4794653    
 core electron kinetic       :      37772.7493120    
 Coulomb                     :     -73152.6878519    
 Coulomb potential           :     -59521.7063926    
 nuclear-nuclear             :     -2916.24330671    
 electron-nuclear            :     -80951.1826977    
 Hartree                     :      10714.7381526    
 Madelung                    :     -43391.8346556    
 xc potential                :     -919.379896720    
 exchange                    :     -684.915632823    
 correlation                 :     -9.40300012608    
 total energy                :     -34575.5270195    
 
Density of states at Fermi energy :    27.25233736    
 (states/Hartree/unit cell)
 
Estimated indirect band gap :   0.4614687147E-03
 from k-point    281 to k-point     80
Estimated direct band gap   :   0.5925262489E-02
 at k-point    208
 
Charges :
 core                        :    92.00000000    
 valence                     :    60.00000000    
 interstitial                :    4.046636149    
 muffin-tins (core leakage)
  species :    1 (Os)
   atom    1                 :    73.97668193     (  0.9448929532E-06)
   atom    2                 :    73.97668193     (  0.9448929532E-06)
 total in muffin-tins        :    147.9533639    
 total calculated charge     :    151.9995682    
 total charge                :    152.0000000    
 error                       :   0.4318052276E-03
 
RMS change in Kohn-Sham potential (target) :   0.1604950759E-04 (   10.00000000    )
Absolute change in total energy (target)   :   0.2725719241E-06 (  0.1000000000E-07)
 
Time (CPU seconds) :      2975.37
 
+--------------------+
| Loop number :   34 |
+--------------------+
 
Energies :
 Fermi                       :     0.727299283847    
 sum of eigenvalues          :     -21169.6068240    
 electron kinetic            :      39271.4794661    
 core electron kinetic       :      37772.7493129    
 Coulomb                     :     -73152.6878523    
 Coulomb potential           :     -59521.7063934    
 nuclear-nuclear             :     -2916.24330671    
 electron-nuclear            :     -80951.1826977    
 Hartree                     :      10714.7381522    
 Madelung                    :     -43391.8346556    
 xc potential                :     -919.379896725    
 exchange                    :     -684.915632832    
 correlation                 :     -9.40300012603    
 total energy                :     -34575.5270191    
 
Density of states at Fermi energy :    27.25233619    
 (states/Hartree/unit cell)
 
Estimated indirect band gap :   0.4614687801E-03
 from k-point    281 to k-point     80
Estimated direct band gap   :   0.5925262494E-02
 at k-point    208
 
Charges :
 core                        :    92.00000000    
 valence                     :    60.00000000    
 interstitial                :    4.046636148    
 muffin-tins (core leakage)
  species :    1 (Os)
   atom    1                 :    73.97668193     (  0.9448187015E-06)
   atom    2                 :    73.97668193     (  0.9448187015E-06)
 total in muffin-tins        :    147.9533639    
 total calculated charge     :    151.9995682    
 total charge                :    152.0000000    
 error                       :   0.4318050891E-03
 
Wrote STATE.OUT
 
RMS change in Kohn-Sham potential (target) :   0.2676404366E-04 (   10.00000000    )
Absolute change in total energy (target)   :   0.3315290087E-06 (  0.1000000000E-07)
 
Time (CPU seconds) :      3068.41
 
+--------------------+
| Loop number :   35 |
+--------------------+
 
Energies :
 Fermi                       :     0.727299283653    
 sum of eigenvalues          :     -21169.6068240    
 electron kinetic            :      39271.4794654    
 core electron kinetic       :      37772.7493122    
 Coulomb                     :     -73152.6878520    
 Coulomb potential           :     -59521.7063928    
 nuclear-nuclear             :     -2916.24330671    
 electron-nuclear            :     -80951.1826977    
 Hartree                     :      10714.7381525    
 Madelung                    :     -43391.8346556    
 xc potential                :     -919.379896721    
 exchange                    :     -684.915632820    
 correlation                 :     -9.40300012668    
 total energy                :     -34575.5270195    
 
Density of states at Fermi energy :    27.25233306    
 (states/Hartree/unit cell)
 
Estimated indirect band gap :   0.4614689909E-03
 from k-point    281 to k-point     80
Estimated direct band gap   :   0.5925262505E-02
 at k-point    208
 
Charges :
 core                        :    92.00000000    
 valence                     :    60.00000000    
 interstitial                :    4.046636149    
 muffin-tins (core leakage)
  species :    1 (Os)
   atom    1                 :    73.97668193     (  0.9448328626E-06)
   atom    2                 :    73.97668193     (  0.9448328626E-06)
 total in muffin-tins        :    147.9533639    
 total calculated charge     :    151.9995682    
 total charge                :    152.0000000    
 error                       :   0.4318051179E-03
 
RMS change in Kohn-Sham potential (target) :   0.1302476900E-04 (   10.00000000    )
Absolute change in total energy (target)   :   0.2623855835E-06 (  0.1000000000E-07)
 
Time (CPU seconds) :      3155.70
 
+--------------------+
| Loop number :   36 |
+--------------------+
 
Energies :
 Fermi                       :     0.727299283718    
 sum of eigenvalues          :     -21169.6068241    
 electron kinetic            :      39271.4794651    
 core electron kinetic       :      37772.7493119    
 Coulomb                     :     -73152.6878518    
 Coulomb potential           :     -59521.7063924    
 nuclear-nuclear             :     -2916.24330671    
 electron-nuclear            :     -80951.1826977    
 Hartree                     :      10714.7381527    
 Madelung                    :     -43391.8346556    
 xc potential                :     -919.379896721    
 exchange                    :     -684.915632823    
 correlation                 :     -9.40300012592    
 total energy                :     -34575.5270197    
 
Density of states at Fermi energy :    27.25233359    
 (states/Hartree/unit cell)
 
Estimated indirect band gap :   0.4614689489E-03
 from k-point    281 to k-point     80
Estimated direct band gap   :   0.5925262507E-02
 at k-point    208
 
Charges :
 core                        :    92.00000000    
 valence                     :    60.00000000    
 interstitial                :    4.046636148    
 muffin-tins (core leakage)
  species :    1 (Os)
   atom    1                 :    73.97668193     (  0.9449034764E-06)
   atom    2                 :    73.97668193     (  0.9449034764E-06)
 total in muffin-tins        :    147.9533639    
 total calculated charge     :    151.9995682    
 total charge                :    152.0000000    
 error                       :   0.4318052346E-03
 
Wrote STATE.OUT
 
RMS change in Kohn-Sham potential (target) :   0.1210788355E-04 (   10.00000000    )
Absolute change in total energy (target)   :   0.2494343789E-06 (  0.1000000000E-07)
 
Time (CPU seconds) :      3246.47
 
+--------------------+
| Loop number :   37 |
+--------------------+
 
Energies :
 Fermi                       :     0.727299283678    
 sum of eigenvalues          :     -21169.6068240    
 electron kinetic            :      39271.4794658    
 core electron kinetic       :      37772.7493126    
 Coulomb                     :     -73152.6878521    
 Coulomb potential           :     -59521.7063931    
 nuclear-nuclear             :     -2916.24330671    
 electron-nuclear            :     -80951.1826977    
 Hartree                     :      10714.7381523    
 Madelung                    :     -43391.8346556    
 xc potential                :     -919.379896724    
 exchange                    :     -684.915632828    
 correlation                 :     -9.40300012624    
 total energy                :     -34575.5270193    
 
Density of states at Fermi energy :    27.25233295    
 (states/Hartree/unit cell)
 
Estimated indirect band gap :   0.4614690012E-03
 from k-point    281 to k-point     80
Estimated direct band gap   :   0.5925262514E-02
 at k-point    208
 
Charges :
 core                        :    92.00000000    
 valence                     :    60.00000000    
 interstitial                :    4.046636149    
 muffin-tins (core leakage)
  species :    1 (Os)
   atom    1                 :    73.97668193     (  0.9448142393E-06)
   atom    2                 :    73.97668193     (  0.9448142393E-06)
 total in muffin-tins        :    147.9533639    
 total calculated charge     :    151.9995682    
 total charge                :    152.0000000    
 error                       :   0.4318050539E-03
 
RMS change in Kohn-Sham potential (target) :   0.5735023003E-04 (   10.00000000    )
Absolute change in total energy (target)   :   0.3008462954E-06 (  0.1000000000E-07)
 
Time (CPU seconds) :      3336.31
 
+--------------------+
| Loop number :   38 |
+--------------------+
 
Energies :
 Fermi                       :     0.727299283628    
 sum of eigenvalues          :     -21169.6068241    
 electron kinetic            :      39271.4794653    
 core electron kinetic       :      37772.7493122    
 Coulomb                     :     -73152.6878519    
 Coulomb potential           :     -59521.7063927    
 nuclear-nuclear             :     -2916.24330671    
 electron-nuclear            :     -80951.1826977    
 Hartree                     :      10714.7381525    
 Madelung                    :     -43391.8346556    
 xc potential                :     -919.379896722    
 exchange                    :     -684.915632827    
 correlation                 :     -9.40300012592    
 total energy                :     -34575.5270196    
 
Density of states at Fermi energy :    27.25233248    
 (states/Hartree/unit cell)
 
Estimated indirect band gap :   0.4614690312E-03
 from k-point    281 to k-point     80
Estimated direct band gap   :   0.5925262517E-02
 at k-point    208
 
Charges :
 core                        :    92.00000000    
 valence                     :    60.00000000    
 interstitial                :    4.046636149    
 muffin-tins (core leakage)
  species :    1 (Os)
   atom    1                 :    73.97668193     (  0.9448330971E-06)
   atom    2                 :    73.97668193     (  0.9448330971E-06)
 total in muffin-tins        :    147.9533639    
 total calculated charge     :    151.9995682    
 total charge                :    152.0000000    
 error                       :   0.4318051110E-03
 
Wrote STATE.OUT
 
RMS change in Kohn-Sham potential (target) :   0.9875245026E-05 (   10.00000000    )
Absolute change in total energy (target)   :   0.1906519174E-06 (  0.1000000000E-07)
 
Time (CPU seconds) :      3426.09
 
+--------------------+
| Loop number :   39 |
+--------------------+
 
Energies :
 Fermi                       :     0.727299283747    
 sum of eigenvalues          :     -21169.6068240    
 electron kinetic            :      39271.4794664    
 core electron kinetic       :      37772.7493133    
 Coulomb                     :     -73152.6878524    
 Coulomb potential           :     -59521.7063937    
 nuclear-nuclear             :     -2916.24330671    
 electron-nuclear            :     -80951.1826977    
 Hartree                     :      10714.7381520    
 Madelung                    :     -43391.8346556    
 xc potential                :     -919.379896730    
 exchange                    :     -684.915632833    
 correlation                 :     -9.40300012606    
 total energy                :     -34575.5270190    
 
Density of states at Fermi energy :    27.25233315    
 (states/Hartree/unit cell)
 
Estimated indirect band gap :   0.4614689768E-03
 from k-point    281 to k-point     80
Estimated direct band gap   :   0.5925262518E-02
 at k-point    208
 
Charges :
 core                        :    92.00000000    
 valence                     :    60.00000000    
 interstitial                :    4.046636148    
 muffin-tins (core leakage)
  species :    1 (Os)
   atom    1                 :    73.97668193     (  0.9449211973E-06)
   atom    2                 :    73.97668193     (  0.9449211973E-06)
 total in muffin-tins        :    147.9533639    
 total calculated charge     :    151.9995682    
 total charge                :    152.0000000    
 error                       :   0.4318052727E-03
 
RMS change in Kohn-Sham potential (target) :   0.5503525503E-05 (   10.00000000    )
Absolute change in total energy (target)   :   0.5339607014E-06 (  0.1000000000E-07)
 
Time (CPU seconds) :      3517.60
 
+--------------------+
| Loop number :   40 |
+--------------------+
 
Energies :
 Fermi                       :     0.727299283746    
 sum of eigenvalues          :     -21169.6068240    
 electron kinetic            :      39271.4794651    
 core electron kinetic       :      37772.7493119    
 Coulomb                     :     -73152.6878518    
 Coulomb potential           :     -59521.7063924    
 nuclear-nuclear             :     -2916.24330671    
 electron-nuclear            :     -80951.1826977    
 Hartree                     :      10714.7381527    
 Madelung                    :     -43391.8346556    
 xc potential                :     -919.379896714    
 exchange                    :     -684.915632820    
 correlation                 :     -9.40300012632    
 total energy                :     -34575.5270197    
 
Density of states at Fermi energy :    27.25233317    
 (states/Hartree/unit cell)
 
Estimated indirect band gap :   0.4614689765E-03
 from k-point    281 to k-point     80
Estimated direct band gap   :   0.5925262518E-02
 at k-point    208
 
Charges :
 core                        :    92.00000000    
 valence                     :    60.00000000    
 interstitial                :    4.046636148    
 muffin-tins (core leakage)
  species :    1 (Os)
   atom    1                 :    73.97668193     (  0.9448946514E-06)
   atom    2                 :    73.97668193     (  0.9448946514E-06)
 total in muffin-tins        :    147.9533639    
 total calculated charge     :    151.9995682    
 total charge                :    152.0000000    
 error                       :   0.4318052401E-03
 
Wrote STATE.OUT
 
RMS change in Kohn-Sham potential (target) :   0.3262881600E-04 (   10.00000000    )
Absolute change in total energy (target)   :   0.5380352377E-06 (  0.1000000000E-07)
 
Time (CPU seconds) :      3606.20
 
+--------------------+
| Loop number :   41 |
+--------------------+
 
Energies :
 Fermi                       :     0.727299283807    
 sum of eigenvalues          :     -21169.6068240    
 electron kinetic            :      39271.4794659    
 core electron kinetic       :      37772.7493128    
 Coulomb                     :     -73152.6878522    
 Coulomb potential           :     -59521.7063932    
 nuclear-nuclear             :     -2916.24330671    
 electron-nuclear            :     -80951.1826977    
 Hartree                     :      10714.7381522    
 Madelung                    :     -43391.8346556    
 xc potential                :     -919.379896722    
 exchange                    :     -684.915632829    
 correlation                 :     -9.40300012623    
 total energy                :     -34575.5270192    
 
Density of states at Fermi energy :    27.25233353    
 (states/Hartree/unit cell)
 
Estimated indirect band gap :   0.4614689409E-03
 from k-point    281 to k-point     80
Estimated direct band gap   :   0.5925262518E-02
 at k-point    208
 
Charges :
 core                        :    92.00000000    
 valence                     :    60.00000000    
 interstitial                :    4.046636148    
 muffin-tins (core leakage)
  species :    1 (Os)
   atom    1                 :    73.97668193     (  0.9448337792E-06)
   atom    2                 :    73.97668193     (  0.9448337792E-06)
 total in muffin-tins        :    147.9533639    
 total calculated charge     :    151.9995682    
 total charge                :    152.0000000    
 error                       :   0.4318051048E-03
 
RMS change in Kohn-Sham potential (target) :   0.4353273125E-04 (   10.00000000    )
Absolute change in total energy (target)   :   0.3061068128E-06 (  0.1000000000E-07)
 
Time (CPU seconds) :      3695.40
 
+--------------------+
| Loop number :   42 |
+--------------------+
 
Energies :
 Fermi                       :     0.727299283788    
 sum of eigenvalues          :     -21169.6068240    
 electron kinetic            :      39271.4794653    
 core electron kinetic       :      37772.7493121    
 Coulomb                     :     -73152.6878519    
 Coulomb potential           :     -59521.7063926    
 nuclear-nuclear             :     -2916.24330671    
 electron-nuclear            :     -80951.1826977    
 Hartree                     :      10714.7381526    
 Madelung                    :     -43391.8346556    
 xc potential                :     -919.379896724    
 exchange                    :     -684.915632825    
 correlation                 :     -9.40300012591    
 total energy                :     -34575.5270196    
 
Density of states at Fermi energy :    27.25233342    
 (states/Hartree/unit cell)
 
Estimated indirect band gap :   0.4614689500E-03
 from k-point    281 to k-point     80
Estimated direct band gap   :   0.5925262518E-02
 at k-point    208
 
Charges :
 core                        :    92.00000000    
 valence                     :    60.00000000    
 interstitial                :    4.046636148    
 muffin-tins (core leakage)
  species :    1 (Os)
   atom    1                 :    73.97668193     (  0.9448388241E-06)
   atom    2                 :    73.97668193     (  0.9448388241E-06)
 total in muffin-tins        :    147.9533639    
 total calculated charge     :    151.9995682    
 total charge                :    152.0000000    
 error                       :   0.4318051297E-03
 
Wrote STATE.OUT
 
RMS change in Kohn-Sham potential (target) :   0.4112744643E-05 (   10.00000000    )
Absolute change in total energy (target)   :   0.2732849680E-06 (  0.1000000000E-07)
 
Time (CPU seconds) :      3784.32
 
+--------------------+
| Loop number :   43 |
+--------------------+
 
Energies :
 Fermi                       :     0.727299283737    
 sum of eigenvalues          :     -21169.6068240    
 electron kinetic            :      39271.4794663    
 core electron kinetic       :      37772.7493132    
 Coulomb                     :     -73152.6878524    
 Coulomb potential           :     -59521.7063936    
 nuclear-nuclear             :     -2916.24330671    
 electron-nuclear            :     -80951.1826977    
 Hartree                     :      10714.7381521    
 Madelung                    :     -43391.8346556    
 xc potential                :     -919.379896728    
 exchange                    :     -684.915632824    
 correlation                 :     -9.40300012690    
 total energy                :     -34575.5270190    
 
Density of states at Fermi energy :    27.25233303    
 (states/Hartree/unit cell)
 
Estimated indirect band gap :   0.4614690000E-03
 from k-point    281 to k-point     80
Estimated direct band gap   :   0.5925262519E-02
 at k-point    208
 
Charges :
 core                        :    92.00000000    
 valence                     :    60.00000000    
 interstitial                :    4.046636149    
 muffin-tins (core leakage)
  species :    1 (Os)
   atom    1                 :    73.97668193     (  0.9448328271E-06)
   atom    2                 :    73.97668193     (  0.9448328271E-06)
 total in muffin-tins        :    147.9533639    
 total calculated charge     :    151.9995682    
 total charge                :    152.0000000    
 error                       :   0.4318051070E-03
 
RMS change in Kohn-Sham potential (target) :   0.3949515408E-04 (   10.00000000    )
Absolute change in total energy (target)   :   0.4929679562E-06 (  0.1000000000E-07)
 
Time (CPU seconds) :      3876.14
 
+--------------------+
| Loop number :   44 |
+--------------------+
 
Energies :
 Fermi                       :     0.727299283807    
 sum of eigenvalues          :     -21169.6068240    
 electron kinetic            :      39271.4794654    
 core electron kinetic       :      37772.7493121    
 Coulomb                     :     -73152.6878519    
 Coulomb potential           :     -59521.7063927    
 nuclear-nuclear             :     -2916.24330671    
 electron-nuclear            :     -80951.1826977    
 Hartree                     :      10714.7381525    
 Madelung                    :     -43391.8346556    
 xc potential                :     -919.379896721    
 exchange                    :     -684.915632823    
 correlation                 :     -9.40300012600    
 total energy                :     -34575.5270195    
 
Density of states at Fermi energy :    27.25233361    
 (states/Hartree/unit cell)
 
Estimated indirect band gap :   0.4614689430E-03
 from k-point    281 to k-point     80
Estimated direct band gap   :   0.5925262519E-02
 at k-point    208
 
Charges :
 core                        :    92.00000000    
 valence                     :    60.00000000    
 interstitial                :    4.046636148    
 muffin-tins (core leakage)
  species :    1 (Os)
   atom    1                 :    73.97668193     (  0.9449655565E-06)
   atom    2                 :    73.97668193     (  0.9449655565E-06)
 total in muffin-tins        :    147.9533639    
 total calculated charge     :    151.9995682    
 total charge                :    152.0000000    
 error                       :   0.4318053537E-03
 
Wrote STATE.OUT
 
RMS change in Kohn-Sham potential (target) :   0.5369953273E-04 (   10.00000000    )
Absolute change in total energy (target)   :   0.3839013516E-06 (  0.1000000000E-07)
 
Time (CPU seconds) :      3966.37
 
+--------------------+
| Loop number :   45 |
+--------------------+
 
Energies :
 Fermi                       :     0.727299283694    
 sum of eigenvalues          :     -21169.6068240    
 electron kinetic            :      39271.4794662    
 core electron kinetic       :      37772.7493130    
 Coulomb                     :     -73152.6878523    
 Coulomb potential           :     -59521.7063935    
 nuclear-nuclear             :     -2916.24330671    
 electron-nuclear            :     -80951.1826977    
 Hartree                     :      10714.7381521    
 Madelung                    :     -43391.8346556    
 xc potential                :     -919.379896729    
 exchange                    :     -684.915632823    
 correlation                 :     -9.40300012678    
 total energy                :     -34575.5270191    
 
Density of states at Fermi energy :    27.25233311    
 (states/Hartree/unit cell)
 
Estimated indirect band gap :   0.4614689993E-03
 from k-point    281 to k-point     80
Estimated direct band gap   :   0.5925262519E-02
 at k-point    208
 
Charges :
 core                        :    92.00000000    
 valence                     :    60.00000000    
 interstitial                :    4.046636149    
 muffin-tins (core leakage)
  species :    1 (Os)
   atom    1                 :    73.97668193     (  0.9449583871E-06)
   atom    2                 :    73.97668193     (  0.9449583871E-06)
 total in muffin-tins        :    147.9533639    
 total calculated charge     :    151.9995682    
 total charge                :    152.0000000    
 error                       :   0.4318053424E-03
 
RMS change in Kohn-Sham potential (target) :   0.1369809347E-04 (   10.00000000    )
Absolute change in total energy (target)   :   0.3449968062E-06 (  0.1000000000E-07)
 
Time (CPU seconds) :      4055.56
 
+--------------------+
| Loop number :   46 |
+--------------------+
 
Energies :
 Fermi                       :     0.727299283667    
 sum of eigenvalues          :     -21169.6068240    
 electron kinetic            :      39271.4794652    
 core electron kinetic       :      37772.7493119    
 Coulomb                     :     -73152.6878519    
 Coulomb potential           :     -59521.7063925    
 nuclear-nuclear             :     -2916.24330671    
 electron-nuclear            :     -80951.1826977    
 Hartree                     :      10714.7381526    
 Madelung                    :     -43391.8346556    
 xc potential                :     -919.379896716    
 exchange                    :     -684.915632817    
 correlation                 :     -9.40300012663    
 total energy                :     -34575.5270196    
 
Density of states at Fermi energy :    27.25233302    
 (states/Hartree/unit cell)
 
Estimated indirect band gap :   0.4614690104E-03
 from k-point    281 to k-point     80
Estimated direct band gap   :   0.5925262519E-02
 at k-point    208
 
Charges :
 core                        :    92.00000000    
 valence                     :    60.00000000    
 interstitial                :    4.046636149    
 muffin-tins (core leakage)
  species :    1 (Os)
   atom    1                 :    73.97668193     (  0.9449994138E-06)
   atom    2                 :    73.97668193     (  0.9449994138E-06)
 total in muffin-tins        :    147.9533639    
 total calculated charge     :    151.9995682    
 total charge                :    152.0000000    
 error                       :   0.4318054358E-03
 
Wrote STATE.OUT
 
RMS change in Kohn-Sham potential (target) :   0.3845908318E-04 (   10.00000000    )
Absolute change in total energy (target)   :   0.4278699635E-06 (  0.1000000000E-07)
 
Time (CPU seconds) :      4143.00
 
+--------------------+
| Loop number :   47 |
+--------------------+
 
Energies :
 Fermi                       :     0.727299283719    
 sum of eigenvalues          :     -21169.6068241    
 electron kinetic            :      39271.4794648    
 core electron kinetic       :      37772.7493116    
 Coulomb                     :     -73152.6878517    
 Coulomb potential           :     -59521.7063922    
 nuclear-nuclear             :     -2916.24330671    
 electron-nuclear            :     -80951.1826977    
 Hartree                     :      10714.7381528    
 Madelung                    :     -43391.8346556    
 xc potential                :     -919.379896718    
 exchange                    :     -684.915632815    
 correlation                 :     -9.40300012682    
 total energy                :     -34575.5270198    
 
Density of states at Fermi energy :    27.25233340    
 (states/Hartree/unit cell)
 
Estimated indirect band gap :   0.4614689682E-03
 from k-point    281 to k-point     80
Estimated direct band gap   :   0.5925262519E-02
 at k-point    208
 
Charges :
 core                        :    92.00000000    
 valence                     :    60.00000000    
 interstitial                :    4.046636148    
 muffin-tins (core leakage)
  species :    1 (Os)
   atom    1                 :    73.97668193     (  0.9448738751E-06)
   atom    2                 :    73.97668193     (  0.9448738751E-06)
 total in muffin-tins        :    147.9533639    
 total calculated charge     :    151.9995682    
 total charge                :    152.0000000    
 error                       :   0.4318051748E-03
 
RMS change in Kohn-Sham potential (target) :   0.1376923620E-04 (   10.00000000    )
Absolute change in total energy (target)   :   0.3164750524E-06 (  0.1000000000E-07)
 
Time (CPU seconds) :      4233.34
 
+--------------------+
| Loop number :   48 |
+--------------------+
 
Energies :
 Fermi                       :     0.727299283733    
 sum of eigenvalues          :     -21169.6068241    
 electron kinetic            :      39271.4794658    
 core electron kinetic       :      37772.7493126    
 Coulomb                     :     -73152.6878521    
 Coulomb potential           :     -59521.7063931    
 nuclear-nuclear             :     -2916.24330671    
 electron-nuclear            :     -80951.1826977    
 Hartree                     :      10714.7381523    
 Madelung                    :     -43391.8346556    
 xc potential                :     -919.379896727    
 exchange                    :     -684.915632827    
 correlation                 :     -9.40300012631    
 total energy                :     -34575.5270193    
 
Density of states at Fermi energy :    27.25233338    
 (states/Hartree/unit cell)
 
Estimated indirect band gap :   0.4614689701E-03
 from k-point    281 to k-point     80
Estimated direct band gap   :   0.5925262519E-02
 at k-point    208
 
Charges :
 core                        :    92.00000000    
 valence                     :    60.00000000    
 interstitial                :    4.046636148    
 muffin-tins (core leakage)
  species :    1 (Os)
   atom    1                 :    73.97668193     (  0.9449037108E-06)
   atom    2                 :    73.97668193     (  0.9449037108E-06)
 total in muffin-tins        :    147.9533639    
 total calculated charge     :    151.9995682    
 total charge                :    152.0000000    
 error                       :   0.4318052375E-03
 
Wrote STATE.OUT
 
RMS change in Kohn-Sham potential (target) :   0.1290393260E-04 (   10.00000000    )
Absolute change in total energy (target)   :   0.3801396815E-06 (  0.1000000000E-07)
 
Time (CPU seconds) :      4321.16
 
+--------------------+
| Loop number :   49 |
+--------------------+
 
Energies :
 Fermi                       :     0.727299283717    
 sum of eigenvalues          :     -21169.6068241    
 electron kinetic            :      39271.4794656    
 core electron kinetic       :      37772.7493124    
 Coulomb                     :     -73152.6878520    
 Coulomb potential           :     -59521.7063929    
 nuclear-nuclear             :     -2916.24330671    
 electron-nuclear            :     -80951.1826977    
 Hartree                     :      10714.7381524    
 Madelung                    :     -43391.8346556    
 xc potential                :     -919.379896725    
 exchange                    :     -684.915632821    
 correlation                 :     -9.40300012693    
 total energy                :     -34575.5270194    
 
Density of states at Fermi energy :    27.25233324    
 (states/Hartree/unit cell)
 
Estimated indirect band gap :   0.4614689875E-03
 from k-point    281 to k-point     80
Estimated direct band gap   :   0.5925262519E-02
 at k-point    208
 
Charges :
 core                        :    92.00000000    
 valence                     :    60.00000000    
 interstitial                :    4.046636149    
 muffin-tins (core leakage)
  species :    1 (Os)
   atom    1                 :    73.97668193     (  0.9448896776E-06)
   atom    2                 :    73.97668193     (  0.9448896776E-06)
 total in muffin-tins        :    147.9533639    
 total calculated charge     :    151.9995682    
 total charge                :    152.0000000    
 error                       :   0.4318052022E-03
 
RMS change in Kohn-Sham potential (target) :   0.2275904949E-04 (   10.00000000    )
Absolute change in total energy (target)   :   0.9022187442E-08 (  0.1000000000E-07)
 
Convergence targets achieved
 
Time (CPU seconds) :      4410.49
 
+--------------------+
| Loop number :   50 |
+--------------------+
 
Energies :
 Fermi                       :     0.727299283712    
 sum of eigenvalues          :     -21169.6068241    
 electron kinetic            :      39271.4794658    
 core electron kinetic       :      37772.7493127    
 Coulomb                     :     -73152.6878522    
 Coulomb potential           :     -59521.7063932    
 nuclear-nuclear             :     -2916.24330671    
 electron-nuclear            :     -80951.1826977    
 Hartree                     :      10714.7381523    
 Madelung                    :     -43391.8346556    
 xc potential                :     -919.379896725    
 exchange                    :     -684.915632833    
 correlation                 :     -9.40300012571    
 total energy                :     -34575.5270193    
 
Density of states at Fermi energy :    27.25233323    
 (states/Hartree/unit cell)
 
Estimated indirect band gap :   0.4614689885E-03
 from k-point    281 to k-point     80
Estimated direct band gap   :   0.5925262519E-02
 at k-point    208
 
Charges :
 core                        :    92.00000000    
 valence                     :    60.00000000    
 interstitial                :    4.046636149    
 muffin-tins (core leakage)
  species :    1 (Os)
   atom    1                 :    73.97668193     (  0.9448838796E-06)
   atom    2                 :    73.97668193     (  0.9448838796E-06)
 total in muffin-tins        :    147.9533639    
 total calculated charge     :    151.9995682    
 total charge                :    152.0000000    
 error                       :   0.4318052005E-03
 
Wrote STATE.OUT
 
+------------------------------+
| Self-consistent loop stopped |
+------------------------------+
 
Wrote STATE.OUT
 
Timings (CPU seconds) :
 initialisation                        :         1.14
 Hamiltonian and overlap matrix set up :       794.03
 first-variational eigenvalue equation :      1275.54
 charge density calculation            :      1461.56
 potential calculation                 :       968.89
 total                                 :      4501.16
 
+----------------------------+
| Elk version 8.3.15 stopped |
+----------------------------+
