    -610.004969874    
    -609.901035943    
    -606.578911291    
    -604.190431061    
    -603.006278097    
    -602.581871350    
    -602.431159993    
    -602.447380539    
    -602.447454725    
    -602.445825055    
    -602.444391773    
    -602.444247340    
    -602.444197118    
    -602.444227677    
    -602.444238837    
    -602.444235886    
    -602.444223450    
    -602.444228812    
    -602.444226789    
    -602.444227233    
    -602.444224237    
    -602.444224615    
    -602.444227396    
    -602.444225773    
    -602.444225977    
    -602.444224449    
    -602.444224605    
    -602.444224837    
    -602.444225164    
    -602.444225822    
    -602.444225559    
    -602.444225307    
    -602.444225397    
    -602.444225396    
    -602.444225457    
