   4.856480863    
   15.27146080    
   111.2943577    
   107.6353487    
   60.36551235    
   28.45034610    
   6.847391440    
   1.724837283    
  0.4066847518    
  0.1003893493    
  0.2680036905E-01
  0.7723112503E-02
  0.2180151721E-02
  0.9120889590E-03
  0.2922340427E-03
  0.1005423037E-03
  0.2071128620E-03
  0.8677267761E-04
  0.4675399396E-04
  0.1176228834E-03
  0.5729705299E-04
  0.1110318408E-04
  0.1513394091E-04
  0.4134199116E-05
  0.2076842065E-05
  0.7349866792E-05
  0.5693960702E-05
  0.2534616215E-05
  0.8168062777E-06
  0.3427630872E-06
  0.3667308192E-05
  0.2562723239E-05
  0.1177053491E-05
  0.1252832590E-05
  0.3273613402E-05
  0.3271125024E-06
  0.7006747182E-08
