   1.205150079    
   1.138557859    
  0.6196617491    
  0.2322750702    
  0.6665290362E-01
  0.2454587308E-02
  0.7577708266E-03
  0.2374376248E-03
  0.7817334031E-04
  0.4164915953E-04
  0.2080267899E-04
  0.1020805555E-04
  0.1223083869E-04
  0.2729375505E-05
  0.2702658887E-05
  0.7895190119E-04
  0.3622755107E-05
  0.7640055774E-05
  0.1141385204E-04
  0.6688924401E-04
  0.1833102923E-04
  0.3692434842E-05
  0.1650381295E-04
  0.3752427941E-05
  0.2572804048E-04
  0.3410004606E-05
  0.1295441396E-04
  0.1667501493E-05
  0.9502876559E-05
  0.4814465555E-04
  0.3949479826E-04
  0.3263834442E-05
  0.7475483289E-05
  0.8462868827E-05
  0.2256180635E-04
  0.1464670459E-04
  0.5686781154E-05
