    0.437413706993E-04
    0.426983980250E-04
    0.416504793814E-04
    0.111849910235E-03
    0.119321128451E-03
    0.203785731596E-04
    0.746955048785E-04
    0.617873804257E-04
    0.496211379686E-04
    0.578476833244E-04
    0.619276504000E-04
    0.619312274830E-04
    0.603145722797E-04
    0.607272782527E-04
    0.596514575957E-04
    0.594220130388E-04
    0.592038270929E-04
    0.590272465595E-04
    0.590506492364E-04
    0.592598093019E-04
    0.593057465519E-04
    0.593387884067E-04
    0.593477306079E-04
    0.593267813263E-04
    0.594081060690E-04
    0.593924088866E-04
    0.593939095996E-04
    0.593676198581E-04
    0.593662996011E-04
    0.593610853237E-04
    0.593628770285E-04
    0.593625616085E-04
    0.593636436599E-04
    0.593669937110E-04
    0.593674890010E-04
    0.593672580707E-04
    0.593678210468E-04
    0.593685880065E-04
    0.593671214959E-04
    0.593673639027E-04
    0.593678465075E-04
    0.593674978946E-04
    0.593676320739E-04
    0.593677831201E-04
    0.593679441518E-04
    0.593679621004E-04
    0.593680128267E-04
    0.593680476035E-04
    0.593680597729E-04
    0.593680659016E-04
    0.593680644267E-04
    0.593681063139E-04
    0.593681190870E-04
    0.593680721763E-04
    0.593681574823E-04
    0.593681241114E-04
    0.593681077161E-04
    0.593680838399E-04
