+----------------------------+
| Elk version 8.3.15 started |
+----------------------------+
 
Date (YYYY-MM-DD) : 2022-02-24
Time (hh:mm:ss)   : 09:54:54
 
All units are atomic (Hartree, Bohr, etc.)
 
+------------------------------------------+
| Ground-state run resuming from STATE.OUT |
+------------------------------------------+
 
Lattice vectors :
   5.441748598      -3.141795019       0.000000000    
   0.000000000       6.283590036       0.000000000    
   0.000000000       0.000000000       9.462761131    
 
Reciprocal lattice vectors :
   1.154626164       0.000000000       0.000000000    
  0.5773130819      0.9999355895       0.000000000    
   0.000000000       0.000000000      0.6639906915    
 
Unit cell volume      :    323.5669787    
Brillouin zone volume :   0.7666116438    
 
Muffin-tin inner radius fraction :   0.1000000000E-01
 
Species :    1 (Sc)
 parameters loaded from : Sc.in
 name : scandium
 nuclear charge    :   -21.00000000    
 electronic charge :    21.00000000    
 atomic mass :    81949.61066    
 muffin-tin radius :    2.400000000    
 number of radial points in muffin-tin :   1000
 number on inner part of muffin-tin    :    716
 atomic positions (lattice), magnetic fields (Cartesian) :
   1 :   0.33333333  0.16666667  0.25000000    0.00000000  0.00000000  0.00000000
   2 :  -0.33333333 -0.16666667 -0.25000000    0.00000000  0.00000000  0.00000000
 
Total number of atoms per unit cell :    2
 
Spin treatment :
 spin-unpolarised
 
Number of Bravais lattice symmetries :   24
Number of crystal symmetries         :   24
Crystal has inversion symmetry
Real symmetric eigensolver will be used
 
k-point grid :     17    17    17
k-point offset :    0.000000000       0.000000000       0.000000000    
k-point set is reduced with full crystal symmetry group
Total number of k-points :      297
 
Muffin-tin radius times maximum |G+k| :    8.500000000    
 using gkmax = rgkmax / 2
Maximum |G+k| for APW functions       :    4.250000000    
Maximum (1/2)|G+k|²                   :    9.031250000    
Maximum |G| for potential and density :    34.00000000    
Constant for pseudocharge density :   20
Radial integration step length :    1
 
G-vector grid sizes :     72    72   108
Number of G-vectors :   214567
 
Maximum angular momentum used for
 APW functions                      :   10
 outer part of muffin-tin           :    8
 inner part of muffin-tin           :    1
 
Total nuclear charge    :   -42.00000000    
Total core charge       :    20.00000000    
Total valence charge    :    22.00000000    
Total excess charge     :    0.000000000    
Total electronic charge :    42.00000000    
 
Effective Wigner radius, rₛ :    1.225205012    
 
Number of empty states         :   40
Total number of valence states :   52
Total number of core states    :   20
 
Conduction state local-orbitals added automatically
Total number of local-orbitals :  242
 
Using Libxc version 05.01.05
Exchange-correlation functional :    100   493   494
 exchange: mgga_x_rscan; correlation: mgga_c_rscan
 
Smearing type :    1
 Methfessel-Paxton order 1, Phys. Rev. B 40, 3616 (1989)
Smearing width :   0.1000000000E-02
Effective electronic temperature (K) :    315.7750248    
 
Mixing type :    3
 Broyden mixing, J. Phys. A: Math. Gen. 17, L317 (1984)
 
Potential read in from STATE.OUT
 
+------------------------------+
| Self-consistent loop started |
+------------------------------+
 
+--------------------+
| Loop number :    1 |
+--------------------+
 
Energies :
 Fermi                       :     0.256434393500    
 sum of eigenvalues          :     -893.721018873    
 electron kinetic            :      1546.25293141    
 core electron kinetic       :      1433.77663617    
 Coulomb                     :     -2996.36139459    
 Coulomb potential           :     -2335.81063960    
 nuclear-nuclear             :     -199.044209917    
 electron-nuclear            :     -3258.82372974    
 Hartree                     :      461.506545072    
 Madelung                    :     -1828.45607479    
 xc potential                :     -104.163310684    
 exchange                    :     -77.2297517941    
 correlation                 :     -1.77749779128    
 total energy                :     -1529.11571276    
 
Density of states at Fermi energy :    122.8475887    
 (states/Hartree/unit cell)
 
Estimated indirect band gap :   0.4774277278E-04
 from k-point     47 to k-point    258
Estimated direct band gap   :   0.2476013460E-02
 at k-point    240
 
Charges :
 core                        :    20.00000000    
 valence                     :    22.00000000    
 interstitial                :    3.802436902    
 muffin-tins (core leakage)
  species :    1 (Sc)
   atom    1                 :    19.09878155     (  0.6465981528E-08)
   atom    2                 :    19.09878155     (  0.6465981528E-08)
 total in muffin-tins        :    38.19756310    
 total calculated charge     :    41.99999877    
 total charge                :    42.00000000    
 error                       :   0.1232063298E-05
 
Time (CPU seconds) :        72.20
 
+--------------------+
| Loop number :    2 |
+--------------------+
 
Energies :
 Fermi                       :     0.256431054558    
 sum of eigenvalues          :     -893.721393129    
 electron kinetic            :      1546.25207906    
 core electron kinetic       :      1433.77617626    
 Coulomb                     :     -2996.36180703    
 Coulomb potential           :     -2335.81008458    
 nuclear-nuclear             :     -199.044209917    
 electron-nuclear            :     -3258.82510965    
 Hartree                     :      461.507512534    
 Madelung                    :     -1828.45676474    
 xc potential                :     -104.163387609    
 exchange                    :     -77.2298023615    
 correlation                 :     -1.77750060819    
 total energy                :     -1529.11703094    
 
Density of states at Fermi energy :    122.5889811    
 (states/Hartree/unit cell)
 
Estimated indirect band gap :   0.1201508575E-04
 from k-point     19 to k-point    258
Estimated direct band gap   :   0.2475562664E-02
 at k-point    240
 
Charges :
 core                        :    20.00000000    
 valence                     :    22.00000000    
 interstitial                :    3.802321078    
 muffin-tins (core leakage)
  species :    1 (Sc)
   atom    1                 :    19.09883946     (  0.6557602461E-08)
   atom    2                 :    19.09883946     (  0.6557602461E-08)
 total in muffin-tins        :    38.19767892    
 total calculated charge     :    41.99999877    
 total charge                :    42.00000000    
 error                       :   0.1225338288E-05
 
Wrote STATE.OUT
 
RMS change in Kohn-Sham potential (target) :   0.1595346531E-01 (   10.00000000    )
Absolute change in total energy (target)   :   0.1318175691E-02 (  0.1000000000E-07)
 
Time (CPU seconds) :       143.38
 
+--------------------+
| Loop number :    3 |
+--------------------+
 
Energies :
 Fermi                       :     0.256419440508    
 sum of eigenvalues          :     -893.721493935    
 electron kinetic            :      1546.24732079    
 core electron kinetic       :      1433.77549837    
 Coulomb                     :     -2996.36254182    
 Coulomb potential           :     -2335.80506352    
 nuclear-nuclear             :     -199.044209917    
 electron-nuclear            :     -3258.83160028    
 Hartree                     :      461.513268383    
 Madelung                    :     -1828.46001006    
 xc potential                :     -104.163751210    
 exchange                    :     -77.2299959100    
 correlation                 :     -1.77753122346    
 total energy                :     -1529.12274816    
 
Density of states at Fermi energy :    118.7889285    
 (states/Hartree/unit cell)
 
Estimated indirect band gap :   0.8283839919E-04
 from k-point     71 to k-point    153
Estimated direct band gap   :   0.2462433329E-02
 at k-point    240
 
Charges :
 core                        :    20.00000000    
 valence                     :    22.00000000    
 interstitial                :    3.801326556    
 muffin-tins (core leakage)
  species :    1 (Sc)
   atom    1                 :    19.09933672     (  0.6542167696E-08)
   atom    2                 :    19.09933672     (  0.6542167696E-08)
 total in muffin-tins        :    38.19867344    
 total calculated charge     :    41.99999886    
 total charge                :    42.00000000    
 error                       :   0.1140169331E-05
 
RMS change in Kohn-Sham potential (target) :   0.1385298924E-01 (   10.00000000    )
Absolute change in total energy (target)   :   0.6046762136E-02 (  0.1000000000E-07)
 
Time (CPU seconds) :       215.12
 
+--------------------+
| Loop number :    4 |
+--------------------+
 
Energies :
 Fermi                       :     0.256419967867    
 sum of eigenvalues          :     -893.721641086    
 electron kinetic            :      1546.22950078    
 core electron kinetic       :      1433.77668034    
 Coulomb                     :     -2996.36555543    
 Coulomb potential           :     -2335.78595162    
 nuclear-nuclear             :     -199.044209917    
 electron-nuclear            :     -3258.85673940    
 Hartree                     :      461.535393892    
 Madelung                    :     -1828.47257962    
 xc potential                :     -104.165190250    
 exchange                    :     -77.2307734754    
 correlation                 :     -1.77763930598    
 total energy                :     -1529.14446743    
 
Density of states at Fermi energy :    107.6748255    
 (states/Hartree/unit cell)
 
Estimated indirect band gap :   0.2270008730E-03
 from k-point    218 to k-point    258
Estimated direct band gap   :   0.2400064592E-02
 at k-point    240
 
Charges :
 core                        :    20.00000000    
 valence                     :    22.00000000    
 interstitial                :    3.797441029    
 muffin-tins (core leakage)
  species :    1 (Sc)
   atom    1                 :    19.10127949     (  0.6485240789E-08)
   atom    2                 :    19.10127949     (  0.6485240789E-08)
 total in muffin-tins        :    38.20255897    
 total calculated charge     :    41.99999918    
 total charge                :    42.00000000    
 error                       :   0.8197282426E-06
 
Wrote STATE.OUT
 
RMS change in Kohn-Sham potential (target) :   0.5456193056E-02 (   10.00000000    )
Absolute change in total energy (target)   :   0.2323095960E-01 (  0.1000000000E-07)
 
Time (CPU seconds) :       289.59
 
+--------------------+
| Loop number :    5 |
+--------------------+
 
Energies :
 Fermi                       :     0.256434879620    
 sum of eigenvalues          :     -893.721856982    
 electron kinetic            :      1546.22305605    
 core electron kinetic       :      1433.77789183    
 Coulomb                     :     -2996.36731452    
 Coulomb potential           :     -2335.77914242    
 nuclear-nuclear             :     -199.044209917    
 electron-nuclear            :     -3258.86706679    
 Hartree                     :      461.543962188    
 Madelung                    :     -1828.47774331    
 xc potential                :     -104.165770617    
 exchange                    :     -77.2310844145    
 correlation                 :     -1.77768177573    
 total energy                :     -1529.15302466    
 
Density of states at Fermi energy :    105.8706119    
 (states/Hartree/unit cell)
 
Estimated indirect band gap :   0.5871175490E-04
 from k-point    297 to k-point     14
Estimated direct band gap   :   0.2367692125E-02
 at k-point    240
 
Charges :
 core                        :    20.00000000    
 valence                     :    22.00000000    
 interstitial                :    3.795928876    
 muffin-tins (core leakage)
  species :    1 (Sc)
   atom    1                 :    19.10203556     (  0.6539806918E-08)
   atom    2                 :    19.10203556     (  0.6539806918E-08)
 total in muffin-tins        :    38.20407112    
 total calculated charge     :    41.99999931    
 total charge                :    42.00000000    
 error                       :   0.6887560673E-06
 
RMS change in Kohn-Sham potential (target) :   0.1968849325E-02 (   10.00000000    )
Absolute change in total energy (target)   :   0.1436497302E-01 (  0.1000000000E-07)
 
Time (CPU seconds) :       362.11
 
+--------------------+
| Loop number :    6 |
+--------------------+
 
Energies :
 Fermi                       :     0.256444444839    
 sum of eigenvalues          :     -893.722454855    
 electron kinetic            :      1546.22119894    
 core electron kinetic       :      1433.77860212    
 Coulomb                     :     -2996.36859296    
 Coulomb potential           :     -2335.77767258    
 nuclear-nuclear             :     -199.044209917    
 electron-nuclear            :     -3258.87109352    
 Hartree                     :      461.546710468    
 Madelung                    :     -1828.47975667    
 xc potential                :     -104.165981219    
 exchange                    :     -77.2312062011    
 correlation                 :     -1.77769422416    
 total energy                :     -1529.15629445    
 
Density of states at Fermi energy :    105.1026436    
 (states/Hartree/unit cell)
 
Estimated indirect band gap :   0.1272801497E-03
 from k-point    218 to k-point     14
Estimated direct band gap   :   0.2356962852E-02
 at k-point    240
 
Charges :
 core                        :    20.00000000    
 valence                     :    22.00000000    
 interstitial                :    3.795518799    
 muffin-tins (core leakage)
  species :    1 (Sc)
   atom    1                 :    19.10224060     (  0.6549756293E-08)
   atom    2                 :    19.10224060     (  0.6549756293E-08)
 total in muffin-tins        :    38.20448120    
 total calculated charge     :    41.99999935    
 total charge                :    42.00000000    
 error                       :   0.6534263477E-06
 
Wrote STATE.OUT
 
RMS change in Kohn-Sham potential (target) :   0.9642398860E-03 (   10.00000000    )
Absolute change in total energy (target)   :   0.6861028994E-02 (  0.1000000000E-07)
 
Time (CPU seconds) :       434.67
 
+--------------------+
| Loop number :    7 |
+--------------------+
 
Energies :
 Fermi                       :     0.256453664951    
 sum of eigenvalues          :     -893.723170952    
 electron kinetic            :      1546.22048652    
 core electron kinetic       :      1433.77893255    
 Coulomb                     :     -2996.36981478    
 Coulomb potential           :     -2335.77755344    
 nuclear-nuclear             :     -199.044209917    
 electron-nuclear            :     -3258.87365630    
 Hartree                     :      461.548051430    
 Madelung                    :     -1828.48103806    
 xc potential                :     -104.166104033    
 exchange                    :     -77.2312832729    
 correlation                 :     -1.77769980202    
 total energy                :     -1529.15831134    
 
Density of states at Fermi energy :    104.7919262    
 (states/Hartree/unit cell)
 
Estimated indirect band gap :   0.1199850453E-03
 from k-point    218 to k-point     38
Estimated direct band gap   :   0.2351983641E-02
 at k-point    240
 
Charges :
 core                        :    20.00000000    
 valence                     :    22.00000000    
 interstitial                :    3.795384079    
 muffin-tins (core leakage)
  species :    1 (Sc)
   atom    1                 :    19.10230796     (  0.6525079144E-08)
   atom    2                 :    19.10230796     (  0.6525079144E-08)
 total in muffin-tins        :    38.20461592    
 total calculated charge     :    41.99999936    
 total charge                :    42.00000000    
 error                       :   0.6447263274E-06
 
RMS change in Kohn-Sham potential (target) :   0.4695121880E-03 (   10.00000000    )
Absolute change in total energy (target)   :   0.3732151950E-02 (  0.1000000000E-07)
 
Time (CPU seconds) :       506.73
 
+--------------------+
| Loop number :    8 |
+--------------------+
 
Energies :
 Fermi                       :     0.256460845916    
 sum of eigenvalues          :     -893.723693687    
 electron kinetic            :      1546.22078367    
 core electron kinetic       :      1433.77845296    
 Coulomb                     :     -2996.37061904    
 Coulomb potential           :     -2335.77834771    
 nuclear-nuclear             :     -199.044209917    
 electron-nuclear            :     -3258.87447054    
 Hartree                     :      461.548061415    
 Madelung                    :     -1828.48144519    
 xc potential                :     -104.166129650    
 exchange                    :     -77.2313034504    
 correlation                 :     -1.77770013337    
 total energy                :     -1529.15883895    
 
Density of states at Fermi energy :    104.9259213    
 (states/Hartree/unit cell)
 
Estimated indirect band gap :   0.1112370549E-03
 from k-point    218 to k-point     14
Estimated direct band gap   :   0.2351524624E-02
 at k-point    240
 
Charges :
 core                        :    20.00000000    
 valence                     :    22.00000000    
 interstitial                :    3.795462005    
 muffin-tins (core leakage)
  species :    1 (Sc)
   atom    1                 :    19.10226900     (  0.6532619778E-08)
   atom    2                 :    19.10226900     (  0.6532619778E-08)
 total in muffin-tins        :    38.20453800    
 total calculated charge     :    41.99999934    
 total charge                :    42.00000000    
 error                       :   0.6556790453E-06
 
Wrote STATE.OUT
 
RMS change in Kohn-Sham potential (target) :   0.3373746040E-04 (   10.00000000    )
Absolute change in total energy (target)   :   0.1460650757E-02 (  0.1000000000E-07)
 
Time (CPU seconds) :       579.02
 
+--------------------+
| Loop number :    9 |
+--------------------+
 
Energies :
 Fermi                       :     0.256458894667    
 sum of eigenvalues          :     -893.723575372    
 electron kinetic            :      1546.22080523    
 core electron kinetic       :      1433.77839475    
 Coulomb                     :     -2996.37042457    
 Coulomb potential           :     -2335.77826455    
 nuclear-nuclear             :     -199.044209917    
 electron-nuclear            :     -3258.87416476    
 Hartree                     :      461.547950101    
 Madelung                    :     -1828.48129229    
 xc potential                :     -104.166116045    
 exchange                    :     -77.2312932025    
 correlation                 :     -1.77770004986    
 total energy                :     -1529.15861260    
 
Density of states at Fermi energy :    104.9173652    
 (states/Hartree/unit cell)
 
Estimated indirect band gap :   0.1133274662E-03
 from k-point    218 to k-point     14
Estimated direct band gap   :   0.2351594933E-02
 at k-point    240
 
Charges :
 core                        :    20.00000000    
 valence                     :    22.00000000    
 interstitial                :    3.795461702    
 muffin-tins (core leakage)
  species :    1 (Sc)
   atom    1                 :    19.10226915     (  0.6531788443E-08)
   atom    2                 :    19.10226915     (  0.6531788443E-08)
 total in muffin-tins        :    38.20453830    
 total calculated charge     :    41.99999934    
 total charge                :    42.00000000    
 error                       :   0.6551772245E-06
 
RMS change in Kohn-Sham potential (target) :   0.7267530812E-04 (   10.00000000    )
Absolute change in total energy (target)   :   0.1388060721E-03 (  0.1000000000E-07)
 
Time (CPU seconds) :       650.27
 
+--------------------+
| Loop number :   10 |
+--------------------+
 
Energies :
 Fermi                       :     0.256457616361    
 sum of eigenvalues          :     -893.723494516    
 electron kinetic            :      1546.22079407    
 core electron kinetic       :      1433.77844392    
 Coulomb                     :     -2996.37029267    
 Coulomb potential           :     -2335.77818012    
 nuclear-nuclear             :     -199.044209917    
 electron-nuclear            :     -3258.87398538    
 Hartree                     :      461.547902631    
 Madelung                    :     -1828.48120261    
 xc potential                :     -104.166108462    
 exchange                    :     -77.2312874464    
 correlation                 :     -1.77769998519    
 total energy                :     -1529.15848603    
 
Density of states at Fermi energy :    104.9025027    
 (states/Hartree/unit cell)
 
Estimated indirect band gap :   0.1157050025E-03
 from k-point    218 to k-point     14
Estimated direct band gap   :   0.2351617793E-02
 at k-point    240
 
Charges :
 core                        :    20.00000000    
 valence                     :    22.00000000    
 interstitial                :    3.795455815    
 muffin-tins (core leakage)
  species :    1 (Sc)
   atom    1                 :    19.10227209     (  0.6497531402E-08)
   atom    2                 :    19.10227209     (  0.6497531402E-08)
 total in muffin-tins        :    38.20454418    
 total calculated charge     :    41.99999935    
 total charge                :    42.00000000    
 error                       :   0.6538942827E-06
 
Wrote STATE.OUT
 
RMS change in Kohn-Sham potential (target) :   0.5945453192E-04 (   10.00000000    )
Absolute change in total energy (target)   :   0.9186148213E-04 (  0.1000000000E-07)
 
Time (CPU seconds) :       724.76
 
+--------------------+
| Loop number :   11 |
+--------------------+
 
Energies :
 Fermi                       :     0.256456918025    
 sum of eigenvalues          :     -893.723504159    
 electron kinetic            :      1546.22078141    
 core electron kinetic       :      1433.77843139    
 Coulomb                     :     -2996.37028142    
 Coulomb potential           :     -2335.77817811    
 nuclear-nuclear             :     -199.044209917    
 electron-nuclear            :     -3258.87396490    
 Hartree                     :      461.547893396    
 Madelung                    :     -1828.48119237    
 xc potential                :     -104.166107461    
 exchange                    :     -77.2312866439    
 correlation                 :     -1.77770000174    
 total energy                :     -1529.15848666    
 
Density of states at Fermi energy :    104.9040095    
 (states/Hartree/unit cell)
 
Estimated indirect band gap :   0.1157649141E-03
 from k-point    218 to k-point     14
Estimated direct band gap   :   0.2351631865E-02
 at k-point    240
 
Charges :
 core                        :    20.00000000    
 valence                     :    22.00000000    
 interstitial                :    3.795456788    
 muffin-tins (core leakage)
  species :    1 (Sc)
   atom    1                 :    19.10227161     (  0.6875811920E-08)
   atom    2                 :    19.10227161     (  0.6875811920E-08)
 total in muffin-tins        :    38.20454321    
 total calculated charge     :    41.99999935    
 total charge                :    42.00000000    
 error                       :   0.6547223279E-06
 
RMS change in Kohn-Sham potential (target) :   0.9201561856E-04 (   10.00000000    )
Absolute change in total energy (target)   :   0.2234191174E-04 (  0.1000000000E-07)
 
Time (CPU seconds) :       799.36
 
+--------------------+
| Loop number :   12 |
+--------------------+
 
Energies :
 Fermi                       :     0.256456885166    
 sum of eigenvalues          :     -893.723504798    
 electron kinetic            :      1546.22078063    
 core electron kinetic       :      1433.77843619    
 Coulomb                     :     -2996.37028101    
 Coulomb potential           :     -2335.77817799    
 nuclear-nuclear             :     -199.044209917    
 electron-nuclear            :     -3258.87396420    
 Hartree                     :      461.547893105    
 Madelung                    :     -1828.48119202    
 xc potential                :     -104.166107437    
 exchange                    :     -77.2312866200    
 correlation                 :     -1.77770000386    
 total energy                :     -1529.15848701    
 
Density of states at Fermi energy :    104.9040684    
 (states/Hartree/unit cell)
 
Estimated indirect band gap :   0.1157651208E-03
 from k-point    218 to k-point     14
Estimated direct band gap   :   0.2351632316E-02
 at k-point    240
 
Charges :
 core                        :    20.00000000    
 valence                     :    22.00000000    
 interstitial                :    3.795456828    
 muffin-tins (core leakage)
  species :    1 (Sc)
   atom    1                 :    19.10227159     (  0.6538472874E-08)
   atom    2                 :    19.10227159     (  0.6538472874E-08)
 total in muffin-tins        :    38.20454317    
 total calculated charge     :    41.99999935    
 total charge                :    42.00000000    
 error                       :   0.6541188071E-06
 
Wrote STATE.OUT
 
RMS change in Kohn-Sham potential (target) :   0.3566292070E-03 (   10.00000000    )
Absolute change in total energy (target)   :   0.5235403933E-05 (  0.1000000000E-07)
 
Time (CPU seconds) :       872.67
 
+--------------------+
| Loop number :   13 |
+--------------------+
 
Energies :
 Fermi                       :     0.256457377459    
 sum of eigenvalues          :     -893.723501903    
 electron kinetic            :      1546.22079515    
 core electron kinetic       :      1433.77841822    
 Coulomb                     :     -2996.37029424    
 Coulomb potential           :     -2335.77818892    
 nuclear-nuclear             :     -199.044209917    
 electron-nuclear            :     -3258.87397973    
 Hartree                     :      461.547895408    
 Madelung                    :     -1828.48119978    
 xc potential                :     -104.166108131    
 exchange                    :     -77.2312871678    
 correlation                 :     -1.77770000301    
 total energy                :     -1529.15848627    
 
Density of states at Fermi energy :    104.9062813    
 (states/Hartree/unit cell)
 
Estimated indirect band gap :   0.1153620214E-03
 from k-point    218 to k-point     14
Estimated direct band gap   :   0.2351634716E-02
 at k-point    240
 
Charges :
 core                        :    20.00000000    
 valence                     :    22.00000000    
 interstitial                :    3.795457814    
 muffin-tins (core leakage)
  species :    1 (Sc)
   atom    1                 :    19.10227109     (  0.6529322860E-08)
   atom    2                 :    19.10227109     (  0.6529322860E-08)
 total in muffin-tins        :    38.20454219    
 total calculated charge     :    41.99999935    
 total charge                :    42.00000000    
 error                       :   0.6542670548E-06
 
RMS change in Kohn-Sham potential (target) :   0.1148594974E-03 (   10.00000000    )
Absolute change in total energy (target)   :   0.2048597480E-05 (  0.1000000000E-07)
 
Time (CPU seconds) :       946.69
 
+--------------------+
| Loop number :   14 |
+--------------------+
 
Energies :
 Fermi                       :     0.256456908128    
 sum of eigenvalues          :     -893.723495035    
 electron kinetic            :      1546.22078332    
 core electron kinetic       :      1433.77842300    
 Coulomb                     :     -2996.37027134    
 Coulomb potential           :     -2335.77817137    
 nuclear-nuclear             :     -199.044209917    
 electron-nuclear            :     -3258.87395149    
 Hartree                     :      461.547890058    
 Madelung                    :     -1828.48118566    
 xc potential                :     -104.166106983    
 exchange                    :     -77.2312862723    
 correlation                 :     -1.77769999921    
 total energy                :     -1529.15847430    
 
Density of states at Fermi energy :    104.9033035    
 (states/Hartree/unit cell)
 
Estimated indirect band gap :   0.1158823369E-03
 from k-point    218 to k-point     14
Estimated direct band gap   :   0.2351641913E-02
 at k-point    240
 
Charges :
 core                        :    20.00000000    
 valence                     :    22.00000000    
 interstitial                :    3.795456394    
 muffin-tins (core leakage)
  species :    1 (Sc)
   atom    1                 :    19.10227180     (  0.6492957283E-08)
   atom    2                 :    19.10227180     (  0.6492957283E-08)
 total in muffin-tins        :    38.20454361    
 total calculated charge     :    41.99999935    
 total charge                :    42.00000000    
 error                       :   0.6539221573E-06
 
Wrote STATE.OUT
 
RMS change in Kohn-Sham potential (target) :   0.4068600729E-04 (   10.00000000    )
Absolute change in total energy (target)   :   0.1248209014E-04 (  0.1000000000E-07)
 
Time (CPU seconds) :      1020.31
 
+--------------------+
| Loop number :   15 |
+--------------------+
 
Energies :
 Fermi                       :     0.256456672234    
 sum of eigenvalues          :     -893.723497503    
 electron kinetic            :      1546.22077600    
 core electron kinetic       :      1433.77843234    
 Coulomb                     :     -2996.37026592    
 Coulomb potential           :     -2335.77816688    
 nuclear-nuclear             :     -199.044209917    
 electron-nuclear            :     -3258.87394513    
 Hartree                     :      461.547889124    
 Madelung                    :     -1828.48118248    
 xc potential                :     -104.166106617    
 exchange                    :     -77.2312859872    
 correlation                 :     -1.77769999827    
 total energy                :     -1529.15847591    
 
Density of states at Fermi energy :    104.9016815    
 (states/Hartree/unit cell)
 
Estimated indirect band gap :   0.1161189247E-03
 from k-point    218 to k-point     14
Estimated direct band gap   :   0.2351631185E-02
 at k-point    240
 
Charges :
 core                        :    20.00000000    
 valence                     :    22.00000000    
 interstitial                :    3.795455803    
 muffin-tins (core leakage)
  species :    1 (Sc)
   atom    1                 :    19.10227210     (  0.6526118312E-08)
   atom    2                 :    19.10227210     (  0.6526118312E-08)
 total in muffin-tins        :    38.20454420    
 total calculated charge     :    41.99999935    
 total charge                :    42.00000000    
 error                       :   0.6538938209E-06
 
RMS change in Kohn-Sham potential (target) :   0.4347979872E-04 (   10.00000000    )
Absolute change in total energy (target)   :   0.1506310127E-05 (  0.1000000000E-07)
 
Time (CPU seconds) :      1093.33
 
+--------------------+
| Loop number :   16 |
+--------------------+
 
Energies :
 Fermi                       :     0.256456637413    
 sum of eigenvalues          :     -893.723503212    
 electron kinetic            :      1546.22077367    
 core electron kinetic       :      1433.77843164    
 Coulomb                     :     -2996.37027102    
 Coulomb potential           :     -2335.77817002    
 nuclear-nuclear             :     -199.044209917    
 electron-nuclear            :     -3258.87395219    
 Hartree                     :      461.547891084    
 Madelung                    :     -1828.48118601    
 xc potential                :     -104.166106861    
 exchange                    :     -77.2312861688    
 correlation                 :     -1.77770000281    
 total energy                :     -1529.15848352    
 
Density of states at Fermi energy :    104.9018542    
 (states/Hartree/unit cell)
 
Estimated indirect band gap :   0.1160756600E-03
 from k-point    218 to k-point     14
Estimated direct band gap   :   0.2351623424E-02
 at k-point    240
 
Charges :
 core                        :    20.00000000    
 valence                     :    22.00000000    
 interstitial                :    3.795455954    
 muffin-tins (core leakage)
  species :    1 (Sc)
   atom    1                 :    19.10227202     (  0.6535238128E-08)
   atom    2                 :    19.10227202     (  0.6535238128E-08)
 total in muffin-tins        :    38.20454405    
 total calculated charge     :    41.99999935    
 total charge                :    42.00000000    
 error                       :   0.6539316573E-06
 
Wrote STATE.OUT
 
RMS change in Kohn-Sham potential (target) :   0.2092349531E-03 (   10.00000000    )
Absolute change in total energy (target)   :   0.7235257044E-05 (  0.1000000000E-07)
 
Time (CPU seconds) :      1166.87
 
+--------------------+
| Loop number :   17 |
+--------------------+
 
Energies :
 Fermi                       :     0.256456560132    
 sum of eigenvalues          :     -893.723505217    
 electron kinetic            :      1546.22077157    
 core electron kinetic       :      1433.77843073    
 Coulomb                     :     -2996.37027064    
 Coulomb potential           :     -2335.77816996    
 nuclear-nuclear             :     -199.044209917    
 electron-nuclear            :     -3258.87395149    
 Hartree                     :      461.547890761    
 Madelung                    :     -1828.48118566    
 xc potential                :     -104.166106824    
 exchange                    :     -77.2312861348    
 correlation                 :     -1.77770000540    
 total energy                :     -1529.15848521    
 
Density of states at Fermi energy :    104.9018413    
 (states/Hartree/unit cell)
 
Estimated indirect band gap :   0.1160903729E-03
 from k-point    218 to k-point     14
Estimated direct band gap   :   0.2351622077E-02
 at k-point    240
 
Charges :
 core                        :    20.00000000    
 valence                     :    22.00000000    
 interstitial                :    3.795455989    
 muffin-tins (core leakage)
  species :    1 (Sc)
   atom    1                 :    19.10227201     (  0.6526642338E-08)
   atom    2                 :    19.10227201     (  0.6526642338E-08)
 total in muffin-tins        :    38.20454401    
 total calculated charge     :    41.99999935    
 total charge                :    42.00000000    
 error                       :   0.6538660386E-06
 
RMS change in Kohn-Sham potential (target) :   0.2200467768E-03 (   10.00000000    )
Absolute change in total energy (target)   :   0.3495652663E-05 (  0.1000000000E-07)
 
Time (CPU seconds) :      1241.28
 
+--------------------+
| Loop number :   18 |
+--------------------+
 
Energies :
 Fermi                       :     0.256456541606    
 sum of eigenvalues          :     -893.723505671    
 electron kinetic            :      1546.22077119    
 core electron kinetic       :      1433.77843161    
 Coulomb                     :     -2996.37027067    
 Coulomb potential           :     -2335.77817003    
 nuclear-nuclear             :     -199.044209917    
 electron-nuclear            :     -3258.87395149    
 Hartree                     :      461.547890730    
 Madelung                    :     -1828.48118566    
 xc potential                :     -104.166106837    
 exchange                    :     -77.2312861388    
 correlation                 :     -1.77770000775    
 total energy                :     -1529.15848563    
 
Density of states at Fermi energy :    104.9020149    
 (states/Hartree/unit cell)
 
Estimated indirect band gap :   0.1160731720E-03
 from k-point    218 to k-point     14
Estimated direct band gap   :   0.2351623972E-02
 at k-point    240
 
Charges :
 core                        :    20.00000000    
 valence                     :    22.00000000    
 interstitial                :    3.795456057    
 muffin-tins (core leakage)
  species :    1 (Sc)
   atom    1                 :    19.10227197     (  0.6547477227E-08)
   atom    2                 :    19.10227197     (  0.6547477227E-08)
 total in muffin-tins        :    38.20454394    
 total calculated charge     :    41.99999935    
 total charge                :    42.00000000    
 error                       :   0.6540025552E-06
 
Wrote STATE.OUT
 
RMS change in Kohn-Sham potential (target) :   0.8325199133E-05 (   10.00000000    )
Absolute change in total energy (target)   :   0.1291152330E-05 (  0.1000000000E-07)
 
Time (CPU seconds) :      1322.60
 
+--------------------+
| Loop number :   19 |
+--------------------+
 
Energies :
 Fermi                       :     0.256456489935    
 sum of eigenvalues          :     -893.723508976    
 electron kinetic            :      1546.22076918    
 core electron kinetic       :      1433.77843170    
 Coulomb                     :     -2996.37027270    
 Coulomb potential           :     -2335.77817125    
 nuclear-nuclear             :     -199.044209917    
 electron-nuclear            :     -3258.87395431    
 Hartree                     :      461.547891531    
 Madelung                    :     -1828.48118707    
 xc potential                :     -104.166106903    
 exchange                    :     -77.2312861862    
 correlation                 :     -1.77770001033    
 total energy                :     -1529.15848972    
 
Density of states at Fermi energy :    104.9019577    
 (states/Hartree/unit cell)
 
Estimated indirect band gap :   0.1160728832E-03
 from k-point    218 to k-point     14
Estimated direct band gap   :   0.2351618149E-02
 at k-point    240
 
Charges :
 core                        :    20.00000000    
 valence                     :    22.00000000    
 interstitial                :    3.795456113    
 muffin-tins (core leakage)
  species :    1 (Sc)
   atom    1                 :    19.10227194     (  0.6518332540E-08)
   atom    2                 :    19.10227194     (  0.6518332540E-08)
 total in muffin-tins        :    38.20454389    
 total calculated charge     :    41.99999935    
 total charge                :    42.00000000    
 error                       :   0.6538237116E-06
 
RMS change in Kohn-Sham potential (target) :   0.8988901923E-04 (   10.00000000    )
Absolute change in total energy (target)   :   0.4412452199E-05 (  0.1000000000E-07)
 
Time (CPU seconds) :      1399.33
 
+--------------------+
| Loop number :   20 |
+--------------------+
 
Energies :
 Fermi                       :     0.256456509594    
 sum of eigenvalues          :     -893.723509115    
 electron kinetic            :      1546.22076963    
 core electron kinetic       :      1433.77843126    
 Coulomb                     :     -2996.37027332    
 Coulomb potential           :     -2335.77817179    
 nuclear-nuclear             :     -199.044209917    
 electron-nuclear            :     -3258.87395502    
 Hartree                     :      461.547891615    
 Madelung                    :     -1828.48118743    
 xc potential                :     -104.166106961    
 exchange                    :     -77.2312862297    
 correlation                 :     -1.77770001140    
 total energy                :     -1529.15848993    
 
Density of states at Fermi energy :    104.9021175    
 (states/Hartree/unit cell)
 
Estimated indirect band gap :   0.1160461556E-03
 from k-point    218 to k-point     14
Estimated direct band gap   :   0.2351618633E-02
 at k-point    240
 
Charges :
 core                        :    20.00000000    
 valence                     :    22.00000000    
 interstitial                :    3.795456175    
 muffin-tins (core leakage)
  species :    1 (Sc)
   atom    1                 :    19.10227191     (  0.6539085717E-08)
   atom    2                 :    19.10227191     (  0.6539085717E-08)
 total in muffin-tins        :    38.20454382    
 total calculated charge     :    41.99999935    
 total charge                :    42.00000000    
 error                       :   0.6538944177E-06
 
Wrote STATE.OUT
 
RMS change in Kohn-Sham potential (target) :   0.6314028191E-04 (   10.00000000    )
Absolute change in total energy (target)   :   0.1312795803E-05 (  0.1000000000E-07)
 
Time (CPU seconds) :      1481.36
 
+--------------------+
| Loop number :   21 |
+--------------------+
 
Energies :
 Fermi                       :     0.256456481825    
 sum of eigenvalues          :     -893.723509866    
 electron kinetic            :      1546.22076880    
 core electron kinetic       :      1433.77843168    
 Coulomb                     :     -2996.37027329    
 Coulomb potential           :     -2335.77817172    
 nuclear-nuclear             :     -199.044209917    
 electron-nuclear            :     -3258.87395502    
 Hartree                     :      461.547891646    
 Madelung                    :     -1828.48118743    
 xc potential                :     -104.166106940    
 exchange                    :     -77.2312862122    
 correlation                 :     -1.77770001193    
 total energy                :     -1529.15849071    
 
Density of states at Fermi energy :    104.9020013    
 (states/Hartree/unit cell)
 
Estimated indirect band gap :   0.1160608499E-03
 from k-point    218 to k-point     14
Estimated direct band gap   :   0.2351616539E-02
 at k-point    240
 
Charges :
 core                        :    20.00000000    
 valence                     :    22.00000000    
 interstitial                :    3.795456159    
 muffin-tins (core leakage)
  species :    1 (Sc)
   atom    1                 :    19.10227192     (  0.6555977095E-08)
   atom    2                 :    19.10227192     (  0.6555977095E-08)
 total in muffin-tins        :    38.20454384    
 total calculated charge     :    41.99999935    
 total charge                :    42.00000000    
 error                       :   0.6539988604E-06
 
RMS change in Kohn-Sham potential (target) :   0.1147996917E-03 (   10.00000000    )
Absolute change in total energy (target)   :   0.1114939096E-05 (  0.1000000000E-07)
 
Time (CPU seconds) :      1563.81
 
+--------------------+
| Loop number :   22 |
+--------------------+
 
Energies :
 Fermi                       :     0.256456473246    
 sum of eigenvalues          :     -893.723510270    
 electron kinetic            :      1546.22076849    
 core electron kinetic       :      1433.77843200    
 Coulomb                     :     -2996.37027333    
 Coulomb potential           :     -2335.77817182    
 nuclear-nuclear             :     -199.044209917    
 electron-nuclear            :     -3258.87395502    
 Hartree                     :      461.547891599    
 Madelung                    :     -1828.48118743    
 xc potential                :     -104.166106946    
 exchange                    :     -77.2312862152    
 correlation                 :     -1.77770001283    
 total energy                :     -1529.15849107    
 
Density of states at Fermi energy :    104.9020128    
 (states/Hartree/unit cell)
 
Estimated indirect band gap :   0.1160588614E-03
 from k-point    218 to k-point     14
Estimated direct band gap   :   0.2351616105E-02
 at k-point    240
 
Charges :
 core                        :    20.00000000    
 valence                     :    22.00000000    
 interstitial                :    3.795456173    
 muffin-tins (core leakage)
  species :    1 (Sc)
   atom    1                 :    19.10227191     (  0.6557026921E-08)
   atom    2                 :    19.10227191     (  0.6557026921E-08)
 total in muffin-tins        :    38.20454383    
 total calculated charge     :    41.99999935    
 total charge                :    42.00000000    
 error                       :   0.6539255750E-06
 
Wrote STATE.OUT
 
RMS change in Kohn-Sham potential (target) :   0.4290189459E-04 (   10.00000000    )
Absolute change in total energy (target)   :   0.6330735687E-06 (  0.1000000000E-07)
 
Time (CPU seconds) :      1646.43
 
+--------------------+
| Loop number :   23 |
+--------------------+
 
Energies :
 Fermi                       :     0.256456444839    
 sum of eigenvalues          :     -893.723511394    
 electron kinetic            :      1546.22076761    
 core electron kinetic       :      1433.77843227    
 Coulomb                     :     -2996.37027380    
 Coulomb potential           :     -2335.77817205    
 nuclear-nuclear             :     -199.044209917    
 electron-nuclear            :     -3258.87395572    
 Hartree                     :      461.547891835    
 Madelung                    :     -1828.48118778    
 xc potential                :     -104.166106947    
 exchange                    :     -77.2312862157    
 correlation                 :     -1.77770001390    
 total energy                :     -1529.15849243    
 
Density of states at Fermi energy :    104.9019645    
 (states/Hartree/unit cell)
 
Estimated indirect band gap :   0.1160638201E-03
 from k-point    218 to k-point     14
Estimated direct band gap   :   0.2351613825E-02
 at k-point    240
 
Charges :
 core                        :    20.00000000    
 valence                     :    22.00000000    
 interstitial                :    3.795456191    
 muffin-tins (core leakage)
  species :    1 (Sc)
   atom    1                 :    19.10227190     (  0.6543297459E-08)
   atom    2                 :    19.10227190     (  0.6543297459E-08)
 total in muffin-tins        :    38.20454381    
 total calculated charge     :    41.99999935    
 total charge                :    42.00000000    
 error                       :   0.6539289075E-06
 
RMS change in Kohn-Sham potential (target) :   0.1961838601E-04 (   10.00000000    )
Absolute change in total energy (target)   :   0.1518355703E-05 (  0.1000000000E-07)
 
Time (CPU seconds) :      1729.46
 
+--------------------+
| Loop number :   24 |
+--------------------+
 
Energies :
 Fermi                       :     0.256456428011    
 sum of eigenvalues          :     -893.723512137    
 electron kinetic            :      1546.22076706    
 core electron kinetic       :      1433.77843250    
 Coulomb                     :     -2996.37027390    
 Coulomb potential           :     -2335.77817225    
 nuclear-nuclear             :     -199.044209917    
 electron-nuclear            :     -3258.87395572    
 Hartree                     :      461.547891738    
 Madelung                    :     -1828.48118778    
 xc potential                :     -104.166106954    
 exchange                    :     -77.2312862198    
 correlation                 :     -1.77770001471    
 total energy                :     -1529.15849307    
 
Density of states at Fermi energy :    104.9019335    
 (states/Hartree/unit cell)
 
Estimated indirect band gap :   0.1160657042E-03
 from k-point    218 to k-point     14
Estimated direct band gap   :   0.2351612025E-02
 at k-point    240
 
Charges :
 core                        :    20.00000000    
 valence                     :    22.00000000    
 interstitial                :    3.795456206    
 muffin-tins (core leakage)
  species :    1 (Sc)
   atom    1                 :    19.10227190     (  0.6509701223E-08)
   atom    2                 :    19.10227190     (  0.6509701223E-08)
 total in muffin-tins        :    38.20454379    
 total calculated charge     :    41.99999935    
 total charge                :    42.00000000    
 error                       :   0.6538564605E-06
 
Wrote STATE.OUT
 
RMS change in Kohn-Sham potential (target) :   0.4219068908E-04 (   10.00000000    )
Absolute change in total energy (target)   :   0.1024289304E-05 (  0.1000000000E-07)
 
Time (CPU seconds) :      1811.59
 
+--------------------+
| Loop number :   25 |
+--------------------+
 
Energies :
 Fermi                       :     0.256456417080    
 sum of eigenvalues          :     -893.723512666    
 electron kinetic            :      1546.22076668    
 core electron kinetic       :      1433.77843230    
 Coulomb                     :     -2996.37027397    
 Coulomb potential           :     -2335.77817239    
 nuclear-nuclear             :     -199.044209917    
 electron-nuclear            :     -3258.87395572    
 Hartree                     :      461.547891668    
 Madelung                    :     -1828.48118778    
 xc potential                :     -104.166106959    
 exchange                    :     -77.2312862230    
 correlation                 :     -1.77770001542    
 total energy                :     -1529.15849353    
 
Density of states at Fermi energy :    104.9019223    
 (states/Hartree/unit cell)
 
Estimated indirect band gap :   0.1160651506E-03
 from k-point    218 to k-point     14
Estimated direct band gap   :   0.2351610761E-02
 at k-point    240
 
Charges :
 core                        :    20.00000000    
 valence                     :    22.00000000    
 interstitial                :    3.795456222    
 muffin-tins (core leakage)
  species :    1 (Sc)
   atom    1                 :    19.10227189     (  0.6559387700E-08)
   atom    2                 :    19.10227189     (  0.6559387700E-08)
 total in muffin-tins        :    38.20454378    
 total calculated charge     :    41.99999935    
 total charge                :    42.00000000    
 error                       :   0.6539956203E-06
 
RMS change in Kohn-Sham potential (target) :   0.1945176656E-04 (   10.00000000    )
Absolute change in total energy (target)   :   0.7128596735E-06 (  0.1000000000E-07)
 
Time (CPU seconds) :      1892.39
 
+--------------------+
| Loop number :   26 |
+--------------------+
 
Energies :
 Fermi                       :     0.256456414989    
 sum of eigenvalues          :     -893.723512651    
 electron kinetic            :      1546.22076659    
 core electron kinetic       :      1433.77843208    
 Coulomb                     :     -2996.37027392    
 Coulomb potential           :     -2335.77817229    
 nuclear-nuclear             :     -199.044209917    
 electron-nuclear            :     -3258.87395572    
 Hartree                     :      461.547891716    
 Madelung                    :     -1828.48118778    
 xc potential                :     -104.166106952    
 exchange                    :     -77.2312862165    
 correlation                 :     -1.77770001553    
 total energy                :     -1529.15849356    
 
Density of states at Fermi energy :    104.9019018    
 (states/Hartree/unit cell)
 
Estimated indirect band gap :   0.1160687400E-03
 from k-point    218 to k-point     14
Estimated direct band gap   :   0.2351610638E-02
 at k-point    240
 
Charges :
 core                        :    20.00000000    
 valence                     :    22.00000000    
 interstitial                :    3.795456214    
 muffin-tins (core leakage)
  species :    1 (Sc)
   atom    1                 :    19.10227189     (  0.6535753272E-08)
   atom    2                 :    19.10227189     (  0.6535753272E-08)
 total in muffin-tins        :    38.20454379    
 total calculated charge     :    41.99999935    
 total charge                :    42.00000000    
 error                       :   0.6538484598E-06
 
Wrote STATE.OUT
 
RMS change in Kohn-Sham potential (target) :   0.2079083816E-03 (   10.00000000    )
Absolute change in total energy (target)   :   0.2135816430E-06 (  0.1000000000E-07)
 
Time (CPU seconds) :      1975.53
 
+--------------------+
| Loop number :   27 |
+--------------------+
 
Energies :
 Fermi                       :     0.256456429704    
 sum of eigenvalues          :     -893.723512045    
 electron kinetic            :      1546.22076712    
 core electron kinetic       :      1433.77843257    
 Coulomb                     :     -2996.37027389    
 Coulomb potential           :     -2335.77817222    
 nuclear-nuclear             :     -199.044209917    
 electron-nuclear            :     -3258.87395572    
 Hartree                     :      461.547891752    
 Madelung                    :     -1828.48118778    
 xc potential                :     -104.166106948    
 exchange                    :     -77.2312862177    
 correlation                 :     -1.77770001412    
 total energy                :     -1529.15849300    
 
Density of states at Fermi energy :    104.9019015    
 (states/Hartree/unit cell)
 
Estimated indirect band gap :   0.1160694521E-03
 from k-point    218 to k-point     14
Estimated direct band gap   :   0.2351611436E-02
 at k-point    240
 
Charges :
 core                        :    20.00000000    
 valence                     :    22.00000000    
 interstitial                :    3.795456197    
 muffin-tins (core leakage)
  species :    1 (Sc)
   atom    1                 :    19.10227190     (  0.6493104721E-08)
   atom    2                 :    19.10227190     (  0.6493104721E-08)
 total in muffin-tins        :    38.20454380    
 total calculated charge     :    41.99999935    
 total charge                :    42.00000000    
 error                       :   0.6537861452E-06
 
RMS change in Kohn-Sham potential (target) :   0.2216833572E-04 (   10.00000000    )
Absolute change in total energy (target)   :   0.5146175681E-06 (  0.1000000000E-07)
 
Time (CPU seconds) :      2058.21
 
+--------------------+
| Loop number :   28 |
+--------------------+
 
Energies :
 Fermi                       :     0.256456422425    
 sum of eigenvalues          :     -893.723512323    
 electron kinetic            :      1546.22076682    
 core electron kinetic       :      1433.77843263    
 Coulomb                     :     -2996.37027388    
 Coulomb potential           :     -2335.77817220    
 nuclear-nuclear             :     -199.044209917    
 electron-nuclear            :     -3258.87395572    
 Hartree                     :      461.547891762    
 Madelung                    :     -1828.48118778    
 xc potential                :     -104.166106945    
 exchange                    :     -77.2312862133    
 correlation                 :     -1.77770001478    
 total energy                :     -1529.15849328    
 
Density of states at Fermi energy :    104.9018860    
 (states/Hartree/unit cell)
 
Estimated indirect band gap :   0.1160714835E-03
 from k-point    218 to k-point     14
Estimated direct band gap   :   0.2351610807E-02
 at k-point    240
 
Charges :
 core                        :    20.00000000    
 valence                     :    22.00000000    
 interstitial                :    3.795456200    
 muffin-tins (core leakage)
  species :    1 (Sc)
   atom    1                 :    19.10227190     (  0.6528802388E-08)
   atom    2                 :    19.10227190     (  0.6528802388E-08)
 total in muffin-tins        :    38.20454380    
 total calculated charge     :    41.99999935    
 total charge                :    42.00000000    
 error                       :   0.6539382014E-06
 
Wrote STATE.OUT
 
RMS change in Kohn-Sham potential (target) :   0.9404278651E-04 (   10.00000000    )
Absolute change in total energy (target)   :   0.1589517069E-06 (  0.1000000000E-07)
 
Time (CPU seconds) :      2140.82
 
+--------------------+
| Loop number :   29 |
+--------------------+
 
Energies :
 Fermi                       :     0.256456415237    
 sum of eigenvalues          :     -893.723512620    
 electron kinetic            :      1546.22076660    
 core electron kinetic       :      1433.77843280    
 Coulomb                     :     -2996.37027391    
 Coulomb potential           :     -2335.77817227    
 nuclear-nuclear             :     -199.044209917    
 electron-nuclear            :     -3258.87395572    
 Hartree                     :      461.547891727    
 Madelung                    :     -1828.48118778    
 xc potential                :     -104.166106946    
 exchange                    :     -77.2312862146    
 correlation                 :     -1.77770001500    
 total energy                :     -1529.15849355    
 
Density of states at Fermi energy :    104.9018758    
 (states/Hartree/unit cell)
 
Estimated indirect band gap :   0.1160723093E-03
 from k-point    218 to k-point     14
Estimated direct band gap   :   0.2351610153E-02
 at k-point    240
 
Charges :
 core                        :    20.00000000    
 valence                     :    22.00000000    
 interstitial                :    3.795456206    
 muffin-tins (core leakage)
  species :    1 (Sc)
   atom    1                 :    19.10227190     (  0.6553669607E-08)
   atom    2                 :    19.10227190     (  0.6553669607E-08)
 total in muffin-tins        :    38.20454379    
 total calculated charge     :    41.99999935    
 total charge                :    42.00000000    
 error                       :   0.6539612087E-06
 
RMS change in Kohn-Sham potential (target) :   0.5143943496E-04 (   10.00000000    )
Absolute change in total energy (target)   :   0.3021200428E-06 (  0.1000000000E-07)
 
Time (CPU seconds) :      2223.01
 
+--------------------+
| Loop number :   30 |
+--------------------+
 
Energies :
 Fermi                       :     0.256456405827    
 sum of eigenvalues          :     -893.723513030    
 electron kinetic            :      1546.22076627    
 core electron kinetic       :      1433.77843275    
 Coulomb                     :     -2996.37027431    
 Coulomb potential           :     -2335.77817235    
 nuclear-nuclear             :     -199.044209917    
 electron-nuclear            :     -3258.87395643    
 Hartree                     :      461.547892038    
 Madelung                    :     -1828.48118813    
 xc potential                :     -104.166106950    
 exchange                    :     -77.2312862160    
 correlation                 :     -1.77770001568    
 total energy                :     -1529.15849427    
 
Density of states at Fermi energy :    104.9018594    
 (states/Hartree/unit cell)
 
Estimated indirect band gap :   0.1160729602E-03
 from k-point    218 to k-point     14
Estimated direct band gap   :   0.2351609028E-02
 at k-point    240
 
Charges :
 core                        :    20.00000000    
 valence                     :    22.00000000    
 interstitial                :    3.795456217    
 muffin-tins (core leakage)
  species :    1 (Sc)
   atom    1                 :    19.10227189     (  0.6533708685E-08)
   atom    2                 :    19.10227189     (  0.6533708685E-08)
 total in muffin-tins        :    38.20454378    
 total calculated charge     :    41.99999935    
 total charge                :    42.00000000    
 error                       :   0.6538759720E-06
 
Wrote STATE.OUT
 
RMS change in Kohn-Sham potential (target) :   0.9139537514E-04 (   10.00000000    )
Absolute change in total energy (target)   :   0.7954158718E-06 (  0.1000000000E-07)
 
Time (CPU seconds) :      2305.13
 
+--------------------+
| Loop number :   31 |
+--------------------+
 
Energies :
 Fermi                       :     0.256456404058    
 sum of eigenvalues          :     -893.723513094    
 electron kinetic            :      1546.22076623    
 core electron kinetic       :      1433.77843282    
 Coulomb                     :     -2996.37027432    
 Coulomb potential           :     -2335.77817238    
 nuclear-nuclear             :     -199.044209917    
 electron-nuclear            :     -3258.87395643    
 Hartree                     :      461.547892026    
 Madelung                    :     -1828.48118813    
 xc potential                :     -104.166106951    
 exchange                    :     -77.2312862171    
 correlation                 :     -1.77770001573    
 total energy                :     -1529.15849432    
 
Density of states at Fermi energy :    104.9018557    
 (states/Hartree/unit cell)
 
Estimated indirect band gap :   0.1160732911E-03
 from k-point    218 to k-point     14
Estimated direct band gap   :   0.2351608828E-02
 at k-point    240
 
Charges :
 core                        :    20.00000000    
 valence                     :    22.00000000    
 interstitial                :    3.795456219    
 muffin-tins (core leakage)
  species :    1 (Sc)
   atom    1                 :    19.10227189     (  0.6498176219E-08)
   atom    2                 :    19.10227189     (  0.6498176219E-08)
 total in muffin-tins        :    38.20454378    
 total calculated charge     :    41.99999935    
 total charge                :    42.00000000    
 error                       :   0.6539080104E-06
 
RMS change in Kohn-Sham potential (target) :   0.3108899983E-04 (   10.00000000    )
Absolute change in total energy (target)   :   0.2504871190E-06 (  0.1000000000E-07)
 
Time (CPU seconds) :      2387.82
 
+--------------------+
| Loop number :   32 |
+--------------------+
 
Energies :
 Fermi                       :     0.256456401908    
 sum of eigenvalues          :     -893.723513182    
 electron kinetic            :      1546.22076616    
 core electron kinetic       :      1433.77843281    
 Coulomb                     :     -2996.37027433    
 Coulomb potential           :     -2335.77817239    
 nuclear-nuclear             :     -199.044209917    
 electron-nuclear            :     -3258.87395643    
 Hartree                     :      461.547892020    
 Madelung                    :     -1828.48118813    
 xc potential                :     -104.166106951    
 exchange                    :     -77.2312862163    
 correlation                 :     -1.77770001589    
 total energy                :     -1529.15849440    
 
Density of states at Fermi energy :    104.9018512    
 (states/Hartree/unit cell)
 
Estimated indirect band gap :   0.1160733123E-03
 from k-point    218 to k-point     14
Estimated direct band gap   :   0.2351608472E-02
 at k-point    240
 
Charges :
 core                        :    20.00000000    
 valence                     :    22.00000000    
 interstitial                :    3.795456223    
 muffin-tins (core leakage)
  species :    1 (Sc)
   atom    1                 :    19.10227189     (  0.6527313801E-08)
   atom    2                 :    19.10227189     (  0.6527313801E-08)
 total in muffin-tins        :    38.20454378    
 total calculated charge     :    41.99999935    
 total charge                :    42.00000000    
 error                       :   0.6539764570E-06
 
Wrote STATE.OUT
 
RMS change in Kohn-Sham potential (target) :   0.2113924027E-04 (   10.00000000    )
Absolute change in total energy (target)   :   0.1449568572E-06 (  0.1000000000E-07)
 
Time (CPU seconds) :      2467.61
 
+--------------------+
| Loop number :   33 |
+--------------------+
 
Energies :
 Fermi                       :     0.256456400905    
 sum of eigenvalues          :     -893.723513229    
 electron kinetic            :      1546.22076613    
 core electron kinetic       :      1433.77843286    
 Coulomb                     :     -2996.37027434    
 Coulomb potential           :     -2335.77817241    
 nuclear-nuclear             :     -199.044209917    
 electron-nuclear            :     -3258.87395643    
 Hartree                     :      461.547892011    
 Madelung                    :     -1828.48118813    
 xc potential                :     -104.166106953    
 exchange                    :     -77.2312862178    
 correlation                 :     -1.77770001603    
 total energy                :     -1529.15849444    
 
Density of states at Fermi energy :    104.9018479    
 (states/Hartree/unit cell)
 
Estimated indirect band gap :   0.1160733138E-03
 from k-point    218 to k-point     14
Estimated direct band gap   :   0.2351608219E-02
 at k-point    240
 
Charges :
 core                        :    20.00000000    
 valence                     :    22.00000000    
 interstitial                :    3.795456225    
 muffin-tins (core leakage)
  species :    1 (Sc)
   atom    1                 :    19.10227189     (  0.6477465675E-08)
   atom    2                 :    19.10227189     (  0.6477465675E-08)
 total in muffin-tins        :    38.20454377    
 total calculated charge     :    41.99999935    
 total charge                :    42.00000000    
 error                       :   0.6538028643E-06
 
RMS change in Kohn-Sham potential (target) :   0.1325722374E-04 (   10.00000000    )
Absolute change in total energy (target)   :   0.7254197953E-07 (  0.1000000000E-07)
 
Time (CPU seconds) :      2547.97
 
+--------------------+
| Loop number :   34 |
+--------------------+
 
Energies :
 Fermi                       :     0.256456399455    
 sum of eigenvalues          :     -893.723513289    
 electron kinetic            :      1546.22076607    
 core electron kinetic       :      1433.77843283    
 Coulomb                     :     -2996.37027433    
 Coulomb potential           :     -2335.77817240    
 nuclear-nuclear             :     -199.044209917    
 electron-nuclear            :     -3258.87395643    
 Hartree                     :      461.547892012    
 Madelung                    :     -1828.48118813    
 xc potential                :     -104.166106952    
 exchange                    :     -77.2312862169    
 correlation                 :     -1.77770001620    
 total energy                :     -1529.15849450    
 
Density of states at Fermi energy :    104.9018448    
 (states/Hartree/unit cell)
 
Estimated indirect band gap :   0.1160733886E-03
 from k-point    218 to k-point     14
Estimated direct band gap   :   0.2351607979E-02
 at k-point    240
 
Charges :
 core                        :    20.00000000    
 valence                     :    22.00000000    
 interstitial                :    3.795456228    
 muffin-tins (core leakage)
  species :    1 (Sc)
   atom    1                 :    19.10227189     (  0.6514236262E-08)
   atom    2                 :    19.10227189     (  0.6514236262E-08)
 total in muffin-tins        :    38.20454377    
 total calculated charge     :    41.99999935    
 total charge                :    42.00000000    
 error                       :   0.6538323731E-06
 
Wrote STATE.OUT
 
RMS change in Kohn-Sham potential (target) :   0.1679535033E-04 (   10.00000000    )
Absolute change in total energy (target)   :   0.8041570254E-07 (  0.1000000000E-07)
 
Time (CPU seconds) :      2631.93
 
+--------------------+
| Loop number :   35 |
+--------------------+
 
Energies :
 Fermi                       :     0.256456399079    
 sum of eigenvalues          :     -893.723513306    
 electron kinetic            :      1546.22076605    
 core electron kinetic       :      1433.77843289    
 Coulomb                     :     -2996.37027433    
 Coulomb potential           :     -2335.77817241    
 nuclear-nuclear             :     -199.044209917    
 electron-nuclear            :     -3258.87395643    
 Hartree                     :      461.547892011    
 Madelung                    :     -1828.48118813    
 xc potential                :     -104.166106952    
 exchange                    :     -77.2312862171    
 correlation                 :     -1.77770001630    
 total energy                :     -1529.15849452    
 
Density of states at Fermi energy :    104.9018434    
 (states/Hartree/unit cell)
 
Estimated indirect band gap :   0.1160733479E-03
 from k-point    218 to k-point     14
Estimated direct band gap   :   0.2351607858E-02
 at k-point    240
 
Charges :
 core                        :    20.00000000    
 valence                     :    22.00000000    
 interstitial                :    3.795456229    
 muffin-tins (core leakage)
  species :    1 (Sc)
   atom    1                 :    19.10227189     (  0.6496490457E-08)
   atom    2                 :    19.10227189     (  0.6496490457E-08)
 total in muffin-tins        :    38.20454377    
 total calculated charge     :    41.99999935    
 total charge                :    42.00000000    
 error                       :   0.6538573345E-06
 
RMS change in Kohn-Sham potential (target) :   0.9066389334E-04 (   10.00000000    )
Absolute change in total energy (target)   :   0.3622290023E-07 (  0.1000000000E-07)
 
Time (CPU seconds) :      2713.37
 
+--------------------+
| Loop number :   36 |
+--------------------+
 
Energies :
 Fermi                       :     0.256456396453    
 sum of eigenvalues          :     -893.723513419    
 electron kinetic            :      1546.22076596    
 core electron kinetic       :      1433.77843268    
 Coulomb                     :     -2996.37027434    
 Coulomb potential           :     -2335.77817243    
 nuclear-nuclear             :     -199.044209917    
 electron-nuclear            :     -3258.87395643    
 Hartree                     :      461.547892001    
 Madelung                    :     -1828.48118813    
 xc potential                :     -104.166106952    
 exchange                    :     -77.2312862166    
 correlation                 :     -1.77770001654    
 total energy                :     -1529.15849462    
 
Density of states at Fermi energy :    104.9018379    
 (states/Hartree/unit cell)
 
Estimated indirect band gap :   0.1160733274E-03
 from k-point    218 to k-point     14
Estimated direct band gap   :   0.2351607403E-02
 at k-point    240
 
Charges :
 core                        :    20.00000000    
 valence                     :    22.00000000    
 interstitial                :    3.795456234    
 muffin-tins (core leakage)
  species :    1 (Sc)
   atom    1                 :    19.10227188     (  0.6820357612E-08)
   atom    2                 :    19.10227188     (  0.6820357612E-08)
 total in muffin-tins        :    38.20454377    
 total calculated charge     :    41.99999935    
 total charge                :    42.00000000    
 error                       :   0.6545016049E-06
 
Wrote STATE.OUT
 
RMS change in Kohn-Sham potential (target) :   0.1301037593E-03 (   10.00000000    )
Absolute change in total energy (target)   :   0.1117105057E-06 (  0.1000000000E-07)
 
Time (CPU seconds) :      2792.61
 
+--------------------+
| Loop number :   37 |
+--------------------+
 
Energies :
 Fermi                       :     0.256456404672    
 sum of eigenvalues          :     -893.723513070    
 electron kinetic            :      1546.22076624    
 core electron kinetic       :      1433.77843283    
 Coulomb                     :     -2996.37027431    
 Coulomb potential           :     -2335.77817236    
 nuclear-nuclear             :     -199.044209917    
 electron-nuclear            :     -3258.87395643    
 Hartree                     :      461.547892034    
 Madelung                    :     -1828.48118813    
 xc potential                :     -104.166106951    
 exchange                    :     -77.2312862165    
 correlation                 :     -1.77770001573    
 total energy                :     -1529.15849430    
 
Density of states at Fermi energy :    104.9018570    
 (states/Hartree/unit cell)
 
Estimated indirect band gap :   0.1160734834E-03
 from k-point    218 to k-point     14
Estimated direct band gap   :   0.2351608990E-02
 at k-point    240
 
Charges :
 core                        :    20.00000000    
 valence                     :    22.00000000    
 interstitial                :    3.795456217    
 muffin-tins (core leakage)
  species :    1 (Sc)
   atom    1                 :    19.10227189     (  0.6499345062E-08)
   atom    2                 :    19.10227189     (  0.6499345062E-08)
 total in muffin-tins        :    38.20454378    
 total calculated charge     :    41.99999935    
 total charge                :    42.00000000    
 error                       :   0.6539009476E-06
 
RMS change in Kohn-Sham potential (target) :   0.6814431895E-04 (   10.00000000    )
Absolute change in total energy (target)   :   0.2885751655E-06 (  0.1000000000E-07)
 
Time (CPU seconds) :      2871.43
 
+--------------------+
| Loop number :   38 |
+--------------------+
 
Energies :
 Fermi                       :     0.256456401317    
 sum of eigenvalues          :     -893.723513210    
 electron kinetic            :      1546.22076613    
 core electron kinetic       :      1433.77843283    
 Coulomb                     :     -2996.37027433    
 Coulomb potential           :     -2335.77817239    
 nuclear-nuclear             :     -199.044209917    
 electron-nuclear            :     -3258.87395643    
 Hartree                     :      461.547892020    
 Madelung                    :     -1828.48118813    
 xc potential                :     -104.166106952    
 exchange                    :     -77.2312862167    
 correlation                 :     -1.77770001608    
 total energy                :     -1529.15849443    
 
Density of states at Fermi energy :    104.9018486    
 (states/Hartree/unit cell)
 
Estimated indirect band gap :   0.1160734784E-03
 from k-point    218 to k-point     14
Estimated direct band gap   :   0.2351608322E-02
 at k-point    240
 
Charges :
 core                        :    20.00000000    
 valence                     :    22.00000000    
 interstitial                :    3.795456224    
 muffin-tins (core leakage)
  species :    1 (Sc)
   atom    1                 :    19.10227189     (  0.6462551383E-08)
   atom    2                 :    19.10227189     (  0.6462551383E-08)
 total in muffin-tins        :    38.20454378    
 total calculated charge     :    41.99999935    
 total charge                :    42.00000000    
 error                       :   0.6538311084E-06
 
Wrote STATE.OUT
 
RMS change in Kohn-Sham potential (target) :   0.1919543461E-04 (   10.00000000    )
Absolute change in total energy (target)   :   0.5327819963E-07 (  0.1000000000E-07)
 
Time (CPU seconds) :      2950.32
 
+--------------------+
| Loop number :   39 |
+--------------------+
 
Energies :
 Fermi                       :     0.256456400133    
 sum of eigenvalues          :     -893.723513261    
 electron kinetic            :      1546.22076607    
 core electron kinetic       :      1433.77843282    
 Coulomb                     :     -2996.37027432    
 Coulomb potential           :     -2335.77817238    
 nuclear-nuclear             :     -199.044209917    
 electron-nuclear            :     -3258.87395643    
 Hartree                     :      461.547892026    
 Madelung                    :     -1828.48118813    
 xc potential                :     -104.166106950    
 exchange                    :     -77.2312862157    
 correlation                 :     -1.77770001635    
 total energy                :     -1529.15849448    
 
Density of states at Fermi energy :    104.9018455    
 (states/Hartree/unit cell)
 
Estimated indirect band gap :   0.1160734233E-03
 from k-point    218 to k-point     14
Estimated direct band gap   :   0.2351608052E-02
 at k-point    240
 
Charges :
 core                        :    20.00000000    
 valence                     :    22.00000000    
 interstitial                :    3.795456227    
 muffin-tins (core leakage)
  species :    1 (Sc)
   atom    1                 :    19.10227189     (  0.6499059069E-08)
   atom    2                 :    19.10227189     (  0.6499059069E-08)
 total in muffin-tins        :    38.20454377    
 total calculated charge     :    41.99999935    
 total charge                :    42.00000000    
 error                       :   0.6538501793E-06
 
RMS change in Kohn-Sham potential (target) :   0.2278112735E-04 (   10.00000000    )
Absolute change in total energy (target)   :   0.7102607924E-07 (  0.1000000000E-07)
 
Time (CPU seconds) :      3028.42
 
+--------------------+
| Loop number :   40 |
+--------------------+
 
Energies :
 Fermi                       :     0.256456399290    
 sum of eigenvalues          :     -893.723513299    
 electron kinetic            :      1546.22076606    
 core electron kinetic       :      1433.77843283    
 Coulomb                     :     -2996.37027434    
 Coulomb potential           :     -2335.77817241    
 nuclear-nuclear             :     -199.044209917    
 electron-nuclear            :     -3258.87395643    
 Hartree                     :      461.547892010    
 Madelung                    :     -1828.48118813    
 xc potential                :     -104.166106952    
 exchange                    :     -77.2312862170    
 correlation                 :     -1.77770001620    
 total energy                :     -1529.15849451    
 
Density of states at Fermi energy :    104.9018432    
 (states/Hartree/unit cell)
 
Estimated indirect band gap :   0.1160733762E-03
 from k-point    218 to k-point     14
Estimated direct band gap   :   0.2351607845E-02
 at k-point    240
 
Charges :
 core                        :    20.00000000    
 valence                     :    22.00000000    
 interstitial                :    3.795456229    
 muffin-tins (core leakage)
  species :    1 (Sc)
   atom    1                 :    19.10227189     (  0.6516271966E-08)
   atom    2                 :    19.10227189     (  0.6516271966E-08)
 total in muffin-tins        :    38.20454377    
 total calculated charge     :    41.99999935    
 total charge                :    42.00000000    
 error                       :   0.6539207575E-06
 
Wrote STATE.OUT
 
RMS change in Kohn-Sham potential (target) :   0.5477624351E-05 (   10.00000000    )
Absolute change in total energy (target)   :   0.4033336154E-07 (  0.1000000000E-07)
 
Time (CPU seconds) :      3107.42
 
+--------------------+
| Loop number :   41 |
+--------------------+
 
Energies :
 Fermi                       :     0.256456399305    
 sum of eigenvalues          :     -893.723513301    
 electron kinetic            :      1546.22076604    
 core electron kinetic       :      1433.77843281    
 Coulomb                     :     -2996.37027433    
 Coulomb potential           :     -2335.77817239    
 nuclear-nuclear             :     -199.044209917    
 electron-nuclear            :     -3258.87395643    
 Hartree                     :      461.547892020    
 Madelung                    :     -1828.48118813    
 xc potential                :     -104.166106952    
 exchange                    :     -77.2312862165    
 correlation                 :     -1.77770001645    
 total energy                :     -1529.15849452    
 
Density of states at Fermi energy :    104.9018430    
 (states/Hartree/unit cell)
 
Estimated indirect band gap :   0.1160733508E-03
 from k-point    218 to k-point     14
Estimated direct band gap   :   0.2351607819E-02
 at k-point    240
 
Charges :
 core                        :    20.00000000    
 valence                     :    22.00000000    
 interstitial                :    3.795456229    
 muffin-tins (core leakage)
  species :    1 (Sc)
   atom    1                 :    19.10227189     (  0.6500869176E-08)
   atom    2                 :    19.10227189     (  0.6500869176E-08)
 total in muffin-tins        :    38.20454377    
 total calculated charge     :    41.99999935    
 total charge                :    42.00000000    
 error                       :   0.6538954693E-06
 
RMS change in Kohn-Sham potential (target) :   0.3379212933E-04 (   10.00000000    )
Absolute change in total energy (target)   :   0.2201090865E-07 (  0.1000000000E-07)
 
Time (CPU seconds) :      3191.27
 
+--------------------+
| Loop number :   42 |
+--------------------+
 
Energies :
 Fermi                       :     0.256456399187    
 sum of eigenvalues          :     -893.723513303    
 electron kinetic            :      1546.22076604    
 core electron kinetic       :      1433.77843283    
 Coulomb                     :     -2996.37027433    
 Coulomb potential           :     -2335.77817240    
 nuclear-nuclear             :     -199.044209917    
 electron-nuclear            :     -3258.87395643    
 Hartree                     :      461.547892017    
 Madelung                    :     -1828.48118813    
 xc potential                :     -104.166106953    
 exchange                    :     -77.2312862169    
 correlation                 :     -1.77770001645    
 total energy                :     -1529.15849452    
 
Density of states at Fermi energy :    104.9018427    
 (states/Hartree/unit cell)
 
Estimated indirect band gap :   0.1160733452E-03
 from k-point    218 to k-point     14
Estimated direct band gap   :   0.2351607790E-02
 at k-point    240
 
Charges :
 core                        :    20.00000000    
 valence                     :    22.00000000    
 interstitial                :    3.795456229    
 muffin-tins (core leakage)
  species :    1 (Sc)
   atom    1                 :    19.10227189     (  0.6457559820E-08)
   atom    2                 :    19.10227189     (  0.6457559820E-08)
 total in muffin-tins        :    38.20454377    
 total calculated charge     :    41.99999935    
 total charge                :    42.00000000    
 error                       :   0.6536995301E-06
 
Wrote STATE.OUT
 
RMS change in Kohn-Sham potential (target) :   0.5190897185E-04 (   10.00000000    )
Absolute change in total energy (target)   :   0.3572722562E-08 (  0.1000000000E-07)
 
Convergence targets achieved
 
Time (CPU seconds) :      3273.71
 
+--------------------+
| Loop number :   43 |
+--------------------+
 
Energies :
 Fermi                       :     0.256456398898    
 sum of eigenvalues          :     -893.723513314    
 electron kinetic            :      1546.22076607    
 core electron kinetic       :      1433.77843284    
 Coulomb                     :     -2996.37027434    
 Coulomb potential           :     -2335.77817243    
 nuclear-nuclear             :     -199.044209917    
 electron-nuclear            :     -3258.87395643    
 Hartree                     :      461.547892001    
 Madelung                    :     -1828.48118813    
 xc potential                :     -104.166106954    
 exchange                    :     -77.2312862183    
 correlation                 :     -1.77770001627    
 total energy                :     -1529.15849451    
 
Density of states at Fermi energy :    104.9018418    
 (states/Hartree/unit cell)
 
Estimated indirect band gap :   0.1160733237E-03
 from k-point    218 to k-point     14
Estimated direct band gap   :   0.2351607712E-02
 at k-point    240
 
Charges :
 core                        :    20.00000000    
 valence                     :    22.00000000    
 interstitial                :    3.795456230    
 muffin-tins (core leakage)
  species :    1 (Sc)
   atom    1                 :    19.10227188     (  0.6478144243E-08)
   atom    2                 :    19.10227188     (  0.6478144243E-08)
 total in muffin-tins        :    38.20454377    
 total calculated charge     :    41.99999935    
 total charge                :    42.00000000    
 error                       :   0.6538338653E-06
 
+------------------------------+
| Self-consistent loop stopped |
+------------------------------+
 
Wrote STATE.OUT
 
Timings (CPU seconds) :
 initialisation                        :         1.08
 Hamiltonian and overlap matrix set up :      1131.07
 first-variational eigenvalue equation :      1358.92
 charge density calculation            :       307.36
 potential calculation                 :       557.94
 total                                 :      3356.37
 
+----------------------------+
| Elk version 8.3.15 stopped |
+----------------------------+
