  0.5833053268    
  0.4924798989    
  0.2171870302    
  0.8284908335E-01
  0.2819924033E-01
  0.4084621313E-02
  0.1027466352E-02
  0.2454224799E-03
  0.1171465432E-03
  0.4774685784E-04
  0.7619292989E-04
  0.9404988466E-05
  0.1122900533E-04
  0.1075950434E-03
  0.2700696602E-04
  0.9647684935E-05
  0.2847130410E-04
  0.1199905564E-04
  0.5959483613E-03
  0.5096515653E-04
  0.6393044516E-04
  0.1230774845E-03
  0.4189265078E-04
  0.5381724002E-04
  0.1532285378E-03
  0.5680621855E-04
  0.2538736129E-03
  0.4626991086E-04
  0.1104172812E-03
  0.2397733970E-03
  0.2242977486E-03
  0.5741210392E-04
  0.4029379444E-04
  0.3812207042E-04
  0.4842754527E-04
  0.9384204912E-04
  0.3725716261E-04
  0.6337435583E-04
  0.8384320650E-04
  0.1147467800E-03
  0.3959224004E-04
  0.8990224019E-04
  0.3851946272E-04
  0.7452245656E-04
  0.1867311823E-04
  0.1249558469E-03
  0.3999815754E-04
  0.9570010176E-04
  0.3952367882E-04
