 
+----------------------------+
| Real-space lattice vectors |
+----------------------------+
 
vector a1 :    5.640156505      -3.256345877       0.000000000    
vector a2 :    0.000000000       6.512691753       0.000000000    
vector a3 :    0.000000000       0.000000000       9.807776450    
 
Stored column-wise as a matrix :
   5.640156505       0.000000000       0.000000000    
  -3.256345877       6.512691753       0.000000000    
   0.000000000       0.000000000       9.807776450    
 
Inverse of matrix :
  0.1773000446       0.000000000       0.000000000    
  0.8865002232E-01  0.1535463427       0.000000000    
   0.000000000       0.000000000      0.1019599096    
 
Unit cell volume :    360.2651367    
 
 
+----------------------------------+
| Reciprocal-space lattice vectors |
+----------------------------------+
 
vector b1 :    1.114009035       0.000000000       0.000000000    
vector b2 :   0.5570045177      0.9647601246       0.000000000    
vector b3 :    0.000000000       0.000000000      0.6406330057    
 
Stored column-wise as a matrix :
   1.114009035      0.5570045177       0.000000000    
   0.000000000      0.9647601246       0.000000000    
   0.000000000       0.000000000      0.6406330057    
 
Inverse of matrix :
  0.8976587876     -0.5182635428       0.000000000    
   0.000000000       1.036527085       0.000000000    
   0.000000000       0.000000000       1.560956103    
 
Brillouin zone volume :   0.6885212811    
